<?xml version="1.0" encoding="UTF-8" standalone="no"?>
<!-- Created with Inkscape (http://www.inkscape.org/) -->

<svg
   xmlns:dc="http://purl.org/dc/elements/1.1/"
   xmlns:cc="http://creativecommons.org/ns#"
   xmlns:rdf="http://www.w3.org/1999/02/22-rdf-syntax-ns#"
   xmlns:svg="http://www.w3.org/2000/svg"
   xmlns="http://www.w3.org/2000/svg"
   xmlns:xlink="http://www.w3.org/1999/xlink"
   xmlns:sodipodi="http://sodipodi.sourceforge.net/DTD/sodipodi-0.dtd"
   xmlns:inkscape="http://www.inkscape.org/namespaces/inkscape"
   width="400.00021"
   height="500.00024"
   id="svg2"
   sodipodi:version="0.32"
   inkscape:version="0.48.1 r9760"
   sodipodi:docname="bogdanco_Simple_anchor.svg"
   inkscape:export-filename="C:\Documents and Settings\bogdanco\Desktop\anchor clipart\vector\simple-anchor.png"
   inkscape:export-xdpi="90.000000"
   inkscape:export-ydpi="90.000000"
   version="1.1">
  <defs
     id="defs4">
    <linearGradient
       inkscape:collect="always"
       id="linearGradient11560">
      <stop
         style="stop-color:#218679;stop-opacity:1;"
         offset="0"
         id="stop11562" />
      <stop
         style="stop-color:#218679;stop-opacity:0;"
         offset="1"
         id="stop11564" />
    </linearGradient>
    <linearGradient
       inkscape:collect="always"
       xlink:href="#linearGradient11560"
       id="linearGradient11568"
       x1="239.81078"
       y1="220.59093"
       x2="415.20209"
       y2="338.30072"
       gradientUnits="userSpaceOnUse" />
    <linearGradient
       inkscape:collect="always"
       xlink:href="#linearGradient11560"
       id="linearGradient12313"
       gradientUnits="userSpaceOnUse"
       x1="239.81078"
       y1="220.59093"
       x2="415.20209"
       y2="338.30072"
       gradientTransform="translate(235.3655,-20.20305)" />
  </defs>
  <sodipodi:namedview
     id="base"
     pagecolor="#ffffff"
     bordercolor="#666666"
     borderopacity="1.0"
     inkscape:pageopacity="0.0"
     inkscape:pageshadow="2"
     inkscape:zoom="0.49497475"
     inkscape:cx="762.49779"
     inkscape:cy="362.67241"
     inkscape:document-units="px"
     inkscape:current-layer="layer1"
     inkscape:window-width="1280"
     inkscape:window-height="975"
     inkscape:window-x="-4"
     inkscape:window-y="26"
     showgrid="false"
     fit-margin-top="0"
     fit-margin-left="0"
     fit-margin-right="0"
     fit-margin-bottom="0"
     inkscape:window-maximized="0" />
  <metadata
     id="metadata7">
    <rdf:RDF>
      <cc:Work
         rdf:about="">
        <dc:format>image/svg+xml</dc:format>
        <dc:type
           rdf:resource="http://purl.org/dc/dcmitype/StillImage" />
        <dc:title>Simple anchor</dc:title>
        <dc:date>2008-05-12</dc:date>
        <dc:creator>
          <cc:Agent>
            <dc:title>Bogdan Costea</dc:title>
          </cc:Agent>
        </dc:creator>
        <dc:rights>
          <cc:Agent>
            <dc:title>public domain</dc:title>
          </cc:Agent>
        </dc:rights>
        <dc:publisher>
          <cc:Agent>
            <dc:title>http://www.gridpulse.com</dc:title>
          </cc:Agent>
        </dc:publisher>
        <dc:source>http://www.gridpulse.com</dc:source>
        <dc:subject>
          <rdf:Bag>
            <rdf:li>anchor</rdf:li>
            <rdf:li>sea</rdf:li>
          </rdf:Bag>
        </dc:subject>
        <cc:license
           rdf:resource="http://web.resource.org/cc/PublicDomain" />
      </cc:Work>
      <cc:License
         rdf:about="http://web.resource.org/cc/PublicDomain">
        <cc:permits
           rdf:resource="http://web.resource.org/cc/Reproduction" />
        <cc:permits
           rdf:resource="http://web.resource.org/cc/Distribution" />
        <cc:permits
           rdf:resource="http://web.resource.org/cc/DerivativeWorks" />
      </cc:License>
    </rdf:RDF>
  </metadata>
  <g
     inkscape:label="Layer 1"
     inkscape:groupmode="layer"
     id="layer1"
     transform="translate(-9.9999961,-12.361962)">
    <g
       id="g1312"
       transform="matrix(0.734535,0,0,0.926248,-61.36467,-155.1442)">
      <path
         id="path1363"
         d="m 361.59375,196.59375 c -7.47373,0.15661 -11.55291,4.51185 -9.09375,10.46875 3.13143,7.58543 20.34375,4.99699 20.34375,-3.0625 -10e-6,-4.1394 -2.57713,-6.52609 -7.84375,-7.21875 -1.1958,-0.15727 -2.33857,-0.20987 -3.40625,-0.1875 z m 1.3125,-15.75 c 20.5345,0 39.43984,22.27468 27.96875,32.9375 -4.35826,4.05116 -0.76279,24.14537 5.125,28.6875 2.30069,1.77486 22.36622,5.31349 44.625,7.875 37.86891,4.35791 41.11266,4.33282 50.3125,-0.71875 15.63107,-8.58287 21.28125,-3.0918 21.28125,20.6875 -10e-6,22.48719 -5.40996,28.77639 -18.96875,22.03125 -6.12389,-3.04648 -15.50606,-3.14395 -43.46875,-0.5 -43.14591,4.07957 -51.18562,6.64853 -54.03125,17.1875 -2.6937,9.97639 0.70949,161.66823 4.8125,214.21875 3.11476,39.89314 8.27353,62.6511 16.15625,71.34375 5.48737,6.05122 38.36939,15.06365 54.25,14.875 29.28637,-0.34794 64.36576,-20.11546 108.6875,-61.28125 5.40205,-5.01739 9.43675,-8.6394 13.4375,-12.21875 -17.26843,-4.87722 -42.81249,-7.59375 -42.8125,-7.59375 l 91.4375,-32.84375 c 0,0 -5.73662,97.50444 -8.59375,103.21875 -3.24229,3.51248 -8.56348,-24.92749 -17.4375,-43.71875 -1.39679,2.59328 -2.33889,4.64734 -4.0625,7.625 -43.7631,75.60373 -82.36323,106.1344 -141.4375,111.78125 -31.19195,2.98164 -68.76968,10.22271 -78.8125,15.21875 -3.68838,1.83489 -10.61281,9.58446 -15.40625,17.1875 -4.79343,7.60309 -10.67169,13.8125 -13.0625,13.8125 -2.39081,-3e-5 -8.26906,-6.20943 -13.0625,-13.8125 -4.79346,-7.60302 -11.74912,-15.35262 -15.4375,-17.1875 -10.04282,-4.99603 -47.58929,-12.23713 -78.78125,-15.21875 -55.92035,-5.34535 -93.55627,-33.49891 -134.53125,-100.5625 -7.61819,18.45203 -12.39836,42.06844 -15.375,38.84375 C 102.8616,607.00443 97.15625,509.5 97.15625,509.5 l 91.40625,32.875 c 0,0 -23.81088,2.49956 -41,7.0625 43.6434,40.26108 78.31242,59.68708 107.28125,60.03125 15.88061,0.18865 48.73135,-8.82376 54.21875,-14.875 7.88272,-8.69267 13.04149,-31.45058 16.15625,-71.34375 4.103,-52.55055 7.53746,-204.24237 4.84375,-214.21875 -2.84562,-10.53896 -10.88537,-13.10793 -54.03125,-17.1875 -27.96271,-2.64395 -37.34487,-2.54647 -43.46875,0.5 -13.55878,6.74513 -19,0.45595 -19,-22.03125 0,-23.77931 5.68146,-29.27037 21.3125,-20.6875 9.19988,5.05157 12.41235,5.07666 50.28125,0.71875 22.25876,-2.56151 42.35555,-6.10014 44.65625,-7.875 5.8878,-4.54213 9.48326,-24.63634 5.125,-28.6875 -11.4711,-10.66282 7.43425,-32.9375 27.96875,-32.9375 z"
         style="fill:#000000;fill-opacity:1"
         inkscape:connector-curvature="0" />
      <path
         sodipodi:nodetypes="csscccsssscccssssssscccsssscccsccc"
         style="fill:#1e1e1e;fill-opacity:1"
         d="m 355.16048,695.65614 c -3.1713,-4.9903 -9.18441,-11.15527 -13.36246,-13.69993 -9.77673,-5.95459 -45.80922,-13.42398 -80.97188,-16.78515 -58.90119,-5.63032 -94.89977,-33.99129 -138.29285,-108.95207 l -15.72944,-27.1723 33.00454,30.25685 c 46.55487,42.67917 78.05672,59.15784 113.60044,59.42471 23.30155,0.17493 54.44581,-8.00335 62.47527,-16.4056 15.02821,-15.72595 19.819,-58.24289 22.8976,-203.2098 2.37755,-111.95583 3.30169,-108.35622 -29.12394,-113.44014 -12.65603,-1.9843 -37.89851,-3.82365 -56.09441,-4.08745 l -33.08346,-0.47963 -0.0185,-11.89707 c -0.0158,-10.14161 0.83835,-11.56228 5.78862,-9.62812 12.49604,4.88241 21.13585,4.91502 62.19415,0.23475 47.55778,-5.42116 53.07862,-8.03996 56.48742,-26.79476 2.15457,-11.85423 2.44152,-12.06349 16.5419,-12.06349 14.10039,0 14.38734,0.20926 16.54191,12.06349 3.4088,18.7548 8.92964,21.3736 56.48743,26.79476 41.05829,4.68027 49.69809,4.64766 62.19414,-0.23475 4.95027,-1.93416 5.80442,-0.51349 5.78862,9.62812 l -0.0185,11.89707 -33.08346,0.47963 c -18.19591,0.2638 -43.4384,2.10315 -56.09442,4.08745 -32.42563,5.08392 -31.50149,1.48431 -29.12394,113.44014 3.0786,144.96691 7.86939,187.48385 22.8976,203.2098 8.02945,8.40225 39.17372,16.58053 62.47526,16.4056 35.54373,-0.26687 67.04559,-17.75569 113.60046,-60.43486 l 42.09588,-40.35838 -11.68881,26.16215 c -43.35683,74.89817 -92.4264,115.35182 -151.42484,121.1466 -58.31045,5.72724 -79.96784,12.2481 -92.01294,27.70424 l -9.18136,11.78143 -5.766,-9.07329 z"
         id="path1351"
         inkscape:connector-curvature="0" />
      <path
         sodipodi:nodetypes="ccccc"
         id="path5012"
         d="m 102.99011,516.18679 5.15933,77.9319 c 0,0 11.43823,-32.58709 18.28342,-45.02156 8.12838,-1.8213 42.63682,-8.04703 41.65177,-9.08169 -38.23585,-15.19419 -64.15908,-20.77431 -65.09452,-23.82865 z"
         style="fill:#1e1e1e;fill-opacity:1;fill-rule:evenodd;stroke:none"
         inkscape:connector-curvature="0" />
      <path
         sodipodi:nodetypes="ccccc"
         id="path5740"
         d="m 635.5727,503.26181 -4.42607,77.97699 c 0,0 -11.74425,-32.47807 -18.70609,-44.84759 -8.14516,-1.74477 -42.71063,-7.64563 -41.73535,-8.68951 38.09124,-15.55317 63.96083,-21.37688 64.86751,-24.43989 z"
         style="fill:#1e1e1e;fill-opacity:1;fill-rule:evenodd;stroke:none"
         inkscape:connector-curvature="0" />
    </g>
  </g>
</svg>
