<?xml version="1.0" encoding="UTF-8" standalone="no"?>
<!-- Creator: Corel DESIGNER -->

<svg
   xmlns:dc="http://purl.org/dc/elements/1.1/"
   xmlns:cc="http://creativecommons.org/ns#"
   xmlns:rdf="http://www.w3.org/1999/02/22-rdf-syntax-ns#"
   xmlns:svg="http://www.w3.org/2000/svg"
   xmlns="http://www.w3.org/2000/svg"
   xmlns:sodipodi="http://sodipodi.sourceforge.net/DTD/sodipodi-0.dtd"
   xmlns:inkscape="http://www.inkscape.org/namespaces/inkscape"
   xml:space="preserve"
   width="287.60825"
   height="250.94215"
   style="fill-rule:evenodd"
   viewBox="0 0 7.657953 8.566245"
   id="svg2"
   sodipodi:version="0.32"
   inkscape:version="0.48.1 r9760"
   sodipodi:docname="JicJac_Various_Clothing_5.svg"
   inkscape:output_extension="org.inkscape.output.svg.inkscape"
   version="1.0"><metadata
   id="metadata144"><rdf:RDF><cc:Work
       rdf:about=""><dc:format>image/svg+xml</dc:format><dc:type
         rdf:resource="http://purl.org/dc/dcmitype/StillImage" /></cc:Work></rdf:RDF></metadata><sodipodi:namedview
   inkscape:window-height="744"
   inkscape:window-width="1280"
   inkscape:pageshadow="2"
   inkscape:pageopacity="0.0"
   guidetolerance="10.0"
   gridtolerance="10.0"
   objecttolerance="10.0"
   borderopacity="1.0"
   bordercolor="#666666"
   pagecolor="#ffffff"
   id="base"
   showgrid="false"
   width="300px"
   borderlayer="true"
   inkscape:zoom="0.56592375"
   inkscape:cx="363.82443"
   inkscape:cy="331.74305"
   inkscape:window-x="-4"
   inkscape:window-y="-4"
   inkscape:current-layer="svg2"
   fit-margin-top="0"
   fit-margin-left="0"
   fit-margin-right="0"
   fit-margin-bottom="0"
   inkscape:window-maximized="0" />
 <defs
   id="defs4">
  <style
   type="text/css"
   id="style6">
   
    .str2 {stroke:black;stroke-width:0.00562512;stroke-linecap:round}
    .str7 {stroke:black;stroke-width:0.0058717;stroke-linecap:round}
    .str1 {stroke:black;stroke-width:0.00920054;stroke-linecap:round}
    .str4 {stroke:black;stroke-width:0.00959738;stroke-linecap:round}
    .str3 {stroke:white;stroke-width:0.0147332;stroke-linecap:round}
    .str6 {stroke:black;stroke-width:0.0153574;stroke-linecap:round}
    .str8 {stroke:white;stroke-width:0.0153574;stroke-linecap:round}
    .str0 {stroke:black;stroke-width:0.0221537;stroke-linecap:round}
    .str5 {stroke:black;stroke-width:0.0230938;stroke-linecap:round}
    .fil0 {fill:none;fill-rule:nonzero}
   
  </style>
 
  <metadata
   id="CorelCorpID_0Corel-Layer" />
  
  
  
  
  
  
  
  
  
  
  
  
  
  
  
  
  
  
  
 </defs>
 <g
   id="_30309696"
   transform="matrix(3.1443336,0,0,3.1443336,-15.828386,-16.348491)">
   <path
   style="fill:none;stroke:#000000;stroke-width:0.0230938;stroke-linecap:round"
   d="m 7.44004,6.37524 c 0.150653,0.030133 0.173242,0.097916 0.256113,0.150642 0.082855,0.052734 0.067794,0.015072 0.090383,0.00754 M 7.44004,6.375237 C 7.590693,6.40537 7.613282,6.473153 7.696153,6.525879 7.779008,6.578613 7.763947,6.540951 7.786536,6.533419 M 6.675856,7.114143 6.055563,7.649042 m 0,0 C 6.146848,7.70811 6.200533,7.692005 6.216642,7.783274 6.232747,7.874555 6.270343,7.901402 6.281081,7.912139 M 6.644895,7.142688 c 0.05691,0.041048 0.140921,0.044608 0.15703,0.135889 0.016105,0.09127 0.053701,0.118116 0.064439,0.128854 M 6.329862,7.870086 C 6.319113,7.859348 6.281532,7.832506 6.265424,7.741221 6.249319,7.649951 6.192748,7.66455 6.104334,7.606989 M 6.378632,7.828033 C 6.367894,7.81728 6.330314,7.790453 6.314205,7.699168 6.298085,7.607899 6.238663,7.620987 6.153115,7.564936 M 6.427413,7.785965 C 6.416664,7.775227 6.379079,7.748385 6.362975,7.657115 6.34687,7.565834 6.284578,7.577427 6.201896,7.522883 M 6.476182,7.743912 C 6.465444,7.733178 6.427864,7.706332 6.411755,7.615062 6.395635,7.523781 6.330476,7.533864 6.250665,7.48083 M 6.524963,7.701863 C 6.514225,7.691125 6.476629,7.664279 6.460524,7.572998 6.444415,7.481728 6.37639,7.490305 6.299445,7.438762 M 6.573731,7.659795 C 6.562993,7.649073 6.525409,7.622226 6.509304,7.530945 6.493184,7.439675 6.422288,7.446757 6.348214,7.396709 M 6.622512,7.617742 C 6.611774,7.607004 6.574194,7.580162 6.558073,7.488892 6.541964,7.397607 6.468202,7.403194 6.396994,7.354656 M 6.671292,7.575689 C 6.660543,7.564951 6.622958,7.538109 6.606854,7.446839 6.590745,7.355554 6.514101,7.359634 6.445764,7.312603 M 6.720062,7.533636 C 6.709324,7.522898 6.67174,7.496056 6.655623,7.404771 6.639514,7.313502 6.560015,7.316071 6.494544,7.270554 M 6.768842,7.491583 C 6.758089,7.480834 6.720508,7.454003 6.704404,7.362718 6.688295,7.271448 6.605914,7.272512 6.543325,7.228486 M 6.817611,7.449519 C 6.806873,7.438781 6.769289,7.411935 6.753184,7.320665 6.737064,7.229384 6.651828,7.228948 6.592094,7.186433 M 6.915103,7.365358 C 6.904365,7.354605 6.866785,7.327774 6.85068,7.236493 6.84807,7.221744 6.84365,7.20935 6.837835,7.198774 M 6.988064,7.2716 C 6.832275,7.213754 6.749093,7.126957 6.640589,7.101648 6.532086,7.076327 6.430826,7.014836 6.307844,6.946129 6.184877,6.877422 6.094467,6.743609 5.996809,6.714671 5.899163,6.685736 5.844904,6.591708 5.819595,6.494062 5.794274,6.39642 5.830444,6.356636 5.631527,6.237283 5.432594,6.117934 5.215599,5.958801 5.143263,5.900939 5.070926,5.843077 4.872009,5.712883 4.846688,5.665867 4.821367,5.618851 4.763505,5.571823 4.727339,5.59353 4.691169,5.615237 4.651384,5.691176 4.745428,5.806911 4.839456,5.922646 5.103479,6.143243 5.157726,6.353018 5.211985,6.562785 5.251754,6.725521 5.353026,6.891885 5.454301,7.05825 5.845706,7.556882 6.055565,7.64905 M 4.727335,5.59353 C 4.93711,5.434412 4.980512,5.405474 5.07454,5.369319 5.16858,5.333152 5.226441,5.289751 5.313242,5.253584 5.400054,5.217417 5.349409,5.239121 5.544723,5.231893 c 0.195303,-0.00725 0.31827,-0.043402 0.434005,0 0.115735,0.043383 0.23147,0.101244 0.245945,0.231454 0.01446,0.130198 -1.54e-5,0.253165 0.057862,0.303795 0.057873,0.050626 0.094028,0.036166 0.159133,0.137426 0.065105,0.10126 0.188072,0.137426 0.274868,0.159122 0.086796,0.021703 0.151901,0.021691 0.253177,0.086796 0.10126,0.065105 0.361953,0.218043 0.470322,0.224754 m 0,0 -0.451975,0.896359 m 0,0 c 0.150653,0.030133 0.173258,0.097916 0.256113,0.150653 0.082859,0.052722 0.067798,0.015061 0.090403,0.00753 M 7.35836,7.382608 C 7.335759,7.390138 7.35083,7.427798 7.267961,7.375078 7.185106,7.322341 7.162513,7.254558 7.011848,7.224425 m 0.37031,0.111008 C 7.359557,7.342963 7.374618,7.380623 7.291759,7.327903 7.208889,7.275166 7.1863,7.207383 7.035635,7.17725 m 0.37031,0.111008 C 7.383341,7.295788 7.398405,7.333452 7.315546,7.280728 7.232687,7.227994 7.210087,7.160212 7.059433,7.130075 M 7.429732,7.241083 C 7.407128,7.248613 7.422202,7.286277 7.339329,7.233553 7.256474,7.180819 7.233885,7.113037 7.083216,7.082904 M 7.453515,7.193908 C 7.430914,7.201438 7.445985,7.239102 7.363128,7.186378 7.280273,7.133641 7.257669,7.065858 7.107004,7.035725 m 0.37031,0.111004 C 7.454713,7.154259 7.469774,7.191923 7.386915,7.139199 7.30406,7.086462 7.281456,7.018679 7.130802,6.988546 M 7.501101,7.09955 C 7.478496,7.10708 7.493571,7.144744 7.410702,7.09201 7.327843,7.039288 7.305254,6.97149 7.154589,6.941372 M 7.524888,7.052376 C 7.502295,7.059906 7.517358,7.09757 7.434501,7.044836 7.351631,6.992114 7.329042,6.924316 7.178373,6.894198 M 7.548687,7.00519 C 7.526083,7.01273 7.541147,7.050395 7.458284,6.99766 7.375429,6.944938 7.352825,6.87714 7.202175,6.847022 M 7.57247,6.958014 C 7.549869,6.965554 7.56494,7.003219 7.482071,6.950484 7.399216,6.897762 7.376627,6.829968 7.225958,6.799846 M 7.596257,6.910838 C 7.573653,6.918378 7.588727,6.956043 7.50587,6.903308 7.423015,6.850586 7.400411,6.782792 7.249757,6.75267 M 7.620056,6.863662 C 7.597452,6.871202 7.612516,6.908856 7.529657,6.856132 7.446798,6.803406 7.424198,6.735612 7.273544,6.705479 M 7.643843,6.816483 C 7.621238,6.824013 7.636313,6.861677 7.553456,6.808953 7.470586,6.756227 7.447997,6.688433 7.297332,6.6583 M 7.667627,6.769304 C 7.645038,6.776834 7.660097,6.814498 7.577244,6.761774 7.494385,6.709037 7.471785,6.641254 7.321131,6.611121 M 7.691426,6.722125 C 7.668825,6.729655 7.683886,6.767319 7.601027,6.714595 7.518172,6.661858 7.495568,6.594075 7.344914,6.563942 M 7.715213,6.674946 C 7.692609,6.682476 7.707683,6.72014 7.624814,6.667416 7.541955,6.614679 7.519366,6.546896 7.368701,6.516763 M 7.739,6.627767 C 7.716407,6.635297 7.73147,6.672961 7.648613,6.620237 7.565743,6.5675 7.543154,6.499717 7.3925,6.469584"
   class="fil0 str5"
   id="_30189872"
   inkscape:connector-curvature="0" />
   <path
   style="fill:none;stroke:#000000;stroke-width:0.0230938;stroke-linecap:round"
   d="M 7.76281,6.58057 C 7.740206,6.5881 7.75527,6.625764 7.672411,6.57304 7.589552,6.520303 7.566952,6.45252 7.416298,6.422387"
   class="fil0 str5"
   id="_30387360"
   inkscape:connector-curvature="0" />
   <path
   style="fill:none;stroke:#000000;stroke-width:0.0058717;stroke-linecap:round"
   d="M 6.18766,5.68916 C 6.150596,5.766987 6.135766,5.870759 6.098702,5.926351 M 6.146885,5.381546 C 6.080173,5.514965 6.050518,5.67433 6.006045,5.792931 5.961572,5.911521 5.957862,6.004177 5.909678,6.078294 M 6.174679,5.626146 C 6.142535,5.691983 6.127598,5.756437 6.10559,5.821041 6.085802,5.878548 6.075827,5.927313 6.051442,5.964327 M 6.180238,5.518675 C 6.136566,5.607036 6.101906,5.729078 6.072401,5.811674 6.044387,5.889543 6.036504,5.952934 6.004195,6.002316 M 6.161714,5.463083 C 6.106515,5.573979 6.07622,5.701704 6.039221,5.802297 6.002974,5.900525 5.997183,5.978556 5.956936,6.040305 M 6.112902,5.364867 C 6.054759,5.478972 6.024272,5.617489 5.982896,5.720513 5.942842,5.822251 5.937471,5.901638 5.897321,5.963403 M 6.078935,5.348192 C 6.029353,5.442983 5.99801,5.560648 5.959748,5.648096 5.924125,5.732993 5.917097,5.799104 5.884969,5.848524 M 6.044957,5.331514 C 6.003936,5.406975 5.971765,5.50382 5.936604,5.575694 5.905396,5.643719 5.896712,5.696565 5.872612,5.733633 M 6.010978,5.314839 C 5.978533,5.370986 5.945518,5.446979 5.913455,5.503277 5.886666,5.55445 5.876322,5.59403 5.860255,5.618738 M 5.9770127,5.29816 c -0.023884,0.036833 -0.057754,0.091978 -0.086704,0.13271 -0.022358,0.034306 -0.034375,0.06062 -0.042408,0.072976 m 0.09513,-0.222366 c -0.025933,0.029648 -0.107471,0.107475 -0.107471,0.107475 m 0.022239,1.00807 0.133416,-0.096367 m -0.1223,0.14084 c 0.00185,-9.247e-4 0.196879,-0.180119 0.208106,-0.203009 0.011242,-0.022886 0.015195,-0.023063 0.018894,-0.026773 m -0.215881,0.274256 c 0.0037,-0.00185 0.273319,-0.273265 0.289466,-0.314464 0.016136,-0.04121 0.023703,-0.041318 0.031127,-0.048738 m -0.309474,0.407675 c 0.00556,-0.00277 0.349775,-0.366411 0.370815,-0.42593 0.02104,-0.059507 0.032237,-0.059572 0.043356,-0.070692 m -0.121375,0.455858 -0.133431,0.163063 m 0.189948,-0.299268 c -0.0037,0.00371 -0.097742,0.114105 -0.108969,0.13936 -0.011239,0.025251 -0.116182,0.139534 -0.118043,0.140459 m 0.283541,-0.416024 c -0.00741,0.00742 -0.075041,0.08101 -0.091189,0.123795 -0.016136,0.04279 -0.22571,0.270915 -0.229405,0.272764 M 6.3535077,6.081081 C 6.3423887,6.0922 6.3011667,6.128995 6.2801267,6.189299 6.2590707,6.249607 5.9448967,6.591592 5.9393367,6.594381 M 5.9022687,6.574917 c 0.00741,-0.00371 0.426215,-0.459557 0.452163,-0.537384 0.025949,-0.077827 0.040774,-0.077827 0.055604,-0.092657 m 0.908033,0.455858 c -0.081537,0.11488 -0.18902,0.374309 -0.207548,0.455847 -0.01854,0.081537 -0.100077,0.25943 -0.14084,0.296494 m 0.298563,-0.777049 c -0.076455,0.108083 -0.171778,0.348549 -0.189432,0.430345 -0.017261,0.078605 -0.091119,0.242632 -0.130957,0.279996 m 0.270561,-0.735053 c -0.071373,0.101275 -0.154529,0.322782 -0.171312,0.404851 -0.015985,0.075677 -0.082177,0.225841 -0.121079,0.263491 m 0.242562,-0.69305 c -0.066288,0.094475 -0.13728,0.29701 -0.153196,0.379337 -0.014691,0.072757 -0.073231,0.209054 -0.111192,0.246989 m 0.21456,-0.651038 c -0.061206,0.087682 -0.120031,0.271243 -0.135076,0.353839 -0.013416,0.069836 -0.064277,0.192256 -0.101302,0.230491 m 0.18655,-0.609027 c -0.05612,0.080859 -0.102782,0.245471 -0.116956,0.328326 -0.01214,0.0669 -0.055334,0.175473 -0.09142,0.213994 m 0.158548,-0.567028 c -0.051035,0.074063 -0.085533,0.2197 -0.09884,0.302828 -0.010857,0.063965 -0.046388,0.158671 -0.081537,0.197488 m 0.130553,-0.525028 c -0.045956,0.067255 -0.068287,0.193932 -0.080709,0.27733 -0.0096,0.06104 -0.037446,0.141873 -0.07167,0.18099 m 0.102551,-0.483028 c -0.040871,0.060455 -0.051038,0.16816 -0.062593,0.251817 -0.00832,0.05812 -0.028499,0.125101 -0.061772,0.164504 m 0.074521,-0.441033 c -0.059299,0.088946 -0.014826,0.274259 -0.096367,0.374321 m -1.03865,-1.29531 C 5.7005427,5.291415 5.6808347,5.307551 5.6629077,5.345174 M 5.5507747,5.375388 C 5.5697727,5.348395 5.5958297,5.327393 5.6138267,5.314047 5.6310487,5.301583 5.6514497,5.280612 5.6826307,5.259664 M 5.4386387,5.40559 c 0.02868,-0.034444 0.071004,-0.062685 0.094953,-0.075897 0.023313,-0.012479 0.051065,-0.042204 0.09706,-0.067717 m -0.30413,0.173812 c 0.038343,-0.041876 0.096937,-0.077376 0.12685,-0.090453 0.029401,-0.012506 0.064508,-0.050969 0.125305,-0.081048 m -0.364288,0.201718 c 0.048018,-0.049339 0.122882,-0.092086 0.158752,-0.105028 0.035488,-0.012518 0.077962,-0.059734 0.153574,-0.094394 m -0.424462,0.229621 c 0.0577,-0.056771 0.148819,-0.106777 0.190669,-0.119595 0.04158,-0.012518 0.091393,-0.068476 0.181819,-0.107713 m -0.48462,0.257527 c 0.067374,-0.064238 0.174764,-0.121487 0.22257,-0.134167 0.047679,-0.012533 0.104847,-0.077241 0.210087,-0.121063 m -0.051975,0.00231 C 5.2507337,5.321875 5.1862257,5.395352 5.1324707,5.407897 5.0787007,5.420442 4.9550557,5.48495 4.8779877,5.55662 m 0.116482,0.188168 c 0.043021,-0.01434 0.064519,-0.010753 0.15053,-0.068095 m -0.092464,0.103938 c 0.051609,-0.023664 0.096055,-0.063082 0.173473,-0.11397 M 5.1105977,5.81647 c 0.060216,-0.032972 0.12759,-0.115407 0.196405,-0.159854 M 5.1686637,5.852301 C 5.2374787,5.810016 5.3277967,5.684576 5.3880087,5.646587 M 5.2267297,5.88814 C 5.3041327,5.836531 5.4173947,5.66809 5.4690027,5.636555 M 5.2847797,5.923983 C 5.3708017,5.863051 5.5070067,5.6516 5.5500117,5.62651 m -0.209316,0.341198 c 0.070965,-0.055916 0.183506,-0.227937 0.219345,-0.25088 M 5.3966117,6.011434 C 5.4525167,5.960531 5.5414087,5.827928 5.5700887,5.807146 M 5.4525157,6.05516 C 5.4933867,6.009284 5.5586147,5.9161 5.5801177,5.897464 m -0.071682,0.201422 c 0.02581,-0.040859 0.067386,-0.094614 0.081715,-0.111115"
   class="fil0 str7"
   id="_30386752"
   inkscape:connector-curvature="0" />
   <path
   style="fill:none;stroke:#000000;stroke-width:0.0058717;stroke-linecap:round"
   d="M 5.56435,6.1426 C 5.575099,6.106773 5.593015,6.092432 5.600193,6.078092 M 5.267979,6.580354 c 0,0 0.278444,-0.092264 0.368761,-0.189744 M 5.240412,6.523525 c 0,0 0.234325,-0.069832 0.307451,-0.150106 M 5.212848,6.466684 c 1.16e-5,0 0.190218,-0.047394 0.246122,-0.110476 M 5.185296,6.409843 c 0,0 0.146087,-0.02497 0.184781,-0.070842 M 5.157733,6.353014 c 0,0 0.101965,-0.00254 0.123468,-0.031204 m 0.01434,0.315384 c 0,0 0.322562,-0.114687 0.430087,-0.229378 M 5.818816,7.038589 C 5.768633,7.060092 5.632443,7.13894 5.632443,7.181945 M 5.301385,6.700111 c 0,-0.0043 0.331778,-0.123849 0.433554,-0.229212 M 5.329506,6.761044 c 0,-0.0086 0.318702,-0.131027 0.414756,-0.227066 m -0.386635,0.28331 c 0,-0.012899 0.305641,-0.133512 0.395958,-0.220243 M 5.392776,6.875882 c 0,-0.017207 0.285537,-0.138336 0.370121,-0.215754 M 5.434964,6.939153 c 0,-0.021503 0.258409,-0.147852 0.337257,-0.215947 M 5.474802,6.990723 c 0,-0.025814 0.233616,-0.145668 0.306727,-0.204439 M 5.514652,7.039938 c 0,-0.030106 0.208827,-0.141125 0.276201,-0.190572 m -0.238702,0.23041 c 0,-0.034417 0.186373,-0.127193 0.248025,-0.167344 M 5.598747,7.127481 c 0,-0.038709 0.154837,-0.121144 0.210742,-0.151971 m 0.783248,0.123005 c 0,0.00469 -0.473423,0.41246 -0.473423,0.41246 M 6.136498,7.422711 c 0,0 0.403105,-0.34685 0.403105,-0.351539 m -0.385914,0.26326 c 0,0 0.332799,-0.285906 0.332799,-0.290595 M 6.170869,7.246168 c 0,0 0.262501,-0.224989 0.262501,-0.229678 M 6.188065,7.157889 c 0,0 0.192175,-0.164042 0.192175,-0.168731 M 6.205245,7.069609 c 0,0 0.12188,-0.103109 0.12188,-0.107798 M 6.273995,6.934464 c 0,0.00469 -0.051555,0.046877 -0.051555,0.046877 M 4.70942,5.746221 4.834043,5.654231 M 4.691747,5.673314 4.784527,5.604838 M 4.75869,5.804707 4.888357,5.708995 M 4.816128,5.868768 4.94294,5.775171 M 4.886808,5.932825 5.032144,5.825559 M 4.961915,6.021175 5.080601,5.9336 M 5.054695,6.144873 5.131667,6.088071"
   class="fil0 str7"
   id="_30188528"
   inkscape:connector-curvature="0" />
   <path
   style="fill:none;stroke:#ffffff;stroke-width:0.0153574;stroke-linecap:round"
   d="M 5.60849,6.31723 C 5.734936,6.4709 5.737872,6.989756 5.826232,7.10462 M 5.561435,6.328985 c 0.126446,0.15367 0.129382,0.67253 0.217742,0.787394 M 5.499674,6.35545 C 5.62612,6.50912 5.629056,7.027991 5.717428,7.142855 m 1.0438,-0.67189 c 0.083348,0.144647 0.24025,0.612872 0.237804,0.696232 M 6.793102,6.429293 C 6.876446,6.57394 7.033352,7.042165 7.030906,7.125514 M 6.82987,6.314075 c 0.08336,0.144647 0.24025,0.612872 0.237804,0.696221"
   class="fil0 str8"
   id="_30189120"
   inkscape:connector-curvature="0" />
  </g>
</svg>