<?xml version="1.0" encoding="UTF-8" standalone="no"?>
<svg
   xmlns:dc="http://purl.org/dc/elements/1.1/"
   xmlns:cc="http://creativecommons.org/ns#"
   xmlns:rdf="http://www.w3.org/1999/02/22-rdf-syntax-ns#"
   xmlns:svg="http://www.w3.org/2000/svg"
   xmlns="http://www.w3.org/2000/svg"
   xmlns:sodipodi="http://sodipodi.sourceforge.net/DTD/sodipodi-0.dtd"
   xmlns:inkscape="http://www.inkscape.org/namespaces/inkscape"
   height="859.99603"
   viewBox="0 0 20300 28300"
   width="618.87402"
   id="svg2"
   sodipodi:version="0.32"
   inkscape:version="0.46"
   sodipodi:docname="blueman_204_01.svg"
   inkscape:output_extension="org.inkscape.output.svg.inkscape"
   version="1.0">
  <defs
     id="defs89">
    <inkscape:perspective
       sodipodi:type="inkscape:persp3d"
       inkscape:vp_x="0 : 501.37796 : 1"
       inkscape:vp_y="0 : 1000 : 0"
       inkscape:vp_z="719.29132 : 501.37796 : 1"
       inkscape:persp3d-origin="359.64566 : 334.25197 : 1"
       id="perspective91" />
  </defs>
  <sodipodi:namedview
     inkscape:window-height="480"
     inkscape:window-width="640"
     inkscape:pageshadow="2"
     inkscape:pageopacity="0.0"
     guidetolerance="10.0"
     gridtolerance="10.0"
     objecttolerance="10.0"
     borderopacity="1.0"
     bordercolor="#666666"
     pagecolor="#ffffff"
     id="base"
     showgrid="false" />
  <metadata
     id="metadata4">
    <rdf:RDF>
      <cc:Work
         rdf:about="">
        <dc:title>BlueMan#204</dc:title>
        <dc:description />
        <dc:subject>
          <rdf:Bag>
            <rdf:li />
            <rdf:li>people</rdf:li>
            <rdf:li>stickmen</rdf:li>
          </rdf:Bag>
        </dc:subject>
        <dc:publisher>
          <cc:Agent
             rdf:about="http://www.openclipart.org">
            <dc:title>Yutaka Kachi</dc:title>
          </cc:Agent>
        </dc:publisher>
        <dc:creator>
          <cc:Agent>
            <dc:title>Yutaka Kachi</dc:title>
          </cc:Agent>
        </dc:creator>
        <dc:rights>
          <cc:Agent>
            <dc:title>Yutaka Kachi</dc:title>
          </cc:Agent>
        </dc:rights>
        <dc:date />
        <dc:format>image/svg+xml</dc:format>
        <dc:type
           rdf:resource="http://purl.org/dc/dcmitype/StillImage" />
        <cc:license
           rdf:resource="http://web.resource.org/cc/PublicDomain" />
        <dc:language>en</dc:language>
      </cc:Work>
      <cc:License
         rdf:about="http://web.resource.org/cc/PublicDomain">
        <cc:permits
           rdf:resource="http://web.resource.org/cc/Reproduction" />
        <cc:permits
           rdf:resource="http://web.resource.org/cc/Distribution" />
        <cc:permits
           rdf:resource="http://web.resource.org/cc/DerivativeWorks" />
      </cc:License>
    </rdf:RDF>
  </metadata>
  <g
     style="fill:#000080;stroke:none"
     id="g6"
     transform="matrix(1.158114,0,0,1.158114,-733.08619,-2627.7614)">
    <polygon
       points="7767,8501 6949,8722 6934,8675 6918,8627 7740,8404 7767,8501 "
       id="polygon8" />
    <polygon
       points="6934,8675 6949,8722 6206,8966 6188,8920 6169,8873 6918,8627 6934,8675 "
       id="polygon10" />
    <polygon
       points="6188,8920 6206,8966 5531,9228 5511,9183 5490,9137 6169,8873 6188,8920 "
       id="polygon12" />
    <polygon
       points="5511,9183 5531,9228 4925,9506 4902,9462 4878,9417 5490,9137 5511,9183 "
       id="polygon14" />
    <polygon
       points="4902,9462 4925,9506 4381,9797 4355,9755 4328,9712 4878,9417 4902,9462 "
       id="polygon16" />
    <polygon
       points="4355,9755 4381,9797 3898,10098 3869,10058 3839,10017 4328,9712 4355,9755 "
       id="polygon18" />
    <polygon
       points="3869,10058 3898,10098 3471,10408 3439,10370 3406,10331 3839,10017 3869,10058 "
       id="polygon20" />
    <polygon
       points="3439,10370 3471,10408 3096,10722 3062,10687 3027,10651 3406,10331 3439,10370 "
       id="polygon22" />
    <polygon
       points="3062,10687 3096,10722 2771,11038 2734,11006 2696,10973 3027,10651 3062,10687 "
       id="polygon24" />
    <polygon
       points="2734,11006 2771,11038 2492,11356 2453,11326 2413,11295 2696,10973 2734,11006 "
       id="polygon26" />
    <polygon
       points="2453,11326 2492,11356 2257,11669 2215,11643 2172,11616 2413,11295 2453,11326 "
       id="polygon28" />
    <polygon
       points="2215,11643 2257,11669 2060,11978 2016,11955 1971,11931 2172,11616 2215,11643 "
       id="polygon30" />
    <polygon
       points="2016,11955 2060,11978 1899,12278 1854,12258 1808,12237 1971,11931 2016,11955 "
       id="polygon32" />
    <polygon
       points="1854,12258 1899,12278 1771,12567 1724,12551 1676,12534 1808,12237 1854,12258 "
       id="polygon34" />
    <polygon
       points="1724,12551 1771,12567 1671,12844 1623,12831 1574,12817 1676,12534 1724,12551 "
       id="polygon36" />
    <polygon
       points="1623,12831 1671,12844 1596,13104 1548,13094 1499,13083 1574,12817 1623,12831 "
       id="polygon38" />
    <polygon
       points="1548,13094 1596,13104 1545,13346 1496,13339 1446,13331 1499,13083 1548,13094 "
       id="polygon40" />
    <polygon
       points="1496,13339 1545,13346 1512,13566 1463,13562 1413,13557 1446,13331 1496,13339 "
       id="polygon42" />
    <polygon
       points="1463,13562 1512,13566 1494,13762 1445,13761 1395,13759 1413,13557 1463,13562 "
       id="polygon44" />
    <polygon
       points="1445,13761 1494,13762 1489,13932 1440,13934 1390,13935 1395,13759 1445,13761 "
       id="polygon46" />
    <polygon
       points="1440,13934 1489,13932 1493,14071 1444,14076 1394,14080 1390,13935 1440,13934 "
       id="polygon48" />
    <polygon
       points="1444,14076 1493,14071 1502,14179 1453,14187 1403,14194 1394,14080 1444,14076 "
       id="polygon50" />
    <polygon
       points="1453,14187 1502,14179 1512,14249 1464,14263 1415,14276 1403,14194 1453,14187 "
       id="polygon52" />
    <polygon
       points="1464,14263 1512,14249 1523,14288 1426,14315 1415,14276 1464,14263 "
       id="polygon54" />
  </g>
  <g
     style="fill:#0066cc;stroke:none"
     id="g56"
     transform="matrix(1.158114,0,0,1.158114,-733.08619,-2627.7614)">
    <polygon
       points="2527,14389 2526,14351 2522,14313 2516,14275 2508,14237 2497,14200 2484,14163 2468,14127 2450,14092 2430,14057 2408,14023 2384,13990 2357,13958 2329,13927 2299,13898 2266,13870 2232,13843 2197,13817 2160,13793 2121,13770 2081,13749 2040,13730 1997,13712 1953,13696 1909,13682 1863,13670 1817,13659 1771,13650 1723,13644 1676,13639 1628,13636 1580,13635 1580,13635 1532,13636 1484,13639 1437,13644 1389,13650 1343,13659 1297,13670 1251,13682 1207,13696 1163,13712 1120,13730 1079,13749 1039,13770 1000,13793 963,13817 928,13843 894,13870 861,13898 831,13927 803,13958 776,13990 752,14023 730,14057 710,14092 692,14127 676,14163 663,14200 652,14237 644,14275 638,14313 634,14351 633,14389 633,14389 634,14427 638,14465 644,14503 652,14541 663,14578 676,14615 692,14651 710,14686 730,14721 752,14755 776,14788 803,14820 831,14851 861,14880 894,14908 928,14935 963,14961 1000,14985 1039,15008 1079,15029 1120,15048 1163,15066 1207,15082 1251,15096 1297,15108 1343,15119 1389,15128 1437,15134 1484,15139 1532,15142 1580,15143 1580,15143 1628,15142 1676,15139 1723,15134 1771,15128 1817,15119 1863,15108 1909,15096 1953,15082 1997,15066 2040,15048 2081,15029 2121,15008 2160,14985 2197,14961 2232,14935 2266,14908 2299,14880 2329,14851 2357,14820 2384,14788 2408,14755 2430,14721 2450,14686 2468,14651 2484,14615 2497,14578 2508,14541 2516,14503 2522,14465 2526,14427 2527,14389 "
       id="polygon58" />
  </g>
  <g
     style="fill:#000080;stroke:none"
     id="g60"
     transform="matrix(1.158114,0,0,1.158114,-733.08619,-2627.7614)">
    <polygon
       points="8650,17379 10732,26107 10635,26130 8553,17402 8650,17379 "
       id="polygon62" />
  </g>
  <g
     style="fill:#0066cc;stroke:none"
     id="g64"
     transform="matrix(1.158114,0,0,1.158114,-733.08619,-2627.7614)">
    <polygon
       points="12739,25712 12737,25670 12731,25628 12721,25587 12708,25545 12690,25504 12669,25464 12643,25424 12614,25385 12582,25347 12546,25310 12506,25274 12464,25239 12417,25205 12368,25173 12316,25142 12261,25112 12203,25084 12143,25057 12080,25032 12015,25009 11948,24988 11879,24969 11808,24951 11736,24936 11662,24922 11587,24910 11511,24901 11435,24894 11357,24888 11280,24885 11202,24884 11202,24884 11124,24885 11047,24888 10969,24894 10893,24901 10817,24910 10742,24922 10668,24936 10596,24951 10525,24969 10456,24988 10389,25009 10324,25032 10261,25057 10201,25084 10143,25112 10088,25142 10036,25173 9987,25205 9940,25239 9898,25274 9858,25310 9822,25347 9790,25385 9761,25424 9735,25464 9714,25504 9696,25545 9683,25587 9673,25628 9667,25670 9665,25712 9665,25712 9667,25754 9673,25796 9683,25837 9696,25879 9714,25920 9735,25960 9761,26000 9790,26039 9822,26077 9858,26114 9898,26150 9940,26185 9987,26219 10036,26251 10088,26282 10143,26312 10201,26340 10261,26367 10324,26392 10389,26415 10456,26436 10525,26455 10596,26473 10668,26488 10742,26502 10817,26514 10893,26523 10969,26530 11047,26536 11124,26539 11202,26540 11202,26540 11280,26539 11357,26536 11435,26530 11511,26523 11587,26514 11662,26502 11736,26488 11808,26473 11879,26455 11948,26436 12015,26415 12080,26392 12143,26367 12203,26340 12261,26312 12316,26282 12368,26251 12417,26219 12464,26185 12506,26150 12546,26114 12582,26077 12614,26039 12643,26000 12669,25960 12690,25920 12708,25879 12721,25837 12731,25796 12737,25754 12739,25712 "
       id="polygon66" />
    <polygon
       points="5650,24300 5648,24269 5642,24238 5633,24207 5620,24176 5603,24145 5582,24115 5558,24086 5531,24057 5499,24028 5465,24001 5427,23974 5386,23948 5342,23922 5295,23898 5245,23875 5192,23853 5136,23832 5079,23812 5018,23794 4956,23776 4892,23761 4826,23746 4758,23733 4689,23721 4618,23711 4546,23703 4474,23696 4400,23690 4326,23686 4252,23684 4177,23683 4177,23683 4102,23684 4028,23686 3954,23690 3880,23696 3808,23703 3736,23711 3665,23721 3596,23733 3528,23746 3462,23761 3398,23776 3336,23794 3275,23812 3218,23832 3162,23853 3109,23875 3059,23898 3012,23922 2968,23948 2927,23974 2889,24001 2855,24028 2823,24057 2796,24086 2772,24115 2751,24145 2734,24176 2721,24207 2712,24238 2706,24269 2704,24300 2704,24300 2706,24331 2712,24362 2721,24393 2734,24424 2751,24455 2772,24485 2796,24514 2823,24543 2855,24572 2889,24599 2927,24626 2968,24652 3012,24678 3059,24702 3109,24725 3162,24747 3218,24768 3275,24788 3336,24806 3398,24824 3462,24839 3528,24854 3596,24867 3665,24879 3736,24889 3808,24897 3880,24904 3954,24910 4028,24914 4102,24916 4177,24917 4177,24917 4252,24916 4326,24914 4400,24910 4474,24904 4546,24897 4618,24889 4689,24879 4758,24867 4826,24854 4892,24839 4956,24824 5018,24806 5079,24788 5136,24768 5192,24747 5245,24725 5295,24702 5342,24678 5386,24652 5427,24626 5465,24599 5499,24572 5531,24543 5558,24514 5582,24485 5603,24455 5620,24424 5633,24393 5642,24362 5648,24331 5650,24300 "
       id="polygon68" />
  </g>
  <g
     style="fill:#000080;stroke:none"
     id="g70"
     transform="matrix(1.158114,0,0,1.158114,-733.08619,-2627.7614)">
    <polygon
       points="7608,17175 5182,23903 5087,23870 7513,17142 7608,17175 "
       id="polygon72" />
    <polygon
       points="8641,8550 11754,11446 11720,11483 11761,11511 11761,11511 11755,11518 11749,11523 11741,11528 11733,11531 11725,11532 11716,11532 11708,11531 11700,11528 11685,11519 8572,8623 8641,8550 "
       id="polygon74" />
    <polygon
       points="11720,11483 11678,11454 14917,6813 15000,6870 11761,11511 11720,11483 "
       id="polygon76" />
  </g>
  <g
     style="fill:#0066cc;stroke:none"
     id="g78"
     transform="matrix(1.158114,0,0,1.158114,-733.08619,-2627.7614)">
    <polygon
       points="16310,7020 16156,7281 15930,7477 15651,7599 15343,7636 15025,7581 14740,7435 14526,7223 14392,6963 14347,6676 14404,6382 14557,6120 14783,5924 15062,5802 15370,5764 15689,5820 15973,5965 16187,6178 16321,6438 16366,6725 16310,7020 "
       id="polygon80" />
    <polygon
       points="18099,7036 18023,7084 17859,7094 17619,7070 17318,7012 16971,6924 16593,6807 16221,6672 15893,6534 15622,6400 15420,6277 15300,6170 15275,6089 15350,6041 15515,6030 15755,6055 16055,6112 16402,6201 16781,6318 17152,6452 17480,6590 17751,6725 17953,6848 18073,6954 18099,7036 "
       id="polygon82" />
    <polygon
       points="10036,12919 10033,12677 10026,12435 10013,12195 9995,11956 9972,11720 9944,11487 9912,11258 9874,11033 9832,10813 9785,10598 9733,10389 9678,10187 9618,9992 9554,9804 9486,9624 9414,9453 9339,9291 9261,9138 9179,8994 9094,8861 9007,8738 8917,8626 8825,8525 8731,8435 8635,8356 8538,8290 8439,8235 8340,8192 8239,8162 8138,8143 8037,8137 8037,8137 7936,8143 7835,8162 7734,8192 7635,8235 7536,8290 7439,8356 7343,8435 7249,8525 7157,8626 7067,8738 6980,8861 6895,8994 6813,9138 6735,9291 6660,9453 6588,9624 6520,9804 6456,9992 6396,10187 6341,10389 6289,10598 6242,10813 6200,11033 6162,11258 6130,11487 6102,11720 6079,11956 6061,12195 6048,12435 6041,12677 6038,12919 6038,12919 6041,13161 6048,13403 6061,13643 6079,13882 6102,14118 6130,14351 6162,14580 6200,14805 6242,15025 6289,15240 6341,15449 6396,15651 6456,15846 6520,16034 6588,16214 6660,16385 6735,16547 6813,16700 6895,16844 6980,16977 7067,17100 7157,17212 7249,17313 7343,17403 7439,17482 7536,17548 7635,17603 7734,17646 7835,17676 7936,17695 8037,17701 8037,17701 8138,17695 8239,17676 8340,17646 8439,17603 8538,17548 8635,17482 8731,17403 8825,17313 8917,17212 9007,17100 9094,16977 9179,16844 9261,16700 9339,16547 9414,16385 9486,16214 9554,16034 9618,15846 9678,15651 9733,15449 9785,15240 9832,15025 9874,14805 9912,14580 9944,14351 9972,14118 9995,13882 10013,13643 10026,13403 10033,13161 10036,12919 "
       id="polygon84" />
    <polygon
       points="11637,5092 11633,4949 11621,4806 11600,4665 11572,4524 11535,4384 11491,4247 11438,4112 11378,3979 11311,3849 11236,3722 11154,3599 11065,3479 10969,3364 10867,3253 10759,3147 10644,3046 10525,2950 10399,2860 10269,2775 10134,2696 9995,2624 9851,2557 9704,2498 9554,2445 9401,2398 9246,2359 9088,2327 8929,2302 8769,2283 8608,2273 8446,2269 8446,2269 8284,2273 8123,2283 7963,2302 7804,2327 7646,2359 7491,2398 7338,2445 7188,2498 7041,2557 6897,2624 6758,2696 6623,2775 6493,2860 6367,2950 6248,3046 6133,3147 6025,3253 5923,3364 5827,3479 5738,3599 5656,3722 5581,3849 5514,3979 5454,4112 5401,4247 5357,4384 5320,4524 5292,4665 5271,4806 5259,4949 5255,5092 5255,5092 5259,5235 5271,5378 5292,5519 5320,5660 5357,5800 5401,5937 5454,6072 5514,6205 5581,6335 5656,6462 5738,6585 5827,6705 5923,6820 6025,6931 6133,7037 6248,7138 6367,7234 6493,7324 6623,7409 6758,7488 6897,7560 7041,7627 7188,7686 7338,7739 7491,7786 7646,7825 7804,7857 7963,7882 8123,7901 8284,7911 8446,7915 8446,7915 8608,7911 8769,7901 8929,7882 9088,7857 9246,7825 9401,7786 9554,7739 9704,7686 9851,7627 9995,7560 10134,7488 10269,7409 10399,7324 10525,7234 10644,7138 10759,7037 10867,6931 10969,6820 11065,6705 11154,6585 11236,6462 11311,6335 11378,6205 11438,6072 11491,5937 11535,5800 11572,5660 11600,5519 11621,5378 11633,5235 11637,5092 "
       id="polygon86" />
  </g>
</svg>
