<?xml version="1.0" encoding="UTF-8" standalone="no"?>
<svg
   xmlns:dc="http://purl.org/dc/elements/1.1/"
   xmlns:cc="http://creativecommons.org/ns#"
   xmlns:rdf="http://www.w3.org/1999/02/22-rdf-syntax-ns#"
   xmlns:svg="http://www.w3.org/2000/svg"
   xmlns="http://www.w3.org/2000/svg"
   xmlns:sodipodi="http://sodipodi.sourceforge.net/DTD/sodipodi-0.dtd"
   xmlns:inkscape="http://www.inkscape.org/namespaces/inkscape"
   height="857.01965"
   viewBox="0 0 20300 28300"
   width="522.77954"
   id="svg2"
   sodipodi:version="0.32"
   inkscape:version="0.46"
   sodipodi:docname="blueman_203_01.svg"
   inkscape:output_extension="org.inkscape.output.svg.inkscape"
   version="1.0">
  <defs
     id="defs89">
    <inkscape:perspective
       sodipodi:type="inkscape:persp3d"
       inkscape:vp_x="0 : 501.37796 : 1"
       inkscape:vp_y="0 : 1000 : 0"
       inkscape:vp_z="719.29132 : 501.37796 : 1"
       inkscape:persp3d-origin="359.64566 : 334.25197 : 1"
       id="perspective91" />
  </defs>
  <sodipodi:namedview
     inkscape:window-height="480"
     inkscape:window-width="640"
     inkscape:pageshadow="2"
     inkscape:pageopacity="0.0"
     guidetolerance="10.0"
     gridtolerance="10.0"
     objecttolerance="10.0"
     borderopacity="1.0"
     bordercolor="#666666"
     pagecolor="#ffffff"
     id="base"
     showgrid="false" />
  <metadata
     id="metadata4">
    <rdf:RDF>
      <cc:Work
         rdf:about="">
        <dc:title>BlueMan#203</dc:title>
        <dc:description />
        <dc:subject>
          <rdf:Bag>
            <rdf:li />
            <rdf:li>people</rdf:li>
            <rdf:li>stickmen</rdf:li>
          </rdf:Bag>
        </dc:subject>
        <dc:publisher>
          <cc:Agent
             rdf:about="http://www.openclipart.org">
            <dc:title>Yutaka Kachi</dc:title>
          </cc:Agent>
        </dc:publisher>
        <dc:creator>
          <cc:Agent>
            <dc:title>Yutaka Kachi</dc:title>
          </cc:Agent>
        </dc:creator>
        <dc:rights>
          <cc:Agent>
            <dc:title>Yutaka Kachi</dc:title>
          </cc:Agent>
        </dc:rights>
        <dc:date />
        <dc:format>image/svg+xml</dc:format>
        <dc:type
           rdf:resource="http://purl.org/dc/dcmitype/StillImage" />
        <cc:license
           rdf:resource="http://web.resource.org/cc/PublicDomain" />
        <dc:language>en</dc:language>
      </cc:Work>
      <cc:License
         rdf:about="http://web.resource.org/cc/PublicDomain">
        <cc:permits
           rdf:resource="http://web.resource.org/cc/Reproduction" />
        <cc:permits
           rdf:resource="http://web.resource.org/cc/Distribution" />
        <cc:permits
           rdf:resource="http://web.resource.org/cc/DerivativeWorks" />
      </cc:License>
    </rdf:RDF>
  </metadata>
  <g
     style="fill:#000080;stroke:none"
     id="g6"
     transform="matrix(1.3681208,0,0,1.3681208,-2039.7657,-5509.6561)">
    <polygon
       points="9477,8251 10297,8487 10281,8535 10264,8582 9450,8348 9477,8251 "
       id="polygon8" />
    <polygon
       points="10281,8535 10297,8487 11041,8747 11022,8794 11002,8840 10264,8582 10281,8535 "
       id="polygon10" />
    <polygon
       points="11022,8794 11041,8747 11712,9028 11690,9073 11667,9117 11002,8840 11022,8794 "
       id="polygon12" />
    <polygon
       points="11690,9073 11712,9028 12314,9326 12289,9370 12263,9413 11667,9117 11690,9073 "
       id="polygon14" />
    <polygon
       points="12289,9370 12314,9326 12851,9638 12823,9680 12794,9721 12263,9413 12289,9370 "
       id="polygon16" />
    <polygon
       points="12823,9680 12851,9638 13326,9963 13295,10003 13263,10042 12794,9721 12823,9680 "
       id="polygon18" />
    <polygon
       points="13295,10003 13326,9963 13743,10296 13709,10333 13674,10369 13263,10042 13295,10003 "
       id="polygon20" />
    <polygon
       points="13709,10333 13743,10296 14106,10634 14070,10668 14033,10701 13674,10369 13709,10333 "
       id="polygon22" />
    <polygon
       points="14070,10668 14106,10634 14418,10974 14379,11005 14339,11035 14033,10701 14070,10668 "
       id="polygon24" />
    <polygon
       points="14379,11005 14418,10974 14683,11313 14642,11341 14600,11368 14339,11035 14379,11005 "
       id="polygon26" />
    <polygon
       points="14642,11341 14683,11313 14904,11648 14861,11673 14817,11697 14600,11368 14642,11341 "
       id="polygon28" />
    <polygon
       points="14861,11673 14904,11648 15086,11977 15041,11998 14995,12018 14817,11697 14861,11673 "
       id="polygon30" />
    <polygon
       points="15041,11998 15086,11977 15232,12294 15186,12312 15139,12329 14995,12018 15041,11998 "
       id="polygon32" />
    <polygon
       points="15186,12312 15232,12294 15345,12598 15298,12613 15250,12627 15139,12329 15186,12312 "
       id="polygon34" />
    <polygon
       points="15298,12613 15345,12598 15429,12886 15381,12897 15332,12907 15250,12627 15298,12613 "
       id="polygon36" />
    <polygon
       points="15381,12897 15429,12886 15489,13154 15440,13162 15390,13169 15332,12907 15381,12897 "
       id="polygon38" />
    <polygon
       points="15440,13162 15489,13154 15527,13399 15478,13404 15428,13408 15390,13169 15440,13162 "
       id="polygon40" />
    <polygon
       points="15478,13404 15527,13399 15548,13618 15499,13620 15449,13621 15428,13408 15478,13404 "
       id="polygon42" />
    <polygon
       points="15499,13620 15548,13618 15555,13808 15506,13808 15456,13807 15449,13621 15499,13620 "
       id="polygon44" />
    <polygon
       points="15506,13808 15555,13808 15552,13966 15503,13963 15453,13959 15456,13807 15506,13808 "
       id="polygon46" />
    <polygon
       points="15503,13963 15552,13966 15543,14091 15494,14084 15444,14076 15453,13959 15503,13963 "
       id="polygon48" />
    <polygon
       points="15494,14084 15543,14091 15530,14177 15482,14166 15433,14154 15444,14076 15494,14084 "
       id="polygon50" />
    <polygon
       points="15482,14166 15530,14177 15520,14219 15423,14196 15433,14154 15482,14166 "
       id="polygon52" />
  </g>
  <g
     style="fill:#0066cc;stroke:none"
     id="g54"
     transform="matrix(1.3681208,0,0,1.3681208,-2039.7657,-5509.6561)">
    <polygon
       points="16306,14297 16305,14258 16301,14220 16296,14182 16287,14144 16277,14106 16264,14069 16250,14033 16232,13997 16213,13962 16192,13928 16169,13894 16143,13862 16116,13831 16087,13801 16056,13773 16024,13745 15990,13720 15954,13695 15917,13672 15879,13651 15839,13632 15798,13614 15757,13598 15714,13583 15671,13571 15626,13560 15582,13552 15536,13545 15491,13540 15445,13537 15399,13536 15399,13536 15353,13537 15307,13540 15262,13545 15216,13552 15172,13560 15127,13571 15084,13583 15041,13598 15000,13614 14959,13632 14919,13651 14881,13672 14844,13695 14808,13720 14774,13745 14742,13773 14711,13801 14682,13831 14655,13862 14629,13894 14606,13928 14585,13962 14566,13997 14548,14033 14534,14069 14521,14106 14511,14144 14502,14182 14497,14220 14493,14258 14492,14297 14492,14297 14493,14336 14497,14374 14502,14412 14511,14450 14521,14488 14534,14525 14548,14561 14566,14597 14585,14632 14606,14666 14629,14700 14655,14732 14682,14763 14711,14793 14742,14821 14774,14849 14808,14874 14844,14899 14881,14922 14919,14943 14959,14962 15000,14980 15041,14996 15084,15011 15127,15023 15172,15034 15216,15042 15262,15049 15307,15054 15353,15057 15399,15058 15399,15058 15445,15057 15491,15054 15536,15049 15582,15042 15626,15034 15671,15023 15714,15011 15757,14996 15798,14980 15839,14962 15879,14943 15917,14922 15954,14899 15990,14874 16024,14849 16056,14821 16087,14793 16116,14763 16143,14732 16169,14700 16192,14666 16213,14632 16232,14597 16250,14561 16264,14525 16277,14488 16287,14450 16296,14412 16301,14374 16305,14336 16306,14297 "
       id="polygon56" />
  </g>
  <g
     style="fill:#000080;stroke:none"
     id="g58"
     transform="matrix(1.3681208,0,0,1.3681208,-2039.7657,-5509.6561)">
    <polygon
       points="8968,17579 6467,26043 6372,26014 8873,17550 8968,17579 "
       id="polygon60" />
  </g>
  <g
     style="fill:#0066cc;stroke:none"
     id="g62"
     transform="matrix(1.3681208,0,0,1.3681208,-2039.7657,-5509.6561)">
    <polygon
       points="7651,25640 7649,25599 7642,25559 7630,25518 7613,25478 7592,25439 7566,25400 7536,25361 7501,25323 7462,25286 7419,25250 7371,25215 7320,25181 7264,25148 7205,25117 7142,25087 7076,25058 7006,25031 6934,25005 6858,24981 6780,24959 6699,24938 6616,24919 6531,24902 6444,24887 6356,24874 6265,24863 6174,24853 6082,24846 5989,24841 5896,24838 5802,24837 5802,24837 5708,24838 5615,24841 5522,24846 5430,24853 5339,24863 5248,24874 5160,24887 5073,24902 4988,24919 4905,24938 4824,24959 4746,24981 4670,25005 4598,25031 4528,25058 4462,25087 4399,25117 4340,25148 4284,25181 4233,25215 4185,25250 4142,25286 4103,25323 4068,25361 4038,25400 4012,25439 3991,25478 3974,25518 3962,25559 3955,25599 3953,25640 3953,25640 3955,25681 3962,25721 3974,25762 3991,25802 4012,25841 4038,25880 4068,25919 4103,25957 4142,25994 4185,26030 4233,26065 4284,26099 4340,26132 4399,26163 4462,26193 4528,26222 4598,26249 4670,26275 4746,26299 4824,26321 4905,26342 4988,26361 5073,26378 5160,26393 5248,26406 5339,26417 5430,26427 5522,26434 5615,26439 5708,26442 5802,26443 5802,26443 5896,26442 5989,26439 6082,26434 6174,26427 6265,26417 6356,26406 6444,26393 6531,26378 6616,26361 6699,26342 6780,26321 6858,26299 6934,26275 7006,26249 7076,26222 7142,26193 7205,26163 7264,26132 7320,26099 7371,26065 7419,26030 7462,25994 7501,25957 7536,25919 7566,25880 7592,25841 7613,25802 7630,25762 7642,25721 7649,25681 7651,25640 "
       id="polygon64" />
  </g>
  <g
     style="fill:#000080;stroke:none"
     id="g66"
     transform="matrix(1.3681208,0,0,1.3681208,-2039.7657,-5509.6561)">
    <polygon
       points="9962,17309 12787,23440 12696,23481 9871,17350 9962,17309 "
       id="polygon68" />
  </g>
  <g
     style="fill:#0066cc;stroke:none"
     id="g70"
     transform="matrix(1.3681208,0,0,1.3681208,-2039.7657,-5509.6561)">
    <polygon
       points="15568,23839 15566,23811 15559,23782 15548,23754 15533,23726 15513,23698 15489,23671 15461,23644 15429,23617 15393,23591 15353,23566 15309,23542 15261,23518 15210,23495 15155,23473 15097,23452 15036,23432 14971,23413 14904,23395 14834,23378 14762,23362 14687,23348 14610,23334 14531,23323 14451,23312 14369,23303 14285,23295 14201,23289 14115,23283 14029,23280 13943,23278 13856,23277 13856,23277 13769,23278 13683,23280 13597,23283 13511,23289 13427,23295 13343,23303 13261,23312 13181,23323 13102,23334 13025,23348 12950,23362 12878,23378 12808,23395 12741,23413 12676,23432 12615,23452 12557,23473 12502,23495 12451,23518 12403,23542 12359,23566 12319,23591 12283,23617 12251,23644 12223,23671 12199,23698 12179,23726 12164,23754 12153,23782 12146,23811 12144,23839 12144,23839 12146,23867 12153,23896 12164,23924 12179,23952 12199,23980 12223,24007 12251,24034 12283,24061 12319,24087 12359,24112 12403,24136 12451,24160 12502,24183 12557,24205 12615,24226 12676,24246 12741,24265 12808,24283 12878,24300 12950,24316 13025,24330 13102,24344 13181,24355 13261,24366 13343,24375 13427,24383 13511,24389 13597,24395 13683,24398 13769,24400 13856,24401 13856,24401 13943,24400 14029,24398 14115,24395 14201,24389 14285,24383 14369,24375 14451,24366 14531,24355 14610,24344 14687,24330 14762,24316 14834,24300 14904,24283 14971,24265 15036,24246 15097,24226 15155,24205 15210,24183 15261,24160 15309,24136 15353,24112 15393,24087 15429,24061 15461,24034 15489,24007 15513,23980 15533,23952 15548,23924 15559,23896 15566,23867 15568,23839 "
       id="polygon72" />
  </g>
  <g
     style="fill:#000080;stroke:none"
     id="g74"
     transform="matrix(1.3681208,0,0,1.3681208,-2039.7657,-5509.6561)">
    <polygon
       points="9206,8621 5732,11043 5732,11043 5725,11047 5717,11050 5709,11051 5701,11051 5692,11050 5684,11048 5677,11044 5665,11033 5704,11002 5675,10960 9149,8538 9206,8621 "
       id="polygon76" />
    <polygon
       points="5704,11002 5665,11033 3047,7800 3124,7737 5742,10970 5704,11002 "
       id="polygon78" />
  </g>
  <g
     style="fill:#0066cc;stroke:none"
     id="g80"
     transform="matrix(1.3681208,0,0,1.3681208,-2039.7657,-5509.6561)">
    <polygon
       points="3662,7396 3661,7347 3657,7298 3650,7250 3640,7202 3628,7154 3614,7107 3596,7061 3577,7015 3554,6971 3529,6927 3502,6885 3473,6844 3441,6805 3407,6767 3372,6730 3334,6696 3294,6663 3253,6632 3210,6603 3165,6576 3119,6551 3072,6529 3023,6508 2973,6490 2923,6474 2871,6461 2819,6450 2767,6441 2714,6435 2660,6431 2607,6430 2607,6430 2554,6431 2500,6435 2447,6441 2395,6450 2343,6461 2291,6474 2241,6490 2191,6508 2142,6529 2095,6551 2049,6576 2004,6603 1961,6632 1920,6663 1880,6696 1842,6730 1807,6767 1773,6805 1741,6844 1712,6885 1685,6927 1660,6971 1637,7015 1618,7061 1600,7107 1586,7154 1574,7202 1564,7250 1557,7298 1553,7347 1552,7396 1552,7396 1553,7445 1557,7494 1564,7542 1574,7590 1586,7638 1600,7685 1618,7731 1637,7777 1660,7821 1685,7865 1712,7907 1741,7948 1773,7987 1807,8025 1842,8062 1880,8096 1920,8129 1961,8160 2004,8189 2049,8216 2095,8241 2142,8263 2191,8284 2241,8302 2291,8318 2343,8331 2395,8342 2447,8351 2500,8357 2554,8361 2607,8362 2607,8362 2660,8361 2714,8357 2767,8351 2819,8342 2871,8331 2923,8318 2973,8302 3023,8284 3072,8263 3119,8241 3165,8216 3210,8189 3253,8160 3294,8129 3334,8096 3372,8062 3407,8025 3441,7987 3473,7948 3502,7907 3529,7865 3554,7821 3577,7777 3596,7731 3614,7685 3628,7638 3640,7590 3650,7542 3657,7494 3661,7445 3662,7396 "
       id="polygon82" />
    <polygon
       points="11377,13047 11375,12802 11367,12558 11355,12315 11338,12075 11316,11836 11289,11601 11258,11369 11222,11142 11181,10919 11136,10703 11087,10492 11034,10287 10977,10090 10915,9900 10850,9719 10782,9546 10710,9381 10635,9227 10556,9082 10475,8947 10392,8823 10306,8710 10218,8608 10128,8517 10036,8438 9943,8370 9848,8315 9753,8272 9657,8241 9560,8222 9463,8216 9463,8216 9366,8222 9269,8241 9173,8272 9078,8315 8983,8370 8890,8438 8798,8517 8708,8608 8620,8710 8534,8823 8451,8947 8370,9082 8291,9227 8216,9381 8144,9546 8076,9719 8011,9900 7949,10090 7892,10287 7839,10492 7790,10703 7745,10919 7704,11142 7668,11369 7637,11601 7610,11836 7588,12075 7571,12315 7559,12558 7551,12802 7549,13047 7549,13047 7551,13292 7559,13536 7571,13779 7588,14019 7610,14258 7637,14493 7668,14725 7704,14952 7745,15175 7790,15391 7839,15602 7892,15807 7949,16004 8011,16194 8076,16375 8144,16548 8216,16713 8291,16867 8370,17012 8451,17147 8534,17271 8620,17384 8708,17486 8798,17577 8890,17656 8983,17724 9078,17779 9173,17822 9269,17853 9366,17872 9463,17878 9463,17878 9560,17872 9657,17853 9753,17822 9848,17779 9943,17724 10036,17656 10128,17577 10218,17486 10306,17384 10392,17271 10475,17147 10556,17012 10635,16867 10710,16713 10782,16548 10850,16375 10915,16194 10977,16004 11034,15807 11087,15602 11136,15391 11181,15175 11222,14952 11258,14725 11289,14493 11316,14258 11338,14019 11355,13779 11367,13536 11375,13292 11377,13047 "
       id="polygon84" />
    <polygon
       points="9611,7743 9026,7639 8485,7456 7996,7203 7567,6887 7207,6517 6923,6103 6726,5652 6622,5174 6622,4678 6726,4191 6928,3744 7215,3342 7579,2992 8009,2702 8496,2479 9028,2328 9596,2256 10190,2272 10774,2375 11315,2557 11804,2811 12233,3127 12593,3496 12877,3911 13074,4361 13178,4839 13179,5337 13074,5823 12872,6270 12585,6672 12221,7021 11791,7311 11304,7535 10772,7686 10204,7758 9611,7743 "
       id="polygon86" />
  </g>
</svg>
