<?xml version="1.0" encoding="UTF-8" standalone="no"?>
<svg
   xmlns:dc="http://purl.org/dc/elements/1.1/"
   xmlns:cc="http://creativecommons.org/ns#"
   xmlns:rdf="http://www.w3.org/1999/02/22-rdf-syntax-ns#"
   xmlns:svg="http://www.w3.org/2000/svg"
   xmlns="http://www.w3.org/2000/svg"
   xmlns:sodipodi="http://sodipodi.sourceforge.net/DTD/sodipodi-0.dtd"
   xmlns:inkscape="http://www.inkscape.org/namespaces/inkscape"
   height="567.8504"
   viewBox="0 0 20300 28300"
   width="608.59839"
   id="svg2"
   sodipodi:version="0.32"
   inkscape:version="0.46"
   sodipodi:docname="blueman_207_01.svg"
   inkscape:output_extension="org.inkscape.output.svg.inkscape"
   version="1.0">
  <defs
     id="defs143">
    <inkscape:perspective
       sodipodi:type="inkscape:persp3d"
       inkscape:vp_x="0 : 501.37796 : 1"
       inkscape:vp_y="0 : 1000 : 0"
       inkscape:vp_z="719.29132 : 501.37796 : 1"
       inkscape:persp3d-origin="359.64566 : 334.25197 : 1"
       id="perspective145" />
  </defs>
  <sodipodi:namedview
     inkscape:window-height="480"
     inkscape:window-width="640"
     inkscape:pageshadow="2"
     inkscape:pageopacity="0.0"
     guidetolerance="10.0"
     gridtolerance="10.0"
     objecttolerance="10.0"
     borderopacity="1.0"
     bordercolor="#666666"
     pagecolor="#ffffff"
     id="base"
     showgrid="false" />
  <metadata
     id="metadata4">
    <rdf:RDF>
      <cc:Work
         rdf:about="">
        <dc:title>BlueMan#207</dc:title>
        <dc:description />
        <dc:subject>
          <rdf:Bag>
            <rdf:li />
            <rdf:li>people</rdf:li>
            <rdf:li>stickmen</rdf:li>
          </rdf:Bag>
        </dc:subject>
        <dc:publisher>
          <cc:Agent
             rdf:about="http://www.openclipart.org">
            <dc:title>Yutaka Kachi</dc:title>
          </cc:Agent>
        </dc:publisher>
        <dc:creator>
          <cc:Agent>
            <dc:title>Yutaka Kachi</dc:title>
          </cc:Agent>
        </dc:creator>
        <dc:rights>
          <cc:Agent>
            <dc:title>Yutaka Kachi</dc:title>
          </cc:Agent>
        </dc:rights>
        <dc:date />
        <dc:format>image/svg+xml</dc:format>
        <dc:type
           rdf:resource="http://purl.org/dc/dcmitype/StillImage" />
        <cc:license
           rdf:resource="http://web.resource.org/cc/PublicDomain" />
        <dc:language>en</dc:language>
      </cc:Work>
      <cc:License
         rdf:about="http://web.resource.org/cc/PublicDomain">
        <cc:permits
           rdf:resource="http://web.resource.org/cc/Reproduction" />
        <cc:permits
           rdf:resource="http://web.resource.org/cc/Distribution" />
        <cc:permits
           rdf:resource="http://web.resource.org/cc/DerivativeWorks" />
      </cc:License>
    </rdf:RDF>
  </metadata>
  <g
     style="fill:#000080;stroke:none"
     id="g6"
     transform="matrix(1.7367528,0,0,1.7367528,-7910.3287,-6772.4746)">
    <polygon
       points="8957,14033 12775,15105 12775,15105 12783,15108 12790,15113 12797,15118 12802,15124 12807,15132 12810,15140 12811,15148 12811,15156 12810,15165 12808,15173 12799,15187 12762,15154 12748,15202 8930,14130 8957,14033 "
       id="polygon8" />
    <polygon
       points="12762,15154 12799,15187 10871,17316 10796,17249 12724,15120 12762,15154 "
       id="polygon10" />
  </g>
  <g
     style="fill:#0066cc;stroke:none"
     id="g12"
     transform="matrix(1.7367528,0,0,1.7367528,-7910.3287,-6772.4746)">
    <polygon
       points="11659,18572 11338,18370 11072,18151 10869,17926 10737,17706 10686,17504 10724,17332 10850,17208 11050,17143 11308,17137 11608,17187 11937,17293 12280,17455 12599,17656 12865,17876 13068,18101 13200,18321 13252,18523 13215,18696 13088,18819 12888,18884 12630,18890 12329,18840 12000,18733 11659,18572 "
       id="polygon14" />
  </g>
  <g
     style="fill:#000080;stroke:none"
     id="g16"
     transform="matrix(1.7367528,0,0,1.7367528,-7910.3287,-6772.4746)">
    <polygon
       points="13237,8457 13317,9227 13268,9235 13218,9242 13138,8468 13237,8457 "
       id="polygon18" />
    <polygon
       points="13268,9235 13317,9227 13427,9908 13379,9920 13330,9931 13218,9242 13268,9235 "
       id="polygon20" />
    <polygon
       points="13379,9920 13427,9908 13563,10505 13516,10520 13468,10534 13330,9931 13379,9920 "
       id="polygon22" />
    <polygon
       points="13516,10520 13563,10505 13723,11024 13677,11043 13630,11061 13468,10534 13516,10520 "
       id="polygon24" />
    <polygon
       points="13677,11043 13723,11024 13901,11471 13857,11494 13812,11516 13630,11061 13677,11043 "
       id="polygon26" />
    <polygon
       points="13857,11494 13901,11471 14095,11848 14054,11876 14012,11903 13812,11516 13857,11494 "
       id="polygon28" />
    <polygon
       points="14054,11876 14095,11848 14301,12164 14263,12196 14224,12227 14012,11903 14054,11876 "
       id="polygon30" />
    <polygon
       points="14263,12196 14301,12164 14515,12422 14481,12459 14446,12495 14224,12227 14263,12196 "
       id="polygon32" />
    <polygon
       points="14481,12459 14515,12422 14735,12629 14706,12670 14676,12710 14446,12495 14481,12459 "
       id="polygon34" />
    <polygon
       points="14706,12670 14735,12629 14955,12790 14932,12834 14908,12877 14676,12710 14706,12670 "
       id="polygon36" />
    <polygon
       points="14932,12834 14955,12790 15175,12909 15157,12956 15138,13002 14908,12877 14932,12834 "
       id="polygon38" />
    <polygon
       points="15157,12956 15175,12909 15389,12993 15377,13042 15364,13090 15138,13002 15157,12956 "
       id="polygon40" />
    <polygon
       points="15377,13042 15389,12993 15596,13047 15589,13097 15581,13146 15364,13090 15377,13042 "
       id="polygon42" />
    <polygon
       points="15589,13097 15596,13047 15791,13076 15789,13126 15786,13175 15581,13146 15589,13097 "
       id="polygon44" />
    <polygon
       points="15789,13126 15791,13076 15971,13084 15974,13134 15976,13183 15786,13175 15789,13126 "
       id="polygon46" />
    <polygon
       points="15974,13134 15971,13084 16134,13076 16140,13126 16145,13175 15976,13183 15974,13134 "
       id="polygon48" />
    <polygon
       points="16140,13126 16134,13076 16273,13059 16283,13109 16292,13158 16145,13175 16140,13126 "
       id="polygon50" />
    <polygon
       points="16283,13109 16273,13059 16388,13037 16401,13086 16413,13134 16292,13158 16283,13109 "
       id="polygon52" />
    <polygon
       points="16401,13086 16388,13037 16474,13015 16490,13063 16505,13110 16413,13134 16401,13086 "
       id="polygon54" />
    <polygon
       points="16490,13063 16474,13015 16530,12997 16545,13045 16559,13092 16505,13110 16490,13063 "
       id="polygon56" />
    <polygon
       points="16545,13045 16530,12997 16550,12991 16579,13086 16559,13092 16545,13045 "
       id="polygon58" />
  </g>
  <g
     style="fill:#0066cc;stroke:none"
     id="g60"
     transform="matrix(1.7367528,0,0,1.7367528,-7910.3287,-6772.4746)">
    <polygon
       points="16463,13245 16404,12999 16425,12762 16519,12551 16678,12381 16896,12268 17144,12230 17389,12270 17614,12379 17802,12548 17936,12770 17994,13015 17973,13252 17879,13463 17720,13633 17503,13747 17254,13784 17009,13744 16784,13635 16596,13466 16463,13245 "
       id="polygon62" />
    <polygon
       points="8006,14180 7857,13896 7812,13532 7863,13101 8006,12615 8236,12087 8546,11528 8933,10952 9389,10370 9911,9796 10467,9263 11025,8802 11573,8418 12099,8117 12592,7902 13041,7780 13433,7755 13758,7832 14003,8017 14151,8300 14197,8664 14145,9094 14002,9580 13772,10108 13462,10667 13076,11243 12620,11825 12099,12400 11542,12932 10984,13393 10436,13777 9909,14078 9416,14293 8967,14415 8575,14440 8250,14364 8006,14180 "
       id="polygon64" />
  </g>
  <g
     style="fill:#000080;stroke:none"
     id="g66"
     transform="matrix(1.7367528,0,0,1.7367528,-7910.3287,-6772.4746)">
    <polygon
       points="13433,8034 12663,7323 12694,7284 12724,7244 13500,7961 13433,8034 "
       id="polygon68" />
    <polygon
       points="12694,7284 12663,7323 11933,6767 11959,6725 11984,6682 12724,7244 12694,7284 "
       id="polygon70" />
    <polygon
       points="11959,6725 11933,6767 11241,6353 11262,6308 11282,6262 11984,6682 11959,6725 "
       id="polygon72" />
    <polygon
       points="11262,6308 11241,6353 10591,6063 10606,6016 10620,5968 11282,6262 11262,6308 "
       id="polygon74" />
    <polygon
       points="10606,6016 10591,6063 9984,5884 9992,5835 9999,5785 10620,5968 10606,6016 "
       id="polygon76" />
    <polygon
       points="9992,5835 9984,5884 9420,5799 9421,5750 9421,5700 9999,5785 9992,5835 "
       id="polygon78" />
    <polygon
       points="9421,5750 9420,5799 8901,5795 8895,5746 8888,5696 9421,5700 9421,5750 "
       id="polygon80" />
    <polygon
       points="8895,5746 8901,5795 8428,5856 8416,5808 8403,5759 8888,5696 8895,5746 "
       id="polygon82" />
    <polygon
       points="8416,5808 8428,5856 8004,5968 7986,5922 7967,5875 8403,5759 8416,5808 "
       id="polygon84" />
    <polygon
       points="7986,5922 8004,5968 7628,6117 7605,6073 7581,6028 7967,5875 7986,5922 "
       id="polygon86" />
    <polygon
       points="7605,6073 7628,6117 7304,6286 7277,6245 7249,6203 7581,6028 7605,6073 "
       id="polygon88" />
    <polygon
       points="7277,6245 7304,6286 7031,6463 7001,6424 6970,6384 7249,6203 7277,6245 "
       id="polygon90" />
    <polygon
       points="7001,6424 7031,6463 6814,6632 6781,6595 6747,6557 6970,6384 7001,6424 "
       id="polygon92" />
    <polygon
       points="6781,6595 6814,6632 6654,6777 6618,6743 6581,6708 6747,6557 6781,6595 "
       id="polygon94" />
    <polygon
       points="6618,6743 6654,6777 6552,6884 6513,6854 6473,6823 6581,6708 6618,6743 "
       id="polygon96" />
    <polygon
       points="6513,6854 6552,6884 6507,6942 6428,6881 6473,6823 6513,6854 "
       id="polygon98" />
  </g>
  <g
     style="fill:#0066cc;stroke:none"
     id="g100"
     transform="matrix(1.7367528,0,0,1.7367528,-7910.3287,-6772.4746)">
    <polygon
       points="5935,7954 5742,7805 5608,7613 5540,7396 5541,7169 5618,6950 5762,6767 5952,6645 6172,6586 6404,6597 6633,6681 6825,6829 6959,7021 7027,7238 7026,7465 6951,7685 6806,7867 6615,7989 6395,8048 6162,8037 5935,7954 "
       id="polygon102" />
  </g>
  <g
     style="fill:#000080;stroke:none"
     id="g104"
     transform="matrix(1.7367528,0,0,1.7367528,-7910.3287,-6772.4746)">
    <polygon
       points="3179,17409 3876,17412 3883,17462 3889,17511 3178,17508 3179,17409 "
       id="polygon106" />
    <polygon
       points="3883,17462 3876,17412 4513,17324 4527,17373 4540,17421 3889,17511 3883,17462 "
       id="polygon108" />
    <polygon
       points="4527,17373 4513,17324 5092,17159 5113,17205 5133,17250 4540,17421 4527,17373 "
       id="polygon110" />
    <polygon
       points="5113,17205 5092,17159 5617,16929 5643,16972 5668,17014 5133,17250 5113,17205 "
       id="polygon112" />
    <polygon
       points="5643,16972 5617,16929 6086,16649 6117,16689 6147,16728 5668,17014 5643,16972 "
       id="polygon114" />
    <polygon
       points="6117,16689 6086,16649 6504,16330 6539,16367 6573,16403 6147,16728 6117,16689 "
       id="polygon116" />
    <polygon
       points="6539,16367 6504,16330 6871,15987 6909,16021 6946,16054 6573,16403 6539,16367 "
       id="polygon118" />
    <polygon
       points="6909,16021 6871,15987 7188,15634 7228,15665 7267,15695 6946,16054 6909,16021 "
       id="polygon120" />
    <polygon
       points="7228,15665 7188,15634 7458,15285 7500,15313 7541,15340 7267,15695 7228,15665 "
       id="polygon122" />
    <polygon
       points="7500,15313 7458,15285 7682,14951 7726,14977 7769,15002 7541,15340 7500,15313 "
       id="polygon124" />
    <polygon
       points="7726,14977 7682,14951 7861,14647 7906,14671 7950,14694 7769,15002 7726,14977 "
       id="polygon126" />
    <polygon
       points="7906,14671 7861,14647 7998,14388 8044,14410 8089,14431 7950,14694 7906,14671 "
       id="polygon128" />
    <polygon
       points="8044,14410 7998,14388 8093,14187 8140,14207 8186,14226 8089,14431 8044,14410 "
       id="polygon130" />
    <polygon
       points="8140,14207 8093,14187 8149,14056 8196,14075 8242,14093 8186,14226 8140,14207 "
       id="polygon132" />
    <polygon
       points="8196,14075 8149,14056 8168,14009 8261,14046 8242,14093 8196,14075 "
       id="polygon134" />
  </g>
  <g
     style="fill:#0066cc;stroke:none"
     id="g136"
     transform="matrix(1.7367528,0,0,1.7367528,-7910.3287,-6772.4746)">
    <polygon
       points="3348,18749 3213,19152 3041,19496 2844,19769 2632,19957 2416,20049 2207,20033 2026,19905 1892,19684 1808,19387 1776,19030 1800,18632 1883,18210 2017,17806 2189,17462 2386,17189 2599,17001 2815,16908 3025,16925 3204,17052 3338,17274 3422,17571 3454,17928 3430,18326 3348,18749 "
       id="polygon138" />
    <polygon
       points="18952,6384 18949,6264 18938,6145 18921,6026 18898,5909 18868,5792 18831,5677 18787,5564 18738,5453 18682,5344 18620,5238 18552,5135 18478,5035 18398,4939 18314,4846 18224,4757 18129,4673 18030,4593 17926,4517 17818,4446 17706,4380 17590,4320 17471,4264 17349,4214 17225,4170 17098,4131 16969,4098 16839,4071 16707,4050 16574,4035 16440,4026 16306,4023 16306,4023 16172,4026 16038,4035 15905,4050 15773,4071 15643,4098 15514,4131 15387,4170 15263,4214 15141,4264 15022,4320 14906,4380 14794,4446 14686,4517 14582,4593 14483,4673 14388,4757 14298,4846 14214,4939 14134,5035 14060,5135 13992,5238 13930,5344 13874,5453 13825,5564 13781,5677 13744,5792 13714,5909 13691,6026 13674,6145 13663,6264 13660,6384 13660,6384 13663,6504 13674,6623 13691,6742 13714,6859 13744,6976 13781,7091 13825,7204 13874,7315 13930,7424 13992,7530 14060,7633 14134,7733 14214,7829 14298,7922 14388,8011 14483,8095 14582,8175 14686,8251 14794,8322 14906,8388 15022,8448 15141,8504 15263,8554 15387,8598 15514,8637 15643,8670 15773,8697 15905,8718 16038,8733 16172,8742 16306,8745 16306,8745 16440,8742 16574,8733 16707,8718 16839,8697 16969,8670 17098,8637 17225,8598 17349,8554 17471,8504 17590,8448 17706,8388 17818,8322 17926,8251 18030,8175 18129,8095 18224,8011 18314,7922 18398,7829 18478,7733 18552,7633 18620,7530 18682,7424 18738,7315 18787,7204 18831,7091 18868,6976 18898,6859 18921,6742 18938,6623 18949,6504 18952,6384 "
       id="polygon140" />
  </g>
</svg>
