<?xml version="1.0" encoding="UTF-8" standalone="no"?>
<svg
   xmlns:dc="http://purl.org/dc/elements/1.1/"
   xmlns:cc="http://creativecommons.org/ns#"
   xmlns:rdf="http://www.w3.org/1999/02/22-rdf-syntax-ns#"
   xmlns:svg="http://www.w3.org/2000/svg"
   xmlns="http://www.w3.org/2000/svg"
   xmlns:sodipodi="http://sodipodi.sourceforge.net/DTD/sodipodi-0.dtd"
   xmlns:inkscape="http://www.inkscape.org/namespaces/inkscape"
   height="746.22046"
   viewBox="0 0 20300 28300"
   width="511.01575"
   id="svg2"
   sodipodi:version="0.32"
   inkscape:version="0.46"
   sodipodi:docname="blueman_305_01.svg"
   inkscape:output_extension="org.inkscape.output.svg.inkscape"
   version="1.0">
  <defs
     id="defs35">
    <inkscape:perspective
       sodipodi:type="inkscape:persp3d"
       inkscape:vp_x="0 : 501.37796 : 1"
       inkscape:vp_y="0 : 1000 : 0"
       inkscape:vp_z="719.29132 : 501.37796 : 1"
       inkscape:persp3d-origin="359.64566 : 334.25197 : 1"
       id="perspective37" />
  </defs>
  <sodipodi:namedview
     inkscape:window-height="480"
     inkscape:window-width="640"
     inkscape:pageshadow="2"
     inkscape:pageopacity="0.0"
     guidetolerance="10.0"
     gridtolerance="10.0"
     objecttolerance="10.0"
     borderopacity="1.0"
     bordercolor="#666666"
     pagecolor="#ffffff"
     id="base"
     showgrid="false" />
  <metadata
     id="metadata4">
    <rdf:RDF>
      <cc:Work
         rdf:about="">
        <dc:title>BlueMan#305</dc:title>
        <dc:description />
        <dc:subject>
          <rdf:Bag>
            <rdf:li />
            <rdf:li>people</rdf:li>
            <rdf:li>stickmen</rdf:li>
          </rdf:Bag>
        </dc:subject>
        <dc:publisher>
          <cc:Agent
             rdf:about="http://www.openclipart.org">
            <dc:title>Yutaka Kachi</dc:title>
          </cc:Agent>
        </dc:publisher>
        <dc:creator>
          <cc:Agent>
            <dc:title>Yutaka Kachi</dc:title>
          </cc:Agent>
        </dc:creator>
        <dc:rights>
          <cc:Agent>
            <dc:title>Yutaka Kachi</dc:title>
          </cc:Agent>
        </dc:rights>
        <dc:date />
        <dc:format>image/svg+xml</dc:format>
        <dc:type
           rdf:resource="http://purl.org/dc/dcmitype/StillImage" />
        <cc:license
           rdf:resource="http://web.resource.org/cc/PublicDomain" />
        <dc:language>en</dc:language>
      </cc:Work>
      <cc:License
         rdf:about="http://web.resource.org/cc/PublicDomain">
        <cc:permits
           rdf:resource="http://web.resource.org/cc/Reproduction" />
        <cc:permits
           rdf:resource="http://web.resource.org/cc/Distribution" />
        <cc:permits
           rdf:resource="http://web.resource.org/cc/DerivativeWorks" />
      </cc:License>
    </rdf:RDF>
  </metadata>
  <g
     style="fill:#000000;stroke:none"
     id="g6"
     transform="matrix(1.3911916,0,0,1.3911916,-5001.3338,-7233.7158)">
    <polygon
       points="11945,18251 10129,25203 10032,25178 11848,18226 11945,18251 "
       id="polygon8" />
    <polygon
       points="13082,18216 15883,23767 15794,23812 12993,18261 13082,18216 "
       id="polygon10" />
    <polygon
       points="11876,11118 8763,13660 8763,13660 8757,13665 8749,13668 8742,13670 8734,13671 8726,13671 8718,13670 8711,13667 8704,13663 8692,13652 8732,13622 8700,13583 11813,11041 11876,11118 "
       id="polygon12" />
    <polygon
       points="8732,13622 8692,13652 5787,9916 5866,9855 8771,13591 8732,13622 "
       id="polygon14" />
    <polygon
       points="13323,10881 17370,13371 17370,13371 17376,13376 17382,13381 17386,13388 17390,13395 17392,13403 17393,13411 17393,13419 17389,13434 17344,13414 17317,13456 13270,10966 13323,10881 "
       id="polygon16" />
    <polygon
       points="17344,13414 17389,13434 16248,15924 16157,15883 17298,13393 17344,13414 "
       id="polygon18" />
  </g>
  <g
     style="fill:#0066cc;stroke:none"
     id="g20"
     transform="matrix(1.3911916,0,0,1.3911916,-5001.3338,-7233.7158)">
    <polygon
       points="12218,10040 11675,9973 11167,9829 10704,9615 10292,9340 9941,9011 9658,8635 9453,8221 9332,7777 9305,7309 9375,6845 9536,6413 9779,6020 10095,5672 10474,5377 10909,5140 11390,4970 11909,4873 12456,4857 12998,4923 13506,5067 13969,5281 14381,5556 14732,5885 15014,6261 15220,6675 15341,7119 15369,7588 15298,8051 15137,8483 14894,8876 14578,9224 14199,9519 13764,9756 13283,9926 12764,10023 12218,10040 "
       id="polygon22" />
    <polygon
       points="14542,14893 14540,14676 14532,14460 14520,14245 14503,14031 14482,13820 14455,13612 14424,13407 14389,13205 14348,13008 14304,12816 14255,12629 14203,12448 14146,12273 14085,12105 14021,11944 13953,11791 13882,11646 13807,11508 13730,11380 13650,11261 13567,11151 13482,11050 13395,10960 13306,10879 13215,10809 13123,10750 13029,10701 12935,10662 12840,10635 12744,10618 12648,10613 12648,10613 12552,10618 12456,10635 12361,10662 12267,10701 12173,10750 12081,10809 11990,10879 11901,10960 11814,11050 11729,11151 11646,11261 11566,11380 11489,11508 11414,11646 11343,11791 11275,11944 11211,12105 11150,12273 11093,12448 11041,12629 10992,12816 10948,13008 10907,13205 10872,13407 10841,13612 10814,13820 10793,14031 10776,14245 10764,14460 10756,14676 10754,14893 10754,14893 10756,15110 10764,15326 10776,15541 10793,15755 10814,15966 10841,16174 10872,16379 10907,16581 10948,16778 10992,16970 11041,17157 11093,17338 11150,17513 11211,17681 11275,17842 11343,17995 11414,18140 11489,18278 11566,18406 11646,18525 11729,18635 11814,18736 11901,18826 11990,18907 12081,18977 12173,19036 12267,19085 12361,19124 12456,19151 12552,19168 12648,19173 12648,19173 12744,19168 12840,19151 12935,19124 13029,19085 13123,19036 13215,18977 13306,18907 13395,18826 13482,18736 13567,18635 13650,18525 13730,18406 13807,18278 13882,18140 13953,17995 14021,17842 14085,17681 14146,17513 14203,17338 14255,17157 14304,16970 14348,16778 14389,16581 14424,16379 14455,16174 14482,15966 14503,15755 14520,15541 14532,15326 14540,15110 14542,14893 "
       id="polygon24" />
    <polygon
       points="6085,9964 6083,9921 6079,9877 6071,9834 6060,9792 6045,9749 6028,9708 6008,9667 5984,9626 5958,9587 5929,9549 5897,9511 5862,9475 5825,9440 5785,9406 5742,9374 5698,9344 5651,9315 5602,9287 5551,9261 5499,9238 5444,9216 5388,9195 5331,9177 5272,9161 5213,9147 5152,9135 5091,9126 5029,9118 4966,9112 4903,9109 4840,9108 4840,9108 4777,9109 4714,9112 4651,9118 4589,9126 4528,9135 4467,9147 4408,9161 4349,9177 4292,9195 4236,9216 4181,9238 4129,9261 4078,9287 4029,9315 3982,9344 3938,9374 3895,9406 3855,9440 3818,9475 3783,9511 3751,9549 3722,9587 3696,9626 3672,9667 3652,9708 3635,9749 3620,9792 3609,9834 3601,9877 3597,9921 3595,9964 3595,9964 3597,10007 3601,10051 3609,10094 3620,10136 3635,10179 3652,10220 3672,10261 3696,10302 3722,10341 3751,10379 3783,10417 3818,10453 3855,10488 3895,10522 3938,10554 3982,10584 4029,10613 4078,10641 4129,10667 4181,10690 4236,10712 4292,10733 4349,10751 4408,10767 4467,10781 4528,10793 4589,10802 4651,10810 4714,10816 4777,10819 4840,10820 4840,10820 4903,10819 4966,10816 5029,10810 5091,10802 5152,10793 5213,10781 5272,10767 5331,10751 5388,10733 5444,10712 5499,10690 5551,10667 5602,10641 5651,10613 5698,10584 5742,10554 5785,10522 5825,10488 5862,10453 5897,10417 5929,10379 5958,10341 5984,10302 6008,10261 6028,10220 6045,10179 6060,10136 6071,10094 6079,10051 6083,10007 6085,9964 "
       id="polygon26" />
    <polygon
       points="16772,16137 16770,16094 16766,16050 16758,16007 16747,15965 16732,15922 16715,15881 16695,15840 16671,15799 16645,15760 16616,15722 16584,15684 16549,15648 16512,15613 16472,15579 16429,15547 16385,15517 16338,15488 16289,15460 16238,15434 16186,15411 16131,15389 16075,15368 16018,15350 15959,15334 15900,15320 15839,15308 15778,15299 15716,15291 15653,15285 15590,15282 15527,15281 15527,15281 15464,15282 15401,15285 15338,15291 15276,15299 15215,15308 15154,15320 15095,15334 15036,15350 14979,15368 14923,15389 14868,15411 14816,15434 14765,15460 14716,15488 14669,15517 14625,15547 14582,15579 14542,15613 14505,15648 14470,15684 14438,15722 14409,15760 14383,15799 14359,15840 14339,15881 14322,15922 14307,15965 14296,16007 14288,16050 14284,16094 14282,16137 14282,16137 14284,16180 14288,16224 14296,16267 14307,16309 14322,16352 14339,16393 14359,16434 14383,16475 14409,16514 14438,16552 14470,16590 14505,16626 14542,16661 14582,16695 14625,16727 14669,16757 14716,16786 14765,16814 14816,16840 14868,16863 14923,16885 14979,16906 15036,16924 15095,16940 15154,16954 15215,16966 15276,16975 15338,16983 15401,16989 15464,16992 15527,16993 15527,16993 15590,16992 15653,16989 15716,16983 15778,16975 15839,16966 15900,16954 15959,16940 16018,16924 16075,16906 16131,16885 16186,16863 16238,16840 16289,16814 16338,16786 16385,16757 16429,16727 16472,16695 16512,16661 16549,16626 16584,16590 16616,16552 16645,16514 16671,16475 16695,16434 16715,16393 16732,16352 16747,16309 16758,16267 16766,16224 16770,16180 16772,16137 "
       id="polygon28" />
    <polygon
       points="10443,25165 10441,25127 10436,25089 10427,25051 10414,25014 10397,24977 10378,24940 10354,24904 10327,24868 10297,24834 10264,24800 10227,24767 10187,24735 10145,24705 10099,24675 10051,24647 9999,24620 9946,24594 9890,24570 9832,24548 9771,24527 9709,24507 9645,24490 9579,24474 9512,24460 9444,24447 9374,24437 9304,24428 9233,24422 9161,24417 9089,24414 9017,24413 9017,24413 8945,24414 8873,24417 8801,24422 8730,24428 8660,24437 8590,24447 8522,24460 8455,24474 8389,24490 8325,24507 8263,24527 8202,24548 8144,24570 8088,24594 8035,24620 7983,24647 7935,24675 7889,24705 7847,24735 7807,24767 7770,24800 7737,24834 7707,24868 7680,24904 7656,24940 7637,24977 7620,25014 7607,25051 7598,25089 7593,25127 7591,25165 7591,25165 7593,25203 7598,25241 7607,25279 7620,25316 7637,25353 7656,25390 7680,25426 7707,25462 7737,25496 7770,25530 7807,25563 7847,25595 7889,25625 7935,25655 7983,25683 8035,25710 8088,25736 8144,25760 8202,25782 8263,25803 8325,25823 8389,25840 8455,25856 8522,25870 8590,25883 8660,25893 8730,25902 8801,25908 8873,25913 8945,25916 9017,25917 9017,25917 9089,25916 9161,25913 9233,25908 9304,25902 9374,25893 9444,25883 9512,25870 9579,25856 9645,25840 9709,25823 9771,25803 9832,25782 9890,25760 9946,25736 9999,25710 10051,25683 10099,25655 10145,25625 10187,25595 10227,25563 10264,25530 10297,25496 10327,25462 10354,25426 10378,25390 10397,25353 10414,25316 10427,25279 10436,25241 10441,25203 10443,25165 "
       id="polygon30" />
    <polygon
       points="18017,23712 18015,23674 18010,23636 18001,23598 17988,23561 17971,23524 17952,23487 17928,23451 17901,23415 17871,23381 17838,23347 17801,23314 17761,23282 17719,23252 17673,23222 17625,23194 17573,23167 17520,23141 17464,23117 17406,23095 17345,23074 17283,23054 17219,23037 17153,23021 17086,23007 17018,22994 16948,22984 16878,22975 16807,22969 16735,22964 16663,22961 16591,22960 16591,22960 16519,22961 16447,22964 16375,22969 16304,22975 16234,22984 16164,22994 16096,23007 16029,23021 15963,23037 15899,23054 15837,23074 15776,23095 15718,23117 15662,23141 15609,23167 15557,23194 15509,23222 15463,23252 15421,23282 15381,23314 15344,23347 15311,23381 15281,23415 15254,23451 15230,23487 15211,23524 15194,23561 15181,23598 15172,23636 15167,23674 15165,23712 15165,23712 15167,23750 15172,23788 15181,23826 15194,23863 15211,23900 15230,23937 15254,23973 15281,24009 15311,24043 15344,24077 15381,24110 15421,24142 15463,24172 15509,24202 15557,24230 15609,24257 15662,24283 15718,24307 15776,24329 15837,24350 15899,24370 15963,24387 16029,24403 16096,24417 16164,24430 16234,24440 16304,24449 16375,24455 16447,24460 16519,24463 16591,24464 16591,24464 16663,24463 16735,24460 16807,24455 16878,24449 16948,24440 17018,24430 17086,24417 17153,24403 17219,24387 17283,24370 17345,24350 17406,24329 17464,24307 17520,24283 17573,24257 17625,24230 17673,24202 17719,24172 17761,24142 17801,24110 17838,24077 17871,24043 17901,24009 17928,23973 17952,23937 17971,23900 17988,23863 18001,23826 18010,23788 18015,23750 18017,23712 "
       id="polygon32" />
  </g>
</svg>
