<?xml version="1.0" encoding="UTF-8" standalone="no"?>
<svg
   xmlns:dc="http://purl.org/dc/elements/1.1/"
   xmlns:cc="http://creativecommons.org/ns#"
   xmlns:rdf="http://www.w3.org/1999/02/22-rdf-syntax-ns#"
   xmlns:svg="http://www.w3.org/2000/svg"
   xmlns="http://www.w3.org/2000/svg"
   xmlns:sodipodi="http://sodipodi.sourceforge.net/DTD/sodipodi-0.dtd"
   xmlns:inkscape="http://www.inkscape.org/namespaces/inkscape"
   height="811.16925"
   viewBox="0 0 20300 28300"
   width="435.96851"
   id="svg2"
   sodipodi:version="0.32"
   inkscape:version="0.46"
   sodipodi:docname="blueman_105_02.svg"
   inkscape:output_extension="org.inkscape.output.svg.inkscape"
   version="1.0">
  <defs
     id="defs251">
    <inkscape:perspective
       sodipodi:type="inkscape:persp3d"
       inkscape:vp_x="0 : 501.37796 : 1"
       inkscape:vp_y="0 : 1000 : 0"
       inkscape:vp_z="719.29132 : 501.37796 : 1"
       inkscape:persp3d-origin="359.64566 : 334.25197 : 1"
       id="perspective253" />
  </defs>
  <sodipodi:namedview
     inkscape:window-height="480"
     inkscape:window-width="640"
     inkscape:pageshadow="2"
     inkscape:pageopacity="0.0"
     guidetolerance="10.0"
     gridtolerance="10.0"
     objecttolerance="10.0"
     borderopacity="1.0"
     bordercolor="#666666"
     pagecolor="#ffffff"
     id="base"
     showgrid="false" />
  <metadata
     id="metadata4">
    <rdf:RDF>
      <cc:Work
         rdf:about="">
        <dc:title>BlueMan#105</dc:title>
        <dc:description />
        <dc:subject>
          <rdf:Bag>
            <rdf:li />
            <rdf:li>people</rdf:li>
            <rdf:li>stickmen</rdf:li>
          </rdf:Bag>
        </dc:subject>
        <dc:publisher>
          <cc:Agent
             rdf:about="http://www.openclipart.org">
            <dc:title>Yutaka Kachi</dc:title>
          </cc:Agent>
        </dc:publisher>
        <dc:creator>
          <cc:Agent>
            <dc:title>Yutaka Kachi</dc:title>
          </cc:Agent>
        </dc:creator>
        <dc:rights>
          <cc:Agent>
            <dc:title>Yutaka Kachi</dc:title>
          </cc:Agent>
        </dc:rights>
        <dc:date />
        <dc:format>image/svg+xml</dc:format>
        <dc:type
           rdf:resource="http://purl.org/dc/dcmitype/StillImage" />
        <cc:license
           rdf:resource="http://web.resource.org/cc/PublicDomain" />
        <dc:language>en</dc:language>
      </cc:Work>
      <cc:License
         rdf:about="http://web.resource.org/cc/PublicDomain">
        <cc:permits
           rdf:resource="http://web.resource.org/cc/Reproduction" />
        <cc:permits
           rdf:resource="http://web.resource.org/cc/Distribution" />
        <cc:permits
           rdf:resource="http://web.resource.org/cc/DerivativeWorks" />
      </cc:License>
    </rdf:RDF>
  </metadata>
  <g
     style="fill:#000080;stroke:none"
     id="g6"
     transform="matrix(1.6389993,0,0,1.6389993,-2025.5861,-8055.8306)">
    <polygon
       points="12183,17598 12136,16759 12186,16755 12235,16750 12282,17593 12183,17598 "
       id="polygon8" />
    <polygon
       points="12186,16755 12136,16759 12065,15970 12115,15964 12164,15957 12235,16750 12186,16755 "
       id="polygon10" />
    <polygon
       points="12115,15964 12065,15970 11972,15230 12022,15222 12071,15213 12164,15957 12115,15964 "
       id="polygon12" />
    <polygon
       points="12022,15222 11972,15230 11858,14536 11907,14527 11955,14517 12071,15213 12022,15222 "
       id="polygon14" />
    <polygon
       points="11907,14527 11858,14536 11726,13890 11775,13878 11823,13865 11955,14517 11907,14527 "
       id="polygon16" />
    <polygon
       points="11775,13878 11726,13890 11577,13288 11625,13274 11672,13259 11823,13865 11775,13878 "
       id="polygon18" />
    <polygon
       points="11625,13274 11577,13288 11413,12728 11461,12712 11508,12695 11672,13259 11625,13274 "
       id="polygon20" />
    <polygon
       points="11461,12712 11413,12728 11237,12209 11284,12191 11330,12172 11508,12695 11461,12712 "
       id="polygon22" />
    <polygon
       points="11284,12191 11237,12209 11050,11731 11096,11711 11141,11690 11330,12172 11284,12191 "
       id="polygon24" />
    <polygon
       points="11096,11711 11050,11731 10854,11290 10899,11268 10943,11245 11141,11690 11096,11711 "
       id="polygon26" />
    <polygon
       points="10899,11268 10854,11290 10652,10887 10696,10863 10739,10838 10943,11245 10899,11268 "
       id="polygon28" />
    <polygon
       points="10696,10863 10652,10887 10445,10519 10488,10493 10530,10466 10739,10838 10696,10863 "
       id="polygon30" />
    <polygon
       points="10488,10493 10445,10519 10235,10185 10277,10157 10318,10128 10530,10466 10488,10493 "
       id="polygon32" />
    <polygon
       points="10277,10157 10235,10185 10026,9883 10066,9853 10105,9822 10318,10128 10277,10157 "
       id="polygon34" />
    <polygon
       points="10066,9853 10026,9883 9816,9612 9855,9580 9893,9547 10105,9822 10066,9853 "
       id="polygon36" />
    <polygon
       points="9855,9580 9816,9612 9611,9371 9648,9337 9684,9302 9893,9547 9855,9580 "
       id="polygon38" />
    <polygon
       points="9648,9337 9611,9371 9411,9156 9446,9121 9480,9085 9684,9302 9648,9337 "
       id="polygon40" />
    <polygon
       points="9446,9121 9411,9156 9217,8970 9251,8933 9284,8895 9480,9085 9446,9121 "
       id="polygon42" />
    <polygon
       points="9251,8933 9217,8970 9034,8807 9066,8769 9097,8730 9284,8895 9251,8933 "
       id="polygon44" />
    <polygon
       points="9066,8769 9034,8807 8861,8668 8891,8628 8920,8587 9097,8730 9066,8769 "
       id="polygon46" />
    <polygon
       points="8891,8628 8861,8668 8701,8551 8729,8510 8756,8468 8920,8587 8891,8628 "
       id="polygon48" />
    <polygon
       points="8729,8510 8701,8551 8557,8454 8583,8412 8608,8369 8756,8468 8729,8510 "
       id="polygon50" />
    <polygon
       points="8583,8412 8557,8454 8429,8377 8454,8334 8478,8290 8608,8369 8583,8412 "
       id="polygon52" />
    <polygon
       points="8454,8334 8429,8377 8320,8317 8343,8273 8365,8228 8478,8290 8454,8334 "
       id="polygon54" />
    <polygon
       points="8343,8273 8320,8317 8233,8273 8254,8228 8274,8182 8365,8228 8343,8273 "
       id="polygon56" />
    <polygon
       points="8254,8228 8233,8273 8168,8244 8188,8198 8207,8151 8274,8182 8254,8228 "
       id="polygon58" />
    <polygon
       points="8188,8198 8168,8244 8130,8228 8147,8181 8163,8133 8207,8151 8188,8198 "
       id="polygon60" />
    <polygon
       points="8147,8181 8130,8228 8116,8223 8149,8128 8163,8133 8147,8181 "
       id="polygon62" />
  </g>
  <g
     style="fill:#0066cc;stroke:none"
     id="g64"
     transform="matrix(1.6389993,0,0,1.6389993,-2025.5861,-8055.8306)">
    <polygon
       points="13254,17200 13253,17154 13249,17108 13243,17063 13234,17018 13223,16973 13210,16929 13194,16885 13176,16843 13155,16801 13133,16760 13108,16721 13081,16682 13052,16645 13021,16610 12988,16576 12954,16543 12918,16513 12880,16484 12840,16456 12799,16431 12757,16408 12714,16387 12670,16367 12624,16350 12578,16336 12531,16323 12483,16313 12435,16304 12387,16299 12338,16295 12289,16294 12289,16294 12240,16295 12191,16299 12143,16304 12095,16313 12047,16323 12000,16336 11954,16350 11908,16367 11864,16387 11821,16408 11779,16431 11738,16456 11698,16484 11660,16513 11624,16543 11590,16576 11557,16610 11526,16645 11497,16682 11470,16721 11445,16760 11423,16801 11402,16843 11384,16885 11368,16929 11355,16973 11344,17018 11335,17063 11329,17108 11325,17154 11324,17200 11324,17200 11325,17246 11329,17292 11335,17337 11344,17382 11355,17427 11368,17471 11384,17515 11402,17557 11423,17599 11445,17640 11470,17679 11497,17718 11526,17755 11557,17790 11590,17824 11624,17857 11660,17887 11698,17916 11738,17944 11779,17969 11821,17992 11864,18013 11908,18033 11954,18050 12000,18064 12047,18077 12095,18087 12143,18096 12191,18101 12240,18105 12289,18106 12289,18106 12338,18105 12387,18101 12435,18096 12483,18087 12531,18077 12578,18064 12624,18050 12670,18033 12714,18013 12757,17992 12799,17969 12840,17944 12880,17916 12918,17887 12954,17857 12988,17824 13021,17790 13052,17755 13081,17718 13108,17679 13133,17640 13155,17599 13176,17557 13194,17515 13210,17471 13223,17427 13234,17382 13243,17337 13249,17292 13253,17246 13254,17200 "
       id="polygon66" />
    <polygon
       points="5166,18652 4907,18495 4684,18250 4499,17924 4351,17523 4241,17055 4170,16528 4139,15949 4148,15325 4197,14663 4289,13971 4423,13256 4600,12526 4813,11809 5053,11137 5317,10513 5599,9943 5896,9432 6203,8987 6517,8613 6834,8314 7148,8096 7457,7965 7756,7927 8042,7986 8300,8142 8523,8386 8709,8713 8857,9113 8966,9581 9037,10108 9069,10687 9060,11311 9010,11973 8918,12665 8784,13380 8608,14111 8394,14827 8154,15500 7890,16124 7608,16694 7311,17204 7004,17649 6690,18024 6373,18323 6059,18540 5750,18671 5451,18710 5166,18652 "
       id="polygon68" />
  </g>
  <g
     style="fill:#000080;stroke:none"
     id="g70"
     transform="matrix(1.6389993,0,0,1.6389993,-2025.5861,-8055.8306)">
    <polygon
       points="5993,18243 6839,18499 6823,18547 6806,18594 5964,18338 5993,18243 "
       id="polygon72" />
    <polygon
       points="6823,18547 6839,18499 7600,18762 7582,18809 7563,18855 6806,18594 6823,18547 "
       id="polygon74" />
    <polygon
       points="7582,18809 7600,18762 8282,19029 8262,19075 8241,19120 7563,18855 7582,18809 "
       id="polygon76" />
    <polygon
       points="8262,19075 8282,19029 8886,19299 8864,19344 8841,19388 8241,19120 8262,19075 "
       id="polygon78" />
    <polygon
       points="8864,19344 8886,19299 9420,19571 9395,19615 9369,19658 8841,19388 8864,19344 "
       id="polygon80" />
    <polygon
       points="9395,19615 9420,19571 9884,19845 9856,19887 9827,19928 9369,19658 9395,19615 "
       id="polygon82" />
    <polygon
       points="9856,19887 9884,19845 10284,20120 10253,20159 10221,20197 9827,19928 9856,19887 "
       id="polygon84" />
    <polygon
       points="10253,20159 10284,20120 10623,20395 10589,20431 10554,20466 10221,20197 10253,20159 "
       id="polygon86" />
    <polygon
       points="10589,20431 10623,20395 10906,20667 10868,20700 10829,20732 10554,20466 10589,20431 "
       id="polygon88" />
    <polygon
       points="10868,20700 10906,20667 11135,20939 11094,20967 11052,20994 10829,20732 10868,20700 "
       id="polygon90" />
    <polygon
       points="11094,20967 11135,20939 11315,21207 11271,21230 11226,21252 11052,20994 11094,20967 "
       id="polygon92" />
    <polygon
       points="11271,21230 11315,21207 11449,21472 11402,21489 11354,21505 11226,21252 11271,21230 "
       id="polygon94" />
    <polygon
       points="11402,21489 11449,21472 11541,21731 11493,21742 11444,21752 11354,21505 11402,21489 "
       id="polygon96" />
    <polygon
       points="11493,21742 11541,21731 11595,21984 11546,21988 11496,21991 11444,21752 11493,21742 "
       id="polygon98" />
    <polygon
       points="11546,21988 11595,21984 11614,22229 11565,22227 11515,22224 11496,21991 11546,21988 "
       id="polygon100" />
    <polygon
       points="11565,22227 11614,22229 11604,22465 11555,22457 11505,22448 11515,22224 11565,22227 "
       id="polygon102" />
    <polygon
       points="11555,22457 11604,22465 11567,22691 11519,22678 11470,22664 11505,22448 11555,22457 "
       id="polygon104" />
    <polygon
       points="11519,22678 11567,22691 11508,22906 11462,22889 11415,22871 11470,22664 11519,22678 "
       id="polygon106" />
    <polygon
       points="11462,22889 11508,22906 11431,23109 11386,23088 11340,23066 11415,22871 11462,22889 "
       id="polygon108" />
    <polygon
       points="11386,23088 11431,23109 11340,23300 11297,23275 11253,23249 11340,23066 11386,23088 "
       id="polygon110" />
    <polygon
       points="11297,23275 11340,23300 11238,23475 11197,23448 11155,23420 11253,23249 11297,23275 "
       id="polygon112" />
    <polygon
       points="11197,23448 11238,23475 11132,23638 11092,23608 11052,23578 11155,23420 11197,23448 "
       id="polygon114" />
    <polygon
       points="11092,23608 11132,23638 11022,23783 10984,23752 10945,23720 11052,23578 11092,23608 "
       id="polygon116" />
    <polygon
       points="10984,23752 11022,23783 10914,23913 10878,23880 10841,23846 10945,23720 10984,23752 "
       id="polygon118" />
    <polygon
       points="10878,23880 10914,23913 10812,24025 10777,23991 10741,23956 10841,23846 10878,23880 "
       id="polygon120" />
    <polygon
       points="10777,23991 10812,24025 10720,24120 10686,24084 10651,24047 10741,23956 10777,23991 "
       id="polygon122" />
    <polygon
       points="10686,24084 10720,24120 10642,24195 10609,24158 10575,24120 10651,24047 10686,24084 "
       id="polygon124" />
    <polygon
       points="10609,24158 10642,24195 10580,24250 10548,24212 10515,24173 10575,24120 10609,24158 "
       id="polygon126" />
    <polygon
       points="10548,24212 10580,24250 10542,24281 10509,24245 10475,24208 10515,24173 10548,24212 "
       id="polygon128" />
    <polygon
       points="10509,24245 10542,24281 10529,24293 10462,24220 10475,24208 10509,24245 "
       id="polygon130" />
  </g>
  <g
     style="fill:#0066cc;stroke:none"
     id="g132"
     transform="matrix(1.6389993,0,0,1.6389993,-2025.5861,-8055.8306)">
    <polygon
       points="11526,24983 11065,24932 10671,24851 10358,24745 10140,24621 10031,24485 10045,24343 10185,24208 10433,24096 10769,24009 11173,23952 11625,23927 12107,23941 12567,23991 12961,24072 13274,24178 13492,24302 13601,24439 13587,24582 13446,24715 13198,24827 12862,24914 12459,24971 12006,24996 11526,24983 "
       id="polygon134" />
  </g>
  <g
     style="fill:#000080;stroke:none"
     id="g136"
     transform="matrix(1.6389993,0,0,1.6389993,-2025.5861,-8055.8306)">
    <polygon
       points="5073,18143 5836,18561 5809,18603 5781,18644 5024,18230 5073,18143 "
       id="polygon138" />
    <polygon
       points="5809,18603 5836,18561 6465,18969 6435,19009 6404,19048 5781,18644 5809,18603 "
       id="polygon140" />
    <polygon
       points="6435,19009 6465,18969 6972,19368 6937,19404 6901,19439 6404,19048 6435,19009 "
       id="polygon142" />
    <polygon
       points="6937,19404 6972,19368 7362,19757 7323,19788 7283,19818 6901,19439 6937,19404 "
       id="polygon144" />
    <polygon
       points="7362,19757 7642,20128 7642,20128 7647,20136 7603,20159 7563,20189 7283,19818 7323,19788 7362,19757 "
       id="polygon146" />
    <polygon
       points="7647,20136 7829,20494 7829,20494 7833,20503 7785,20517 7740,20539 7558,20181 7603,20159 7647,20136 "
       id="polygon148" />
    <polygon
       points="7833,20503 7926,20848 7926,20848 7927,20859 7878,20862 7829,20875 7736,20530 7785,20517 7833,20503 "
       id="polygon150" />
    <polygon
       points="7927,20859 7941,21189 7941,21189 7941,21200 7892,21192 7842,21194 7828,20864 7878,20862 7927,20859 "
       id="polygon152" />
    <polygon
       points="7941,21200 7884,21515 7884,21515 7881,21525 7835,21507 7785,21498 7842,21183 7892,21192 7941,21200 "
       id="polygon154" />
    <polygon
       points="7835,21507 7881,21525 7758,21832 7716,21807 7673,21781 7788,21488 7835,21507 "
       id="polygon156" />
    <polygon
       points="7716,21807 7758,21832 7584,22121 7545,22090 7505,22058 7673,21781 7716,21807 "
       id="polygon158" />
    <polygon
       points="7545,22090 7584,22121 7366,22392 7331,22357 7295,22321 7505,22058 7545,22090 "
       id="polygon160" />
    <polygon
       points="7331,22357 7366,22392 7113,22643 7081,22605 7048,22566 7295,22321 7331,22357 "
       id="polygon162" />
    <polygon
       points="7081,22605 7113,22643 6835,22876 6806,22836 6776,22795 7048,22566 7081,22605 "
       id="polygon164" />
    <polygon
       points="6806,22836 6835,22876 6542,23090 6515,23048 6487,23005 6776,22795 6806,22836 "
       id="polygon166" />
    <polygon
       points="6515,23048 6542,23090 6240,23283 6216,23240 6191,23196 6487,23005 6515,23048 "
       id="polygon168" />
    <polygon
       points="6216,23240 6240,23283 5941,23456 5918,23412 5894,23367 6191,23196 6216,23240 "
       id="polygon170" />
    <polygon
       points="5918,23412 5941,23456 5652,23608 5631,23564 5609,23519 5894,23367 5918,23412 "
       id="polygon172" />
    <polygon
       points="5631,23564 5652,23608 5384,23739 5364,23694 5343,23648 5609,23519 5631,23564 "
       id="polygon174" />
    <polygon
       points="5364,23694 5384,23739 5143,23847 5124,23801 5104,23754 5343,23648 5364,23694 "
       id="polygon176" />
    <polygon
       points="5124,23801 5143,23847 4941,23932 4923,23886 4904,23839 5104,23754 5124,23801 "
       id="polygon178" />
    <polygon
       points="4923,23886 4941,23932 4784,23994 4767,23948 4749,23901 4904,23839 4923,23886 "
       id="polygon180" />
    <polygon
       points="4767,23948 4784,23994 4685,24031 4668,23985 4650,23938 4749,23901 4767,23948 "
       id="polygon182" />
    <polygon
       points="4668,23985 4685,24031 4650,24044 4615,23951 4650,23938 4668,23985 "
       id="polygon184" />
  </g>
  <g
     style="fill:#0066cc;stroke:none"
     id="g186"
     transform="matrix(1.6389993,0,0,1.6389993,-2025.5861,-8055.8306)">
    <polygon
       points="5489,24844 5027,24791 4632,24707 4318,24597 4098,24468 3987,24326 4000,24179 4139,24040 4386,23924 4721,23834 5125,23775 5577,23751 6059,23766 6519,23818 6914,23902 7229,24012 7448,24141 7559,24283 7547,24431 7407,24569 7161,24685 6825,24775 6422,24834 5970,24858 5489,24844 "
       id="polygon188" />
  </g>
  <g
     style="fill:#000080;stroke:none"
     id="g190"
     transform="matrix(1.6389993,0,0,1.6389993,-2025.5861,-8055.8306)">
    <polygon
       points="1414,17177 1549,16337 1598,16348 1646,16358 1513,17192 1414,17177 "
       id="polygon192" />
    <polygon
       points="1598,16348 1549,16337 1713,15550 1762,15563 1810,15575 1646,16358 1598,16348 "
       id="polygon194" />
    <polygon
       points="1762,15563 1713,15550 1905,14812 1953,14827 2000,14841 1810,15575 1762,15563 "
       id="polygon196" />
    <polygon
       points="1953,14827 1905,14812 2120,14121 2167,14139 2213,14156 2000,14841 1953,14827 "
       id="polygon198" />
    <polygon
       points="2167,14139 2120,14121 2357,13478 2403,13498 2448,13517 2213,14156 2167,14139 "
       id="polygon200" />
    <polygon
       points="2403,13498 2357,13478 2612,12880 2657,12902 2701,12923 2448,13517 2403,13498 "
       id="polygon202" />
    <polygon
       points="2657,12902 2612,12880 2881,12324 2925,12349 2968,12373 2701,12923 2657,12902 "
       id="polygon204" />
    <polygon
       points="2925,12349 2881,12324 3164,11812 3207,11839 3249,11865 2968,12373 2925,12349 "
       id="polygon206" />
    <polygon
       points="3207,11839 3164,11812 3456,11340 3498,11369 3539,11397 3249,11865 3207,11839 "
       id="polygon208" />
    <polygon
       points="3498,11369 3456,11340 3755,10907 3795,10938 3834,10968 3539,11397 3498,11369 "
       id="polygon210" />
    <polygon
       points="3795,10938 3755,10907 4058,10512 4097,10545 4135,10577 3834,10968 3795,10938 "
       id="polygon212" />
    <polygon
       points="4097,10545 4058,10512 4363,10153 4400,10188 4436,10222 4135,10577 4097,10545 "
       id="polygon214" />
    <polygon
       points="4400,10188 4363,10153 4666,9829 4701,9865 4735,9900 4436,10222 4400,10188 "
       id="polygon216" />
    <polygon
       points="4701,9865 4666,9829 4963,9538 4997,9576 5030,9613 4735,9900 4701,9865 "
       id="polygon218" />
    <polygon
       points="4997,9576 4963,9538 5254,9280 5286,9319 5317,9357 5030,9613 4997,9576 "
       id="polygon220" />
    <polygon
       points="5286,9319 5254,9280 5535,9050 5565,9091 5594,9131 5317,9357 5286,9319 "
       id="polygon222" />
    <polygon
       points="5565,9091 5535,9050 5801,8851 5830,8893 5858,8934 5594,9131 5565,9091 "
       id="polygon224" />
    <polygon
       points="5830,8893 5801,8851 6053,8678 6080,8721 6106,8763 5858,8934 5830,8893 "
       id="polygon226" />
    <polygon
       points="6080,8721 6053,8678 6285,8532 6311,8576 6336,8619 6106,8763 6080,8721 "
       id="polygon228" />
    <polygon
       points="6311,8576 6285,8532 6497,8409 6521,8454 6544,8498 6336,8619 6311,8576 "
       id="polygon230" />
    <polygon
       points="6521,8454 6497,8409 6683,8310 6705,8355 6726,8399 6544,8498 6521,8454 "
       id="polygon232" />
    <polygon
       points="6705,8355 6683,8310 6842,8232 6863,8278 6883,8323 6726,8399 6705,8355 "
       id="polygon234" />
    <polygon
       points="6863,8278 6842,8232 6971,8173 6991,8220 7010,8266 6883,8323 6863,8278 "
       id="polygon236" />
    <polygon
       points="6991,8220 6971,8173 7067,8134 7085,8181 7102,8227 7010,8266 6991,8220 "
       id="polygon238" />
    <polygon
       points="7085,8181 7067,8134 7128,8111 7144,8159 7159,8206 7102,8227 7085,8181 "
       id="polygon240" />
    <polygon
       points="7144,8159 7128,8111 7149,8104 7180,8199 7159,8206 7144,8159 "
       id="polygon242" />
  </g>
  <g
     style="fill:#0066cc;stroke:none"
     id="g244"
     transform="matrix(1.6389993,0,0,1.6389993,-2025.5861,-8055.8306)">
    <polygon
       points="3221,16927 3220,16883 3216,16839 3210,16795 3201,16752 3190,16709 3177,16666 3161,16624 3143,16584 3123,16543 3100,16504 3075,16466 3049,16429 3020,16394 2989,16360 2956,16327 2922,16296 2886,16266 2848,16238 2809,16212 2768,16188 2726,16165 2683,16145 2638,16127 2593,16110 2547,16096 2500,16084 2453,16074 2405,16066 2356,16060 2308,16057 2259,16056 2259,16056 2210,16057 2162,16060 2113,16066 2065,16074 2018,16084 1971,16096 1925,16110 1880,16127 1835,16145 1792,16165 1750,16188 1709,16212 1670,16238 1632,16266 1596,16296 1562,16327 1529,16360 1498,16394 1469,16429 1443,16466 1418,16504 1395,16543 1375,16584 1357,16624 1341,16666 1328,16709 1317,16752 1308,16795 1302,16839 1298,16883 1297,16927 1297,16927 1298,16971 1302,17015 1308,17059 1317,17102 1328,17145 1341,17188 1357,17230 1375,17270 1395,17311 1418,17350 1443,17388 1469,17425 1498,17460 1529,17494 1562,17527 1596,17558 1632,17588 1670,17616 1709,17642 1750,17666 1792,17689 1835,17709 1880,17727 1925,17744 1971,17758 2018,17770 2065,17780 2113,17788 2162,17794 2210,17797 2259,17798 2259,17798 2308,17797 2356,17794 2405,17788 2453,17780 2500,17770 2547,17758 2593,17744 2638,17727 2683,17709 2726,17689 2768,17666 2809,17642 2848,17616 2886,17588 2922,17558 2956,17527 2989,17494 3020,17460 3049,17425 3075,17388 3100,17350 3123,17311 3143,17270 3161,17230 3177,17188 3190,17145 3201,17102 3210,17059 3216,17015 3220,16971 3221,16927 "
       id="polygon246" />
    <polygon
       points="12987,4983 12982,4837 12969,4692 12946,4547 12914,4403 12874,4261 12824,4121 12766,3983 12699,3847 12624,3715 12540,3585 12449,3460 12350,3338 12243,3220 12130,3107 12009,2999 11882,2896 11748,2798 11608,2706 11463,2619 11313,2539 11158,2465 10998,2397 10835,2336 10667,2282 10497,2235 10324,2195 10148,2162 9971,2136 9793,2118 9613,2107 9433,2103 9433,2103 9253,2107 9073,2118 8895,2136 8718,2162 8542,2195 8369,2235 8199,2282 8031,2336 7868,2397 7708,2465 7553,2539 7403,2619 7258,2706 7118,2798 6984,2896 6857,2999 6736,3107 6623,3220 6516,3338 6417,3460 6326,3585 6242,3715 6167,3847 6100,3983 6042,4121 5992,4261 5952,4403 5920,4547 5897,4692 5884,4837 5879,4983 5879,4983 5884,5129 5897,5274 5920,5419 5952,5563 5992,5705 6042,5845 6100,5983 6167,6119 6242,6251 6326,6381 6417,6506 6516,6628 6623,6746 6736,6859 6857,6967 6984,7070 7118,7168 7258,7260 7403,7347 7553,7427 7708,7501 7868,7569 8031,7630 8199,7684 8369,7731 8542,7771 8718,7804 8895,7830 9073,7848 9253,7859 9433,7863 9433,7863 9613,7859 9793,7848 9971,7830 10148,7804 10324,7771 10497,7731 10667,7684 10835,7630 10998,7569 11158,7501 11313,7427 11463,7347 11608,7260 11748,7168 11882,7070 12009,6967 12130,6859 12243,6746 12350,6628 12449,6506 12540,6381 12624,6251 12699,6119 12766,5983 12824,5845 12874,5705 12914,5563 12946,5419 12969,5274 12982,5129 12987,4983 "
       id="polygon248" />
  </g>
</svg>
