<?xml version="1.0" encoding="UTF-8" standalone="no"?>
<!-- Created with Inkscape (http://www.inkscape.org/) -->

<svg
   xmlns:dc="http://purl.org/dc/elements/1.1/"
   xmlns:cc="http://creativecommons.org/ns#"
   xmlns:rdf="http://www.w3.org/1999/02/22-rdf-syntax-ns#"
   xmlns:svg="http://www.w3.org/2000/svg"
   xmlns="http://www.w3.org/2000/svg"
   xmlns:xlink="http://www.w3.org/1999/xlink"
   xmlns:sodipodi="http://sodipodi.sourceforge.net/DTD/sodipodi-0.dtd"
   xmlns:inkscape="http://www.inkscape.org/namespaces/inkscape"
   id="svg1"
   sodipodi:version="0.32"
   inkscape:version="0.48.1 r9760"
   width="91.05806"
   height="94.873253"
   sodipodi:docname="nicubunu_Stickman_14.svg"
   version="1.1">
  <metadata
     id="metadata3335" />
  <defs
     id="defs3">
    <linearGradient
       id="linearGradient827">
      <stop
         style="stop-color:#02e2ff;stop-opacity:1.0000000;"
         offset="0.0000000"
         id="stop828" />
      <stop
         style="stop-color:#0079a8;stop-opacity:1.0000000;"
         offset="1.0000000"
         id="stop829" />
    </linearGradient>
    <radialGradient
       xlink:href="#linearGradient827"
       id="radialGradient830"
       cx="0.1884058"
       cy="0.2754491"
       r="0.39135015"
       fx="0.1884058"
       fy="0.2754491" />
    <linearGradient
       xlink:href="#linearGradient827"
       id="linearGradient833"
       x1="41.45442"
       y1="23.993386"
       x2="61.055573"
       y2="48.245464"
       gradientTransform="matrix(0.84442869,0,0,1.1842326,-6.2553163,-1.5558025)"
       gradientUnits="userSpaceOnUse" />
    <radialGradient
       xlink:href="#linearGradient827"
       id="radialGradient844"
       cx="54.616179"
       cy="6.5148533"
       r="11.973789"
       fx="54.616179"
       fy="6.5148533"
       gradientTransform="matrix(0.99989737,0,0,1.0001026,-6.2553163,-1.5558025)"
       gradientUnits="userSpaceOnUse" />
    <radialGradient
       xlink:href="#linearGradient827"
       id="radialGradient845"
       cx="91.356372"
       cy="38.393741"
       r="4.0215949"
       fx="91.356372"
       fy="38.393741"
       gradientUnits="userSpaceOnUse"
       gradientTransform="translate(-6.2553163,-1.5558025)" />
    <radialGradient
       xlink:href="#linearGradient827"
       id="radialGradient846"
       cx="0.17647059"
       cy="0.10650887"
       r="0.62578475"
       fx="0.17647059"
       fy="0.10650887" />
    <radialGradient
       xlink:href="#linearGradient827"
       id="radialGradient847"
       cx="59.899813"
       cy="77.937857"
       r="5.9612904"
       fx="59.899813"
       fy="77.937857"
       gradientTransform="matrix(0.90198336,0,0,1.1086679,-6.2553163,-1.5558025)"
       gradientUnits="userSpaceOnUse" />
    <radialGradient
       inkscape:collect="always"
       xlink:href="#linearGradient827"
       id="radialGradient3561"
       cx="25.042292"
       cy="30.439863"
       fx="25.042292"
       fy="30.439863"
       r="4.0215951"
       gradientUnits="userSpaceOnUse"
       gradientTransform="translate(-6.2553163,-1.5558025)" />
    <radialGradient
       inkscape:collect="always"
       xlink:href="#linearGradient827"
       id="radialGradient3563"
       cx="7.7785791"
       cy="81.08515"
       fx="7.7785791"
       fy="81.08515"
       r="5.9598706"
       gradientTransform="matrix(1.1099634,0,0,0.90093061,-6.2553163,-1.5558025)"
       gradientUnits="userSpaceOnUse" />
  </defs>
  <sodipodi:namedview
     id="base"
     pagecolor="#ffffff"
     bordercolor="#666666"
     borderopacity="1.0"
     inkscape:pageopacity="0.0"
     inkscape:pageshadow="2"
     inkscape:zoom="6.0628663"
     inkscape:cx="37.271609"
     inkscape:cy="40.909049"
     inkscape:window-width="713"
     inkscape:window-height="684"
     inkscape:window-x="488"
     inkscape:window-y="32"
     showgrid="false"
     fit-margin-top="0"
     fit-margin-left="0"
     fit-margin-right="0"
     fit-margin-bottom="0"
     inkscape:window-maximized="0"
     inkscape:current-layer="svg1" />
  <path
     style="fill:url(#radialGradient844);fill-opacity:1;fill-rule:evenodd;stroke:none"
     d="M 64.266903,16.394212 C 61.826357,22.535817 54.86254,25.540133 48.722668,23.100276 42.582796,20.660418 39.580444,13.695754 42.02099,7.5541489 44.461535,1.4125449 51.425353,-1.5917719 57.565225,0.84808532 63.705097,3.2879425 66.707449,10.252608 64.266903,16.394212 z"
     id="path826"
     inkscape:connector-curvature="0" />
  <path
     style="fill:none;stroke:#00007f;stroke-width:2.5"
     d="m 22.182126,29.603205 c 8.323356,-6.502956 18.309799,-7.390862 33.358137,-1.957237 9.239361,12.623061 16.536642,16.470693 30.146216,12.753633"
     id="path837"
     sodipodi:nodetypes="ccc"
     inkscape:connector-curvature="0" />
  <path
     style="fill:none;stroke:#00007f;stroke-width:2.5"
     d="m 9.6521287,76.81011 c 1.5013293,-3.090735 2.4805693,-16.247505 4.7831653,-21.036783 4.364328,-0.25347 16.649553,4.561782 24.269005,7.726161 0.172658,13.615258 3.926487,15.391496 14.39069,22.226347"
     id="path842"
     sodipodi:nodetypes="cccc"
     inkscape:connector-curvature="0" />
  <path
     style="fill:url(#linearGradient833);fill-opacity:1;fill-rule:evenodd;stroke:none"
     d="M 56.913524,49.293951 C 52.780776,59.693963 47.579196,67.400408 38.457927,63.775806 30.359853,60.325717 30.843308,50.97647 34.976056,40.576458 39.108804,30.176447 43.99485,22.576696 53.431653,26.094603 c 9.200916,3.424171 7.614619,12.799337 3.481871,23.199348 z"
     id="path832"
     sodipodi:nodetypes="ccccc"
     inkscape:connector-curvature="0" />
  <path
     style="fill:url(#radialGradient3561);fill-opacity:1;fill-rule:evenodd;stroke:none"
     d="m 24.478204,32.554834 c -0.764431,1.923682 -2.946086,2.864522 -4.869766,2.100091 -1.923681,-0.76443 -2.864521,-2.946084 -2.10009,-4.869766 0.76443,-1.92368 2.946085,-2.86452 4.869765,-2.10009 1.923681,0.764431 2.864521,2.946086 2.100091,4.869765 z"
     id="path835"
     inkscape:connector-curvature="0" />
  <path
     style="fill:url(#radialGradient3563);fill-opacity:1;fill-rule:evenodd;stroke:none"
     d="M 10.956067,78.36262 C 9.8571667,80.116851 6.5924367,80.05414 3.6687201,78.222642 0.74500531,76.391144 -0.73600649,73.48099 0.36289331,71.726758 1.4617911,69.972529 4.7265207,70.03524 7.6502377,71.866738 c 2.9237163,1.831498 4.4047273,4.741653 3.3058293,6.495882 z"
     id="path836"
     inkscape:connector-curvature="0" />
  <path
     style="fill:url(#radialGradient847);fill-opacity:1;fill-rule:evenodd;stroke:none"
     d="m 47.108164,94.506846 c -1.751325,-1.103523 -1.679997,-4.368076 0.159207,-7.286951 1.839204,-2.918875 4.753255,-4.392203 6.504581,-3.28868 1.751323,1.103522 1.680001,4.368076 -0.159203,7.28695 -1.839205,2.918875 -4.753257,4.392203 -6.504585,3.288681 z"
     id="path848"
     inkscape:connector-curvature="0" />
  <path
     style="fill:url(#radialGradient845);fill-opacity:1;fill-rule:evenodd;stroke:none"
     d="m 90.792281,40.508713 c -0.764431,1.923682 -2.946086,2.864522 -4.869766,2.100091 -1.92368,-0.76443 -2.864521,-2.946084 -2.10009,-4.869766 0.76443,-1.92368 2.946085,-2.86452 4.869766,-2.10009 1.92368,0.764431 2.864519,2.946086 2.10009,4.869765 z"
     id="path849"
     inkscape:connector-curvature="0" />
  <metadata
     id="metadata3337">
    <rdf:RDF>
      <cc:Work
         rdf:about="">
        <dc:title>stick man</dc:title>
        <dc:rights>
          <cc:Agent>
            <dc:title>Nicu Buculei</dc:title>
          </cc:Agent>
        </dc:rights>
        <dc:type
           rdf:resource="http://purl.org/dc/dcmitype/StillImage" />
        <cc:license
           rdf:resource="http://web.resource.org/cc/PublicDomain" />
        <dc:format>image/svg+xml</dc:format>
      </cc:Work>
      <cc:License
         rdf:about="http://web.resource.org/cc/PublicDomain">
        <cc:permits
           rdf:resource="http://web.resource.org/cc/Reproduction" />
        <cc:permits
           rdf:resource="http://web.resource.org/cc/Distribution" />
        <cc:permits
           rdf:resource="http://web.resource.org/cc/DerivativeWorks" />
      </cc:License>
    </rdf:RDF>
  </metadata>
</svg>
