<?xml version="1.0" encoding="UTF-8" standalone="no"?>
<!-- Created with Inkscape (http://www.inkscape.org/) -->

<svg
   xmlns:dc="http://purl.org/dc/elements/1.1/"
   xmlns:cc="http://creativecommons.org/ns#"
   xmlns:rdf="http://www.w3.org/1999/02/22-rdf-syntax-ns#"
   xmlns:svg="http://www.w3.org/2000/svg"
   xmlns="http://www.w3.org/2000/svg"
   xmlns:xlink="http://www.w3.org/1999/xlink"
   xmlns:sodipodi="http://sodipodi.sourceforge.net/DTD/sodipodi-0.dtd"
   xmlns:inkscape="http://www.inkscape.org/namespaces/inkscape"
   id="svg1"
   sodipodi:version="0.32"
   inkscape:version="0.48.1 r9760"
   width="82.082504"
   height="92.431061"
   sodipodi:docname="nicubunu_Stickman_08.svg"
   version="1.1">
  <metadata
     id="metadata3215" />
  <defs
     id="defs3">
    <linearGradient
       id="linearGradient827">
      <stop
         style="stop-color:#02e2ff;stop-opacity:1.0000000;"
         offset="0.0000000"
         id="stop828" />
      <stop
         style="stop-color:#0079a8;stop-opacity:1.0000000;"
         offset="1.0000000"
         id="stop829" />
    </linearGradient>
    <radialGradient
       xlink:href="#linearGradient827"
       id="radialGradient830"
       cx="0.1884058"
       cy="0.2754491"
       r="0.39135015"
       fx="0.1884058"
       fy="0.2754491" />
    <linearGradient
       xlink:href="#linearGradient827"
       id="linearGradient833"
       x1="37.277009"
       y1="25.292939"
       x2="55.954296"
       y2="48.401938"
       gradientTransform="matrix(0.78656566,0,0,1.2713497,-5.3896958,-6.2210116)"
       gradientUnits="userSpaceOnUse" />
    <radialGradient
       xlink:href="#linearGradient827"
       id="radialGradient844"
       cx="49.978171"
       cy="11.178405"
       r="11.971521"
       fx="49.978171"
       fy="11.178405"
       gradientTransform="matrix(0.99985897,0,0,1.0001411,-5.3896958,-6.2210116)"
       gradientUnits="userSpaceOnUse" />
    <radialGradient
       xlink:href="#linearGradient827"
       id="radialGradient845"
       cx="16.433692"
       cy="49.469986"
       r="4.0208334"
       fx="16.433692"
       fy="49.469986"
       gradientUnits="userSpaceOnUse"
       gradientTransform="translate(-5.3896958,-6.2210116)" />
    <radialGradient
       xlink:href="#linearGradient827"
       id="radialGradient846"
       cx="0.17647059"
       cy="0.10650887"
       r="0.62578475"
       fx="0.17647059"
       fy="0.10650887" />
    <radialGradient
       xlink:href="#linearGradient827"
       id="radialGradient847"
       cx="8.1283947"
       cy="79.793316"
       r="5.9591954"
       fx="8.1283947"
       fy="79.793316"
       gradientTransform="matrix(0.90043403,0,0,1.1105755,-5.3896958,-6.2210116)"
       gradientUnits="userSpaceOnUse" />
    <radialGradient
       inkscape:collect="always"
       xlink:href="#linearGradient827"
       id="radialGradient3581"
       cx="81.516317"
       cy="33.922188"
       fx="81.516317"
       fy="33.922188"
       r="4.0208334"
       gradientUnits="userSpaceOnUse"
       gradientTransform="translate(-5.3896958,-6.2210116)" />
    <radialGradient
       inkscape:collect="always"
       xlink:href="#linearGradient827"
       id="radialGradient3583"
       cx="51.111936"
       cy="105.07367"
       fx="51.111936"
       fy="105.07367"
       r="5.7272382"
       gradientTransform="matrix(1.2573,0,0,0.79535515,-5.3896958,-6.2210116)"
       gradientUnits="userSpaceOnUse" />
  </defs>
  <sodipodi:namedview
     id="base"
     pagecolor="#ffffff"
     bordercolor="#666666"
     borderopacity="1.0"
     inkscape:pageopacity="0.0"
     inkscape:pageshadow="2"
     inkscape:zoom="6.0628663"
     inkscape:cx="38.137229"
     inkscape:cy="40.869068"
     inkscape:window-width="713"
     inkscape:window-height="684"
     inkscape:window-x="431"
     inkscape:window-y="36"
     showgrid="false"
     fit-margin-top="0"
     fit-margin-left="0"
     fit-margin-right="0"
     fit-margin-bottom="0"
     inkscape:window-maximized="0"
     inkscape:current-layer="svg1" />
  <path
     style="fill:url(#radialGradient844);fill-opacity:1;fill-rule:evenodd;stroke:none"
     d="m 37.400029,11.972371 c 0,6.60875 5.36211,11.972372 11.968995,11.972372 6.606885,0 11.968995,-5.363622 11.968995,-11.972372 C 61.338019,5.3636224 55.975909,0 49.369024,0 42.762139,0 37.400029,5.3636224 37.400029,11.972371 z"
     id="path826"
     inkscape:connector-curvature="0" />
  <path
     style="fill:none;stroke:#00007f;stroke-width:2.5;stroke-linecap:butt;stroke-linejoin:miter;stroke-opacity:1;stroke-dasharray:none"
     d="M 77.173062,32.615744 C 69.448339,47.780261 52.554677,39.106445 44.398037,25.816055 28.645096,18.758513 11.908946,24.533372 12.638327,42.950007"
     id="path837"
     sodipodi:nodetypes="ccc"
     inkscape:connector-curvature="0" />
  <path
     style="fill:none;stroke:#00007f;stroke-width:2.5;stroke-linecap:butt;stroke-linejoin:miter;stroke-opacity:1;stroke-dasharray:none"
     d="M 57.789772,81.549558 C 56.401991,74.927184 57.943899,64.347139 57.435361,60.505656 53.42188,61.199981 45.296223,61.004466 34.469621,64.842496 27.153222,74.517083 17.952178,83.464299 8.0714182,83.372004"
     id="path842"
     sodipodi:nodetypes="cccc"
     inkscape:connector-curvature="0" />
  <path
     style="fill:url(#linearGradient833);fill-opacity:1;fill-rule:evenodd;stroke:none"
     d="m 27.688798,42.606154 c -1.799665,11.045409 -1.298149,20.329493 8.389162,21.907878 8.719894,1.202239 13.110022,-7.066311 14.909687,-18.11172 1.799665,-11.045408 1.51399,-20.075804 -8.389162,-21.907878 -9.652627,-1.791255 -13.110023,7.066311 -14.909687,18.11172 z"
     id="path832"
     sodipodi:nodetypes="ccccc"
     inkscape:connector-curvature="0" />
  <path
     style="fill:url(#radialGradient3581);fill-opacity:1;fill-rule:evenodd;stroke:none"
     d="m 74.582503,29.986678 c 0,2.070002 1.68,3.750001 3.75,3.750001 2.07,0 3.75,-1.679999 3.75,-3.750001 0,-2.069999 -1.68,-3.749999 -3.75,-3.749999 -2.07,0 -3.75,1.68 -3.75,3.749999 z"
     id="path835"
     inkscape:connector-curvature="0" />
  <path
     style="fill:url(#radialGradient3583);fill-opacity:1;fill-rule:evenodd;stroke:none"
     d="m 56.336035,81.682093 c 0.43782,2.023171 3.529806,3.072942 6.901755,2.343243 3.371948,-0.7297 5.753271,-2.963911 5.31545,-4.987083 -0.437819,-2.023168 -3.529805,-3.07294 -6.901754,-2.343241 -3.371948,0.7297 -5.75327,2.963912 -5.315451,4.987081 z"
     id="path836"
     inkscape:connector-curvature="0" />
  <path
     style="fill:url(#radialGradient847);fill-opacity:1;fill-rule:evenodd;stroke:none"
     d="m 7.9019362,81.468382 c -1.7556,-1.096712 -4.6639059,0.387928 -6.4917569,3.313925 -1.82785099,2.925998 -1.88649099,6.190804 -0.130891,7.287515 1.755598,1.09671 4.6639049,-0.387929 6.4917549,-3.313926 1.827851,-2.925998 1.886491,-6.190804 0.130893,-7.287514 z"
     id="path848"
     inkscape:connector-curvature="0" />
  <path
     style="fill:url(#radialGradient845);fill-opacity:1;fill-rule:evenodd;stroke:none"
     d="m 9.4998782,45.534476 c 0,2.070002 1.6799998,3.750001 3.7499998,3.750001 2.07,0 3.75,-1.679999 3.75,-3.750001 0,-2.069999 -1.68,-3.749999 -3.75,-3.749999 -2.07,0 -3.7499998,1.68 -3.7499998,3.749999 z"
     id="path849"
     inkscape:connector-curvature="0" />
  <metadata
     id="metadata3217">
    <rdf:RDF>
      <cc:Work
         rdf:about="">
        <dc:title>stick man</dc:title>
        <dc:rights>
          <cc:Agent>
            <dc:title>Nicu Buculei</dc:title>
          </cc:Agent>
        </dc:rights>
        <dc:type
           rdf:resource="http://purl.org/dc/dcmitype/StillImage" />
        <cc:license
           rdf:resource="http://web.resource.org/cc/PublicDomain" />
        <dc:format>image/svg+xml</dc:format>
      </cc:Work>
      <cc:License
         rdf:about="http://web.resource.org/cc/PublicDomain">
        <cc:permits
           rdf:resource="http://web.resource.org/cc/Reproduction" />
        <cc:permits
           rdf:resource="http://web.resource.org/cc/Distribution" />
        <cc:permits
           rdf:resource="http://web.resource.org/cc/DerivativeWorks" />
      </cc:License>
    </rdf:RDF>
  </metadata>
</svg>
