<?xml version="1.0" encoding="UTF-8" standalone="no"?>
<!-- Created with Inkscape (http://www.inkscape.org/) -->

<svg
   xmlns:dc="http://purl.org/dc/elements/1.1/"
   xmlns:cc="http://creativecommons.org/ns#"
   xmlns:rdf="http://www.w3.org/1999/02/22-rdf-syntax-ns#"
   xmlns:svg="http://www.w3.org/2000/svg"
   xmlns="http://www.w3.org/2000/svg"
   xmlns:xlink="http://www.w3.org/1999/xlink"
   xmlns:sodipodi="http://sodipodi.sourceforge.net/DTD/sodipodi-0.dtd"
   xmlns:inkscape="http://www.inkscape.org/namespaces/inkscape"
   id="svg2"
   version="1.1"
   inkscape:version="0.48.3.1 r9886"
   width="180"
   height="193.00005"
   sodipodi:docname="1357395989.svg"
   inkscape:export-filename="/home/me/Desktop/playground.png"
   inkscape:export-xdpi="90"
   inkscape:export-ydpi="90">
  <sodipodi:namedview
     pagecolor="#ffffff"
     bordercolor="#666666"
     borderopacity="1"
     objecttolerance="10"
     gridtolerance="10"
     guidetolerance="10"
     inkscape:pageopacity="0"
     inkscape:pageshadow="2"
     inkscape:window-width="1680"
     inkscape:window-height="1032"
     id="namedview4"
     showgrid="false"
     inkscape:snap-global="false"
     showguides="true"
     inkscape:guide-bbox="true"
     inkscape:zoom="0.70710678"
     inkscape:cx="267.83318"
     inkscape:cy="9.5530247"
     inkscape:window-x="0"
     inkscape:window-y="0"
     inkscape:window-maximized="1"
     inkscape:current-layer="svg2"
     fit-margin-top="0"
     fit-margin-left="0"
     fit-margin-right="0"
     fit-margin-bottom="0" />
  <defs
     id="defs6">
    <linearGradient
       inkscape:collect="always"
       id="linearGradient4787">
      <stop
         style="stop-color:#e7e7e5;stop-opacity:1;"
         offset="0"
         id="stop4789" />
      <stop
         style="stop-color:#e7e7e5;stop-opacity:0.9"
         offset="1"
         id="stop4791" />
    </linearGradient>
    <linearGradient
       id="linearGradient4781">
      <stop
         style="stop-color:#000000;stop-opacity:0.9130435"
         offset="0"
         id="stop4783" />
      <stop
         style="stop-color:#000000;stop-opacity:0.46861926;"
         offset="1"
         id="stop4785" />
    </linearGradient>
    <linearGradient
       id="linearGradient6713">
      <stop
         style="stop-color:#e5e6e3;stop-opacity:1"
         offset="0"
         id="stop6715" />
      <stop
         style="stop-color:#c7cac3;stop-opacity:1"
         offset="1"
         id="stop6717" />
    </linearGradient>
    <linearGradient
       id="linearGradient6705">
      <stop
         style="stop-color:#d6a910;stop-opacity:1"
         offset="0"
         id="stop6707" />
      <stop
         style="stop-color:#d19002;stop-opacity:1;"
         offset="1"
         id="stop6709" />
    </linearGradient>
    <linearGradient
       id="linearGradient6697">
      <stop
         style="stop-color:#fcd54a;stop-opacity:1;"
         offset="0"
         id="stop6699" />
      <stop
         style="stop-color:#fac404;stop-opacity:1;"
         offset="1"
         id="stop6701" />
    </linearGradient>
    <linearGradient
       id="linearGradient6649">
      <stop
         style="stop-color:#f9d13f;stop-opacity:1;"
         offset="0"
         id="stop6651" />
      <stop
         style="stop-color:#e9b807;stop-opacity:1"
         offset="1"
         id="stop6653" />
    </linearGradient>
    <linearGradient
       id="linearGradient6557">
      <stop
         style="stop-color:#f0c83c;stop-opacity:1;"
         offset="0"
         id="stop6559" />
      <stop
         style="stop-color:#d4a710;stop-opacity:1;"
         offset="1"
         id="stop6561" />
    </linearGradient>
    <linearGradient
       id="linearGradient6408">
      <stop
         style="stop-color:#dbddd8;stop-opacity:1"
         offset="0"
         id="stop6410" />
      <stop
         id="stop6434"
         offset="0.11576127"
         style="stop-color:#e8e8e6;stop-opacity:1;" />
      <stop
         style="stop-color:#d3d7cf;stop-opacity:1"
         offset="1"
         id="stop6412" />
    </linearGradient>
    <linearGradient
       inkscape:collect="always"
       id="linearGradient6398">
      <stop
         style="stop-color:#dcdfd9;stop-opacity:1;"
         offset="0"
         id="stop6400" />
      <stop
         style="stop-color:#dee0db;stop-opacity:1"
         offset="1"
         id="stop6402" />
    </linearGradient>
    <filter
       inkscape:collect="always"
       id="filter6346"
       color-interpolation-filters="sRGB">
      <feGaussianBlur
         inkscape:collect="always"
         stdDeviation="0.42228346"
         id="feGaussianBlur6348" />
    </filter>
    <filter
       inkscape:collect="always"
       id="filter6424"
       color-interpolation-filters="sRGB">
      <feGaussianBlur
         inkscape:collect="always"
         stdDeviation="2.1473297"
         id="feGaussianBlur6426" />
    </filter>
    <filter
       inkscape:collect="always"
       id="filter6539"
       x="-0.14420509"
       width="1.2884102"
       y="-0.028791809"
       height="1.0575836"
       color-interpolation-filters="sRGB">
      <feGaussianBlur
         inkscape:collect="always"
         stdDeviation="1.5025726"
         id="feGaussianBlur6541" />
    </filter>
    <filter
       inkscape:collect="always"
       id="filter6553"
       x="-0.1172093"
       width="1.2344186"
       y="-0.040320002"
       height="1.08064"
       color-interpolation-filters="sRGB">
      <feGaussianBlur
         inkscape:collect="always"
         stdDeviation="2.1"
         id="feGaussianBlur6555" />
    </filter>
    <linearGradient
       inkscape:collect="always"
       xlink:href="#linearGradient6705"
       id="linearGradient4797"
       gradientUnits="userSpaceOnUse"
       x1="443.99298"
       y1="308.86218"
       x2="603.00702"
       y2="308.86218" />
    <linearGradient
       inkscape:collect="always"
       xlink:href="#linearGradient6408"
       id="linearGradient5360"
       gradientUnits="userSpaceOnUse"
       gradientTransform="translate(-710.41,-354.00982)"
       x1="762"
       y1="493"
       x2="788"
       y2="398" />
    <linearGradient
       inkscape:collect="always"
       xlink:href="#linearGradient4787"
       id="linearGradient5363"
       gradientUnits="userSpaceOnUse"
       gradientTransform="translate(-710.41,-354.00982)"
       x1="761.41003"
       y1="503.16394"
       x2="742.0473"
       y2="569.16394" />
    <linearGradient
       inkscape:collect="always"
       xlink:href="#linearGradient4781"
       id="linearGradient5366"
       gradientUnits="userSpaceOnUse"
       gradientTransform="translate(-710.41,-354.00982)"
       x1="719"
       y1="523"
       x2="788.35858"
       y2="541.58459" />
    <linearGradient
       inkscape:collect="always"
       xlink:href="#linearGradient6398"
       id="linearGradient5369"
       gradientUnits="userSpaceOnUse"
       gradientTransform="translate(-710.41,-354.00982)"
       x1="766.25854"
       y1="489.56006"
       x2="745.20905"
       y2="568.1178" />
    <linearGradient
       inkscape:collect="always"
       xlink:href="#linearGradient6713"
       id="linearGradient5374"
       gradientUnits="userSpaceOnUse"
       gradientTransform="translate(-728.24999,-387.59376)"
       x1="893"
       y1="508"
       x2="893"
       y2="427.37741" />
    <linearGradient
       inkscape:collect="always"
       xlink:href="#linearGradient6697"
       id="linearGradient5379"
       gradientUnits="userSpaceOnUse"
       gradientTransform="translate(-728.24999,-387.59376)"
       x1="728.25"
       y1="402.59375"
       x2="908.25"
       y2="402.59375" />
    <linearGradient
       inkscape:collect="always"
       xlink:href="#linearGradient6649"
       id="linearGradient5382"
       gradientUnits="userSpaceOnUse"
       gradientTransform="translate(-728.24999,-387.59376)"
       x1="728"
       y1="416"
       x2="909.01105"
       y2="416" />
    <linearGradient
       inkscape:collect="always"
       xlink:href="#linearGradient6557"
       id="linearGradient5385"
       gradientUnits="userSpaceOnUse"
       gradientTransform="matrix(1.0632911,0,0,1.0723592,-522.4471,-309.98003)"
       x1="497.52136"
       y1="377.09964"
       x2="658.53009"
       y2="377.09964" />
  </defs>
  <path
     inkscape:connector-curvature="0"
     style="fill:url(#linearGradient5385);fill-opacity:1;stroke:none"
     d="m 6,25 26.5937,158.68749 0.5625,0.0313 c 1.9643,5.17888 26.5799,9.28125 56.6875,9.28125 30.1076,0 54.7545,-4.10237 56.7188,-9.28125 l 0.875,-0.0313 L 174,25 90,31.15625 6,25 z"
     id="path5729" />
  <path
     inkscape:connector-curvature="0"
     style="fill:url(#linearGradient5382);fill-opacity:1;stroke:none"
     d="M 90,8 C 53.5093,8 22.1267,11.61011 8,16.8125 L 8,15 0,15 0,23 c 0,8.28427 40.2943,15 90,15 49.7056,0 90,-6.71573 90,-15 l 0,-8 -8,0 0,1.8125 C 157.8667,11.61276 126.4791,8 90,8 z"
     id="path5735" />
  <path
     inkscape:connector-curvature="0"
     style="fill:url(#linearGradient5379);fill-opacity:1;stroke:none"
     d="M 90,0 C 40.2943,0 0,6.71573 0,15 0,23.28427 40.2943,30 90,30 139.7056,30 180,23.28427 180,15 180,6.71573 139.7056,0 90,0 z m 0,3 c 43.0782,0 78,5.37258 78,12 0,6.62742 -34.9218,12 -78,12 C 46.9218,27 12,21.62742 12,15 12,8.37258 46.9218,3 90,3 z"
     id="path5737" />
  <path
     transform="translate(-485.584,-285.54168)"
     d="m 522,331.36218 a 8,8 0 1 1 -16,0 8,8 0 1 1 16,0 z"
     sodipodi:ry="8"
     sodipodi:rx="8"
     sodipodi:cy="331.36218"
     sodipodi:cx="514"
     id="path5745"
     style="fill:#eeeeec;fill-opacity:1;stroke:none"
     sodipodi:type="arc" />
  <path
     sodipodi:nodetypes="czcsc"
     inkscape:connector-curvature="0"
     id="path5747"
     d="m 28.666,53.320507 c 0,0 19.0147,44.983356 64.5,67.999993 45.4853,23.01664 68,-1 68,-1 0,0 -30.5,6 -60.5,-11 -30,-16.999997 -65,-62.99999 -65,-62.99999"
     style="fill:#eeeeec;fill-opacity:1;stroke:none" />
  <path
     sodipodi:nodetypes="csccsc"
     inkscape:connector-curvature="0"
     id="path5749"
     d="m 166.6383,56.146337 c 0,0 5.5277,11.174166 1.0277,33.174166 -4.4687,21.846757 -19.375,32.749997 -19.375,32.749997 l 12.1875,-1.0625 c 0,0 18.6875,-18.1875 18.1875,-41.687497 -0.5,-23.499996 -8.5,-43.118713 -8.5,-43.118713"
     style="fill:url(#linearGradient5374);fill-opacity:1;stroke:none" />
  <path
     sodipodi:nodetypes="czc"
     inkscape:connector-curvature="0"
     id="path5751"
     d="m 32.6584,45.25822 c 0,0 -1.9388,-6.38769 -6.2733,-4.35954 -4.3345,2.02815 -0.7881,7.58877 -0.7881,7.58877"
     style="fill:#d6a910;fill-opacity:1;stroke:none" />
  <path
     sodipodi:type="arc"
     style="fill:url(#linearGradient4797);fill-opacity:1;stroke:none;filter:url(#filter6346)"
     id="path3018-5"
     sodipodi:cx="523.5"
     sodipodi:cy="308.86218"
     sodipodi:rx="78.5"
     sodipodi:ry="10.5"
     d="m 602,308.86218 a 78.5,10.5 0 1 1 -157,0 78.5,10.5 0 1 1 157,0 z"
     transform="matrix(-0.99363057,0,0,1.1428571,610.1656,-337.98535)" />
  <metadata
     id="metadata66">
    <rdf:RDF>
      <cc:Work>
        <dc:format>image/svg+xml</dc:format>
        <dc:type
           rdf:resource="http://purl.org/dc/dcmitype/StillImage" />
        <cc:license
           rdf:resource="http://creativecommons.org/licenses/publicdomain/" />
        <dc:publisher>
          <cc:Agent
             rdf:about="http://openclipart.org/">
            <dc:title>Open Clip Art Library</dc:title>
          </cc:Agent>
        </dc:publisher>
        <dc:title></dc:title>
        <dc:date>2013-01-05T09:26:29</dc:date>
        <dc:description />
        <dc:source>http://openclipart.org/detail/174088/bucket-by-mirek2-174088</dc:source>
        <dc:creator>
          <cc:Agent>
            <dc:title>Mirek2</dc:title>
          </cc:Agent>
        </dc:creator>
        <dc:subject>
          <rdf:Bag>
            <rdf:li>bucket</rdf:li>
            <rdf:li>clip art</rdf:li>
            <rdf:li>clipart</rdf:li>
            <rdf:li>pail</rdf:li>
            <rdf:li>plastic bucket</rdf:li>
            <rdf:li>shovel</rdf:li>
          </rdf:Bag>
        </dc:subject>
      </cc:Work>
      <cc:License
         rdf:about="http://creativecommons.org/licenses/publicdomain/">
        <cc:permits
           rdf:resource="http://creativecommons.org/ns#Reproduction" />
        <cc:permits
           rdf:resource="http://creativecommons.org/ns#Distribution" />
        <cc:permits
           rdf:resource="http://creativecommons.org/ns#DerivativeWorks" />
      </cc:License>
    </rdf:RDF>
  </metadata>
</svg>
