<?xml version="1.0" encoding="UTF-8" standalone="no"?>
<!-- Created with Inkscape (http://www.inkscape.org/) -->
<svg
   xmlns:dc="http://purl.org/dc/elements/1.1/"
   xmlns:cc="http://creativecommons.org/ns#"
   xmlns:rdf="http://www.w3.org/1999/02/22-rdf-syntax-ns#"
   xmlns:svg="http://www.w3.org/2000/svg"
   xmlns="http://www.w3.org/2000/svg"
   xmlns:xlink="http://www.w3.org/1999/xlink"
   xmlns:sodipodi="http://sodipodi.sourceforge.net/DTD/sodipodi-0.dtd"
   xmlns:inkscape="http://www.inkscape.org/namespaces/inkscape"
   height="647.21594"
   id="svg2"
   inkscape:version="0.46"
   sodipodi:docbase="C:\Omat tiedostot\openclipart\omat\billiard"
   sodipodi:docname="8ball_form_jarno_vasama.svg"
   sodipodi:version="0.32"
   version="1.0"
   width="1004.42"
   x="0.00000000"
   y="0.00000000"
   inkscape:output_extension="org.inkscape.output.svg.inkscape">
  <metadata
     id="metadata3">
    <rdf:RDF>
      <cc:Work
         rdf:about="">
        <dc:title>8 ball form</dc:title>
        <dc:description>Billiard 8 ball formation</dc:description>
        <dc:subject>
          <rdf:Bag>
            <rdf:li>sports</rdf:li>
            <rdf:li>billiard</rdf:li>
          </rdf:Bag>
        </dc:subject>
        <dc:publisher>
          <cc:Agent
             rdf:about="http://www.openclipart.org">
            <dc:title>Open Clip Art Library</dc:title>
          </cc:Agent>
        </dc:publisher>
        <dc:creator>
          <cc:Agent>
            <dc:title>Jarno Vasamaa</dc:title>
          </cc:Agent>
        </dc:creator>
        <dc:rights>
          <cc:Agent>
            <dc:title>Jarno Vasamaa</dc:title>
          </cc:Agent>
        </dc:rights>
        <dc:date />
        <dc:format>image/svg+xml</dc:format>
        <dc:type
           rdf:resource="http://purl.org/dc/dcmitype/StillImage" />
        <cc:license
           rdf:resource="http://web.resource.org/cc/PublicDomain" />
        <dc:language>en</dc:language>
      </cc:Work>
      <cc:License
         rdf:about="http://web.resource.org/cc/PublicDomain">
        <cc:permits
           rdf:resource="http://web.resource.org/cc/Reproduction" />
        <cc:permits
           rdf:resource="http://web.resource.org/cc/Distribution" />
        <cc:permits
           rdf:resource="http://web.resource.org/cc/DerivativeWorks" />
      </cc:License>
    </rdf:RDF>
  </metadata>
  <sodipodi:namedview
     bordercolor="#666666"
     borderopacity="1.0"
     id="base"
     inkscape:current-layer="svg2"
     inkscape:cx="813.75919"
     inkscape:cy="325.46437"
     inkscape:pageopacity="0.0"
     inkscape:pageshadow="2"
     inkscape:window-height="715"
     inkscape:window-width="800"
     inkscape:window-x="0"
     inkscape:window-y="25"
     inkscape:zoom="0.35355339"
     pagecolor="#ffffff"
     showgrid="false" />
  <defs
     id="defs3">
    <inkscape:perspective
       sodipodi:type="inkscape:persp3d"
       inkscape:vp_x="0 : 372.04724 : 1"
       inkscape:vp_y="0 : 1000 : 0"
       inkscape:vp_z="1052.3622 : 372.04724 : 1"
       inkscape:persp3d-origin="526.18109 : 248.03149 : 1"
       id="perspective102" />
    <linearGradient
       id="linearGradient3111"
       inkscape:collect="always">
      <stop
         id="stop3113"
         offset="0"
         style="stop-color:#000000;stop-opacity:1;" />
      <stop
         id="stop3115"
         offset="1"
         style="stop-color:#000000;stop-opacity:0;" />
    </linearGradient>
    <linearGradient
       id="linearGradient2708"
       inkscape:collect="always">
      <stop
         id="stop2710"
         offset="0"
         style="stop-color:#000000;stop-opacity:1;" />
      <stop
         id="stop2712"
         offset="1"
         style="stop-color:#000000;stop-opacity:0;" />
    </linearGradient>
    <linearGradient
       gradientTransform="matrix(1.269356,0,0,0.791048,1.01261,0.873602)"
       gradientUnits="userSpaceOnUse"
       id="linearGradient2714"
       inkscape:collect="always"
       x1="321.71506"
       x2="335.99365"
       xlink:href="#linearGradient2708"
       y1="528.35516"
       y2="444.94775" />
    <linearGradient
       gradientTransform="scale(0.780739,1.280838)"
       gradientUnits="userSpaceOnUse"
       id="linearGradient2734"
       inkscape:collect="always"
       x1="474.51733"
       x2="574.06854"
       xlink:href="#linearGradient2718"
       y1="425.29074"
       y2="316.37939" />
    <linearGradient
       gradientTransform="matrix(0.940524,0,0,1.067619,-0.424907,-1.488529)"
       gradientUnits="userSpaceOnUse"
       id="linearGradient2724"
       inkscape:collect="always"
       x1="388.27634"
       x2="373.44061"
       xlink:href="#linearGradient2718"
       y1="411.84357"
       y2="360.70889" />
    <linearGradient
       gradientTransform="matrix(1.105583,0,0,0.908228,-1.848907,3.258138)"
       gradientUnits="userSpaceOnUse"
       id="linearGradient2750"
       inkscape:collect="always"
       x1="276.01392"
       x2="277.87994"
       xlink:href="#linearGradient2718"
       y1="373.7132"
       y2="276.62177" />
    <linearGradient
       gradientTransform="matrix(1.190284,0,0,0.843599,-82.01368,-86.92711)"
       gradientUnits="userSpaceOnUse"
       id="linearGradient2754"
       inkscape:collect="always"
       x1="472.49023"
       x2="471.54663"
       xlink:href="#linearGradient2718"
       y1="379.99759"
       y2="306.50012" />
    <linearGradient
       id="linearGradient2718"
       inkscape:collect="always">
      <stop
         id="stop2720"
         offset="0"
         style="stop-color:#000000;stop-opacity:1;" />
      <stop
         id="stop2722"
         offset="1"
         style="stop-color:#000000;stop-opacity:0;" />
    </linearGradient>
    <linearGradient
       gradientTransform="matrix(1.190284,0,0,0.843599,-1.848907,3.258138)"
       gradientUnits="userSpaceOnUse"
       id="linearGradient2746"
       inkscape:collect="always"
       x1="472.49023"
       x2="471.54663"
       xlink:href="#linearGradient2718"
       y1="379.99759"
       y2="306.50012" />
    <linearGradient
       id="linearGradient2349">
      <stop
         id="stop2351"
         offset="0.00000000"
         style="stop-color:#000000;stop-opacity:1.0000000;" />
      <stop
         id="stop2353"
         offset="1.0000000"
         style="stop-color:#000000;stop-opacity:0.00000000;" />
    </linearGradient>
    <linearGradient
       gradientTransform="matrix(1.294266,-4.072879e-2,0,0.772639,0,0)"
       gradientUnits="userSpaceOnUse"
       id="linearGradient2355"
       x1="380.84811"
       x2="601.37744"
       xlink:href="#linearGradient2349"
       y1="481.1254"
       y2="662.61377" />
    <linearGradient
       gradientTransform="matrix(1.294266,-4.072879e-2,0,0.772639,0,0)"
       gradientUnits="userSpaceOnUse"
       id="linearGradient2485"
       x1="380.84811"
       x2="601.37744"
       xlink:href="#linearGradient2349"
       y1="481.1254"
       y2="662.61377" />
    <linearGradient
       gradientTransform="matrix(1.413694,-4.448704e-2,0,0.843934,-85.68341,-13.34837)"
       gradientUnits="userSpaceOnUse"
       id="linearGradient2567"
       x1="380.84811"
       x2="601.37744"
       xlink:href="#linearGradient2349"
       y1="481.1254"
       y2="662.61377" />
    <linearGradient
       gradientTransform="matrix(1.190284,0,0,0.843599,-301.9532,-86.92711)"
       gradientUnits="userSpaceOnUse"
       id="linearGradient2954"
       inkscape:collect="always"
       x1="472.49023"
       x2="471.54663"
       xlink:href="#linearGradient2718"
       y1="379.99759"
       y2="306.50012" />
    <linearGradient
       gradientTransform="matrix(1.190284,0,0,0.843599,139.9814,-84.8716)"
       gradientUnits="userSpaceOnUse"
       id="linearGradient2958"
       inkscape:collect="always"
       x1="472.49023"
       x2="471.54663"
       xlink:href="#linearGradient2718"
       y1="379.99759"
       y2="306.50012" />
    <linearGradient
       gradientTransform="matrix(1.413694,-4.448704e-2,0,0.843934,-85.68341,-13.34837)"
       gradientUnits="userSpaceOnUse"
       id="linearGradient3071"
       inkscape:collect="always"
       x1="380.84811"
       x2="601.37744"
       xlink:href="#linearGradient2349"
       y1="481.1254"
       y2="662.61377" />
    <linearGradient
       gradientTransform="scale(0.95702,1.04491)"
       gradientUnits="userSpaceOnUse"
       id="linearGradient3117"
       inkscape:collect="always"
       x1="207.83084"
       x2="216.07501"
       xlink:href="#linearGradient3111"
       y1="145.43411"
       y2="104.63365" />
    <linearGradient
       gradientTransform="matrix(0.95702,0,0,1.04491,194,-8)"
       gradientUnits="userSpaceOnUse"
       id="linearGradient3121"
       inkscape:collect="always"
       x1="207.83084"
       x2="216.07501"
       xlink:href="#linearGradient3111"
       y1="145.43411"
       y2="104.63365" />
    <linearGradient
       gradientTransform="matrix(1.953916,0,0,1.24394,165.9166,-29.63704)"
       gradientUnits="userSpaceOnUse"
       id="linearGradient3125"
       inkscape:collect="always"
       x1="207.83084"
       x2="216.07501"
       xlink:href="#linearGradient3111"
       y1="145.43411"
       y2="104.63365" />
    <linearGradient
       gradientTransform="matrix(1.953916,0,0,1.24394,375.9166,-33.63704)"
       gradientUnits="userSpaceOnUse"
       id="linearGradient3129"
       inkscape:collect="always"
       x1="207.83084"
       x2="216.07501"
       xlink:href="#linearGradient3111"
       y1="145.43411"
       y2="104.63365" />
  </defs>
  <g
     id="g3131"
     transform="translate(-24.590481,-46.596458)">
    <path
       d="M 337.44267,125.30158 C 289.71768,126.80342 250.75792,162.35788 248.05322,205.64252 C 246.72758,204.80749 245.39715,203.9764 244.02404,203.20217 C 237.38882,163.32547 200.19402,133.72805 155.21947,135.14333 C 105.56197,136.70599 65.245118,175.44812 65.24514,221.60346 C 65.24514,244.11179 74.880152,264.1909 90.460046,278.73702 C 90.300825,280.86108 90.102621,282.96479 90.102621,285.12083 C 90.102621,311.25525 102.05969,334.43282 121.13386,350.55807 C 120.92368,353.06668 120.71144,355.57214 120.71144,358.1218 C 120.71144,392.37196 140.05245,421.97626 169.48409,439.12848 C 168.93592,443.6259 168.57428,448.18577 168.57428,452.80832 C 168.57428,489.94108 186.867,522.30096 215.07238,542.40348 C 213.30854,550.65798 212.34293,559.15765 212.34293,567.82867 C 212.34293,639.80629 276.05946,696.20474 354.56671,693.73421 C 431.13802,691.32462 493.46219,633.76112 496.49805,564.14182 C 508.60086,567.41735 521.47598,569.06392 534.87281,568.64234 C 596.29948,566.70933 647.33577,523.5359 657.86046,468.51899 C 666.15381,469.95469 674.74678,470.64535 683.59527,470.3669 C 741.21399,468.55373 789.13693,429.08612 799.40187,378.65421 C 804.46269,379.14525 809.57753,379.42125 814.83626,379.25577 C 865.22352,377.67014 907.56663,345.43026 920.11499,303.09608 C 974.46868,300.62992 1018.3426,258.64166 1018.3426,208.67476 C 1018.3426,158.23623 973.65158,118.72073 918.58781,120.45352 C 876.03878,121.79247 839.78885,147.41395 825.46161,182.24736 C 821.97009,182.0526 818.41579,181.98586 814.83626,182.09849 C 813.61735,182.13684 812.4388,182.31927 811.22949,182.39319 C 798.60889,146.48947 761.9594,121.33535 718.72067,122.69602 C 674.76474,124.07925 637.6408,152.43148 625.62698,190.04597 C 621.13128,189.00453 616.4806,188.27509 611.75227,187.79463 C 602.21433,150.43307 565.87759,123.48894 522.4603,124.85521 C 478.76281,126.23032 442.2555,155.82467 433.00587,194.14438 C 430.63459,193.13614 428.23632,192.18525 425.75983,191.35221 C 418.7413,152.55903 381.91395,123.90212 337.44267,125.30158 z M 404.6391,434.68824 C 406.83686,435.73221 409.10745,436.68441 411.39774,437.58635 C 411.16826,438.99231 410.89141,440.38578 410.71537,441.80587 C 408.81381,441.11469 406.84233,440.55014 404.89904,439.93518 C 404.8143,438.18659 404.80395,436.41298 404.6391,434.68824 z"
       id="path2347"
       style="fill:url(#linearGradient3071);fill-opacity:1;fill-rule:nonzero;stroke:none;stroke-width:2.66000009;stroke-linecap:round;stroke-linejoin:round;stroke-miterlimit:4;stroke-dashoffset:0;stroke-opacity:1" />
    <path
       d="M 215.0096,147.20501 C 215.0096,199.39595 172.70048,241.70506 120.50955,241.70506 C 68.318617,241.70506 26.009506,199.39595 26.009506,147.20501 C 26.009506,95.014081 68.318617,52.704969 120.50955,52.704969 C 172.70048,52.704969 215.0096,95.014081 215.0096,147.20501 L 215.0096,147.20501 z"
       id="path1358"
       style="fill:#ffffff;fill-opacity:1;fill-rule:nonzero;stroke:#000000;stroke-width:2.83804989;stroke-linecap:round;stroke-linejoin:round;stroke-miterlimit:4;stroke-dashoffset:0;stroke-opacity:1" />
    <path
       d="M 47.878022,205.36894 C 47.878022,205.36894 35.268777,177.18357 33.785337,160.86572 C 32.301896,144.54787 37.493938,103.75325 37.493938,103.75325 C 37.493938,103.75325 51.586623,69.634128 93.122958,57.766603 C 121.30833,51.832842 130.20897,51.832842 146.52682,57.024883 C 162.84466,62.216925 167.29498,65.183807 167.29498,65.183807 C 167.29498,65.183807 160.6195,62.216925 152.46058,71.117568 C 144.30166,80.018211 127.24209,103.01154 126.50037,143.80615 C 125.75865,184.60077 128.72553,203.88549 128.72553,203.88549 C 128.72553,203.88549 104.99048,229.8457 79.030273,224.65366 C 53.070064,219.46161 47.878022,205.36894 47.878022,205.36894 z"
       id="path2137"
       style="fill:#ff7d00;fill-opacity:1;fill-rule:evenodd;stroke:none;stroke-width:1px;stroke-linecap:butt;stroke-linejoin:miter;stroke-opacity:1" />
    <a
       id="a2143"
       style="fill:#ffffff;fill-opacity:1"
       transform="matrix(1.066936,0,0,1.066936,-70.0555,-24.08319)">
      <path
         d="M 188.39573,99.655983 C 188.39573,110.79028 174.54529,119.81641 157.4599,119.81641 C 140.37451,119.81641 126.52407,110.79028 126.52407,99.655983 C 126.52407,88.521686 140.37451,79.495555 157.4599,79.495555 C 174.54529,79.495555 188.39573,88.521686 188.39573,99.655983 L 188.39573,99.655983 z"
         id="path2139"
         style="fill-rule:nonzero;stroke:none;stroke-width:1.76422238;stroke-linecap:round;stroke-linejoin:round;stroke-miterlimit:4;stroke-dashoffset:0;stroke-opacity:1"
         transform="matrix(1,-0.269663,0,1,-2.085561,37.59479)" />
    </a>
    <path
       d="M 114.63285,64.442087 C 114.63285,64.442087 96.08985,62.958645 90.897797,63.700367 C 85.705755,64.442087 85.705755,65.183807 85.705755,65.183807"
       id="path2141"
       style="fill:none;fill-opacity:0.75;fill-rule:evenodd;stroke:#000000;stroke-width:2.8399148;stroke-linecap:round;stroke-linejoin:miter;stroke-miterlimit:4;stroke-opacity:1" />
    <path
       d="M 110.92424,70.375848 L 106.47393,80.759932 L 96.831559,74.826169 C 96.831559,74.826169 96.08985,75.56789 90.897797,77.793052 C 85.705755,80.018211 85.705755,82.243376 81.997154,80.018211 C 78.288553,77.793052 77.546843,78.534771 79.030273,74.826169 C 80.513713,71.117568 85.705755,69.634129 85.705755,69.634129"
       id="path2146"
       style="fill:none;fill-opacity:0.75;fill-rule:evenodd;stroke:#000000;stroke-width:2.8399148;stroke-linecap:round;stroke-linejoin:miter;stroke-miterlimit:4;stroke-opacity:1" />
    <path
       d="M 406.0758,141.06783 C 406.0758,192.43411 363.92112,234.0747 311.92069,234.0747 C 259.92027,234.0747 217.76559,192.43411 217.76559,141.06783 C 217.76559,89.701552 259.92027,48.060956 311.92069,48.060956 C 363.92112,48.060956 406.0758,89.701552 406.0758,141.06783 L 406.0758,141.06783 z"
       id="path2148"
       style="fill:#ff7d00;fill-opacity:1;fill-rule:nonzero;stroke:#000000;stroke-width:2.92899537;stroke-linecap:round;stroke-linejoin:round;stroke-miterlimit:4;stroke-dashoffset:0;stroke-opacity:1" />
    <path
       d="M 602.74604,150.55945 C 602.74604,203.81937 559.57034,246.99507 506.31042,246.99507 C 453.0505,246.99507 409.8748,203.81937 409.8748,150.55945 C 409.8748,97.299524 453.0505,54.123825 506.31042,54.123825 C 559.57034,54.123825 602.74604,97.299524 602.74604,150.55945 L 602.74604,150.55945 z"
       id="path2150"
       style="fill:#ffffff;fill-opacity:1;fill-rule:nonzero;stroke:#000000;stroke-width:2.90545154;stroke-linecap:round;stroke-linejoin:round;stroke-miterlimit:4;stroke-dashoffset:0;stroke-opacity:1" />
    <path
       d="M 388,120.09448 L 404,108.09448 L 408,126.09448 L 412,130.09448 L 416,108.09448 C 416,108.09448 416,98.09448 422,118.09448 C 428,138.09448 436,158.09448 436,158.09448 L 388,120.09448 z"
       id="path3119"
       style="opacity:0.5968586;fill:url(#linearGradient3121);fill-opacity:1;fill-rule:evenodd;stroke:none;stroke-width:1px;stroke-linecap:butt;stroke-linejoin:miter;stroke-opacity:1" />
    <path
       d="M 483.53037,57.920515 C 483.53037,57.920515 513.90378,54.883172 526.81249,60.957856 C 539.7212,67.032542 553.38924,73.107226 559.46391,84.497264 C 565.5386,95.887289 571.61329,101.96198 571.61329,118.66736 C 571.61329,135.37275 562.50126,159.67147 565.5386,164.2275 C 568.57595,168.78351 592.87468,177.1362 595.91203,172.58019 C 598.94937,168.02417 599.7087,168.02418 600.46804,155.8748 C 600.46804,139.16943 599.7087,130.0574 593.63402,114.11135 C 589.07801,101.96198 574.65063,79.18191 554.9079,69.310548 C 538.20252,60.198521 530.60917,56.401843 515.42246,55.642508 C 500.23574,54.883172 483.53037,57.920515 483.53037,57.920515 z"
       id="path2152"
       style="fill:#00ae00;fill-opacity:1;fill-rule:evenodd;stroke:none;stroke-width:1px;stroke-linecap:butt;stroke-linejoin:miter;stroke-opacity:1" />
    <path
       d="M 814.60069,160.81048 C 814.60069,217.21567 768.87525,262.94111 712.47006,262.94111 C 656.06487,262.94111 610.33943,217.21567 610.33943,160.81048 C 610.33943,104.40529 656.06487,58.679849 712.47006,58.679849 C 768.87525,58.679849 814.60069,104.40529 814.60069,160.81048 L 814.60069,160.81048 z"
       id="path2154"
       style="fill:#ffffff;fill-opacity:1;fill-rule:nonzero;stroke:#000000;stroke-width:2.90545154;stroke-linecap:round;stroke-linejoin:round;stroke-miterlimit:4;stroke-dashoffset:0;stroke-opacity:1" />
    <path
       d="M 680.95761,65.51387 C 680.95761,65.51387 718.92439,75.385233 747.77914,92.090618 C 776.63389,108.79599 809.28532,134.61341 809.28532,134.61341 L 768.28119,219.65899 L 706.01569,228.01168 L 634.63814,177.1362 L 614.89542,130.81673 C 614.89542,130.81673 623.24811,106.51799 637.67548,91.331279 C 652.10286,76.144568 680.95761,65.51387 680.95761,65.51387 z"
       id="path2156"
       style="fill:#ffd900;fill-opacity:1;fill-rule:evenodd;stroke:none;stroke-width:1px;stroke-linecap:butt;stroke-linejoin:miter;stroke-opacity:1" />
    <path
       d="M 1027.2159,166.50555 C 1027.2282,223.5484 980.30922,269.79722 922.42744,269.79722 C 864.54567,269.79722 817.62668,223.5484 817.63903,166.50555 C 817.62668,109.46269 864.54567,63.213869 922.42744,63.213869 C 980.30922,63.213869 1027.2282,109.46269 1027.2159,166.50555 L 1027.2159,166.50555 z"
       id="path2158"
       style="fill:#f00000;fill-opacity:1;fill-rule:nonzero;stroke:#000000;stroke-width:3.21062446;stroke-linecap:round;stroke-linejoin:round;stroke-miterlimit:4;stroke-dashoffset:0;stroke-opacity:1" />
    <path
       d="M 1018.1027,142.58652 C 1021.877,161.24848 1013.2079,176.37699 998.73963,176.37699 C 984.27138,176.37699 969.48285,161.24848 965.70852,142.58652 C 961.93419,123.92457 970.60333,108.79606 985.07158,108.79606 C 999.53983,108.79606 1014.3284,123.92457 1018.1027,142.58652 z"
       id="path2160"
       style="fill:#fffffe;fill-opacity:1;fill-rule:nonzero;stroke:none;stroke-width:2.66000009;stroke-linecap:round;stroke-linejoin:round;stroke-miterlimit:4;stroke-dashoffset:0;stroke-opacity:1" />
    <path
       d="M 1004.4346,129.29806 L 1010.5093,146.76277 L 1002.1565,140.6881 C 1002.1565,140.6881 1002.9159,142.20676 1000.6379,146.76277 C 998.35988,151.31879 995.32253,154.35613 991.52585,153.5968 C 987.72917,152.83746 979.37649,150.55945 979.37649,146.76277 C 979.37649,142.9661 984.69184,135.37275 984.69184,135.37275"
       id="path2162"
       style="fill:none;fill-opacity:0.75;fill-rule:evenodd;stroke:#000000;stroke-width:3.00375628;stroke-linecap:round;stroke-linejoin:miter;stroke-miterlimit:4;stroke-opacity:1" />
    <path
       d="M 194,128.09448 L 210,116.09448 L 214,134.09448 L 218,138.09448 L 222,116.09448 C 222,116.09448 222,106.09448 228,126.09448 C 234,146.09448 242,166.09448 242,166.09448 L 194,128.09448 z"
       id="path3109"
       style="fill:url(#linearGradient3117);fill-opacity:1;fill-rule:evenodd;stroke:none;stroke-width:1px;stroke-linecap:butt;stroke-linejoin:miter;stroke-opacity:1" />
    <path
       d="M 261.83943,219.89847 C 261.83943,277.20691 214.89273,323.66459 156.98103,323.66459 C 99.069334,323.66459 52.122628,277.20691 52.122628,219.89847 C 52.122628,162.59002 99.069334,116.13234 156.98103,116.13234 C 214.89273,116.13234 261.83943,162.59002 261.83943,219.89847 z"
       id="path2206"
       style="fill:#00b800;fill-opacity:1;fill-rule:nonzero;stroke:#000000;stroke-width:2.78892827;stroke-linecap:round;stroke-linejoin:round;stroke-miterlimit:4;stroke-dashoffset:0;stroke-opacity:1" />
    <path
       d="M 469.22061,218.80626 C 469.22061,274.26906 422.83066,319.23054 365.60575,319.23054 C 308.38084,319.23054 261.99088,274.26906 261.99088,218.80626 C 261.99088,163.34346 308.38084,118.38198 365.60575,118.38198 C 422.83066,118.38198 469.22061,163.34346 469.22061,218.80626 L 469.22061,218.80626 z"
       id="path2208"
       style="fill:#ffffff;fill-opacity:1;fill-rule:nonzero;stroke:#000000;stroke-width:3.11904383;stroke-linecap:round;stroke-linejoin:round;stroke-miterlimit:4;stroke-dashoffset:0;stroke-opacity:1" />
    <path
       d="M 207.09264,203.76453 C 207.09264,203.76453 219.11734,203.76453 227.13382,193.74394 C 242.27029,191.31803 249.68276,177.35629 250.15742,172.60962 C 258.70142,167.86295 255.56096,178.55488 260.57111,180.08433 C 274.59993,182.08845 272.49974,180.07951 272.49974,180.07951 C 272.49974,180.07951 266.4874,193.01517 274.50386,205.03988 C 282.52032,217.06458 293.99844,230.00025 303.29026,239.83865 L 233.14617,229.81805 L 207.09264,203.76453 z"
       id="path2952"
       sodipodi:nodetypes="ccccccccc"
       style="fill:url(#linearGradient2954);fill-opacity:1;fill-rule:evenodd;stroke:none;stroke-width:1px;stroke-linecap:butt;stroke-linejoin:miter;stroke-opacity:1" />
    <path
       d="M 438.78797,151.08514 C 438.78797,151.08514 438.78797,170.74609 427.86522,186.03794 C 416.94247,201.32979 364.51327,229.72894 364.51327,229.72894 C 364.51327,229.72894 371.06692,231.91349 327.37592,234.09804 C 283.68492,236.28259 272.76217,229.72894 272.76217,229.72894 L 288.05402,279.97359 L 336.11412,304.00364 C 336.11412,304.00364 388.54332,299.63454 406.01972,288.71179 C 423.49612,277.78904 458.44892,234.09804 458.44892,234.09804 L 465.00257,212.25254 C 465.00257,212.25254 465.00257,194.77614 458.44892,177.29974 C 451.89527,159.82334 438.78797,151.08514 438.78797,151.08514 z"
       id="path2210"
       style="fill:#00009c;fill-opacity:1;fill-rule:evenodd;stroke:none;stroke-width:1px;stroke-linecap:butt;stroke-linejoin:miter;stroke-opacity:1" />
    <path
       d="M 558,132.85638 L 594.66666,108.57067 L 602.83334,129.99924 L 611,134.76115 L 619.16666,108.57067 C 619.16666,108.57067 619.16666,96.665909 631.41666,120.47543 C 643.66666,144.28496 660,168.09448 660,168.09448 L 558,132.85638 z"
       id="path3123"
       sodipodi:nodetypes="cccccccc"
       style="opacity:0.59790572;fill:url(#linearGradient3125);fill-opacity:1;fill-rule:evenodd;stroke:none;stroke-width:1px;stroke-linecap:butt;stroke-linejoin:miter;stroke-opacity:1" />
    <path
       d="M 692.13387,230.82126 C 692.13387,288.05749 643.7477,334.45662 584.06035,334.45662 C 524.37299,334.45662 475.98683,288.05749 475.98683,230.82126 C 475.98683,173.58504 524.37299,127.18591 584.06035,127.18591 C 643.7477,127.18591 692.13387,173.58504 692.13387,230.82126 L 692.13387,230.82126 z"
       id="path2212"
       style="fill:#af350b;fill-opacity:1;fill-rule:nonzero;stroke:#000000;stroke-width:3.09651971;stroke-linecap:round;stroke-linejoin:round;stroke-miterlimit:4;stroke-dashoffset:0;stroke-opacity:1" />
    <path
       d="M 427.03217,203.76453 C 427.03217,203.76453 439.05687,203.76453 447.07335,193.74394 C 455.08982,183.72336 454.90762,172.60962 454.90762,172.60962 C 454.90762,172.60962 455.08982,175.70688 469.11864,177.711 C 483.14746,179.71512 492.43927,180.07951 492.43927,180.07951 C 492.43927,180.07951 486.42693,193.01517 494.44339,205.03988 C 502.45985,217.06458 513.93797,230.00025 523.22979,239.83865 L 453.0857,229.81805 L 427.03217,203.76453 z"
       id="path2752"
       sodipodi:nodetypes="ccccccccc"
       style="fill:url(#linearGradient2754);fill-opacity:1;fill-rule:evenodd;stroke:none;stroke-width:1px;stroke-linecap:butt;stroke-linejoin:miter;stroke-opacity:1" />
    <path
       d="M 780,138.85638 L 798.66666,108.57067 L 812.83334,125.99924 L 821,130.76115 L 837.16666,106.57067 C 837.16666,106.57067 829.16666,92.665909 841.41666,116.47543 C 853.66666,140.28496 874,128.09448 882,158.09448 L 780,138.85638 z"
       id="path3127"
       sodipodi:nodetypes="cccccccc"
       style="opacity:0.5968586;fill:url(#linearGradient3129);fill-opacity:1;fill-rule:evenodd;stroke:none;stroke-width:1px;stroke-linecap:butt;stroke-linejoin:miter;stroke-opacity:1" />
    <path
       d="M 928.09994,240.65153 C 928.09994,302.1827 876.76463,352.06358 813.43931,352.06358 C 750.11399,352.06358 698.77868,302.1827 698.77868,240.65153 C 698.77868,179.12035 750.11399,129.23948 813.43931,129.23948 C 876.76463,129.23948 928.09994,179.12035 928.09994,240.65153 L 928.09994,240.65153 z"
       id="path2214"
       style="fill:#ffffff;fill-opacity:1;fill-rule:nonzero;stroke:#000000;stroke-width:2.93316293;stroke-linecap:round;stroke-linejoin:round;stroke-miterlimit:4;stroke-dashoffset:0;stroke-opacity:1" />
    <path
       d="M 649.02721,205.82004 C 649.02721,205.82004 661.05191,205.82004 669.06839,195.79945 C 677.08486,185.77887 676.90266,174.66513 676.90266,174.66513 C 676.90266,174.66513 677.08486,177.76239 691.11368,179.76651 C 705.1425,181.77063 714.43431,182.13502 714.43431,182.13502 C 714.43431,182.13502 708.42197,195.07068 716.43843,207.09539 C 724.45489,219.12009 735.93301,232.05576 745.22483,241.89416 L 675.08074,231.87356 L 649.02721,205.82004 z"
       id="path2956"
       sodipodi:nodetypes="ccccccccc"
       style="fill:url(#linearGradient2958);fill-opacity:1;fill-rule:evenodd;stroke:none;stroke-width:1px;stroke-linecap:butt;stroke-linejoin:miter;stroke-opacity:1" />
    <path
       d="M 759.91682,253.75899 C 759.91682,253.75899 794.86962,218.80619 810.16147,194.77614 C 825.45332,170.74609 829.82242,166.37699 832.00697,153.26969 C 834.19152,140.16239 827.63787,131.42419 827.63787,131.42419 C 827.63787,131.42419 834.19152,127.05509 862.59067,140.16239 C 890.98982,153.26969 897.54347,164.19244 908.46622,179.48429 C 919.38897,194.77614 925.94262,220.99074 923.75807,231.91349 C 921.57352,242.83624 917.20442,255.94354 917.20442,255.94354 C 917.20442,255.94354 901.91257,286.52724 884.43617,304.00364 C 866.95977,321.48004 847.29882,343.32554 836.37607,347.69464 C 825.45332,352.06374 797.05417,354.24829 773.02412,343.32554 C 748.99407,332.40279 731.51767,293.08089 731.51767,293.08089 L 759.91682,253.75899 z"
       id="path2216"
       style="fill:#9517a1;fill-opacity:1;fill-rule:evenodd;stroke:none;stroke-width:1px;stroke-linecap:butt;stroke-linejoin:miter;stroke-opacity:1" />
    <path
       d="M 910.08899,222.37234 C 913.04465,243.90373 901.99958,261.2287 885.41914,261.06876 C 868.8387,260.90881 853.00157,243.32451 850.04591,221.79313 C 847.09025,200.26174 858.13532,182.93676 874.71576,183.09671 C 891.2962,183.25665 907.13334,200.84095 910.08899,222.37234 z"
       id="path2218"
       style="fill:#ffffff;fill-opacity:1;fill-rule:nonzero;stroke:none;stroke-width:2.66000009;stroke-linecap:round;stroke-linejoin:round;stroke-miterlimit:4;stroke-dashoffset:0;stroke-opacity:1" />
    <path
       d="M 898.48972,221.07836 L 889.37185,207.41909 L 877.77738,196.85555"
       id="path2220"
       style="fill:none;fill-opacity:0.75;fill-rule:evenodd;stroke:#000000;stroke-width:4.2325654;stroke-linecap:round;stroke-linejoin:miter;stroke-miterlimit:4;stroke-opacity:1" />
    <path
       d="M 893.27952,227.83645 C 890.16039,227.31659 894.44188,233.56067 889.34265,237.82464 C 883.72357,241.56874 882.5612,238.47883 878.1921,231.92518 C 873.823,225.37153 880.69206,215.68708 880.69206,215.68708 L 871.32887,205.69889 L 862.59067,220.99074"
       id="path2222"
       style="fill:none;fill-opacity:0.75;fill-rule:evenodd;stroke:#000000;stroke-width:3.82296252;stroke-linecap:round;stroke-linejoin:miter;stroke-miterlimit:4;stroke-opacity:1" />
    <g
       id="g2104"
       transform="matrix(1.092275,0,0,1.092275,-74.58128,-28.15115)">
      <path
         d="M 354.48663,301.99554 C 354.50422,356.63809 309.1278,400.94373 253.14707,400.94373 C 197.16633,400.94373 151.78991,356.63809 151.8075,301.99554 C 151.78991,247.35299 197.16633,203.04735 253.14706,203.04735 C 309.1278,203.04735 354.50422,247.35299 354.48663,301.99554 L 354.48663,301.99554 z"
         id="path1336"
         style="fill:#ffffff;fill-opacity:1;fill-rule:nonzero;stroke:#000000;stroke-width:2.66000009;stroke-linecap:round;stroke-linejoin:round;stroke-miterlimit:4;stroke-dashoffset:0;stroke-opacity:1"
         transform="matrix(1.066852,0,0,1.048321,-16.51962,-12.97769)" />
      <path
         d="M 167.95722,243.45277 C 167.95722,243.45277 165.53476,248.29769 183.29947,257.98753 C 201.06417,267.67737 236.59358,273.32978 257.58824,274.94475 C 278.58289,276.55972 314.91979,271.7148 325.41711,265.25491 C 335.91444,258.79502 343.18182,251.52764 343.18182,248.29769 C 343.18182,245.06775 357.71658,273.32977 360.13904,289.47951 C 362.5615,305.62924 356.90909,336.31373 353.67914,341.96614 C 350.4492,347.61855 197.83422,381.53299 197.83422,381.53299 C 197.83422,381.53299 193.79679,382.34047 187.3369,380.7255 C 180.87701,379.11053 177.64706,376.68807 177.64706,376.68807 C 177.64706,376.68807 163.91979,362.96079 158.26738,352.46347 C 152.61497,341.96614 146.15507,320.16401 146.96256,308.05171 C 144.54011,291.09449 153.42246,266.0624 156.65241,258.79502 C 159.88236,251.52764 167.95722,243.45277 167.95722,243.45277 z"
         id="path2096"
         style="fill:#980f00;fill-opacity:1;fill-rule:evenodd;stroke:none;stroke-width:1px;stroke-linecap:butt;stroke-linejoin:miter;stroke-opacity:1" />
      <path
         d="M 548.28343,290.69073 C 548.28343,335.50997 511.22721,371.84314 465.51605,371.84314 C 419.80489,371.84314 382.74867,335.50997 382.74867,290.69073 C 382.74867,245.87149 419.80489,209.53832 465.51605,209.53832 C 511.22721,209.53832 548.28343,245.87149 548.28343,290.69073 L 548.28343,290.69073 z"
         id="path2098"
         style="fill:#000000;fill-opacity:1;fill-rule:nonzero;stroke:#000000;stroke-width:2.66000009;stroke-linecap:round;stroke-linejoin:round;stroke-miterlimit:4;stroke-dashoffset:0;stroke-opacity:1"
         transform="matrix(1.24211,0,0,1.227871,-109.4761,-51.70539)" />
      <path
         d="M 803.44922,326.6239 C 803.46753,389.96409 754.29489,441.3216 693.63104,441.3216 C 632.9672,441.3216 583.79456,389.96409 583.81287,326.6239 C 583.79456,263.28371 632.9672,211.9262 693.63104,211.9262 C 754.29489,211.9262 803.46753,263.28371 803.44922,326.6239 z"
         id="path2100"
         style="fill:#0000a4;fill-opacity:1;fill-rule:nonzero;stroke:#000000;stroke-width:2.66000009;stroke-linecap:round;stroke-linejoin:round;stroke-miterlimit:4;stroke-dashoffset:0;stroke-opacity:1"
         transform="matrix(1.032693,0,0,0.975639,-29.53977,7.552942)" />
      <path
         d="M 610.45989,247.4902 C 608.84492,256.37255 604.80749,270.90731 595.92514,286.24956 C 587.04278,301.59181 578.96791,319.35651 576.54545,314.51159 C 574.12299,309.66667 580.58289,288.67202 587.04278,275.75224 C 593.50267,262.83245 607.22994,248.29769 610.45989,247.4902 z"
         id="path2102"
         style="fill:#ffffff;fill-opacity:1;fill-rule:evenodd;stroke:none;stroke-width:1px;stroke-linecap:butt;stroke-linejoin:miter;stroke-opacity:1" />
    </g>
    <path
       d="M 284.73984,291.9457 C 284.73984,291.9457 295.11409,291.9457 302.03026,281.92511 C 308.94643,271.90452 307.29956,257.55954 307.29956,257.55954 C 307.29956,257.55954 308.94643,263.88805 321.04974,265.89217 C 333.15305,267.89629 334.40159,262.20009 334.40159,262.20009 C 334.40159,262.20009 326.27794,280.30682 334.88208,299.64601 C 349.11275,330.23826 354.88395,344.05275 354.88395,344.05275 L 307.21739,317.99922 L 284.73984,291.9457 z"
       id="path2748"
       sodipodi:nodetypes="ccccccccc"
       style="fill:url(#linearGradient2750);fill-opacity:1;fill-rule:evenodd;stroke:none;stroke-width:1px;stroke-linecap:butt;stroke-linejoin:miter;stroke-opacity:1" />
    <path
       d="M 383.11088,412.18566 C 383.11088,483.84775 327.46902,541.94135 258.8313,541.94135 C 190.19358,541.94135 134.55172,483.84775 134.55172,412.18566 C 134.55172,340.52358 190.19358,282.42998 258.8313,282.42998 C 327.46902,282.42998 383.11088,340.52358 383.11088,412.18566 L 383.11088,412.18566 z"
       id="path2131"
       style="fill:#a805a8;fill-opacity:1;fill-rule:nonzero;stroke:#000000;stroke-width:3.33161402;stroke-linecap:round;stroke-linejoin:round;stroke-miterlimit:4;stroke-dashoffset:0;stroke-opacity:1" />
    <path
       d="M 285.76436,305.84655 C 285.77013,319.44075 266.01772,332.12648 241.64989,334.17851 C 217.28206,336.23053 197.52965,326.87151 197.53541,313.27635 C 197.52965,299.68215 217.28206,286.99642 241.64989,284.94439 C 266.01772,282.89237 285.77013,292.25138 285.76436,305.84655 z"
       id="path2133"
       style="fill:#ffffff;fill-opacity:1;fill-rule:nonzero;stroke:none;stroke-width:2.66000009;stroke-linecap:round;stroke-linejoin:round;stroke-miterlimit:4;stroke-dashoffset:0;stroke-opacity:1" />
    <path
       d="M 238.39932,293.3087 C 238.39932,293.3087 246.75785,297.0236 250.47275,299.80978 C 254.18766,302.59595 257.90256,305.38213 257.90256,305.38213 C 257.90256,305.38213 245.82913,305.38213 237.47059,307.23959 C 229.11206,309.09703 215.18117,312.81194 215.18117,312.81194 C 215.18117,312.81194 228.18334,304.45341 235.61314,300.73851 C 243.04294,297.0236 255.11638,292.37997 255.11638,292.37997"
       id="path2138"
       style="fill:none;fill-opacity:0.75;fill-rule:evenodd;stroke:#000000;stroke-width:3.54989386;stroke-linecap:butt;stroke-linejoin:miter;stroke-miterlimit:4;stroke-opacity:1" />
    <path
       d="M 507.19686,293.94982 C 507.19686,293.94982 519.22156,293.94982 527.23802,283.92922 C 535.25449,273.90864 537.25861,257.87571 537.25861,257.87571 C 537.25861,257.87571 535.25449,265.89217 549.28331,267.89629 C 563.31213,269.90041 569.32449,265.89217 569.32449,265.89217 C 569.32449,265.89217 557.29979,273.90864 565.31625,285.93334 C 573.33272,297.95804 609.40683,330.02393 609.40683,330.02393 L 533.25038,320.00334 L 507.19686,293.94982 z"
       id="path2738"
       style="fill:url(#linearGradient2746);fill-opacity:1;fill-rule:evenodd;stroke:none;stroke-width:1px;stroke-linecap:butt;stroke-linejoin:miter;stroke-opacity:1" />
    <path
       d="M 650.71662,423.79487 C 650.73816,496.89573 591.91203,556.1672 519.33888,556.1672 C 446.76573,556.1672 387.93961,496.89573 387.96115,423.79487 C 387.93961,350.69401 446.76573,291.42254 519.33888,291.42254 C 591.91203,291.42254 650.73816,350.69401 650.71662,423.79487 L 650.71662,423.79487 z"
       id="path2140"
       style="fill:#ffffff;fill-opacity:1;fill-rule:nonzero;stroke:#000000;stroke-width:3.00125098;stroke-linecap:round;stroke-linejoin:round;stroke-miterlimit:4;stroke-dashoffset:0;stroke-opacity:1" />
    <path
       d="M 519.34326,291.47582 C 517.38241,291.47582 515.48051,291.69723 513.54054,291.78302 C 570.88827,295.04274 616.38506,339.32834 616.38506,393.60353 C 616.38506,449.99578 567.30975,495.76538 506.81623,495.76538 C 446.32271,495.76537 397.21326,449.99578 397.21326,393.60353 C 397.21326,383.92908 398.74621,374.62213 401.44582,365.75052 C 392.90732,383.29883 387.96305,402.96274 387.96305,423.81176 C 387.96305,496.8596 446.82276,556.11356 519.34326,556.11357 C 591.86377,556.11357 650.72348,496.8596 650.72346,423.81176 C 650.72346,350.76393 591.86378,291.47583 519.34326,291.47582 z"
       id="path2142"
       style="fill:#e50b00;fill-opacity:1;fill-rule:nonzero;stroke:none;stroke-width:2.66000009;stroke-linecap:round;stroke-linejoin:round;stroke-miterlimit:4;stroke-dashoffset:0;stroke-opacity:1" />
    <path
       d="M 389.05939,381.28708 C 389.05939,381.28708 403.08821,399.32414 425.1335,415.35708 C 447.17879,431.39001 465.21585,441.41059 465.21585,461.45177 C 465.21585,481.49294 471.2282,503.53822 465.21585,513.55881 C 459.2035,523.5794 399.07998,453.43529 399.07998,453.43529 L 387.05527,413.35297 L 389.05939,381.28708 z"
       id="path2726"
       style="fill:url(#linearGradient2734);fill-opacity:1;fill-rule:evenodd;stroke:none;stroke-width:1px;stroke-linecap:butt;stroke-linejoin:miter;stroke-opacity:1" />
    <path
       d="M 310.21325,403.43782 C 310.21325,403.43782 358.31207,401.4337 368.33266,387.40489 C 378.35324,373.37607 378.35324,373.37607 378.35324,373.37607 C 378.35324,373.37607 380.35736,371.37195 382.36148,395.42136 C 384.3656,419.47075 366.32854,455.54486 366.32854,455.54486 L 310.21325,403.43782 z"
       id="path2716"
       style="fill:url(#linearGradient2724);fill-opacity:1;fill-rule:evenodd;stroke:none;stroke-width:1px;stroke-linecap:butt;stroke-linejoin:miter;stroke-opacity:1" />
    <path
       d="M 479.32482,543.73176 C 479.32482,625.12169 412.43517,691.10127 329.92261,691.10127 C 247.41005,691.10127 180.5204,625.12169 180.5204,543.73176 C 180.5204,462.34183 247.41005,396.36225 329.92261,396.36225 C 412.43517,396.36225 479.32482,462.34183 479.32482,543.73176 L 479.32482,543.73176 z"
       id="path2155"
       style="fill:#ffda00;fill-opacity:1;fill-rule:nonzero;stroke:#000000;stroke-width:3.68439746;stroke-linecap:round;stroke-linejoin:round;stroke-miterlimit:4;stroke-dashoffset:0;stroke-opacity:1" />
    <path
       d="M 337.03666,502.51289 C 337.04782,532.95077 313.15541,560.25275 283.67877,563.48523 C 254.20213,566.71771 230.30973,544.65592 230.32089,514.2156 C 230.30973,483.77772 254.20213,456.47574 283.67877,453.24326 C 313.15541,450.01078 337.04782,472.07256 337.03666,502.51289 z"
       id="path2157"
       style="fill:#ffffff;fill-opacity:1;fill-rule:nonzero;stroke:none;stroke-width:2.66000009;stroke-linecap:round;stroke-linejoin:round;stroke-miterlimit:4;stroke-dashoffset:0;stroke-opacity:1" />
    <path
       d="M 285.86947,483.13674 C 283.68492,494.05949 281.50037,491.87494 277.13127,504.98224 C 272.76217,518.08954 274.94672,522.45864 270.57762,535.56594"
       id="path2159"
       style="fill:none;fill-opacity:0.75;fill-rule:evenodd;stroke:#000000;stroke-width:6.82671881;stroke-linecap:round;stroke-linejoin:miter;stroke-miterlimit:4;stroke-opacity:1" />
    <path
       d="M 36.874935,119.78551 C 36.874935,119.78551 41.552024,97.497456 60.68558,77.526476 C 82.370275,62.520656 92.291365,59.762236 113.97607,57.886505 C 135.66076,56.010778 142.88899,59.762236 142.88899,59.762236 C 142.88899,59.762236 95.834629,59.651897 74.149923,78.409174 C 53.740819,91.208255 36.874935,119.78551 36.874935,119.78551 z"
       id="path2375"
       style="fill:#ffffff;fill-opacity:0.71351348;fill-rule:evenodd;stroke:none;stroke-width:1px;stroke-linecap:butt;stroke-linejoin:miter;stroke-opacity:1" />
    <path
       d="M 195.56947,529.25663 C 195.56947,529.25663 202.75318,485.28365 232.14106,445.88213 C 265.44733,416.27656 280.68548,410.83437 313.99174,407.13366 C 347.298,403.43297 358.4001,410.83437 358.4001,410.83437 C 358.4001,410.83437 286.12769,410.61667 252.82142,447.62363 C 221.47435,472.87544 195.56947,529.25663 195.56947,529.25663 z"
       id="path2357"
       style="fill:#ffffff;fill-opacity:0.71351348;fill-rule:evenodd;stroke:none;stroke-width:1px;stroke-linecap:butt;stroke-linejoin:miter;stroke-opacity:1" />
    <path
       d="M 145.92399,400.12762 C 145.92399,400.12762 147.01528,369.11017 162.83521,339.58629 C 181.98093,316.55602 191.39534,311.635 212.63491,306.55819 C 233.87449,301.4814 241.65231,305.77364 241.65231,305.77364 C 241.65231,305.77364 194.89714,311.07366 176.34969,339.2335 C 158.11905,359.09861 145.92399,400.12762 145.92399,400.12762 z"
       id="path2359"
       style="fill:#ffffff;fill-opacity:0.71351348;fill-rule:evenodd;stroke:none;stroke-width:1px;stroke-linecap:butt;stroke-linejoin:miter;stroke-opacity:1" />
    <path
       d="M 344.866,274.3717 C 344.866,274.3717 344.00178,257.01673 372.96411,227.26503 C 403.07183,206.64136 415.38411,204.25615 440.81629,206.1729 C 466.24845,208.08965 473.16733,216.24206 473.16733,216.24206 C 473.16733,216.24206 419.46986,204.90609 388.02627,231.96988 C 360.16108,249.10742 344.866,274.3717 344.866,274.3717 z"
       id="path2361"
       style="fill:#ffffff;fill-opacity:0.5243243;fill-rule:evenodd;stroke:none;stroke-width:1px;stroke-linecap:butt;stroke-linejoin:miter;stroke-opacity:1" />
    <path
       d="M 595.45963,260.09846 C 595.45963,260.09846 580.01031,259.39916 613.42933,230.25307 C 647.05873,211.57667 660.15889,210.76124 686.48045,216.79562 C 712.80199,222.83002 719.13989,233.07843 719.13989,233.07843 C 719.13989,233.07843 664.35062,212.11641 628.63328,237.85306 C 597.71901,252.93901 595.45963,260.09846 595.45963,260.09846 z"
       id="path2363"
       style="fill:#ffffff;fill-opacity:0.71351348;fill-rule:evenodd;stroke:none;stroke-width:1px;stroke-linecap:butt;stroke-linejoin:miter;stroke-opacity:1" />
    <path
       d="M 516.54297,169.97564 C 516.54297,169.97564 503.47237,169.45256 531.7459,147.65081 C 560.19741,133.68056 571.28055,133.07061 593.54939,137.58443 C 615.81824,142.09824 621.1803,149.76422 621.1803,149.76422 C 621.1803,149.76422 574.82688,134.0843 544.60891,153.33572 C 518.45448,164.62026 516.54297,169.97564 516.54297,169.97564 z"
       id="path2365"
       style="fill:#ffffff;fill-opacity:0.71351348;fill-rule:evenodd;stroke:none;stroke-width:1px;stroke-linecap:butt;stroke-linejoin:miter;stroke-opacity:1" />
    <path
       d="M 254.34649,82.812834 C 254.34649,82.812834 241.57889,81.929183 271.24252,63.104781 C 300.3821,51.367078 311.30228,51.163808 332.73175,55.944827 C 354.16124,60.725852 358.73438,67.825779 358.73438,67.825779 C 358.73438,67.825779 314.68864,52.191799 283.34618,68.649147 C 256.69818,78.030647 254.34649,82.812834 254.34649,82.812834 z"
       id="path2367"
       style="fill:#ffffff;fill-opacity:0.71351348;fill-rule:evenodd;stroke:none;stroke-width:1px;stroke-linecap:butt;stroke-linejoin:miter;stroke-opacity:1" />
    <path
       d="M 68.828576,219.50263 C 68.828576,219.50263 57.255396,226.46484 69.552771,184.99568 C 86.353355,152.44192 95.581655,145.3252 117.31124,137.63508 C 139.04085,129.94498 147.92708,135.6695 147.92708,135.6695 C 147.92708,135.6695 99.205865,144.4401 83.813585,184.09776 C 67.504254,212.22931 68.828576,219.50263 68.828576,219.50263 z"
       id="path2369"
       style="fill:#ffffff;fill-opacity:0.54054051;fill-rule:evenodd;stroke:none;stroke-width:1px;stroke-linecap:butt;stroke-linejoin:miter;stroke-opacity:1" />
    <path
       d="M 879.21645,86.979498 C 879.21645,86.979498 866.86316,82.677162 900.2557,70.042057 C 931.54059,64.951593 942.32192,67.591795 962.31497,78.387824 C 982.308,89.183854 985.2085,98.07804 985.2085,98.07804 C 985.2085,98.07804 945.42008,69.593178 910.90897,79.222649 C 882.60306,82.411676 879.21645,86.979498 879.21645,86.979498 z"
       id="path2371"
       style="fill:#ffffff;fill-opacity:0.55135139;fill-rule:evenodd;stroke:none;stroke-width:1px;stroke-linecap:butt;stroke-linejoin:miter;stroke-opacity:1" />
    <path
       d="M 645.23232,97.304615 C 645.23232,97.304615 659.55902,79.230034 686.97616,69.580188 C 714.70753,65.530793 725.59602,67.386232 747.57583,75.191709 C 769.55563,82.997184 774.96503,89.550632 774.96503,89.550632 C 774.96503,89.550632 729.10159,68.838748 699.72689,76.275238 C 674.20679,78.890993 645.23232,97.304615 645.23232,97.304615 z"
       id="path2373"
       style="fill:#ffffff;fill-opacity:0.71351348;fill-rule:evenodd;stroke:none;stroke-width:1px;stroke-linecap:butt;stroke-linejoin:miter;stroke-opacity:1" />
    <path
       d="M 319.86932,687.73349 C 319.86932,687.73349 361.01236,691.65188 384.52266,681.85592 C 408.03296,672.05996 441.33922,642.67207 453.09437,623.08015 C 464.84952,603.48824 478.56387,576.05955 478.56387,558.42682 C 478.56387,540.7941 478.56387,513.36541 472.68629,501.61026 C 466.80872,489.8551 458.97195,474.18156 458.97195,474.18156 C 458.97195,474.18156 470.7271,511.40622 466.80872,536.87571 C 462.89033,562.34521 457.01276,581.93712 439.38003,615.24339 C 417.82892,646.59046 411.95135,654.42722 388.44104,672.05996 C 355.13478,689.69269 319.86932,687.73349 319.86932,687.73349 z"
       id="path2377"
       style="fill:#000000;fill-opacity:0.22702703;fill-rule:evenodd;stroke:none;stroke-width:1px;stroke-linecap:butt;stroke-linejoin:miter;stroke-opacity:1" />
    <path
       d="M 496.19659,556.53838 C 496.19659,556.53838 537.33963,560.09858 560.84993,551.19809 C 584.36024,542.29759 617.6665,515.59611 629.42165,497.79512 C 641.1768,479.99413 654.89114,455.07276 654.89114,439.05187 C 654.89114,423.03098 654.89114,398.1096 649.01357,387.42901 C 643.13599,376.74842 635.29922,362.50762 635.29922,362.50762 C 635.29922,362.50762 647.05438,396.32951 643.13599,419.47079 C 639.21761,442.61206 633.34003,460.41304 615.70731,490.67473 C 594.1562,519.1563 588.27862,526.27669 564.76832,542.29759 C 531.46206,558.31848 496.19659,556.53838 496.19659,556.53838 z"
       id="path2379"
       style="fill:#000000;fill-opacity:0.22702703;fill-rule:evenodd;stroke:none;stroke-width:1px;stroke-linecap:butt;stroke-linejoin:miter;stroke-opacity:1" />
    <path
       d="M 660.76872,449.26891 C 699.95255,445.35053 700.0977,448.73163 725.93,440.27889 C 751.7623,431.82611 758.97019,418.22297 771.88635,401.31746 C 784.8025,384.41193 799.87135,360.74422 799.87135,345.52925 C 799.87135,330.31428 799.87135,306.64655 793.41327,296.50323 C 786.9552,286.35993 778.34442,272.8355 778.34442,272.8355 C 778.34442,272.8355 791.26058,304.95601 786.9552,326.93318 C 782.64981,348.91035 776.19173,365.81586 756.8175,394.55525 C 733.13789,421.60408 740.39416,420.52952 714.56185,435.74449 C 677.96607,450.95946 660.76872,449.26891 660.76872,449.26891 z"
       id="path2381"
       style="fill:#000000;fill-opacity:0.22702703;fill-rule:evenodd;stroke:none;stroke-width:1px;stroke-linecap:butt;stroke-linejoin:miter;stroke-opacity:1" />
    <path
       d="M 790.07539,355.22769 C 829.25923,351.30931 829.40437,354.69041 855.23667,346.23767 C 881.06897,337.78489 894.15444,318.30418 907.07059,301.39867 C 919.98674,284.49313 929.17802,266.703 929.17802,251.48803 C 929.17802,236.27306 929.17802,212.60533 922.71994,202.46201 C 916.26187,192.31871 907.65109,178.79428 907.65109,178.79428 C 907.65109,178.79428 920.56726,210.91479 916.26187,232.89197 C 911.95648,254.86913 905.4984,271.77464 886.12418,300.51403 C 864.40375,321.68528 867.74164,318.65153 841.90933,333.86651 C 805.31355,349.08147 790.07539,355.22769 790.07539,355.22769 z"
       id="path2383"
       style="fill:#000000;fill-opacity:0.34054051;fill-rule:evenodd;stroke:none;stroke-width:1px;stroke-linecap:butt;stroke-linejoin:miter;stroke-opacity:1" />
    <path
       d="M 1019.9379,136.39571 C 1019.9379,136.39569 1023.6369,170.82472 1013.5208,190.80465 C 1003.4046,210.78458 992.59877,225.27881 966.14328,247.67122 C 947.72332,259.64713 943.25986,264.63551 935.96918,268.45858 C 935.96918,268.45858 974.00435,261.88602 978.80684,258.28677 C 995.83124,245.52773 1016.7587,226.84872 1020.8936,212.20642 C 1025.0285,197.56409 1031.4858,174.7755 1028.0275,163.25884 C 1024.5691,151.74222 1019.9379,136.39571 1019.9379,136.39571 z"
       id="path2385"
       style="fill:#000000;fill-opacity:0.22702703;fill-rule:evenodd;stroke:none;stroke-width:1px;stroke-linecap:butt;stroke-linejoin:miter;stroke-opacity:1" />
    <path
       d="M 92.973586,313.00062 C 92.973586,313.00062 91.940883,277.79095 97.741317,262.98268 C 103.54175,248.17442 113.48428,235.95543 120.63023,230.05323 C 127.77619,224.15103 141.23893,221.0454 141.23893,221.0454 C 141.23893,221.0454 122.18305,236.7846 110.78947,264.22644 C 99.3959,291.66827 92.973586,313.00062 92.973586,313.00062 z"
       id="path2390"
       style="fill:#ffffff;fill-opacity:0.55135139;fill-rule:evenodd;stroke:none;stroke-width:1px;stroke-linecap:butt;stroke-linejoin:miter;stroke-opacity:1" />
    <path
       d="M 763.25094,149.20489 C 763.25094,149.20489 750.89765,144.90256 784.29019,132.26745 C 815.57508,127.17699 826.35641,129.81719 846.34946,140.61322 C 866.34249,151.40925 869.24299,160.30344 869.24299,160.30344 C 869.24299,160.30344 829.45457,131.81857 794.94346,141.44805 C 766.63755,144.63707 763.25094,149.20489 763.25094,149.20489 z"
       id="path2569"
       style="fill:#ffffff;fill-opacity:0.55135139;fill-rule:evenodd;stroke:none;stroke-width:1px;stroke-linecap:butt;stroke-linejoin:miter;stroke-opacity:1" />
  </g>
</svg>
