<?xml version="1.0" encoding="UTF-8" standalone="no"?>
<!-- Created with Inkscape (http://www.inkscape.org/) -->
<svg
   xmlns:dc="http://purl.org/dc/elements/1.1/"
   xmlns:cc="http://creativecommons.org/ns#"
   xmlns:rdf="http://www.w3.org/1999/02/22-rdf-syntax-ns#"
   xmlns:svg="http://www.w3.org/2000/svg"
   xmlns="http://www.w3.org/2000/svg"
   xmlns:xlink="http://www.w3.org/1999/xlink"
   xmlns:sodipodi="http://sodipodi.sourceforge.net/DTD/sodipodi-0.dtd"
   xmlns:inkscape="http://www.inkscape.org/namespaces/inkscape"
   height="433.73782"
   id="svg2"
   inkscape:version="0.45+devel"
   sodipodi:docbase="C:\Documents and Settings\durex\Pulpit\inkscape"
   sodipodi:docname="gameboy_pocket_durex_r.svg"
   sodipodi:version="0.32"
   width="341.72113"
   inkscape:output_extension="org.inkscape.output.svg.inkscape"
   version="1.0">
  <metadata
     id="metadata3">
    <rdf:RDF>
      <cc:Work
         rdf:about="">
        <dc:title>Gameboy Pocket</dc:title>
        <dc:description />
        <dc:subject>
          <rdf:Bag>
            <rdf:li>gameboypocket</rdf:li>
            <rdf:li>games</rdf:li>
            <rdf:li>pocket</rdf:li>
            <rdf:li>toy</rdf:li>
            <rdf:li>gameboy</rdf:li>
          </rdf:Bag>
        </dc:subject>
        <dc:publisher>
          <cc:Agent
             rdf:about="http://www.openclipart.org/">
            <dc:title>durex86</dc:title>
          </cc:Agent>
        </dc:publisher>
        <dc:creator>
          <cc:Agent>
            <dc:title>durex86</dc:title>
          </cc:Agent>
        </dc:creator>
        <dc:rights>
          <cc:Agent>
            <dc:title>durex86</dc:title>
          </cc:Agent>
        </dc:rights>
        <dc:date />
        <dc:format>image/svg+xml</dc:format>
        <dc:type
           rdf:resource="http://purl.org/dc/dcmitype/StillImage" />
        <cc:license
           rdf:resource="http://web.resource.org/cc/PublicDomain" />
        <dc:language>pl</dc:language>
      </cc:Work>
      <cc:License
         rdf:about="http://web.resource.org/cc/PublicDomain">
        <cc:permits
           rdf:resource="http://web.resource.org/cc/Reproduction" />
        <cc:permits
           rdf:resource="http://web.resource.org/cc/Distribution" />
        <cc:permits
           rdf:resource="http://web.resource.org/cc/DerivativeWorks" />
      </cc:License>
    </rdf:RDF>
  </metadata>
  <defs
     id="defs3">
    <linearGradient
       id="linearGradient3915">
      <stop
         id="stop3917"
         offset="0.00000000"
         style="stop-color:#000000;stop-opacity:0.25098041;" />
      <stop
         id="stop3919"
         offset="1.0000000"
         style="stop-color:#000000;stop-opacity:0.12549020;" />
    </linearGradient>
    <linearGradient
       id="linearGradient3907"
       inkscape:collect="always">
      <stop
         id="stop3909"
         offset="0"
         style="stop-color:#ffffff;stop-opacity:1;" />
      <stop
         id="stop3911"
         offset="1"
         style="stop-color:#ffffff;stop-opacity:0;" />
    </linearGradient>
    <linearGradient
       id="linearGradient3892">
      <stop
         id="stop3894"
         offset="0"
         style="stop-color:#005b80;stop-opacity:1;" />
      <stop
         id="stop3896"
         offset="1.0000000"
         style="stop-color:#0089c0;stop-opacity:1.0000000;" />
    </linearGradient>
    <linearGradient
       id="linearGradient3878">
      <stop
         id="stop3880"
         offset="0.00000000"
         style="stop-color:#a0a0a0;stop-opacity:1.0000000;" />
      <stop
         id="stop3882"
         offset="1.0000000"
         style="stop-color:#e0e0e0;stop-opacity:1.0000000;" />
    </linearGradient>
    <linearGradient
       gradientUnits="userSpaceOnUse"
       id="linearGradient3884"
       inkscape:collect="always"
       x1="384.5"
       x2="94.72113"
       xlink:href="#linearGradient3878"
       y1="413.97916"
       y2="32.979156" />
    <linearGradient
       gradientTransform="matrix(1.131742,0,0,1.131742,-31.61809,-18.3916)"
       gradientUnits="userSpaceOnUse"
       id="linearGradient3898"
       inkscape:collect="always"
       x1="240.00002"
       x2="240.00002"
       xlink:href="#linearGradient3892"
       y1="69.095955"
       y2="205.34891" />
    <linearGradient
       gradientTransform="matrix(1.147458,0,0,1.147458,-35.38996,-20.20962)"
       gradientUnits="userSpaceOnUse"
       id="linearGradient3913"
       inkscape:collect="always"
       x1="221.6376"
       x2="221.6376"
       xlink:href="#linearGradient3907"
       y1="63.40625"
       y2="148.4303" />
    <linearGradient
       gradientUnits="userSpaceOnUse"
       id="linearGradient3921"
       inkscape:collect="always"
       x1="362.10013"
       x2="290"
       xlink:href="#linearGradient3915"
       y1="380.46994"
       y2="320" />
    <linearGradient
       gradientUnits="userSpaceOnUse"
       id="linearGradient3951"
       inkscape:collect="always"
       x1="384.5"
       x2="94.72113"
       xlink:href="#linearGradient3878"
       y1="413.97916"
       y2="32.979156" />
    <linearGradient
       gradientTransform="matrix(1.131742,0,0,1.131742,-31.61809,-18.3916)"
       gradientUnits="userSpaceOnUse"
       id="linearGradient3953"
       inkscape:collect="always"
       x1="240.00002"
       x2="240.00002"
       xlink:href="#linearGradient3892"
       y1="69.095955"
       y2="205.34891" />
    <linearGradient
       gradientTransform="matrix(1.147458,0,0,1.147458,-35.38996,-20.20962)"
       gradientUnits="userSpaceOnUse"
       id="linearGradient3955"
       inkscape:collect="always"
       x1="221.6376"
       x2="221.6376"
       xlink:href="#linearGradient3907"
       y1="63.40625"
       y2="148.4303" />
    <linearGradient
       gradientTransform="matrix(1.147458,0,0,1.147458,-35.00053,-5.18877)"
       gradientUnits="userSpaceOnUse"
       id="linearGradient3963"
       inkscape:collect="always"
       x1="221.6376"
       x2="221.6376"
       xlink:href="#linearGradient3907"
       y1="63.40625"
       y2="148.4303" />
    <linearGradient
       gradientTransform="matrix(1.131742,0,0,1.131742,-31.22866,-3.37075)"
       gradientUnits="userSpaceOnUse"
       id="linearGradient3966"
       inkscape:collect="always"
       x1="240.00002"
       x2="240.00002"
       xlink:href="#linearGradient3892"
       y1="69.095955"
       y2="205.34891" />
    <linearGradient
       gradientTransform="translate(0.389435,15.02085)"
       gradientUnits="userSpaceOnUse"
       id="linearGradient3970"
       inkscape:collect="always"
       x1="384.5"
       x2="94.72113"
       xlink:href="#linearGradient3878"
       y1="413.97916"
       y2="32.979156" />
    <linearGradient
       gradientTransform="translate(0.389435,15.02085)"
       gradientUnits="userSpaceOnUse"
       id="linearGradient3996"
       inkscape:collect="always"
       x1="384.5"
       x2="94.72113"
       xlink:href="#linearGradient3878"
       y1="413.97916"
       y2="32.979156" />
    <linearGradient
       gradientTransform="matrix(1.131742,0,0,1.131742,-31.22866,-3.37075)"
       gradientUnits="userSpaceOnUse"
       id="linearGradient3998"
       inkscape:collect="always"
       x1="240.00002"
       x2="240.00002"
       xlink:href="#linearGradient3892"
       y1="69.095955"
       y2="205.34891" />
    <linearGradient
       gradientTransform="matrix(1.147458,0,0,1.147458,-35.00053,-5.18877)"
       gradientUnits="userSpaceOnUse"
       id="linearGradient4000"
       inkscape:collect="always"
       x1="221.6376"
       x2="221.6376"
       xlink:href="#linearGradient3907"
       y1="63.40625"
       y2="148.4303" />
  </defs>
  <sodipodi:namedview
     bordercolor="#666666"
     borderopacity="1.0"
     gridspacingx="10.000000px"
     gridspacingy="10.000000px"
     id="base"
     inkscape:current-layer="layer1"
     inkscape:cx="240.00000"
     inkscape:cy="240.66759"
     inkscape:document-units="px"
     inkscape:pageopacity="0.0"
     inkscape:pageshadow="2"
     inkscape:window-height="888"
     inkscape:window-width="1280"
     inkscape:window-x="-4"
     inkscape:window-y="-4"
     inkscape:zoom="1.4979167"
     pagecolor="#ffffff"
     showgrid="true" />
  <g
     id="layer1"
     inkscape:groupmode="layer"
     inkscape:label="Layer 1"
     transform="translate(-69.139433,-23.131086)">
    <g
       id="g3984"
       transform="translate(-8.750002,-8.749997)">
      <path
         d="M 344.71418,465.61891 L 110.38944,465.6189 C 104.84944,465.61891 100.38944,461.15891 100.38944,455.61891 L 100.38944,64.381083 C 100.38944,58.841083 104.84944,54.381083 110.38944,54.381083 L 110.38944,54.381083 L 409.61057,54.381083 C 415.15056,54.381083 419.61057,58.841083 419.61057,64.381083 L 419.61057,389.75606 C 419.61057,465.55019 344.71418,465.61891 344.71418,465.61891 z"
         id="path3972"
         sodipodi:nodetypes="ccccccccc"
         style="fill:#000000;fill-opacity:0.25098039;fill-rule:nonzero;stroke:none;stroke-width:5;stroke-linecap:butt;stroke-linejoin:round;marker:none;marker-start:none;marker-mid:none;marker-end:none;stroke-miterlimit:4;stroke-dasharray:none;stroke-dashoffset:0;stroke-opacity:1;visibility:visible;display:inline;overflow:visible" />
      <path
         d="M 324.71418,445.61891 L 90.389435,445.6189 C 84.849435,445.61891 80.389435,441.15891 80.389435,435.61891 L 80.389435,44.381083 C 80.389435,38.841083 84.849435,34.381083 90.389435,34.381083 L 90.389435,34.381083 L 389.61057,34.381083 C 395.15056,34.381083 399.61057,38.841083 399.61057,44.381083 L 399.61057,369.75606 C 399.61057,445.55019 324.71418,445.61891 324.71418,445.61891 z"
         id="path3118"
         sodipodi:nodetypes="ccccccccc"
         style="fill:url(#linearGradient3996);fill-opacity:1;fill-rule:nonzero;stroke:#808080;stroke-width:5;stroke-linecap:butt;stroke-linejoin:round;marker:none;marker-start:none;marker-mid:none;marker-end:none;stroke-miterlimit:4;stroke-dasharray:none;stroke-dashoffset:0;stroke-opacity:1;visibility:visible;display:inline;overflow:visible" />
      <rect
         height="209.27676"
         id="rect3888"
         rx="10"
         ry="9.999999"
         style="opacity:1;fill:#000000;fill-opacity:0.25098039;fill-rule:nonzero;stroke:none;stroke-width:5;stroke-linecap:butt;stroke-linejoin:round;marker:none;marker-start:none;marker-mid:none;marker-end:none;stroke-miterlimit:4;stroke-dasharray:none;stroke-dashoffset:0;stroke-opacity:1;visibility:visible;display:inline;overflow:visible"
         width="281.05704"
         x="99.860924"
         y="45.744076" />
      <rect
         height="183.5972"
         id="rect3890"
         style="opacity:1;fill:url(#linearGradient3998);fill-opacity:1;fill-rule:nonzero;stroke:#000000;stroke-width:5.65871;stroke-linecap:butt;stroke-linejoin:round;marker:none;marker-start:none;marker-mid:none;marker-end:none;stroke-miterlimit:4;stroke-dasharray:none;stroke-dashoffset:0;stroke-opacity:1;visibility:visible;display:inline;overflow:visible"
         width="183.5972"
         x="148.59085"
         y="58.583858" />
      <path
         d="M 168.74502,67.567243 C 162.38809,67.567243 157.27043,72.684907 157.27043,79.041825 L 157.27043,141.79345 C 204.44633,120.45791 227.38388,145.05508 231.56836,149.64637 C 269.05759,175.66568 305.01932,162.946 323.50844,152.90945 L 323.50844,79.041825 C 323.50844,72.684907 318.39078,67.567243 312.03386,67.567243 L 168.74502,67.567243 z"
         id="rect3900"
         style="fill:url(#linearGradient4000);fill-opacity:1;fill-rule:nonzero;stroke:none;stroke-width:5;stroke-linecap:butt;stroke-linejoin:round;marker:none;marker-start:none;marker-mid:none;marker-end:none;stroke-miterlimit:4;stroke-dashoffset:0;stroke-opacity:1;visibility:visible;display:inline;overflow:visible" />
      <path
         d="M 154.77747,289.20792 C 152.00748,289.20792 149.77747,291.43792 149.77747,294.20792 L 149.77747,314.02042 L 129.96497,314.02042 C 127.19498,314.02042 124.96498,316.25042 124.96498,319.02042 L 124.96498,339.89542 C 124.96498,342.66542 127.19498,344.89542 129.96497,344.89542 L 149.77747,344.89542 L 149.77747,364.70792 C 149.77747,367.47792 152.00748,369.70791 154.77747,369.70792 L 175.65247,369.70792 C 178.42247,369.70792 180.65247,367.47791 180.65247,364.70792 L 180.65247,344.89542 L 200.46497,344.89542 C 203.23497,344.89542 205.46497,342.66542 205.46497,339.89542 L 205.46497,319.02042 C 205.46497,316.25042 203.23497,314.02042 200.46497,314.02042 L 180.65247,314.02042 L 180.65247,294.20792 C 180.65247,291.43792 178.42247,289.20792 175.65247,289.20792 L 154.77747,289.20792 z"
         id="rect3923"
         style="opacity:1;fill:#000000;fill-opacity:1;fill-rule:nonzero;stroke:none;stroke-width:5;stroke-linecap:butt;stroke-linejoin:round;marker:none;marker-start:none;marker-mid:none;marker-end:none;stroke-miterlimit:4;stroke-dasharray:none;stroke-dashoffset:0;stroke-opacity:1;visibility:visible;display:inline;overflow:visible" />
      <rect
         height="10.013908"
         id="rect3932"
         rx="5"
         ry="5"
         style="opacity:1;fill:#000000;fill-opacity:1;fill-rule:nonzero;stroke:none;stroke-width:5;stroke-linecap:butt;stroke-linejoin:round;marker:none;marker-start:none;marker-mid:none;marker-end:none;stroke-miterlimit:4;stroke-dasharray:none;stroke-dashoffset:0;stroke-opacity:1;visibility:visible;display:inline;overflow:visible"
         width="30"
         x="187.74687"
         y="395.54935" />
      <rect
         height="10.013908"
         id="rect3934"
         rx="5"
         ry="5"
         style="opacity:1;fill:#000000;fill-opacity:1;fill-rule:nonzero;stroke:none;stroke-width:5;stroke-linecap:butt;stroke-linejoin:round;marker:none;marker-start:none;marker-mid:none;marker-end:none;stroke-miterlimit:4;stroke-dasharray:none;stroke-dashoffset:0;stroke-opacity:1;visibility:visible;display:inline;overflow:visible"
         width="30"
         x="235.71628"
         y="395.54935" />
      <path
         d="M 356.49512,299.08206 A 18.692629,18.692629 0 1 1 319.10986,299.08206 A 18.692629,18.692629 0 1 1 356.49512,299.08206 z"
         id="path3936"
         sodipodi:cx="337.80249"
         sodipodi:cy="299.08206"
         sodipodi:rx="18.692629"
         sodipodi:ry="18.692629"
         sodipodi:type="arc"
         style="opacity:1;fill:#000000;fill-opacity:1;fill-rule:nonzero;stroke:none;stroke-width:5;stroke-linecap:butt;stroke-linejoin:round;marker:none;marker-start:none;marker-mid:none;marker-end:none;stroke-miterlimit:4;stroke-dasharray:none;stroke-dashoffset:0;stroke-opacity:1;visibility:visible;display:inline;overflow:visible"
         transform="translate(1.279574,14.63142)" />
      <path
         d="M 356.49512,299.08206 A 18.692629,18.692629 0 1 1 319.10986,299.08206 A 18.692629,18.692629 0 1 1 356.49512,299.08206 z"
         id="path3938"
         sodipodi:cx="337.80249"
         sodipodi:cy="299.08206"
         sodipodi:rx="18.692629"
         sodipodi:ry="18.692629"
         sodipodi:type="arc"
         style="opacity:1;fill:#000000;fill-opacity:1;fill-rule:nonzero;stroke:none;stroke-width:5;stroke-linecap:butt;stroke-linejoin:round;marker:none;marker-start:none;marker-mid:none;marker-end:none;stroke-miterlimit:4;stroke-dasharray:none;stroke-dashoffset:0;stroke-opacity:1;visibility:visible;display:inline;overflow:visible"
         transform="translate(-47.45477,44.00555)" />
    </g>
  </g>
</svg>
