<?xml version="1.0" encoding="UTF-8" standalone="no"?>
<!-- Created with Sodipodi ("http://www.sodipodi.com/") -->

<svg
   xmlns:dc="http://purl.org/dc/elements/1.1/"
   xmlns:cc="http://creativecommons.org/ns#"
   xmlns:rdf="http://www.w3.org/1999/02/22-rdf-syntax-ns#"
   xmlns:svg="http://www.w3.org/2000/svg"
   xmlns="http://www.w3.org/2000/svg"
   xmlns:xlink="http://www.w3.org/1999/xlink"
   xmlns:sodipodi="http://sodipodi.sourceforge.net/DTD/sodipodi-0.dtd"
   xmlns:inkscape="http://www.inkscape.org/namespaces/inkscape"
   height="433.26376"
   id="svg602"
   sodipodi:docname="Anonymous_Beach_ball.svg"
   sodipodi:version="0.34"
   space="preserve"
   width="440.98154"
   version="1.1"
   inkscape:version="0.48.1 r9760">
  <metadata
     id="metadata3406">
    <rdf:RDF>
      <cc:Work
         rdf:about="">
        <dc:title>beach ball</dc:title>
        <dc:description />
        <dc:subject>
          <rdf:Bag>
            <rdf:li />
            <rdf:li>sun</rdf:li>
            <rdf:li>weather</rdf:li>
            <rdf:li>toy</rdf:li>
            <rdf:li>ball</rdf:li>
            <rdf:li>summer</rdf:li>
            <rdf:li>beach</rdf:li>
            <rdf:li>water</rdf:li>
            <rdf:li>recreation</rdf:li>
          </rdf:Bag>
        </dc:subject>
        <dc:publisher>
          <cc:Agent
             rdf:about="http://www.openclipart.org">
            <dc:title>Greg</dc:title>
          </cc:Agent>
        </dc:publisher>
        <dc:creator>
          <cc:Agent>
            <dc:title>Greg</dc:title>
          </cc:Agent>
        </dc:creator>
        <dc:rights>
          <cc:Agent>
            <dc:title>Greg</dc:title>
          </cc:Agent>
        </dc:rights>
        <dc:date />
        <dc:format>image/svg+xml</dc:format>
        <dc:type
           rdf:resource="http://purl.org/dc/dcmitype/StillImage" />
        <cc:license
           rdf:resource="http://web.resource.org/cc/PublicDomain" />
        <dc:language>en</dc:language>
      </cc:Work>
      <cc:License
         rdf:about="http://web.resource.org/cc/PublicDomain">
        <cc:permits
           rdf:resource="http://web.resource.org/cc/Reproduction" />
        <cc:permits
           rdf:resource="http://web.resource.org/cc/Distribution" />
        <cc:permits
           rdf:resource="http://web.resource.org/cc/DerivativeWorks" />
      </cc:License>
    </rdf:RDF>
  </metadata>
  <defs
     id="defs604">
    <linearGradient
       id="linearGradient621">
      <stop
         id="stop622"
         offset="0"
         style="stop-color:#ffffff;stop-opacity:0.6157;" />
      <stop
         id="stop623"
         offset="1"
         style="stop-color:#ffffff;stop-opacity:0;" />
    </linearGradient>
    <linearGradient
       id="linearGradient633">
      <stop
         id="stop634"
         offset="0"
         style="stop-color:#000000;stop-opacity:0.1647;" />
      <stop
         id="stop635"
         offset="1"
         style="stop-color:#ffffff;stop-opacity:0;" />
    </linearGradient>
    <linearGradient
       id="linearGradient636"
       x1="239.49501"
       x2="281.57335"
       xlink:href="#linearGradient633"
       y1="939.3392"
       y2="824.76815"
       gradientTransform="scale(1.0089366,0.9911426)"
       gradientUnits="userSpaceOnUse" />
    <radialGradient
       cx="274.73336"
       cy="663.79933"
       fx="274.73336"
       fy="663.79933"
       gradientTransform="scale(1.1351046,0.88097609)"
       id="radialGradient619"
       r="30.027415"
       xlink:href="#linearGradient621"
       gradientUnits="userSpaceOnUse" />
  </defs>
  <sodipodi:namedview
     id="base"
     showgrid="false"
     fit-margin-top="0"
     fit-margin-left="0"
     fit-margin-right="0"
     fit-margin-bottom="0"
     inkscape:zoom="0.46400745"
     inkscape:cx="220.57339"
     inkscape:cy="216.69009"
     inkscape:window-width="594"
     inkscape:window-height="409"
     inkscape:window-x="542"
     inkscape:window-y="308"
     inkscape:window-maximized="0"
     inkscape:current-layer="svg602" />
  <g
     id="g624"
     transform="translate(-39.10598,-486.4643)">
    <path
       d="m 476.4855,739.2136 c 0,20.5835 -1.7794,27.3589 -13.451,52.5116 -14.7854,22.9551 -30.9861,47.5781 -51.0054,67.6539 -20.0191,20.0756 -40.413,38.8553 -66.737,50.4214 -25.0341,11.946 -54.1365,7.385 -84.6847,7.385 -30.5481,0 -58.9926,-2.807 -86.1203,-8.821 -25.4164,-11.6671 -51.7436,-26.038 -71.7628,-46.1136 C 82.70519,842.1751 62.36596,819.6567 55.30876,791.7252 47.70247,763.7447 40.79348,735.996 40.79348,705.3616 c 0,-30.6346 5.0688,-59.2359 16.26468,-85.7807 11.1958,-26.5447 25.64703,-49.8668 45.66604,-69.9424 20.0193,-20.0757 49.6062,-39.792 72.0764,-51.6315 32.5084,-6.8337 52.0734,-8.2058 82.6216,-9.8552 55.3042,9.7115 57.2167,8.5768 90.4993,18.4599 17.0833,8.75 31.3722,15.2394 46.3017,25.4253 13.3075,11.6665 26.615,24.1579 37.4483,35.8245 l 18.75,32.5 12.1282,33.75 10.3718,35.0001 4.9999,32.0515 c 0.9572,13.4015 0.4787,25.3671 -1.4359,38.0505 l 0,0 0,0 0,0 0,0 z"
       id="path607"
       sodipodi:nodetypes="ccscccsscssccccccccccccc"
       style="font-size:12px;fill:#c50000;fill-rule:evenodd"
       inkscape:connector-curvature="0" />
    <path
       d="m 163.0102,594.3027 c -0.4691,-28.7837 -2.0507,-54.6247 7.5841,-82.0454 7.4418,-12.1317 4.121,-7.0503 10.978,-15.4192 10.5182,-6.9529 57.3232,-8.4804 66.3167,-8.7467 32.5844,-0.9648 92.8773,10.5743 127.1686,31.1081 5.7478,4.3153 16.7456,9.8147 22.5187,14.1763 -20.6701,-0.4133 -48.3288,6.3434 -53.0495,6.6534 -38.814,15.1885 -58.2024,30.6901 -85.9148,48.4633 -14.4964,11.1934 -28.3621,25.2618 -42.3341,36.7874 -1.9554,1.613 -2.5675,3.1708 -16.6319,15.7309 -6.2573,4.8877 -11.4399,10.6207 -16.7886,14.2321 -1.7189,0.0191 -8.7535,-4.583 -13.9011,-8.0979 -2.0801,-10.8331 -1.4568,-17.3863 -2.5537,-21.0485 0,0 -1.455,-10.7805 -3.3924,-31.7938 l 0,0 z"
       id="path616"
       sodipodi:nodetypes="cccccccccccccc"
       style="font-size:12px;fill:#f0de00;fill-rule:evenodd;stroke:#000000;stroke-opacity:0.5"
       inkscape:connector-curvature="0" />
    <path
       d="m 406.97,541.5759 c 22.8873,20.4311 26.2646,28.3096 31.629,38.199 9.6481,13.6063 16.4147,33.0861 22.4119,51.4444 5.6298,12.9155 11.6143,31.8289 14.0336,46.8105 3.6716,17.8893 3.9926,36.3497 3.1069,54.9104 -0.3329,6.9788 -1.2278,17.0109 -2.7063,23.8854 -2.3658,1.2453 -37.2043,-12.3144 -50.1213,-16.9723 -21.1606,-5.7387 -40.5393,-13.2228 -61.0061,-18.7781 -27.4996,-7.8709 -54.7136,-15.205 -81.8881,-23.5831 -22.4601,-6.5282 -38.9666,-8.9763 -60.1962,-16.2242 -2.6263,-0.7917 -23.2274,-2.9458 -29.7447,-5.0733 1.4994,-6.2843 -1.4051,-8.1427 -2.5589,-13.1296 -3.8995,-11.1739 -2.2908,-5.6341 -5.4448,-9.3715 4.2918,-5.0244 23.4979,-24.4384 28.4168,-28.7676 8.0628,-6.81 15.447,-13.0198 24.1719,-20.1052 15.3096,-13.5628 30.1388,-24.6093 46.496,-35.6266 6.5657,-3.4213 18.2954,-11.9341 24.8703,-14.3822 13.4178,-6.5312 21.8393,-11.9151 36.34,-15.2179 8.6068,-2.7413 18.576,-3.8646 28.7178,-5.5982 11.1883,-1.0177 11.1172,-0.6026 21.5673,-1.1009 l 11.9049,8.681 0,0 0,0 0,0 0,0 z"
       id="path621"
       sodipodi:nodetypes="cccccccccccccccccccccccc"
       style="font-size:12px;fill:#00bc00;fill-rule:evenodd;stroke:#000000;stroke-width:1.01714694;stroke-opacity:0.49800002"
       inkscape:connector-curvature="0" />
    <path
       d="m 52.17391,630.9847 c 17.21562,-35.0449 22.17895,-46.1619 41.50432,-71.2949 23.74147,-27.0081 72.69217,-61.3932 92.71877,-64.6351 -7.3723,7.3786 -20.1942,19.2367 -22.5243,49.2459 -2.3301,30.009 6.0916,98.052 6.0916,98.052 -3.4699,0.625 -7.7194,2.789 -11.3381,6.3268 -4.565,2.9128 -6.919,6.1352 -8.4962,9.2602 l -97.95609,-26.9549 0,0 z"
       id="path671"
       sodipodi:nodetypes="cccccccc"
       style="font-size:12px;fill:#0000c2;fill-rule:evenodd;stroke:#000000;stroke-opacity:0.5"
       inkscape:connector-curvature="0" />
    <path
       d="M 154.375,687.3616 C 136.25,705.7991 105,745.4865 97.18747,758.6115 77.49995,782.674 74.76558,805.4866 70.07809,824.2366 c 4.06249,8.75 35.54691,49.9999 67.73441,64.9999 36.5625,22.1875 36.955,25.3262 90.3125,27.1875 17.9167,1.25 33.8802,1.3281 53.2812,1.25 2.7951,-0.0225 -34.5312,-34.9999 -51.7187,-72.4999 -13.75,-27.5 -21.5625,-53.75 -30.3125,-82.5 -8.75,-28.75 -16.5625,-64.0625 -18.125,-69.0625 -1.875,0 -9.375,3.125 -16.875,0.3125 -7.1875,-3.125 -7.1875,-3.4375 -10,-6.5625 l 0,0 0,0 0,0 0,0 z"
       id="path676"
       sodipodi:nodetypes="cccccscccccccc"
       style="font-size:12px;fill:#e6e6e6;fill-rule:evenodd;stroke:#000000;stroke-width:1;stroke-opacity:0.49800002"
       inkscape:connector-curvature="0" />
    <path
       d="m 173.4387,232.08932 a 31.420055,40.636635 0 1 1 -62.84011,0 31.420055,40.636635 0 1 1 62.84011,0 z"
       id="path677"
       sodipodi:cx="142.01865"
       sodipodi:cy="232.08932"
       sodipodi:rx="31.420055"
       sodipodi:ry="40.636635"
       sodipodi:type="arc"
       style="font-size:12px;fill:#f0de00;fill-opacity:0.97409997;fill-rule:evenodd;stroke:#000000;stroke-opacity:0.49800002"
       transform="matrix(0.957191,0,0,0.81881,36.4985,478.2802)" />
    <path
       d="m 476.4855,739.2136 c 0,20.5835 -1.7794,27.3589 -13.451,52.5116 -14.7854,22.9551 -30.9861,47.5781 -51.0054,67.6539 -20.0191,20.0756 -40.413,38.8553 -66.737,50.4214 -25.0341,11.946 -54.1365,7.385 -84.6847,7.385 -30.5481,0 -58.9926,-2.807 -86.1203,-8.821 -25.4164,-11.6671 -51.7436,-26.038 -71.7628,-46.1136 C 82.70519,842.1751 62.36596,819.6567 55.30876,791.7252 47.70247,763.7447 40.79348,735.996 40.79348,705.3616 c 0,-30.6346 5.0688,-59.2359 16.26468,-85.7807 11.1958,-26.5447 25.64703,-49.8668 45.66604,-69.9424 20.0193,-20.0757 49.6062,-39.792 72.0764,-51.6315 32.5084,-6.8337 52.0734,-8.2058 82.6216,-9.8552 55.3042,9.7115 57.2167,8.5768 90.4993,18.4599 17.0833,8.75 31.3722,15.2394 46.3017,25.4253 13.3075,11.6665 26.615,24.1579 37.4483,35.8245 l 18.75,32.5 12.1282,33.75 10.3718,35.0001 4.9999,32.0515 c 0.9572,13.4015 0.4787,25.3671 -1.4359,38.0505 l 0,0 0,0 0,0 0,0 z"
       id="path731"
       sodipodi:nodetypes="ccscccsscssccccccccccccc"
       style="font-size:12px;fill:none;stroke:#000000;stroke-width:3.375;stroke-opacity:1;stroke-dasharray:none"
       inkscape:connector-curvature="0" />
    <path
       d="m 173.4387,232.08932 a 31.420055,40.636635 0 1 1 -62.84011,0 31.420055,40.636635 0 1 1 62.84011,0 z"
       id="path617"
       sodipodi:cx="142.01865"
       sodipodi:cy="232.08932"
       sodipodi:rx="31.420055"
       sodipodi:ry="40.636635"
       sodipodi:type="arc"
       style="font-size:12px;fill:#f0de00;fill-opacity:0.97409997;fill-rule:evenodd;stroke:#000000;stroke-opacity:0.21000001"
       transform="matrix(1.359999,0,0,1.149485,-18.67649,401.5343)" />
    <path
       d="m 476.4855,739.2136 c 0,20.5835 -1.7794,27.3589 -13.451,52.5116 -14.7854,22.9551 -30.9861,47.5781 -51.0054,67.6539 -20.0191,20.0756 -40.413,38.8553 -66.737,50.4214 -25.0341,11.946 -54.1365,7.385 -84.6847,7.385 -30.5481,0 -58.9926,-2.807 -86.1203,-8.821 -25.4164,-11.6671 -51.7436,-26.038 -71.7628,-46.1136 C 82.70519,842.1751 62.36596,819.6567 55.30876,791.7252 47.70247,763.7447 40.79348,735.996 40.79348,705.3616 c 0,-30.6346 5.0688,-59.2359 16.26468,-85.7807 11.1958,-26.5447 25.64703,-49.8668 45.66604,-69.9424 20.0193,-20.0757 49.6062,-39.792 72.0764,-51.6315 32.5084,-6.8337 52.0734,-8.2058 82.6216,-9.8552 55.3042,9.7115 57.2167,8.5768 90.4993,18.4599 17.0833,8.75 31.3722,15.2394 46.3017,25.4253 13.3075,11.6665 26.615,24.1579 37.4483,35.8245 l 18.75,32.5 12.1282,33.75 10.3718,35.0001 4.9999,32.0515 c 0.9572,13.4015 0.4787,25.3671 -1.4359,38.0505 l 0,0 0,0 0,0 0,0 z"
       id="path620"
       sodipodi:nodetypes="ccscccsscssccccccccccccc"
       style="font-size:12px;fill:url(#linearGradient636);fill-opacity:1;fill-rule:evenodd;stroke:none"
       inkscape:connector-curvature="0" />
    <path
       d="m 315.08849,586.91565 a 37.036728,28.744904 0 1 1 -74.07346,0 37.036728,28.744904 0 1 1 74.07346,0 z"
       id="path618"
       sodipodi:cx="278.05176"
       sodipodi:cy="586.91565"
       sodipodi:rx="37.036728"
       sodipodi:ry="28.744904"
       sodipodi:type="arc"
       style="fill:url(#radialGradient619);fill-opacity:1;fill-rule:evenodd;stroke:none"
       transform="matrix(-0.4324,-0.792816,0.747999,-0.178311,-51.2327,934.6738)" />
  </g>
</svg>
