<?xml version="1.0" encoding="UTF-8" standalone="no"?>
<!-- Created with Inkscape (http://www.inkscape.org/) -->
<svg
   xmlns:dc="http://purl.org/dc/elements/1.1/"
   xmlns:cc="http://creativecommons.org/ns#"
   xmlns:rdf="http://www.w3.org/1999/02/22-rdf-syntax-ns#"
   xmlns:svg="http://www.w3.org/2000/svg"
   xmlns="http://www.w3.org/2000/svg"
   xmlns:xlink="http://www.w3.org/1999/xlink"
   xmlns:sodipodi="http://sodipodi.sourceforge.net/DTD/sodipodi-0.dtd"
   xmlns:inkscape="http://www.inkscape.org/namespaces/inkscape"
   height="240.8093"
   id="svg1"
   inkscape:version="0.45+devel"
   sodipodi:docbase="C:\inkscape"
   sodipodi:docname="midautumn1_01.svg"
   sodipodi:version="0.32"
   width="274.92422"
   inkscape:output_extension="org.inkscape.output.svg.inkscape"
   version="1.0">
  <metadata
     id="metadata3">
    <rdf:RDF>
      <cc:Work
         rdf:about="">
        <dc:title>Midautumn1</dc:title>
        <dc:description>This is my first submission.
This is a simple picture of the mid-autumn festival in china.</dc:description>
        <dc:subject>
          <rdf:Bag>
            <rdf:li>holiday</rdf:li>
            <rdf:li />
            <rdf:li>midautumn</rdf:li>
            <rdf:li>moon</rdf:li>
            <rdf:li>lantern</rdf:li>
            <rdf:li>festival</rdf:li>
            <rdf:li>recreation</rdf:li>
          </rdf:Bag>
        </dc:subject>
        <dc:publisher>
          <cc:Agent
             rdf:about="http://www.openclipart.org">
            <dc:title>Lam Man Yam</dc:title>
          </cc:Agent>
        </dc:publisher>
        <dc:creator>
          <cc:Agent>
            <dc:title>Lam Man Yam</dc:title>
          </cc:Agent>
        </dc:creator>
        <dc:rights>
          <cc:Agent>
            <dc:title>Lam Man Yam</dc:title>
          </cc:Agent>
        </dc:rights>
        <dc:date />
        <dc:format>image/svg+xml</dc:format>
        <dc:type
           rdf:resource="http://purl.org/dc/dcmitype/StillImage" />
        <cc:license
           rdf:resource="http://web.resource.org/cc/PublicDomain" />
        <dc:language>en</dc:language>
      </cc:Work>
      <cc:License
         rdf:about="http://web.resource.org/cc/PublicDomain">
        <cc:permits
           rdf:resource="http://web.resource.org/cc/Reproduction" />
        <cc:permits
           rdf:resource="http://web.resource.org/cc/Distribution" />
        <cc:permits
           rdf:resource="http://web.resource.org/cc/DerivativeWorks" />
      </cc:License>
    </rdf:RDF>
  </metadata>
  <defs
     id="defs3">
    <linearGradient
       id="linearGradient1730">
      <stop
         id="stop1731"
         offset="0.00000000"
         style="stop-color:#ffd21f;stop-opacity:1.0000000;" />
      <stop
         id="stop1732"
         offset="1.0000000"
         style="stop-color:#ffffff;stop-opacity:1.0000000;" />
    </linearGradient>
    <linearGradient
       id="linearGradient1724">
      <stop
         id="stop1725"
         offset="0.00000000"
         style="stop-color:#fcf3f2;stop-opacity:1.0000000;" />
      <stop
         id="stop1726"
         offset="1.0000000"
         style="stop-color:#df6d61;stop-opacity:1.0000000;" />
    </linearGradient>
    <linearGradient
       id="linearGradient1657">
      <stop
         id="stop1658"
         offset="0.00000000"
         style="stop-color:#e2e3ce;stop-opacity:1.0000000;" />
      <stop
         id="stop1659"
         offset="1.0000000"
         style="stop-color:#e7ef99;stop-opacity:1.0000000;" />
    </linearGradient>
    <linearGradient
       id="linearGradient1648">
      <stop
         id="stop1649"
         offset="0.00000000"
         style="stop-color:#e5f444;stop-opacity:1.0000000;" />
      <stop
         id="stop1650"
         offset="1.0000000"
         style="stop-color:#f9f9f9;stop-opacity:0.00000000;" />
    </linearGradient>
    <linearGradient
       id="linearGradient1594">
      <stop
         id="stop1595"
         offset="0.00000000"
         style="stop-color:#0f0c54;stop-opacity:1.0000000;" />
      <stop
         id="stop1596"
         offset="1"
         style="stop-color:#fff;stop-opacity:1;" />
    </linearGradient>
    <linearGradient
       id="linearGradient1598"
       inkscape:collect="always"
       x1="120.67293"
       x2="169.78284"
       xlink:href="#linearGradient1594"
       y1="53.415275"
       y2="239.34823"
       gradientTransform="matrix(0.9883098,0,0,1.0118285,28.722182,-8.8953543)"
       gradientUnits="userSpaceOnUse" />
    <linearGradient
       id="linearGradient1655"
       inkscape:collect="always"
       x1="193.17289"
       x2="240.59079"
       xlink:href="#linearGradient1648"
       y1="46.914323"
       y2="80.058652"
       gradientTransform="scale(0.8519512,1.1737761)"
       gradientUnits="userSpaceOnUse" />
    <radialGradient
       cx="-165.44376"
       cy="152.05335"
       fx="-163.30366"
       fy="151.32883"
       id="radialGradient1656"
       inkscape:collect="always"
       r="32.886877"
       xlink:href="#linearGradient1657"
       gradientUnits="userSpaceOnUse" />
    <radialGradient
       cx="-23.165942"
       cy="204.09481"
       fx="-23.16594"
       fy="204.09481"
       id="radialGradient1727"
       inkscape:collect="always"
       r="20.445077"
       xlink:href="#linearGradient1724"
       gradientTransform="scale(1.6231975,0.616068)"
       gradientUnits="userSpaceOnUse" />
    <radialGradient
       cx="172.61822"
       cy="160.60408"
       fx="172.61822"
       fy="160.60408"
       id="radialGradient1729"
       inkscape:collect="always"
       r="24.014919"
       xlink:href="#linearGradient1730"
       gradientTransform="scale(0.7955573,1.2569805)"
       gradientUnits="userSpaceOnUse" />
  </defs>
  <sodipodi:namedview
     bordercolor="#666666"
     borderopacity="1.0"
     id="base"
     inkscape:current-layer="svg1"
     inkscape:cx="100"
     inkscape:cy="100"
     inkscape:guide-bbox="true"
     inkscape:pageopacity="0.0"
     inkscape:pageshadow="2"
     inkscape:window-height="649"
     inkscape:window-width="772"
     inkscape:window-x="5"
     inkscape:window-y="8"
     inkscape:zoom="1.955"
     pagecolor="#ffffff"
     showguides="true"
     showgrid="false" />
  <path
     d="M 55.039713,13.019376 C 115.19407,-30.843175 157.8034,53.122281 217.95776,18.03224 C 278.11212,-17.057802 273.09925,13.019376 264.32674,45.602986 C 255.55423,78.186596 240.51565,113.27664 258.06067,157.13919 C 279.36533,195.98888 279.36533,207.26782 264.32674,229.82571 C 249.28815,242.35786 209.18525,247.37073 152.79054,227.31928 C 96.395833,207.26782 90.129755,243.61108 56.292929,223.55963 C 22.456103,203.50817 60.052576,189.09619 43.760771,134.58131 C 27.020663,78.566326 68.825087,112.02343 50.02685,68.160871 C 31.228613,24.298319 55.039713,13.019376 55.039713,13.019376 z"
     id="path971"
     sodipodi:nodetypes="ccccccczcc"
     style="fill:url(#linearGradient1598);fill-opacity:1;fill-rule:evenodd;stroke:none;stroke-width:1pt;stroke-linecap:butt;stroke-linejoin:miter;stroke-opacity:1" />
  <g
     id="g1660"
     transform="translate(28.722182,-8.8953543)">
    <path
       d="M -124.06836,153.50238 A 46.368984,46.368984 0 1 1 -216.80633,153.50238 A 46.368984,46.368984 0 1 1 -124.06836,153.50238 z"
       id="path994"
       sodipodi:cx="-170.43735"
       sodipodi:cy="153.50238"
       sodipodi:rx="46.368984"
       sodipodi:ry="46.368984"
       sodipodi:type="arc"
       style="fill:url(#radialGradient1656);fill-opacity:1;fill-rule:evenodd;stroke:none;stroke-width:1pt;stroke-linecap:butt;stroke-linejoin:miter;stroke-opacity:1"
       transform="matrix(0.824324,0,0,0.824324,324.0918,-51.35935)" />
    <path
       d="M 179.43566,43.602149 C 192.81326,41.18065 205.4243,51.65706 195.67237,60.371145 C 185.67165,69.307541 170.98792,82.718874 177.77667,99.273233 C 184.39837,115.42024 152.22425,101.57841 153.41143,78.993623 C 154.62184,55.966994 166.1288,46.010844 179.43566,43.602149 z"
       id="path1646"
       sodipodi:nodetypes="czzzz"
       style="fill:url(#linearGradient1655);fill-opacity:1;fill-rule:evenodd;stroke:none;stroke-width:1pt;stroke-linecap:butt;stroke-linejoin:miter;stroke-opacity:1" />
  </g>
  <g
     id="g1745"
     transform="translate(28.722182,-8.8953543)">
    <path
       d="M 125.71404,97.310877 L 91.117753,105.61661 L 84.487982,140.57279 L 76.182248,105.9765 L 41.226065,99.346731 L 75.822356,91.040997 L 82.452127,56.084814 L 90.757862,90.681105 L 125.71404,97.310877 z"
       id="path1668"
       inkscape:flatsided="false"
       inkscape:randomized="0"
       inkscape:rounded="0"
       sodipodi:arg1="-0.024091723"
       sodipodi:arg2="0.76130644"
       sodipodi:cx="83.470055"
       sodipodi:cy="98.328804"
       sodipodi:r1="42.256252"
       sodipodi:r2="10.564063"
       sodipodi:sides="4"
       sodipodi:type="star"
       style="fill:#fbfbf7;fill-opacity:0.75;fill-rule:evenodd;stroke:none;stroke-width:1pt;stroke-linecap:butt;stroke-linejoin:miter;stroke-opacity:1"
       transform="matrix(0.103623,0,0,0.103623,49.62691,24.26469)" />
    <use
       height="250"
       id="use1689"
       transform="translate(-20.05757,48.98674)"
       width="250"
       x="0"
       xlink:href="#path1668"
       y="0" />
    <use
       height="250"
       id="use1690"
       transform="translate(19.87642,41.43649)"
       width="250"
       x="0"
       xlink:href="#path1668"
       y="0" />
    <use
       height="250"
       id="use1693"
       transform="translate(46.34284,16.34284)"
       width="250"
       x="0"
       xlink:href="#path1668"
       y="0" />
    <use
       height="250"
       id="use1694"
       transform="translate(78.65716,17.11428)"
       width="250"
       x="0"
       xlink:href="#path1668"
       y="0" />
    <use
       height="250"
       id="use1695"
       transform="translate(43.45712,78.84284)"
       width="250"
       x="0"
       xlink:href="#path1668"
       y="0" />
  </g>
  <path
     d="M 0.3125,138.68271 C 0.3125,138.68271 129.56205,108.09263 161.90429,100.43805 C 170.37088,98.434216 171.49049,104.1445 163.24347,106.09636 C 131.54662,113.5982 2.273186,144.19393 2.273186,144.19393 L 0.3125,138.68271 z"
     id="path1699"
     sodipodi:nodetypes="ccccc"
     style="fill:#81671b;fill-opacity:1;fill-rule:evenodd;stroke:#000000;stroke-width:0.625;stroke-linecap:butt;stroke-linejoin:miter;stroke-miterlimit:4;stroke-opacity:1" />
  <path
     d="M 154.09208,201.08696 A 15.984654,25.255754 0 1 1 122.12277,201.08696 A 15.984654,25.255754 0 1 1 154.09208,201.08696 z"
     id="path1728"
     sodipodi:cx="138.10742"
     sodipodi:cy="201.08696"
     sodipodi:rx="15.984654"
     sodipodi:ry="25.255754"
     sodipodi:type="arc"
     style="fill:url(#radialGradient1729);fill-opacity:1;fill-rule:evenodd;stroke:none;stroke-width:1pt;stroke-linecap:butt;stroke-linejoin:miter;stroke-opacity:1"
     transform="matrix(0.54,0,0,0.54,89.898652,80.222346)" />
  <g
     id="g1733"
     transform="translate(28.722182,-8.8953543)">
    <path
       d="M 107.09933,171.16383 C 104.86383,173.40005 102.4185,174.9776 99.831938,177.56498 C 112.4753,183.22118 158.3703,183.38217 170.86807,177.49629 C 168.55777,175.18523 166.1105,173.68559 163.88324,171.45761 C 150.77927,175.24756 121.61874,175.06863 107.09933,171.16383 z"
       id="path1700"
       sodipodi:nodetypes="ccccc"
       style="fill:#ff1900;fill-opacity:0.79746836;fill-rule:evenodd;stroke:#000000;stroke-width:0.39179177pt;stroke-linecap:butt;stroke-linejoin:miter;stroke-opacity:1" />
    <use
       height="250"
       id="use1711"
       transform="translate(0,17.3631)"
       width="250"
       x="0"
       xlink:href="#path1700"
       y="0" />
    <path
       d="M 99.962234,159.92768 C 102.9745,165.14508 105.0737,167.3655 107.08543,170.84992 C 121.59707,175.14811 150.4787,175.47691 163.83359,171.3248 C 166.4212,166.84293 168.20597,164.28098 170.71935,159.92768 C 157.31944,166.01947 112.62857,165.88568 99.962234,159.92768 z"
       id="path1713"
       sodipodi:nodetypes="ccccc"
       style="fill:#ff1800;fill-opacity:0.76582277;fill-rule:evenodd;stroke:#000000;stroke-width:0.375;stroke-linecap:butt;stroke-linejoin:bevel;stroke-miterlimit:4;stroke-opacity:1" />
    <use
       height="250"
       id="use1714"
       transform="translate(0,17.5)"
       width="250"
       x="0"
       xlink:href="#path1713"
       y="0" />
    <use
       height="250"
       id="use1715"
       transform="translate(0,35)"
       width="250"
       x="0"
       xlink:href="#path1700"
       y="0" />
    <use
       height="250"
       id="use1716"
       transform="translate(0,35)"
       width="250"
       x="0"
       xlink:href="#path1713"
       y="0" />
    <use
       height="250"
       id="use1717"
       transform="translate(0,52.5)"
       width="250"
       x="0"
       xlink:href="#path1713"
       y="0" />
    <use
       height="250"
       id="use1718"
       transform="translate(0,52.5)"
       width="250"
       x="0"
       xlink:href="#path1700"
       y="0" />
  </g>
  <g
     id="g1742"
     transform="translate(28.722182,-8.8953543)">
    <path
       d="M -5.372654,119.04156 A 31.22855,11.416889 0 1 1 -67.829754,119.04156 A 31.22855,11.416889 0 1 1 -5.372654,119.04156 z"
       id="path1719"
       sodipodi:cx="-36.601204"
       sodipodi:cy="119.04156"
       sodipodi:rx="31.22855"
       sodipodi:ry="11.416889"
       sodipodi:type="arc"
       style="fill:#e94747;fill-opacity:1;fill-rule:evenodd;stroke:#000000;stroke-width:0.63550633;stroke-linecap:butt;stroke-linejoin:miter;stroke-miterlimit:4;stroke-opacity:1"
       transform="matrix(1.189551,0,0,0.805863,178.9365,60.86841)" />
    <path
       d="M -5.372654,119.04156 A 31.22855,11.416889 0 1 1 -67.829754,119.04156 A 31.22855,11.416889 0 1 1 -5.372654,119.04156 z"
       id="path1720"
       sodipodi:cx="-36.601204"
       sodipodi:cy="119.04156"
       sodipodi:rx="31.22855"
       sodipodi:ry="11.416889"
       sodipodi:type="arc"
       style="fill:url(#radialGradient1727);fill-opacity:1;fill-rule:evenodd;stroke:#000000;stroke-width:1.40407884;stroke-linecap:butt;stroke-linejoin:miter;stroke-miterlimit:4;stroke-dasharray:none;stroke-opacity:1"
       transform="matrix(0.543235,0,0,0.364745,155.7398,112.8334)" />
  </g>
  <path
     d="M 197.96077,147.75479 L 165.05327,106.7883 L 132.14577,148.42637"
     id="path1722"
     sodipodi:nodetypes="ccc"
     style="fill:none;fill-opacity:0.75;fill-rule:evenodd;stroke:#cec0c0;stroke-width:1.875;stroke-linecap:round;stroke-linejoin:bevel;stroke-miterlimit:4;stroke-opacity:1" />
</svg>
