<?xml version="1.0" encoding="UTF-8" standalone="no"?>
<!-- Created with Inkscape (http://www.inkscape.org/) -->

<svg
   xmlns:dc="http://purl.org/dc/elements/1.1/"
   xmlns:cc="http://creativecommons.org/ns#"
   xmlns:rdf="http://www.w3.org/1999/02/22-rdf-syntax-ns#"
   xmlns:svg="http://www.w3.org/2000/svg"
   xmlns="http://www.w3.org/2000/svg"
   xmlns:xlink="http://www.w3.org/1999/xlink"
   xmlns:sodipodi="http://sodipodi.sourceforge.net/DTD/sodipodi-0.dtd"
   xmlns:inkscape="http://www.inkscape.org/namespaces/inkscape"
   id="svg834"
   sodipodi:version="0.32"
   inkscape:version="0.48.1 r9760"
   width="131.03969"
   height="114.78701"
   sodipodi:docname="nicubunu_Paper_plane.svg"
   version="1.1">
  <metadata
     id="metadata3809" />
  <defs
     id="defs836">
    <linearGradient
       id="linearGradient844">
      <stop
         style="stop-color:#000000;stop-opacity:0.20000000;"
         offset="0.0000000"
         id="stop845" />
      <stop
         style="stop-color:#ffffff;stop-opacity:0.0000000;"
         offset="1.0000000"
         id="stop846" />
    </linearGradient>
    <linearGradient
       xlink:href="#linearGradient844"
       id="linearGradient847"
       x1="74.183425"
       y1="183.45074"
       x2="21.136523"
       y2="112.28863"
       gradientTransform="scale(1.6768089,0.59637089)"
       gradientUnits="userSpaceOnUse" />
    <linearGradient
       xlink:href="#linearGradient844"
       id="linearGradient849"
       x1="48.732182"
       y1="179.48204"
       x2="5.5011871"
       y2="169.47638"
       gradientTransform="scale(2.6375218,0.37914378)"
       gradientUnits="userSpaceOnUse" />
  </defs>
  <sodipodi:namedview
     id="base"
     pagecolor="#ffffff"
     bordercolor="#666666"
     borderopacity="1.0"
     inkscape:pageopacity="0.0"
     inkscape:pageshadow="2"
     inkscape:zoom="1"
     inkscape:cx="44.639337"
     inkscape:cy="19.531885"
     inkscape:window-width="775"
     inkscape:window-height="727"
     inkscape:window-x="61"
     inkscape:window-y="32"
     showgrid="false"
     fit-margin-top="0"
     fit-margin-left="0"
     fit-margin-right="0"
     fit-margin-bottom="0"
     inkscape:window-maximized="0"
     inkscape:current-layer="svg834" />
  <g
     id="g853"
     transform="matrix(0.80483,-0.593505,0.593505,0.80483,-53.930765,49.876211)">
    <path
       style="fill:#f3fafa;fill-opacity:1;fill-rule:evenodd;stroke:#000000;stroke-width:1.25;stroke-linejoin:round"
       d="M 10.307714,84.24966 127.67116,105.75174 135.89262,64.626841 10.307714,84.24966 z"
       id="path838"
       sodipodi:nodetypes="cccc"
       inkscape:connector-curvature="0" />
    <path
       style="fill:#f3fafa;fill-opacity:1;fill-rule:evenodd;stroke:#000000;stroke-width:1.25;stroke-linejoin:round"
       d="M 5.7541756,84.1183 137.3812,71.863687 127.06704,106.60959 5.7541756,84.1183 z"
       id="path837"
       sodipodi:nodetypes="cccc"
       inkscape:connector-curvature="0" />
    <path
       style="fill:url(#linearGradient847);fill-opacity:1;fill-rule:evenodd;stroke:none"
       d="M 45.468945,92.153495 126.49499,107.20414 134.74191,75.453474 45.468945,92.153495 z"
       id="path843"
       sodipodi:nodetypes="cccc"
       inkscape:connector-curvature="0" />
    <path
       style="fill:url(#linearGradient849);fill-opacity:1;fill-rule:evenodd;stroke:none"
       d="M 36.381779,78.48186 135.34487,64.255915 133.69549,74.564571 36.381779,78.48186 z"
       id="path848"
       sodipodi:nodetypes="cccc"
       inkscape:connector-curvature="0" />
    <path
       style="fill:#f3fafa;fill-opacity:1;fill-rule:evenodd;stroke:#000000;stroke-width:1.25;stroke-linejoin:round"
       d="M 7.7285785,84.44333 136.92224,71.046208 156.39565,98.52241 7.7285785,84.44333 z"
       id="path839"
       sodipodi:nodetypes="cccc"
       inkscape:connector-curvature="0" />
    <path
       style="fill:#f3fafa;fill-opacity:1;fill-rule:evenodd;stroke:#000000;stroke-width:1.25;stroke-linejoin:round"
       d="M 6.4324814,84.11046 135.82235,65.026493 136.38717,39.381305 6.4324814,84.11046 z"
       id="path840"
       sodipodi:nodetypes="cccc"
       inkscape:connector-curvature="0" />
    <path
       style="fill:#f3fafa;fill-opacity:1;fill-rule:evenodd;stroke:#000000;stroke-width:1.25;stroke-linejoin:round"
       d="M 7.4926443,83.91802 55.496792,90.34228 53.162606,79.37192 7.4926443,83.91802 z"
       id="path841"
       sodipodi:nodetypes="cccc"
       inkscape:connector-curvature="0" />
    <path
       style="fill:#f3fafa;fill-opacity:1;fill-rule:evenodd;stroke:#000000;stroke-width:1.25;stroke-linejoin:round"
       d="M 7.0661678,84.050107 52.839508,77.784132 50.814457,67.258084 7.0661678,84.050107 z"
       id="path842"
       sodipodi:nodetypes="cccc"
       inkscape:connector-curvature="0" />
    <path
       style="fill:#fffafa;fill-opacity:1;fill-rule:evenodd;stroke:none"
       d="m 54.06555,80.551562 1.776802,7.614867 71.325918,6.59955 -73.10272,-14.214417 z"
       id="path850"
       inkscape:connector-curvature="0" />
    <path
       style="fill:#fffafa;fill-opacity:1;fill-rule:evenodd;stroke:none"
       d="m 13.45293,82.328365 32.236267,-12.183786 1.269145,7.614866 -33.505412,4.56892 z"
       id="path851"
       inkscape:connector-curvature="0" />
    <path
       style="fill:#fffafa;fill-opacity:1;fill-rule:evenodd;stroke:none"
       d="m 12.945272,84.105164 33.505411,-3.045941 1.015316,7.107203 -34.520727,-4.061262 z"
       id="path852"
       sodipodi:nodetypes="cccc"
       inkscape:connector-curvature="0" />
  </g>
  <metadata
     id="metadata3811">
    <rdf:RDF>
      <cc:Work
         rdf:about="">
        <dc:title>toy paper plane</dc:title>
        <dc:rights>
          <cc:Agent>
            <dc:title>Nicu Buculei</dc:title>
          </cc:Agent>
        </dc:rights>
        <dc:type
           rdf:resource="http://purl.org/dc/dcmitype/StillImage" />
        <cc:license
           rdf:resource="http://web.resource.org/cc/PublicDomain" />
        <dc:format>image/svg+xml</dc:format>
      </cc:Work>
      <cc:License
         rdf:about="http://web.resource.org/cc/PublicDomain">
        <cc:permits
           rdf:resource="http://web.resource.org/cc/Reproduction" />
        <cc:permits
           rdf:resource="http://web.resource.org/cc/Distribution" />
        <cc:permits
           rdf:resource="http://web.resource.org/cc/DerivativeWorks" />
      </cc:License>
    </rdf:RDF>
  </metadata>
</svg>
