<?xml version="1.0" encoding="UTF-8" standalone="no"?>
<!-- Created with Inkscape (http://www.inkscape.org/) -->

<svg
   xmlns:dc="http://purl.org/dc/elements/1.1/"
   xmlns:cc="http://creativecommons.org/ns#"
   xmlns:rdf="http://www.w3.org/1999/02/22-rdf-syntax-ns#"
   xmlns:svg="http://www.w3.org/2000/svg"
   xmlns="http://www.w3.org/2000/svg"
   xmlns:xlink="http://www.w3.org/1999/xlink"
   xmlns:sodipodi="http://sodipodi.sourceforge.net/DTD/sodipodi-0.dtd"
   xmlns:inkscape="http://www.inkscape.org/namespaces/inkscape"
   id="svg1"
   sodipodi:version="0.32"
   inkscape:version="0.48.1 r9760"
   width="446.78088"
   height="300.57816"
   sodipodi:docname="nicubunu_Green_Jigsaw_piece_02.svg"
   version="1.1">
  <metadata
     id="metadata3785" />
  <defs
     id="defs3">
    <linearGradient
       id="linearGradient1085">
      <stop
         style="stop-color:#006600;stop-opacity:1.0000000;"
         offset="0.0000000"
         id="stop1086" />
      <stop
         style="stop-color:#00ff00;stop-opacity:1.0000000;"
         offset="1.0000000"
         id="stop1087" />
    </linearGradient>
    <radialGradient
       xlink:href="#linearGradient1085"
       id="radialGradient1088"
       cx="1.7164468"
       cy="-0.64022434"
       r="4.1027193"
       fx="1.7164468"
       fy="-0.64022434" />
    <radialGradient
       xlink:href="#linearGradient1085"
       id="radialGradient1089"
       cx="-1.936861"
       cy="-0.63499105"
       r="4.1027193"
       fx="-1.936861"
       fy="-0.63499105" />
    <radialGradient
       xlink:href="#linearGradient1085"
       id="radialGradient1090"
       cx="-0.42395663"
       cy="-2.4909019"
       r="4.1027193"
       fx="-0.42395663"
       fy="-2.4909019"
       gradientTransform="scale(0.751916,1.329935)" />
    <radialGradient
       xlink:href="#linearGradient1085"
       id="radialGradient1091"
       cx="-0.42194343"
       cy="0.2561444"
       r="4.1027193"
       fx="-0.42194343"
       fy="0.2561444"
       gradientTransform="scale(0.751916,1.329935)" />
    <radialGradient
       xlink:href="#linearGradient1085"
       id="radialGradient1092"
       cx="0.77746075"
       cy="-0.62963188"
       r="4.1027188"
       fx="0.77746075"
       fy="-0.62963188" />
    <radialGradient
       xlink:href="#linearGradient1085"
       id="radialGradient1093"
       cx="-2.8758476"
       cy="-0.63852179"
       r="4.1027193"
       fx="-2.8758476"
       fy="-0.63852179" />
    <radialGradient
       xlink:href="#linearGradient1085"
       id="radialGradient1094"
       cx="-0.42395663"
       cy="-1.7813325"
       r="4.1027193"
       fx="-0.42395663"
       fy="-1.7813325"
       gradientTransform="scale(0.751916,1.329935)" />
    <radialGradient
       xlink:href="#linearGradient1085"
       id="radialGradient1095"
       cx="-0.41929287"
       cy="0.96238458"
       r="4.1027188"
       fx="-0.41929287"
       fy="0.96238458"
       gradientTransform="scale(0.751916,1.329935)" />
    <radialGradient
       xlink:href="#linearGradient1085"
       id="radialGradient1096"
       cx="109.89986"
       cy="158.61382"
       r="455.84762"
       fx="109.89986"
       fy="158.61382"
       gradientTransform="scale(1.2227753,0.81781173)"
       gradientUnits="userSpaceOnUse" />
  </defs>
  <sodipodi:namedview
     id="base"
     pagecolor="#ffffff"
     bordercolor="#666666"
     borderopacity="1.0"
     inkscape:pageopacity="0.0"
     inkscape:pageshadow="2"
     inkscape:zoom="1"
     inkscape:cx="284.12166"
     inkscape:cy="70.75997"
     inkscape:window-width="854"
     inkscape:window-height="696"
     showgrid="true"
     inkscape:window-x="327"
     inkscape:window-y="44"
     fit-margin-top="0"
     fit-margin-left="0"
     fit-margin-right="0"
     fit-margin-bottom="0"
     inkscape:window-maximized="0"
     inkscape:current-layer="svg1" />
  <g
     id="g842"
     transform="translate(-30.125179,-106.57809)">
    <path
       style="fill-opacity:0.5;fill-rule:evenodd;stroke-width:2.8679966pt"
       d="m 53.14063,271.84374 c 0.55954,15.19944 5.65331,32.24863 16.5625,41.34375 28.18773,13.22926 15.17291,-18.90771 34.6875,-22.6875 19.51459,-3.77979 20.59375,18.90625 20.59375,18.90625 l 0,0 0,97.75 c 0,0 96.93751,-0.125 96.9375,-0.125 0,0 22.68603,-1.07917 18.90625,-20.59375 -3.07108,-15.8556 -24.87804,-10.23276 -25.84375,-22.6875 -0.22286,-2.87417 0.67576,-6.7148 3.15625,-12 9.09512,-10.9092 26.14431,-16.00296 41.34375,-16.5625 5.61095,-0.20656 10.88794,0.2833 15.5,1.25 0.20469,0.0248 0.42017,0.0673 0.625,0.0937 13.11441,1.69391 26.4178,6.7618 34.09375,15.96875 13.22927,28.18774 -18.90772,15.17291 -22.6875,34.6875 -2.75393,14.2182 8.47834,18.61045 14.8125,19.96875 l 102.90625,0 0,-101.59375 c 1.21826,-6.20122 5.48907,-18.24109 20.125,-15.40625 19.5146,3.77979 6.49976,35.88552 34.6875,22.65625 9.20696,-7.67594 14.27484,-20.97934 15.96875,-34.09375 0.0265,-0.20482 0.0689,-0.42031 0.0937,-0.625 0.96671,-4.61204 1.45656,-9.88905 1.25,-15.5 -0.55953,-15.19944 -5.6533,-32.24863 -16.5625,-41.34375 -28.18772,-13.22926 -15.17291,18.90771 -34.6875,22.6875 -19.51457,3.7798 -20.59375,-18.90625 -20.59375,-18.90625 l -0.28125,-97.1875 c 0,0 -98.25001,0.62501 -98.25,0.625 0,0 -22.68605,1.07918 -18.90625,20.59375 3.77979,19.51459 35.91675,6.49978 22.6875,34.6875 -9.09512,10.9092 -26.14431,16.00297 -41.34375,16.5625 -5.61095,0.20656 -10.88795,-0.28329 -15.5,-1.25 -0.20469,-0.0248 -0.42019,-0.0673 -0.625,-0.0937 -13.11441,-1.69391 -26.41782,-6.76179 -34.09375,-15.96875 -2.48049,-5.2852 -3.37911,-9.12583 -3.15625,-12 0.96571,-12.45474 22.74142,-6.83189 25.8125,-22.6875 3.5267,-18.2079 -15.33972,-20.26129 -17.96875,-20.46875 l -98.40625,0 0,102.15625 c -1.48194,6.40559 -5.99188,16.96423 -19.84375,14.28125 -19.51459,-3.77978 -6.49976,-35.88552 -34.6875,-22.65625 -9.20694,7.67595 -14.27483,20.97934 -15.96875,34.09375 -0.02646,0.20483 -0.06894,0.42031 -0.09375,0.625 -0.9667,4.61205 -1.45656,9.88905 -1.25,15.5 z"
       id="path1572"
       sodipodi:nodetypes="cccccccccccccccccccccccccccccccccccccccccccc"
       inkscape:connector-curvature="0" />
    <path
       style="fill:url(#radialGradient1096);fill-opacity:1;fill-rule:evenodd;stroke:#000000;stroke-width:12.5;stroke-linejoin:round;stroke-dasharray:none"
       d="m 36.421871,256.82809 c 0.55954,15.19944 5.65331,32.24863 16.5625,41.34375 28.18773,13.22926 15.17291,-18.90771 34.6875,-22.6875 19.514589,-3.77979 20.593749,18.90625 20.593749,18.90625 l 0,0 0,97.75 c 0,0 96.93751,-0.125 96.9375,-0.125 0,0 22.68603,-1.07917 18.90625,-20.59375 -3.07108,-15.8556 -24.87804,-10.23276 -25.84375,-22.6875 -0.22286,-2.87417 0.67576,-6.7148 3.15625,-12 9.09512,-10.9092 26.14431,-16.00296 41.34375,-16.5625 5.61095,-0.20656 10.88794,0.2833 15.5,1.25 0.20469,0.0248 0.42017,0.0673 0.625,0.0937 13.11441,1.69391 26.4178,6.7618 34.09375,15.96875 13.22927,28.18774 -18.90772,15.17291 -22.6875,34.6875 -2.75393,14.2182 8.47834,18.61045 14.8125,19.96875 l 102.90625,0 0,-101.59375 c 1.21826,-6.20122 5.48907,-18.24109 20.125,-15.40625 19.5146,3.77979 6.49976,35.88552 34.6875,22.65625 9.20696,-7.67594 14.27484,-20.97934 15.96875,-34.09375 0.0265,-0.20482 0.0689,-0.42031 0.0937,-0.625 0.96671,-4.61204 1.45656,-9.88905 1.25,-15.5 -0.55953,-15.19944 -5.6533,-32.24863 -16.5625,-41.34375 -28.18772,-13.22926 -15.17291,18.90771 -34.6875,22.6875 -19.51457,3.7798 -20.59375,-18.90625 -20.59375,-18.90625 l -0.28125,-97.1875 c 0,0 -98.25001,0.62501 -98.25,0.625 0,0 -22.68605,1.07918 -18.90625,20.59375 3.77979,19.51459 35.91675,6.49978 22.6875,34.6875 -9.09512,10.9092 -26.14431,16.00297 -41.34375,16.5625 -5.61095,0.20656 -10.88795,-0.28329 -15.5,-1.25 -0.20469,-0.0248 -0.42019,-0.0673 -0.625,-0.0937 -13.11441,-1.69391 -26.41782,-6.76179 -34.09375,-15.96875 -2.48049,-5.2852 -3.37911,-9.12583 -3.15625,-12 0.96571,-12.45474 22.74142,-6.83189 25.8125,-22.6875 3.5267,-18.2079 -15.33972,-20.26129 -17.96875,-20.46875 l -98.40625,0 0,102.15625 c -1.48194,6.40559 -5.99188,16.96423 -19.843749,14.28125 -19.51459,-3.77978 -6.49976,-35.88552 -34.6875,-22.65625 -9.20694,7.67595 -14.27483,20.97934 -15.96875,34.09375 -0.02646,0.20483 -0.06894,0.42031 -0.09375,0.625 -0.9667,4.61205 -1.45656,9.88905 -1.25,15.5 z"
       id="path1099"
       sodipodi:nodetypes="cccccccccccccccccccccccccccccccccccccccccccc"
       inkscape:connector-curvature="0" />
  </g>
  <metadata
     id="metadata3787">
    <rdf:RDF>
      <cc:Work
         rdf:about="">
        <dc:title>Clipart by Nicu Buculei - jigsaw_red_10</dc:title>
        <dc:rights>
          <cc:Agent>
            <dc:title>Nicu Buculei</dc:title>
          </cc:Agent>
        </dc:rights>
        <dc:type
           rdf:resource="http://purl.org/dc/dcmitype/StillImage" />
        <cc:license
           rdf:resource="http://web.resource.org/cc/PublicDomain" />
        <dc:format>image/svg+xml</dc:format>
      </cc:Work>
      <cc:License
         rdf:about="http://web.resource.org/cc/PublicDomain">
        <cc:permits
           rdf:resource="http://web.resource.org/cc/Reproduction" />
        <cc:permits
           rdf:resource="http://web.resource.org/cc/Distribution" />
        <cc:permits
           rdf:resource="http://web.resource.org/cc/DerivativeWorks" />
      </cc:License>
    </rdf:RDF>
  </metadata>
</svg>
