<?xml version="1.0" encoding="UTF-8" standalone="no"?>
<!-- Created with Inkscape (http://www.inkscape.org/) -->
<svg
   xmlns:dc="http://purl.org/dc/elements/1.1/"
   xmlns:cc="http://creativecommons.org/ns#"
   xmlns:rdf="http://www.w3.org/1999/02/22-rdf-syntax-ns#"
   xmlns:svg="http://www.w3.org/2000/svg"
   xmlns="http://www.w3.org/2000/svg"
   xmlns:xlink="http://www.w3.org/1999/xlink"
   xmlns:sodipodi="http://sodipodi.sourceforge.net/DTD/sodipodi-0.dtd"
   xmlns:inkscape="http://www.inkscape.org/namespaces/inkscape"
   width="84"
   height="102"
   id="svg2"
   sodipodi:version="0.32"
   inkscape:version="0.46"
   sodipodi:docbase="/datas/Projs/Cliparts Stocker"
   sodipodi:docname="double_note.svg"
   inkscape:export-filename="/datas/Projs/Cliparts Stocker/double_note.png"
   inkscape:export-xdpi="90.000000"
   inkscape:export-ydpi="90.000000"
   inkscape:output_extension="org.inkscape.output.svg.inkscape"
   version="1.0">
  <defs
     id="defs4">
    <linearGradient
       inkscape:collect="always"
       id="linearGradient10794">
      <stop
         style="stop-color:#989898;stop-opacity:1;"
         offset="0"
         id="stop10796" />
      <stop
         style="stop-color:#989898;stop-opacity:0;"
         offset="1"
         id="stop10798" />
    </linearGradient>
    <linearGradient
       inkscape:collect="always"
       id="linearGradient10782">
      <stop
         style="stop-color:#989898;stop-opacity:1;"
         offset="0"
         id="stop10784" />
      <stop
         style="stop-color:#989898;stop-opacity:0;"
         offset="1"
         id="stop10786" />
    </linearGradient>
    <linearGradient
       inkscape:collect="always"
       id="linearGradient10765">
      <stop
         style="stop-color:#989898;stop-opacity:1;"
         offset="0"
         id="stop10767" />
      <stop
         style="stop-color:#989898;stop-opacity:0;"
         offset="1"
         id="stop10769" />
    </linearGradient>
    <linearGradient
       inkscape:collect="always"
       id="linearGradient10023">
      <stop
         style="stop-color:#bdbdbd;stop-opacity:1;"
         offset="0"
         id="stop10025" />
      <stop
         style="stop-color:#bdbdbd;stop-opacity:0;"
         offset="1"
         id="stop10027" />
    </linearGradient>
    <linearGradient
       inkscape:collect="always"
       xlink:href="#linearGradient10023"
       id="linearGradient10823"
       gradientUnits="userSpaceOnUse"
       x1="91.111488"
       y1="12.215436"
       x2="89.799461"
       y2="129.93967"
       gradientTransform="translate(9.009143,-1.079904)" />
    <linearGradient
       inkscape:collect="always"
       xlink:href="#linearGradient10794"
       id="linearGradient10826"
       gradientUnits="userSpaceOnUse"
       x1="46.517174"
       y1="14.790077"
       x2="46.517174"
       y2="138.12024"
       gradientTransform="translate(8.756123,-0.911224)" />
    <linearGradient
       inkscape:collect="always"
       xlink:href="#linearGradient10023"
       id="linearGradient10829"
       gradientUnits="userSpaceOnUse"
       x1="78.296486"
       y1="9.1397552"
       x2="76.947044"
       y2="32.225971"
       gradientTransform="translate(9.233222,-0.911224)" />
    <radialGradient
       inkscape:collect="always"
       xlink:href="#linearGradient10782"
       id="radialGradient10832"
       gradientUnits="userSpaceOnUse"
       gradientTransform="matrix(0.507302,2.992059,-2.503033,0.629017,307.6498,-19.1405)"
       cx="16.886499"
       cy="97.809586"
       fx="16.886499"
       fy="97.809586"
       r="7.3950381" />
    <radialGradient
       inkscape:collect="always"
       xlink:href="#linearGradient10765"
       id="radialGradient10835"
       gradientUnits="userSpaceOnUse"
       gradientTransform="matrix(2.277654,1.814482,-1.554691,2.313904,142.4194,-168.8005)"
       cx="16.073729"
       cy="98.385017"
       fx="16.073729"
       fy="98.385017"
       r="7.3950381" />
  </defs>
  <sodipodi:namedview
     id="base"
     pagecolor="#ffffff"
     bordercolor="#666666"
     borderopacity="1.0"
     inkscape:pageopacity="0.0"
     inkscape:pageshadow="2"
     inkscape:zoom="8.127451"
     inkscape:cx="58.917973"
     inkscape:cy="51"
     inkscape:document-units="px"
     inkscape:current-layer="layer1"
     inkscape:window-width="1680"
     inkscape:window-height="1003"
     inkscape:window-x="-4"
     inkscape:window-y="-4"
     showgrid="false" />
  <metadata
     id="metadata7">
    <rdf:RDF>
      <cc:Work
         rdf:about="">
        <dc:format>image/svg+xml</dc:format>
        <dc:type
           rdf:resource="http://purl.org/dc/dcmitype/StillImage" />
        <dc:title>Double_note</dc:title>
        <dc:date>2005-08-15</dc:date>
        <dc:creator>
          <cc:Agent>
            <dc:title>Jean-Victor Balin</dc:title>
          </cc:Agent>
        </dc:creator>
        <dc:description>jean.victor.balin@gmail.com</dc:description>
        <cc:license
           rdf:resource="http://creativecommons.org/licenses/publicdomain/" />
        <dc:language>fr-FR</dc:language>
        <dc:subject>
          <rdf:Bag>
            <rdf:li>note</rdf:li>
            <rdf:li>music</rdf:li>
          </rdf:Bag>
        </dc:subject>
      </cc:Work>
      <cc:License
         rdf:about="http://creativecommons.org/licenses/publicdomain/">
        <cc:permits
           rdf:resource="http://creativecommons.org/ns#Reproduction" />
        <cc:permits
           rdf:resource="http://creativecommons.org/ns#Distribution" />
        <cc:permits
           rdf:resource="http://creativecommons.org/ns#DerivativeWorks" />
      </cc:License>
    </rdf:RDF>
  </metadata>
  <g
     inkscape:label="Calque 1"
     inkscape:groupmode="layer"
     id="layer1">
    <g
       id="g10838"
       transform="translate(-20.499999,-11.500002)">
      <path
         sodipodi:nodetypes="ccssscsscssssccssccsscssscssssccsssc"
         id="path1320"
         d="M 99.631123,12.088776 C 99.111509,11.936757 98.478065,12.038639 97.693623,12.495026 C 92.177829,15.555748 85.748419,16.072245 81.037373,16.620026 C 76.375775,17.162058 72.632751,17.316061 68.037373,17.120026 C 63.809626,16.939674 61.053275,16.714848 58.568623,16.245026 C 56.777781,15.906397 54.394827,14.730994 53.349873,15.838776 C 56.287551,22.599677 57.409612,32.062302 57.256123,37.307526 C 56.968776,47.042759 55.974024,54.141293 54.537373,62.370026 C 53.135678,70.398544 50.346905,77.664808 47.787373,85.182526 C 45.944038,91.176136 42.057969,85.190575 39.287373,83.963776 C 35.294201,82.195629 31.779321,82.074052 27.912373,83.963776 C 24.045424,85.853504 21.881688,88.640363 20.912373,93.026276 C 19.964856,97.313559 22.156375,102.62461 25.724873,105.52628 C 29.190875,108.34461 34.317491,108.72309 38.474873,107.40128 C 42.577971,105.9803 46.278073,102.10852 47.818623,98.088776 C 48.607362,96.219334 49.072124,95.392048 50.006123,92.432526 C 50.94012,89.473007 52.186485,85.135933 53.224873,81.432526 C 55.135898,74.616862 57.787748,68.406397 59.443623,53.057526 C 59.951694,48.924165 61.456159,35.752629 60.224873,27.682526 C 66.614884,28.15001 69.150362,28.193319 71.958851,28.238636 C 76.781797,28.315097 82.748215,27.705313 86.284305,27.107131 C 90.653746,26.367975 96.451062,24.802088 99.224873,24.304506 C 99.894278,26.943291 99.974799,28.35928 100.28737,32.088776 C 100.76468,37.78371 100.59715,48.095149 100.13112,52.745026 C 99.331331,60.725042 97.144544,74.140625 94.974873,81.807526 C 93.880761,85.673755 92.716163,88.597337 91.506123,91.776276 C 89.906152,94.664352 86.255243,89.903857 83.849873,88.838776 C 79.856701,87.070636 76.341821,86.917796 72.474873,88.807526 C 68.607924,90.697256 66.412938,93.515355 65.443623,97.901276 C 64.496106,102.18856 66.687624,107.46836 70.256123,110.37003 C 73.722125,113.18836 78.848739,113.56684 83.006123,112.24503 C 87.109221,110.82405 90.809319,106.95228 92.349873,102.93253 C 96.523018,91.694373 98.742074,83.431452 99.787373,79.151276 C 101.23933,73.205946 103.99381,60.238322 104.28737,43.995026 C 104.3423,40.955722 104.33891,32.632024 103.66237,25.807526 C 103.4055,23.216371 101.18997,12.544833 99.631123,12.088776 z"
         style="fill:#000000" />
      <path
         id="path2279"
         d="M 35.500372,98.292333 C 31.326139,102.05187 25.664554,102.50418 22.862905,99.301948 C 20.061255,96.099714 21.175237,90.449577 25.34947,86.690036 C 29.523702,82.930495 35.185287,82.478188 37.986936,85.680422 C 40.778964,88.871659 39.685866,94.49172 35.54109,98.255511"
         style="fill:url(#radialGradient10835);fill-opacity:1;stroke:none;stroke-width:2.5;stroke-linecap:round;stroke-linejoin:round;stroke-miterlimit:4;stroke-opacity:1" />
      <path
         id="path2281"
         d="M 80.049162,103.00369 C 75.874929,106.76323 70.213344,107.21554 67.411695,104.01331 C 64.610045,100.81107 65.724027,95.160934 69.89826,91.401393 C 74.072492,87.641852 79.734077,87.189545 82.535726,90.391779 C 85.327754,93.583016 84.234656,99.203077 80.08988,102.96687"
         style="fill:url(#radialGradient10832);fill-opacity:1;stroke:none;stroke-width:2.5;stroke-linecap:round;stroke-linejoin:round;stroke-miterlimit:4;stroke-opacity:1" />
      <path
         sodipodi:nodetypes="ccsscscssssc"
         id="path5636"
         d="M 98.889472,12.807526 C 98.646484,12.856659 98.364801,12.978705 98.014472,13.182526 C 92.357523,16.321574 85.832169,16.824379 81.139472,17.370026 C 76.455306,17.914682 72.667082,18.067169 68.045722,17.870026 C 66.563852,17.806811 65.442285,17.73435 64.264472,17.651276 C 68.676762,19.923491 72.923055,21.067446 77.176762,22.047417 C 88.7403,24.711429 94.351939,22.990463 102.35822,22.338776 C 101.99312,20.427372 101.54899,18.20387 101.01447,16.338776 C 100.71789,15.303922 100.40583,14.393196 100.10822,13.745026 C 99.959419,13.420941 99.79131,13.186882 99.670722,13.026276 C 99.550134,12.86567 99.474229,12.827003 99.514472,12.838776 C 99.347919,12.790049 99.13246,12.758393 98.889472,12.807526 z"
         style="fill:url(#linearGradient10829);fill-opacity:1" />
      <path
         sodipodi:nodetypes="csccscscccscc"
         id="path7829"
         d="M 55.256123,15.807526 C 54.961178,15.786898 54.689542,15.801252 54.318623,15.838776 C 54.069479,15.863981 53.939444,15.956336 53.787373,16.057526 C 56.659461,22.883258 57.75301,32.105567 57.599873,37.338776 C 57.311873,47.096179 56.319139,54.227223 54.881123,62.463776 C 53.472918,70.529587 50.778771,77.683312 48.224873,85.182526 C 48.590532,84.832226 49.543329,83.135271 50.03451,81.62599 C 52.577289,73.812636 54.365143,70.551978 56.756123,55.588776 C 56.755729,55.578363 56.755729,55.567939 56.756123,55.557526 L 56.818623,55.307526 C 56.820264,55.297118 56.816985,55.286682 56.818623,55.276276 C 59.123108,40.640201 59.153968,27.851666 56.099873,15.995026 C 55.781042,15.913204 55.4911,15.82396 55.256123,15.807526 z"
         style="fill:url(#linearGradient10826);fill-opacity:1" />
      <path
         sodipodi:nodetypes="csssssssssscssssssssssssssccsssssssssscc"
         id="path7834"
         d="M 99.884143,24.857596 C 99.872233,24.866404 99.861701,24.876936 99.852893,24.888846 C 99.842505,24.887752 99.832031,24.887752 99.821643,24.888846 C 99.809733,24.897654 99.799201,24.908186 99.790393,24.920096 C 99.789299,24.930484 99.789299,24.940958 99.790393,24.951346 C 99.778483,24.960154 99.767951,24.970686 99.759143,24.982596 C 99.758049,24.992984 99.758049,25.003458 99.759143,25.013846 C 99.758049,25.024234 99.758049,25.034708 99.759143,25.045096 C 100.22062,27.121596 100.36287,28.683417 100.63414,31.920096 C 101.11323,37.636335 100.94611,47.967155 100.47789,52.638846 C 99.676853,60.631322 97.497541,74.043689 95.321643,81.732596 C 94.30824,85.313629 93.276677,88.075538 92.165393,90.982596 C 92.153483,90.991404 92.142951,91.001936 92.134143,91.013846 C 92.133049,91.024234 92.133049,91.034708 92.134143,91.045096 C 92.133049,91.055484 92.133049,91.065958 92.134143,91.076346 C 92.142951,91.088256 92.153483,91.098788 92.165393,91.107596 C 92.164299,91.117984 92.164299,91.128458 92.165393,91.138846 C 92.174201,91.150756 92.184733,91.161288 92.196643,91.170096 C 92.207031,91.17119 92.217505,91.17119 92.227893,91.170096 C 92.236701,91.182006 92.247233,91.192538 92.259143,91.201346 C 92.269531,91.20244 92.280005,91.20244 92.290393,91.201346 C 92.300781,91.20244 92.311255,91.20244 92.321643,91.201346 C 92.333553,91.192538 92.344085,91.182006 92.352893,91.170096 C 92.363281,91.17119 92.373755,91.17119 92.384143,91.170096 C 92.396053,91.161288 92.406585,91.150756 92.415393,91.138846 C 92.879061,90.509222 93.529076,89.529144 94.196643,87.701346 C 95.812896,83.276045 98.297503,73.892998 100.37473,59.624095 L 100.40598,59.342845 C 101.36715,52.293506 101.67121,44.907452 101.50914,37.295096 C 101.42812,33.489255 101.22394,30.123822 100.85289,27.795096 C 100.66731,26.63036 100.41512,25.715958 100.16539,25.138846 C 100.13835,25.076347 100.1271,25.04343 100.10289,25.013846 C 100.07869,24.984262 100.05378,24.974926 100.04039,24.951346 C 100.04149,24.940958 100.04149,24.930484 100.04039,24.920096 C 100.03158,24.908186 100.02105,24.897654 100.00914,24.888846 C 99.998755,24.887752 99.988281,24.887752 99.977893,24.888846 C 99.969085,24.876936 99.958553,24.866404 99.946643,24.857596 C 99.936255,24.856502 99.925781,24.856502 99.915393,24.857596 C 99.905005,24.856502 99.894531,24.856502 99.884143,24.857596 L 99.884143,24.857596 z"
         style="fill:url(#linearGradient10823);fill-opacity:1" />
    </g>
  </g>
</svg>
