<?xml version="1.0" encoding="UTF-8" standalone="no"?>
<!-- Created with Inkscape (http://www.inkscape.org/) -->

<svg
   xmlns:dc="http://purl.org/dc/elements/1.1/"
   xmlns:cc="http://creativecommons.org/ns#"
   xmlns:rdf="http://www.w3.org/1999/02/22-rdf-syntax-ns#"
   xmlns:svg="http://www.w3.org/2000/svg"
   xmlns="http://www.w3.org/2000/svg"
   xmlns:xlink="http://www.w3.org/1999/xlink"
   xmlns:sodipodi="http://sodipodi.sourceforge.net/DTD/sodipodi-0.dtd"
   xmlns:inkscape="http://www.inkscape.org/namespaces/inkscape"
   height="106.74246"
   id="svg1"
   inkscape:version="0.48.1 r9760"
   sodipodi:docname="Anonymous_Coffee_Cup.svg"
   sodipodi:version="0.32"
   width="149.8008"
   inkscape:output_extension="org.inkscape.output.svg.inkscape"
   version="1.1">
  <metadata
     id="metadata3">
    <rdf:RDF>
      <cc:Work
         rdf:about="">
        <dc:title>Etiquette Icons</dc:title>
        <dc:description />
        <dc:subject>
          <rdf:Bag>
            <rdf:li>hash</rdf:li>
            <rdf:li />
            <rdf:li>food</rdf:li>
            <rdf:li>beverage</rdf:li>
          </rdf:Bag>
        </dc:subject>
        <dc:publisher>
          <cc:Agent
             rdf:about="http://www.openclipart.org">
            <dc:title>Andy Fitzsimon</dc:title>
          </cc:Agent>
        </dc:publisher>
        <dc:creator>
          <cc:Agent>
            <dc:title>Andy Fitzsimon</dc:title>
          </cc:Agent>
        </dc:creator>
        <dc:rights>
          <cc:Agent>
            <dc:title>Andy Fitzsimon</dc:title>
          </cc:Agent>
        </dc:rights>
        <dc:date />
        <dc:format>image/svg+xml</dc:format>
        <dc:type
           rdf:resource="http://purl.org/dc/dcmitype/StillImage" />
        <cc:license
           rdf:resource="http://web.resource.org/cc/PublicDomain" />
        <dc:language>en</dc:language>
      </cc:Work>
      <cc:License
         rdf:about="http://web.resource.org/cc/PublicDomain">
        <cc:permits
           rdf:resource="http://web.resource.org/cc/Reproduction" />
        <cc:permits
           rdf:resource="http://web.resource.org/cc/Distribution" />
        <cc:permits
           rdf:resource="http://web.resource.org/cc/DerivativeWorks" />
      </cc:License>
    </rdf:RDF>
  </metadata>
  <defs
     id="defs3">
    <inkscape:perspective
       sodipodi:type="inkscape:persp3d"
       inkscape:vp_x="0 : 80 : 1"
       inkscape:vp_y="0 : 1000 : 0"
       inkscape:vp_z="160 : 80 : 1"
       inkscape:persp3d-origin="80 : 53.333333 : 1"
       id="perspective58" />
    <linearGradient
       id="linearGradient1290">
      <stop
         id="stop1291"
         offset="0.00000000"
         style="stop-color:#bfae71;stop-opacity:1.0000000;" />
      <stop
         id="stop1292"
         offset="1.0000000"
         style="stop-color:#7f6a1d;stop-opacity:1.0000000;" />
    </linearGradient>
    <linearGradient
       id="linearGradient853">
      <stop
         id="stop854"
         offset="0.00000000"
         style="stop-color:#000000;stop-opacity:0.29752067;" />
      <stop
         id="stop855"
         offset="1.0000000"
         style="stop-color:#000000;stop-opacity:0.00000000;" />
    </linearGradient>
    <linearGradient
       id="linearGradient846">
      <stop
         id="stop847"
         offset="0.00000000"
         style="stop-color:#e7e7e7;stop-opacity:1.0000000;" />
      <stop
         id="stop848"
         offset="1.0000000"
         style="stop-color:#a5a5a5;stop-opacity:1.0000000;" />
    </linearGradient>
    <linearGradient
       id="linearGradient841">
      <stop
         id="stop842"
         offset="0.00000000"
         style="stop-color:#ffffff;stop-opacity:1.0000000;" />
      <stop
         id="stop843"
         offset="1.0000000"
         style="stop-color:#ffffff;stop-opacity:0.00000000;" />
    </linearGradient>
    <linearGradient
       id="linearGradient837">
      <stop
         id="stop838"
         offset="0"
         style="stop-color:#000;stop-opacity:1;" />
      <stop
         id="stop839"
         offset="1"
         style="stop-color:#fff;stop-opacity:1;" />
    </linearGradient>
    <linearGradient
       id="linearGradient840"
       x1="12.204311"
       x2="44.801418"
       xlink:href="#linearGradient853"
       y1="100.73712"
       y2="104.05719"
       gradientTransform="matrix(1.1388142,0,0,0.87810634,-3.552373,-34.502568)"
       gradientUnits="userSpaceOnUse" />
    <linearGradient
       id="linearGradient844"
       xlink:href="#linearGradient841"
       gradientTransform="matrix(0.82713342,0,0,1.2089948,-3.552373,-34.502568)"
       x1="46.35165"
       y1="49.388161"
       x2="66.746902"
       y2="49.388161"
       gradientUnits="userSpaceOnUse" />
    <linearGradient
       id="linearGradient845"
       x1="158.26196"
       x2="123.6407"
       xlink:href="#linearGradient841"
       y1="60.489964"
       y2="60.889286"
       gradientTransform="matrix(0.75848318,0,0,1.3184208,-3.552373,-34.502568)"
       gradientUnits="userSpaceOnUse" />
    <linearGradient
       id="linearGradient849"
       x1="31.401894"
       x2="111.18582"
       xlink:href="#linearGradient846"
       y1="91.168839"
       y2="93.215324"
       gradientTransform="matrix(1.2200354,0,0,0.81964834,-3.552373,-34.502568)"
       gradientUnits="userSpaceOnUse" />
    <linearGradient
       id="linearGradient850"
       xlink:href="#linearGradient846"
       gradientTransform="matrix(1.6997363,0,0,0.58832654,-3.552373,-34.502568)"
       x1="22.179092"
       y1="64.443626"
       x2="68.792778"
       y2="64.443626"
       gradientUnits="userSpaceOnUse" />
    <linearGradient
       id="linearGradient851"
       x1="38.806114"
       x2="56.191429"
       xlink:href="#linearGradient846"
       y1="83.628502"
       y2="85.035179"
       gradientTransform="matrix(1.7828975,0,0,0.56088473,-3.552373,-34.502568)"
       gradientUnits="userSpaceOnUse" />
    <linearGradient
       id="linearGradient852"
       x1="111.10228"
       x2="112.24639"
       xlink:href="#linearGradient841"
       y1="48.488918"
       y2="72.56311"
       gradientTransform="matrix(1.1433927,0,0,0.87459019,-3.552373,-34.502568)"
       gradientUnits="userSpaceOnUse" />
    <radialGradient
       cx="34.128502"
       cy="131.97556"
       fx="34.41114"
       fy="126.24205"
       id="radialGradient856"
       r="14.610766"
       xlink:href="#linearGradient841"
       gradientTransform="matrix(2.2802787,0,0,0.43854288,-3.552373,-34.502568)"
       gradientUnits="userSpaceOnUse" />
    <linearGradient
       id="linearGradient858"
       x1="131.79961"
       x2="129.31949"
       xlink:href="#linearGradient846"
       y1="96.86335"
       y2="54.652752"
       gradientTransform="matrix(0.94246069,0,0,1.0610522,-3.552373,-34.502568)"
       gradientUnits="userSpaceOnUse" />
    <linearGradient
       id="linearGradient859"
       x1="133.68163"
       x2="37.213287"
       xlink:href="#linearGradient853"
       y1="1.1644779"
       y2="197.13657"
       gradientTransform="matrix(1.3864154,0,0,0.72128457,-3.552373,-34.502568)"
       gradientUnits="userSpaceOnUse" />
    <linearGradient
       id="linearGradient860"
       x1="38.09005"
       x2="38.934906"
       xlink:href="#linearGradient1290"
       y1="118.06762"
       y2="64.799232"
       gradientTransform="matrix(1.9740573,0,0,0.5065709,-3.552373,-34.502568)"
       gradientUnits="userSpaceOnUse" />
    <radialGradient
       cx="50.460037"
       cy="171.4256"
       fx="51.138557"
       fy="152.04478"
       id="radialGradient861"
       r="48.175186"
       xlink:href="#linearGradient853"
       gradientTransform="matrix(1.5547505,0,0,0.64319,-3.552373,-34.502568)"
       gradientUnits="userSpaceOnUse" />
    <radialGradient
       cx="50.886028"
       cy="164.70526"
       fx="50.886028"
       fy="147.87567"
       id="radialGradient864"
       r="24.002857"
       xlink:href="#linearGradient853"
       gradientTransform="matrix(1.5144268,0,0,0.66031582,-3.552373,-34.502568)"
       gradientUnits="userSpaceOnUse" />
  </defs>
  <sodipodi:namedview
     bordercolor="#666666"
     borderopacity="1.0"
     id="base"
     inkscape:cx="89.115544"
     inkscape:cy="138.58634"
     inkscape:pageopacity="0.0"
     inkscape:pageshadow="2"
     inkscape:window-height="500"
     inkscape:window-width="640"
     inkscape:window-x="475"
     inkscape:window-y="110"
     inkscape:zoom="1.7366335"
     pagecolor="#ffffff"
     showborder="false"
     showgrid="false"
     inkscape:current-layer="svg1"
     fit-margin-top="0"
     fit-margin-left="0"
     fit-margin-right="0"
     fit-margin-bottom="0"
     inkscape:window-maximized="0" />
  <g
     id="g1285"
     style="fill:#000000;fill-opacity:0.03999999"
     transform="matrix(1,0,0,1.005339,-190.76377,-131.39448)">
    <path
       d="m 262.65959,133.59795 c -26.77322,0.0371 -40.10275,8.94108 -40.25,13.34375 3.3e-4,0.14424 0.0515,0.34321 0.0625,0.5 -0.006,-0.0883 -0.0601,-0.16072 -0.0625,-0.25 -0.72775,8.54436 0.26447,16.47098 2.4375,23.4375 -10.98326,5.14174 -17.85201,12.15655 -17.9375,18.875 -0.001,0.11413 -0.0336,0.22985 -0.0312,0.34375 -0.11466,0.6687 -0.20148,1.33711 -0.1875,2 0.26221,12.11408 7.72795,32.25752 56.65625,31.15625 45.49528,-0.73144 53.56523,-20.24535 54.53125,-31.21875 0.003,-0.0325 0.0285,-0.0614 0.0312,-0.0937 0.1384,-0.85707 0.13112,-1.57002 0.1875,-2.34375 0.0489,-0.67041 0.15321,-1.43784 0.15625,-2.03125 0.0158,-2.98504 -2.7266,-6.39907 -7.09375,-9.71875 5.27984,-3.8055 9.4375,-8.41623 9.4375,-13.75 1e-5,-15.10327 -13.21875,-11.625 -13.21875,-11.625 l -5.5625,2.09375 c 0.14152,-2.04841 0.27883,-4.09278 0.25,-6.21875 -0.12398,0.31955 -0.44392,0.59752 -0.625,0.90625 0.12609,-0.49261 0.20628,-0.96708 0.15625,-1.375 -0.48207,-3.9307 -12.38677,-14.06834 -38.9375,-14.03125 z m -39.46875,16.4375 c 0.10477,0.23998 0.17721,0.47122 0.3125,0.71875 -0.13664,-0.22982 -0.20151,-0.4803 -0.3125,-0.71875 z m 88.375,5.15625 c 1.74042,0.16224 3.3664,1.26296 4.625,3.9375 2.56469,5.44996 -3.42422,11.02293 -9.9375,15.21875 -2.24387,-1.29257 -4.70711,-2.52795 -7.4375,-3.6875 0.88148,-2.76163 1.52612,-5.70888 2.0625,-8.75 1.33803,-1.62387 6.17409,-7.13949 10.6875,-6.71875 z"
       id="path1258"
       style="fill:#000000;fill-opacity:0.03999999;fill-rule:evenodd;stroke:none"
       inkscape:connector-curvature="0" />
    <path
       d="m 253.46875,135.625 c -10.11922,1.45934 -21.37262,2.74867 -28.96875,10.34375 -1.0707,4.97231 -0.21667,10.08474 -0.0312,15.4375 0.34268,4.5463 4.9711,10.99339 -1.83666,12.32816 -8.03592,4.10293 -16.62903,12.1041 -13.76171,22.08163 2.42687,15.09783 18.67787,23.03375 32.63282,24.03834 17.58793,2.55517 35.97088,1.80201 52.9968,-3.47938 12.46931,-4.08836 23.26908,-15.86294 21.8125,-29.625 0.068,-4.77147 -7.18395,-5.37413 -6.4375,-9.875 4.7526,-4.14556 10.60712,-9.28479 8.71875,-16.40625 1.19353,-3.41716 -8.43379,-8.43163 -4,-5.71875 5.92202,4.03053 3.96942,13.15764 -1.73259,16.47159 -2.6548,3.37477 -7.06236,5.97549 -11.01635,2.99516 -5.90422,-1.65618 -4.57432,-8.60555 -2.09654,-12.64774 2.05274,-4.41078 6.87059,-7.42283 11.68923,-7.88151 -3.82926,-1.80421 -8.34674,4.44089 -11.25,0.9375 0.18712,-4.93315 -0.86311,-10.66381 -6.31298,-12.35108 -12.03747,-7.28564 -26.80895,-7.13542 -40.40577,-6.64892 z"
       id="path1262"
       style="fill:#000000;fill-opacity:0.03999999;fill-rule:evenodd;stroke:none"
       inkscape:connector-curvature="0" />
    <path
       d="m 253.1875,132.375 c -11.12772,1.66926 -24.11553,2.97788 -31.65625,12.3125 -2.22048,8.25689 -0.0624,16.87732 1.1875,24.96875 -6.22225,4.08224 -13.92368,8.10365 -16.31253,15.84101 -4.56405,12.21314 3.75097,25.69935 14.52901,31.48607 14.54848,7.81059 31.80954,7.78206 47.92143,7.24757 16.13502,-1.13645 34.71383,-4.0033 45.03473,-17.87322 4.58744,-6.63386 7.95376,-16.19506 4.28908,-23.91499 -1.95068,-2.81888 -6.71164,-5.06678 -1.35673,-7.55025 7.56309,-5.93268 7.3421,-20.66823 -2.52459,-24.00817 -3.65067,-1.71405 -7.14335,-0.11432 -10.7054,0.86573 0.97432,-3.7618 -0.4447,-6.81567 -3.40625,-9.125 -13.15467,-10.59277 -30.91588,-10.92647 -47,-10.25 z m 59.9375,25.21875 c 5.17691,5.39883 -2.22389,12.58233 -7.34038,14.40445 -4.49553,0.36225 -6.16501,-4.59403 -3.54802,-7.72644 1.37989,-4.05472 6.40462,-8.39652 10.8884,-6.67801 z"
       id="path1265"
       style="fill:#000000;fill-opacity:0.03999999;fill-rule:evenodd;stroke:none"
       inkscape:connector-curvature="0" />
    <path
       d="m 244.21875,132.125 c -8.95865,1.70851 -18.84738,4.44658 -24.3125,12.3125 -1.83311,8.11298 -0.19244,16.34352 1.03125,24.40625 -9.03675,5.19545 -18.93953,13.80249 -17.10027,25.40506 0.99583,16.1607 16.63374,27.26772 31.62048,29.49634 18.84026,3.72157 38.59944,2.70147 57.22979,-1.6514 14.8678,-4.15524 29.20605,-17.05265 28.42032,-33.53426 0.004,-3.94206 -1.57481,-8.07664 -4.63907,-10.65324 3.34847,-3.93837 7.40889,-8.02806 7.22118,-13.71424 1.09225,-9.12095 -7.88451,-18.21852 -17.12749,-15.02607 -2.29772,-0.44376 -1.72782,-5.69654 -4.86269,-7.10644 -13.40322,-11.73737 -32.60554,-11.73396 -49.44192,-11.18439 -2.67969,0.41663 -5.35939,0.83326 -8.03908,1.24989 z m 67.875,26.9375 c 3.35181,4.90031 -3.82408,11.73011 -8.4375,10.40625 -2.39863,-4.35423 3.83345,-11.20954 8.4375,-10.40625 z"
       id="path1272"
       style="fill:#000000;fill-opacity:0.03999999;fill-rule:evenodd;stroke:none"
       inkscape:connector-curvature="0" />
  </g>
  <path
     d="M 0.00301605,73.38398 C -0.34961395,60.09277 30.258756,45.28738 71.093439,44.78265 112.35127,44.27793 149.87122,60.09277 149.8007,70.69208 149.7302,81.62789 141.97228,105.85488 76.171319,106.6961 10.370366,107.8738 0.35564605,86.33869 0.00301605,73.38398 z"
     id="path834"
     sodipodi:nodetypes="czzzz"
     style="fill:url(#radialGradient861);fill-opacity:1;fill-rule:evenodd;stroke:none"
     inkscape:connector-curvature="0" />
  <path
     d="M 18.446786,61.66887 C 18.184576,49.24013 40.944366,35.395472 71.308239,34.923492 101.98676,34.451512 129.88586,49.24013 129.83342,59.15165 129.78102,69.37783 124.01237,92.03274 75.084059,92.81937 26.155746,93.92064 18.708996,73.78295 18.446786,61.66887 z"
     id="path832"
     sodipodi:nodetypes="czzzz"
     style="fill:#ffffff;fill-opacity:1;fill-rule:evenodd;stroke:none"
     inkscape:connector-curvature="0" />
  <path
     d="M 18.626849,59.65824 C 18.364639,47.2295 41.124429,33.384839 71.488299,32.912859 102.16682,32.440879 130.06592,47.2295 130.01348,57.14102 129.96108,67.3672 124.19243,90.02211 75.264119,90.80874 26.335809,91.91001 18.889059,71.77232 18.626849,59.65824 z"
     id="path866"
     sodipodi:nodetypes="czzzz"
     style="fill:url(#linearGradient859);fill-opacity:1;fill-rule:evenodd;stroke:none"
     inkscape:connector-curvature="0" />
  <path
     d="M 34.146236,16.760962 C 34.293476,12.35829 47.644106,3.4485123 74.417329,3.4114303 100.96807,3.3743503 112.8714,13.497744 113.35347,17.428442 c 0.48206,3.93069 -6.15562,12.42248 -40.271091,13.34953 -34.337973,0.92705 -38.926053,-9.61434 -38.936143,-14.01701 z"
     id="path828"
     sodipodi:nodetypes="czzzz"
     style="fill:url(#linearGradient850);fill-opacity:1;fill-rule:evenodd;stroke:none"
     inkscape:connector-curvature="0" />
  <path
     d="m 111.89829,32.563602 c 0,0 11.0128,-14.31664 16.04722,-3.61849 5.03443,10.69815 -22.96956,22.025598 -22.96956,22.025598 l -5.349081,7.55164 c 0,0 32.723761,-9.75419 32.723761,-24.857468 0,-15.10327 -13.21536,-11.6421 -13.21536,-11.6421 l -6.60768,2.51721 -0.6293,8.02361 z"
     id="path826"
     sodipodi:nodetypes="cccccccc"
     style="fill:url(#linearGradient858);fill-opacity:1;fill-rule:evenodd;stroke:none"
     inkscape:connector-curvature="0" />
  <path
     d="m 35.710136,17.909832 c -0.48206,-3.930693 13.94285,-12.8674637 37.378703,-13.1270377 23.65833,-0.259574 37.341601,7.6388987 37.823671,11.5695947 0.48207,3.930693 -5.93312,11.087533 -34.931271,12.014583 -28.775663,0.92705 -39.789033,-6.52644 -40.271103,-10.45714 z"
     id="path827"
     sodipodi:nodetypes="czzzz"
     style="fill:url(#linearGradient851);fill-opacity:1;fill-rule:evenodd;stroke:none"
     inkscape:connector-curvature="0" />
  <path
     d="m 39.492506,22.359682 c -0.51915,-2.8924 10.4746,-11.013368 31.816393,-11.124614 21.49911,-0.268572 35.302101,7.564734 35.821241,10.457134 0.51915,2.8924 -20.017481,6.62869 -32.706351,6.89726 -12.688873,0.11124 -34.412133,-3.33738 -34.931283,-6.22978 z"
     id="path829"
     sodipodi:nodetypes="czzzz"
     style="fill:url(#linearGradient860);fill-opacity:1;fill-rule:evenodd;stroke:none"
     inkscape:connector-curvature="0" />
  <path
     d="m 47.552046,24.225342 c 12.0092,-4.71978 33.661353,-7.969631 50.547653,-0.41799 2.660271,1.79111 8.546671,-0.53387 6.089621,-2.41388 -5.506401,-4.71977 -21.632291,-8.521808 -31.622471,-8.495587 -9.990193,0.02622 -22.812243,2.779421 -28.318643,8.652917 -1.56863,1.78148 0.97885,4.00795 3.30384,2.67454 z"
     id="path830"
     sodipodi:nodetypes="ccczcc"
     style="fill:url(#radialGradient856);fill-opacity:1;fill-rule:evenodd;stroke:none"
     inkscape:connector-curvature="0" />
  <path
     d="m 37.161686,73.04127 c -0.17114,-6.79855 14.68368,-14.37161 34.501523,-14.62979 20.0232,-0.25817 38.232341,7.83124 38.198111,13.25287 -0.0342,5.59374 -3.79928,17.98603 -35.733721,18.41632 -31.934443,0.6024 -36.794773,-10.41296 -36.965913,-17.0394 z"
     id="path862"
     sodipodi:nodetypes="czzzz"
     style="fill:url(#radialGradient864);fill-opacity:1;fill-rule:evenodd;stroke:none"
     inkscape:connector-curvature="0" />
  <path
     d="m 34.152696,17.019862 c -2.00243,23.510008 8.93677,42.421848 22.02673,49.170778 13.089953,6.74893 25.438273,5.59939 37.156203,-1.33495 11.717921,-6.93434 20.765941,-25.06746 20.469281,-46.945858 -5.95112,15.33834 -79.133064,18.31853 -79.652214,-0.88997 z"
     id="path831"
     sodipodi:nodetypes="czzcc"
     style="fill:url(#linearGradient849);fill-opacity:1;fill-rule:evenodd;stroke:none"
     inkscape:connector-curvature="0" />
  <path
     d="m 38.269826,75.51353 c -10.27861,-0.57686 -20.08525,-6.29302 -17.30583,-17.62048 2.77942,-11.64211 21.18653,-17.56804 28.63328,-17.30583 7.44676,0.2622 17.8827,13.21536 16.04723,18.87908 -1.83547,5.66373 -16.78141,16.93875 -27.37468,16.04723 z"
     id="path833"
     sodipodi:nodetypes="czzzz"
     style="fill:url(#linearGradient840);fill-opacity:1;fill-rule:evenodd;stroke:none"
     inkscape:connector-curvature="0" />
  <path
     d="m 87.995809,43.49643 c 3.1149,-1.11246 17.131901,-2.00242 20.246791,-15.796938 1.55745,12.459558 -2.5155,18.338238 -4.00485,21.804238 -1.48935,3.68848 -13.687571,16.47105 -14.017011,13.57202 l -2.22493,-19.57932 z"
     id="path835"
     sodipodi:nodetypes="cczzc"
     style="fill:url(#linearGradient845);fill-opacity:1;fill-rule:evenodd;stroke:none"
     inkscape:connector-curvature="0" />
  <path
     d="m 38.825036,43.27395 c -2.15076,-2.29909 -4.89483,-20.469288 -3.78237,-17.799378 0.88997,2.6699 9.34467,7.30516 12.45956,6.45227 2.8924,-0.85289 6.97143,15.685698 1.33496,17.576888 -5.85897,1.89118 -7.8614,-4.15319 -10.01215,-6.22978 z"
     id="path836"
     sodipodi:nodetypes="czzzz"
     style="fill:url(#linearGradient844);fill-opacity:1;fill-rule:evenodd;stroke:none"
     inkscape:connector-curvature="0" />
  <path
     d="m 113.75593,24.447832 -0.32256,3.14651 c -0.47198,2.98919 10.29134,-10.24526 15.48309,1.7115 0.51015,2.82396 -0.027,6.40428 -0.027,6.40428 0,0 2.9622,-3.39273 2.35989,-6.60768 -3.53751,-11.67238 -15.2685,-5.65583 -17.49342,-4.65461 z"
     id="path857"
     sodipodi:nodetypes="cccccc"
     style="fill:url(#linearGradient852);fill-opacity:1;fill-rule:evenodd;stroke:none"
     inkscape:connector-curvature="0" />
</svg>
