<?xml version="1.0" encoding="UTF-8" standalone="no"?>
<!-- Created with Inkscape (http://www.inkscape.org/) -->
<svg
   xmlns:dc="http://purl.org/dc/elements/1.1/"
   xmlns:cc="http://web.resource.org/cc/"
   xmlns:rdf="http://www.w3.org/1999/02/22-rdf-syntax-ns#"
   xmlns:svg="http://www.w3.org/2000/svg"
   xmlns="http://www.w3.org/2000/svg"
   xmlns:xlink="http://www.w3.org/1999/xlink"
   xmlns:sodipodi="http://sodipodi.sourceforge.net/DTD/sodipodi-0.dtd"
   xmlns:inkscape="http://www.inkscape.org/namespaces/inkscape"
   height="320.76489"
   id="svg1"
   inkscape:version="0.45.1"
   sodipodi:docbase="/Users/johnolsen/Desktop/openclipart-0.20-pre/recovered-zerobyte-files/food/beverages"
   sodipodi:docname="mug_toh_yen_cheng_02r.svg"
   sodipodi:version="0.32"
   width="367.67303"
   inkscape:output_extension="org.inkscape.output.svg.inkscape"
   version="1.0">
  <metadata
     id="metadata3">
    <rdf:RDF>
      <cc:Work
         rdf:about="">
        <dc:title>mug</dc:title>
        <dc:description>coffee mug</dc:description>
        <dc:subject>
          <rdf:Bag>
            <rdf:li>beverage</rdf:li>
            <rdf:li>mug</rdf:li>
            <rdf:li>coffee</rdf:li>
          </rdf:Bag>
        </dc:subject>
        <dc:publisher>
          <cc:Agent
             rdf:about="http://www.openclipart.org/">
            <dc:title>Open Clip Art Library</dc:title>
          </cc:Agent>
        </dc:publisher>
        <dc:creator>
          <cc:Agent>
            <dc:title>Toh Yen Cheng</dc:title>
          </cc:Agent>
        </dc:creator>
        <dc:rights>
          <cc:Agent>
            <dc:title>Toh Yen Cheng</dc:title>
          </cc:Agent>
        </dc:rights>
        <dc:date />
        <dc:format>image/svg+xml</dc:format>
        <dc:type
           rdf:resource="http://purl.org/dc/dcmitype/StillImage" />
        <cc:license
           rdf:resource="http://web.resource.org/cc/PublicDomain" />
        <dc:language>en</dc:language>
      </cc:Work>
      <cc:License
         rdf:about="http://web.resource.org/cc/PublicDomain">
        <cc:permits
           rdf:resource="http://web.resource.org/cc/Reproduction" />
        <cc:permits
           rdf:resource="http://web.resource.org/cc/Distribution" />
        <cc:permits
           rdf:resource="http://web.resource.org/cc/DerivativeWorks" />
      </cc:License>
    </rdf:RDF>
  </metadata>
  <defs
     id="defs3">
    <linearGradient
       id="linearGradient5912"
       inkscape:collect="always">
      <stop
         id="stop5913"
         offset="0"
         style="stop-color:#0000ac;stop-opacity:1;" />
      <stop
         id="stop5914"
         offset="1"
         style="stop-color:#0000ac;stop-opacity:0;" />
    </linearGradient>
    <linearGradient
       id="linearGradient5898"
       inkscape:collect="always">
      <stop
         id="stop5899"
         offset="0"
         style="stop-color:#0000ac;stop-opacity:1;" />
      <stop
         id="stop5900"
         offset="1"
         style="stop-color:#0000ac;stop-opacity:0;" />
    </linearGradient>
    <linearGradient
       id="linearGradient5848">
      <stop
         id="stop5849"
         offset="0.0000000"
         style="stop-color:#bf8820;stop-opacity:1.0000000;" />
      <stop
         id="stop5850"
         offset="1.0000000"
         style="stop-color:#655100;stop-opacity:0.0000000;" />
    </linearGradient>
    <radialGradient
       cx="174.52805"
       cy="1114.5491"
       fx="174.94987"
       fy="1114.5496"
       gradientTransform="scale(2.111575,0.47358)"
       gradientUnits="userSpaceOnUse"
       id="radialGradient5847"
       inkscape:collect="always"
       r="52.731552"
       xlink:href="#linearGradient5848" />
    <radialGradient
       cx="371.69043"
       cy="661.52826"
       fx="371.69043"
       fy="661.52826"
       gradientTransform="scale(1.045135,0.956814)"
       gradientUnits="userSpaceOnUse"
       id="radialGradient5902"
       inkscape:collect="always"
       r="90.068329"
       xlink:href="#linearGradient5898" />
    <linearGradient
       gradientTransform="scale(0.942809,1.06066)"
       gradientUnits="userSpaceOnUse"
       id="linearGradient5917"
       inkscape:collect="always"
       x1="405.9375"
       x2="495.9375"
       xlink:href="#linearGradient5912"
       y1="573.00995"
       y2="573.00995" />
  </defs>
  <sodipodi:namedview
     bordercolor="#666666"
     borderopacity="1.0"
     id="base"
     inkscape:current-layer="layer1"
     inkscape:cx="346.74799"
     inkscape:cy="343.88350"
     inkscape:pageopacity="0.0"
     inkscape:pageshadow="2"
     inkscape:window-height="702"
     inkscape:window-width="1022"
     inkscape:window-x="0"
     inkscape:window-y="0"
     inkscape:zoom="1.4142136"
     pagecolor="#ffffff" />
  <g
     id="layer1"
     inkscape:groupmode="layer"
     inkscape:label="Layer 1"
     transform="translate(-188.3125,-483.23201)">
    <path
       d="M 479.37576 508.2059 A 110.84665 24.472637 0 1 1  257.68246,508.2059 A 110.84665 24.472637 0 1 1  479.37576 508.2059 z"
       id="path1948"
       sodipodi:cx="368.52911"
       sodipodi:cy="508.2059"
       sodipodi:rx="110.84665"
       sodipodi:ry="24.472637"
       sodipodi:type="arc"
       style="fill:none;fill-opacity:1;stroke:#000000;stroke-opacity:1" />
    <path
       d="M 479.37576 508.2059 A 110.84665 24.472637 0 1 1  257.68246,508.2059 A 110.84665 24.472637 0 1 1  479.37576 508.2059 z"
       id="path2570"
       sodipodi:cx="368.52911"
       sodipodi:cy="508.2059"
       sodipodi:rx="110.84665"
       sodipodi:ry="24.472637"
       sodipodi:type="arc"
       style="fill:none;fill-opacity:1;stroke:#000000;stroke-opacity:1" />
    <path
       d="M 256.24291,509.64546 L 257.68247,744.29487"
       id="path2572"
       style="fill:none;fill-opacity:0.75;fill-rule:evenodd;stroke:#000000;stroke-width:1.0625;stroke-linecap:butt;stroke-linejoin:miter;stroke-miterlimit:4;stroke-opacity:1" />
    <path
       d="M 479.37577,509.64546 L 479.37577,744.29487"
       id="path2573"
       style="fill:none;fill-opacity:0.75;fill-rule:evenodd;stroke:#000000;stroke-width:1.0625;stroke-linecap:butt;stroke-linejoin:miter;stroke-miterlimit:4;stroke-dasharray:none;stroke-opacity:1" />
    <path
       d="M 479.37576 508.2059 A 110.84665 24.472637 0 1 1  257.68246,508.2059 A 110.84665 24.472637 0 1 1  479.37576 508.2059 z"
       id="path2576"
       sodipodi:cx="368.52911"
       sodipodi:cy="508.2059"
       sodipodi:rx="110.84665"
       sodipodi:ry="24.472637"
       sodipodi:type="arc"
       style="fill:url(#radialGradient5847);fill-opacity:1;stroke:#000000;stroke-opacity:1"
       transform="matrix(1.00503,0,0,1,-2.413891,0)" />
    <path
       d="M 399.45783,756.51783 A 108.27573,28.284273 0 1 1 262.63286,788.91943"
       id="path5864"
       sodipodi:cx="369.02136"
       sodipodi:cy="783.66162"
       sodipodi:end="9.2377987"
       sodipodi:open="true"
       sodipodi:rx="108.27573"
       sodipodi:ry="28.284273"
       sodipodi:start="4.9973307"
       sodipodi:type="arc"
       style="fill:#000000;fill-opacity:0.13333333;stroke:none;stroke-width:1.0625;stroke-linejoin:miter;stroke-miterlimit:4;stroke-opacity:1"
       transform="translate(78.66563,-7.954951)" />
    <path
       d="M 479.37576,508.2059 A 110.84665,40.382538 0 0 1 257.69276,508.75617"
       id="path5832"
       sodipodi:cx="368.52911"
       sodipodi:cy="508.2059"
       sodipodi:end="3.1279658"
       sodipodi:open="true"
       sodipodi:rx="110.84665"
       sodipodi:ry="40.382538"
       sodipodi:start="0"
       sodipodi:type="arc"
       style="fill:none;fill-opacity:1;stroke:#000000;stroke-opacity:1"
       transform="translate(0,234.9826)" />
    <path
       d="M 255.34375,542.6875 C 218.44257,543.22361 188.84374,575.25007 188.84375,614.59375 C 188.84375,654.28171 219.05369,686.49998 256.28125,686.5 L 255.34375,542.6875 z M 255.34375,563.5625 L 256.03125,660.9375 C 228.37807,660.93752 205.9375,639.12702 205.9375,612.25 C 205.9375,585.60615 227.933,563.92556 255.34375,563.5625 z "
       id="path5833"
       style="fill:#0000ff;fill-opacity:0;stroke:#000000;stroke-width:1.0625;stroke-linejoin:miter;stroke-miterlimit:4;stroke-opacity:1" />
    <path
       d="M 476.41319 536.17426 A 110.0435 30.052038 0 1 1  256.32619,536.17426 A 110.0435 30.052038 0 1 1  476.41319 536.17426 z"
       id="path5851"
       sodipodi:cx="366.36969"
       sodipodi:cy="536.17426"
       sodipodi:rx="110.0435"
       sodipodi:ry="30.052038"
       sodipodi:type="arc"
       style="fill:#000000;fill-opacity:0.13333333;stroke:none;stroke-width:1.0625;stroke-linejoin:miter;stroke-miterlimit:4;stroke-opacity:1"
       transform="matrix(1,0,0,0.814955,2.5,70.81984)" />
    <path
       d="M 121.97592 543.68726 A 22.097086 52.591068 0 1 1  77.781744,543.68726 A 22.097086 52.591068 0 1 1  121.97592 543.68726 z"
       id="path5883"
       sodipodi:cx="99.87883"
       sodipodi:cy="543.68726"
       sodipodi:rx="22.097086"
       sodipodi:ry="52.591068"
       sodipodi:type="arc"
       style="fill:#000000;fill-opacity:1;stroke:none;stroke-width:1.0625;stroke-linejoin:miter;stroke-miterlimit:4;stroke-opacity:1"
       transform="matrix(1,0,0,0.394958,261.6295,417.342)" />
    <path
       d="M 340.29513 594.95245 A 8.8388348 9.280776 0 1 1  322.61746,594.95245 A 8.8388348 9.280776 0 1 1  340.29513 594.95245 z"
       id="path5884"
       sodipodi:cx="331.4563"
       sodipodi:cy="594.95245"
       sodipodi:rx="8.8388348"
       sodipodi:ry="9.280776"
       sodipodi:type="arc"
       style="fill:#000000;fill-opacity:1;stroke:none;stroke-width:1.0625;stroke-linejoin:miter;stroke-miterlimit:4;stroke-opacity:1" />
    <path
       d="M 401.28309 593.18469 A 7.5130095 8.3968925 0 1 1  386.25707,593.18469 A 7.5130095 8.3968925 0 1 1  401.28309 593.18469 z"
       id="path5885"
       sodipodi:cx="393.77008"
       sodipodi:cy="593.18469"
       sodipodi:rx="7.5130095"
       sodipodi:ry="8.3968925"
       sodipodi:type="arc"
       style="fill:#000000;fill-opacity:1;stroke:none;stroke-width:1.0625;stroke-linejoin:miter;stroke-miterlimit:4;stroke-opacity:1"
       transform="translate(-2.5,2.5)" />
    <path
       d="M 415.37108,665.39389 C 342.19769,719.31478 305.85182,660.29981 305.85182,660.29981"
       id="path5886"
       style="fill:none;fill-opacity:0.75;fill-rule:evenodd;stroke:#000000;stroke-width:0.35355339pt;stroke-linecap:butt;stroke-linejoin:miter;stroke-opacity:1" />
    <path
       d="M 466.69047 640.03052 A 11.490485 101.20466 0 1 1  443.7095,640.03052 A 11.490485 101.20466 0 1 1  466.69047 640.03052 z"
       id="path5887"
       sodipodi:cx="455.19998"
       sodipodi:cy="640.03052"
       sodipodi:rx="11.490485"
       sodipodi:ry="101.20466"
       sodipodi:type="arc"
       style="fill:#0000ac;fill-opacity:0.27333338;stroke:none;stroke-width:1.0625;stroke-linejoin:miter;stroke-miterlimit:4;stroke-opacity:1"
       transform="matrix(8.576923,0,0,0.912664,-3539.614,49.71068)" />
    <path
       d="M 467.57436 607.7688 A 42.426407 47.729706 0 1 1  382.72154,607.7688 A 42.426407 47.729706 0 1 1  467.57436 607.7688 z"
       id="path5911"
       sodipodi:cx="425.14795"
       sodipodi:cy="607.7688"
       sodipodi:rx="42.426407"
       sodipodi:ry="47.729706"
       sodipodi:type="arc"
       style="opacity:0.56050954;fill:url(#linearGradient5917);fill-opacity:1;stroke:none;stroke-width:1.0625;stroke-linejoin:miter;stroke-miterlimit:4;stroke-opacity:1"
       transform="matrix(2.135417,0,0,1.88889,-549.4533,-511.9547)" />
    <path
       d="M 475.52933 567.55212 A 3.9774756 41.100582 0 1 1  467.57437,567.55212 A 3.9774756 41.100582 0 1 1  475.52933 567.55212 z"
       id="path5920"
       sodipodi:cx="471.55185"
       sodipodi:cy="567.55212"
       sodipodi:rx="3.9774756"
       sodipodi:ry="41.100582"
       sodipodi:type="arc"
       style="opacity:0.56050954;fill:#000000;fill-opacity:0.15294118;stroke:none;stroke-width:1.0625;stroke-linejoin:miter;stroke-miterlimit:4;stroke-opacity:1" />
  </g>
</svg>
