<?xml version="1.0" encoding="UTF-8" standalone="no"?>
<!-- Created with Inkscape (http://www.inkscape.org/) -->
<svg
   xmlns:dc="http://purl.org/dc/elements/1.1/"
   xmlns:cc="http://creativecommons.org/ns#"
   xmlns:rdf="http://www.w3.org/1999/02/22-rdf-syntax-ns#"
   xmlns:svg="http://www.w3.org/2000/svg"
   xmlns="http://www.w3.org/2000/svg"
   xmlns:sodipodi="http://sodipodi.sourceforge.net/DTD/sodipodi-0.dtd"
   xmlns:inkscape="http://www.inkscape.org/namespaces/inkscape"
   height="411.62881"
   id="svg5947"
   version="1.0"
   width="692.52649"
   x="0.00000000"
   y="0.00000000"
   sodipodi:version="0.32"
   inkscape:version="0.46"
   sodipodi:docname="ice_cube_jarno_vasamaa_.svg"
   inkscape:output_extension="org.inkscape.output.svg.inkscape"
   inkscape:export-filename="/home/joanna/gfx/vector/Jarno Vasamaa/ice_cube_jarno_vasamaa_.png"
   inkscape:export-xdpi="43.666199"
   inkscape:export-ydpi="43.666199">
  <sodipodi:namedview
     inkscape:window-height="715"
     inkscape:window-width="641"
     inkscape:pageshadow="2"
     inkscape:pageopacity="0.0"
     guidetolerance="10.0"
     gridtolerance="10.0"
     objecttolerance="10.0"
     borderopacity="1.0"
     bordercolor="#666666"
     pagecolor="#ffffff"
     id="base"
     showgrid="false"
     inkscape:zoom="0.46942014"
     inkscape:cx="372.04724"
     inkscape:cy="526.18109"
     inkscape:window-x="0"
     inkscape:window-y="0"
     inkscape:current-layer="svg5947" />
  <metadata
     id="metadata3">
    <rdf:RDF>
      <cc:Work
         rdf:about="">
        <dc:title>Ice cube</dc:title>
        <dc:description>icecube</dc:description>
        <dc:subject>
          <rdf:Bag>
            <rdf:li>holiday</rdf:li>
            <rdf:li>food</rdf:li>
          </rdf:Bag>
        </dc:subject>
        <dc:publisher>
          <cc:Agent
             rdf:about="http://www.openclipart.org/">
            <dc:title>Open Clip Art Library</dc:title>
          </cc:Agent>
        </dc:publisher>
        <dc:creator>
          <cc:Agent>
            <dc:title>Jarno Vasamaa</dc:title>
          </cc:Agent>
        </dc:creator>
        <dc:rights>
          <cc:Agent>
            <dc:title>Jarno Vasamaa</dc:title>
          </cc:Agent>
        </dc:rights>
        <dc:date />
        <dc:format>image/svg+xml</dc:format>
        <dc:type
           rdf:resource="http://purl.org/dc/dcmitype/StillImage" />
        <cc:license
           rdf:resource="http://web.resource.org/cc/PublicDomain" />
        <dc:language>en</dc:language>
      </cc:Work>
      <cc:License
         rdf:about="http://web.resource.org/cc/PublicDomain">
        <cc:permits
           rdf:resource="http://web.resource.org/cc/Reproduction" />
        <cc:permits
           rdf:resource="http://web.resource.org/cc/Distribution" />
        <cc:permits
           rdf:resource="http://web.resource.org/cc/DerivativeWorks" />
      </cc:License>
    </rdf:RDF>
  </metadata>
  <defs
     id="defs3">
    <inkscape:perspective
       sodipodi:type="inkscape:persp3d"
       inkscape:vp_x="0 : 526.18109 : 1"
       inkscape:vp_y="0 : 1000 : 0"
       inkscape:vp_z="744.09448 : 526.18109 : 1"
       inkscape:persp3d-origin="372.04724 : 350.78739 : 1"
       id="perspective19" />
  </defs>
  <g
     id="layer1"
     transform="translate(-28.41284,-276.68937)">
    <g
       id="g19069">
      <path
         d="M 72.808458,479.73017 C 58.229274,498.31933 125.03355,499.72362 120.62618,512.11141 C 116.21879,524.49921 40.599767,547.87048 30.866489,560.76938 C 24.771079,592.90327 134.4967,569.5626 83.33686,605.69 C 11.840049,622.79748 3.5492036,675.3675 97.980818,653.29894 C 192.41241,631.23037 291.02037,608.17847 247.48184,633.72893 C 203.94332,659.27941 205.54192,668.57104 216.46671,675.80238 C 248.1826,693.2997 476.04994,681.23974 505.07206,662.99549 C 534.09415,644.7513 457.77056,644.97604 461.30863,612.27982 C 464.8467,579.58362 529.72322,585.4604 570.24594,579.27327 C 699.86458,569.16018 682.76415,528.09741 650.05405,528.19373 C 617.34393,528.29003 458.50719,514.82248 551.78486,493.65203 C 660.82925,496.96269 875.12261,436.73719 533.49442,441.37488 C 191.86621,446.01255 134.88543,445.61353 72.808458,479.73017 z"
         id="path18307"
         style="fill:#000000;fill-opacity:1;fill-rule:evenodd;stroke:none;stroke-width:2;stroke-linecap:butt;stroke-linejoin:miter;stroke-miterlimit:4;stroke-opacity:0.80540538" />
      <path
         d="M 74.808458,483.73017 C 60.229274,502.31933 127.03355,503.72362 122.62618,516.11141 C 118.21879,528.49921 42.599767,551.87048 32.866489,564.76938 C 26.771079,596.90327 136.4967,573.5626 85.33686,609.69 C 13.840049,626.79748 5.5492036,679.3675 99.98082,657.29894 C 194.41241,635.23037 293.02037,612.17847 249.48184,637.72893 C 205.94332,663.27941 207.54192,672.57104 218.46671,679.80238 C 250.1826,697.2997 478.04994,685.23974 507.07206,666.99549 C 536.09415,648.7513 459.77056,648.97604 463.30863,616.27982 C 466.8467,583.58362 531.72322,589.4604 572.24594,583.27327 C 701.86458,573.16018 684.76415,532.09741 652.05405,532.19373 C 619.34393,532.29003 460.50719,518.82248 553.78486,497.65203 C 662.82925,500.96269 877.12261,440.73719 535.49442,445.37488 C 193.86621,450.01255 136.88543,449.61353 74.808458,483.73017 z"
         id="path19067"
         style="fill:#000000;fill-opacity:1;fill-rule:evenodd;stroke:none;stroke-width:2;stroke-linecap:butt;stroke-linejoin:miter;stroke-miterlimit:4;stroke-opacity:0.80540538" />
      <path
         d="M 76.980715,480.81939 C 62.603707,499.16457 128.48158,500.55043 124.13533,512.77563 C 119.78906,525.00084 45.218676,548.06537 35.620373,560.79497 C 29.609491,592.50711 137.8135,569.47278 87.363115,605.12601 C 16.857781,622.00896 8.6819078,673.88901 101.804,652.11009 C 194.92607,630.33117 292.16659,607.58182 249.23183,632.79694 C 206.29708,658.01207 207.87351,667.18175 218.6468,674.31818 C 249.92287,691.58585 474.63028,679.68417 503.24994,661.67938 C 531.86957,643.67464 456.60439,643.89643 460.09339,611.62934 C 463.5824,579.36228 527.55925,585.16192 567.52002,579.056 C 695.34119,569.07564 678.4779,528.55181 646.2214,528.64687 C 613.96489,528.74191 457.3308,515.45112 549.31495,494.55852 C 656.84718,497.82573 868.16884,438.39068 531.27815,442.9675 C 194.38744,447.54431 138.19684,447.15052 76.980715,480.81939 z"
         id="path9035"
         style="fill:#4affff;fill-opacity:1;fill-rule:evenodd;stroke:none;stroke-width:2;stroke-linecap:butt;stroke-linejoin:miter;stroke-miterlimit:4;stroke-opacity:0.80540538" />
      <path
         d="M 89.773376,484.15434 C 112.86646,469.94321 139.51233,466.39042 146.61789,464.61403 C 153.72346,462.83764 212.34437,453.9557 182.14572,464.61403 C 151.94707,475.27238 89.773376,484.15434 89.773376,484.15434 z"
         id="path12179"
         style="fill:#f0ffff;fill-opacity:1;fill-rule:evenodd;stroke:none;stroke-width:1px;stroke-linecap:butt;stroke-linejoin:miter;stroke-opacity:1" />
      <path
         d="M 178.14161,517.56041 C 170.72236,499.23167 155.88391,326.94135 170.72236,304.94682 C 185.56083,282.95232 333.94539,264.62357 359.91269,286.61807 C 385.87998,308.61259 463.78188,337.9386 467.49148,356.26735 C 471.20111,374.59612 489.74918,524.89194 471.20111,546.88645 C 452.65302,568.88094 300.55887,601.87273 282.01079,594.54121 C 263.46272,587.20971 178.14161,517.56041 178.14161,517.56041 z"
         id="path15989"
         style="fill:#000000;fill-opacity:1;fill-rule:evenodd;stroke:none;stroke-width:3;stroke-linecap:butt;stroke-linejoin:miter;stroke-miterlimit:4;stroke-opacity:0.49729728" />
      <path
         d="M 183.00483,515.74613 C 175.83667,497.82579 161.50038,329.37442 175.83667,307.86997 C 190.17297,286.36555 333.53583,268.4452 358.62433,289.94962 C 383.71284,311.45405 458.97834,340.12663 462.5624,358.04698 C 466.14648,375.96735 484.06685,522.9143 466.14648,544.41872 C 448.22611,565.92314 301.27919,598.1798 283.35882,591.01164 C 265.43847,583.84351 183.00483,515.74613 183.00483,515.74613 z"
         id="path9031"
         style="fill:#5bffff;fill-opacity:1;fill-rule:evenodd;stroke:none;stroke-width:3;stroke-linecap:butt;stroke-linejoin:miter;stroke-miterlimit:4;stroke-opacity:0.49729728" />
      <path
         d="M 290.52698,537.25057 C 276.19068,519.33021 272.6066,426.14436 283.35882,404.63991 C 294.11104,383.13548 390.88099,383.13548 394.46505,397.47179 C 398.04912,411.80806 408.80134,415.39212 380.12875,422.56029 C 351.45619,429.72842 319.19954,422.56029 308.44733,436.89657 C 297.69511,451.23286 297.69511,555.17093 297.69511,555.17093 L 290.52698,537.25057 z"
         id="path7511"
         style="fill:#f0ffff;fill-opacity:1;fill-rule:evenodd;stroke:none;stroke-width:1px;stroke-linecap:butt;stroke-linejoin:miter;stroke-opacity:1" />
      <path
         d="M 189.58147,438.69791 C 182.386,419.30155 180.58715,350.90267 185.98374,340.41516 C 191.38034,329.92766 239.94967,374.19414 241.74853,386.10432 C 243.54738,398.01448 248.94398,405.50063 234.55307,397.52 C 220.16216,389.53933 203.97239,369.64851 198.57579,375.00068 C 193.1792,380.35286 193.1792,454.81523 193.1792,454.81523 L 189.58147,438.69791 z"
         id="path8271"
         style="fill:#f0ffff;fill-opacity:1;fill-rule:evenodd;stroke:none;stroke-width:1px;stroke-linecap:butt;stroke-linejoin:miter;stroke-opacity:1" />
      <path
         d="M 642.7687,554.42271 C 608.88043,559.16793 501.5476,573.59127 481.0445,582.72386 C 460.5414,591.85648 437.82936,591.40094 439.51897,585.30667 C 441.20857,579.21242 606.03233,530.27837 629.06394,540.38462 C 652.09554,550.49086 642.7687,554.42271 642.7687,554.42271 z"
         id="path11419"
         style="fill:#f0ffff;fill-opacity:1;fill-rule:evenodd;stroke:none;stroke-width:1px;stroke-linecap:butt;stroke-linejoin:miter;stroke-opacity:1" />
      <path
         d="M 190.17312,316.72387 C 190.17312,316.72387 222.14816,334.48778 236.35929,352.25169 C 250.57041,370.0156 255.89959,373.56839 271.88711,375.34478 C 287.87463,377.12117 387.35254,362.91004 398.01088,357.58087 C 408.66923,352.25169 307.41493,371.792 284.32184,368.23921 C 261.22876,364.68643 252.3468,352.25169 231.03011,339.81695 C 209.71343,327.38222 190.17312,316.72387 190.17312,316.72387 z"
         id="path16750"
         style="fill:#0cd9eb;fill-opacity:1;fill-rule:evenodd;stroke:none;stroke-width:1px;stroke-linecap:butt;stroke-linejoin:miter;stroke-opacity:1" />
    </g>
  </g>
</svg>
