<?xml version="1.0" encoding="utf-8"?>
<!-- Generator: Adobe Illustrator 10.0, SVG Export Plug-In . SVG Version: 3.0.0 Build 77)  --><svg enable-background="new 0 0 284.572 335.411" height="335.411" i:pageBounds="0 792 612 0" i:rulerOrigin="0 0" i:viewOrigin="169.2192 570.6157" overflow="visible" space="preserve" viewBox="0 0 284.572 335.411" width="284.572" xmlns="http://www.w3.org/2000/svg" xmlns:a="http://ns.adobe.com/AdobeSVGViewerExtensions/3.0/" xmlns:graph="http://ns.adobe.com/Graphs/1.0/" xmlns:i="http://ns.adobe.com/AdobeIllustrator/10.0/" xmlns:x="http://ns.adobe.com/Extensibility/1.0/" xmlns:xlink="http://www.w3.org/1999/xlink">
  <metadata>
    <rdf:RDF xmlns:cc="http://web.resource.org/cc/" xmlns:dc="http://purl.org/dc/elements/1.1/" xmlns:rdf="http://www.w3.org/1999/02/22-rdf-syntax-ns#">
      <cc:Work rdf:about="">
        <dc:title>Coffee</dc:title>
        <dc:description>Coffee</dc:description>
        <dc:subject>
          <rdf:Bag>
            <rdf:li>food</rdf:li>
            <rdf:li>menu</rdf:li>
            <rdf:li>beverage</rdf:li>
            <rdf:li>coffee</rdf:li>
          </rdf:Bag>
        </dc:subject>
        <dc:publisher>
          <cc:Agent rdf:about="http://www.openclipart.org/">
            <dc:title>Open Clip Art Project</dc:title>
          </cc:Agent>
        </dc:publisher>
        <dc:creator>
          <cc:Agent rdf:about="http://web.resource.org/cc/PublicDomain">
            <dc:title>Gerald G.</dc:title>
          </cc:Agent>
        </dc:creator>
        <dc:rights>
          <cc:Agent rdf:about="http://web.resource.org/cc/PublicDomain">
            <dc:title>Public Domain</dc:title>
          </cc:Agent>
        </dc:rights>
        <dc:date>2005/06/23</dc:date>
        <dc:format>image/svg+xml</dc:format>
        <dc:type rdf:resource="http://purl.org/dc/dcmitype/StillImage"/>
        <cc:license rdf:resource="http://web.resource.org/cc/PublicDomain"/>
        <dc:language>en</dc:language>
      </cc:Work>
      <cc:License rdf:about="http://web.resource.org/cc/PublicDomain">
        <cc:permits rdf:resource="http://web.resource.org/cc/Reproduction"/>
        <cc:permits rdf:resource="http://web.resource.org/cc/Distribution"/>
        <cc:permits rdf:resource="http://web.resource.org/cc/DerivativeWorks"/>
      </cc:License>
    </rdf:RDF>
  </metadata>
  <switch>
    <foreignObject height="1" requiredExtensions="http://ns.adobe.com/AdobeIllustrator/10.0/" width="1" x="0" y="0">
      <i:pgfRef xlink:href="#adobe_illustrator_pgf"></i:pgfRef>
    </foreignObject>
    <g i:extraneous="self">
      <g i:dimmedPercent="50" i:layer="yes" i:rgbTrio="#4F008000FFFF" id="Layer_1">
        <g>
          <path clip-rule="evenodd" d="       M1.766,50.4c-2.574,43.025-1.841,84.21-0.738,125.032c0.738,40.831,4.783,78.339,9.198,116.945       c6.619,12.869,18.016,24.641,34.197,31.265c15.079,6.982,40.087,11.392,60.678,11.751c20.595-0.359,41.189-4.409,60.304-12.131       c17.657-8.819,33.479-20.948,47.444-37.868l0.737-53.33c8.46,7.722,16.182,9.197,26.118,5.886       c9.557-4.409,21.328-12.131,29.787-28.69c7.722-18.755,13.229-51.844,15.063-75.012c0.38-23.169-3.292-48.542-8.081-61.786       c-5.525-13.607-13.985-19.487-22.426-22.061c-8.837-4.783-18.394-5.517-28.689-3.681c-0.379-5.517-4.051-11.397-12.51-17.647       c-9.197-6.988-22.065-16.186-37.129-20.595c-16.182-5.147-35.68-7.726-54.068-7.726C102.163-0.715,80.465-0.352,63.546,3.33       C45.895,6.267,31.184,12.522,20.89,20.613C10.958,27.965,3.601,37.896,1.766,50.4z M222.785,86.438       c2.573-4.045,5.885-6.619,9.935-7.721c4.031-2.21,8.44-6.255,13.229-2.21c2.934,3.312,5.147,7.357,6.624,20.595       c1.836,11.767,1.836,35.673,1.476,50.383c-1.855,13.607-9.935,25.004-12.888,32.726c-4.409,7.721-7.721,11.033-11.393,14.345       c-4.788,1.835-8.819,1.835-13.606,0c-1.478-11.771-1.478-26.476,0-44.128C216.898,132.037,219.113,110.709,222.785,86.438z" fill-rule="evenodd" i:knockout="Off" stroke="#000000" stroke-miterlimit="10" stroke-width="0.036"/>
          <path clip-rule="evenodd" d="       M3.971,58.854c4.414,8.096,9.192,14.714,18.385,21.333c6.988,5.881,16.919,12.869,31.259,16.914       c14.346,3.677,37.145,5.886,57.002,6.619c19.861-0.364,38.979,0.738,58.838-5.147c18.016-6.25,35.314-18.755,51.853-34.567       c-3.312,11.767-5.885,28.316-7.722,53.69c-2.572,25.004-3.31,66.184-3.67,93.777c-1.477,26.476-2.574,47.804-3.312,65.461       c-10.675,13.966-23.903,24.261-41.2,32.361c-18.38,7.722-43.016,12.868-62.509,13.966       c-20.226-0.738-42.292-6.982-56.263-14.345c-14.709-7.722-26.85-17.638-33.469-31.244c-4.045-18.396-6.619-46.348-7.721-82.38       C4.34,157.78,2.499,113.651,3.971,58.854z" fill="#FFFFFF" fill-rule="evenodd" i:knockout="Off" stroke="#000000" stroke-miterlimit="10" stroke-width="0.036"/>
          <path clip-rule="evenodd" d="       M226.097,51.133c3.67-1.835,9.197-1.835,15.063,0c5.147,0.37,12.51,2.209,19.134,8.459       c5.886,5.887,11.032,13.977,15.442,29.789c2.952,14.709,4.409,36.406,2.952,58.104c-3.69,20.959-10.314,52.218-18.395,66.922       c-9.198,12.51-24.999,16.181-32.002,16.919c-8.081,1.836-12.131-2.573-13.608-9.197l0.739-19.853       c9.197,1.098,16.56,0,23.543-6.244c6.245-5.886,12.13-16.919,16.18-29.055c3.313-13.976,5.507-32.73,5.148-47.809       c-0.739-16.181-3.312-35.305-6.246-43.395c-3.69-8.09-9.196-8.09-13.606-6.988c-4.787,0-11.412,3.313-16.918,8.46       c0-5.887,0.359-11.034,1.097-15.448C224.26,57.389,226.097,53.343,226.097,51.133z" fill="#FFFFFF" fill-rule="evenodd" i:knockout="Off" stroke="#000000" stroke-miterlimit="10" stroke-width="0.036"/>
          <path clip-rule="evenodd" d="       M21.623,70.99c-4.045-1.835-7.352-5.147-9.931-8.454c-3.307-3.312-4.41-8.09-6.25-12.874       c2.942-7.721,8.828-14.34,17.652-21.328c8.09-7.721,18.754-15.079,33.464-19.123c13.237-4.415,37.145-4.415,53.326-4.415       c15.441,0,33.832,0.738,46.701,3.681c13.247,1.472,23.9,7.353,33.459,12.136c9.197,3.676,15.821,11.033,21.328,16.18       c4.429,4.41,7.74,9.926,7.003,15.079c-2.215,5.517-6.625,10.664-16.181,16.914c-4.051-11.766-12.869-21.697-27.953-28.316       c-16.181-7.721-42.292-12.504-62.522-12.869c-21.328-0.738-43.759,5.512-58.837,12.869       C37.434,47.088,27.509,57.752,21.623,70.99z" fill="#FFFFFF" fill-rule="evenodd" i:knockout="Off" stroke="#000000" stroke-miterlimit="10" stroke-width="0.036"/>
          <path clip-rule="evenodd" d="       M26.037,73.2c9.926,8.091,23.168,14.71,38.247,18.386c15.443,3.312,37.509,3.312,53.32,4.414       c14.711,0,22.067,1.103,36.044-2.205c13.97-3.681,26.838-11.033,44.116-20.595c-3.291-10.3-10.653-19.123-22.045-25.009       c-12.51-7.352-32.372-11.397-48.184-13.606c-16.549-1.836-35.305-1.836-47.809,1.471c-13.977,2.574-22.431,6.619-30.89,13.606       C40.013,55.179,31.923,64.007,26.037,73.2z" fill="#A16121" fill-rule="evenodd" i:knockout="Off" stroke="#000000" stroke-miterlimit="10" stroke-width="0.036"/>
          <path clip-rule="evenodd" d="M4.34,58.121       c0.369,2.205,2.574,6.62,8.09,11.767c5.516,4.783,13.976,14.709,23.901,19.862c6.989,5.147,15.449,5.881,26.845,9.193       c11.403,1.836,27.215,3.676,41.924,4.045c14.346,0.733,28.317,0,41.924-0.738c11.776-1.836,17.283-2.205,30.53-8.09       c12.49-6.619,26.835-16.914,44.491-30.89l-4.05,26.48c-11.392,8.455-24.261,15.812-38.606,20.591       c-15.821,4.782-27.219,6.987-48.177,8.089c-22.067,0.739-54.792-2.574-74.286-5.88c-19.493-3.681-33.1-14.709-40.82-19.124       C7.647,87.91,3.237,81.659,4.34,77.614C4.34,71.359,4.34,64.741,4.34,58.121z" fill="#C37F33" fill-rule="evenodd" i:knockout="Off"/>
          <path clip-rule="evenodd" d="M3.971,79.819       c2.573,4.778,7.721,10.294,15.447,15.078c6.25,4.779,13.607,8.824,27.947,13.607c14.708,4.415,38.247,6.988,59.207,9.193       c19.492-0.37,43.395-2.575,58.832-5.148c14.345-2.574,21.348-6.619,30.904-10.665c8.081-4.414,15.803-8.828,21.688-14.714       l-4.41,33.837l-1.835,28.681c-8.1,5.516-20.23,9.562-34.935,13.606c-16.561,3.312-36.042,9.193-57.007,9.193       c-22.799-1.471-50.746-6.983-70.972-12.5c-19.857-5.885-34.936-13.606-45.236-21.697c-0.732-9.93,0.739-19.492,0.37-28.685       C3.601,99.312,3.601,89.381,3.971,79.819z" fill="#184180" fill-rule="evenodd" i:knockout="Off"/>
          <path clip-rule="evenodd" d="M129.74,151.529l-30.157-17.652       l-6.619,29.418l-30.15-27.214l-13.608,15.079l-22.066-34.197l-16.55,4.778l15.079-11.033l20.964,29.418l13.237-10.664       l27.58,21.697l9.197-22.799c14.709,9.192,26.107,15.811,31.255,19.857C133.785,151.899,133.417,153.001,129.74,151.529z" fill="#F8F6F7" fill-rule="evenodd" i:knockout="Off"/>
          <path clip-rule="evenodd" d="M213.585,121.742l-12.868-5.517       l-17.656,24.64l19.493-16.18l10.674,2.942L213.585,121.742z" fill="#FFFFFF" fill-rule="evenodd" i:knockout="Off"/>
          <path clip-rule="evenodd" d="M3.971,137.189       c2.573,3.307,9.192,7.722,18.385,11.766c8.828,2.943,22.066,9.562,35.673,12.869c12.136,2.943,26.112,5.886,40.451,7.357       c13.607,0.369,30.89,1.836,44.867,0.369c13.616-1.84,23.912-5.152,36.401-8.459c11.771-3.676,22.067-7.357,32.362-12.504       l-1.098,12.504c-13.966,6.988-30.885,12.869-46.706,16.186c-16.915,2.934-34.197,4.769-53.32,4.03       c-20.965-2.563-45.601-6.604-63.99-12.125c-17.653-5.516-32.362-11.767-42.657-18.754C4.34,146.013,4.34,141.599,3.971,137.189       z" fill="#1D0E82" fill-rule="evenodd" i:knockout="Off"/>
          <path clip-rule="evenodd" d="M9.856,258.919       c3.307,4.03,7.353,8.818,13.607,14.325c4.778,4.787,14.34,11.771,21.697,16.919c6.25,4.429,14.709,8.1,23.903,11.032       c10.664,2.574,22.066,4.41,35.672,5.526c12.136-1.116,23.165-1.116,37.509-5.526c13.243-4.409,30.162-13.228,42.293-20.948       c11.032-8.46,18.395-18.396,23.542-29.788l-0.738,25.737c-7.003,11.393-17.656,22.805-32.002,30.146       c-14.345,7.722-37.51,13.986-54.059,17.299c-18.386,1.835-35.299,0.737-50.748-3.313       c-16.179-4.787-35.303-16.919-44.496-23.543c-9.562-7.362-14.345-12.869-12.874-18.016       C12.061,272.146,10.958,265.523,9.856,258.919z" fill="#C37F33" fill-rule="evenodd" i:knockout="Off"/>
        </g>
      </g>
    </g>
  </switch>
</svg>
