<?xml version="1.0" encoding="utf-8"?>
<!-- Generator: Adobe Illustrator 10.0, SVG Export Plug-In . SVG Version: 3.0.0 Build 77)  -->
<!DOCTYPE svg PUBLIC "-//W3C//DTD SVG 1.0//EN"    "http://www.w3.org/TR/2001/REC-SVG-20010904/DTD/svg10.dtd" [
	<!ENTITY ns_flows "http://ns.adobe.com/Flows/1.0/">
	<!ENTITY ns_extend "http://ns.adobe.com/Extensibility/1.0/">
	<!ENTITY ns_ai "http://ns.adobe.com/AdobeIllustrator/10.0/">
	<!ENTITY ns_graphs "http://ns.adobe.com/Graphs/1.0/">
	<!ENTITY ns_vars "http://ns.adobe.com/Variables/1.0/">
	<!ENTITY ns_imrep "http://ns.adobe.com/ImageReplacement/1.0/">
	<!ENTITY ns_sfw "http://ns.adobe.com/SaveForWeb/1.0/">
	<!ENTITY ns_custom "http://ns.adobe.com/GenericCustomNamespace/1.0/">
	<!ENTITY ns_adobe_xpath "http://ns.adobe.com/XPath/1.0/">
	<!ENTITY ns_svg "http://www.w3.org/2000/svg">
	<!ENTITY ns_xlink "http://www.w3.org/1999/xlink">
]>
<svg 
	 xmlns:x="&ns_extend;" xmlns:i="&ns_ai;" xmlns:graph="&ns_graphs;" i:viewOrigin="210.3696 644.856" i:rulerOrigin="0 0" i:pageBounds="0 792 612 0"
	 xmlns="&ns_svg;" xmlns:xlink="&ns_xlink;" xmlns:a="http://ns.adobe.com/AdobeSVGViewerExtensions/3.0/"
	 width="192.972" height="134.951" viewBox="0 0 192.972 134.951" overflow="visible" enable-background="new 0 0 192.972 134.951"
	 xml:space="preserve">
	<metadata>
<rdf:RDF
      xmlns="http://web.resource.org/cc/"
      xmlns:dc="http://purl.org/dc/elements/1.1/"
      xmlns:rdf="http://www.w3.org/1999/02/22-rdf-syntax-ns#">
      <Work rdf:about="">
         <dc:title>Home Items</dc:title>
         <dc:description>Home Items</dc:description>
         <dc:subject>
          <rdf:Bag>
            <rdf:li>equipment</rdf:li>
            <rdf:li>home</rdf:li>
          </rdf:Bag>
         </dc:subject>
         <dc:publisher><Agent rdf:about="http://www.openclipart.org/"><dc:title>Open Clip Art Project</dc:title></Agent></dc:publisher>
         <dc:creator><Agent rdf:about=""><dc:title>ArtFavor</dc:title></Agent></dc:creator>
         <dc:rights><Agent rdf:about="http://web.resource.org/cc/PublicDomain"><dc:title>Public Domain</dc:title></Agent></dc:rights>
         <dc:date>2005/10/03</dc:date>
         <dc:format>image/svg+xml</dc:format>
         <dc:type>http://purl.org/dc/dcmitype/StillImage</dc:type>
         <license rdf:resource="http://web.resource.org/cc/PublicDomain" />
      </Work>
      <License rdf:about="http://web.resource.org/cc/PublicDomain">
         <permits rdf:resource="http://web.resource.org/cc/Reproduction" />
         <permits rdf:resource="http://web.resource.org/cc/Distribution" />
         <permits rdf:resource="http://web.resource.org/cc/DerivativeWorks" />
      </License>
   </rdf:RDF>
		<variableSets  xmlns="&ns_vars;">
			<variableSet  varSetName="binding1" locked="none">
				<variables></variables>
				<v:sampleDataSets  xmlns="&ns_custom;" xmlns:v="&ns_vars;"></v:sampleDataSets>
			</variableSet>
		</variableSets>
		<sfw  xmlns="&ns_sfw;">
			<slices></slices>
			<sliceSourceBounds  y="509.905" x="210.37" width="192.972" height="134.951" bottomLeftOrigin="true"></sliceSourceBounds>
		</sfw>
	</metadata>
	<switch>
		<foreignObject requiredExtensions="&ns_ai;" x="0" y="0" width="1" height="1">
			<i:pgfRef  xlink:href="#adobe_illustrator_pgf">
			</i:pgfRef>
		</foreignObject>
		<g i:extraneous="self">
			<g id="Layer_1" i:layer="yes" i:dimmedPercent="50" i:rgbTrio="#4F008000FFFF">
				<g>
					<path i:knockout="Off" fill-rule="evenodd" clip-rule="evenodd" d="M55.07,134.951l4.335-0.276l4.243-0.923l4.335-0.923
						l3.967-1.476l4.059-1.568l3.967-1.568l3.967-1.845l3.689-1.845l4.059-2.398l3.689-2.768l3.69-2.767l3.229-3.413l3.136-3.413
						l3.044-3.689l3.045-3.69l2.767-3.689l1.292-2.122l0.922-1.844l1.199-2.122l0.923-2.214l0.922-2.398l0.923-2.214l0.646-2.398
						l0.554-2.49l0.369-0.277h0.276h0.276l0.369,0.277h0.277l0.276,0.277l-0.554-1.846l-0.646-2.122l-0.646-2.121l-0.277-1.845
						l-0.646-2.215l-0.922-2.12l-0.923-1.846l-1.476-1.567l3.044,0.646l2.768,0.646l3.044,0.553h2.767h6.181l5.812-0.553
						l5.811-1.291l5.535-1.477l5.903-2.213l5.534-2.122l0.923-0.276l0.922-0.369h0.923h0.554h0.922h0.923h0.646h0.922l0.646-0.555
						l0.276-1.291l0.276-0.922l0.369-1.198l0.277-1.2l0.646-0.922l0.276-1.291l0.923-0.924v-1.844l0.276-1.477l0.646-1.567
						l0.646-1.2l0.554-1.567l0.646-1.567l0.277-1.477l0.369-1.846l1.199-1.567l1.198-1.567l0.923-1.477l0.646-1.846l0.646-1.567
						l0.554-1.846l0.646-1.844l0.923-1.569l0.276-0.553V23.43v-0.646l0.369-0.277V21.86v-0.646v-0.553l0.276-0.646l4.336-5.535
						l-0.646-2.49l0.646-1.199l0.554-0.923l0.922-0.922l0.646-0.923l0.646-0.922l0.553-1.199V4.611V3.412l-0.276-0.276l-0.276-0.369
						h-0.369h-0.277h-0.646l-0.554,0.369h-0.368h-0.554l-11.991,7.011l-8.671,4.98l-19.925,11.992l-2.767,0.922l-3.137,0.555
						l-2.768,0.922l-3.044,0.922l-3.044,0.646l-3.044,0.646l-2.767,0.277h-2.768l-8.025-0.646h-0.276v0.369l-0.369,0.277
						l-0.276,0.277h-0.277h-0.369v-0.277h-0.276l-0.276-0.277l-10.793-2.213l-1.845-0.276l-1.845-0.646l-1.568-0.924l-1.384-0.922
						l-2.768-2.122l-2.214-2.768l-1.845-3.044l-1.476-3.413l-1.292-3.689l-1.198-3.966l-1.846-1.845l-1.567-1.568l-1.846-1.199
						l-1.476-0.923l-1.845-0.922l-1.568-0.369l-1.845-0.554L73.241,0h-1.845l-3.689,0.368l-4.059,0.277l-3.967,0.646l-3.966,0.553
						v0.369h-0.369V2.49H55.07v0.276h-0.277l-0.369,0.369l-2.767,0.554L49.258,4.98l-2.49,0.923l-2.491,1.199L42.156,8.67
						l-2.491,1.477l-2.397,1.567l-2.491,1.846l-5.811,4.611l-5.904,4.89l-2.767,2.49l-2.398,2.767l-2.768,2.768l-2.49,3.044
						l-2.122,3.137L8.302,40.31l-1.845,3.413l-1.845,3.32l-1.476,3.413l-1.292,3.689l-0.922,3.689L0,61.803v0.922l0.369,0.922v0.924
						l0.277,1.291v0.553l0.276,0.922l0.369,0.924v0.922h0.276h0.276v0.369h0.369v0.276l0.277,0.276v0.369l0.276,0.276l2.214,1.2
						l1.845,1.567l1.476,1.846l1.568,1.844l1.568,2.122l1.476,1.846l1.568,1.844l1.845,1.568l1.568,2.49l1.199,2.122l1.568,2.122
						l1.476,2.213l1.568,2.122l1.568,2.122l1.476,2.213l1.291,2.122l1.199,1.568l0.922,1.199l0.646,1.199l0.922,1.567l0.553,1.199
						l0.923,1.568l0.646,1.199l0.646,1.291l1.2,2.398l1.568,2.214l1.198,2.122l1.568,2.121l1.199,2.214l1.199,2.122l1.291,2.49
						l0.923,2.768L55.07,134.951z"/>
					<path i:knockout="Off" fill-rule="evenodd" clip-rule="evenodd" fill="#FFFFFF" d="M53.224,131.354h4.336l3.966-0.369
						l3.69-0.923l3.966-0.922l3.69-0.923l3.689-1.476l3.689-1.568l3.413-1.568l3.413-2.121l3.044-1.845l3.413-2.491l2.768-2.121
						l2.952-2.768l2.767-2.49l2.491-2.768l2.398-2.767l2.214-3.044l2.121-2.768l2.122-3.044l1.845-3.137l1.568-3.32l1.199-3.413
						l0.646-3.689l0.276-4.337l-4.889-6.733l-4.612-7.103l-4.336-7.379l-3.966-7.655l-3.874-8.026l-3.69-7.932l-3.413-8.026
						l-3.689-8.301l-0.923-2.122l-0.922-1.846l-0.923-1.844L82.465,8.67l-1.568-1.567L79.33,5.903l-1.477-1.292l-1.845-1.199
						l-3.689-0.276h-3.413l-3.689,0.276l-3.044,0.646l-3.413,0.553l-3.044,0.923l-3.137,1.291l-3.044,1.199l-5.812,3.044
						l-5.534,3.137l-5.258,3.689l-4.889,3.689l-4.335,4.613l-4.336,4.611l-4.243,4.89l-4.059,4.888l-1.845,2.768l-1.476,2.768
						l-1.568,2.768l-0.923,2.768l-1.199,3.135l-0.646,3.322l-0.276,3.411l-0.369,3.413V64.57v-0.278v-0.276l0.369-0.369V63.37
						l0.276-0.276H3.69h0.368h0.277h0.276l0.369,0.553v0.369l0.276,0.555v0.646v0.276v0.646v0.646l0.277,0.553l5.534,6.457
						l4.981,6.826l4.889,6.457l4.889,6.734l4.335,7.103l4.612,7.011l4.336,7.103l3.966,7.103l0.646,1.199l0.554,0.923l0.646,1.199
						l0.277,0.922l0.646,1.291l0.646,0.923l0.554,0.923l1.291,0.553L53.224,131.354z"/>
					<path i:knockout="Off" fill-rule="evenodd" clip-rule="evenodd" fill="#268BBE" d="M59.958,128.586l0.369-0.369h0.276v-0.276
						h0.276v-0.277v-0.368h0.369v-0.277v-0.276l0.276-0.369l0.277-0.276l0.369-0.276h0.276v-0.369h0.276h0.369l0.277-0.277h0.276
						v-0.276l0.369-0.369h0.276v-0.276l0.277-0.277v-0.369v-0.276v-0.276v-0.369l-1.477-1.199l-0.922-1.199l-0.923-1.845
						l-0.369-1.845l-0.553-1.845l-0.369-2.214l-0.554-1.845l-0.923-2.122l0.277-0.646l-0.277-0.554v-0.646v-0.646v-0.554
						l-0.368-0.646v-0.646v-0.554l-0.277-0.369v-0.277H57.56v-0.276h-0.369l-0.276-0.369h-0.277l-0.368-0.276h-2.398l-3.413-11.347
						l-0.277-0.368l-0.368-0.277l-0.277-0.276l-0.276-0.369h-0.646l-0.277-0.276H47.69l-0.276-0.276l-0.369-0.369l-0.276-0.276
						l-0.277-0.277h-0.369l-0.276-0.368h-0.276L45.2,87.354l-4.243-8.947l-0.369-0.276h-0.276h-0.277h-0.369h-0.553h-0.369
						l-0.277,0.276H37.82l-0.922-0.276l-0.554-0.647l-0.369-0.553l-0.554-0.922l-0.369-0.646l-0.277-0.924l-0.646-0.922
						l-0.277-0.646l-0.277-0.922v-0.924l-0.369-0.922v-0.922l-0.277-0.922l-0.277-0.555l-0.369-0.922l-0.276-0.646l-1.845-0.922
						l-7.656,4.335v0.276h-0.369v0.276h-0.277v0.369h-0.277v0.553v0.369v0.555l0.277,0.369v0.276l0.277,0.646l0.369,0.276v0.646
						l4.612,12.269l0.277,0.276l0.646,0.369h0.554h0.646l0.646-0.369h0.553h0.369l0.553,0.369L37.82,99.99h0.369h0.276h0.277h0.369
						h0.276l0.276,0.277l0.923,1.568l1.291,1.845l0.923,1.476l0.554,1.845l0.922,1.845l0.646,1.846l0.646,1.845l0.553,2.214
						l0.369,1.476l0.277,1.291l0.276,1.199l0.369,0.923l0.553,0.922l0.369,1.199l0.554,0.923l0.369,1.291h0.276v0.277h0.277v0.276
						h0.368l2.398-1.199l0.369,0.276l0.554,0.646l0.369,0.646l0.553,0.923l0.369,0.553l0.554,0.369l0.646,0.554l0.923,0.368
						l2.121,1.2l0.369-0.277h0.276H59.958z"/>
					<path i:knockout="Off" fill-rule="evenodd" clip-rule="evenodd" fill="#FFFFFF" d="M29.518,80.25h-0.277v-0.276v-0.276
						l-0.276-0.369v-0.276v-0.276h-0.369l-0.277-0.369l1.568,2.213h-0.369V80.25z"/>
					<path i:knockout="Off" fill-rule="evenodd" clip-rule="evenodd" d="M15.128,66.138h3.321l3.413-0.646l3.044-0.922l3.136-0.924
						l3.044-1.198l3.044-1.569l2.768-1.198l2.767-1.567l5.258-2.768l4.89-3.044l4.98-3.413l4.612-3.32l4.612-3.691l4.612-3.689
						l4.243-4.059l4.059-4.242l5.165-12.914l-1.476,1.476l-1.568,1.845l-0.922,2.214l-1.199,2.121l-1.292,2.491l-1.199,1.844
						l-1.567,1.846l-1.477,1.477l-6.18,5.533l-6.181,5.259l-6.457,4.888l-6.457,4.337l-3.32,1.844l-3.413,1.846l-3.413,1.844
						l-3.69,1.2l-3.689,1.567l-3.967,0.922l-3.966,0.924l-4.335,0.646h-0.276h-0.369l-0.277-0.369h-0.277h-0.369v-0.276h-0.276
						v-0.276h-0.276v-0.369h-0.369v-0.278H13.56l-0.276-0.276h-0.369h-0.276H12.36l-0.368,0.276h-0.277v0.278v0.369v0.553v0.369
						v0.276v0.646v0.276L15.128,66.138z"/>
					<path i:knockout="Off" fill-rule="evenodd" clip-rule="evenodd" fill="#FFFFFF" d="M133.661,65.216l4.336-0.278l4.242-0.646
						l4.06-1.198l4.243-1.291l4.059-1.477l3.966-1.567l4.336-1.569l3.966-1.198l1.568-1.569l0.923-1.844l0.922-1.846l0.923-1.844
						l0.553-2.122l0.646-1.846l0.646-1.844l1.199-1.567v-1.846l0.646-1.846l0.922-1.475l0.923-1.291l0.923-1.477l0.922-1.568
						l0.277-1.568l0.276-1.844l0.922-1.477l0.646-1.846l0.646-1.567l0.554-1.846l0.368-1.567l0.923-1.477l0.923-1.291l0.922-1.198
						l-0.369-1.2v-1.291l0.369-1.199l0.554-1.199l0.922-0.922l0.646-0.923l0.922-0.923l0.646-0.922l-20.017,10.423h-0.276v0.277
						h-0.369v0.368h-0.276v0.277v0.277l-3.044,2.213l-3.137,1.846l-3.32,2.121l-3.413,1.568l-3.413,1.477l-3.689,1.567l-3.689,1.198
						l-3.967,1.293l-3.967,0.922l-3.689,0.553l-3.966,0.646l-4.06,0.278h-3.966h-3.967l-4.059-0.278l-3.967-0.922l-1.567-0.276
						l-1.846-0.646l-1.476-0.276l-1.568-0.646l-1.845-0.646l-1.106-0.553l-1.568-0.922l-1.199-0.924l0.276,1.477l0.277,1.568
						l0.646,1.845l0.922,1.567l0.831,1.846l0.646,1.846l0.554,1.844l0.646,1.846l1.199,2.768l1.568,2.766l1.198,2.398l1.568,2.491
						l1.568,2.491l1.199,2.398l1.568,2.213l1.476,2.398l2.768-0.553h0.369h0.276h0.276h0.646h0.276h0.369l0.276-0.369v-0.278
						L133.661,65.216z"/>
					<path i:knockout="Off" fill-rule="evenodd" clip-rule="evenodd" d="M28.596,47.688l4.059-0.922l3.69-1.567l3.689-1.846
						l3.321-2.122l3.136-2.489l3.044-2.768l3.044-3.044l2.768-3.044l0.646-1.291l0.277-1.2l0.368-1.567v-1.2V23.43v-1.292v-0.923
						l-0.368-1.198h-0.277V19.74h-0.276h-0.369l-0.276-0.369l-0.277,0.369l-0.369,0.276v0.276l-0.276,0.369v0.276l-0.276,0.276
						l-4.059,1.292l-3.69,1.845l-3.689,1.846l-3.32,2.12l-3.137,2.491l-2.767,2.768L30.44,36.62l-2.767,3.044v0.922l-0.277,0.924
						l-0.277,0.922v0.922l-0.369,0.646v0.922v0.647v0.922l0.369,0.276v0.276h0.277l0.277,0.369l0.369,0.276h0.277H28.596z"/>
					<path i:knockout="Off" fill-rule="evenodd" clip-rule="evenodd" fill="#FFFFFF" d="M29.887,44.645l11.069-4.611l0.276-0.369
						l0.277-0.276v-0.646v-0.278v-0.276l-0.277-0.646l0.277-0.646V36.62h-0.277l-0.276,0.276h-0.369h-0.276l-0.277,0.369h-0.369
						h-0.276l-0.276-0.369l-0.369-0.276l-0.277-0.276v-0.369l-0.276-0.276V35.42v-0.367v-0.278v-0.276l0.276-0.369v-0.553v-0.369
						v-0.276l-0.276-0.276l-1.291,0.922l-1.477,0.922l-1.568,1.477l-1.199,1.291l-1.292,1.846l-0.922,1.844l-0.553,1.846
						l-0.369,1.844H29.887z"/>
				</g>
			</g>
		</g>
	</switch>
</svg>
