<?xml version="1.0" encoding="UTF-8" standalone="no"?>
<!-- Created with Inkscape (http://www.inkscape.org/) -->
<svg
   xmlns:dc="http://purl.org/dc/elements/1.1/"
   xmlns:cc="http://web.resource.org/cc/"
   xmlns:rdf="http://www.w3.org/1999/02/22-rdf-syntax-ns#"
   xmlns:svg="http://www.w3.org/2000/svg"
   xmlns="http://www.w3.org/2000/svg"
   xmlns:sodipodi="http://sodipodi.sourceforge.net/DTD/sodipodi-0.dtd"
   xmlns:inkscape="http://www.inkscape.org/namespaces/inkscape"
   width="245.04762"
   height="243.84793"
   id="svg4260"
   sodipodi:version="0.32"
   inkscape:version="0.45"
   sodipodi:docbase="/home/doctormo/Graphics/Meta Format"
   sodipodi:docname="BeeHive.svg"
   version="1.0"
   inkscape:output_extension="org.inkscape.output.svg.inkscape"
   sodipodi:modified="true">
  <defs
     id="defs4262" />
  <sodipodi:namedview
     id="base"
     pagecolor="#ffffff"
     bordercolor="#666666"
     borderopacity="1.0"
     inkscape:pageopacity="0.0"
     inkscape:pageshadow="2"
     inkscape:zoom="0.35"
     inkscape:cx="375"
     inkscape:cy="520"
     inkscape:document-units="px"
     inkscape:current-layer="layer1"
     inkscape:window-width="792"
     inkscape:window-height="549"
     inkscape:window-x="183"
     inkscape:window-y="248" />
  <metadata
     id="metadata4265">
    <rdf:RDF>
      <cc:Work
         rdf:about="">
        <dc:format>image/svg+xml</dc:format>
        <dc:type
           rdf:resource="http://purl.org/dc/dcmitype/StillImage" />
        <dc:title>Bee Hive</dc:title>
        <dc:date>2006-07-26</dc:date>
        <dc:creator>
          <cc:Agent>
            <dc:title>Martin Owens</dc:title>
          </cc:Agent>
        </dc:creator>
        <dc:rights>
          <cc:Agent>
            <dc:title>Martin Owens</dc:title>
          </cc:Agent>
        </dc:rights>
        <dc:publisher>
          <cc:Agent>
            <dc:title>Open Clipart</dc:title>
          </cc:Agent>
        </dc:publisher>
        <dc:subject>
          <rdf:Bag>
            <rdf:li>Bee Hive Honey</rdf:li>
          </rdf:Bag>
        </dc:subject>
        <dc:description>A Graphical bee hive, round</dc:description>
        <cc:license
           rdf:resource="http://web.resource.org/cc/PublicDomain" />
      </cc:Work>
      <cc:License
         rdf:about="http://web.resource.org/cc/PublicDomain">
        <cc:permits
           rdf:resource="http://web.resource.org/cc/Reproduction" />
        <cc:permits
           rdf:resource="http://web.resource.org/cc/Distribution" />
        <cc:permits
           rdf:resource="http://web.resource.org/cc/DerivativeWorks" />
      </cc:License>
    </rdf:RDF>
  </metadata>
  <g
     inkscape:label="Layer 1"
     inkscape:groupmode="layer"
     id="layer1"
     transform="translate(-46.226389,-53.075739)">
    <g
       id="g5503"
       transform="matrix(14.25053,0,0,14.25053,-1266.889,-2390.554)">
      <path
         sodipodi:nodetypes="cccccczc"
         id="path5505"
         d="M 93.318378,183.26352 C 92.537846,182.95809 92.055763,185.39873 92.53784,186.08023 C 94.302532,188.11642 98.273086,188.35397 98.273086,188.35397 L 102.65087,188.38791 C 102.65087,188.38791 107.19835,188.32003 108.86123,186.01236 C 109.2374,185.53588 109.39971,182.86567 108.25037,183.22958 C 106.01057,184.96033 104.6107,184.88397 100.92012,184.96033 C 97.229541,185.03668 94.449923,184.48523 93.318378,183.26352 z "
         style="fill:#d5b807;fill-opacity:1;fill-rule:evenodd;stroke:#000000;stroke-width:0.40000001;stroke-linecap:butt;stroke-linejoin:miter;stroke-miterlimit:4;stroke-dasharray:none;stroke-opacity:1" />
      <path
         sodipodi:nodetypes="cccccczc"
         id="path5507"
         d="M 93.177734,185.29908 C 92.480566,185.03595 92.260565,185.72471 92.686024,186.10933 C 94.362944,187.95224 98.197422,188.2921 98.197422,188.2921 L 102.69422,188.30307 C 102.69422,188.30307 107.4378,188.14958 108.79729,185.92401 C 109.07911,185.57273 109.03391,184.90742 108.41108,185.15654 C 106.70299,186.73529 104.67246,187.33554 100.88156,187.3602 C 97.090656,187.38487 94.235463,186.48313 93.177734,185.29908 z "
         style="fill:#af9705;fill-opacity:1;fill-rule:evenodd;stroke:none;stroke-width:0.40000001;stroke-linecap:butt;stroke-linejoin:miter;stroke-miterlimit:4;stroke-dasharray:none;stroke-opacity:1" />
      <path
         sodipodi:nodetypes="cccccczc"
         id="path5509"
         d="M 94.192224,180.82309 C 93.494836,180.55736 93.019326,182.85491 93.450052,183.44785 C 95.162498,184.94793 98.676147,185.01887 98.676147,185.01887 L 102.55364,185.0484 C 102.55364,185.0484 106.0737,185.39658 108.33998,183.25306 C 108.67608,182.8385 108.51929,180.42979 107.49238,180.7464 C 105.49119,182.25223 104.30469,182.25367 101.00726,182.3201 C 97.709828,182.38653 95.203226,181.88604 94.192224,180.82309 z "
         style="fill:#d5b807;fill-opacity:1;fill-rule:evenodd;stroke:#000000;stroke-width:0.40000001;stroke-linecap:butt;stroke-linejoin:miter;stroke-miterlimit:4;stroke-dasharray:none;stroke-opacity:1" />
      <path
         sodipodi:nodetypes="cccccczc"
         id="path5511"
         d="M 94.870937,178.63235 C 94.249528,178.39557 93.920241,180.44281 94.304041,180.97114 C 95.829913,182.30779 98.96074,182.371 98.96074,182.371 L 102.41577,182.39731 C 102.41577,182.39731 105.55232,182.70755 107.57169,180.79758 C 107.87116,180.42818 107.76169,178.23318 106.84667,178.51529 C 105.0635,179.85706 103.94211,179.86574 101.00394,179.92494 C 98.065773,179.98413 95.771786,179.57949 94.870937,178.63235 z "
         style="fill:#d5b807;fill-opacity:1;fill-rule:evenodd;stroke:#000000;stroke-width:0.40000001;stroke-linecap:butt;stroke-linejoin:miter;stroke-miterlimit:4;stroke-dasharray:none;stroke-opacity:1" />
      <path
         sodipodi:nodetypes="cccccczc"
         id="path5513"
         d="M 95.632042,176.65824 C 95.070335,176.44421 94.60626,178.22689 94.953186,178.70446 C 96.332467,179.91269 99.162506,179.96983 99.162506,179.96983 L 102.2856,179.99361 C 102.2856,179.99361 105.12082,180.27405 106.94618,178.54757 C 107.21689,178.21366 106.98218,176.38291 106.15506,176.63793 C 104.54322,177.85079 103.66204,177.76335 101.00615,177.81686 C 98.350265,177.87037 96.446342,177.51438 95.632042,176.65824 z "
         style="fill:#d5b807;fill-opacity:1;fill-rule:evenodd;stroke:#000000;stroke-width:0.40000001;stroke-linecap:butt;stroke-linejoin:miter;stroke-miterlimit:4;stroke-dasharray:none;stroke-opacity:1" />
      <path
         sodipodi:nodetypes="cccccczc"
         id="path5515"
         d="M 96.265148,174.86905 C 95.771607,174.68395 95.381323,176.31827 95.686149,176.73128 C 96.898046,177.77617 99.384654,177.82559 99.384654,177.82559 L 102.12876,177.84615 C 102.12876,177.84615 104.6199,178.08868 106.22376,176.59559 C 106.46161,176.30683 106.37466,174.72358 105.64792,174.94413 C 104.23168,175.99302 103.40191,175.91281 101.06832,175.95908 C 98.734727,176.00536 96.980641,175.60945 96.265148,174.86905 z "
         style="fill:#d5b807;fill-opacity:1;fill-rule:evenodd;stroke:#000000;stroke-width:0.40000001;stroke-linecap:butt;stroke-linejoin:miter;stroke-miterlimit:4;stroke-dasharray:none;stroke-opacity:1" />
      <path
         sodipodi:nodetypes="cccccczc"
         id="path5517"
         d="M 96.904339,173.76973 C 96.469432,173.63204 96.079476,174.78855 96.348089,175.09577 C 97.416019,175.873 99.810846,175.9437 99.810846,175.9437 L 102.02535,175.95899 C 102.02535,175.95899 104.22055,176.10546 105.63388,174.99483 C 105.84347,174.78005 105.6311,173.56841 104.9907,173.73247 C 103.7427,174.51268 103.11735,174.51219 101.06098,174.54661 C 99.004605,174.58104 97.534838,174.32047 96.904339,173.76973 z "
         style="fill:#d5b807;fill-opacity:1;fill-rule:evenodd;stroke:#000000;stroke-width:0.40000001;stroke-linecap:butt;stroke-linejoin:miter;stroke-miterlimit:4;stroke-dasharray:none;stroke-opacity:1" />
      <path
         sodipodi:nodetypes="cccccczc"
         id="path5519"
         d="M 97.400731,172.78971 C 97.027482,172.6867 96.775379,173.67917 97.005914,173.90903 C 97.922438,174.49054 99.802991,174.51805 99.802991,174.51805 L 101.87828,174.52949 C 101.87828,174.52949 103.76227,174.66447 104.97521,173.83351 C 105.15509,173.67281 105.02146,172.65593 104.47185,172.77867 C 103.40079,173.36241 102.81546,173.4724 101.05063,173.49816 C 99.285805,173.52391 97.941841,173.20177 97.400731,172.78971 z "
         style="fill:#d5b807;fill-opacity:1;fill-rule:evenodd;stroke:#000000;stroke-width:0.40000001;stroke-linecap:butt;stroke-linejoin:miter;stroke-miterlimit:4;stroke-dasharray:none;stroke-opacity:1" />
      <path
         sodipodi:nodetypes="cccccczc"
         id="path5521"
         d="M 97.782969,172.11561 C 97.454367,172.02877 97.262293,172.77958 97.465252,172.97334 C 98.272149,173.46354 99.927763,173.48672 99.927763,173.48672 L 101.75482,173.49637 C 101.75482,173.49637 103.41346,173.61015 104.48132,172.90967 C 104.63969,172.77421 104.5818,172.03144 104.09793,172.13491 C 103.15497,172.62699 102.61384,171.65506 101.06011,171.67677 C 99.506372,171.69848 98.259355,172.46296 97.782969,172.11561 z "
         style="fill:#d5b807;fill-opacity:1;fill-rule:evenodd;stroke:#000000;stroke-width:0.40000001;stroke-linecap:butt;stroke-linejoin:miter;stroke-miterlimit:4;stroke-dasharray:none;stroke-opacity:1" />
      <path
         sodipodi:nodetypes="cc"
         id="path5523"
         d="M 99.087558,172.64144 C 99.426921,172.879 102.10789,173.01474 102.61694,172.6075"
         style="fill:none;fill-opacity:0.75;fill-rule:evenodd;stroke:#000000;stroke-width:0.40000001;stroke-linecap:butt;stroke-linejoin:miter;stroke-miterlimit:4;stroke-dasharray:none;stroke-opacity:1" />
      <path
         sodipodi:nodetypes="czcc"
         id="path5525"
         d="M 99.08494,188.35678 C 99.117209,186.42469 99.87427,185.94972 100.6731,185.94167 C 101.47192,185.93363 102.3125,186.4569 102.28023,188.32458 L 99.08494,188.35678 z "
         style="fill:#000000;fill-opacity:1;fill-rule:evenodd;stroke:#000000;stroke-width:0.40000001;stroke-linecap:butt;stroke-linejoin:miter;stroke-miterlimit:4;stroke-dasharray:none;stroke-opacity:1" />
      <path
         sodipodi:nodetypes="cccccczc"
         id="path5527"
         d="M 94.027255,182.95121 C 93.39607,182.77177 93.196893,183.24147 93.582083,183.50377 C 95.100291,184.76054 98.571858,184.99231 98.571858,184.99231 L 102.64305,184.99979 C 102.64305,184.99979 106.1232,185.1666 108.1685,183.37738 C 108.42365,183.13783 108.38273,182.68412 107.81884,182.85401 C 106.27241,183.93063 104.43406,184.33998 101.00195,184.3568 C 97.56984,184.37362 94.984877,183.75867 94.027255,182.95121 z "
         style="fill:#af9705;fill-opacity:1;fill-rule:evenodd;stroke:none;stroke-width:0.40000001;stroke-linecap:butt;stroke-linejoin:miter;stroke-miterlimit:4;stroke-dasharray:none;stroke-opacity:1" />
      <path
         sodipodi:nodetypes="cccccczc"
         id="path5529"
         d="M 95.022838,180.7141 C 94.480588,180.57364 94.309475,180.9413 94.640391,181.14662 C 95.944683,182.13038 98.927099,182.3118 98.927099,182.3118 L 102.42466,182.31766 C 102.42466,182.31766 105.41445,182.44823 107.17157,181.04769 C 107.39077,180.86017 107.35561,180.50502 106.87117,180.63801 C 105.54264,181.48076 103.96332,181.80118 101.01479,181.81435 C 98.066268,181.82751 95.845529,181.34615 95.022838,180.7141 z "
         style="fill:#af9705;fill-opacity:1;fill-rule:evenodd;stroke:none;stroke-width:0.40000001;stroke-linecap:butt;stroke-linejoin:miter;stroke-miterlimit:4;stroke-dasharray:none;stroke-opacity:1" />
      <path
         sodipodi:nodetypes="cccccczc"
         id="path5531"
         d="M 95.519176,178.40225 C 95.022826,178.26736 94.866195,178.62044 95.169101,178.81763 C 96.362983,179.76239 99.092938,179.93661 99.092938,179.93661 L 102.29443,179.94224 C 102.29443,179.94224 105.03114,180.06764 106.63952,178.72261 C 106.84015,178.54254 106.80797,178.20146 106.36454,178.32917 C 105.14847,179.13852 103.70284,179.44623 101.00391,179.45889 C 98.304974,179.47151 96.272223,179.00925 95.519176,178.40225 z "
         style="fill:#af9705;fill-opacity:1;fill-rule:evenodd;stroke:none;stroke-width:0.40000001;stroke-linecap:butt;stroke-linejoin:miter;stroke-miterlimit:4;stroke-dasharray:none;stroke-opacity:1" />
      <path
         sodipodi:nodetypes="cccccczc"
         id="path5533"
         d="M 96.218605,176.45329 C 95.785368,176.33788 95.648655,176.63995 95.913045,176.80865 C 96.955111,177.6169 99.337931,177.76595 99.337931,177.76595 L 102.13233,177.77077 C 102.13233,177.77077 104.52104,177.87805 105.9249,176.72736 C 106.10003,176.5733 106.07194,176.2815 105.68489,176.39077 C 104.62346,177.08317 103.36164,177.34642 101.0059,177.35725 C 98.650164,177.36806 96.875892,176.97258 96.218605,176.45329 z "
         style="fill:#af9705;fill-opacity:1;fill-rule:evenodd;stroke:none;stroke-width:0.40000001;stroke-linecap:butt;stroke-linejoin:miter;stroke-miterlimit:4;stroke-dasharray:none;stroke-opacity:1" />
      <path
         sodipodi:nodetypes="cccccczc"
         id="path5535"
         d="M 96.751788,174.74813 C 96.361582,174.64386 96.238456,174.91678 96.476583,175.0692 C 97.415142,175.79945 99.561272,175.93411 99.561272,175.93411 L 102.07811,175.93846 C 102.07811,175.93846 104.22955,176.03539 105.49397,174.99575 C 105.65169,174.85656 105.6264,174.59292 105.2778,174.69164 C 104.3218,175.31723 103.18532,175.55507 101.06357,175.56485 C 98.941826,175.57462 97.343791,175.21731 96.751788,174.74813 z "
         style="fill:#af9705;fill-opacity:1;fill-rule:evenodd;stroke:none;stroke-width:0.40000001;stroke-linecap:butt;stroke-linejoin:miter;stroke-miterlimit:4;stroke-dasharray:none;stroke-opacity:1" />
      <path
         sodipodi:nodetypes="cccccczc"
         id="path5537"
         d="M 97.341178,173.67316 C 97.005484,173.59952 96.967429,173.79227 97.17229,173.89991 C 97.979742,174.41566 99.826074,174.44288 99.826074,174.44288 L 101.99133,174.44597 C 101.99133,174.44597 103.84222,174.51442 104.93001,173.78017 C 105.06571,173.68187 105.04394,173.49567 104.74404,173.56539 C 103.92159,174.00721 102.94386,174.1752 101.11851,174.1821 C 99.29316,174.189 97.850484,174.00452 97.341178,173.67316 z "
         style="fill:#af9705;fill-opacity:1;fill-rule:evenodd;stroke:none;stroke-width:0.40000001;stroke-linecap:butt;stroke-linejoin:miter;stroke-miterlimit:4;stroke-dasharray:none;stroke-opacity:1" />
      <path
         sodipodi:nodetypes="cccccczc"
         id="path5539"
         d="M 97.739658,172.80149 C 97.445449,172.74177 97.412094,172.89808 97.591641,172.98537 C 98.299301,173.40362 99.917455,173.42569 99.917455,173.42569 L 101.81512,173.4282 C 101.81512,173.4282 103.43727,173.48371 104.39062,172.88827 C 104.50954,172.80855 104.49047,172.65756 104.22763,172.7141 C 103.50682,173.07238 102.64993,173.20861 101.05017,173.21421 C 99.450398,173.21981 98.186017,173.07021 97.739658,172.80149 z "
         style="fill:#af9705;fill-opacity:1;fill-rule:evenodd;stroke:none;stroke-width:0.40000001;stroke-linecap:butt;stroke-linejoin:miter;stroke-miterlimit:4;stroke-dasharray:none;stroke-opacity:1" />
      <path
         sodipodi:nodetypes="cccccczc"
         id="path5541"
         d="M 99.246533,172.52006 C 99.104528,172.54437 99.12185,172.59624 99.211477,172.63876 C 99.555009,172.76969 100.34331,172.79986 100.34331,172.79986 L 101.29055,172.80108 C 101.29055,172.80108 102.06629,172.87665 102.54217,172.58661 C 102.60152,172.54778 102.55803,172.5082 102.48507,172.47749 C 102.03305,172.43847 101.72667,172.29127 100.92814,172.294 C 100.12959,172.29672 99.464487,172.51507 99.246533,172.52006 z "
         style="fill:#af9705;fill-opacity:1;fill-rule:evenodd;stroke:none;stroke-width:0.40000001;stroke-linecap:butt;stroke-linejoin:miter;stroke-miterlimit:4;stroke-dasharray:none;stroke-opacity:1" />
    </g>
  </g>
</svg>
