<?xml version="1.0" encoding="UTF-8" standalone="no"?>
<!-- Created with Inkscape (http://www.inkscape.org/) -->

<svg
   xmlns:dc="http://purl.org/dc/elements/1.1/"
   xmlns:cc="http://creativecommons.org/ns#"
   xmlns:rdf="http://www.w3.org/1999/02/22-rdf-syntax-ns#"
   xmlns:svg="http://www.w3.org/2000/svg"
   xmlns="http://www.w3.org/2000/svg"
   xmlns:xlink="http://www.w3.org/1999/xlink"
   xmlns:sodipodi="http://sodipodi.sourceforge.net/DTD/sodipodi-0.dtd"
   xmlns:inkscape="http://www.inkscape.org/namespaces/inkscape"
   width="420.12265"
   height="673.39447"
   id="svg2"
   sodipodi:version="0.32"
   inkscape:version="0.48.1 r9760"
   sodipodi:docname="fan.svg"
   inkscape:output_extension="org.inkscape.output.svg.inkscape"
   version="1.1">
  <defs
     id="defs4">
    <linearGradient
       id="linearGradient3970">
      <stop
         style="stop-color:#848d8f;stop-opacity:1;"
         offset="0"
         id="stop3972" />
      <stop
         style="stop-color:#daecee;stop-opacity:1;"
         offset="1"
         id="stop3974" />
    </linearGradient>
    <linearGradient
       id="linearGradient3749">
      <stop
         style="stop-color:#aabad9;stop-opacity:1;"
         offset="0"
         id="stop3751" />
      <stop
         style="stop-color:#7b97cd;stop-opacity:1;"
         offset="1"
         id="stop3753" />
    </linearGradient>
    <linearGradient
       id="linearGradient3715">
      <stop
         style="stop-color:#85a0d7;stop-opacity:1;"
         offset="0"
         id="stop3717" />
      <stop
         style="stop-color:#f1f1f1;stop-opacity:1;"
         offset="1"
         id="stop3719" />
    </linearGradient>
    <linearGradient
       id="linearGradient3345">
      <stop
         style="stop-color:#e8f6fb;stop-opacity:1;"
         offset="0"
         id="stop3347" />
      <stop
         style="stop-color:#75878b;stop-opacity:1;"
         offset="1"
         id="stop3349" />
    </linearGradient>
    <linearGradient
       id="linearGradient3221">
      <stop
         style="stop-color:#2e7f85;stop-opacity:1;"
         offset="0"
         id="stop3223" />
      <stop
         style="stop-color:#d9e4e5;stop-opacity:1;"
         offset="1"
         id="stop3225" />
    </linearGradient>
    <inkscape:perspective
       sodipodi:type="inkscape:persp3d"
       inkscape:vp_x="0 : 526.18109 : 1"
       inkscape:vp_y="0 : 1000 : 0"
       inkscape:vp_z="744.09448 : 526.18109 : 1"
       inkscape:persp3d-origin="372.04724 : 350.78739 : 1"
       id="perspective10" />
    <inkscape:perspective
       id="perspective2390"
       inkscape:persp3d-origin="372.04724 : 350.78739 : 1"
       inkscape:vp_z="744.09448 : 526.18109 : 1"
       inkscape:vp_y="0 : 1000 : 0"
       inkscape:vp_x="0 : 526.18109 : 1"
       sodipodi:type="inkscape:persp3d" />
    <inkscape:perspective
       id="perspective2403"
       inkscape:persp3d-origin="372.04724 : 350.78739 : 1"
       inkscape:vp_z="744.09448 : 526.18109 : 1"
       inkscape:vp_y="0 : 1000 : 0"
       inkscape:vp_x="0 : 526.18109 : 1"
       sodipodi:type="inkscape:persp3d" />
    <inkscape:perspective
       id="perspective2416"
       inkscape:persp3d-origin="372.04724 : 350.78739 : 1"
       inkscape:vp_z="744.09448 : 526.18109 : 1"
       inkscape:vp_y="0 : 1000 : 0"
       inkscape:vp_x="0 : 526.18109 : 1"
       sodipodi:type="inkscape:persp3d" />
    <inkscape:perspective
       id="perspective2429"
       inkscape:persp3d-origin="372.04724 : 350.78739 : 1"
       inkscape:vp_z="744.09448 : 526.18109 : 1"
       inkscape:vp_y="0 : 1000 : 0"
       inkscape:vp_x="0 : 526.18109 : 1"
       sodipodi:type="inkscape:persp3d" />
    <linearGradient
       inkscape:collect="always"
       xlink:href="#linearGradient3221"
       id="linearGradient3343"
       x1="449.19989"
       y1="95.62767"
       x2="465.02441"
       y2="105.45538"
       gradientUnits="userSpaceOnUse"
       spreadMethod="reflect" />
    <linearGradient
       inkscape:collect="always"
       xlink:href="#linearGradient3221"
       id="linearGradient3437"
       gradientUnits="userSpaceOnUse"
       spreadMethod="reflect"
       x1="449.19989"
       y1="95.62767"
       x2="465.02441"
       y2="105.45538" />
    <linearGradient
       inkscape:collect="always"
       xlink:href="#linearGradient3345"
       id="linearGradient3861"
       gradientUnits="userSpaceOnUse"
       spreadMethod="reflect"
       x1="349.91324"
       y1="420.43188"
       x2="434.21317"
       y2="377.43188" />
    <radialGradient
       inkscape:collect="always"
       xlink:href="#linearGradient3345"
       id="radialGradient3863"
       gradientUnits="userSpaceOnUse"
       gradientTransform="matrix(2.4096753,-0.07202721,0.02695693,0.9018459,-517.48328,86.970401)"
       cx="371"
       cy="352.18198"
       fx="371"
       fy="352.18198"
       r="97.185501" />
    <linearGradient
       inkscape:collect="always"
       xlink:href="#linearGradient3221"
       id="linearGradient3865"
       gradientUnits="userSpaceOnUse"
       gradientTransform="matrix(0.9946808,0,0,1.3751608,-2.3543332,-237.21549)"
       spreadMethod="reflect"
       x1="330.20001"
       y1="360.36218"
       x2="406.5"
       y2="360.36218" />
    <radialGradient
       inkscape:collect="always"
       xlink:href="#linearGradient3749"
       id="radialGradient3867"
       gradientUnits="userSpaceOnUse"
       gradientTransform="matrix(1.9452878,-0.3711799,0.1155656,0.9081317,-409.4699,188.87942)"
       cx="379.92874"
       cy="435.49191"
       fx="379.92874"
       fy="435.49191"
       r="51.685501" />
    <linearGradient
       inkscape:collect="always"
       xlink:href="#linearGradient3715"
       id="linearGradient3869"
       gradientUnits="userSpaceOnUse"
       spreadMethod="reflect"
       x1="343.31442"
       y1="453.94818"
       x2="372.71521"
       y2="424.38013" />
    <linearGradient
       inkscape:collect="always"
       xlink:href="#linearGradient3715"
       id="linearGradient3871"
       gradientUnits="userSpaceOnUse"
       spreadMethod="reflect"
       x1="343.31442"
       y1="453.94818"
       x2="372.71521"
       y2="424.38013" />
    <linearGradient
       inkscape:collect="always"
       xlink:href="#linearGradient3715"
       id="linearGradient3873"
       gradientUnits="userSpaceOnUse"
       spreadMethod="reflect"
       x1="343.31442"
       y1="453.94818"
       x2="372.71521"
       y2="424.38013" />
    <linearGradient
       inkscape:collect="always"
       xlink:href="#linearGradient3345"
       id="linearGradient3875"
       gradientUnits="userSpaceOnUse"
       gradientTransform="translate(3.352385,-119.17868)"
       x1="305.18756"
       y1="355.41339"
       x2="483.15948"
       y2="281.6134" />
    <radialGradient
       inkscape:collect="always"
       xlink:href="#linearGradient3221"
       id="radialGradient3877"
       gradientUnits="userSpaceOnUse"
       gradientTransform="matrix(1.9387958,0.03074119,-0.03667483,2.3130161,-326.22356,-456.32569)"
       spreadMethod="reflect"
       cx="379.69794"
       cy="253.51208"
       fx="379.69794"
       fy="253.51208"
       r="41.677128" />
    <linearGradient
       inkscape:collect="always"
       xlink:href="#linearGradient3345"
       id="linearGradient3879"
       gradientUnits="userSpaceOnUse"
       gradientTransform="translate(-10.101526,8.08122)"
       x1="410.73721"
       y1="133.64299"
       x2="481.70877"
       y2="81.825584" />
    <radialGradient
       inkscape:collect="always"
       xlink:href="#linearGradient3221"
       id="radialGradient3881"
       gradientUnits="userSpaceOnUse"
       gradientTransform="matrix(-0.9960206,1.6636758,-1.9847933,-1.1882694,1224.4896,-238.4875)"
       spreadMethod="reflect"
       cx="379.69794"
       cy="253.51208"
       fx="379.69794"
       fy="253.51208"
       r="41.677128" />
    <linearGradient
       inkscape:collect="always"
       xlink:href="#linearGradient3345"
       id="linearGradient3883"
       gradientUnits="userSpaceOnUse"
       gradientTransform="matrix(-0.5,0.8660254,-0.8660254,-0.5,664.24045,-196.92125)"
       x1="410.73721"
       y1="133.64299"
       x2="481.70877"
       y2="81.825584" />
    <radialGradient
       inkscape:collect="always"
       xlink:href="#linearGradient3221"
       id="radialGradient3885"
       gradientUnits="userSpaceOnUse"
       gradientTransform="matrix(-0.9427752,-1.694417,2.0214681,-1.1247467,259.19431,996.25749)"
       spreadMethod="reflect"
       cx="379.69794"
       cy="253.51208"
       fx="379.69794"
       fy="253.51208"
       r="41.677128" />
    <linearGradient
       inkscape:collect="always"
       xlink:href="#linearGradient3345"
       id="linearGradient3887"
       gradientUnits="userSpaceOnUse"
       gradientTransform="matrix(-0.5,-0.8660254,0.8660254,-0.5,503.32147,490.2843)"
       x1="410.73721"
       y1="133.64299"
       x2="481.70877"
       y2="81.825584" />
    <linearGradient
       inkscape:collect="always"
       xlink:href="#linearGradient3345"
       id="linearGradient3889"
       gradientUnits="userSpaceOnUse"
       gradientTransform="translate(3.227385,-119.13181)"
       x1="305.18756"
       y1="355.41339"
       x2="483.15948"
       y2="281.6134" />
    <linearGradient
       inkscape:collect="always"
       xlink:href="#linearGradient3221"
       id="linearGradient3891"
       gradientUnits="userSpaceOnUse"
       spreadMethod="reflect"
       x1="355.78384"
       y1="284.14117"
       x2="421.02347"
       y2="284.14117" />
    <linearGradient
       inkscape:collect="always"
       xlink:href="#linearGradient3221"
       id="linearGradient3893"
       gradientUnits="userSpaceOnUse"
       gradientTransform="translate(-2.0203047,-184.85792)"
       spreadMethod="reflect"
       x1="355.78384"
       y1="284.14117"
       x2="421.02347"
       y2="284.14117" />
    <linearGradient
       inkscape:collect="always"
       xlink:href="#linearGradient3221"
       id="linearGradient3895"
       gradientUnits="userSpaceOnUse"
       gradientTransform="matrix(-1,0,0,-1,774.90701,383.17631)"
       spreadMethod="reflect"
       x1="355.78384"
       y1="284.14117"
       x2="421.02347"
       y2="284.14117" />
    <linearGradient
       inkscape:collect="always"
       xlink:href="#linearGradient3345"
       id="linearGradient3897"
       gradientUnits="userSpaceOnUse"
       x1="392.20001"
       y1="379.36218"
       x2="461.79999"
       y2="299.36218" />
    <linearGradient
       inkscape:collect="always"
       xlink:href="#linearGradient3345"
       id="linearGradient3899"
       gradientUnits="userSpaceOnUse"
       x1="308.20001"
       y1="348.36218"
       x2="473.79999"
       y2="302.36218" />
    <linearGradient
       inkscape:collect="always"
       xlink:href="#linearGradient3345"
       id="linearGradient3929"
       gradientUnits="userSpaceOnUse"
       gradientTransform="matrix(2.1354672,0,0,1.999455,-455.88644,-294.05784)"
       x1="305.18756"
       y1="355.41339"
       x2="483.15948"
       y2="281.6134" />
    <linearGradient
       inkscape:collect="always"
       xlink:href="#linearGradient3345"
       id="linearGradient3936"
       gradientUnits="userSpaceOnUse"
       gradientTransform="matrix(2.1354672,0,0,1.999455,-455.6195,-294.15155)"
       x1="305.18756"
       y1="355.41339"
       x2="483.15948"
       y2="281.6134" />
    <linearGradient
       inkscape:collect="always"
       xlink:href="#linearGradient3345"
       id="linearGradient3955"
       gradientUnits="userSpaceOnUse"
       x1="390.31903"
       y1="395.04395"
       x2="473.77411"
       y2="317.92276" />
    <linearGradient
       inkscape:collect="always"
       xlink:href="#linearGradient3221"
       id="linearGradient3957"
       gradientUnits="userSpaceOnUse"
       spreadMethod="reflect"
       x1="355.78384"
       y1="284.14117"
       x2="421.02347"
       y2="284.14117" />
    <linearGradient
       inkscape:collect="always"
       xlink:href="#linearGradient3221"
       id="linearGradient3959"
       gradientUnits="userSpaceOnUse"
       gradientTransform="translate(-2.0203047,-184.85792)"
       spreadMethod="reflect"
       x1="355.78384"
       y1="284.14117"
       x2="421.02347"
       y2="284.14117" />
    <linearGradient
       inkscape:collect="always"
       xlink:href="#linearGradient3221"
       id="linearGradient3961"
       gradientUnits="userSpaceOnUse"
       gradientTransform="matrix(-1,0,0,-1,774.90701,383.17631)"
       spreadMethod="reflect"
       x1="355.78384"
       y1="284.14117"
       x2="421.02347"
       y2="284.14117" />
    <linearGradient
       inkscape:collect="always"
       xlink:href="#linearGradient3221"
       id="linearGradient3964"
       gradientUnits="userSpaceOnUse"
       gradientTransform="matrix(-2.1354672,0,0,-1.999455,1195.1472,836.5451)"
       spreadMethod="reflect"
       x1="355.78384"
       y1="284.14117"
       x2="421.02347"
       y2="284.14117" />
    <linearGradient
       inkscape:collect="always"
       xlink:href="#linearGradient3221"
       id="linearGradient3967"
       gradientUnits="userSpaceOnUse"
       gradientTransform="matrix(2.1354672,0,0,1.999455,-463.95564,-299.21378)"
       spreadMethod="reflect"
       x1="355.78384"
       y1="284.14117"
       x2="406.45395"
       y2="269.99518" />
    <linearGradient
       inkscape:collect="always"
       xlink:href="#linearGradient3970"
       id="linearGradient3976"
       x1="303.85126"
       y1="286.85013"
       x2="342.15784"
       y2="228.65422"
       gradientUnits="userSpaceOnUse"
       spreadMethod="reflect" />
    <linearGradient
       inkscape:collect="always"
       xlink:href="#linearGradient3970"
       id="linearGradient3984"
       x1="370.30057"
       y1="306.89737"
       x2="407.91159"
       y2="268.13681"
       gradientUnits="userSpaceOnUse" />
    <linearGradient
       inkscape:collect="always"
       xlink:href="#linearGradient3221"
       id="linearGradient3988"
       gradientUnits="userSpaceOnUse"
       spreadMethod="reflect"
       x1="370.30057"
       y1="306.89737"
       x2="407.91159"
       y2="268.13681" />
    <linearGradient
       inkscape:collect="always"
       xlink:href="#linearGradient3970"
       id="linearGradient3996"
       x1="332.6582"
       y1="286.16568"
       x2="365.59576"
       y2="247.66568"
       gradientUnits="userSpaceOnUse"
       spreadMethod="reflect" />
  </defs>
  <sodipodi:namedview
     id="base"
     pagecolor="#ffffff"
     bordercolor="#666666"
     borderopacity="1.0"
     gridtolerance="10000"
     guidetolerance="10"
     objecttolerance="10"
     inkscape:pageopacity="0.0"
     inkscape:pageshadow="2"
     inkscape:zoom="0.5"
     inkscape:cx="204.28626"
     inkscape:cy="301.24685"
     inkscape:document-units="px"
     inkscape:current-layer="layer2"
     showgrid="false"
     inkscape:window-width="750"
     inkscape:window-height="667"
     inkscape:window-x="92"
     inkscape:window-y="-12"
     fit-margin-top="0"
     fit-margin-left="0"
     fit-margin-right="0"
     fit-margin-bottom="0"
     inkscape:window-maximized="0" />
  <metadata
     id="metadata7">
    <rdf:RDF>
      <cc:Work
         rdf:about="">
        <dc:format>image/svg+xml</dc:format>
        <dc:type
           rdf:resource="http://purl.org/dc/dcmitype/StillImage" />
        <dc:title>Desktop fan</dc:title>
        <dc:date>11/5/2011</dc:date>
        <dc:creator>
          <cc:Agent>
            <dc:title>Theresa Knott</dc:title>
          </cc:Agent>
        </dc:creator>
        <dc:publisher>
          <cc:Agent>
            <dc:title>Open Clipart Library</dc:title>
          </cc:Agent>
        </dc:publisher>
        <dc:subject>
          <rdf:Bag>
            <rdf:li>Fan equipment desk</rdf:li>
          </rdf:Bag>
        </dc:subject>
        <cc:license
           rdf:resource="http://creativecommons.org/licenses/publicdomain/" />
      </cc:Work>
      <cc:License
         rdf:about="http://creativecommons.org/licenses/publicdomain/">
        <cc:permits
           rdf:resource="http://creativecommons.org/ns#Reproduction" />
        <cc:permits
           rdf:resource="http://creativecommons.org/ns#Distribution" />
        <cc:permits
           rdf:resource="http://creativecommons.org/ns#DerivativeWorks" />
      </cc:License>
    </rdf:RDF>
  </metadata>
  <g
     inkscape:label="background"
     inkscape:groupmode="layer"
     id="layer1"
     transform="translate(-155.4063,-71.688946)" />
  <g
     inkscape:groupmode="layer"
     id="layer2"
     inkscape:label="drawing"
     transform="translate(-155.4063,-71.688946)">
    <g
       id="g3998">
      <g
         transform="matrix(1.8018086,0,0,1.999455,-331.94616,-11.871135)"
         id="g3811">
        <g
           id="g3667"
           transform="matrix(1.0008414,0,0,0.6949563,0.6751648,82.071884)"
           style="stroke:#4f3b35;stroke-opacity:1">
          <path
             id="path3657"
             d="m 383.53125,344.4375 c -26.92632,0.71119 -55.56888,5.80724 -77.10458,22.77395 -4.53303,4.07237 -8.1893,8.84054 -13.20792,12.3198 -6.87516,5.33849 -8.53136,16.24439 -2,22.59375 12.47853,12.85101 31.21873,16.66794 48.21875,20.28125 37.71258,6.29864 77.28883,5.69276 114.09375,-5.09375 11.79273,-4.29714 26.42093,-9.12481 31.03125,-22.09375 2.52913,-9.25871 -5.77721,-16.3179 -12.3125,-21.09375 -14.65468,-17.54262 -38.35029,-24.16183 -60.25,-27.8125 -9.36639,-1.43342 -18.95383,-2.01497 -28.46875,-1.875 z"
             style="fill:url(#linearGradient3861);fill-opacity:1;stroke:#4f3b35;stroke-width:0.37099999;stroke-miterlimit:4;stroke-opacity:1;stroke-dasharray:none"
             inkscape:connector-curvature="0" />
          <path
             id="path3636"
             d="m 386,344.40625 c -25.94326,-10e-6 -49.4448,5.61597 -65.6875,14.0625 -8.12135,4.22325 -14.40347,9.22257 -18.0625,13.71875 -0.65864,0.80933 -1.18376,1.54627 -1.65625,2.25 C 293.19948,379.02476 289,384.29899 289,389.875 c 0,17.94 43.456,32.5 97,32.5 53.544,0 97,-14.56 97,-32.5 0,-5.57601 -4.19948,-10.85024 -11.59375,-15.4375 -0.47249,-0.70373 -0.99761,-1.44067 -1.65625,-2.25 -3.65902,-4.49617 -9.94115,-9.49549 -18.0625,-13.71875 -16.24269,-8.44654 -39.74423,-14.0625 -65.6875,-14.0625 z"
             style="fill:url(#radialGradient3863);fill-opacity:1;stroke:#4f3b35;stroke-width:0.37099999;stroke-miterlimit:4;stroke-opacity:1;stroke-dasharray:none"
             inkscape:connector-curvature="0" />
        </g>
        <path
           style="fill:url(#linearGradient3865);fill-opacity:1;stroke:#4f3b35;stroke-width:0.37099999;stroke-miterlimit:4;stroke-opacity:1;stroke-dasharray:none"
           d="m 387.0632,181.9375 c -6.7141,0 -13.4375,4.3951 -13.4375,13.15625 L 361.78195,320.5625 c -12.47832,4.56215 -20.71875,12.41213 -20.71875,21.3125 0,14.076 20.608,25.5 46,25.5 25.392,0 46,-11.424 46,-25.5 0,-8.90037 -8.24043,-16.75035 -20.71875,-21.3125 L 400.5007,195.09375 c 0,-8.76115 -6.7234,-13.15625 -13.4375,-13.15625 z"
           id="rect3623"
           inkscape:connector-curvature="0" />
        <g
           id="g3791"
           transform="translate(0.06320013,0)">
          <path
             transform="matrix(0.7777693,0,0,0.6351706,103.50309,54.764668)"
             d="m 416,454.36218 c 0,16.56855 -23.05734,30 -51.5,30 -28.44266,0 -51.5,-13.43145 -51.5,-30 0,-16.56854 23.05734,-30 51.5,-30 28.44266,0 51.5,13.43146 51.5,30 z"
             sodipodi:ry="30"
             sodipodi:rx="51.5"
             sodipodi:cy="454.36218"
             sodipodi:cx="364.5"
             id="path3747"
             style="fill:url(#radialGradient3867);fill-opacity:1;stroke:#4f3b35;stroke-width:0.37099999;stroke-miterlimit:4;stroke-opacity:1;stroke-dasharray:none"
             sodipodi:type="arc" />
          <g
             transform="matrix(0.3680405,0,0,0.2688354,252.29172,210.90984)"
             id="g3733">
            <path
               style="fill:url(#linearGradient3869);fill-opacity:1;stroke:#4f3b35;stroke-width:0.37099999;stroke-miterlimit:4;stroke-opacity:1"
               d="m 359.21875,415.09375 c -8.01336,0.4981 -16.09324,0.8545 -23.96875,2.5 -8.72776,2.61276 -15.73428,11.0598 -15.75,20.3125 -0.0173,5.76499 3.12757,11.55929 8.36122,14.15993 4.1602,2.20872 9.01895,1.84661 13.52258,1.20873 8.90383,-1.32319 17.9124,-1.97258 26.91449,-1.91898 9.40565,0.11829 18.78354,1.00331 28.09823,2.2537 7.85667,0.31387 15.56789,-6.07723 16.03131,-14.06175 1.10335,-10.39599 -6.89547,-20.75306 -17.13847,-22.59516 -5.92421,-1.15667 -11.99137,-1.23519 -17.99551,-1.68179 -6.02041,-0.31265 -12.04958,-0.33557 -18.0751,-0.17718 z"
               id="path3723"
               inkscape:connector-curvature="0" />
            <path
               style="fill:#b7c3db;fill-opacity:1;stroke:#4f3b35;stroke-width:0.37099999;stroke-miterlimit:4;stroke-opacity:1"
               d="m 359.21875,409.09375 c -8.01336,0.4981 -16.09324,0.8545 -23.96875,2.5 -8.72776,2.61276 -15.73428,11.0598 -15.75,20.3125 -0.0173,5.76499 3.12757,11.55929 8.36122,14.15993 4.1602,2.20872 9.01895,1.84661 13.52258,1.20873 8.90383,-1.32319 17.9124,-1.97258 26.91449,-1.91898 9.40565,0.11829 18.78354,1.00331 28.09823,2.2537 7.85667,0.31387 15.56789,-6.07723 16.03131,-14.06175 1.10335,-10.39599 -6.89547,-20.75306 -17.13847,-22.59516 -5.92421,-1.15667 -11.99137,-1.23519 -17.99551,-1.68179 -6.02041,-0.31265 -12.04958,-0.33557 -18.0751,-0.17718 z"
               id="rect3710"
               inkscape:connector-curvature="0" />
          </g>
          <g
             transform="matrix(0.4108811,0,0,0.3001283,236.61143,210.703)"
             id="g3775">
            <path
               style="fill:url(#linearGradient3871);fill-opacity:1;stroke:#4f3b35;stroke-width:0.37099999;stroke-miterlimit:4;stroke-opacity:1"
               d="m 359.21875,415.09375 c -8.01336,0.4981 -16.09324,0.8545 -23.96875,2.5 -8.72776,2.61276 -15.73428,11.0598 -15.75,20.3125 -0.0173,5.76499 3.12757,11.55929 8.36122,14.15993 4.1602,2.20872 9.01895,1.84661 13.52258,1.20873 8.90383,-1.32319 17.9124,-1.97258 26.91449,-1.91898 9.40565,0.11829 18.78354,1.00331 28.09823,2.2537 7.85667,0.31387 15.56789,-6.07723 16.03131,-14.06175 1.10335,-10.39599 -6.89547,-20.75306 -17.13847,-22.59516 -5.92421,-1.15667 -11.99137,-1.23519 -17.99551,-1.68179 -6.02041,-0.31265 -12.04958,-0.33557 -18.0751,-0.17718 z"
               id="path3777"
               inkscape:connector-curvature="0" />
            <path
               style="fill:#b7c3db;fill-opacity:1;stroke:#4f3b35;stroke-width:0.37099999;stroke-miterlimit:4;stroke-opacity:1"
               d="m 359.21875,409.09375 c -8.01336,0.4981 -16.09324,0.8545 -23.96875,2.5 -8.72776,2.61276 -15.73428,11.0598 -15.75,20.3125 -0.0173,5.76499 3.12757,11.55929 8.36122,14.15993 4.1602,2.20872 9.01895,1.84661 13.52258,1.20873 8.90383,-1.32319 17.9124,-1.97258 26.91449,-1.91898 9.40565,0.11829 18.78354,1.00331 28.09823,2.2537 7.85667,0.31387 15.56789,-6.07723 16.03131,-14.06175 1.10335,-10.39599 -6.89547,-20.75306 -17.13847,-22.59516 -5.92421,-1.15667 -11.99137,-1.23519 -17.99551,-1.68179 -6.02041,-0.31265 -12.04958,-0.33557 -18.0751,-0.17718 z"
               id="path3779"
               inkscape:connector-curvature="0" />
          </g>
          <g
             transform="matrix(0.4285763,0,0,0.3130538,230.13472,218.8349)"
             id="g3783">
            <path
               style="fill:url(#linearGradient3873);fill-opacity:1;stroke:#4f3b35;stroke-width:0.37099999;stroke-miterlimit:4;stroke-opacity:1"
               d="m 359.21875,415.09375 c -8.01336,0.4981 -16.09324,0.8545 -23.96875,2.5 -8.72776,2.61276 -15.73428,11.0598 -15.75,20.3125 -0.0173,5.76499 3.12757,11.55929 8.36122,14.15993 4.1602,2.20872 9.01895,1.84661 13.52258,1.20873 8.90383,-1.32319 17.9124,-1.97258 26.91449,-1.91898 9.40565,0.11829 18.78354,1.00331 28.09823,2.2537 7.85667,0.31387 15.56789,-6.07723 16.03131,-14.06175 1.10335,-10.39599 -6.89547,-20.75306 -17.13847,-22.59516 -5.92421,-1.15667 -11.99137,-1.23519 -17.99551,-1.68179 -6.02041,-0.31265 -12.04958,-0.33557 -18.0751,-0.17718 z"
               id="path3785"
               inkscape:connector-curvature="0" />
            <path
               style="fill:#b7c3db;fill-opacity:1;stroke:#4f3b35;stroke-width:0.37099999;stroke-miterlimit:4;stroke-opacity:1"
               d="m 359.21875,409.09375 c -8.01336,0.4981 -16.09324,0.8545 -23.96875,2.5 -8.72776,2.61276 -15.73428,11.0598 -15.75,20.3125 -0.0173,5.76499 3.12757,11.55929 8.36122,14.15993 4.1602,2.20872 9.01895,1.84661 13.52258,1.20873 8.90383,-1.32319 17.9124,-1.97258 26.91449,-1.91898 9.40565,0.11829 18.78354,1.00331 28.09823,2.2537 7.85667,0.31387 15.56789,-6.07723 16.03131,-14.06175 1.10335,-10.39599 -6.89547,-20.75306 -17.13847,-22.59516 -5.92421,-1.15667 -11.99137,-1.23519 -17.99551,-1.68179 -6.02041,-0.31265 -12.04958,-0.33557 -18.0751,-0.17718 z"
               id="path3787"
               inkscape:connector-curvature="0" />
          </g>
        </g>
      </g>
      <path
         id="path3583"
         d="M 366.26843,272.63146 C 356.88128,206.75357 347.4941,140.87571 338.10695,74.997823 347.38289,140.81322 356.65882,206.62861 365.93476,272.44399 344.46887,209.23208 323.00296,146.02013 301.53708,82.808194 322.914,146.02013 344.2909,209.23208 365.66783,272.44399 332.81277,213.83498 299.95773,155.22596 267.10267,96.61693 299.84649,155.22596 332.59034,213.83498 365.33416,272.44399 322.17993,220.29156 279.02569,168.1391 235.87146,115.98665 278.89222,168.18077 321.913,220.37486 364.93376,272.56895 312.88175,228.456 260.82973,184.34302 208.77772,140.23004 260.71852,184.38467 312.65929,228.53932 364.60009,272.69392 305.2964,238.01589 245.99268,203.33784 186.68898,168.6598 c 59.21473,34.74053 118.42945,69.48106 177.64418,104.22159 -64.62014,-24.20174 -129.24025,-48.40347 -193.86038,-72.60521 64.53115,24.26423 129.0623,48.52843 193.59345,72.79264 -67.86782,-13.01727 -135.73564,-26.03455 -203.60346,-39.05184 67.82334,13.12143 135.64665,26.24285 203.46999,39.36427 -68.9578,-1.47877 -137.91558,-2.95753 -206.87339,-4.43631 68.89107,1.5621 137.78212,3.12415 206.67319,4.68624 -67.80108,10.10141 -135.60217,20.20282 -203.40325,30.30422 67.77883,-9.97644 135.55768,-19.95288 203.33652,-29.92932 -64.44217,21.24421 -128.88435,42.48842 -193.32652,63.73263 64.41993,-21.1401 128.83985,-42.28016 193.25978,-63.42023 -58.99228,31.67888 -117.98456,63.35773 -176.97684,95.03661 59.01453,-31.57475 118.02904,-63.14946 177.04358,-94.72418 -51.67387,41.03046 -103.34771,82.06097 -155.02158,123.09145 51.67387,-40.92636 103.34771,-81.85269 155.02158,-122.77905 -42.66487,49.0075 -85.32971,98.01494 -127.99457,147.02244 42.70934,-48.90333 85.41869,-97.8067 128.12803,-146.71001 -32.27669,55.33906 -64.5534,110.67817 -96.83009,166.01723 32.32119,-55.25578 64.64237,-110.51152 96.96356,-165.7673 -20.84306,59.81704 -41.68609,119.63403 -62.52915,179.45109 20.93202,-59.73372 41.86406,-119.46744 62.79608,-179.20115 -8.8088,62.33714 -17.6176,124.67435 -26.4264,187.0115 8.89778,-62.27466 17.79555,-124.54939 26.69334,-186.82408 3.53686,62.81624 7.07373,125.63242 10.6106,188.44864 -3.38115,-62.79537 -6.76232,-125.59077 -10.14347,-188.38613 15.68234,61.21245 31.36467,122.42497 47.04701,183.63742 C 396.40965,398.4513 380.83855,337.25968 365.26743,276.068 392.67258,333.63567 420.07776,391.20328 447.48291,448.77093 420.18897,391.20328 392.89503,333.63567 365.60109,276.068 403.86155,328.09548 442.12199,380.123 480.38245,432.15046 442.23323,380.123 404.08398,328.09548 365.93476,276.068 c 47.89229,44.71697 95.78461,89.43398 143.6769,134.15095 -47.78108,-44.75866 -95.56216,-89.51726 -143.34323,-134.27592 55.98928,35.94857 111.97856,71.89707 167.96784,107.84561 -55.9003,-36.01103 -111.80061,-72.02201 -167.70091,-108.03303 62.32895,25.97208 124.6579,51.94418 186.98685,77.91624 -62.23997,-26.03455 -124.47995,-52.06913 -186.71992,-78.10371 66.68887,15.07923 133.37772,30.15846 200.06659,45.23767 -66.59989,-15.16253 -133.19977,-30.32506 -199.79965,-45.48761 68.9133,3.68652 137.82662,7.37299 206.73991,11.05951 -68.86881,-3.79065 -137.73763,-7.58127 -206.60645,-11.3719 68.89107,-7.91452 137.78212,-15.82903 206.67319,-23.74353 -68.84657,7.81035 -137.69315,15.62074 -206.53972,23.43109 66.7111,-19.30721 133.42222,-38.61445 200.13332,-57.92169 -66.68887,19.20311 -133.37772,38.40619 -200.06659,57.6093 62.32895,-30.15844 124.6579,-60.3169 186.98685,-90.47534 -62.3512,30.05431 -124.70238,60.10862 -187.05358,90.16291 55.98928,-40.09322 111.97856,-80.18647 167.96784,-120.2797 -55.98928,39.9891 -111.97856,79.9782 -167.96784,119.9673 47.75883,-48.77836 95.51768,-97.55675 143.2765,-146.33512 C 462.80933,176.09527 415.00602,224.7695 367.20269,273.44372 405.2407,217.47983 443.27871,161.5159 481.31672,105.55199 443.23423,161.43261 405.15172,217.3132 367.06923,273.19378 394.14071,211.77305 421.21222,150.35229 448.28371,88.931525 421.12324,150.26897 393.96277,211.60643 366.80229,272.94385 382.08423,208.00323 397.36617,143.06261 412.6481,78.121971 397.27718,143.00013 381.90628,207.87827 366.53536,272.75642 c 3.003,-66.44023 6.006,-132.88044 9.009,-199.320671 -3.09198,66.398561 -6.18395,132.797151 -9.27593,199.195711 z"
         style="fill:#b4bdbe;fill-opacity:1;stroke:url(#linearGradient3936);stroke-width:3.30614781;stroke-miterlimit:4;stroke-opacity:1"
         inkscape:connector-curvature="0" />
      <g
         transform="matrix(2.1354672,0,0,1.999455,-472.78432,68.953126)"
         id="g3558">
        <path
           style="fill:url(#radialGradient3877);fill-opacity:1;fill-rule:evenodd;stroke:url(#linearGradient3879);stroke-width:1px;stroke-linecap:butt;stroke-linejoin:miter;stroke-opacity:1"
           d="m 388.90873,84.63604 c -1.20954,-9.10733 4.80589,-17.88044 11.79825,-25.24592 6.99236,-7.36548 13.65345,-13.37524 29.45436,-12.66193 16.72833,0.75518 34.65975,23.31622 38.29121,33.93311 3.63146,10.61689 2.86752,17.82583 1.62395,25.96217 -1.24357,8.13634 -2.61299,16.75705 -5.18195,22.6082 -2.56896,5.85114 -5.4965,4.58387 -9.66498,-0.15682 -4.16848,-4.74069 -12.62747,-15.54645 -19.34571,-17.63181 -6.71824,-2.08535 -9.22344,-0.38103 -14.858,-0.32881 -5.63456,0.0522 -13.63359,5.18063 -18.98516,0.79592 -5.35157,-4.38471 -11.92243,-18.16678 -13.13197,-27.27411 z"
           id="use3261"
           sodipodi:nodetypes="czzzzzzzzzz"
           inkscape:tile-x0="359.45857"
           inkscape:tile-y0="163.8483"
           inkscape:connector-curvature="0" />
        <path
           style="fill:url(#radialGradient3881);fill-opacity:1;fill-rule:evenodd;stroke:url(#linearGradient3883);stroke-width:1px;stroke-linecap:butt;stroke-linejoin:miter;stroke-opacity:1"
           d="m 398.4369,110.35436 c 8.49195,3.50617 13.08197,13.10224 15.96448,22.84055 2.88251,9.7383 4.75657,18.51185 -3.76163,31.83919 -9.01817,14.10956 -37.52231,18.35811 -48.53254,16.1946 -11.01022,-2.16351 -16.87138,-6.42957 -23.29587,-11.5747 -6.42449,-5.14513 -13.20553,-10.64144 -16.9883,-15.7918 -3.78275,-5.15036 -1.22149,-7.05204 4.9683,-8.29171 6.1898,-1.23966 19.77736,-3.16248 24.94245,-7.93797 5.16509,-4.77549 4.94171,-7.79722 7.71376,-12.703 2.77206,-4.90578 2.33024,-14.39735 8.80329,-16.83959 6.47306,-2.44224 21.69411,-1.24174 30.18606,2.26443 z"
           id="use3263"
           sodipodi:nodetypes="czzzzzzzzzz"
           inkscape:tile-x0="359.45857"
           inkscape:tile-y0="163.8483"
           inkscape:connector-curvature="0" />
        <path
           style="fill:url(#radialGradient3885);fill-opacity:1;fill-rule:evenodd;stroke:url(#linearGradient3887);stroke-width:1px;stroke-linecap:butt;stroke-linejoin:miter;stroke-opacity:1"
           d="m 370.11476,106.45387 c -7.28241,5.60116 -17.88786,4.7782 -27.76273,2.40537 -9.87487,-2.37282 -18.41002,-5.13661 -25.69273,-19.17726 -7.71016,-14.86474 2.86256,-41.67433 10.24133,-50.12771 7.37876,-8.45338 14.00386,-11.39626 21.67192,-14.38747 7.66806,-2.9912 15.81852,-6.1156 22.17025,-6.8164 6.35171,-0.70078 6.71799,2.46818 4.69668,8.44853 -2.02132,5.98036 -7.14989,18.70894 -5.59674,25.56978 1.55315,6.86085 4.28173,8.17825 7.14424,13.03181 2.8625,4.85357 11.30335,9.21672 10.18187,16.04368 -1.12149,6.82694 -9.77168,19.40851 -17.05409,25.00967 z"
           id="use3265"
           sodipodi:nodetypes="czzzzzzzzzz"
           inkscape:tile-x0="359.45857"
           inkscape:tile-y0="163.8483"
           inkscape:connector-curvature="0" />
      </g>
      <path
         id="path3611"
         d="M 378.4139,261.04086 C 364.97824,198.97443 351.54261,136.90803 338.10695,74.841611 351.45362,136.84555 364.80029,198.84947 378.14696,260.85341 352.63257,201.45294 327.1182,142.05245 301.60381,82.651982 327.02922,142.05245 352.45462,201.45294 377.88003,260.85341 340.95423,206.03501 304.02846,151.21663 267.10267,96.398236 303.91723,151.1958 340.7318,205.99336 377.54636,260.79092 330.36588,212.40827 283.18541,164.02564 236.00493,115.64299 c 47.06926,48.40346 94.1385,96.80695 141.20777,145.21042 -56.07827,-40.32235 -112.15651,-80.64468 -168.23478,-120.96703 55.96703,40.364 111.93408,80.728 167.90111,121.09199 -63.3077,-30.90823 -126.61542,-61.81649 -189.92312,-92.72472 63.21874,30.97072 126.43745,61.94145 189.65619,92.91217 -68.60189,-20.45276 -137.20377,-40.90551 -205.80566,-61.35827 68.5129,20.51524 137.02582,41.03047 205.53872,61.54572 -71.87182,-9.24748 -143.74363,-18.49496 -215.61545,-27.74244 71.82733,9.35161 143.65465,18.70324 215.48199,28.05486 -72.96181,2.27022 -145.92359,4.54042 -218.88539,6.81064 72.89507,-2.1869 145.79012,-4.37381 218.68519,-6.56071 -71.80509,13.87122 -143.61017,27.74244 -215.41526,41.61365 71.7606,-13.74625 143.52119,-27.4925 215.28179,-41.23875 -68.44617,25.03483 -136.89235,50.06969 -205.33852,75.10452 68.42394,-24.9307 136.84785,-49.86141 205.27179,-74.79211 -63.01854,35.46949 -126.03705,70.939 -189.05559,106.4085 63.04077,-35.36536 126.08155,-70.73072 189.12232,-106.09608 -55.72235,44.86277 -111.4447,89.72554 -167.16704,134.58831 55.72234,-44.75864 111.44469,-89.51726 167.16704,-134.2759 -46.75783,52.88143 -93.51568,105.76283 -140.2735,158.64426 46.80233,-52.77728 93.60464,-105.55457 140.40697,-158.33185 -36.39193,59.23386 -72.78384,118.46771 -109.17577,177.70157 36.43641,-59.15054 72.87282,-118.3011 109.30923,-177.45163 -24.95827,63.71179 -49.91654,127.4236 -74.87482,191.1354 25.04726,-63.60766 50.0945,-127.21533 75.14176,-190.82299 -12.94627,66.23195 -25.89254,132.4639 -38.83881,198.69584 13.03525,-66.16946 26.07048,-132.33893 39.10574,-198.50839 -0.62285,66.73181 -1.24568,133.46362 -1.86854,200.19543 0.77855,-66.71097 1.55712,-133.42197 2.33567,-200.13295 11.52262,65.12809 23.04526,130.25616 34.56788,195.38425 -11.41141,-65.08642 -22.82281,-130.17286 -34.23421,-195.25928 23.24546,61.46241 46.49089,122.92483 69.73635,184.38724 -23.15647,-61.46241 -46.31295,-122.92483 -69.46942,-184.38724 34.123,55.92226 68.24597,111.84451 102.36896,167.76677 C 446.08151,376.34277 412.0475,320.44133 378.0135,264.5399 c 43.77707,48.59092 87.55415,97.18185 131.33123,145.77277 -43.66586,-48.63259 -87.33171,-97.26515 -130.99757,-145.89773 51.87407,39.82248 103.74811,79.64495 155.62217,119.46743 C 482.18426,343.9974 430.39918,304.11246 378.6141,264.22749 c 58.21373,29.84602 116.42744,59.69207 174.64117,89.53809 -58.147,-29.90851 -116.29397,-59.81703 -174.44097,-89.72554 62.59588,18.95317 125.19176,37.90633 187.78764,56.8595 -62.50689,-19.03647 -125.01381,-38.07296 -187.52071,-57.10943 64.82033,7.56044 129.64065,15.12088 194.46098,22.68131 -64.77583,-7.66457 -129.55168,-15.32916 -194.32751,-22.99373 64.79808,-4.04056 129.59616,-8.08114 194.39424,-12.12169 -64.7536,3.93642 -129.50718,7.87285 -194.26078,11.80928 62.61814,-15.4333 125.23625,-30.86659 187.85438,-46.29988 -62.57363,15.32916 -125.14728,30.6583 -187.72091,45.98746 58.21373,-26.28449 116.42744,-52.56901 174.64118,-78.8535 -58.21374,26.18036 -116.42745,52.36072 -174.64118,78.54109 51.85181,-36.21929 103.70363,-72.4386 155.55544,-108.65789 -51.85181,36.11516 -103.70363,72.23032 -155.55544,108.34547 43.64361,-44.92525 87.28722,-89.85051 130.93083,-134.77576 -43.68809,44.82112 -87.3762,89.64222 -131.0643,134.46335 C 413.29319,209.78399 447.23823,157.65238 481.18325,105.52075 447.19373,157.56906 413.20422,209.61737 379.2147,261.66569 402.19322,204.07722 425.17172,146.48874 448.15025,88.900279 425.08276,146.38461 402.01525,203.86894 378.94776,261.35327 390.13671,200.26576 401.32569,139.17823 412.51464,78.090726 401.2367,139.11575 389.95877,200.1408 378.68083,261.16582 c -1.06773,-62.60793 -2.13547,-125.21587 -3.2032,-187.8238 0.97875,62.56629 1.95752,125.13255 2.93627,187.69884 z"
         style="fill:#b4bdbe;fill-opacity:1;stroke:url(#linearGradient3929);stroke-width:3.30614781;stroke-miterlimit:4;stroke-opacity:1"
         inkscape:connector-curvature="0" />
      <path
         transform="matrix(2.1354672,0,0,1.999455,-463.95564,-299.21378)"
         d="m 420.22346,284.14117 c 0,17.5736 -14.24621,31.81981 -31.8198,31.81981 -17.5736,0 -31.81981,-14.24621 -31.81981,-31.81981 0,-17.57359 14.24621,-31.8198 31.81981,-31.8198 17.57359,0 31.8198,14.24621 31.8198,31.8198 z"
         sodipodi:ry="31.819805"
         sodipodi:rx="31.819805"
         sodipodi:cy="284.14117"
         sodipodi:cx="388.40366"
         id="path3275"
         style="fill:url(#linearGradient3984);fill-opacity:1;stroke:url(#linearGradient3988);stroke-width:1.60000002;stroke-miterlimit:4;stroke-opacity:1;stroke-dasharray:none"
         sodipodi:type="arc" />
      <path
         id="path3297"
         d="m 364.21094,217.35928 c -39.60085,-1.26298 -68.09386,45.50729 -47.11374,76.79156 17.39429,30.4734 68.61247,36.18726 91.02429,7.68541 20.81106,-23.5531 14.56805,-63.86395 -15.61561,-77.91626 -8.65819,-4.43176 -18.16638,-7.01763 -28.29494,-6.56071 z"
         style="fill:url(#linearGradient3976);fill-opacity:1;stroke:url(#linearGradient3967);stroke-width:3.30614781;stroke-miterlimit:4;stroke-opacity:1;stroke-dasharray:none"
         inkscape:connector-curvature="0" />
      <path
         id="path3313"
         d="m 365.31224,300.35241 c 30.86795,2.36586 47.77692,-43.41726 20.02001,-57.98419 -20.03598,-13.90865 -55.26971,0.21342 -53.45341,24.99319 -0.51066,16.60773 14.84837,33.79586 33.4334,32.991 z"
         style="fill:url(#linearGradient3996);fill-opacity:1;stroke:url(#linearGradient3964);stroke-width:3.30614781;stroke-miterlimit:4;stroke-opacity:1;stroke-dasharray:none"
         inkscape:connector-curvature="0" />
      <path
         transform="matrix(2.1354672,0,0,1.999455,-413.9779,-329.6475)"
         d="m 461,299.36218 c 0,53.01934 -42.98066,96 -96,96 -53.01934,0 -96,-42.98066 -96,-96 0,-53.01933 42.98066,-96 96,-96 53.01934,0 96,42.98067 96,96 z"
         sodipodi:ry="96"
         sodipodi:rx="96"
         sodipodi:cy="299.36218"
         sodipodi:cx="365"
         id="path3587"
         style="fill:none;stroke:url(#linearGradient3897);stroke-width:1.60000002;stroke-miterlimit:4;stroke-opacity:1;stroke-dasharray:none"
         sodipodi:type="arc" />
      <path
         sodipodi:nodetypes="csssszssc"
         id="path3589"
         d="m 473,302.36218 c 0,40.296 -32.704,73 -73,73 -40.296,0 -73,-32.704 -73,-73 0,-20.148 8.176,-38.398 21.389,-51.611 6.6065,-6.6065 14.47225,-11.95375 23.20488,-15.64938 C 380.3265,231.40618 375.3565,221.36 400,221.36 c 23.319,0 19.6735,10.04618 28.40612,13.7418 8.73263,3.69563 16.59838,9.04288 23.20488,15.64938 13.213,13.213 21.389,31.463 21.389,51.611 z"
         style="fill:none;stroke:url(#linearGradient3955);stroke-width:1.60000002;stroke-miterlimit:4;stroke-opacity:1"
         transform="matrix(2.1354672,0,0,1.999455,-488.71925,-335.64586)"
         inkscape:connector-curvature="0" />
      <path
         transform="matrix(1.0552181,0,0,1.1316753,-24.963045,-77.359924)"
         d="m 391,305.86218 c 0,5.24671 -9.40202,9.5 -21,9.5 -11.59798,0 -21,-4.25329 -21,-9.5 0,-5.2467 9.40202,-9.5 21,-9.5 11.59798,0 21,4.2533 21,9.5 z"
         sodipodi:ry="9.5"
         sodipodi:rx="21"
         sodipodi:cy="305.86218"
         sodipodi:cx="370"
         id="path3621"
         style="fill:#d33727;fill-opacity:1;stroke:#4f3b35;stroke-width:1.60000002;stroke-miterlimit:4;stroke-opacity:1;stroke-dasharray:none"
         sodipodi:type="arc" />
    </g>
  </g>
</svg>
