<?xml version="1.0" encoding="UTF-8" standalone="no"?>
<!-- Created with Inkscape (http://www.inkscape.org/) -->
<svg
   xmlns:dc="http://purl.org/dc/elements/1.1/"
   xmlns:cc="http://web.resource.org/cc/"
   xmlns:rdf="http://www.w3.org/1999/02/22-rdf-syntax-ns#"
   xmlns:svg="http://www.w3.org/2000/svg"
   xmlns="http://www.w3.org/2000/svg"
   xmlns:xlink="http://www.w3.org/1999/xlink"
   xmlns:sodipodi="http://sodipodi.sourceforge.net/DTD/sodipodi-0.dtd"
   xmlns:inkscape="http://www.inkscape.org/namespaces/inkscape"
   width="317.04764"
   height="379.66711"
   id="svg2907"
   sodipodi:version="0.32"
   inkscape:version="0.45.1"
   version="1.0"
   sodipodi:docbase="/home/frederik/bilder/clipart_freedo"
   sodipodi:docname="window_draperies.svg"
   inkscape:output_extension="org.inkscape.output.svg.inkscape">
  <defs
     id="defs2909">
    <linearGradient
       id="linearGradient3295">
      <stop
         style="stop-color:#d50000;stop-opacity:1.0000000;"
         offset="0.00000000"
         id="stop3296" />
      <stop
         style="stop-color:#ff3737;stop-opacity:1.0000000;"
         offset="1.0000000"
         id="stop3297" />
    </linearGradient>
    <linearGradient
       inkscape:collect="always"
       xlink:href="#linearGradient3295"
       id="linearGradient3294"
       x1="674.57355"
       y1="206.21996"
       x2="706.68878"
       y2="206.21996"
       spreadMethod="reflect"
       gradientTransform="scale(0.5750345,1.7390262)"
       gradientUnits="userSpaceOnUse" />
    <marker
       style="overflow:visible"
       id="DiamondS"
       refX="0"
       refY="0"
       orient="auto"
       inkscape:stockid="DiamondS">
      <path
         transform="scale(0.2,0.2)"
         style="fill:#f1e300;fill-rule:evenodd;stroke:#f1e300;stroke-width:1pt;marker-start:none"
         d="M -2.1579186e-05,-7.0710768 L -7.0710894,-8.9383918e-06 L -2.1579186e-05,7.0710589 L 7.0710462,-8.9383918e-06 L -2.1579186e-05,-7.0710768 z "
         id="path840" />
    </marker>
    <linearGradient
       id="linearGradient7858">
      <stop
         style="stop-color:#e6d900;stop-opacity:1.0000000;"
         offset="0.00000000"
         id="stop7859" />
      <stop
         style="stop-color:#fffcbd;stop-opacity:1.0000000;"
         offset="1.0000000"
         id="stop7860" />
    </linearGradient>
    <linearGradient
       inkscape:collect="always"
       xlink:href="#linearGradient7858"
       id="linearGradient7857"
       x1="1137.6193"
       y1="132.85429"
       x2="1143.4417"
       y2="139.17973"
       spreadMethod="reflect"
       gradientTransform="scale(0.4714045,2.1213204)"
       gradientUnits="userSpaceOnUse" />
    <linearGradient
       inkscape:collect="always"
       xlink:href="#linearGradient7226"
       id="linearGradient7225"
       x1="3037.4558"
       y1="51.311783"
       x2="3013.6799"
       y2="51.311783"
       gradientTransform="scale(0.1786984,5.5960208)"
       gradientUnits="userSpaceOnUse" />
    <linearGradient
       inkscape:collect="always"
       xlink:href="#linearGradient7226"
       id="linearGradient9117"
       y2="240.57864"
       x2="521.78625"
       y1="240.57864"
       x1="471.08405"
       gradientTransform="scale(1.0204003,0.9800075)"
       gradientUnits="userSpaceOnUse" />
    <linearGradient
       id="linearGradient677">
      <stop
         style="stop-color:#9eedff;stop-opacity:1;"
         offset="0"
         id="stop678" />
      <stop
         style="stop-color:#5272ff;stop-opacity:1;"
         offset="1"
         id="stop679" />
    </linearGradient>
    <linearGradient
       inkscape:collect="always"
       xlink:href="#linearGradient677"
       id="linearGradient6595"
       x1="495.68512"
       y1="241.20461"
       x2="519.98615"
       y2="263.73889"
       spreadMethod="reflect"
       gradientTransform="scale(1.0204003,0.9800075)"
       gradientUnits="userSpaceOnUse" />
    <linearGradient
       id="linearGradient7226">
      <stop
         style="stop-color:#894700;stop-opacity:1.0000000;"
         offset="0.00000000"
         id="stop7227" />
      <stop
         style="stop-color:#cf6b00;stop-opacity:1.0000000;"
         offset="1.0000000"
         id="stop7228" />
    </linearGradient>
    <linearGradient
       inkscape:collect="always"
       xlink:href="#linearGradient7226"
       id="linearGradient8488"
       x1="682.1272"
       y1="255.23352"
       x2="516.06219"
       y2="255.23352"
       gradientTransform="scale(0.9030635,1.1073418)"
       gradientUnits="userSpaceOnUse" />
  </defs>
  <sodipodi:namedview
     id="base"
     pagecolor="#ffffff"
     bordercolor="#666666"
     borderopacity="1.0"
     inkscape:pageopacity="0.0"
     inkscape:pageshadow="2"
     inkscape:zoom="1.6846396"
     inkscape:cx="236.21908"
     inkscape:cy="203.52138"
     inkscape:document-units="px"
     inkscape:current-layer="layer1"
     inkscape:window-width="1280"
     inkscape:window-height="951"
     inkscape:window-x="0"
     inkscape:window-y="24" />
  <metadata
     id="metadata2912">
    <rdf:RDF>
      <cc:Work
         rdf:about="">
        <dc:format>image/svg+xml</dc:format>
        <dc:type
           rdf:resource="http://purl.org/dc/dcmitype/StillImage" />
        <cc:license
           rdf:resource="http://web.resource.org/cc/PublicDomain" />
        <dc:title>Window with draperies</dc:title>
        <dc:date>2007-03-23</dc:date>
        <dc:creator>
          <cc:Agent>
            <dc:title>Frederik Elwert</dc:title>
          </cc:Agent>
        </dc:creator>
        <dc:subject>
          <rdf:Bag>
            <rdf:li>window</rdf:li>
            <rdf:li>draperies</rdf:li>
            <rdf:li>curtain</rdf:li>
          </rdf:Bag>
        </dc:subject>
      </cc:Work>
      <cc:License
         rdf:about="http://web.resource.org/cc/PublicDomain">
        <cc:permits
           rdf:resource="http://web.resource.org/cc/Reproduction" />
        <cc:permits
           rdf:resource="http://web.resource.org/cc/Distribution" />
        <cc:permits
           rdf:resource="http://web.resource.org/cc/DerivativeWorks" />
      </cc:License>
    </rdf:RDF>
  </metadata>
  <g
     inkscape:label="Ebene 1"
     inkscape:groupmode="layer"
     id="layer1"
     transform="translate(-191.47618,-342.52863)">
    <g
       transform="translate(-191.10454,168.95075)"
       id="g9801">
      <rect
         y="200.90564"
         x="465.67532"
         height="186.27013"
         width="151.67711"
         id="rect5329"
         style="fill:#9c5100;fill-opacity:1;fill-rule:evenodd;stroke:url(#linearGradient8488);stroke-width:1pt;stroke-linecap:butt;stroke-linejoin:miter;stroke-opacity:1" />
      <rect
         y="211.54964"
         x="481.31934"
         height="48.438503"
         width="50.486507"
         id="rect5330"
         style="fill:url(#linearGradient6595);fill-opacity:1;fill-rule:evenodd;stroke:url(#linearGradient9117);stroke-width:1.0000001pt;stroke-linecap:butt;stroke-linejoin:miter;stroke-opacity:1" />
      <use
         height="743.75"
         width="1052.5"
         transform="translate(0,57.5)"
         id="use5331"
         xlink:href="#rect5330"
         y="0"
         x="0" />
      <use
         height="743.75"
         width="1052.5"
         transform="translate(0,115)"
         id="use5332"
         xlink:href="#rect5330"
         y="0"
         x="0" />
      <use
         height="743.75"
         width="1052.5"
         transform="translate(70,0)"
         id="use5333"
         xlink:href="#rect5330"
         y="0"
         x="0" />
      <use
         height="743.75"
         width="1052.5"
         transform="translate(70,57.5)"
         id="use5334"
         xlink:href="#rect5330"
         y="0"
         x="0" />
      <use
         height="743.75"
         width="1052.5"
         transform="translate(70,115)"
         id="use5335"
         xlink:href="#rect5330"
         y="0"
         x="0" />
      <rect
         y="200.90564"
         x="538.53979"
         height="186.27013"
         width="5.9481864"
         id="rect6596"
         style="fill:url(#linearGradient7225);fill-opacity:1;fill-rule:evenodd;stroke:none;stroke-width:1pt;stroke-linecap:butt;stroke-linejoin:miter;stroke-opacity:1" />
      <path
         transform="matrix(1,0,0,0.669524,0,105.2086)"
         d="M 542.09754 294.74161 A 3.0191076 13.585984 0 1 1  536.05932,294.74161 A 3.0191076 13.585984 0 1 1  542.09754 294.74161 z"
         sodipodi:ry="13.585984"
         sodipodi:rx="3.0191076"
         sodipodi:cy="294.74161"
         sodipodi:cx="539.07843"
         id="path7229"
         style="fill:url(#linearGradient7857);fill-opacity:1;fill-rule:evenodd;stroke:none;stroke-width:1.22212868pt;stroke-linecap:butt;stroke-linejoin:miter;stroke-opacity:1"
         sodipodi:type="arc" />
    </g>
    <g
       id="g10467"
       transform="translate(-36.766439,168.95075)">
      <path
         sodipodi:nodetypes="cc"
         id="path3969"
         d="M 232.09066,194.69196 L 541.44224,194.69196"
         style="fill:none;fill-opacity:0.75;fill-rule:evenodd;stroke:#f1e300;stroke-width:2.5;stroke-linecap:round;stroke-linejoin:miter;marker-start:url(#DiamondS);marker-end:url(#DiamondS);stroke-miterlimit:4;stroke-opacity:1" />
      <g
         transform="matrix(1,0,0,1.073507,32.93159,-21.57168)"
         id="g3961">
        <path
           d="M 391.16726,185.4257 C 397.81976,191.60473 404.91577,203.92983 411.12477,203.96279 C 417.33377,203.99575 421.76878,185.40173 428.42128,185.62348 C 435.07379,185.84523 444.8308,205.32625 451.0398,205.29329 C 457.24881,205.26033 460.35331,185.4257 465.67531,185.4257 C 470.99731,185.4257 477.20632,205.80272 482.97182,205.29329 C 488.73732,204.78386 494.50283,190.01053 500.26833,182.36915 L 504.25984,514.20269 C 497.60734,521.08891 490.73308,535.37079 484.30233,534.86136 C 477.87158,534.35194 471.88432,513.01903 465.67532,512.47664 C 459.46632,511.93425 453.70081,533.13532 447.0483,532.93754 C 440.39579,532.73977 432.19103,511.38888 425.76028,511.28999 C 419.32953,511.1911 414.67278,532.31126 408.46378,532.34422 C 402.25478,532.37718 395.15877,518.43991 388.50626,511.48775 L 391.16726,185.4257 z M 399.31336,201.0992 C 400.85781,202.64365 401.26362,204.7448 400.21918,205.78924 C 399.17473,206.83369 397.07359,206.42788 395.52913,204.88342 C 393.98468,203.33898 393.57888,201.23783 394.62332,200.19339 C 395.66777,199.14894 397.76891,199.55475 399.31336,201.0992 z M 439.31335,201.0992 C 440.85781,202.64365 441.26362,204.7448 440.21917,205.78924 C 439.17473,206.83369 437.07358,206.42788 435.52913,204.88342 C 433.98468,203.33898 433.57887,201.23783 434.62332,200.19339 C 435.66776,199.14894 437.76891,199.55475 439.31335,201.0992 z M 474.31335,201.0992 C 475.85781,202.64365 476.26362,204.7448 475.21917,205.78924 C 474.17473,206.83369 472.07358,206.42788 470.52913,204.88342 C 468.98468,203.33898 468.57887,201.23783 469.62332,200.19339 C 470.66776,199.14894 472.76891,199.55475 474.31335,201.0992 z M 496.8134,204.88342 C 495.26895,206.42788 493.1678,206.83369 492.12336,205.78924 C 491.07891,204.7448 491.48472,202.64365 493.02918,201.0992 C 494.57362,199.55475 496.67477,199.14894 497.71921,200.19339 C 498.76366,201.23783 498.35785,203.33898 496.8134,204.88342 z M 461.8134,204.88342 C 460.26895,206.42788 458.1678,206.83369 457.12336,205.78924 C 456.07891,204.7448 456.48472,202.64365 458.02918,201.0992 C 459.57362,199.55475 461.67477,199.14894 462.71921,200.19339 C 463.76366,201.23783 463.35785,203.33898 461.8134,204.88342 z M 424.3134,204.88342 C 422.76895,206.42788 420.6678,206.83369 419.62336,205.78924 C 418.57891,204.7448 418.98472,202.64365 420.52918,201.0992 C 422.07362,199.55475 424.17477,199.14894 425.21921,200.19339 C 426.26366,201.23783 425.85785,203.33898 424.3134,204.88342 z "
           style="fill:url(#linearGradient3294);fill-opacity:1;fill-rule:evenodd;stroke:#a70101;stroke-width:0.96515579pt;stroke-linecap:butt;stroke-linejoin:miter;stroke-opacity:1"
           id="path2672" />
        <path
           transform="matrix(0.543617,-0.543617,0.884249,0.884249,2.204735,240.8967)"
           d="M 401.85105 202.04214 A 3.4805996 3.1641815 0 1 1  394.88985,202.04214 A 3.4805996 3.1641815 0 1 1  401.85105 202.04214 z"
           sodipodi:ry="3.1641815"
           sodipodi:rx="3.4805996"
           sodipodi:cy="202.04214"
           sodipodi:cx="398.37045"
           id="path3298"
           style="fill:none;fill-opacity:0.75;fill-rule:evenodd;stroke:#f5e700;stroke-width:0.98434772pt;stroke-linecap:butt;stroke-linejoin:miter;stroke-opacity:1"
           sodipodi:type="arc" />
        <path
           transform="matrix(0.543617,-0.543617,0.884249,0.884249,42.20473,240.8967)"
           d="M 401.85105 202.04214 A 3.4805996 3.1641815 0 1 1  394.88985,202.04214 A 3.4805996 3.1641815 0 1 1  401.85105 202.04214 z"
           sodipodi:ry="3.1641815"
           sodipodi:rx="3.4805996"
           sodipodi:cy="202.04214"
           sodipodi:cx="398.37045"
           id="path3920"
           style="fill:none;fill-opacity:0.75;fill-rule:evenodd;stroke:#f5e700;stroke-width:0.98434772pt;stroke-linecap:butt;stroke-linejoin:miter;stroke-opacity:1"
           sodipodi:type="arc" />
        <path
           transform="matrix(0.543617,-0.543617,0.884249,0.884249,77.20473,240.8967)"
           d="M 401.85105 202.04214 A 3.4805996 3.1641815 0 1 1  394.88985,202.04214 A 3.4805996 3.1641815 0 1 1  401.85105 202.04214 z"
           sodipodi:ry="3.1641815"
           sodipodi:rx="3.4805996"
           sodipodi:cy="202.04214"
           sodipodi:cx="398.37045"
           id="path3921"
           style="fill:none;fill-opacity:0.75;fill-rule:evenodd;stroke:#f5e700;stroke-width:0.98434772pt;stroke-linecap:butt;stroke-linejoin:miter;stroke-opacity:1"
           sodipodi:type="arc" />
        <path
           transform="matrix(0.543617,0.543617,-0.884249,0.884249,457.0159,-192.2252)"
           d="M 401.85105 202.04214 A 3.4805996 3.1641815 0 1 1  394.88985,202.04214 A 3.4805996 3.1641815 0 1 1  401.85105 202.04214 z"
           sodipodi:ry="3.1641815"
           sodipodi:rx="3.4805996"
           sodipodi:cy="202.04214"
           sodipodi:cx="398.37045"
           id="path3922"
           style="fill:none;fill-opacity:0.75;fill-rule:evenodd;stroke:#f5e700;stroke-width:0.98434772pt;stroke-linecap:butt;stroke-linejoin:miter;stroke-opacity:1"
           sodipodi:type="arc" />
        <path
           transform="matrix(0.543617,0.543617,-0.884249,0.884249,422.0159,-192.2252)"
           d="M 401.85105 202.04214 A 3.4805996 3.1641815 0 1 1  394.88985,202.04214 A 3.4805996 3.1641815 0 1 1  401.85105 202.04214 z"
           sodipodi:ry="3.1641815"
           sodipodi:rx="3.4805996"
           sodipodi:cy="202.04214"
           sodipodi:cx="398.37045"
           id="path3923"
           style="fill:none;fill-opacity:0.75;fill-rule:evenodd;stroke:#f5e700;stroke-width:0.98434772pt;stroke-linecap:butt;stroke-linejoin:miter;stroke-opacity:1"
           sodipodi:type="arc" />
        <path
           transform="matrix(0.543617,0.543617,-0.884249,0.884249,384.5159,-192.2252)"
           d="M 401.85105 202.04214 A 3.4805996 3.1641815 0 1 1  394.88985,202.04214 A 3.4805996 3.1641815 0 1 1  401.85105 202.04214 z"
           sodipodi:ry="3.1641815"
           sodipodi:rx="3.4805996"
           sodipodi:cy="202.04214"
           sodipodi:cx="398.37045"
           id="path3924"
           style="fill:none;fill-opacity:0.75;fill-rule:evenodd;stroke:#f5e700;stroke-width:0.98434772pt;stroke-linecap:butt;stroke-linejoin:miter;stroke-opacity:1"
           sodipodi:type="arc" />
      </g>
      <use
         height="743.75"
         width="1052.5"
         transform="translate(-183.0543,0)"
         id="use9812"
         xlink:href="#g3961"
         y="0"
         x="0" />
      <path
         sodipodi:nodetypes="cc"
         id="path9813"
         d="M 238.19247,194.69196 L 247.19933,194.69196"
         style="fill:none;fill-opacity:0.75;fill-rule:evenodd;stroke:#f1e300;stroke-width:2.5;stroke-linecap:round;stroke-linejoin:miter;marker-start:none;marker-end:none;stroke-miterlimit:4;stroke-dasharray:none;stroke-dashoffset:0;stroke-opacity:1" />
      <path
         sodipodi:nodetypes="cc"
         id="path10441"
         d="M 272.33664,194.69196 L 287.57575,194.69196"
         style="fill:none;fill-opacity:0.75;fill-rule:evenodd;stroke:#f1e300;stroke-width:2.5;stroke-linecap:round;stroke-linejoin:miter;marker-start:none;marker-end:none;stroke-miterlimit:4;stroke-dashoffset:0;stroke-opacity:1" />
      <path
         sodipodi:nodetypes="cc"
         id="path10442"
         d="M 310.69247,194.69196 L 319.69933,194.69196"
         style="fill:none;fill-opacity:0.75;fill-rule:evenodd;stroke:#f1e300;stroke-width:2.5;stroke-linecap:round;stroke-linejoin:miter;marker-start:none;marker-end:none;stroke-miterlimit:4;stroke-dashoffset:0;stroke-opacity:1" />
      <path
         sodipodi:nodetypes="cc"
         id="path10443"
         d="M 345.69247,194.69196 L 354.69933,194.69196"
         style="fill:none;fill-opacity:0.75;fill-rule:evenodd;stroke:#f1e300;stroke-width:2.5;stroke-linecap:round;stroke-linejoin:miter;marker-start:none;marker-end:none;stroke-miterlimit:4;stroke-dashoffset:0;stroke-opacity:1" />
      <path
         sodipodi:nodetypes="cc"
         id="path10444"
         d="M 420.84524,194.69196 L 429.8521,194.69196"
         style="fill:none;fill-opacity:0.75;fill-rule:evenodd;stroke:#f1e300;stroke-width:2.5;stroke-linecap:round;stroke-linejoin:miter;marker-start:none;marker-end:none;stroke-miterlimit:4;stroke-dashoffset:0;stroke-opacity:1" />
      <path
         sodipodi:nodetypes="cc"
         id="path10445"
         d="M 454.98941,194.69196 L 470.22852,194.69196"
         style="fill:none;fill-opacity:0.75;fill-rule:evenodd;stroke:#f1e300;stroke-width:2.5;stroke-linecap:round;stroke-linejoin:miter;marker-start:none;marker-end:none;stroke-miterlimit:4;stroke-dashoffset:0;stroke-opacity:1" />
      <path
         sodipodi:nodetypes="cc"
         id="path10446"
         d="M 493.34524,194.69196 L 502.3521,194.69196"
         style="fill:none;fill-opacity:0.75;fill-rule:evenodd;stroke:#f1e300;stroke-width:2.5;stroke-linecap:round;stroke-linejoin:miter;marker-start:none;marker-end:none;stroke-miterlimit:4;stroke-dashoffset:0;stroke-opacity:1" />
      <path
         sodipodi:nodetypes="cc"
         id="path10447"
         d="M 528.34524,194.69196 L 535.43449,194.69196"
         style="fill:none;fill-opacity:0.75;fill-rule:evenodd;stroke:#f1e300;stroke-width:2.5;stroke-linecap:round;stroke-linejoin:miter;marker-start:none;marker-end:none;stroke-miterlimit:4;stroke-dashoffset:0;stroke-opacity:1" />
    </g>
  </g>
</svg>
