<?xml version="1.0" encoding="UTF-8" standalone="no"?>
<!-- Created with Sodipodi ("http://www.sodipodi.com/") -->

<svg
   xmlns:dc="http://purl.org/dc/elements/1.1/"
   xmlns:cc="http://creativecommons.org/ns#"
   xmlns:rdf="http://www.w3.org/1999/02/22-rdf-syntax-ns#"
   xmlns:svg="http://www.w3.org/2000/svg"
   xmlns="http://www.w3.org/2000/svg"
   xmlns:xlink="http://www.w3.org/1999/xlink"
   xmlns:sodipodi="http://sodipodi.sourceforge.net/DTD/sodipodi-0.dtd"
   xmlns:inkscape="http://www.inkscape.org/namespaces/inkscape"
   height="406.8804"
   id="svg32"
   version="1.0"
   width="406.44116"
   x="0"
   y="0"
   inkscape:version="0.48.1 r9760"
   sodipodi:docname="home0.svg">
  <sodipodi:namedview
     pagecolor="#ffffff"
     bordercolor="#666666"
     borderopacity="1"
     objecttolerance="10"
     gridtolerance="10"
     guidetolerance="10"
     inkscape:pageopacity="0"
     inkscape:pageshadow="2"
     inkscape:window-width="640"
     inkscape:window-height="480"
     id="namedview3249"
     showgrid="false"
     fit-margin-top="0"
     fit-margin-left="0"
     fit-margin-right="0"
     fit-margin-bottom="0"
     inkscape:zoom="0.70171429"
     inkscape:cx="194.9375"
     inkscape:cy="213.65321"
     inkscape:window-x="0"
     inkscape:window-y="0"
     inkscape:window-maximized="0"
     inkscape:current-layer="svg32" />
  <metadata
     id="metadata3173">
    <rdf:RDF>
      <cc:Work
         rdf:about="">
        <dc:title>Lemon SVG theme</dc:title>
        <dc:description />
        <dc:subject>
          <rdf:Bag>
            <rdf:li>icon</rdf:li>
            <rdf:li />
            <rdf:li>lemon_theme_icon</rdf:li>
            <rdf:li>icons</rdf:li>
            <rdf:li>hash</rdf:li>
            <rdf:li>filesystem</rdf:li>
            <rdf:li>computer</rdf:li>
            <rdf:li>theme</rdf:li>
          </rdf:Bag>
        </dc:subject>
        <dc:publisher>
          <cc:Agent
             rdf:about="http://www.openclipart.org">
            <dc:title>Jose Hevia</dc:title>
          </cc:Agent>
        </dc:publisher>
        <dc:creator>
          <cc:Agent>
            <dc:title>Jose Hevia</dc:title>
          </cc:Agent>
        </dc:creator>
        <dc:rights>
          <cc:Agent>
            <dc:title>Jose Hevia</dc:title>
          </cc:Agent>
        </dc:rights>
        <dc:date />
        <dc:format>image/svg+xml</dc:format>
        <dc:type
           rdf:resource="http://purl.org/dc/dcmitype/StillImage" />
        <cc:license
           rdf:resource="http://web.resource.org/cc/PublicDomain" />
        <dc:language>en</dc:language>
      </cc:Work>
      <cc:License
         rdf:about="http://web.resource.org/cc/PublicDomain">
        <cc:permits
           rdf:resource="http://web.resource.org/cc/Reproduction" />
        <cc:permits
           rdf:resource="http://web.resource.org/cc/Distribution" />
        <cc:permits
           rdf:resource="http://web.resource.org/cc/DerivativeWorks" />
      </cc:License>
    </rdf:RDF>
  </metadata>
  <defs
     id="defs34">
    <linearGradient
       id="linearGradient60">
      <stop
         id="stop61"
         offset="0"
         style="stop-color:#ffffb2;stop-opacity:0.9608;" />
      <stop
         id="stop62"
         offset="1"
         style="stop-color:#000000;stop-opacity:0.4588;" />
    </linearGradient>
    <linearGradient
       id="linearGradient57">
      <stop
         id="stop58"
         offset="0"
         style="stop-color:#ffff9f;stop-opacity:0.9608;" />
      <stop
         id="stop59"
         offset="1"
         style="stop-color:#000000;stop-opacity:0.4588;" />
    </linearGradient>
    <linearGradient
       id="linearGradient129">
      <stop
         id="stop130"
         offset="0"
         style="stop-color:#7a877d;stop-opacity:1;" />
      <stop
         id="stop131"
         offset="1"
         style="stop-color:#222f45;stop-opacity:1;" />
    </linearGradient>
    <linearGradient
       id="linearGradient132"
       x1="195.443"
       x2="248.19753"
       xlink:href="#linearGradient129"
       y1="123.58024"
       y2="176.33477"
       gradientTransform="matrix(1.0093496,0,0,0.99073699,-23.8125,-25.52282)"
       gradientUnits="userSpaceOnUse" />
    <linearGradient
       id="linearGradient142"
       x1="141.06518"
       x2="186.87447"
       xlink:href="#linearGradient129"
       y1="171.50037"
       y2="217.30966"
       gradientTransform="matrix(0.89993113,0,0,1.1111961,-23.8125,-25.52282)"
       gradientUnits="userSpaceOnUse" />
    <linearGradient
       id="linearGradient48"
       x1="469.01645"
       x2="495.08362"
       xlink:href="#linearGradient129"
       y1="127.25339"
       y2="153.32056"
       gradientTransform="matrix(0.66369469,0,0,1.5067169,-23.8125,-25.52282)"
       gradientUnits="userSpaceOnUse" />
    <linearGradient
       id="linearGradient49"
       x1="0.49308601"
       x2="0.57143998"
       xlink:href="#linearGradient129"
       y1="0.42857099"
       y2="0.51428598" />
    <linearGradient
       id="linearGradient50"
       x1="0.45062399"
       x2="0.40768901"
       xlink:href="#linearGradient129"
       y1="0.42857099"
       y2="0.47428599" />
    <linearGradient
       id="linearGradient53"
       x1="-0.33721501"
       x2="0.46689001"
       xlink:href="#linearGradient129"
       y1="0.54857099"
       y2="0.56" />
    <linearGradient
       id="linearGradient54"
       x1="1.09466"
       x2="0.41306201"
       xlink:href="#linearGradient129"
       y1="0.125"
       y2="0.8125" />
    <linearGradient
       id="linearGradient815"
       x1="0.61980802"
       x2="0.479233"
       xlink:href="#linearGradient129"
       y1="-0.021233"
       y2="1.20012" />
    <linearGradient
       id="linearGradient104"
       x1="0.54704398"
       x2="0.45992601"
       xlink:href="#linearGradient129"
       y1="0.131429"
       y2="0.80000001" />
  </defs>
  <path
     d="M 20.84499,167.79748 C -37.19172,149.68068 151.614,28.98235 163.4846,10.32462 c 9.3454,-17.0381797 12.4395,7.34318 30.438,6.98665 15.1582,-1.16469 37.7791,-31.08442 42.2742,-2.87498 3.2827,21.75728 219.3833,127.17769 156.3603,154.12669 C 358.1967,146.85768 228.283,67.34982 198.8314,44.2311 170.4408,62.11896 44.08846,152.28958 20.84499,167.79748 z"
     id="path874"
     style="font-size:12px;fill:#ffffff;fill-opacity:1;fill-rule:evenodd;stroke:#000000;stroke-width:4.71038103;stroke-linejoin:round"
     inkscape:connector-curvature="0" />
  <path
     d="m 3.85793,376.54498 c 24.67233,16.9342 69.11552,21.1937 81.42477,22.3299 83.5563,4.5691 235.0653,13.5144 307.8627,-17.0269 -1.6989,-44.0204 -41.1318,-100.9091 -56.2354,-77.7108 -17.5101,-13.7377 -5.5724,-10.3244 -10.0406,-10.3244 -40.3044,-26.1835 -230.4208,-19.5764 -272.05627,2.2864 -19.02889,-17.0723 -30.23525,26.7804 -50.9552,80.4458 z"
     id="path19"
     style="font-size:12px;fill:#ffffff;fill-opacity:1;fill-rule:evenodd;stroke:#000000;stroke-width:6.31191111"
     inkscape:connector-curvature="0" />
  <path
     d="m 56.66782,344.42028 c 5.85454,11.8119 -25.80583,40.8526 -14.82017,46.0037 125.74015,-12.3151 163.95085,-20.3966 233.13005,2.7322 7.9695,-5.6052 77.0894,-47.4319 60.7117,-51.468 -25.3235,-3.6442 -178.2136,-4.6553 -279.02158,2.7321 z"
     id="path20"
     style="font-size:12px;fill-opacity:0.22660104;fill-rule:evenodd"
     inkscape:connector-curvature="0" />
  <path
     d="m 137.6058,281.21338 c 1.4661,7.4541 0.9696,48.6948 -0.3922,61.4446 -7.7995,2.6293 -33.6484,2.6727 -44.5727,0.6407 -0.0437,-8.5549 -0.1514,-56.3643 0.4724,-62.0858 6.0142,0.7771 41.2533,-0.5539 44.4925,5e-4 z"
     id="path52"
     style="font-size:12px;fill:#b80000;fill-opacity:1;fill-rule:evenodd;stroke:#000000;stroke-width:0.52057999;stroke-linejoin:round"
     inkscape:connector-curvature="0" />
  <path
     d="m 54.96162,324.26668 c 0,-17.5904 2.50896,-46.5598 2.50896,-57.6933 0,-6.0722 -8.40695,-106.5486 -8.40695,-112.6218 0,-2.1956 140.39587,-107.7518 145.95577,-107.7518 70.4895,45.3449 161.226,101.8871 168.3335,111.6035 1.8214,3.5255 -31.0365,151.7961 -31.0365,162.8193 0,3.8461 -0.1341,12.1455 -0.6273,20.0407 -12.5505,-0.6079 -187.9637,0.6812 -193.289,-0.607 -2.2207,-13.8091 3.27,-56.558 1.5781,-59.6525 -2.9654,-4.8306 -41.4305,-5.2236 -49.4082,-2.0144 -3.9852,1.6032 5.0187,63.4889 -0.8381,63.4889 -9.4125,0 -24.10335,0 -33.5158,0 -1.59827,-0.7738 -1.25448,-12.5736 -1.25448,-17.6116 z"
     id="path12"
     style="font-size:12px;fill:#ffffff;fill-opacity:1;fill-rule:evenodd;stroke:#000000;stroke-width:9.42076206"
     inkscape:connector-curvature="0" />
  <path
     d="M 48.59756,148.80678 C 60.39257,139.52148 190.1147,44.88917 195.6746,44.88917 c 11.5154,3.8113 160.571,103.99111 167.6785,110.28371 1.8214,2.2832 -18.7205,87.1019 -19.2137,92.2151 -12.5506,-0.3937 -280.47662,-2.4897 -289.88907,-2.4897 -1.59827,-0.5012 -6.96376,-81.6738 -5.65277,-96.0915 z"
     id="path408"
     style="font-size:12px;fill:#7b3b00;fill-opacity:1;fill-rule:evenodd;stroke:#000000;stroke-width:7.58140707"
     inkscape:connector-curvature="0" />
  <path
     d="m 192.4089,193.11588 c -0.655,20.751 7.208,27.958 1.311,48.49"
     id="path410"
     style="font-size:12px;fill:none;stroke:#6b0000;stroke-width:5"
     inkscape:connector-curvature="0" />
  <path
     d="m 285.4572,192.46058 c -0.655,20.751 7.208,27.958 1.311,48.49"
     id="path411"
     style="font-size:12px;fill:none;stroke:#6b0000;stroke-width:5"
     inkscape:connector-curvature="0" />
  <path
     d="m 255.97,193.11588 c -0.655,20.751 7.208,27.958 1.311,48.49"
     id="path412"
     style="font-size:12px;fill:none;stroke:#6b0000;stroke-width:5"
     inkscape:connector-curvature="0" />
  <path
     d="m 223.2065,193.11588 c -0.655,20.751 7.208,27.958 1.311,48.49"
     id="path413"
     style="font-size:12px;fill:none;stroke:#6b0000;stroke-width:5"
     inkscape:connector-curvature="0" />
  <path
     d="m 318.2197,192.46058 c -0.655,20.751 7.208,27.958 1.311,48.49"
     id="path414"
     style="font-size:12px;fill:none;stroke:#6b0000;stroke-width:5"
     inkscape:connector-curvature="0" />
  <path
     d="m 351.6388,193.77188 c -58.789,-1.966 -133.6749,3.931 -165.1269,-5.898"
     id="path415"
     style="font-size:12px;fill:none;stroke:#720000;stroke-width:5"
     inkscape:connector-curvature="0" />
  <path
     d="m 192.4089,193.11588 c -0.655,20.751 7.208,27.958 1.311,48.49"
     id="path416"
     style="font-size:12px;fill:none;stroke:#6b0000;stroke-width:5;stroke-linecap:round"
     inkscape:connector-curvature="0" />
  <path
     d="m 285.4572,192.46058 c -0.655,20.751 7.208,27.958 1.311,48.49"
     id="path417"
     style="font-size:12px;fill:none;stroke:#6b0000;stroke-width:5;stroke-linecap:round"
     inkscape:connector-curvature="0" />
  <path
     d="m 255.97,193.11588 c -0.655,20.751 7.208,27.958 1.311,48.49"
     id="path418"
     style="font-size:12px;fill:none;stroke:#6b0000;stroke-width:5;stroke-linecap:round"
     inkscape:connector-curvature="0" />
  <path
     d="m 186.5114,193.11588 c -0.655,20.751 7.208,27.958 1.311,48.49"
     id="path422"
     style="font-size:12px;fill:none;stroke:#000000;stroke-width:5"
     inkscape:connector-curvature="0" />
  <path
     d="m 279.5598,192.46058 c -0.655,20.751 7.208,27.958 1.311,48.49"
     id="path423"
     style="font-size:12px;fill:none;stroke:#000000;stroke-width:5"
     inkscape:connector-curvature="0" />
  <path
     d="m 250.0726,193.11588 c -0.655,20.751 7.208,27.958 1.311,48.49"
     id="path424"
     style="font-size:12px;fill:none;stroke:#000000;stroke-width:5"
     inkscape:connector-curvature="0" />
  <path
     d="m 217.3091,193.11588 c -0.655,20.751 7.208,27.958 1.311,48.49"
     id="path425"
     style="font-size:12px;fill:none;stroke:#000000;stroke-width:5"
     inkscape:connector-curvature="0" />
  <path
     d="m 312.3227,192.46058 c -0.655,20.751 7.208,27.958 1.311,48.49"
     id="path426"
     style="font-size:12px;fill:none;stroke:#000000;stroke-width:5"
     inkscape:connector-curvature="0" />
  <path
     d="m 345.7414,193.77188 c -58.789,-1.966 -133.675,3.931 -165.127,-5.898"
     id="path427"
     style="font-size:12px;fill:none;stroke:#000000;stroke-width:5"
     inkscape:connector-curvature="0" />
  <path
     d="m 186.5114,193.11588 c -0.655,20.751 7.208,27.958 1.311,48.49"
     id="path428"
     style="font-size:12px;fill:none;stroke:#000000;stroke-width:5;stroke-linecap:round"
     inkscape:connector-curvature="0" />
  <path
     d="m 279.5598,192.46058 c -0.655,20.751 7.208,27.958 1.311,48.49"
     id="path429"
     style="font-size:12px;fill:none;stroke:#000000;stroke-width:5;stroke-linecap:round"
     inkscape:connector-curvature="0" />
  <path
     d="m 288.1132,166.85398 0,37.9919 16.0167,0 0,-37.9919 -16.0167,0 z"
     id="path70"
     style="font-size:12px;fill:url(#linearGradient48);fill-opacity:1;fill-rule:evenodd;stroke:#ffffff;stroke-width:1.28393996"
     inkscape:connector-curvature="0" />
  <path
     d="m 307.0472,163.66078 c 0,2.9115 0.9785,39.5399 0.6682,45.4248 4.3414,1.0215 17.8947,2.6104 21.0381,4.0071 -0.4989,-13.3601 1.085,-44.979 -0.3338,-52.9951 -3.652,0.9045 -18.7923,3.1174 -21.3725,3.5632 z"
     id="path71"
     style="font-size:12px;fill:#b40000;fill-opacity:1;fill-rule:evenodd;stroke:#000000;stroke-width:2.94257689;stroke-linejoin:round"
     inkscape:connector-curvature="0" />
  <path
     d="m 277.9948,164.11038 c -0.6105,0 -0.3338,1.5405 -0.3338,2.1585 0,10.7936 0.529,35.4032 0.3338,42.7423 -3.6402,0 -16.7736,3.7866 -20.0362,4.3176 -0.346,-5.8363 -1.6318,-47.5896 -0.3343,-52.6722 5.0091,2.2514 15.5118,4.317 17.3648,4.317 0.8908,0 1.7811,0 3.0057,-0.8632 z"
     id="path72"
     style="font-size:12px;fill:#b50000;fill-opacity:1;fill-rule:evenodd;stroke:#000000;stroke-width:2.89730191;stroke-linejoin:round"
     inkscape:connector-curvature="0" />
  <path
     d="m 250.0726,193.11588 c -0.655,20.751 7.208,27.958 1.311,48.49"
     id="path430"
     style="font-size:12px;fill:none;stroke:#000000;stroke-width:5;stroke-linecap:round"
     inkscape:connector-curvature="0" />
  <path
     d="m 217.3091,193.11588 c -0.655,20.751 7.208,27.958 1.311,48.49"
     id="path431"
     style="font-size:12px;fill:none;stroke:#000000;stroke-width:5;stroke-linecap:round"
     inkscape:connector-curvature="0" />
  <path
     d="m 312.3227,192.46058 c -0.655,20.751 7.208,27.958 1.311,48.49"
     id="path432"
     style="font-size:12px;fill:none;stroke:#000000;stroke-width:5;stroke-linecap:round"
     inkscape:connector-curvature="0" />
  <path
     d="m 345.7414,193.77188 c -58.789,-1.966 -133.675,3.931 -165.127,-5.898"
     id="path433"
     style="font-size:12px;fill:none;stroke:#000000;stroke-width:5;stroke-linecap:round"
     inkscape:connector-curvature="0" />
  <path
     d="m 223.2065,193.11588 c -0.655,20.751 7.208,27.958 1.311,48.49"
     id="path419"
     style="font-size:12px;fill:none;stroke:#6b0000;stroke-width:5;stroke-linecap:round"
     inkscape:connector-curvature="0" />
  <path
     d="m 318.2197,192.46058 c -0.655,20.751 7.208,27.958 1.311,48.49"
     id="path420"
     style="font-size:12px;fill:none;stroke:#6b0000;stroke-width:5;stroke-linecap:round"
     inkscape:connector-curvature="0" />
  <path
     d="m 351.6388,193.77188 c -58.789,-1.966 -133.6749,3.931 -165.1269,-5.898"
     id="path421"
     style="font-size:12px;fill:none;stroke:#720000;stroke-width:5;stroke-linecap:round"
     inkscape:connector-curvature="0" />
  <path
     d="m 174.7628,98.21768 0,49.6559 50.6378,0 0,-49.6559 -50.6378,0 z"
     id="path435"
     style="font-size:12px;fill:url(#linearGradient132);fill-opacity:1;fill-rule:evenodd;stroke:#ffffff;stroke-width:2.60996103"
     inkscape:connector-curvature="0" />
  <path
     d="m 228.4487,95.08498 c 0,3.4248 1.92,46.5103 1.311,53.4326 8.519,1.2016 35.114,3.0706 41.282,4.7135 -0.979,-15.7153 2.129,-52.9082 -0.655,-62.3375 -7.166,1.064 -36.875,3.667 -41.938,4.1914 z"
     id="path436"
     style="font-size:12px;fill:#b40000;fill-opacity:1;fill-rule:evenodd;stroke:#000000;stroke-width:4.47055578;stroke-linejoin:round"
     inkscape:connector-curvature="0" />
  <path
     d="m 171.4407,95.61238 c -1.198,0 -0.655,1.812 -0.655,2.539 0,12.6964 1.038,41.6443 0.655,50.2772 -7.143,0 -32.914,4.4541 -39.316,5.0788 -0.679,-6.8652 -3.202,-55.9792 -0.656,-61.9577 9.829,2.6483 30.438,5.078 34.074,5.078 1.748,0 3.495,0 5.898,-1.0153 z"
     id="path437"
     style="font-size:12px;fill:#b50000;fill-opacity:1;fill-rule:evenodd;stroke:#000000;stroke-width:4.40176916;stroke-linejoin:round"
     inkscape:connector-curvature="0" />
  <path
     d="m 217.9647,190.49598 1.311,19.002 84.53,-0.655 0,-18.347 -85.841,0 z"
     id="path439"
     style="font-size:12px;fill-opacity:1;fill-rule:evenodd"
     inkscape:connector-curvature="0" />
  <path
     d="m 219.2752,186.56428 1.311,19.002 84.53,-0.655 0,-18.347 -85.841,0 z"
     id="path440"
     style="font-size:12px;fill:#98621d;fill-opacity:1;fill-rule:evenodd"
     inkscape:connector-curvature="0" />
  <path
     d="m 238.9337,185.90868 c -2.496,2.495 -10.545,3.871 -12.45,1.966 -1.922,-1.922 -4.587,-8.997 -4.587,-12.451 7.816,-3.908 15.487,2.621 23.589,2.621 3.833,1.278 0.624,1.342 2.621,-0.655 0.563,-1.688 0.363,-4.587 1.966,-4.587 0.845,-2.534 1.311,-3.804 1.311,-6.553 2.068,1.379 5.028,4.587 7.208,4.587 0,1.29 8.238,0.656 7.208,0.656 -0.705,2.817 -1.728,7.416 2.621,5.242 2.105,-4.212 3.931,-7.57 3.931,-12.45 0,3.329 0.656,6.86 0.656,10.484 5.4,1.8 6.203,-2.927 9.829,-6.553 2.513,-5.027 1.965,-5.676 1.965,-1.31 0,3.201 -1.182,5.242 1.966,5.242 1.335,-1.668 4.587,-8.524 4.587,-3.932 0,1.335 -0.586,8.449 2.621,5.242 4.167,-4.166 4.84,-3.379 6.553,-8.518 0.218,-0.218 0.437,-0.437 0.655,-0.655 -0.859,3.436 -1.724,7.379 -3.276,10.484 -1.833,0.917 -3.34,3.868 -5.242,1.966 -3.527,0 -0.656,7.601 -0.656,10.485 0.655,7.498 -10.996,0.654 -8.518,-2.622 -4.15,4.587 -8.3,0.655 -12.45,0.655 -9.244,5.605 -8.722,1.311 -12.45,1.311 -2.067,0 -6.553,0.89 -6.553,2.621 -3.985,0 -7.015,-1.311 -11.14,-1.311 -0.218,-0.218 -0.436,-0.436 -1.965,-1.965 z"
     id="path441"
     style="font-size:12px;fill:#117d00;fill-opacity:1;fill-rule:evenodd"
     inkscape:connector-curvature="0" />
  <path
     d="m 229.5891,166.40188 c 0,1.344 -3.859,3.338 -5.213,4.692 -1.205,1.507 -4.831,5.074 -2.606,7.299 1.909,0.954 4.17,0.905 4.17,3.127 1.121,2.241 -0.086,2.607 2.607,2.607 3.115,0 4.692,-3.402 4.692,-6.256 0.758,-0.758 0.183,-2.085 1.563,-2.085 0.7,-0.699 2.658,-2.607 1.564,-2.607 -0.888,-1.776 -3.649,-1.205 -3.649,-2.606 -1.065,-1.066 -2.561,-3.128 -3.128,-4.171 z"
     id="path63"
     style="font-size:12px;fill:#890000;fill-opacity:1;fill-rule:evenodd"
     inkscape:connector-curvature="0" />
  <path
     d="m 267.6451,166.40188 c 0,1.411 -1.378,3.8 -2.085,5.213 0,1.884 2.085,0.704 2.085,3.128 -0.726,0.364 -5.019,3.65 -2.085,3.65 2.541,1.27 3.209,-0.081 4.692,-1.564 1.146,-1.147 -0.372,-6.256 1.564,-6.256 3.126,-3.126 0.937,-1.149 -0.522,-2.607 -0.673,0 -3.649,-1.353 -3.649,0 2.976,0 0,-1.353 0,-1.564 z"
     id="path65"
     style="font-size:12px;fill:#890000;fill-opacity:1;fill-rule:evenodd"
     inkscape:connector-curvature="0" />
  <path
     d="m 232.1957,161.18868 c 0,1.344 -3.859,3.338 -5.213,4.692 -1.205,1.507 -4.831,5.074 -2.606,7.299 1.909,0.954 4.17,0.905 4.17,3.127 1.121,2.241 -0.086,2.607 2.607,2.607 3.115,0 4.692,-3.402 4.692,-6.256 0.758,-0.758 0.183,-2.085 1.563,-2.085 0.7,-0.699 2.658,-2.607 1.564,-2.607 -0.888,-1.776 -3.649,-1.205 -3.649,-2.606 -1.065,-1.066 -2.561,-3.128 -3.128,-4.171 z"
     id="path59"
     style="font-size:12px;fill:#ff0000;fill-opacity:1;fill-rule:evenodd"
     inkscape:connector-curvature="0" />
  <path
     d="m 270.2517,161.18868 c 0,1.411 -1.378,3.8 -2.085,5.213 0,1.884 2.085,0.704 2.085,3.128 -0.726,0.364 -5.019,3.65 -2.085,3.65 2.541,1.27 3.209,-0.081 4.692,-1.564 1.146,-1.147 -0.372,-6.256 1.564,-6.256 3.126,-3.126 0.937,-1.149 -0.522,-2.607 -0.673,0 -3.649,-1.353 -3.649,0 2.976,0 0,-1.353 0,-1.564 z"
     id="path61"
     style="font-size:12px;fill:#ff0000;fill-opacity:1;fill-rule:evenodd"
     inkscape:connector-curvature="0" />
  <path
     d="m 286.4131,166.92388 c -1.858,0 -4.114,0.985 -5.214,2.085 -3.634,0 -2.192,4.278 -4.691,6.777 0,2.208 0.82,2.607 3.127,2.607 1.895,0.473 7.299,1.455 7.299,-2.086 1.446,-2.891 0.091,-5.213 3.649,-5.213 2.244,-1.122 1.826,-1.433 -0.521,-2.606 -1.623,-1.082 -1.815,-1.564 -3.649,-1.564 z"
     id="path66"
     style="font-size:12px;fill:#890000;fill-opacity:1;fill-rule:evenodd"
     inkscape:connector-curvature="0" />
  <path
     d="m 289.0197,161.71068 c -1.858,0 -4.114,0.985 -5.214,2.085 -3.634,0 -2.192,4.278 -4.691,6.777 0,2.208 0.82,2.607 3.127,2.607 1.895,0.473 7.299,1.455 7.299,-2.086 1.446,-2.891 0.091,-5.213 3.649,-5.213 2.244,-1.122 1.826,-1.433 -0.521,-2.606 -1.623,-1.082 -1.815,-1.564 -3.649,-1.564 z"
     id="path62"
     style="font-size:12px;fill:#ff0000;fill-opacity:1;fill-rule:evenodd"
     inkscape:connector-curvature="0" />
  <path
     d="m 253.0481,164.83788 c -2.29,0 -4.245,2.086 -6.777,2.086 -0.832,0.832 -1.073,5.734 -2.085,5.734 -0.654,1.308 -1.344,4.171 0.521,4.171 1.931,0.643 1.491,0.594 0,2.085 -1.398,0.699 -5.992,3.649 -2.606,3.649 3.257,0 3.077,-5.213 6.256,-5.213 1.918,-1.918 5.136,-2.085 7.819,-2.085 2.907,-2.907 -1.384,-3.991 -3.128,-5.735 -0.535,-0.535 1.105,-1.104 2.086,-2.085 1.043,-1.043 0.061,-1.564 -2.086,-2.607 z"
     id="path64"
     style="font-size:12px;fill:#890000;fill-opacity:1;fill-rule:evenodd"
     inkscape:connector-curvature="0" />
  <path
     d="m 255.6547,159.62468 c -2.29,0 -4.245,2.086 -6.777,2.086 -0.832,0.832 -1.073,5.734 -2.085,5.734 -0.654,1.308 -1.344,4.171 0.521,4.171 1.931,0.643 1.491,0.594 0,2.085 -1.398,0.699 -5.992,3.649 -2.606,3.649 3.257,0 3.077,-5.213 6.256,-5.213 1.918,-1.918 5.136,-2.085 7.819,-2.085 2.907,-2.907 -1.384,-3.991 -3.128,-5.735 -0.535,-0.535 1.105,-1.104 2.086,-2.085 1.043,-1.043 0.061,-1.564 -2.086,-2.607 z"
     id="path60"
     style="font-size:12px;fill:#ff0000;fill-opacity:1;fill-rule:evenodd"
     inkscape:connector-curvature="0" />
  <path
     d="m 104.2693,166.18058 0,48.6374 38.9595,0 0,-48.6374 -38.9595,0 z"
     id="path67"
     style="font-size:12px;fill:url(#linearGradient142);fill-opacity:1;fill-rule:evenodd;stroke:#ffffff;stroke-width:2.26570392"
     inkscape:connector-curvature="0" />
  <path
     d="m 148.3235,163.81958 c 0,3.3606 1.3624,45.6387 0.9302,52.4313 6.0447,1.1791 24.9152,3.0131 29.2917,4.6252 -0.6947,-15.4208 1.5106,-51.9168 -0.4648,-61.1694 -5.0846,1.0441 -26.1646,3.5983 -29.7571,4.1129 z"
     id="path68"
     style="font-size:12px;fill:#b40000;fill-opacity:1;fill-rule:evenodd;stroke:#000000;stroke-width:3.73031211;stroke-linejoin:round"
     inkscape:connector-curvature="0" />
  <path
     d="m 100.8358,163.55638 c -0.8501,0 -0.4648,1.778 -0.4648,2.4914 0,12.4585 0.7365,40.8639 0.4648,49.3351 -5.0684,0 -23.3542,4.3706 -27.89671,4.9836 -0.48179,-6.7366 -2.27198,-54.9302 -0.46547,-60.7967 6.97418,2.5986 21.59728,4.9828 24.17718,4.9828 1.2403,0 2.4799,0 4.185,-0.9962 z"
     id="path69"
     style="font-size:12px;fill:#b50000;fill-opacity:1;fill-rule:evenodd;stroke:#000000;stroke-width:3.67291689;stroke-linejoin:round"
     inkscape:connector-curvature="0" />
  <path
     d="m 339.3267,85.59868 c -10.439,-8.093 -27.917,-15.776 -42.52,-28.151 6.453,-12.907 2.053,-27.858 32.256,-24.6323 16.465,1.2167 12.023,14.7913 13.196,22.2853 1.173,9.356 8.487,21.114 -2.932,30.498 z"
     id="path74"
     style="font-size:12px;fill:#ffffff;fill-opacity:1;fill-rule:evenodd;stroke:#000000;stroke-width:5"
     inkscape:connector-curvature="0" />
  <path
     d="m 199.7438,96.87238 c 0,7.383 0,46.817 0,50.438"
     id="path75"
     style="font-size:12px;fill:none;stroke:#ffffff;stroke-width:5"
     inkscape:connector-curvature="0" />
  <path
     d="m 224.6772,122.54658 c -7.3411,0 -46.5515,0 -50.1519,0"
     id="path76"
     style="font-size:12px;fill:none;stroke:#ffffff;stroke-width:4.98579788"
     inkscape:connector-curvature="0" />
  <path
     d="m 123.1106,165.38258 c 0,7.383 0,46.817 0,50.438"
     id="path77"
     style="font-size:12px;fill:none;stroke:#ffffff;stroke-width:5"
     inkscape:connector-curvature="0" />
  <path
     d="m 142.3121,190.18718 c -5.6088,0 -35.5666,0 -38.3174,0"
     id="path78"
     style="font-size:12px;fill:none;stroke:#ffffff;stroke-width:4.35801888"
     inkscape:connector-curvature="0" />
</svg>
