<?xml version="1.0" encoding="UTF-8" standalone="no"?>
<!-- Created with Sodipodi ("http://www.sodipodi.com/") -->

<svg
   xmlns:dc="http://purl.org/dc/elements/1.1/"
   xmlns:cc="http://creativecommons.org/ns#"
   xmlns:rdf="http://www.w3.org/1999/02/22-rdf-syntax-ns#"
   xmlns:svg="http://www.w3.org/2000/svg"
   xmlns="http://www.w3.org/2000/svg"
   xmlns:xlink="http://www.w3.org/1999/xlink"
   xmlns:sodipodi="http://sodipodi.sourceforge.net/DTD/sodipodi-0.dtd"
   xmlns:inkscape="http://www.inkscape.org/namespaces/inkscape"
   height="413.94696"
   id="svg32"
   version="1.0"
   width="428.81995"
   x="0"
   y="0"
   inkscape:version="0.48.1 r9760"
   sodipodi:docname="home12.svg">
  <sodipodi:namedview
     pagecolor="#ffffff"
     bordercolor="#666666"
     borderopacity="1"
     objecttolerance="10"
     gridtolerance="10"
     guidetolerance="10"
     inkscape:pageopacity="0"
     inkscape:pageshadow="2"
     inkscape:window-width="640"
     inkscape:window-height="480"
     id="namedview3554"
     showgrid="false"
     fit-margin-top="0"
     fit-margin-left="0"
     fit-margin-right="0"
     fit-margin-bottom="0"
     inkscape:zoom="0.70171429"
     inkscape:cx="216.13453"
     inkscape:cy="214.5407"
     inkscape:window-x="0"
     inkscape:window-y="0"
     inkscape:window-maximized="0"
     inkscape:current-layer="svg32" />
  <metadata
     id="metadata3497">
    <rdf:RDF>
      <cc:Work
         rdf:about="">
        <dc:title>Lemon SVG theme</dc:title>
        <dc:description />
        <dc:subject>
          <rdf:Bag>
            <rdf:li>icon</rdf:li>
            <rdf:li />
            <rdf:li>lemon_theme_icon</rdf:li>
            <rdf:li>icons</rdf:li>
            <rdf:li>hash</rdf:li>
            <rdf:li>filesystem</rdf:li>
            <rdf:li>computer</rdf:li>
            <rdf:li>theme</rdf:li>
          </rdf:Bag>
        </dc:subject>
        <dc:publisher>
          <cc:Agent
             rdf:about="http://www.openclipart.org">
            <dc:title>Jose Hevia</dc:title>
          </cc:Agent>
        </dc:publisher>
        <dc:creator>
          <cc:Agent>
            <dc:title>Jose Hevia</dc:title>
          </cc:Agent>
        </dc:creator>
        <dc:rights>
          <cc:Agent>
            <dc:title>Jose Hevia</dc:title>
          </cc:Agent>
        </dc:rights>
        <dc:date />
        <dc:format>image/svg+xml</dc:format>
        <dc:type
           rdf:resource="http://purl.org/dc/dcmitype/StillImage" />
        <cc:license
           rdf:resource="http://web.resource.org/cc/PublicDomain" />
        <dc:language>en</dc:language>
      </cc:Work>
      <cc:License
         rdf:about="http://web.resource.org/cc/PublicDomain">
        <cc:permits
           rdf:resource="http://web.resource.org/cc/Reproduction" />
        <cc:permits
           rdf:resource="http://web.resource.org/cc/Distribution" />
        <cc:permits
           rdf:resource="http://web.resource.org/cc/DerivativeWorks" />
      </cc:License>
    </rdf:RDF>
  </metadata>
  <defs
     id="defs34">
    <linearGradient
       id="linearGradient60">
      <stop
         id="stop61"
         offset="0"
         style="stop-color:#ffffb2;stop-opacity:0.9608;" />
      <stop
         id="stop62"
         offset="1"
         style="stop-color:#000000;stop-opacity:0.4588;" />
    </linearGradient>
    <linearGradient
       id="linearGradient57">
      <stop
         id="stop58"
         offset="0"
         style="stop-color:#ffff9f;stop-opacity:0.9608;" />
      <stop
         id="stop59"
         offset="1"
         style="stop-color:#000000;stop-opacity:0.4588;" />
    </linearGradient>
    <linearGradient
       id="linearGradient129">
      <stop
         id="stop130"
         offset="0"
         style="stop-color:#ffffff;stop-opacity:0.6235;" />
      <stop
         id="stop131"
         offset="1"
         style="stop-color:#000000;stop-opacity:0.4588;" />
    </linearGradient>
    <linearGradient
       id="linearGradient132"
       x1="114.53009"
       x2="114.19837"
       xlink:href="#linearGradient129"
       y1="440.64917"
       y2="475.83142"
       gradientTransform="matrix(1.9098344,0,0,0.52360561,-2.615466,-19.34375)"
       gradientUnits="userSpaceOnUse" />
    <linearGradient
       id="linearGradient142"
       x1="443.58289"
       x2="396.33187"
       xlink:href="#linearGradient129"
       y1="115.95136"
       y2="116.26398"
       gradientTransform="matrix(0.40914534,0,0,2.4441193,-2.615466,-19.34375)"
       gradientUnits="userSpaceOnUse" />
    <linearGradient
       id="linearGradient48"
       x1="682.28776"
       x2="608.5682"
       xlink:href="#linearGradient129"
       y1="121.6592"
       y2="123.47967"
       gradientTransform="matrix(0.40678148,0,0,2.4583223,-2.615466,-19.34375)"
       gradientUnits="userSpaceOnUse" />
    <linearGradient
       id="linearGradient49"
       x1="117.01196"
       x2="134.12114"
       xlink:href="#linearGradient129"
       y1="122.60553"
       y2="141.32205"
       gradientTransform="matrix(1.1330002,0,0,0.88261239,-2.615466,-19.34375)"
       gradientUnits="userSpaceOnUse" />
    <linearGradient
       id="linearGradient50"
       x1="253.34478"
       x2="244.36225"
       xlink:href="#linearGradient129"
       y1="112.07285"
       y2="121.637"
       gradientTransform="matrix(1.1474223,0,0,0.87151872,-2.615466,-19.34375)"
       gradientUnits="userSpaceOnUse" />
    <linearGradient
       id="linearGradient53"
       x1="192.95767"
       x2="265.99028"
       xlink:href="#linearGradient129"
       y1="244.25161"
       y2="245.28965"
       gradientTransform="matrix(0.78837704,0,0,1.2684286,-2.615466,-19.34375)"
       gradientUnits="userSpaceOnUse" />
    <linearGradient
       id="linearGradient54"
       x1="299.64854"
       x2="260.15428"
       xlink:href="#linearGradient129"
       y1="161.57728"
       y2="201.41352"
       gradientTransform="scale(1.0701518,0.93444684)"
       gradientUnits="userSpaceOnUse" />
    <linearGradient
       inkscape:collect="always"
       xlink:href="#linearGradient129"
       id="linearGradient4276"
       x1="67.023713"
       y1="685.181"
       x2="66.222254"
       y2="770.18327"
       gradientTransform="matrix(3.5569076,0,0,0.28114309,-2.615466,-19.34375)"
       gradientUnits="userSpaceOnUse" />
    <linearGradient
       inkscape:collect="always"
       xlink:href="#linearGradient129"
       id="linearGradient4278"
       x1="67.370308"
       y1="620.31787"
       x2="66.562487"
       y2="705.99487"
       gradientTransform="matrix(3.5550647,0,0,0.28128883,-2.615466,-19.34375)"
       gradientUnits="userSpaceOnUse" />
    <linearGradient
       inkscape:collect="always"
       xlink:href="#linearGradient129"
       id="linearGradient4280"
       x1="66.251221"
       y1="761.71614"
       x2="65.46344"
       y2="845.26774"
       gradientTransform="matrix(3.580115,0,0,0.27932063,-2.615466,-19.34375)"
       gradientUnits="userSpaceOnUse" />
    <linearGradient
       inkscape:collect="always"
       xlink:href="#linearGradient129"
       id="linearGradient4282"
       x1="64.080968"
       y1="445.48226"
       x2="63.625288"
       y2="493.8114"
       gradientTransform="matrix(1.9470473,0,0,0.51359819,-2.615466,-19.34375)"
       gradientUnits="userSpaceOnUse" />
    <linearGradient
       inkscape:collect="always"
       xlink:href="#linearGradient129"
       id="linearGradient4284"
       x1="154.13844"
       y1="481.93839"
       x2="153.67355"
       y2="531.2439"
       gradientTransform="matrix(2.088492,0,0,0.47881438,-2.615466,-19.34375)"
       gradientUnits="userSpaceOnUse" />
    <linearGradient
       inkscape:collect="always"
       xlink:href="#linearGradient129"
       id="linearGradient4286"
       x1="64.105267"
       y1="486.94812"
       x2="63.655535"
       y2="534.64647"
       gradientTransform="matrix(1.952772,0,0,0.51209255,-2.615466,-19.34375)"
       gradientUnits="userSpaceOnUse" />
    <linearGradient
       inkscape:collect="always"
       xlink:href="#linearGradient129"
       id="linearGradient4288"
       x1="60.689441"
       y1="558.48913"
       x2="60.26656"
       y2="603.33967"
       gradientTransform="matrix(2.0676036,0,0,0.48365169,-2.615466,-19.34375)"
       gradientUnits="userSpaceOnUse" />
    <linearGradient
       inkscape:collect="always"
       xlink:href="#linearGradient129"
       id="linearGradient4290"
       x1="62.85249"
       y1="571.29788"
       x2="62.410847"
       y2="618.13827"
       gradientTransform="matrix(1.9935862,0,0,0.5016086,-2.615466,-19.34375)"
       gradientUnits="userSpaceOnUse" />
    <linearGradient
       inkscape:collect="always"
       xlink:href="#linearGradient129"
       id="linearGradient4292"
       x1="61.839229"
       y1="614.83567"
       x2="61.401885"
       y2="661.22014"
       gradientTransform="matrix(2.0132768,0,0,0.49670268,-2.615466,-19.34375)"
       gradientUnits="userSpaceOnUse" />
    <linearGradient
       inkscape:collect="always"
       xlink:href="#linearGradient129"
       id="linearGradient4294"
       x1="61.412269"
       y1="651.13722"
       x2="60.973456"
       y2="697.67756"
       gradientTransform="matrix(2.0113473,0,0,0.49717918,-2.615466,-19.34375)"
       gradientUnits="userSpaceOnUse" />
    <linearGradient
       inkscape:collect="always"
       xlink:href="#linearGradient129"
       id="linearGradient4296"
       x1="62.766647"
       y1="670.38922"
       x2="62.321211"
       y2="717.63187"
       gradientTransform="matrix(1.9651909,0,0,0.5088564,-2.615466,-19.34375)"
       gradientUnits="userSpaceOnUse" />
    <linearGradient
       inkscape:collect="always"
       xlink:href="#linearGradient129"
       id="linearGradient4298"
       x1="148.75835"
       y1="542.08853"
       x2="148.31583"
       y2="589.02152"
       gradientTransform="matrix(2.155095,0,0,0.46401667,-2.615466,-19.34375)"
       gradientUnits="userSpaceOnUse" />
    <linearGradient
       inkscape:collect="always"
       xlink:href="#linearGradient129"
       id="linearGradient4300"
       x1="156.17178"
       y1="550.25468"
       x2="155.71163"
       y2="599.05781"
       gradientTransform="matrix(2.0483873,0,0,0.48818893,-2.615466,-19.34375)"
       gradientUnits="userSpaceOnUse" />
    <linearGradient
       inkscape:collect="always"
       xlink:href="#linearGradient129"
       id="linearGradient4302"
       x1="155.33521"
       y1="594.5185"
       x2="154.88797"
       y2="641.95305"
       gradientTransform="matrix(2.057134,0,0,0.4861132,-2.615466,-19.34375)"
       gradientUnits="userSpaceOnUse" />
    <linearGradient
       inkscape:collect="always"
       xlink:href="#linearGradient129"
       id="linearGradient4304"
       x1="152.6504"
       y1="644.39293"
       x2="152.20879"
       y2="691.22976"
       gradientTransform="matrix(2.0917639,0,0,0.47806543,-2.615466,-19.34375)"
       gradientUnits="userSpaceOnUse" />
    <linearGradient
       inkscape:collect="always"
       xlink:href="#linearGradient129"
       id="linearGradient4306"
       x1="155.83054"
       y1="668.47164"
       x2="155.38443"
       y2="715.78627"
       gradientTransform="matrix(2.0524068,0,0,0.48723285,-2.615466,-19.34375)"
       gradientUnits="userSpaceOnUse" />
    <linearGradient
       inkscape:collect="always"
       xlink:href="#linearGradient129"
       id="linearGradient4308"
       x1="143.08052"
       y1="771.23255"
       x2="142.6712"
       y2="814.64478"
       gradientTransform="matrix(2.2368493,0,0,0.44705739,-2.615466,-19.34375)"
       gradientUnits="userSpaceOnUse" />
    <linearGradient
       inkscape:collect="always"
       xlink:href="#linearGradient129"
       id="linearGradient4310"
       x1="70.740245"
       y1="528.22508"
       x2="69.930613"
       y2="614.09413"
       gradientTransform="matrix(3.4423215,0,0,0.29050163,-2.615466,-19.34375)"
       gradientUnits="userSpaceOnUse" />
    <linearGradient
       inkscape:collect="always"
       xlink:href="#linearGradient129"
       id="linearGradient4312"
       x1="73.694997"
       y1="440.55605"
       x2="72.989129"
       y2="515.41995"
       gradientTransform="matrix(3.2112047,0,0,0.31140961,-2.615466,-19.34375)"
       gradientUnits="userSpaceOnUse" />
    <linearGradient
       inkscape:collect="always"
       xlink:href="#linearGradient129"
       id="linearGradient4314"
       x1="79.19979"
       y1="353.09816"
       x2="78.581074"
       y2="418.71874"
       gradientTransform="matrix(2.9718359,0,0,0.33649233,-2.615466,-19.34375)"
       gradientUnits="userSpaceOnUse" />
    <linearGradient
       inkscape:collect="always"
       xlink:href="#linearGradient129"
       id="linearGradient4316"
       x1="87.62277"
       y1="268.70672"
       x2="87.106102"
       y2="323.50425"
       gradientTransform="matrix(2.6449049,0,0,0.37808542,-2.615466,-19.34375)"
       gradientUnits="userSpaceOnUse" />
    <linearGradient
       inkscape:collect="always"
       xlink:href="#linearGradient129"
       id="linearGradient4318"
       x1="100.72833"
       y1="192.64484"
       x2="100.31028"
       y2="236.98231"
       gradientTransform="matrix(2.2697883,0,0,0.44056973,-2.615466,-19.34375)"
       gradientUnits="userSpaceOnUse" />
    <linearGradient
       inkscape:collect="always"
       xlink:href="#linearGradient129"
       id="linearGradient4320"
       x1="144.33102"
       y1="100.33265"
       x2="143.99197"
       y2="136.29247"
       gradientTransform="matrix(1.5507914,0,0,0.64483205,-2.615466,-19.34375)"
       gradientUnits="userSpaceOnUse" />
  </defs>
  <path
     d="m 34.348794,312.23695 c 2.7652,15.582 -14.2159,17.748 -16.3818,24.245 15.3078,11.025 -24.445997,27.825 -17.03679702,32.764 5.26040002,4.603 83.47079702,36.124 96.32479702,37.35 78.711036,15.182 242.050936,4.331 271.937936,-9.829 35.815,-20.16 53.926,-22.346 59.627,-32.108 -3.375,-8.095 -35.034,-23.199 -28.175,-29.487 -5.715,-7.143 -30.348,-6.403 -24.901,-21.624 -17.264,-4.933 -3.372,-0.032 -15.726,-9.174 -4.616,-1.154 -5.819,-11.14 -10.485,-11.14 -42.088,-28.252 -247.4609,-19.002 -290.938936,4.588 -6.202,12.333 -16.999,12 -24.2452,14.415 z"
     id="path19"
     style="font-size:12px;fill:#42aa44;fill-opacity:1;fill-rule:evenodd"
     inkscape:connector-curvature="0" />
  <path
     d="m 67.373264,347.83945 c 6.11362,12.745 -26.94784,44.08 -15.47602,49.638 131.304686,-13.288 171.206286,-22.008 243.446986,2.948 8.3221,-6.048 80.5009,-51.179 63.3984,-55.534 -26.4442,-3.932 -186.1002,-5.023 -291.369366,2.948 z"
     id="path20"
     style="font-size:12px;fill-opacity:0.22660104;fill-rule:evenodd"
     inkscape:connector-curvature="0" />
  <path
     d="m 69.697684,327.50765 c 0,-18.98 2.62,-50.238 2.62,-62.251 0,-6.552 -2.621,-93.0479 -2.621,-99.6009 0,-2.369 2.622,-1.107 2.622,-2.621 3.817,-3.817 139.881946,-115.76424 145.687946,-115.76424 73.609,48.92724 78.471,45.86824 85.841,58.53624 22.06,10.485 57.886,41.502 65.308,51.986 1.902,3.804 -0.733,8.096 -1.966,11.795 -0.937,7.493 -7.863,92.7089 -7.863,98.9449 -0.955,6.686 0,43.149 0,55.043 0,4.15 -0.14,13.105 -0.655,21.624 -13.106,-0.656 -37.032,0.735 -42.593,-0.655 -24.9,0.655 -48.296,-1.118 -72.079,-1.311 0.357,-10.484 0.654,-55.916 0.654,-62.906 0,-6.116 0.783,-44.753 0.783,-48.831 -0.766,-1.531 -56.267,-2.218 -65.781,-0.908 0.202,5.343 -2.389,42.873 -2.495,49.739 0,14.198 -0.808,55.197 -0.655,65.527 -14.152,-0.136 -69.895,0.656 -76.011,0.656 -9.828946,0 -19.657946,0 -29.486946,0 -1.669,-0.835 -1.31,-13.567 -1.31,-19.003 z"
     id="path12"
     style="font-size:12px;fill:#9b6200;fill-opacity:1;fill-rule:evenodd;stroke:#000000"
     inkscape:connector-curvature="0" />
  <path
     d="m 9.412284,185.31475 c 2.7671,4.95 -0.8291,0.654 10.4843,10.4829 5.9165,6.534 9.4986,-5.7869 15.7271,-7.8629 63.70295,-44.453 182.169946,-139.89644 220.063946,-169.49554 -3.169,-1.5843 -9.288,-7.9776 -11.892,-10.5812 -2.568,0 -18.628,10.8665 -29.939,18.8807 -98.221,72.08004 -129.743946,89.52604 -204.444346,158.57604 z"
     id="path13"
     style="font-size:12px;fill:#9b5e00;fill-opacity:1;fill-rule:evenodd;stroke:#000000"
     inkscape:connector-curvature="0" />
  <path
     d="m 70.548374,195.36225 c 8.9788,4.043 23.85747,0.724 31.793856,1.09 8.8682,0.313 53.4473,2.095 66.8946,0.656 11.0474,0.544 79.9606,-0.654 99.177,0.656 24.5497,1.573 72.4724,-0.655 95.5307,-1.311 1.2071,-13.593 2.6751,-10.484 2.5192,-20.313 -21.8915,1.427 -36.6904,3.932 -58.6037,3.932 -12.5178,-1.292 -97.5016,0 -110.0275,0 -15.1671,0 -127.905496,-1.398 -127.905496,-4.369 2.24035,0 -0.41777,9.511 0.62134,19.659 z"
     id="path17"
     style="font-size:12px;fill:url(#linearGradient4276);fill-opacity:1;fill-rule:evenodd;stroke:#412900;stroke-width:0.89858001"
     inkscape:connector-curvature="0" />
  <path
     d="m 70.019924,175.48545 c 8.97881,4.043 26.47853,1.598 34.414906,1.964 8.8682,0.313 56.0683,3.842 69.5155,2.403 11.0475,0.544 71.6609,1.094 90.0037,-0.654 24.5496,1.573 63.2982,1.092 102.0831,-1.748 2.0808,-12.719 1.3646,-10.047 2.5192,-19.876 -21.8915,1.427 -36.6903,1.748 -58.6036,2.621 -12.5179,-1.292 -97.5017,-0.437 -110.0276,-0.437 -15.1671,0 -122.663296,0.787 -122.663296,-2.184 2.24034,0 -9.15475,2.958 -7.24191,17.911 z"
     id="path18"
     style="font-size:12px;fill:url(#linearGradient4278);fill-opacity:1;fill-rule:evenodd;stroke:#6b3400;stroke-width:0.89858001"
     inkscape:connector-curvature="0" />
  <path
     d="m 70.893554,211.51335 c 8.97881,4.043 24.2943,1.161 32.230676,1.527 8.8682,0.313 104.5587,1.658 118.006,0.219 23.7155,-0.766 64.234,3.278 83.4504,4.588 21.055,-2.359 35.7772,-3.713 58.8354,-4.369 -0.977,-12.282 0.9278,-7.863 0.3351,-17.692 -21.8915,1.427 -49.796,3.058 -71.7093,3.058 -12.5179,-1.292 -80.9014,-2.184 -93.4273,-2.184 -15.1671,0 -118.294846,2.097 -127.905476,-0.874 0.49294,5.242 -0.85469,6.889 0.1845,15.727 z"
     id="path21"
     style="font-size:12px;fill:url(#linearGradient4280);fill-opacity:1;fill-rule:evenodd;stroke:#360000;stroke-width:0.89858001"
     inkscape:connector-curvature="0" />
  <path
     d="m 70.998514,231.83865 c 2.75309,4.043 8.11886,1.598 10.55233,1.964 2.71917,0.313 16.38809,2.095 20.511286,0.656 3.3874,0.544 24.5176,-0.654 30.4097,0.656 7.5274,1.573 22.2216,-0.655 29.2917,-1.311 1.3077,-12.282 0.9542,-10.484 0.7725,-20.313 -6.7124,1.427 -11.6868,0.874 -18.4059,0.874 -3.8382,-1.292 -30.7697,-1.31 -34.6104,-1.31 -4.6506,0 -38.373836,1.66 -38.373836,-1.311 0.68694,0 -1.26969,9.51 -0.14738,20.095 z"
     id="path22"
     style="font-size:12px;fill:url(#linearGradient4282);fill-opacity:1;fill-rule:evenodd;stroke:#361c00;stroke-width:0.497574"
     inkscape:connector-curvature="0" />
  <path
     d="m 263.71413,232.49395 c 3.0068,4.043 8.867,1.598 11.5248,1.964 2.9697,0.313 17.8983,2.095 22.4015,0.656 3.6995,0.544 26.777,-0.654 33.2122,0.656 8.2211,1.573 22.522,-0.655 30.2437,-1.311 1.4283,-12.282 2.7894,-10.484 2.591,-20.313 -9.9519,-1.194 -14.0341,0 -21.3724,0 -4.1919,-1.292 -34.8354,3.932 -39.03,3.932 -20.8056,-2.184 -40.3641,-0.961 -40.3641,-3.932 1.1871,1.748 -0.4325,7.763 0.7933,18.348 z"
     id="path23"
     style="font-size:12px;fill:url(#linearGradient4284);fill-opacity:1;fill-rule:evenodd;stroke:#2b0000;stroke-width:0.51999599"
     inkscape:connector-curvature="0" />
  <path
     d="m 71.872194,251.49675 c 2.75309,4.043 7.24518,1.598 9.67865,1.964 2.71917,0.313 23.814486,3.406 27.937686,1.967 3.3874,0.544 17.0912,-1.965 22.9833,-0.655 7.5274,1.573 22.2216,-0.655 29.2917,-1.311 1.3077,-12.282 0.9542,-10.484 0.7725,-20.313 -6.7124,1.427 -10.3764,3.058 -17.0954,3.058 -3.8383,-1.292 -30.333,-1.747 -34.1738,-1.747 -4.6505,0 -39.684076,0.786 -39.684076,-2.185 0.68693,0 0.04085,9.074 0.28944,19.222 z"
     id="path25"
     style="font-size:12px;fill:url(#linearGradient4286);fill-opacity:1;fill-rule:evenodd;stroke:#2c0000;stroke-width:0.497574"
     inkscape:connector-curvature="0" />
  <path
     d="m 72.110984,270.28135 c 2.83115,4.043 5.29114,1.161 7.79361,1.527 2.79627,0.313 21.221136,2.095 26.771936,1.53 3.4834,0.544 19.5337,-1.528 25.5929,-0.218 7.7409,1.573 23.2885,-0.655 30.1222,-3.495 1.3448,-12.282 -0.7661,-6.553 -0.9529,-16.382 -6.9027,1.427 -9.8217,2.185 -16.7313,2.185 -3.9471,-1.292 -30.7437,0 -34.6933,0 -4.7824,0 -31.660566,-2.708 -36.902676,-2.621 -0.60411,6.989 -0.84407,6.889 -1.00047,17.474 z"
     id="path26"
     style="font-size:12px;fill:url(#linearGradient4288);fill-opacity:1;fill-rule:evenodd;stroke:#000000;stroke-width:0.50457901"
     inkscape:connector-curvature="0" />
  <path
     d="m 71.887944,287.75435 c 2.81163,4.043 4.79675,2.035 7.28196,2.401 2.77699,0.313 16.73656,2.095 20.947426,0.656 3.4594,0.544 25.039,-0.654 31.0565,0.656 7.6875,1.573 23.5676,-0.655 30.7881,-1.311 1.3356,-12.282 0.9745,-10.921 0.7889,-20.75 -6.8551,1.427 -12.3629,4.369 -19.2248,4.369 -3.9199,-1.292 -30.5318,0 -34.4542,0 -4.7494,0 -36.615086,-0.524 -36.615086,-3.495 0.70154,0 -1.71497,6.889 -0.5688,17.474 z"
     id="path27"
     style="font-size:12px;fill:url(#linearGradient4290);fill-opacity:1;fill-rule:evenodd;stroke:#230000;stroke-width:0.502837"
     inkscape:connector-curvature="0" />
  <path
     d="m 71.014234,307.41335 c 2.81164,4.043 5.67046,0.724 8.15567,1.09 2.77699,0.313 16.73656,2.095 20.947426,0.656 3.4594,0.544 21.5442,1.967 31.0565,0.656 7.6875,1.573 22.6941,-1.092 30.3515,-3.932 1.3355,-12.2819 0.1006,-6.5519 -0.085,-16.3809 -6.8551,1.427 -11.0524,2.621 -17.9143,2.621 -3.9199,-1.292 -30.5318,-1.311 -34.4542,-1.311 -4.7494,0 -36.615086,0.35 -36.615086,-2.621 0.70154,0 -2.58868,8.637 -1.44251,19.2219 z"
     id="path28"
     style="font-size:12px;fill:url(#linearGradient4292);fill-opacity:1;fill-rule:evenodd;stroke:#000000;stroke-width:0.502837"
     inkscape:connector-curvature="0" />
  <path
     d="m 69.687514,324.88635 c 4.93732,1.422 8.11887,1.598 10.55233,1.964 2.71917,0.313 19.00919,2.969 23.132386,1.53 3.3874,0.544 21.8965,-1.528 27.7886,-0.218 7.5274,1.573 22.2216,-1.092 28.418,-3.058 1.3077,-12.282 1.8279,-8.737 1.6462,-18.566 -6.7124,1.427 -11.2501,3.932 -17.9692,3.932 -3.8382,-1.292 -29.896,0 -33.7367,0 -4.6505,0 -38.810516,-0.524 -38.810516,-3.495 0.68693,0 -1.26972,7.326 -1.0211,17.911 z"
     id="path29"
     style="font-size:12px;fill:url(#linearGradient4294);fill-opacity:1;fill-rule:evenodd;stroke:#310000;stroke-width:0.497574"
     inkscape:connector-curvature="0" />
  <path
     d="m 70.343044,344.98135 c 2.75309,4.043 6.80832,1.162 9.24179,1.528 2.71917,0.313 16.38806,0.784 20.511296,-0.655 3.3873,0.544 24.5176,-0.654 30.4097,0.656 7.5274,1.573 22.2215,-0.655 29.2917,-1.311 1.3077,-12.282 0.9542,-10.484 0.7724,-20.313 -6.7123,1.427 -11.25,3.932 -17.9691,3.932 -3.8382,-1.292 -29.896,0 -33.7367,0 -4.6505,0 -38.810536,-1.835 -38.810536,-4.806 0.68694,0 -0.83286,10.384 0.28945,20.969 z"
     id="path30"
     style="font-size:12px;fill:url(#linearGradient4296);fill-opacity:1;fill-rule:evenodd;stroke:#240000;stroke-width:0.497574"
     inkscape:connector-curvature="0" />
  <path
     d="m 263.69303,250.84155 c 2.9287,4.043 9.9474,1.598 12.5361,1.964 2.8926,0.313 26.6073,3.406 30.9935,1.967 3.6036,0.544 16.9083,-1.965 23.1763,-0.655 8.0077,1.573 22.3288,-0.655 29.85,-1.311 1.3912,-12.282 1.452,-8.737 1.2587,-18.566 -7.1407,1.427 -11.0942,2.185 -18.242,2.185 -4.9567,-0.855 -31.8034,-0.874 -35.8891,-0.874 -4.9473,0 -40.0877,-0.087 -44.4562,-1.311 -0.5798,4.806 -0.4212,6.016 0.7727,16.601 z"
     id="path32"
     style="font-size:12px;fill:url(#linearGradient4298);fill-opacity:1;fill-rule:evenodd;stroke:#270000;stroke-width:0.51320201"
     inkscape:connector-curvature="0" />
  <path
     d="m 262.80463,270.71835 c 2.8702,4.043 10.2116,2.471 12.7487,2.837 2.8349,0.313 16.2115,1.659 20.51,0.22 3.5315,0.544 25.9972,0.219 33.0137,-0.655 7.8476,1.573 23.1668,-0.655 30.5377,-1.311 1.3633,-12.282 0.558,-8.737 0.3685,-18.566 -6.9979,1.427 -11.2918,0.874 -18.2967,0.874 -4.0015,-1.292 -35.0992,0 -39.1033,0 -4.8483,0 -38.3515,0.35 -38.3515,-2.621 0.7161,0 -2.5971,8.637 -1.4271,19.222 z"
     id="path33"
     style="font-size:12px;fill:url(#linearGradient4300);fill-opacity:1;fill-rule:evenodd;stroke:#290000;stroke-width:0.50804597"
     inkscape:connector-curvature="0" />
  <path
     d="m 264.27463,290.15735 c 2.8916,4.043 8.5274,1.598 11.0833,1.964 2.856,0.313 17.2127,2.095 21.5434,0.656 3.5578,0.544 25.7513,-0.654 31.9399,0.656 7.9062,1.573 22.0291,-0.655 29.455,-1.311 1.3736,-12.282 0.3469,-9.829 0.1561,-19.658 -7.0502,1.427 -4.6082,0.656 -13.4128,1.093 -4.0314,-1.292 -34.895,0.873 -38.929,0.873 -4.8845,0 -42.5988,0.35 -42.5988,-2.621 0.7215,0 -0.4159,7.763 0.7629,18.348 z"
     id="path34"
     style="font-size:12px;fill:url(#linearGradient4302);fill-opacity:1;fill-rule:evenodd;stroke:#240000;stroke-width:0.50993901"
     inkscape:connector-curvature="0" />
  <path
     d="m 264.90833,309.16035 c 2.8726,4.043 7.1607,0.943 9.6998,1.309 2.8372,0.313 17.0995,2.095 21.4016,0.656 3.5345,0.544 25.5819,-0.654 31.7298,0.656 7.8542,1.573 23.1862,-0.655 30.5632,-1.311 1.3645,-12.282 0.1219,-7.863 -0.0677,-17.692 -7.0037,1.427 -10.8647,1.311 -17.8754,1.311 -4.0049,-1.292 -33.8148,-1.747 -37.8222,-1.747 -4.8524,0 -39.4791,1.441 -39.4791,-1.53 2.6826,0 0.679,7.763 1.85,18.348 z"
     id="path35"
     style="font-size:12px;fill:url(#linearGradient4304);fill-opacity:1;fill-rule:evenodd;stroke:#240000;stroke-width:0.508259"
     inkscape:connector-curvature="0" />
  <path
     d="m 264.49313,325.10535 c 2.8326,4.043 8.7902,3.345 11.2939,3.711 2.7977,0.313 16.8614,2.095 21.1036,0.656 3.4853,0.544 25.2257,-0.654 31.288,0.656 7.7448,1.573 22.8633,-0.655 30.1376,-1.311 1.3455,-12.282 0.5449,-9.173 0.3579,-19.002 -6.9062,1.427 -11.1381,2.621 -18.0512,2.621 -3.949,-1.292 -30.3225,-1.311 -34.2741,-1.311 -4.7849,0 -42.1661,0.35 -42.1661,-2.621 0.7067,0 -0.8443,6.016 0.3104,16.601 z"
     id="path36"
     style="font-size:12px;fill:url(#linearGradient4306);fill-opacity:1;fill-rule:evenodd;stroke:#140000;stroke-width:0.50470799"
     inkscape:connector-curvature="0" />
  <path
     d="m 264.76503,343.88945 c 6.1271,0.112 8.6251,-0.586 12.4554,-0.22 2.8155,0.313 16.9689,2.313 21.2383,0.874 3.5074,0.544 25.3867,-0.654 31.4877,0.656 7.7942,1.573 21.0435,0 28.3642,-0.656 1.3541,-12.282 0.988,-6.552 0.7999,-16.381 -6.9504,1.427 -12.3041,1.966 -17.9509,3.277 -3.9742,-1.292 -29.6452,-1.966 -33.6221,-1.966 -4.8154,0 -36.9718,0.787 -43.0877,-2.184 -0.1624,5.679 -0.41,6.015 0.3152,16.6 z"
     id="path37"
     style="font-size:12px;fill:url(#linearGradient4308);fill-opacity:1;fill-rule:evenodd;stroke:#240000;stroke-width:0.50631601"
     inkscape:connector-curvature="0" />
  <path
     d="m 22.585024,198.54885 c 5.15553,-6.8767 18.1475,-13.4692 24.67508,-17.9987 7.23541,-5.1373 38.41739,-28.8781 57.837726,-43.4299 8.6701,-9.7724 55.0368,-43.3391 69.3515,-55.2804 20.8953,-17.15462 62.5504,-49.20273 80.4706,-63.72793 -10.1141,-8.99037 -5.7071,-3.94094 -12.1475,-11.38962 -16.5249,14.4291 -26.0891,18.0211 -43.4981,31.32977 -10.7294,6.57607 -80.1464,57.20148 -90.0976,64.80888 -26.465266,16.6383 -95.224166,77.9608 -100.757426,82.5823 4.46553,3.3394 7.51506,6.2482 14.16572,13.1056 z"
     id="path39"
     style="font-size:12px;fill:url(#linearGradient49);fill-opacity:1;fill-rule:evenodd;stroke:#290000;stroke-width:0.89858001"
     inkscape:connector-curvature="0" />
  <path
     d="m 78.756824,157.79365 c 8.54198,2.732 19.05211,0.287 26.988506,0.653 8.8682,0.313 53.4473,2.095 66.8946,0.656 11.0474,0.544 79.9606,-0.654 99.177,0.656 24.5497,1.573 73.7829,-1.092 96.8412,-1.748 -15.3932,-10.971 -22.225,-13.323 -29.3701,-21.405 -7.0385,0.554 -12.2272,3.714 -28.0249,5.461 -12.5178,-1.292 -97.5016,0 -110.0275,0 -15.1671,0 -94.7055,1.224 -100.3842,-1.747 -6.059356,4.805 -10.246776,9.073 -22.094606,17.474 z"
     id="path40"
     style="font-size:12px;fill:url(#linearGradient4310);fill-opacity:1;fill-rule:evenodd;stroke:#430000;stroke-width:0.89858001"
     inkscape:connector-curvature="0" />
  <path
     d="m 102.25053,140.53545 c 8.4314,1.187 51.2632,2.532 64.7105,1.093 11.0474,0.544 81.7079,-1.091 100.9244,0.219 24.5496,-0.611 54.1247,1.748 69.9749,-5.024 -16.0488,-11.627 -10.6486,-6.552 -21.726,-15.726 -21.8915,1.427 -106.3044,-0.436 -118.8303,-0.436 -15.1671,0 -57.5734,-0.524 -72.2076,-0.437 -9.7725,8.737 -17.2398,13.393 -22.8459,20.311 z"
     id="path41"
     style="font-size:12px;fill:url(#linearGradient4312);fill-opacity:1;fill-rule:evenodd;stroke:#4d0000;stroke-width:0.89858001"
     inkscape:connector-curvature="0" />
  <path
     d="m 125.93603,120.00565 c 13.3471,0.548 35.2224,1.875 48.6697,0.436 11.0475,0.544 65.5445,0.22 84.7609,1.53 24.5496,1.573 34.4667,-0.437 57.5249,-1.093 -15.3931,-12.282 -16.5462,-11.576 -25.0018,-18.129 -21.8915,1.427 -1.3056,-0.655 -23.2189,-0.655 -12.5178,-1.292 -52.9435,1.311 -65.4694,1.311 -15.1671,0 -58.2282,1.66 -54.2968,-1.311 5.2985,0.874 -15.4892,9.292 -22.9686,17.911 z"
     id="path42"
     style="font-size:12px;fill:url(#linearGradient4314);fill-opacity:1;fill-rule:evenodd;stroke:#450000;stroke-width:0.89858001"
     inkscape:connector-curvature="0" />
  <path
     d="m 149.86713,102.31215 c 8.8682,0.313 9.9808,2.532 23.428,1.093 11.0475,0.544 78.6502,-1.965 97.8666,-0.655 24.5497,1.573 -2.6653,0.218 20.3929,-0.438 -10.1512,-9.661 -13.9252,-10.483 -23.0364,-17.036 -21.8915,1.427 -55.4119,-0.218 -67.9378,-0.218 -15.1671,0 -23.7171,0.349 -29.1779,-0.656 -6.9336,5.679 -13.0903,12.084 -21.5354,17.91 z"
     id="path43"
     style="font-size:12px;fill:url(#linearGradient4316);fill-opacity:1;fill-rule:evenodd;stroke:#610000;stroke-width:0.89858001"
     inkscape:connector-curvature="0" />
  <path
     d="m 171.11093,84.62025 c 11.0475,0.544 74.4514,1.748 97.5097,1.092 4.2649,-12.28204 -15.4537,-11.35704 -22.1628,-18.12804 -21.8915,1.427 -42.0882,2.184 -54.6141,2.184 -7.741,4.806 -8.8432,8.428 -20.7328,14.85204 z"
     id="path44"
     style="font-size:12px;fill:url(#linearGradient4318);fill-opacity:1;fill-rule:evenodd;stroke:#340000;stroke-width:0.89858001"
     inkscape:connector-curvature="0" />
  <path
     d="m 190.98713,69.54973 c 11.0475,0.544 34.7477,-2.183 53.9641,-0.873 -14.1117,-11.314 -16.337,-13.76 -26.8968,-20.968 -7.959,5.897 -17.3609,14.106 -27.0673,21.841 z"
     id="path45"
     style="font-size:12px;fill:url(#linearGradient4320);fill-opacity:1;fill-rule:evenodd;stroke:#340000;stroke-width:0.89858001"
     inkscape:connector-curvature="0" />
  <path
     d="m 240.06763,119.13125 c 0,12.66 -11.596,22.935 -25.884,22.935 -14.287,0 -25.883,-10.275 -25.883,-22.935 0,-12.659 11.596,-22.934 25.883,-22.934 14.288,0 25.884,10.275 25.884,22.934 z"
     id="path16"
     style="font-size:12px;fill-opacity:1;fill-rule:evenodd;stroke:#000000"
     inkscape:connector-curvature="0" />
  <path
     d="m 179.98523,16.29083 c 2.4509,2.08114 11.0648,11.59935 19.5657,16.37334 2.7839,5.26434 118.3786,87.79258 122.9044,91.63698 3.5796,3.6481 81.5523,60.8537 83.7786,58.2202 1.7145,-1.3645 13.0917,-10.7378 12.8491,-13.6788 -8.3725,-9.19 -60.2362,-43.3791 -64.5252,-45.1023 -4.4989,-2.496 -65.9717,-42.1195 -71.2443,-46.59925 -4.5577,-3.20873 -49.8854,-37.94017 -55.0864,-42.48306 -6.7794,-3.79123 -35.2608,-28.24671 -40.0674,-33.6591 -3.075,2.59854 -6.533,14.89194 -8.1745,15.29199 z"
     id="path14"
     style="font-size:12px;fill:#9c6100;fill-opacity:1;fill-rule:evenodd;stroke:#000000;stroke-width:1.06434095"
     inkscape:connector-curvature="0" />
  <path
     d="m 180.33523,16.86184 c 4.7249,8.35734 19.4364,16.25885 25.3223,21.04034 6.6281,5.26492 39.8353,31.90036 50.9056,38.32933 8.1747,6.68394 61.6151,44.64774 75.6407,56.56944 17.9718,15.1487 56.2826,40.2864 74.2992,49.2872 9.8135,-7.567 8.2393,-5.1481 13.0236,-13.4671 -12.7284,-13.3938 -25.5083,-18.2076 -42.2985,-30.589 -9.3399,-7.6853 -80.9512,-51.5312 -90.5487,-58.60852 -11.6211,-8.56964 -99.964,-76.39096 -98.3806,-78.80434 1.7166,1.26583 -5.1268,5.57625 -7.9636,16.24265 z"
     id="path38"
     style="font-size:12px;fill:url(#linearGradient50);fill-opacity:1;fill-rule:evenodd;stroke:#3f0000;stroke-width:0.86353803"
     inkscape:connector-curvature="0" />
  <path
     d="m 177.48863,342.19635 c -1.788,-24.394 0,-52.582 0,-56.025 -1.283,-3.851 -0.321,-50.128 2.949,-57.009 6.225,0 27.194,0.983 33.419,0.983 5.57,0 27.9781,-0.5259 30.4441,1.9401 0,8.846 0.0259,44.9119 0.0259,54.0859 -1.966,8.191 -1.466,29.97 0.983,55.043 -18.675,1.336 -49.515,0.919 -67.821,0.982 z"
     id="path51"
     style="font-size:12px;fill:#a47f00;fill-opacity:1;fill-rule:evenodd"
     inkscape:connector-curvature="0" />
  <path
     d="m 244.35253,231.10345 c -2.0102,8.978 2.7611,87.5039 0.047,110.1109 -14.1962,1.062 -59.7603,2.62 -70.7424,-0.983 -0.0871,-15.169 1.6125,-102.8123 2.8557,-112.9573 11.9866,1.378 61.3838,2.8464 67.8397,3.8294 z"
     id="path52"
     style="font-size:12px;fill:url(#linearGradient53);fill-opacity:1;fill-rule:evenodd;stroke-width:0;stroke-linejoin:round"
     inkscape:connector-curvature="0" />
  <path
     d="m 239.90393,119.81515 c 0,13.428 -11.89,24.327 -26.539,24.327 -14.649,0 -26.538,-10.899 -26.538,-24.327 0,-13.429 11.889,-24.327 26.538,-24.327 14.649,0 26.539,10.898 26.539,24.327 z"
     id="path56"
     style="font-size:12px;fill:none;stroke:#806b00;stroke-width:5.59999895"
     inkscape:connector-curvature="0" />
  <ellipse
     cx="283.79547"
     cy="171.28984"
     id="path63"
     rx="28.50424"
     ry="24.57262"
     style="font-size:12px;fill:none;stroke:url(#linearGradient54);stroke-width:5"
     transform="matrix(0.942528,0,0,0.973333,-54.284006,-47.31687)"
     sodipodi:cx="283.79547"
     sodipodi:cy="171.28984"
     sodipodi:rx="28.50424"
     sodipodi:ry="24.57262" />
  <path
     d="m 264.29163,343.36975 c 1.07,-8.457 -0.906,-66.275 -0.906,-72.813 0,-7.807 -0.309,-50.331 -0.309,-56.1959 -7.386,-0.402 -10.906,-0.51 -18.467,-0.51 0,4.8219 -0.105,38.5929 -0.332,56.5439 0,7.798 -0.267,66.264 -0.267,72.91 6.434,0.111 17.335,0.065 20.281,0.065 z"
     id="path47"
     style="font-size:12px;fill:url(#linearGradient48);fill-opacity:1;fill-rule:evenodd;stroke:#280000"
     inkscape:connector-curvature="0" />
  <path
     d="m 179.52463,228.82565 c 1.8191,4.043 6.6749,0.506 8.938,1.527 1.7966,0.313 12.1385,0.784 14.8628,-0.655 6.1698,0.326 15.3255,-0.217 19.2186,0.656 4.9735,-1.703 16.8664,0.656 21.5377,0 0.8641,-12.282 1.0674,-7.426 0.9473,-17.255 -4.435,1.427 -10.4911,0.874 -14.9305,0.874 -2.536,-1.292 -19.7529,0 -22.2905,0 -3.0727,0 -22.2106,-0.087 -27.0159,-0.437 0.0171,7.863 -2.009,4.705 -1.2675,15.29 z"
     id="path48"
     style="font-size:12px;fill:url(#linearGradient132);fill-opacity:1;fill-rule:evenodd;stroke:#000000;stroke-width:0.40445101"
     inkscape:connector-curvature="0" />
  <path
     d="m 160.51273,345.52375 c -2.668,-2.668 2.289,-62.117 2.289,-69.682 0,-7.428 -0.544,-27.534 -1.173,-62.482 7.15,0 12.673,0.57 19.48,1.335 -1.797,4.918 -4.692,55.678 -4.692,62.967 0,7.094 -1.988,64.459 1.035,67.482 0,1.854 -12.259,0.38 -16.939,0.38 z"
     id="path46"
     style="font-size:12px;fill:url(#linearGradient142);fill-opacity:1;fill-rule:evenodd;stroke:#380000"
     inkscape:connector-curvature="0" />
</svg>
