<?xml version="1.0" encoding="UTF-8" standalone="no"?>
<!-- Created with Inkscape (http://www.inkscape.org/) -->

<svg
   xmlns:dc="http://purl.org/dc/elements/1.1/"
   xmlns:cc="http://creativecommons.org/ns#"
   xmlns:rdf="http://www.w3.org/1999/02/22-rdf-syntax-ns#"
   xmlns:svg="http://www.w3.org/2000/svg"
   xmlns="http://www.w3.org/2000/svg"
   xmlns:xlink="http://www.w3.org/1999/xlink"
   xmlns:sodipodi="http://sodipodi.sourceforge.net/DTD/sodipodi-0.dtd"
   xmlns:inkscape="http://www.inkscape.org/namespaces/inkscape"
   height="659.22833"
   id="svg1"
   inkscape:export-filename="/home/egore/workspace/lincity-images/residence-hightec-med.png"
   inkscape:export-xdpi="4.0599999"
   inkscape:export-ydpi="4.0599999"
   inkscape:version="0.48.1 r9760"
   sodipodi:docname="house_christoph_brill_01.svg"
   sodipodi:version="0.32"
   width="731.74744"
   version="1.1">
  <metadata
     id="metadata3668">
    <rdf:RDF>
      <cc:Work
         rdf:about="">
        <dc:title>House</dc:title>
        <dc:description>A house drawn for lincity-ng</dc:description>
        <dc:subject>
          <rdf:Bag>
            <rdf:li>house</rdf:li>
            <rdf:li>building</rdf:li>
          </rdf:Bag>
        </dc:subject>
        <dc:publisher>
          <cc:Agent
             rdf:about="http://www.openclipart.org">
            <dc:title>Christoph Brill</dc:title>
          </cc:Agent>
        </dc:publisher>
        <dc:creator>
          <cc:Agent>
            <dc:title>Christoph Brill</dc:title>
          </cc:Agent>
        </dc:creator>
        <dc:rights>
          <cc:Agent>
            <dc:title>Christoph Brill</dc:title>
          </cc:Agent>
        </dc:rights>
        <dc:date />
        <dc:format>image/svg+xml</dc:format>
        <dc:type
           rdf:resource="http://purl.org/dc/dcmitype/StillImage" />
        <cc:license
           rdf:resource="http://web.resource.org/cc/PublicDomain" />
        <dc:language>en</dc:language>
      </cc:Work>
      <cc:License
         rdf:about="http://web.resource.org/cc/PublicDomain">
        <cc:permits
           rdf:resource="http://web.resource.org/cc/Reproduction" />
        <cc:permits
           rdf:resource="http://web.resource.org/cc/Distribution" />
        <cc:permits
           rdf:resource="http://web.resource.org/cc/DerivativeWorks" />
      </cc:License>
    </rdf:RDF>
  </metadata>
  <defs
     id="defs3">
    <linearGradient
       id="linearGradient18090">
      <stop
         id="stop18091"
         offset="0.0000000"
         style="stop-color:#c69527;stop-opacity:1.0000000;" />
      <stop
         id="stop18094"
         offset="0.52910054"
         style="stop-color:#e7c14d;stop-opacity:1.0000000;" />
      <stop
         id="stop18092"
         offset="1.0000000"
         style="stop-color:#e7b828;stop-opacity:1.0000000;" />
    </linearGradient>
    <linearGradient
       id="linearGradient16840">
      <stop
         id="stop16841"
         offset="0.0000000"
         style="stop-color:#858585;stop-opacity:1.0000000;" />
      <stop
         id="stop16842"
         offset="1.0000000"
         style="stop-color:#e5e5e5;stop-opacity:1.0000000;" />
    </linearGradient>
    <linearGradient
       id="linearGradient16216">
      <stop
         id="stop16217"
         offset="0.0000000"
         style="stop-color:#000000;stop-opacity:0.21960784;" />
      <stop
         id="stop16218"
         offset="1"
         style="stop-color:#000000;stop-opacity:0;" />
    </linearGradient>
    <linearGradient
       id="linearGradient15589">
      <stop
         id="stop15590"
         offset="0.0000000"
         style="stop-color:#000000;stop-opacity:0.49803922;" />
      <stop
         id="stop15591"
         offset="1"
         style="stop-color:#000000;stop-opacity:0;" />
    </linearGradient>
    <linearGradient
       id="linearGradient8654">
      <stop
         id="stop8655"
         offset="0.0000000"
         style="stop-color:#ffffd4;stop-opacity:1.0000000;" />
      <stop
         id="stop8656"
         offset="1.0000000"
         style="stop-color:#acb468;stop-opacity:1.0000000;" />
    </linearGradient>
    <linearGradient
       id="linearGradient8025">
      <stop
         id="stop8026"
         offset="0.0000000"
         style="stop-color:#ffffff;stop-opacity:1.0000000;" />
      <stop
         id="stop8027"
         offset="1.0000000"
         style="stop-color:#dafdff;stop-opacity:1.0000000;" />
    </linearGradient>
    <linearGradient
       id="linearGradient4278">
      <stop
         id="stop4279"
         offset="0.0000000"
         style="stop-color:#ffffd4;stop-opacity:1.0000000;" />
      <stop
         id="stop4280"
         offset="1.0000000"
         style="stop-color:#e2ec88;stop-opacity:1.0000000;" />
    </linearGradient>
    <linearGradient
       id="linearGradient1786">
      <stop
         id="stop1787"
         offset="0.0000000"
         style="stop-color:#d04848;stop-opacity:1.0000000;" />
      <stop
         id="stop1788"
         offset="1.0000000"
         style="stop-color:#6f271b;stop-opacity:1.0000000;" />
    </linearGradient>
    <linearGradient
       gradientTransform="matrix(1.484681,0,0,0.723408,-4.776368,-45.97541)"
       gradientUnits="userSpaceOnUse"
       id="linearGradient1789"
       inkscape:collect="always"
       x1="51.830433"
       x2="532.77954"
       xlink:href="#linearGradient1786"
       y1="214.5527"
       y2="537.91565" />
    <linearGradient
       gradientTransform="matrix(1.035884,0,0,1.036827,-4.776368,-45.97541)"
       gradientUnits="userSpaceOnUse"
       id="linearGradient3656"
       inkscape:collect="always"
       x1="205.22607"
       x2="264.83234"
       xlink:href="#linearGradient1786"
       y1="114.5791"
       y2="165.96384" />
    <linearGradient
       gradientTransform="matrix(0.720822,0,0,1.490009,-4.776368,-45.97541)"
       gradientUnits="userSpaceOnUse"
       id="linearGradient4281"
       inkscape:collect="always"
       x1="339.2066"
       x2="461.9158"
       xlink:href="#linearGradient4278"
       y1="148.34567"
       y2="171.03979" />
    <linearGradient
       gradientTransform="matrix(0.905244,0,0,1.186454,-4.776368,-45.97541)"
       gradientUnits="userSpaceOnUse"
       id="linearGradient4906"
       inkscape:collect="always"
       x1="-209.09377"
       x2="1074.1273"
       xlink:href="#linearGradient4278"
       y1="342.68054"
       y2="385.28748" />
    <linearGradient
       gradientTransform="matrix(0.555481,0,0,1.933516,-4.776368,-45.97541)"
       gradientUnits="userSpaceOnUse"
       id="linearGradient4910"
       inkscape:collect="always"
       x1="323.41699"
       x2="1279.9755"
       xlink:href="#linearGradient4278"
       y1="196.50076"
       y2="220.87001" />
    <radialGradient
       cx="333.59818"
       cy="198.94484"
       fx="333.59818"
       fy="198.94484"
       gradientTransform="matrix(0.86013,0,0,1.248684,-4.776368,-45.97541)"
       gradientUnits="userSpaceOnUse"
       id="radialGradient8028"
       inkscape:collect="always"
       r="121.25512"
       xlink:href="#linearGradient8025" />
    <linearGradient
       gradientTransform="matrix(0.966612,0,0,1.111129,-4.776368,-45.97541)"
       gradientUnits="userSpaceOnUse"
       id="linearGradient8653"
       inkscape:collect="always"
       x1="163.75665"
       x2="216.61328"
       xlink:href="#linearGradient8654"
       y1="173.52608"
       y2="174.03651" />
    <linearGradient
       gradientTransform="matrix(0.4038,0,0,2.659808,-4.776368,-45.97541)"
       gradientUnits="userSpaceOnUse"
       id="linearGradient8660"
       inkscape:collect="always"
       x1="445.45947"
       x2="484.64703"
       xlink:href="#linearGradient8654"
       y1="97.085861"
       y2="97.085861" />
    <linearGradient
       gradientTransform="matrix(2.388927,0,0,0.449587,-4.776368,-45.97541)"
       gradientUnits="userSpaceOnUse"
       id="linearGradient8664"
       inkscape:collect="always"
       x1="75.231277"
       x2="127.27305"
       xlink:href="#linearGradient4278"
       y1="692.11511"
       y2="692.11511" />
    <radialGradient
       cx="375.57907"
       cy="450.65369"
       fx="375.57907"
       fy="450.65369"
       gradientTransform="matrix(0.998846,0,0,0.898367,-129.3753,5.78594)"
       gradientUnits="userSpaceOnUse"
       id="radialGradient11183"
       inkscape:collect="always"
       r="85.661217"
       xlink:href="#linearGradient8025" />
    <linearGradient
       gradientTransform="matrix(0.372221,0,0,2.410747,-3.675871,146.7611)"
       gradientUnits="userSpaceOnUse"
       id="linearGradient11184"
       inkscape:collect="always"
       x1="445.45947"
       x2="484.64703"
       xlink:href="#linearGradient8654"
       y1="97.085861"
       y2="97.085861" />
    <linearGradient
       gradientTransform="matrix(2.202103,0,0,0.407489,-3.572602,146.9227)"
       gradientUnits="userSpaceOnUse"
       id="linearGradient11185"
       inkscape:collect="always"
       x1="75.231277"
       x2="127.27305"
       xlink:href="#linearGradient4278"
       y1="692.11511"
       y2="692.11511" />
    <radialGradient
       cx="375.57907"
       cy="450.65369"
       fx="375.57907"
       fy="450.65369"
       gradientTransform="scale(1.045576,0.956411)"
       gradientUnits="userSpaceOnUse"
       id="radialGradient11190"
       inkscape:collect="always"
       r="85.661217"
       xlink:href="#linearGradient8025" />
    <linearGradient
       gradientTransform="matrix(0.389635,0,0,2.566504,131.5801,150.0835)"
       gradientUnits="userSpaceOnUse"
       id="linearGradient11191"
       inkscape:collect="always"
       x1="445.45947"
       x2="484.64703"
       xlink:href="#linearGradient8654"
       y1="97.085861"
       y2="97.085861" />
    <linearGradient
       gradientTransform="matrix(2.305125,0,0,0.433816,131.6882,150.2555)"
       gradientUnits="userSpaceOnUse"
       id="linearGradient11192"
       inkscape:collect="always"
       x1="75.231277"
       x2="127.27305"
       xlink:href="#linearGradient4278"
       y1="692.11511"
       y2="692.11511" />
    <radialGradient
       cx="375.57907"
       cy="450.65369"
       fx="375.57907"
       fy="450.65369"
       gradientTransform="matrix(0.954179,0,0,0.858193,-226.8034,8.176951)"
       gradientUnits="userSpaceOnUse"
       id="radialGradient11193"
       inkscape:collect="always"
       r="85.661217"
       xlink:href="#linearGradient8025" />
    <linearGradient
       gradientTransform="matrix(0.355576,0,0,2.302941,-106.7251,142.8477)"
       gradientUnits="userSpaceOnUse"
       id="linearGradient11194"
       inkscape:collect="always"
       x1="445.45947"
       x2="484.64703"
       xlink:href="#linearGradient8654"
       y1="97.085861"
       y2="97.085861" />
    <linearGradient
       gradientTransform="matrix(2.103627,0,0,0.389266,-106.6264,143.0021)"
       gradientUnits="userSpaceOnUse"
       id="linearGradient11195"
       inkscape:collect="always"
       x1="75.231277"
       x2="127.27305"
       xlink:href="#linearGradient4278"
       y1="692.11511"
       y2="692.11511" />
    <radialGradient
       cx="235.10773"
       cy="543.04913"
       fx="235.10773"
       fy="543.04913"
       gradientTransform="scale(1.007034,0.993015)"
       gradientUnits="userSpaceOnUse"
       id="radialGradient13084"
       inkscape:collect="always"
       r="54.748417"
       xlink:href="#linearGradient8025" />
    <linearGradient
       gradientTransform="scale(2.305125,0.433816)"
       gradientUnits="userSpaceOnUse"
       id="linearGradient13085"
       inkscape:collect="always"
       x1="81.932518"
       x2="98.377357"
       xlink:href="#linearGradient4278"
       y1="1289.1675"
       y2="1285.5785" />
    <linearGradient
       gradientTransform="matrix(0.389635,0,0,2.566504,3.978893,257.4373)"
       gradientUnits="userSpaceOnUse"
       id="linearGradient13086"
       inkscape:collect="always"
       x1="445.45947"
       x2="484.64703"
       xlink:href="#linearGradient8654"
       y1="97.085861"
       y2="97.085861" />
    <radialGradient
       cx="235.10773"
       cy="543.04913"
       fx="235.10773"
       fy="543.04913"
       gradientTransform="scale(1.007034,0.993015)"
       gradientUnits="userSpaceOnUse"
       id="radialGradient13091"
       inkscape:collect="always"
       r="54.748417"
       xlink:href="#linearGradient8025" />
    <linearGradient
       gradientTransform="scale(2.305125,0.433816)"
       gradientUnits="userSpaceOnUse"
       id="linearGradient13092"
       inkscape:collect="always"
       x1="81.932518"
       x2="98.377357"
       xlink:href="#linearGradient4278"
       y1="1289.1675"
       y2="1285.5785" />
    <linearGradient
       gradientTransform="matrix(0.389635,0,0,2.566504,3.978893,257.4373)"
       gradientUnits="userSpaceOnUse"
       id="linearGradient13093"
       inkscape:collect="always"
       x1="445.45947"
       x2="484.64703"
       xlink:href="#linearGradient8654"
       y1="97.085861"
       y2="97.085861" />
    <linearGradient
       gradientTransform="matrix(1.035884,0,0,1.036827,-4.776368,-45.97541)"
       gradientUnits="userSpaceOnUse"
       id="linearGradient13095"
       inkscape:collect="always"
       x1="828.00049"
       x2="768.27551"
       xlink:href="#linearGradient1786"
       y1="205.89877"
       y2="186.88342" />
    <linearGradient
       gradientTransform="matrix(0.853562,0,0,1.258293,-4.776367,-45.97541)"
       gradientUnits="userSpaceOnUse"
       id="linearGradient15592"
       inkscape:collect="always"
       x1="622.30029"
       x2="660.66791"
       xlink:href="#linearGradient15589"
       y1="130.0072"
       y2="211.02409" />
    <linearGradient
       gradientTransform="matrix(0.853561,0,0,1.258293,-166.4717,-47.28613)"
       gradientUnits="userSpaceOnUse"
       id="linearGradient15594"
       inkscape:collect="always"
       x1="622.30029"
       x2="660.66791"
       xlink:href="#linearGradient16216"
       y1="130.0072"
       y2="211.02409" />
    <linearGradient
       gradientTransform="matrix(1.014465,0,0,1.058716,-4.776368,-45.97541)"
       gradientUnits="userSpaceOnUse"
       id="linearGradient16843"
       inkscape:collect="always"
       x1="406.12582"
       x2="404.23486"
       xlink:href="#linearGradient16840"
       y1="661.78082"
       y2="659.96094" />
    <linearGradient
       gradientTransform="matrix(1.858578,0,0,0.577878,-4.776368,-45.97541)"
       gradientUnits="userSpaceOnUse"
       id="linearGradient16844"
       inkscape:collect="always"
       x1="198.86722"
       x2="170.89366"
       xlink:href="#linearGradient16840"
       y1="1247.3527"
       y2="1176.4388" />
    <linearGradient
       gradientTransform="matrix(1.802227,0,0,0.595946,-4.776368,-45.97541)"
       gradientUnits="userSpaceOnUse"
       id="linearGradient16845"
       inkscape:collect="always"
       x1="242.20589"
       x2="175.25876"
       xlink:href="#linearGradient16840"
       y1="1209.9634"
       y2="1117.1237" />
    <linearGradient
       gradientTransform="matrix(0.4038,0,0,2.659808,156.7239,316.1212)"
       gradientUnits="userSpaceOnUse"
       id="linearGradient17468"
       inkscape:collect="always"
       x1="445.45947"
       x2="484.64703"
       xlink:href="#linearGradient8654"
       y1="97.085861"
       y2="97.085861" />
    <linearGradient
       gradientTransform="matrix(0.806883,0,0,1.331086,-4.776368,-45.97541)"
       gradientUnits="userSpaceOnUse"
       id="linearGradient18093"
       inkscape:collect="always"
       x1="432.06381"
       x2="561.09821"
       xlink:href="#linearGradient18090"
       y1="460.62277"
       y2="467.85504" />
    <radialGradient
       cx="167.43819"
       cy="1448.2863"
       fx="167.43819"
       fy="1448.2863"
       gradientTransform="scale(1.884415,0.530669)"
       gradientUnits="userSpaceOnUse"
       id="radialGradient19342"
       inkscape:collect="always"
       r="155.7981"
       xlink:href="#linearGradient15589" />
  </defs>
  <sodipodi:namedview
     bordercolor="#666666"
     borderopacity="1.0"
     id="base"
     inkscape:current-layer="layer1"
     inkscape:cx="352.95107"
     inkscape:cy="338.30162"
     inkscape:grid-bbox="false"
     inkscape:grid-points="false"
     inkscape:guide-bbox="true"
     inkscape:pageopacity="0.0"
     inkscape:pageshadow="2"
     inkscape:window-height="966"
     inkscape:window-width="1264"
     inkscape:window-x="6"
     inkscape:window-y="5"
     inkscape:zoom="1.1034889"
     pagecolor="#ffffff"
     showgrid="false"
     showguides="true"
     fit-margin-top="0"
     fit-margin-left="0"
     fit-margin-right="0"
     fit-margin-bottom="0"
     inkscape:window-maximized="0" />
  <g
     id="layer1"
     inkscape:groupmode="layer"
     inkscape:label="Layer 1"
     transform="translate(-1.3796459,-33.403987)">
    <path
       d="m 609.11133,768.56012 c 0,45.66134 -131.44396,82.67716 -293.58829,82.67716 -162.14433,0 -293.588287,-37.01582 -293.588287,-82.67716 0,-45.66134 131.443957,-82.67716 293.588287,-82.67716 162.14433,0 293.58829,37.01582 293.58829,82.67716 z"
       id="path18716"
       sodipodi:cx="315.52304"
       sodipodi:cy="768.56012"
       sodipodi:rx="293.58829"
       sodipodi:ry="82.677162"
       sodipodi:type="arc"
       style="fill:url(#radialGradient19342);fill-opacity:1;fill-rule:nonzero;stroke:none"
       transform="matrix(0.689655,0,0,1.709184,313.0504,-762.2888)" />
    <path
       d="M 579.41135,69.315199 591.91693,40.687817 706.63325,198.83271 668.81912,195.33546 579.41135,69.315199 z"
       id="path13094"
       sodipodi:nodetypes="ccccc"
       style="fill:url(#linearGradient13095);fill-opacity:1;fill-rule:evenodd;stroke:#000000;stroke-width:3.88632941;stroke-linecap:round;stroke-linejoin:round;stroke-miterlimit:4;stroke-opacity:1"
       inkscape:connector-curvature="0" />
    <path
       d="M 28.447594,560.79902 490.96009,668.33973 490.08577,292.38439 320.24514,276.44368 322.80489,181.30235 238.81194,62.049899 156.05543,161.034 155.52403,261.87281 28.959755,249.64151 28.447594,560.79902 z"
       id="path1072"
       sodipodi:nodetypes="cccccccccc"
       style="fill:url(#linearGradient4906);fill-opacity:1;fill-rule:evenodd;stroke:#000000;stroke-width:3.88632941;stroke-linecap:round;stroke-linejoin:round;stroke-miterlimit:4;stroke-opacity:1"
       inkscape:connector-curvature="0" />
    <path
       d="M 491.8344,668.33973 667.57168,532.82095 668.44599,180.47211 569.64842,46.701951 490.08577,293.25871 491.8344,668.33973 z"
       id="path1073"
       sodipodi:nodetypes="cccccc"
       style="fill:url(#linearGradient4910);fill-opacity:1;fill-rule:evenodd;stroke:#000000;stroke-width:3.88632941;stroke-linecap:round;stroke-linejoin:round;stroke-miterlimit:4;stroke-opacity:1"
       inkscape:connector-curvature="0" />
    <path
       d="M 591.5063,39.707434 134.23969,35.335861 3.30461,264.6988 147.51617,281.02684 155.51038,262.65657 155.92732,160.72713 238.3609,61.961788 340.57796,41.018903 377.95491,164.84373 311.16946,298.09529 501.96404,319.16993 591.5063,39.707434 z"
       id="path1075"
       sodipodi:nodetypes="cccccccccccc"
       style="fill:url(#linearGradient1789);fill-opacity:1;fill-rule:evenodd;stroke:#000000;stroke-width:3.88632941;stroke-linecap:round;stroke-linejoin:round;stroke-miterlimit:4;stroke-opacity:1"
       inkscape:connector-curvature="0" />
    <path
       d="m 320.46873,183.31362 57.70476,-19.01633 -57.59871,112.8798 -0.10605,-93.86347 z"
       id="path1077"
       sodipodi:nodetypes="cccc"
       style="fill:url(#linearGradient4281);fill-opacity:1;fill-rule:evenodd;stroke:#000000;stroke-width:3.88632941;stroke-linecap:round;stroke-linejoin:round;stroke-miterlimit:4;stroke-opacity:1"
       inkscape:connector-curvature="0" />
    <path
       d="M 238.84833,61.821382 340.57796,41.018905 379.0478,164.29728 320.6873,182.6579 238.84833,61.821382 z"
       id="path1079"
       sodipodi:nodetypes="ccccc"
       style="fill:url(#linearGradient3656);fill-opacity:1;fill-rule:evenodd;stroke:#000000;stroke-width:3.88632941;stroke-linecap:round;stroke-linejoin:round;stroke-miterlimit:4;stroke-opacity:1"
       inkscape:connector-curvature="0" />
    <path
       d="m 336.86212,625.68583 0.4527,-136.65829 93.67971,15.48425 0.29359,141.97008 -94.426,-20.79604 z"
       id="path1080"
       sodipodi:nodetypes="ccccc"
       style="fill:url(#linearGradient18093);fill-opacity:1;fill-rule:evenodd;stroke:#000000;stroke-width:2.59088635;stroke-linecap:round;stroke-linejoin:round;stroke-miterlimit:4;stroke-opacity:1"
       inkscape:connector-curvature="0" />
    <path
       d="m 175.30141,263.82981 0.0621,-93.24412 61.66491,-74.082628 61.63544,90.319608 -0.21216,89.9408 -123.15032,-12.93366 z"
       id="path1085"
       sodipodi:nodetypes="cccccc"
       style="fill:url(#radialGradient8028);fill-opacity:1;fill-rule:evenodd;stroke:#000000;stroke-width:2.59088635;stroke-linecap:round;stroke-linejoin:round;stroke-miterlimit:4;stroke-opacity:1"
       inkscape:connector-curvature="0" />
    <path
       d="m 323.54436,622.8443 14.0398,3.01321 14.25838,-9.00859 79.26014,19.21148 -0.0839,9.8126 18.62994,3.88754 -34.97259,28.08736 -132.02153,-32.24035 40.88976,-22.76325 z"
       id="path1086"
       sodipodi:nodetypes="ccccccccc"
       style="fill:url(#linearGradient16845);fill-opacity:1;fill-rule:evenodd;stroke:#000000;stroke-width:2.59088635;stroke-linecap:round;stroke-linejoin:round;stroke-miterlimit:4;stroke-opacity:1"
       inkscape:connector-curvature="0" />
    <path
       d="m 282.7639,645.49825 0.43716,6.99452 131.47508,33.66112 -10e-6,-8.30598 -131.91223,-32.34966 z"
       id="path1087"
       sodipodi:nodetypes="ccccc"
       style="fill:url(#linearGradient16844);fill-opacity:1;fill-rule:evenodd;stroke:#000000;stroke-width:2.59088635;stroke-linecap:round;stroke-linejoin:round;stroke-miterlimit:4;stroke-opacity:1"
       inkscape:connector-curvature="0" />
    <path
       d="m 414.56685,686.15389 34.86331,-27.6502 0.10927,-8.63387 -34.754,27.86879 -0.21858,8.41528 z"
       id="path1088"
       sodipodi:nodetypes="ccccc"
       style="fill:url(#linearGradient16843);fill-opacity:1;fill-rule:evenodd;stroke:#000000;stroke-width:2.59088635;stroke-linecap:round;stroke-linejoin:round;stroke-miterlimit:4;stroke-opacity:1"
       inkscape:connector-curvature="0" />
    <path
       d="m 176.05704,170.98721 14.21939,-10.20086 0,93.35332 -14.5285,9.58262 0.30911,-92.73508 z"
       id="path6776"
       style="fill:url(#linearGradient8660);fill-opacity:1;fill-rule:evenodd;stroke:#000000;stroke-width:1.29544318;stroke-linecap:round;stroke-linejoin:round;stroke-miterlimit:4;stroke-opacity:1"
       inkscape:connector-curvature="0" />
    <path
       d="m 298.3128,276.24154 0.30911,-10.8191 -108.50004,-11.28277 -14.5285,9.58262 122.71943,12.51925 z"
       id="path6777"
       sodipodi:nodetypes="ccccc"
       style="fill:url(#linearGradient8664);fill-opacity:1;fill-rule:evenodd;stroke:#000000;stroke-width:1.29544318;stroke-linecap:round;stroke-linejoin:round;stroke-miterlimit:4;stroke-opacity:1"
       inkscape:connector-curvature="0" />
    <path
       d="m 176.05704,171.14176 14.21939,-10.35541 49.61327,-60.43237 -3.09118,-2.782048 -60.74148,73.569828 z"
       id="path6778"
       sodipodi:nodetypes="ccccc"
       style="fill:url(#linearGradient8653);fill-opacity:1;fill-rule:evenodd;stroke:#000000;stroke-width:1.29544318;stroke-linecap:round;stroke-linejoin:round;stroke-miterlimit:4;stroke-opacity:1"
       inkscape:connector-curvature="0" />
    <g
       id="g11186"
       transform="matrix(1.036355,0,0,1.036355,19.26729,-39.41805)">
      <path
         d="m 401.59528,385.05306 -0.58344,77.31765 -95.69921,-13.34016 0.29566,-74.51849 95.98699,10.541 z"
         id="path1164"
         sodipodi:nodetypes="ccccc"
         style="fill:url(#radialGradient11190);fill-opacity:1;fill-rule:evenodd;stroke:#000000;stroke-width:2.5;stroke-linecap:round;stroke-linejoin:round;stroke-miterlimit:4;stroke-opacity:1"
         inkscape:connector-curvature="0" />
      <path
         d="m 306.07004,374.40995 13.93149,1.75709 -0.21091,63.50376 -14.01885,9.24647 0.29827,-74.50732 z"
         id="path9291"
         sodipodi:nodetypes="ccccc"
         style="fill:url(#linearGradient11191);fill-opacity:1;fill-rule:evenodd;stroke:#000000;stroke-width:1.25;stroke-linecap:round;stroke-linejoin:round;stroke-miterlimit:4;stroke-opacity:1"
         inkscape:connector-curvature="0" />
      <path
         d="m 400.52324,462.01308 0.29827,-10.43957 -81.0719,-11.73062 -14.01885,9.24647 94.79248,12.92372 z"
         id="path9293"
         sodipodi:nodetypes="ccccc"
         style="fill:url(#linearGradient11192);fill-opacity:1;fill-rule:evenodd;stroke:#000000;stroke-width:1.25;stroke-linecap:round;stroke-linejoin:round;stroke-miterlimit:4;stroke-opacity:1"
         inkscape:connector-curvature="0" />
    </g>
    <g
       id="g11179"
       transform="matrix(1.036355,0,0,1.036355,22.79562,-40.54845)">
      <path
         d="m 254.27164,367.47088 -0.55737,72.6254 -91.42217,-12.53058 0.28245,-69.99611 91.69709,9.90129 z"
         id="path11163"
         sodipodi:nodetypes="ccccc"
         style="fill:url(#radialGradient11183);fill-opacity:1;fill-rule:evenodd;stroke:#000000;stroke-width:2.36818981;stroke-linecap:round;stroke-linejoin:round;stroke-miterlimit:4;stroke-opacity:1"
         inkscape:connector-curvature="0" />
      <path
         d="m 163.01566,357.47368 13.30886,1.65045 -0.20149,59.64985 -13.3923,8.68531 0.28493,-69.98561 z"
         id="path11164"
         sodipodi:nodetypes="ccccc"
         style="fill:url(#linearGradient11184);fill-opacity:1;fill-rule:evenodd;stroke:#000000;stroke-width:1.18409491;stroke-linecap:round;stroke-linejoin:round;stroke-miterlimit:4;stroke-opacity:1"
         inkscape:connector-curvature="0" />
      <path
         d="m 253.24751,439.76034 0.28494,-9.80601 -77.44859,-11.01871 -13.39232,8.68532 90.55597,12.1394 z"
         id="path11165"
         sodipodi:nodetypes="ccccc"
         style="fill:url(#linearGradient11185);fill-opacity:1;fill-rule:evenodd;stroke:#000000;stroke-width:1.18409491;stroke-linecap:round;stroke-linejoin:round;stroke-miterlimit:4;stroke-opacity:1"
         inkscape:connector-curvature="0" />
    </g>
    <g
       id="g11175"
       transform="matrix(1.036355,0,0,1.036355,2.21815,-43.78963)">
      <path
         d="m 139.68726,353.68774 -0.53244,69.37768 -87.333882,-11.97023 0.269819,-66.86596 87.596503,9.45851 z"
         id="path11169"
         sodipodi:nodetypes="ccccc"
         style="fill:url(#radialGradient11193);fill-opacity:1;fill-rule:evenodd;stroke:#000000;stroke-width:2.26228714;stroke-linecap:round;stroke-linejoin:round;stroke-miterlimit:4;stroke-opacity:1"
         inkscape:connector-curvature="0" />
      <path
         d="m 52.512141,344.13761 12.713704,1.57664 -0.19248,56.98238 -12.793412,8.29691 0.272188,-66.85593 z"
         id="path11170"
         sodipodi:nodetypes="ccccc"
         style="fill:url(#linearGradient11194);fill-opacity:1;fill-rule:evenodd;stroke:#000000;stroke-width:1.13114357;stroke-linecap:round;stroke-linejoin:round;stroke-miterlimit:4;stroke-opacity:1"
         inkscape:connector-curvature="0" />
      <path
         d="m 138.70893,422.7445 0.2722,-9.36749 -73.985183,-10.52597 -12.793431,8.29692 86.506414,11.59654 z"
         id="path11171"
         sodipodi:nodetypes="ccccc"
         style="fill:url(#linearGradient11195);fill-opacity:1;fill-rule:evenodd;stroke:#000000;stroke-width:1.13114357;stroke-linecap:round;stroke-linejoin:round;stroke-miterlimit:4;stroke-opacity:1"
         inkscape:connector-curvature="0" />
    </g>
    <g
       id="g13080"
       transform="matrix(1.036355,0,0,1.036355,3.092466,-40.72952)">
      <path
         d="m 266.30945,503.57098 -0.53661,71.56504 -88.01821,-18.31309 0.27193,-68.97414 88.28289,15.72219 z"
         id="path1081"
         sodipodi:nodetypes="ccccc"
         style="fill:url(#radialGradient13084);fill-opacity:1;fill-rule:evenodd;stroke:#000000;stroke-width:2.5;stroke-linecap:round;stroke-linejoin:round;stroke-miterlimit:4;stroke-opacity:1"
         inkscape:connector-curvature="0" />
      <path
         d="m 265.54012,574.42871 0.29827,-10.43957 -73.4791,-17.0034 -14.01885,9.24647 87.19968,18.1965 z"
         id="path11829"
         sodipodi:nodetypes="ccccc"
         style="fill:url(#linearGradient13085);fill-opacity:1;fill-rule:evenodd;stroke:#000000;stroke-width:1.25;stroke-linecap:round;stroke-linejoin:round;stroke-miterlimit:4;stroke-opacity:1"
         inkscape:connector-curvature="0" />
      <path
         d="m 178.2579,488.30195 14.77513,2.38983 -0.84364,56.33278 -14.01885,9.24647 0.0874,-67.96908 z"
         id="path12452"
         sodipodi:nodetypes="ccccc"
         style="fill:url(#linearGradient13086);fill-opacity:1;fill-rule:evenodd;stroke:#000000;stroke-width:1.25;stroke-linecap:round;stroke-linejoin:round;stroke-miterlimit:4;stroke-opacity:1"
         inkscape:connector-curvature="0" />
    </g>
    <g
       id="g13087"
       transform="matrix(0.949936,0,0,0.977929,-113.835,-35.90236)">
      <path
         d="m 266.30945,503.57098 -0.53661,71.56504 -88.01821,-18.31309 0.27193,-68.97414 88.28289,15.72219 z"
         id="path13088"
         sodipodi:nodetypes="ccccc"
         style="fill:url(#radialGradient13091);fill-opacity:1;fill-rule:evenodd;stroke:#000000;stroke-width:2.5;stroke-linecap:round;stroke-linejoin:round;stroke-miterlimit:4;stroke-opacity:1"
         inkscape:connector-curvature="0" />
      <path
         d="m 265.54012,574.42871 0.29827,-10.43957 -73.4791,-17.0034 -14.01885,9.24647 87.19968,18.1965 z"
         id="path13089"
         sodipodi:nodetypes="ccccc"
         style="fill:url(#linearGradient13092);fill-opacity:1;fill-rule:evenodd;stroke:#000000;stroke-width:1.25;stroke-linecap:round;stroke-linejoin:round;stroke-miterlimit:4;stroke-opacity:1"
         inkscape:connector-curvature="0" />
      <path
         d="m 178.2579,488.30195 14.77513,2.38983 -0.84364,56.33278 -14.01885,9.24647 0.0874,-67.96908 z"
         id="path13090"
         sodipodi:nodetypes="ccccc"
         style="fill:url(#linearGradient13093);fill-opacity:1;fill-rule:evenodd;stroke:#000000;stroke-width:1.25;stroke-linecap:round;stroke-linejoin:round;stroke-miterlimit:4;stroke-opacity:1"
         inkscape:connector-curvature="0" />
    </g>
    <path
       d="M 509.3207,302.00184 593.25492,111.40124 667.57168,180.4721 582.65707,66.086883 509.3207,302.00184 z"
       id="path14959"
       sodipodi:nodetypes="ccccc"
       style="fill:url(#linearGradient15592);fill-opacity:1;fill-rule:evenodd;stroke:none"
       inkscape:connector-curvature="0" />
    <path
       d="M 380.3918,165.91615 322.75045,275.15898 460.12707,125.99328 341.82784,40.046818 380.3918,165.91615 z"
       id="path15593"
       sodipodi:nodetypes="ccccc"
       style="fill:url(#linearGradient15594);fill-opacity:1;fill-rule:evenodd;stroke:none"
       inkscape:connector-curvature="0" />
    <path
       d="m 337.9944,489.80522 14.65653,2.47669 -0.87431,123.95434 -14.5285,9.58263 0.74628,-136.01366 z"
       id="path17467"
       sodipodi:nodetypes="ccccc"
       style="fill:url(#linearGradient17468);fill-opacity:1;fill-rule:evenodd;stroke:#000000;stroke-width:1.29544318;stroke-linecap:round;stroke-linejoin:round;stroke-miterlimit:4;stroke-opacity:1"
       inkscape:connector-curvature="0" />
  </g>
</svg>
