<?xml version="1.0" encoding="UTF-8" standalone="no"?>
<!-- Created with Inkscape (http://www.inkscape.org/) -->

<svg
   xmlns:dc="http://purl.org/dc/elements/1.1/"
   xmlns:cc="http://creativecommons.org/ns#"
   xmlns:rdf="http://www.w3.org/1999/02/22-rdf-syntax-ns#"
   xmlns:svg="http://www.w3.org/2000/svg"
   xmlns="http://www.w3.org/2000/svg"
   xmlns:xlink="http://www.w3.org/1999/xlink"
   xmlns:sodipodi="http://sodipodi.sourceforge.net/DTD/sodipodi-0.dtd"
   xmlns:inkscape="http://www.inkscape.org/namespaces/inkscape"
   width="126.01698"
   height="84.972893"
   id="svg2"
   sodipodi:version="0.32"
   inkscape:version="0.48.1 r9760"
   version="1.0"
   sodipodi:docname="nicubunu_RPG_map_symbols_Stone_Bridge_(alternate).svg"
   inkscape:output_extension="org.inkscape.output.svg.inkscape">
  <defs
     id="defs4">
    <linearGradient
       id="linearGradient2338">
      <stop
         id="stop2340"
         offset="0"
         style="stop-color:#b1b1b1;stop-opacity:1;" />
      <stop
         id="stop2342"
         offset="1"
         style="stop-color:#e4e4e4;stop-opacity:1;" />
    </linearGradient>
    <linearGradient
       inkscape:collect="always"
       xlink:href="#linearGradient2338"
       id="linearGradient2506"
       x1="12.64292"
       y1="58.172203"
       x2="98.826775"
       y2="76.507339"
       gradientUnits="userSpaceOnUse" />
    <linearGradient
       inkscape:collect="always"
       xlink:href="#linearGradient2338"
       id="linearGradient3091"
       x1="6.1871843"
       y1="40.31876"
       x2="17.324116"
       y2="41.909748"
       gradientUnits="userSpaceOnUse" />
    <linearGradient
       inkscape:collect="always"
       xlink:href="#linearGradient2338"
       id="linearGradient3095"
       x1="46.315495"
       y1="56.979961"
       x2="48.08326"
       y2="53.709595"
       gradientUnits="userSpaceOnUse" />
    <linearGradient
       inkscape:collect="always"
       xlink:href="#linearGradient2338"
       id="linearGradient3101"
       x1="86.620575"
       y1="100.20187"
       x2="102.17693"
       y2="91.628197"
       gradientUnits="userSpaceOnUse" />
    <linearGradient
       inkscape:collect="always"
       xlink:href="#linearGradient2338"
       id="linearGradient3105"
       x1="71.792336"
       y1="57.720303"
       x2="62.422573"
       y2="85.297462"
       gradientUnits="userSpaceOnUse" />
    <linearGradient
       inkscape:collect="always"
       xlink:href="#linearGradient2338"
       id="linearGradient3109"
       x1="67.191254"
       y1="49.207737"
       x2="61.432537"
       y2="64.85247"
       gradientUnits="userSpaceOnUse" />
    <linearGradient
       inkscape:collect="always"
       xlink:href="#linearGradient2338"
       id="linearGradient3113"
       x1="15.379572"
       y1="34.131577"
       x2="34.957592"
       y2="32.319614"
       gradientUnits="userSpaceOnUse" />
    <linearGradient
       inkscape:collect="always"
       xlink:href="#linearGradient2338"
       id="linearGradient3117"
       x1="67.229042"
       y1="49.469444"
       x2="68.454338"
       y2="46.719444"
       gradientUnits="userSpaceOnUse" />
    <linearGradient
       inkscape:collect="always"
       xlink:href="#linearGradient2338"
       id="linearGradient3121"
       x1="114.99325"
       y1="78.923958"
       x2="118.48458"
       y2="76.625862"
       gradientUnits="userSpaceOnUse" />
    <filter
       inkscape:collect="always"
       id="filter3288"
       color-interpolation-filters="sRGB">
      <feGaussianBlur
         inkscape:collect="always"
         stdDeviation="1.3261907"
         id="feGaussianBlur3290" />
    </filter>
  </defs>
  <sodipodi:namedview
     id="base"
     pagecolor="#ffffff"
     bordercolor="#666666"
     borderopacity="1.0"
     gridtolerance="10000"
     guidetolerance="10"
     objecttolerance="10"
     inkscape:pageopacity="0.0"
     inkscape:pageshadow="2"
     inkscape:zoom="1"
     inkscape:cx="63.204479"
     inkscape:cy="48.40625"
     inkscape:document-units="px"
     inkscape:current-layer="layer2"
     showgrid="false"
     width="744.09px"
     inkscape:window-width="1248"
     inkscape:window-height="975"
     inkscape:window-x="426"
     inkscape:window-y="24"
     showguides="true"
     inkscape:guide-bbox="true"
     fit-margin-top="0"
     fit-margin-left="0"
     fit-margin-right="0"
     fit-margin-bottom="0"
     inkscape:window-maximized="0" />
  <metadata
     id="metadata7">
    <rdf:RDF>
      <cc:Work
         rdf:about="">
        <dc:format>image/svg+xml</dc:format>
        <dc:type
           rdf:resource="http://purl.org/dc/dcmitype/StillImage" />
      </cc:Work>
    </rdf:RDF>
  </metadata>
  <g
     inkscape:groupmode="layer"
     id="layer2"
     inkscape:label="colors"
     transform="translate(-0.7955207,-27.433358)">
    <path
       style="fill:#000000;fill-opacity:0.51131227;fill-rule:evenodd;stroke:none;filter:url(#filter3288)"
       d="M 85.621622,107.24324 81.297297,103.61081 81.47027,87.005405 69.016216,69.362162 47.394595,68.324324 41.167568,72.821622 38.4,68.843243 37.708108,58.118919 3.9783784,43.07027 l 1.9027027,-3.978378 2.7675675,0.518919 8.3027024,-5.535135 -1.21081,-0.864865 2.075675,-2.594595 13.837838,3.286487 64.691892,52.237838 -10.724324,21.102699 z"
       id="path3230"
       inkscape:connector-curvature="0" />
    <path
       style="fill:url(#linearGradient2506);fill-rule:evenodd;stroke:none"
       d="M 3.1294068,42.886826 17.245761,41.159643 77.54477,72.715716 98.826773,111.85503 85.250322,107.69648 81.458701,94.731581 l -6.84938,-12.597967 -6.115518,-5.870897 -6.971691,-4.403173 -5.381656,-0.611552 -4.280862,0.856172 -3.30238,1.345414 -3.18007,2.079277 -4.280862,-3.057759 -0.366931,-3.30238 -0.489242,-2.323897 -1.345414,-3.18007 -5.626276,-6.727069 -5.993208,-3.669311 -5.137035,-0.122311 -4.403173,0.978483 -3.05776,1.956966 L 10.95727,53.75761 3.1294068,42.886826 z"
       id="path2504"
       sodipodi:nodetypes="cccccccccccccccccccccccc"
       inkscape:connector-curvature="0" />
    <path
       style="fill:#ffffff;fill-opacity:0.1254902;fill-rule:evenodd;stroke:none"
       d="M 3.4594595,42.724324 17.383784,41.427027 77.837838,72.908108 98.508108,111.13514 93.232432,103.00541 76.281081,74.032432 37.535135,53.708108 16.778378,42.810811 3.4594595,42.724324 z"
       id="path2508"
       inkscape:connector-curvature="0" />
    <path
       style="fill:#ffffff;fill-opacity:0.1254902;fill-rule:evenodd;stroke:none"
       d="m 11.177742,53.758771 3.611447,2.370959 4.064865,-2.248649 3.805405,-0.864865 5.275676,0.605406 4.843243,2.767567 3.718919,4.064865 2.854054,4.324324 1.643244,4.670271 0.08649,2.767567 4.324324,3.545946 3.286487,-2.421621 4.410811,-1.816217 5.362162,0 5.275676,1.297298 4.756756,3.459459 4.064865,3.632432 3.805406,5.275676 4.064864,7.005406 2.940541,7.351351 2.075676,8.043244 12.972973,4.06486 -0.08649,-0.43243 -11.502703,-4.58378 -0.778378,-4.06487 -1.297297,-4.583781 -2.162162,-5.621621 -5.18919,-8.648649 -2.594594,-3.545946 -3.718919,-4.151351 -4.67027,-3.718919 -3.978379,-2.075676 -5.275675,-0.778378 -2.854054,0.345946 -2.075676,0.605405 -1.47027,0.518919 -1.643244,0.605405 -1.729729,0.951352 -2.075676,1.383783 -3.2,-1.989189 0,-1.47027 L 41.513514,66.681081 39.87027,62.27027 37.794595,58.724324 C 36.556753,57.079283 35.275936,55.477217 33.556757,54.313513 L 29.578378,52.064865 25.859459,51.2 l -2.94054,0 -3.45946,0.605405 -3.027027,1.383784 -1.556756,0.778379 -3.697934,-0.208797 z"
       id="path3087"
       sodipodi:nodetypes="cccccccccccccccccccccccccccccccccccccccccccccccccccc"
       inkscape:connector-curvature="0" />
    <path
       style="fill:url(#linearGradient3091);fill-rule:evenodd;stroke:none"
       d="m 3.4471456,42.528468 3.0935921,-2.032932 12.2859803,-1.502602 0.353553,0.53033 -1.679378,1.502602 -14.0537474,1.502602 z"
       id="path3089"
       inkscape:connector-curvature="0" />
    <path
       style="fill:url(#linearGradient3095);fill-rule:evenodd;stroke:none"
       d="M 17.324116,40.937477 19.091883,39.258099 79.72629,71.519846 77.428193,72.757283 17.324116,40.937477 z"
       id="path3093"
       inkscape:connector-curvature="0" />
    <path
       style="fill:url(#linearGradient3101);fill-rule:evenodd;stroke:none"
       d="m 77.516581,72.845671 2.032932,-1.414214 21.743537,36.681163 0.88388,1.14905 -3.18198,2.56326 L 89.537396,94.677593 77.516581,72.845671 z"
       id="path3099"
       inkscape:connector-curvature="0" />
    <path
       style="fill:url(#linearGradient3105);fill-rule:evenodd;stroke:none"
       d="M 9.125,40.1875 10.5,39.25 l 2.25,-1.75 1.875,-1.125 3.6875,-1.75 3.9375,0.8125 11.875,1.5 L 63,50.75 101.5625,69 l 18.3125,17.9375 -0.5625,0.4375 -0.75,1.1875 -2.5625,3.75 -3.375,3.9375 -7.1875,6.25 -1.5,1.125 -3.75,3 L 79.25,71.375 18.4375,39.3125 9.125,40.1875 z"
       id="path3103"
       inkscape:connector-curvature="0" />
    <path
       style="fill:url(#linearGradient3109);fill-rule:evenodd;stroke:none"
       d="m 18.3125,34.625 16.375,-0.5 70.1875,31.5625 16.75,21.9375 -4.125,-3 L 101.5,69.25 33.6875,36.9375 18.3125,34.625 z"
       id="path3107"
       inkscape:connector-curvature="0" />
    <path
       style="fill:url(#linearGradient3113);fill-rule:evenodd;stroke:none"
       d="M 14.539883,34.529322 17.633475,32.319613 35.57631,31.96606 34.427261,34.131575 14.539883,34.529322 z"
       id="path3111"
       inkscape:connector-curvature="0" />
    <path
       style="fill:url(#linearGradient3117);fill-rule:evenodd;stroke:none"
       d="M 34.604038,34.175769 35.57631,31.921866 107.39184,63.5207 104.74019,65.642021 34.604038,34.175769 z"
       id="path3115"
       inkscape:connector-curvature="0" />
    <path
       style="fill:url(#linearGradient3121);fill-rule:evenodd;stroke:none"
       d="m 104.78439,65.597826 c 0,0 2.34229,-2.519067 2.51907,-1.944543 0.17677,0.574524 19.18027,23.953242 19.18027,23.953242 l -3.66812,2.077126 -18.03122,-24.085825 z"
       id="path3119"
       sodipodi:nodetypes="csccc"
       inkscape:connector-curvature="0" />
    <path
       id="path3123"
       d="m 3.4471456,42.528468 3.0935921,-2.032932 12.2859803,-1.502602 0.353553,0.53033 -1.679378,1.502602 -14.0537474,1.502602 z"
       style="fill:#000000;fill-opacity:0.15686275;fill-rule:evenodd;stroke:none"
       inkscape:connector-curvature="0" />
    <path
       id="path3125"
       d="M 9.125,40.1875 10.5,39.25 12.75,37.5 14.625,36.375 18.3125,34.625 34.328855,34.145606 34.125,36.9375 24.997742,42.771292 18.4375,39.3125 9.125,40.1875 z"
       style="fill:#000000;fill-opacity:0.15686275;fill-rule:evenodd;stroke:none"
       sodipodi:nodetypes="cccccccccc"
       inkscape:connector-curvature="0" />
    <path
       id="path3127"
       d="M 14.539883,34.529322 17.633475,32.319613 35.57631,31.96606 34.427261,34.131575 14.539883,34.529322 z"
       style="fill:#000000;fill-opacity:0.15686275;fill-rule:evenodd;stroke:none"
       inkscape:connector-curvature="0" />
    <path
       id="path3129"
       d="m 101.5625,69 18.3125,17.9375 -0.5625,0.4375 -0.75,1.1875 -2.5625,3.75 -3.375,3.9375 -7.1875,6.25 -1.5,1.125 -3.75,3 L 84.953305,80.976982 101.5625,69 z"
       style="fill:#ffffff;fill-opacity:0.1254902;fill-rule:evenodd;stroke:none"
       sodipodi:nodetypes="ccccccccccc"
       inkscape:connector-curvature="0" />
  </g>
  <g
     inkscape:label="outline"
     inkscape:groupmode="layer"
     id="layer1"
     transform="translate(-0.7955207,-27.433358)">
    <path
       style="fill:#000000;fill-opacity:1;fill-rule:evenodd;stroke:none"
       d="M 35.1875,31.65625 17.46875,32.125 14.25,34.65625 17.78125,34.8125 C 14.32961,36.215638 11.650389,38.008736 9.375,40 l -2.90625,0.59375 -3.25,1.78125 0.03125,0.9375 7.53125,10.40625 4.03125,2.75 c 6.022899,-4.579412 12.72248,-4.073582 18.40625,0.84375 3.498912,3.387961 7.925472,9.011841 7.4375,15.375 l 4.75,3.375 c 8.458825,-7.325692 17.494837,-4.67137 24.96875,2.34375 8.988463,8.996441 11.650784,19.366185 14.65625,29.65625 l 14.09375,4.34375 3.5,-3.34375 -2.03125,-2.5625 c 6.00676,-5.48466 11.30918,-6.849881 18.8125,-19.21875 l 3.3125,3.03125 4.09375,-2.6875 -19.28125,-24.34375 -0.875,-0.46875 L 35.1875,31.65625 z m 0.125,0.5 -0.8125,1.75 -19.25,0.4375 2.3125,-1.71875 17.75,-0.46875 z m 0.15625,0.25 71.15625,31.3125 -1.65625,1.625 -70.125,-31.46875 0.625,-1.46875 z M 34.21875,34.375 104.5,65.75 120.15625,86.0625 103.96875,67.25 34.1875,34.9375 20.84375,34.875 l 13.375,-0.5 z m -16.3125,0.5625 15.78125,2.21875 67.625,32.125 L 119.21875,87 c -3.10068,6.583669 -11.60708,13.94946 -18.90625,19.28125 l -20.75,-35.375 -61.0625,-32.125 -8.71875,1.25 c 1.871604,-1.857569 4.416153,-3.594257 8.125,-5.09375 z m 4.25,0.21875 11.90625,0.21875 69.59375,32 14.3125,17.125 -16.375,-15.6875 -0.0625,-0.03125 L 101.46875,68.75 33.875,36.71875 22.15625,35.15625 z m -3.34375,0.15625 -1.75,1.375 -1.65625,-0.25 -0.1875,0.1875 1.5625,0.25 -2.125,1.65625 0.5,0.28125 2.1875,-1.84375 4.09375,0.6875 -0.90625,0.875 0.59375,0.09375 0.9375,-0.875 1.1875,0.1875 0.28125,-0.3125 -1.15625,-0.15625 1,-0.96875 -0.4375,-0.3125 -1.21875,1.1875 -4.125,-0.625 1.34375,-1.125 -0.125,-0.3125 z m -0.375,4.40625 -1.03125,1.0625 L 4.125,42.25 6.71875,41 18.4375,39.71875 z M 31.90625,39.875 31.8125,40.21875 c 0.04052,0.0192 0.737948,0.370131 0.8125,0.40625 l -1.96875,2.0625 -1.71875,-1 -0.1875,0.125 1.65625,1.125 -0.8125,0.875 0.40625,0.28125 0.8125,-0.875 2.09375,1.4375 0,-0.6875 -1.8125,-1.03125 2,-2.09375 c 0.698011,0.339973 3.946557,1.97023 6.09375,3.03125 l -2.28125,2.40625 0.28125,0.25 2.40625,-2.46875 c 4.54392,2.24588 6.661505,3.29338 12.5,6.1875 l -0.5625,0.75 0.375,0.34375 0.65625,-0.875 c 5.409454,2.681562 10.634016,5.274406 11.71875,5.8125 l -2,2.15625 C 59.731468,57.611558 57.24217,56.915429 55.25,56 l 1.3125,-1.53125 -0.1875,-0.09375 -1.5,1.46875 c -3.317559,-1.619214 -5.875112,-3.201452 -6.1875,-3.375 l -0.34375,0.5 c 0.482277,0.267932 2.793127,1.406755 6.125,3.03125 0.04635,0.0226 0.10889,0.03988 0.15625,0.0625 L 54.0625,56.625 54.625,56.6875 55,56.25 c 1.859033,0.846788 4.352156,1.698236 6.90625,2.625 l -0.875,0.9375 0.1875,0.34375 1.09375,-1.125 c 1.986428,0.725474 3.974274,1.482656 5.6875,2.3125 0.523923,0.253775 1.022756,0.494969 1.53125,0.75 l -1.34375,1.09375 0.375,0.1875 1.375,-1.0625 c 2.275108,1.151179 4.364278,2.304438 6.1875,3.34375 l -1.625,1.375 0.40625,0.375 1.71875,-1.5 c 1.970147,1.13264 3.439125,2.044634 4.5625,2.75 l -0.46875,0.375 -0.125,0.53125 L 81.5,68.875 c 0.953612,0.602341 1.59375,1 1.59375,1 l 0.4375,-0.90625 c 0,0 -0.506156,-0.266315 -1.25,-0.6875 l 3.4375,-2.65625 c 1.486265,0.982878 3.049753,1.955633 4.625,2.9375 l -5.3125,4.46875 0.40625,0.375 c 1.640241,-1.748912 3.196227,-3.394472 5.125,-4.6875 0.99777,0.621936 2.016589,1.254528 2.9375,1.84375 l 0.34375,-0.21875 C 92.979998,69.789837 91.925087,69.128377 90.90625,68.5 c 0.558546,-0.354075 1.147906,-0.677246 1.78125,-0.96875 l -0.3125,-0.6875 -1.75,1.46875 c -1.594742,-0.982529 -3.172491,-1.925576 -4.65625,-2.875 L 87,64.65625 86.375,64.4375 85.5,65.125 C 85.180558,64.918208 84.825745,64.696619 84.53125,64.5 l 0.1875,0.46875 c 0.179974,0.122811 0.377687,0.251227 0.5625,0.375 l -3.375,2.71875 c -1.099565,-0.619838 -2.784357,-1.564287 -4.75,-2.625 l 1.375,-1.21875 -0.34375,-0.3125 -1.5,1.28125 c -1.896563,-1.019301 -3.936767,-2.083932 -6.25,-3.25 L 75.5625,58 l -0.40625,-0.375 -5.125,4.09375 C 69.137242,61.270229 68.233109,60.82092 67.3125,60.375 65.818556,59.651371 64.267823,59.105359 62.71875,58.59375 l 2,-2.09375 c 0.09246,0.04587 1.3125,0.65625 1.3125,0.65625 l 0.25,-0.40625 C 66.28805,56.72287 65.767602,56.436795 65.125,56.09375 L 66.75,54.40625 66.28125,54.125 64.6875,55.84375 C 62.455985,54.672884 57.828452,52.352456 52.96875,49.9375 L 54.03125,48.5 53.59375,48.28125 52.5,49.71875 c -4.380677,-2.174868 -8.594041,-4.274519 -12.4375,-6.125 L 41.59375,42.03125 41.25,41.6875 39.625,43.40625 C 37.068482,42.177428 34.786878,41.099918 33.4375,40.5 l 0.34375,-0.375 -0.46875,-0.25 -0.375,0.40625 C 32.440365,40.067116 32.045611,39.905353 31.90625,39.875 z M 18.75,39.96875 l 60.1875,31.5 -1.09375,1.0625 -59.9375,-31.625 0.84375,-0.9375 z M 17,41.5 l 60.34375,31.65625 16.25,29.96875 -17.3125,-29.25 -59.4375,-31.25 -13,0.125 L 17,41.5 z m -0.34375,1.46875 59.4375,31.09375 21.4375,36.84375 -10.5625,-4.5 C 85.843886,98.516616 81.678273,88.390787 74.5,79.5625 70.871028,75.099365 66.55789,71.468707 61.5625,69.96875 56.656763,68.495709 51.311646,69.790778 45.34375,73.6875 L 42.21875,71.75 C 42.436476,66.064022 39.477832,60.180102 35.78125,56.1875 29.529333,50.033402 22.308239,49.542453 14.9375,53.75 L 10.96875,53.625 3.375,43.28125 16.65625,42.96875 z m -5.375,2.15625 -0.65625,1.25 C 10.286571,46.116747 9.9518019,45.863629 9.59375,45.625 L 9.46875,45.84375 10.40625,46.75 9.75,47.96875 10.03125,48.0625 C 10.248964,47.705572 10.471959,47.355841 10.6875,47 l 1.8125,1.75 0.1875,-0.1875 c -0.455161,-0.779441 -1.069221,-1.414926 -1.75,-1.96875 0.28549,-0.48557 0.529923,-0.969012 0.71875,-1.40625 l -0.375,-0.0625 z m 4.5,0.34375 -0.5625,1.78125 c -0.329502,-0.240895 -0.672884,-0.474673 -1,-0.71875 l -0.0625,0.28125 0.90625,0.8125 -0.8125,2.53125 0.1875,-0.0625 c 0.296368,-0.765398 0.683799,-1.423457 1.03125,-2.125 l 2.4375,2.1875 -0.28125,0.5625 0.28125,0.125 0.28125,-0.4375 L 18.84375,51 19.125,50.71875 c -0.208542,-0.261187 -0.430394,-0.511899 -0.65625,-0.75 l 0.875,-1.34375 -0.625,-0.125 -0.5625,1.15625 c -0.78081,-0.771328 -1.625066,-1.447921 -2.5,-2.09375 0.259719,-0.594817 0.468052,-1.253283 0.53125,-2.09375 l -0.40625,0 z m 8.40625,5.84375 c 3.961159,-0.005 7.865644,1.60266 11.46875,5.09375 6.026576,6.277406 6.913564,15.321308 6.28125,15.34375 l 3.3125,2.1875 c 5.067451,-3.567956 10.248148,-4.947791 16.21875,-3.71875 4.73715,1.422412 9.412614,5.251442 12.96875,9.625 4.729692,6.743375 10.387528,13.939984 12.28125,26.875 L 97.5,111.1875 85.84375,107.3125 C 83.684518,96.994513 78.298393,85.173866 71.0625,77.75 63.435941,69.673644 54.235758,68.676808 45.28125,75.03125 l -3.71875,-2.8125 c -0.03822,-4.652392 -3.100728,-11.033955 -7.875,-15.375 -5.833172,-5.420243 -12.39526,-5.217949 -18.875,-1.3125 l -3.34375,-1.65625 3.46875,0.25 c 3.063933,-1.828218 6.169098,-2.808598 9.25,-2.8125 z m 20.53125,7.15625 -0.96875,2.0625 c -0.218719,-0.123977 -0.434581,-0.25299 -0.65625,-0.375 l 0.1875,0.625 c 0.08749,0.06105 0.162669,0.126945 0.25,0.1875 l -0.5625,1.21875 0.34375,0.21875 c 0.241199,-0.392166 0.454745,-0.795334 0.625,-1.1875 1.26597,0.869543 2.516016,1.695164 3.75,2.46875 -0.181838,0.721046 -0.326171,1.456639 -0.46875,2.1875 l -1.3125,-0.96875 -0.09375,0.25 1.34375,1.03125 C 46.99015,67.078206 46.849216,67.967573 46.75,68.875 L 47,68.8125 c 0.292823,-0.702203 0.522126,-1.437198 0.71875,-2.1875 l 2.59375,1.96875 0.28125,-0.21875 -2.8125,-2.0625 c 0.183019,-0.744975 0.34894,-1.50467 0.46875,-2.28125 0.77368,0.478223 1.549967,0.961466 2.3125,1.40625 l 0.03125,-0.28125 c -0.722833,-0.594004 -1.471492,-1.161863 -2.25,-1.71875 0.100111,-0.726036 0.176568,-1.448125 0.25,-2.1875 l -0.25,0.125 c -0.17517,0.570092 -0.346424,1.143259 -0.5,1.71875 C 46.661243,62.271087 45.420774,61.497152 44.125,60.75 c 0.29679,-0.758863 0.524708,-1.522387 0.84375,-2.28125 l -0.25,0 z m 62.125,5.46875 18.59375,23.46875 -2.46875,1.625 -17.59375,-23.75 1.46875,-1.34375 z M 79.125,71.96875 101.34375,109 98.96875,111.15625 78.09375,72.625 79.125,71.96875 z m 20.71875,3.4375 -5.15625,4.3125 C 94.094122,79.017034 93.528171,78.29439 93,77.5625 l -0.40625,0.125 c 0.546935,0.797631 1.12243,1.580752 1.71875,2.34375 l -1.0625,0.90625 0.1875,0.28125 1.09375,-0.9375 c 1.183595,1.497911 2.423713,2.949854 3.65625,4.40625 l -4.96875,4.5625 0.40625,0.4375 4.90625,-4.59375 c 0.05226,0.06206 0.104096,0.125391 0.15625,0.1875 1.58099,1.881256 3.00323,3.502976 4.09375,4.71875 l -0.53125,0.4375 0.71875,0.375 0.3125,-0.28125 C 103.73787,91.035264 104.375,91.75 104.375,91.75 l 0.28125,-0.28125 c 0,0 -0.60026,-0.714559 -1.03125,-1.25 l 5.96875,-5.3125 c 0.93825,0.917757 1.97782,1.725562 2.9375,2.65625 0.18624,0.179382 0.3298,0.352769 0.5,0.53125 -3.97151,4.783732 -8.08149,8.754601 -12.625,12.375 l 0.15625,0.34375 c 4.88887,-3.392485 9.28693,-7.432706 12.90625,-12.25 1.2156,1.362835 1.9375,2.53125 1.9375,2.53125 L 116,90.53125 c 0,0 -0.90529,-1.109049 -2.1875,-2.4375 0.32543,-0.443891 0.65687,-0.886695 0.96875,-1.34375 l -0.4375,-0.28125 c -0.32023,0.403262 -0.64698,0.795275 -0.96875,1.1875 -0.1882,-0.189328 -0.36296,-0.370305 -0.5625,-0.5625 -0.89971,-0.844257 -1.91196,-1.667945 -2.84375,-2.53125 l 1.6875,-1.5 -0.15625,-0.25 -1.8125,1.5 c -0.39046,-0.374436 -0.75813,-0.750154 -1.09375,-1.15625 l -0.25,0.34375 c 0.29033,0.400199 0.60107,0.776348 0.9375,1.125 l -6.09375,5.03125 c -1.00469,-1.240708 -2.34711,-2.894745 -3.90625,-4.75 -0.07952,-0.09467 -0.169485,-0.186823 -0.25,-0.28125 l 0.59375,-0.53125 -0.21875,-0.5 L 98.6875,84.25 c -1.235586,-1.424047 -2.540575,-2.832236 -3.78125,-4.28125 l 5.25,-4.40625 -0.3125,-0.15625 z m -10.28125,23.25 -0.375,0.09375 c -0.767573,1.61761 -0.879175,3.49868 -1,5.375 -0.350358,-0.13892 -0.674523,-0.25833 -0.9375,-0.40625 l -0.21875,0.25 c 0.239701,0.13483 0.683066,0.35589 1.125,0.59375 -0.03511,0.51851 -0.06573,1.02241 -0.125,1.53125 l 0.40625,-0.25 0.15625,-1.03125 c 0.577167,0.33153 1.227151,0.73852 1.96875,1.3125 0.347144,0.26868 0.707478,0.49897 1.03125,0.71875 L 91.375,108 l 0.46875,-0.46875 0.09375,-0.4375 c 1.000869,0.65069 1.75,1.03125 1.75,1.03125 L 93.96875,108 c 0,0 -1.103834,-0.85338 -1.9375,-1.5 l 0.4375,-2.15625 -0.40625,-0.0937 -0.375,2 c -0.372623,-0.28887 -0.363882,-0.30197 -0.78125,-0.625 -0.852206,-0.65958 -1.583295,-1.01301 -2.21875,-1.28125 l 0.875,-5.6875 z"
       id="path2308"
       inkscape:connector-curvature="0" />
  </g>
</svg>
