<?xml version="1.0" encoding="UTF-8" standalone="no"?>
<!-- Created with Inkscape (http://www.inkscape.org/) -->

<svg
   xmlns:dc="http://purl.org/dc/elements/1.1/"
   xmlns:cc="http://creativecommons.org/ns#"
   xmlns:rdf="http://www.w3.org/1999/02/22-rdf-syntax-ns#"
   xmlns:svg="http://www.w3.org/2000/svg"
   xmlns="http://www.w3.org/2000/svg"
   xmlns:xlink="http://www.w3.org/1999/xlink"
   xmlns:sodipodi="http://sodipodi.sourceforge.net/DTD/sodipodi-0.dtd"
   xmlns:inkscape="http://www.inkscape.org/namespaces/inkscape"
   width="125.53092"
   height="115.57242"
   id="svg2"
   sodipodi:version="0.32"
   inkscape:version="0.48.1 r9760"
   version="1.0"
   sodipodi:docname="nicubunu_RPG_map_symbols_Circus_Tent.svg"
   inkscape:output_extension="org.inkscape.output.svg.inkscape">
  <defs
     id="defs4">
    <linearGradient
       id="linearGradient3364">
      <stop
         style="stop-color:#9e0000;stop-opacity:1;"
         offset="0"
         id="stop3366" />
      <stop
         style="stop-color:#e00000;stop-opacity:1;"
         offset="1"
         id="stop3368" />
    </linearGradient>
    <linearGradient
       id="linearGradient3415">
      <stop
         style="stop-color:#1a1a1a;stop-opacity:1;"
         offset="0"
         id="stop3417" />
      <stop
         style="stop-color:#2b2b2b;stop-opacity:1;"
         offset="1"
         id="stop3419" />
    </linearGradient>
    <linearGradient
       id="linearGradient3108">
      <stop
         style="stop-color:#c223c2;stop-opacity:1;"
         offset="0"
         id="stop3110" />
      <stop
         style="stop-color:#ff00dc;stop-opacity:1;"
         offset="1"
         id="stop3112" />
    </linearGradient>
    <linearGradient
       id="linearGradient2320">
      <stop
         id="stop2322"
         offset="0"
         style="stop-color:#6a3c1d;stop-opacity:1;" />
      <stop
         id="stop2324"
         offset="1"
         style="stop-color:#8f5127;stop-opacity:1;" />
    </linearGradient>
    <linearGradient
       id="linearGradient3203">
      <stop
         id="stop3205"
         offset="0"
         style="stop-color:#e3cf6f;stop-opacity:1;" />
      <stop
         id="stop3207"
         offset="1"
         style="stop-color:#faeca9;stop-opacity:1;" />
    </linearGradient>
    <linearGradient
       inkscape:collect="always"
       xlink:href="#linearGradient3108"
       id="linearGradient2422"
       x1="73.859459"
       y1="17.427027"
       x2="75.416214"
       y2="11.243243"
       gradientUnits="userSpaceOnUse"
       gradientTransform="translate(3.2864865,-0.172973)" />
    <linearGradient
       inkscape:collect="always"
       xlink:href="#linearGradient2320"
       id="linearGradient2426"
       x1="99.372971"
       y1="100.45406"
       x2="103.26486"
       y2="100.45406"
       gradientUnits="userSpaceOnUse"
       gradientTransform="translate(3.2864865,-0.172973)" />
    <linearGradient
       inkscape:collect="always"
       xlink:href="#linearGradient3203"
       id="linearGradient2434"
       x1="64.086487"
       y1="31.74054"
       x2="69.967567"
       y2="28.880768"
       gradientUnits="userSpaceOnUse"
       gradientTransform="translate(3.2864865,-0.172973)" />
    <linearGradient
       inkscape:collect="always"
       xlink:href="#linearGradient3364"
       id="linearGradient3370"
       x1="49.851028"
       y1="33.866409"
       x2="55.065941"
       y2="28.28108"
       gradientUnits="userSpaceOnUse"
       gradientTransform="translate(3.2864865,-0.172973)" />
    <linearGradient
       inkscape:collect="always"
       xlink:href="#linearGradient3364"
       id="linearGradient3376"
       x1="75.24324"
       y1="34.075676"
       x2="89.081078"
       y2="31.913513"
       gradientUnits="userSpaceOnUse"
       gradientTransform="translate(3.2864865,-0.172973)" />
    <linearGradient
       inkscape:collect="always"
       xlink:href="#linearGradient3203"
       id="linearGradient3380"
       x1="85.102699"
       y1="42.464867"
       x2="103.6973"
       y2="39.43784"
       gradientUnits="userSpaceOnUse"
       gradientTransform="translate(3.2864865,-0.172973)" />
    <linearGradient
       inkscape:collect="always"
       xlink:href="#linearGradient3203"
       id="linearGradient3384"
       x1="112.86488"
       y1="49.816216"
       x2="115.71892"
       y2="51.113514"
       gradientUnits="userSpaceOnUse"
       gradientTransform="translate(3.2864865,-0.172973)" />
    <linearGradient
       inkscape:collect="always"
       xlink:href="#linearGradient3364"
       id="linearGradient3388"
       x1="97.037842"
       y1="56.908108"
       x2="111.22162"
       y2="50.162163"
       gradientUnits="userSpaceOnUse"
       gradientTransform="translate(3.2864865,-0.172973)" />
    <linearGradient
       inkscape:collect="always"
       xlink:href="#linearGradient3364"
       id="linearGradient3392"
       x1="115.3054"
       y1="63.827026"
       x2="119.24595"
       y2="63.827026"
       gradientUnits="userSpaceOnUse"
       gradientTransform="translate(3.2864865,-0.172973)" />
    <linearGradient
       inkscape:collect="always"
       xlink:href="#linearGradient3203"
       id="linearGradient3396"
       x1="116.41081"
       y1="75.935135"
       x2="125.4054"
       y2="71.005402"
       gradientUnits="userSpaceOnUse"
       gradientTransform="translate(3.2864865,-0.172973)" />
    <linearGradient
       inkscape:collect="always"
       xlink:href="#linearGradient3364"
       id="linearGradient3400"
       x1="119.17838"
       y1="60.441284"
       x2="122.52352"
       y2="60.441284"
       gradientUnits="userSpaceOnUse"
       gradientTransform="translate(3.2864865,-0.172973)" />
    <linearGradient
       inkscape:collect="always"
       xlink:href="#linearGradient3203"
       id="linearGradient3404"
       x1="85.535141"
       y1="59.978378"
       x2="87.610809"
       y2="47.610813"
       gradientUnits="userSpaceOnUse"
       gradientTransform="translate(3.2864865,-0.172973)" />
    <linearGradient
       inkscape:collect="always"
       xlink:href="#linearGradient3203"
       id="linearGradient3410"
       x1="105.77297"
       y1="80.172966"
       x2="110.27028"
       y2="81.383781"
       gradientUnits="userSpaceOnUse"
       gradientTransform="translate(3.2864865,-0.172973)" />
    <linearGradient
       inkscape:collect="always"
       xlink:href="#linearGradient3364"
       id="linearGradient3414"
       x1="117.44865"
       y1="84.972969"
       x2="116.75675"
       y2="79.005402"
       gradientUnits="userSpaceOnUse"
       gradientTransform="translate(3.2864865,-0.172973)" />
    <linearGradient
       inkscape:collect="always"
       xlink:href="#linearGradient3364"
       id="linearGradient3418"
       x1="112.25945"
       y1="88.691895"
       x2="113.55676"
       y2="82.810814"
       gradientUnits="userSpaceOnUse"
       gradientTransform="translate(3.2864865,-0.172973)" />
    <linearGradient
       inkscape:collect="always"
       xlink:href="#linearGradient3364"
       id="linearGradient3424"
       x1="73.167564"
       y1="59.459457"
       x2="90.724327"
       y2="94.054054"
       gradientUnits="userSpaceOnUse"
       gradientTransform="translate(3.2864865,-0.172973)" />
    <linearGradient
       inkscape:collect="always"
       xlink:href="#linearGradient3364"
       id="linearGradient3428"
       x1="86.789192"
       y1="89.902702"
       x2="91.675674"
       y2="94.22702"
       gradientUnits="userSpaceOnUse"
       gradientTransform="translate(3.2864865,-0.172973)" />
    <linearGradient
       inkscape:collect="always"
       xlink:href="#linearGradient3203"
       id="linearGradient3432"
       x1="76.540543"
       y1="102.48648"
       x2="88.043243"
       y2="107.93513"
       gradientUnits="userSpaceOnUse"
       gradientTransform="translate(3.2864865,-0.172973)" />
    <linearGradient
       inkscape:collect="always"
       xlink:href="#linearGradient3203"
       id="linearGradient3436"
       x1="82.075676"
       y1="102.57297"
       x2="91.502701"
       y2="106.98378"
       gradientUnits="userSpaceOnUse"
       gradientTransform="translate(3.2864865,-0.172973)" />
    <linearGradient
       inkscape:collect="always"
       xlink:href="#linearGradient3203"
       id="linearGradient3440"
       x1="60.413437"
       y1="61.973907"
       x2="70.533905"
       y2="83.098724"
       gradientUnits="userSpaceOnUse"
       gradientTransform="translate(3.2864865,-0.172973)" />
    <linearGradient
       inkscape:collect="always"
       xlink:href="#linearGradient3203"
       id="linearGradient3446"
       x1="55.684658"
       y1="91.230453"
       x2="66.202866"
       y2="98.124741"
       gradientUnits="userSpaceOnUse"
       gradientTransform="translate(3.2864865,-0.172973)" />
    <linearGradient
       inkscape:collect="always"
       xlink:href="#linearGradient3364"
       id="linearGradient3450"
       x1="56.922096"
       y1="114.43239"
       x2="76.544304"
       y2="94.6334"
       gradientUnits="userSpaceOnUse"
       gradientTransform="translate(3.2864865,-0.172973)" />
    <linearGradient
       inkscape:collect="always"
       xlink:href="#linearGradient3364"
       id="linearGradient3455"
       x1="50.204582"
       y1="57.466099"
       x2="64.700272"
       y2="71.519844"
       gradientUnits="userSpaceOnUse"
       gradientTransform="translate(3.2864865,-0.172973)" />
    <linearGradient
       inkscape:collect="always"
       xlink:href="#linearGradient3364"
       id="linearGradient3461"
       x1="32.615303"
       y1="86.236504"
       x2="35.797279"
       y2="93.174988"
       gradientUnits="userSpaceOnUse"
       gradientTransform="translate(3.2864865,-0.172973)" />
    <linearGradient
       inkscape:collect="always"
       xlink:href="#linearGradient3203"
       id="linearGradient3465"
       x1="31.201088"
       y1="97.550209"
       x2="40.128311"
       y2="120.97312"
       gradientUnits="userSpaceOnUse"
       gradientTransform="translate(3.2864865,-0.172973)" />
    <linearGradient
       inkscape:collect="always"
       xlink:href="#linearGradient3203"
       id="linearGradient3469"
       x1="36.062447"
       y1="64.183617"
       x2="41.365746"
       y2="73.906334"
       gradientUnits="userSpaceOnUse"
       gradientTransform="translate(3.2864865,-0.172973)" />
    <linearGradient
       inkscape:collect="always"
       xlink:href="#linearGradient3203"
       id="linearGradient3473"
       x1="17.67767"
       y1="74.966988"
       x2="19.26866"
       y2="81.419342"
       gradientUnits="userSpaceOnUse"
       gradientTransform="translate(3.2864865,-0.172973)" />
    <linearGradient
       inkscape:collect="always"
       xlink:href="#linearGradient3364"
       id="linearGradient3477"
       x1="15.600543"
       y1="83.408073"
       x2="17.589281"
       y2="111.2946"
       gradientUnits="userSpaceOnUse"
       gradientTransform="translate(3.2864865,-0.172973)" />
    <linearGradient
       inkscape:collect="always"
       xlink:href="#linearGradient3203"
       id="linearGradient3481"
       x1="10.16466"
       y1="71.254684"
       x2="7.6013985"
       y2="80.889008"
       gradientUnits="userSpaceOnUse"
       gradientTransform="translate(3.2864865,-0.172973)" />
    <linearGradient
       inkscape:collect="always"
       xlink:href="#linearGradient3364"
       id="linearGradient3485"
       x1="10.960155"
       y1="58.615147"
       x2="10.960155"
       y2="66.835266"
       gradientUnits="userSpaceOnUse"
       gradientTransform="translate(3.2864865,-0.172973)" />
    <linearGradient
       inkscape:collect="always"
       xlink:href="#linearGradient3364"
       id="linearGradient3489"
       x1="35.532116"
       y1="49.42276"
       x2="37.741825"
       y2="62.415848"
       gradientUnits="userSpaceOnUse"
       gradientTransform="translate(3.2864865,-0.172973)" />
    <linearGradient
       inkscape:collect="always"
       xlink:href="#linearGradient3203"
       id="linearGradient3493"
       x1="30.847534"
       y1="39.523262"
       x2="29.433319"
       y2="36.694836"
       gradientUnits="userSpaceOnUse"
       gradientTransform="translate(3.2864865,-0.172973)" />
    <linearGradient
       inkscape:collect="always"
       xlink:href="#linearGradient3415"
       id="linearGradient3519"
       x1="96.608467"
       y1="91.849167"
       x2="105.88924"
       y2="103.33965"
       gradientUnits="userSpaceOnUse"
       gradientTransform="translate(3.2864865,-0.172973)" />
    <filter
       inkscape:collect="always"
       id="filter3587"
       color-interpolation-filters="sRGB">
      <feGaussianBlur
         inkscape:collect="always"
         stdDeviation="1.9335818"
         id="feGaussianBlur3589" />
    </filter>
  </defs>
  <sodipodi:namedview
     id="base"
     pagecolor="#ffffff"
     bordercolor="#666666"
     borderopacity="1.0"
     gridtolerance="10000"
     guidetolerance="10"
     objecttolerance="10"
     inkscape:pageopacity="0.0"
     inkscape:pageshadow="2"
     inkscape:zoom="1"
     inkscape:cx="238.52568"
     inkscape:cy="59.88953"
     inkscape:document-units="px"
     inkscape:current-layer="layer2"
     showgrid="false"
     width="744.09px"
     inkscape:window-width="1248"
     inkscape:window-height="975"
     inkscape:window-x="426"
     inkscape:window-y="24"
     showguides="true"
     inkscape:guide-bbox="true"
     fit-margin-top="0"
     fit-margin-left="0"
     fit-margin-right="0"
     fit-margin-bottom="0"
     inkscape:window-maximized="0" />
  <metadata
     id="metadata7">
    <rdf:RDF>
      <cc:Work
         rdf:about="">
        <dc:format>image/svg+xml</dc:format>
        <dc:type
           rdf:resource="http://purl.org/dc/dcmitype/StillImage" />
      </cc:Work>
    </rdf:RDF>
  </metadata>
  <g
     inkscape:groupmode="layer"
     id="layer2"
     inkscape:label="colors"
     transform="translate(-1.4743172,-8.3171136)">
    <path
       style="fill:#000000;fill-opacity:0.66666667;fill-rule:evenodd;stroke:none;filter:url(#filter3587)"
       d="M 18.842835,108.02804 6.1149136,88.229047 7.1755738,66.66229 13.185981,47.570408 26.267456,35.196038 41.527318,30.866873 34.81536,14.310311 c 9.115038,3.531512 18.230075,0.49819 27.345113,-1.352601 -8.207381,4.486887 -15.910536,6.956871 -23.175213,7.672941 L 43.241724,30.993695 55.965941,29.539184 104.40276,45.449087 78.593358,81.511533 35.813398,93.885901 18.842835,108.02804 z"
       id="path3521"
       sodipodi:nodetypes="ccccccccccccccc"
       inkscape:connector-curvature="0" />
    <path
       style="fill:url(#linearGradient3519);fill-rule:evenodd;stroke:none"
       d="M 86.725086,119.34175 C 94.927392,112.25399 104.12513,91.868601 123.8482,90.350368 L 100.16012,72.849475 75.941708,91.057474 86.725086,119.34175 z"
       id="path3517"
       sodipodi:nodetypes="ccccc"
       inkscape:connector-curvature="0" />
    <path
       style="fill:url(#linearGradient2422);fill-rule:evenodd;stroke:none"
       d="M 67.891891,11.07027 72.129729,11.502703 80,12.8 l 7.61081,1.124324 4.497298,0.25946 5.275675,-0.605406 -2.248648,2.162162 -3.372973,1.037838 L 86.4,17.297297 80,17.47027 l -6.140541,0.432433 -6.572973,1.21081 -0.345946,-2.594594 0.08649,-2.421622 0.864864,-3.027027 z"
       id="path2420"
       inkscape:connector-curvature="0" />
    <path
       style="fill:url(#linearGradient2426);fill-rule:evenodd;stroke:none"
       d="m 101.44865,85.967568 1.72973,27.329732 0.17297,0.86487 2.16217,1.29729 0.95135,-0.34594 1.38378,-0.51892 0.51892,-0.60541 -1.47027,-14.183785 -1.47027,-14.183783 -1.47027,-0.518919 -1.2973,0.259459 -1.21081,0.605406 z"
       id="path2424"
       inkscape:connector-curvature="0" />
    <path
       style="fill:url(#linearGradient2434);fill-rule:evenodd;stroke:none"
       d="m 58.291891,27.935135 1.124325,1.124324 1.643243,0.778379 2.508108,0.864865 3.718919,0.864864 2.681081,-0.172972 6.227027,-0.25946 4.583784,-0.605405 2.508108,-0.518919 2.681081,-0.951352 -1.037838,-0.172973 -5.448648,0.518919 -5.535136,0 c 0,0 -5.621621,-0.864865 -6.745945,-0.605405 -1.124325,0.259459 -5.016217,-0.518919 -5.362163,-0.518919 -0.345946,0 -3.372973,-0.432432 -3.545946,-0.345946 z"
       id="path2432"
       inkscape:connector-curvature="0" />
    <path
       style="fill:url(#linearGradient3370);fill-opacity:1;fill-rule:evenodd;stroke:none"
       d="m 33.816216,35.2 4.237838,-0.778378 4.929729,-1.210811 5.362162,-1.470271 3.978379,-1.47027 5.967567,-2.162162 0.951352,0.864865 3.286486,1.556757 4.670271,1.21081 -3.286487,0.691892 -6.659459,1.210811 -4.670271,0.864865 -4.67027,0.864865 -5.362162,0.864865 c 0,0 -4.583784,0 -5.189189,-0.25946 C 36.756756,35.718919 33.989189,35.545946 33.816216,35.2 z"
       id="path2775"
       sodipodi:nodetypes="ccccccccccccccsc"
       inkscape:connector-curvature="0" />
    <path
       style="fill:url(#linearGradient3376);fill-opacity:1;fill-rule:evenodd;stroke:none"
       d="m 68.583783,31.74054 3.113514,-0.345945 4.064865,-0.172973 3.632432,-0.518919 3.113514,-0.605406 3.545946,-1.037838 2.075675,1.124325 8.648649,4.151351 8.648652,3.545946 3.45946,1.297297 -1.81622,0.605406 -4.67027,-0.25946 c 0,0 -5.621622,-0.691892 -5.967568,-0.691892 -0.345945,0 -10.291892,-1.902702 -10.291892,-1.902702 L 74.205405,34.335135 68.583783,31.74054 z"
       id="path3374"
       sodipodi:nodetypes="ccccccccccccsccc"
       inkscape:connector-curvature="0" />
    <path
       style="fill:url(#linearGradient3380);fill-opacity:1;fill-rule:evenodd;stroke:none"
       d="m 69.102702,31.913513 7.005406,2.508109 8.475675,2.162162 10.724325,1.902702 4.497297,0.864865 4.670275,0.432433 4.58378,-0.518919 0.86487,1.816216 3.45946,5.448649 3.37297,4.41081 3.54595,3.372973 -0.6919,1.383784 -3.97837,-0.605405 -9.08109,-2.767568 -11.935134,-5.102702 -12.540541,-5.881082 -8.12973,-4.843243 -2.594594,-2.075675 -2.940541,-2.248649 0.691892,-0.25946 z"
       id="path3378"
       inkscape:connector-curvature="0" />
    <path
       style="fill:url(#linearGradient3384);fill-rule:evenodd;stroke:none"
       d="m 109.23244,39.697297 c 0,0 2.85405,2.335135 3.37297,3.2 0.51892,0.864865 4.58378,3.805406 4.58378,3.805406 l 2.85406,3.718919 0.86486,2.594594 -0.34594,1.556757 c 0,0 -1.98919,-1.383784 -2.50811,-1.989189 -0.51892,-0.605406 -4.75676,-6.227027 -4.75676,-6.227027 l -3.37297,-5.275676 -0.69189,-1.383784 z"
       id="path3382"
       inkscape:connector-curvature="0" />
    <path
       style="fill:url(#linearGradient3388);fill-opacity:1;fill-rule:evenodd;stroke:none"
       d="m 68.756756,32.172973 2.940541,4.843243 4.064865,4.237838 3.545946,3.459459 8.129729,6.486487 8.302703,6.486486 7.87027,5.708109 8.04325,5.448648 5.79459,3.45946 0.17298,-5.18919 0.51891,-5.881081 0.77838,-3.891892 0.77838,-1.643243 c -2.57754,-0.235912 -5.00391,-0.774159 -7.35135,-1.47027 l -10.37838,-4.064865 c 0,0 -11.15676,-4.497297 -12.281084,-5.102703 -1.124324,-0.605405 -10.983784,-5.621621 -10.983784,-5.621621 l -5.362162,-3.372973 -3.891892,-3.2 -0.691892,-0.691892 z"
       id="path3386"
       sodipodi:nodetypes="cccccccccccccccscccc"
       inkscape:connector-curvature="0" />
    <path
       style="fill:url(#linearGradient3392);fill-rule:evenodd;stroke:none"
       d="m 120.21622,54.313513 -1.03784,2.335136 -1.12432,4.583783 -0.34595,6.054054 -0.0865,5.362163 1.9027,-1.72973 2.07567,-4.843243 0.43244,-4.843244 -0.6919,-4.67027 -1.12432,-2.248649 z"
       id="path3390"
       sodipodi:nodetypes="cccccccccc"
       inkscape:connector-curvature="0" />
    <path
       style="fill:url(#linearGradient3396);fill-rule:evenodd;stroke:none"
       d="m 122.03244,60.886486 1.55675,2.940541 1.47027,2.767568 1.12433,1.47027 -0.69189,7.524324 0.17297,6.832433 0.95135,8.216216 -2.24865,-2.767568 -5.62162,-10.724324 -1.12432,-4.410811 1.12432,-1.037838 1.98919,-3.027027 1.21081,-4.151351 0.0865,-3.632433 z"
       id="path3394"
       inkscape:connector-curvature="0" />
    <path
       style="fill:url(#linearGradient3400);fill-rule:evenodd;stroke:none"
       d="m 121.77298,60.454054 1.29729,2.162162 1.72973,3.632433 c 0,0 1.2973,1.47027 0.95135,0.518919 -0.34594,-0.951352 -1.38378,-3.805406 -1.38378,-3.805406 l -0.0865,-2.681081 -1.47027,-2.421622 -1.64324,-4.41081 -0.6054,1.21081 0.77837,2.248649 0.43244,3.545946 z"
       id="path3398"
       inkscape:connector-curvature="0" />
    <path
       style="fill:url(#linearGradient3404);fill-rule:evenodd;stroke:none"
       d="m 68.324324,32.259459 1.210811,1.037838 2.335135,3.718919 2.854054,3.372973 2.421621,2.335135 5.448649,4.756757 11.762162,9.254054 7.956754,5.794595 11.50271,7.524324 3.89189,2.508108 -2.59459,1.47027 -4.23784,4.064865 -6.14054,5.362162 -2.42163,1.98919 -1.12432,0.691891 L 89.081081,68.67027 75.502702,47.308108 70.313513,37.275676 68.324324,32.259459 z"
       id="path3402"
       inkscape:connector-curvature="0" />
    <path
       style="fill:url(#linearGradient3410);fill-rule:evenodd;stroke:none"
       d="m 102.48649,85.362162 3.2,-2.94054 3.71892,-3.027027 3.89189,-3.545946 4.06487,-3.286487 -0.25946,1.47027 -1.21081,3.545946 L 114.16217,80 l -1.47027,1.643243 -2.76757,1.989189 -4.23784,1.556757 -3.2,0.172973 z"
       id="path3408"
       inkscape:connector-curvature="0" />
    <path
       style="fill:url(#linearGradient3414);fill-rule:evenodd;stroke:none"
       d="m 105.16757,85.275676 2.94054,-0.951352 2.76757,-1.210811 2.42162,-2.075675 2.24865,-2.767568 2.24865,-5.275675 0.86486,3.372973 2.5946,6.227027 4.75675,7.956756 -2.76756,-1.124324 -3.80541,-2.940541 c 0,0 -1.12432,-1.816216 -1.38378,-2.162162 -0.25946,-0.345946 -0.77838,-3.805405 -0.77838,-3.805405 l -0.60541,1.210811 -1.38378,2.075675 -3.37297,1.556757 -3.37298,0.345946 -3.37297,-0.432432 z"
       id="path3412"
       inkscape:connector-curvature="0" />
    <path
       style="fill:url(#linearGradient3418);fill-rule:evenodd;stroke:none"
       d="m 105.6,85.448649 3.02703,0.172973 3.45946,-0.25946 2.76757,-1.297297 1.64324,-1.989189 0.69189,-1.556757 0.3892,1.859459 0.73513,2.464865 1.64324,2.335135 1.64324,1.470271 2.33514,1.124324 2.50811,1.037838 0.51892,1.383784 -3.37298,-0.432433 -5.1027,-0.691892 -4.15135,-1.037838 -5.27568,-1.816216 -3.45946,-1.643243 0,-1.124324 z"
       id="path3416"
       sodipodi:nodetypes="ccccccccccccccccccc"
       inkscape:connector-curvature="0" />
    <path
       style="fill:url(#linearGradient3424);fill-rule:evenodd;stroke:none"
       d="m 68.67027,32.345946 1.989189,5.794594 7.005405,12.886487 9.340541,14.443243 14.443245,20.756757 -7.17838,1.383784 -8.821622,3.027027 -6.918919,2.335135 -1.124324,0 L 75.07027,81.989189 71.61081,60.021622 68.756756,36.92973 68.237837,32.778378 68.67027,32.345946 z"
       id="path3422"
       inkscape:connector-curvature="0" />
    <path
       style="fill:url(#linearGradient3428);fill-rule:evenodd;stroke:none"
       d="M 78.616216,92.886486 82.335135,91.502703 89.6,89.254054 94.529729,87.697297 101.27568,86.4 l 0.25946,0.605405 -0.6919,1.037838 -3.37297,3.891892 -2.854054,1.643243 -3.2,1.124325 -4.756757,0.605405 c 0,0 -4.151351,-0.518919 -4.67027,-0.691892 -0.518919,-0.172973 -3.2,-1.124324 -3.2,-1.124324 l -0.172973,-0.605406 z"
       id="path3426"
       inkscape:connector-curvature="0" />
    <path
       style="fill:url(#linearGradient3432);fill-rule:evenodd;stroke:none"
       d="m 77.924324,93.232432 -0.345946,2.508108 0.172973,5.53514 0.518919,5.27567 2.421621,13.05946 0.778379,3.97838 0.864865,-0.17297 0.778378,-6.31351 0.691892,-6.14054 -0.08649,-4.06487 -1.124324,-4.67027 1.72973,-0.77838 3.805405,-1.989191 6.65946,-5.016216 L 96,92.972973 l -2.508109,1.037838 -3.2,0.864865 c 0,0 -3.632432,0.259459 -3.978378,0.259459 -0.345946,0 -4.324324,-0.518919 -4.324324,-0.518919 l -4.064865,-1.383784 z"
       id="path3430"
       inkscape:connector-curvature="0" />
    <path
       style="fill:url(#linearGradient3436);fill-rule:evenodd;stroke:none"
       d="m 96.432432,92.54054 -2.075676,1.98919 -3.027027,2.681081 -2.767567,1.902702 -3.372973,1.816217 -2.681081,1.2973 0.864865,2.33514 0.345945,3.37297 0.08649,3.54594 -0.778378,5.62163 -0.864865,6.4 0.864865,-0.43244 5.448648,-5.7081 c 0,0 6.572973,-9.85946 6.140541,-9.6 -0.432433,0.25945 1.297297,-2.07568 1.297297,-2.07568 l 1.47027,-3.54595 1.902703,-5.189189 1.643241,-5.362162 0.69189,-2.681081 0,-2.075676 -0.95135,1.556757 -4.237835,4.151351 z"
       id="path3434"
       inkscape:connector-curvature="0" />
    <path
       style="fill:url(#linearGradient3440);fill-rule:evenodd;stroke:none"
       d="m 68.075145,32.190835 0.618718,2.209708 0.972272,9.722719 2.563262,20.152543 2.474874,15.026019 2.032932,10.253048 0.883884,3.447146 c 0,0 -4.684583,-0.441942 -5.038136,-0.441942 -0.353554,0 -10.253049,-0.707107 -10.253049,-0.707107 l -9.63433,-0.08839 -2.916815,0 4.507806,-10.871767 6.540737,-16.882174 4.331029,-14.230524 1.679379,-7.336233 0.795495,-5.480078 0.176777,-3.447145 0.265165,-1.325825 z"
       id="path3438"
       inkscape:connector-curvature="0" />
    <path
       style="fill:url(#linearGradient3446);fill-rule:evenodd;stroke:none"
       d="m 49.955534,91.941358 4.507805,-0.08839 7.954952,0 6.452349,0.441942 6.629126,0.53033 2.740039,0.353554 -0.618718,1.325825 -1.767767,1.59099 -5.39169,2.032932 -4.949747,0.618719 -5.038136,-0.707107 -4.772971,-1.856156 -3.889087,-2.209708 -1.856155,-2.032932 z"
       id="path3444"
       inkscape:connector-curvature="0" />
    <path
       style="fill:url(#linearGradient3450);fill-rule:evenodd;stroke:none"
       d="m 45.712893,122.52373 1.878252,-10.12046 1.502602,-9.50176 0.508233,-6.717512 0.176777,-4.419417 1.59099,1.679379 4.065864,2.65165 4.065864,1.59099 4.331029,1.060661 4.861359,0 6.894292,-2.298097 2.298097,-2.032932 -0.265165,2.828427 0.176776,3.181981 0.353554,4.86136 1.237436,7.42462 2.209709,10.96016 -5.745242,-1.06066 -5.480078,-0.35356 -5.303301,-0.44194 -6.010408,-0.26516 -5.214912,0 -5.656854,0.53033 -2.474874,0.44194 z"
       id="path3448"
       sodipodi:nodetypes="cccccccccccccccccccccccc"
       inkscape:connector-curvature="0" />
    <path
       style="fill:url(#linearGradient3455);fill-rule:evenodd;stroke:none"
       d="m 67.721592,31.748893 0.265165,2.209709 -0.353554,3.093592 -0.883883,6.010407 -4.065864,14.849243 -5.214913,15.202796 -7.247844,18.561553 -3.181981,-1.679379 -6.805903,-3.270369 -6.187184,-2.65165 -5.568466,-1.325825 0,-0.441942 6.187184,-4.861359 7.159457,-6.98268 8.573669,-10.518213 7.954952,-10.518214 6.010407,-9.722718 2.298097,-4.949747 0.707107,-2.386486 0.353554,-0.618718 z"
       id="path3452"
       inkscape:connector-curvature="0" />
    <path
       style="fill:url(#linearGradient3461);fill-rule:evenodd;stroke:none"
       d="m 28.123612,82.660581 4.861359,1.06066 5.656854,2.209709 5.038136,2.651651 6.363961,3.005203 -0.53033,0.353554 -3.181981,1.06066 -4.861359,-0.265165 -5.126524,-1.679379 c 0,0 -3.270369,-2.740038 -4.065864,-3.093592 -0.795495,-0.353553 -3.447145,-4.154252 -3.447145,-4.154252 l -0.707107,-1.149049 z"
       id="path3459"
       inkscape:connector-curvature="0" />
    <path
       style="fill:url(#linearGradient3465);fill-rule:evenodd;stroke:none"
       d="m 27.770058,82.395416 -0.53033,4.419418 -0.707107,3.270368 -1.767766,6.187185 -5.568466,14.760853 2.032932,0.26517 4.77297,1.59099 7.689787,3.27037 7.159456,3.88909 4.949747,2.74003 1.590991,-8.75044 1.325825,-8.30851 0.618718,-5.65685 0.441942,-8.308509 -1.59099,0.707107 -4.949748,0.53033 -4.861359,-1.06066 -3.005204,-1.679379 -3.270369,-2.740039 -2.916815,-3.270368 -1.414214,-1.856156 z"
       id="path3463"
       inkscape:connector-curvature="0" />
    <path
       style="fill:url(#linearGradient3469);fill-opacity:1;fill-rule:evenodd;stroke:none"
       d="m 16.191185,66.573902 5.214912,-1.59099 7.866563,-3.093592 7.159456,-3.800699 8.220117,-5.656855 9.545941,-7.601398 6.187185,-6.098796 6.805902,-6.717514 0.353554,0.176777 -1.149049,2.916815 -3.535534,7.336233 -5.3033,7.866563 -7.247845,9.63433 -6.629126,8.396893 -6.717514,7.071068 -5.92202,4.861359 -3.005204,2.209709 -4.507805,-7.071068 -5.126525,-6.363961 -2.209708,-2.474874 z"
       id="path3467"
       inkscape:connector-curvature="0" />
    <path
       style="fill:url(#linearGradient3473);fill-opacity:1;fill-rule:evenodd;stroke:none"
       d="m 16.45635,67.19262 4.154252,3.712311 2.563262,4.242641 3.181981,4.507805 1.767767,3.270369 -2.828427,-1.679378 -4.949748,-4.419418 -3.447145,-5.833631 -0.795496,-3.093592 0.353554,-0.707107 z"
       id="path3471"
       inkscape:connector-curvature="0" />
    <path
       style="fill:url(#linearGradient3477);fill-rule:evenodd;stroke:none"
       d="m 9.0317291,85.312232 1.9445439,-2.651651 2.209708,-4.772971 1.237437,-3.270368 c 0.931129,-2.372771 1.364105,-4.579492 1.59099,-6.717515 l 0.972272,3.535534 1.944544,3.270369 3.093592,3.712311 2.828427,2.474873 2.828427,1.856156 -0.53033,5.3033 -2.740039,9.545942 -5.391689,13.523418 -0.707107,-5.56846 -2.298097,-8.485288 -3.005203,-6.540738 -3.9774759,-5.214912 z"
       id="path3475"
       sodipodi:nodetypes="ccccccccccccccccc"
       inkscape:connector-curvature="0" />
    <path
       style="fill:url(#linearGradient3481);fill-rule:evenodd;stroke:none"
       d="m 10.092389,65.336465 2.386486,-2.032932 1.414213,-2.032932 0.53033,1.944544 1.325825,3.270369 0.265165,1.944543 -0.441942,2.651651 -1.325825,4.507805 -3.093592,6.894292 -1.9445432,3.18198 -0.3535534,-0.441942 1.0606602,-4.949747 0.8838834,-7.778175 -0.707107,-7.159456 z"
       id="path3479"
       inkscape:connector-curvature="0" />
    <path
       style="fill:url(#linearGradient3485);fill-rule:evenodd;stroke:none"
       d="m 15.92602,66.66229 1.502602,-8.927223 0.618718,-7.513009 -0.353553,0 -1.149049,2.563262 -1.414213,3.800699 -0.707107,2.563262 -0.176777,3.447145 0.707107,2.121321 0.972272,1.944543 z"
       id="path3483"
       inkscape:connector-curvature="0" />
    <path
       style="fill:url(#linearGradient3489);fill-opacity:1;fill-rule:evenodd;stroke:none"
       d="M 17.782175,49.868504 26.797787,46.951689 43.591573,41.56 l 13.611805,-5.656855 6.540738,-2.916815 3.093592,-1.237437 0.707107,0 -2.298097,2.032932 -8.04334,8.04334 -10.253048,8.927223 -6.717515,4.861359 -6.629126,4.065864 -6.717514,3.093592 -4.419418,1.856155 -4.331029,1.325826 -2.298097,0.53033 1.060661,-4.242641 0.53033,-5.126524 0.441941,-4.861359 -0.08839,-2.386486 z"
       id="path3487"
       inkscape:connector-curvature="0" />
    <path
       style="fill:url(#linearGradient3493);fill-opacity:1;fill-rule:evenodd;stroke:none"
       d="m 18.135728,49.161397 c 0,0 7.159457,-5.480077 7.51301,-5.833631 0.353553,-0.353553 3.093592,-2.563262 3.093592,-2.563262 l 3.093592,-3.18198 1.856156,-2.386486 4.154252,0.972272 6.363961,-0.176776 6.363961,-0.972272 14.142136,-3.005204 2.12132,-0.176777 -2.563262,0.883884 -10.783378,4.772971 -8.308505,3.447145 -8.485282,3.093592 -13.965358,4.242641 -4.596195,1.325825 0,-0.441942 z"
       id="path3491"
       inkscape:connector-curvature="0" />
    <path
       id="path3495"
       d="m 68.075145,32.190835 0.618718,2.209708 0.972272,9.722719 2.563262,20.152543 2.474874,15.026019 2.032932,10.253048 0.883884,3.447146 c 0,0 -4.684583,-0.441942 -5.038136,-0.441942 -0.353554,0 -10.253049,-0.707107 -10.253049,-0.707107 l -9.63433,-0.08839 -2.916815,0 4.507806,-10.871767 6.540737,-16.882174 4.331029,-14.230524 1.679379,-7.336233 0.795495,-5.480078 0.176777,-3.447145 0.265165,-1.325825 z"
       style="fill:#000000;fill-opacity:0.15686275;fill-rule:evenodd;stroke:none"
       inkscape:connector-curvature="0" />
    <path
       id="path3497"
       d="m 49.955534,91.941358 4.507805,-0.08839 7.954952,0 6.452349,0.441942 6.629126,0.53033 2.740039,0.353554 -0.618718,1.325825 -1.767767,1.59099 -5.39169,2.032932 -4.949747,0.618719 -5.038136,-0.707107 -4.772971,-1.856156 -3.889087,-2.209708 -1.856155,-2.032932 z"
       style="fill:#000000;fill-opacity:0.15686275;fill-rule:evenodd;stroke:none"
       inkscape:connector-curvature="0" />
    <path
       sodipodi:nodetypes="cccccccccccccccccccccccc"
       id="path3499"
       d="m 45.712893,122.52373 1.878252,-10.12046 1.502602,-9.50176 0.508233,-6.717512 0.176777,-4.419417 1.59099,1.679379 4.065864,2.65165 4.065864,1.59099 4.331029,1.060661 4.861359,0 6.894292,-2.298097 2.298097,-2.032932 -0.265165,2.828427 0.176776,3.181981 0.353554,4.86136 1.237436,7.42462 2.209709,10.96016 -5.745242,-1.06066 -5.480078,-0.35356 -5.303301,-0.44194 -6.010408,-0.26516 -5.214912,0 -5.656854,0.53033 -2.474874,0.44194 z"
       style="fill:#000000;fill-opacity:0.15686275;fill-rule:evenodd;stroke:none"
       inkscape:connector-curvature="0" />
    <path
       id="path3501"
       d="m 67.721592,31.748893 0.265165,2.209709 -0.353554,3.093592 -0.883883,6.010407 -4.065864,14.849243 -5.214913,15.202796 -7.247844,18.561553 -3.181981,-1.679379 -6.805903,-3.270369 -6.187184,-2.65165 -5.568466,-1.325825 0,-0.441942 6.187184,-4.861359 7.159457,-6.98268 8.573669,-10.518213 7.954952,-10.518214 6.010407,-9.722718 2.298097,-4.949747 0.707107,-2.386486 0.353554,-0.618718 z"
       style="fill:#000000;fill-opacity:0.15686275;fill-rule:evenodd;stroke:none"
       inkscape:connector-curvature="0" />
    <path
       id="path3503"
       d="m 28.123612,82.660581 4.861359,1.06066 5.656854,2.209709 5.038136,2.651651 6.363961,3.005203 -0.53033,0.353554 -3.181981,1.06066 -4.861359,-0.265165 -5.126524,-1.679379 c 0,0 -3.270369,-2.740038 -4.065864,-3.093592 -0.795495,-0.353553 -3.447145,-4.154252 -3.447145,-4.154252 l -0.707107,-1.149049 z"
       style="fill:#000000;fill-opacity:0.15686275;fill-rule:evenodd;stroke:none"
       inkscape:connector-curvature="0" />
    <path
       id="path3505"
       d="m 27.770058,82.395416 -0.53033,4.419418 -0.707107,3.270368 -1.767766,6.187185 -5.568466,14.760853 2.032932,0.26517 4.77297,1.59099 7.689787,3.27037 7.159456,3.88909 4.949747,2.74003 1.590991,-8.75044 1.325825,-8.30851 0.618718,-5.65685 0.441942,-8.308509 -1.59099,0.707107 -4.949748,0.53033 -4.861359,-1.06066 -3.005204,-1.679379 -3.270369,-2.740039 -2.916815,-3.270368 -1.414214,-1.856156 z"
       style="fill:#000000;fill-opacity:0.15686275;fill-rule:evenodd;stroke:none"
       inkscape:connector-curvature="0" />
    <path
       id="path3507"
       d="m 16.191185,66.573902 5.214912,-1.59099 7.866563,-3.093592 7.159456,-3.800699 8.220117,-5.656855 9.545941,-7.601398 6.187185,-6.098796 6.805902,-6.717514 0.353554,0.176777 -1.149049,2.916815 -3.535534,7.336233 -5.3033,7.866563 -7.247845,9.63433 -6.629126,8.396893 -6.717514,7.071068 -5.92202,4.861359 -3.005204,2.209709 -4.507805,-7.071068 -5.126525,-6.363961 -2.209708,-2.474874 z"
       style="fill:#000000;fill-opacity:0.15686275;fill-rule:evenodd;stroke:none"
       inkscape:connector-curvature="0" />
    <path
       id="path3509"
       d="m 16.45635,67.19262 4.154252,3.712311 2.563262,4.242641 3.181981,4.507805 1.767767,3.270369 -2.828427,-1.679378 -4.949748,-4.419418 -3.447145,-5.833631 -0.795496,-3.093592 0.353554,-0.707107 z"
       style="fill:#000000;fill-opacity:0.15686275;fill-rule:evenodd;stroke:none"
       inkscape:connector-curvature="0" />
    <path
       sodipodi:nodetypes="ccccccccccccccccc"
       id="path3511"
       d="m 9.0317291,85.312232 1.9445439,-2.651651 2.209708,-4.772971 1.237437,-3.270368 c 0.931129,-2.372771 1.364105,-4.579492 1.59099,-6.717515 l 0.972272,3.535534 1.944544,3.270369 3.093592,3.712311 2.828427,2.474873 2.828427,1.856156 -0.53033,5.3033 -2.740039,9.545942 -5.391689,13.523418 -0.707107,-5.56846 -2.298097,-8.485288 -3.005203,-6.540738 -3.9774759,-5.214912 z"
       style="fill:#000000;fill-opacity:0.15686275;fill-rule:evenodd;stroke:none"
       inkscape:connector-curvature="0" />
    <path
       id="path3513"
       d="m 10.092389,65.336465 2.386486,-2.032932 1.414213,-2.032932 0.53033,1.944544 1.325825,3.270369 0.265165,1.944543 -0.441942,2.651651 -1.325825,4.507805 -3.093592,6.894292 -1.9445432,3.18198 -0.3535534,-0.441942 1.0606602,-4.949747 0.8838834,-7.778175 -0.707107,-7.159456 z"
       style="fill:#000000;fill-opacity:0.15686275;fill-rule:evenodd;stroke:none"
       inkscape:connector-curvature="0" />
    <path
       id="path3515"
       d="m 15.92602,66.66229 1.502602,-8.927223 0.618718,-7.513009 -0.353553,0 -1.149049,2.563262 -1.414213,3.800699 -0.707107,2.563262 -0.176777,3.447145 0.707107,2.121321 0.972272,1.944543 z"
       style="fill:#000000;fill-opacity:0.15686275;fill-rule:evenodd;stroke:none"
       inkscape:connector-curvature="0" />
  </g>
  <g
     inkscape:label="outline"
     inkscape:groupmode="layer"
     id="layer1"
     transform="translate(-1.4743172,-8.3171136)">
    <path
       style="fill:#000000;fill-opacity:1;stroke:none"
       d="M 67.358789,8.7841338 C 66.27754,15.392182 66.936181,22.000229 66.911486,28.608277 c -2.928872,0.187742 -5.852379,-0.629606 -8.78125,-0.9375 -7.386498,3.739604 -15.939173,5.896539 -24.96875,7.40625 -3.140258,6.053213 -10.271928,9.67687 -15.84375,14.25 0.266797,1.318411 -0.901301,3.322919 -1.8125,5.125 -0.749104,1.64844 -1.369768,3.317951 -1.25,5.25 -0.974766,2.340731 -2.644141,4.129859 -4.15625,5.53125 0.140894,6.770913 0.323196,13.83953 -1.6562495,20.375 7.6307875,6.844344 9.4771035,19.078133 10.3124995,25.625003 8.247954,0.6689 17.974256,7.25119 27.1875,11.78125 6.680208,-2.42743 19.963943,-1.51234 36.15625,0.875 10.005364,-7.12249 15.969068,-21.24829 19.406254,-33.906253 0.51338,8.899572 0.63674,14.611633 1.46875,23.937503 2.4873,2.89287 4.05675,1.4751 5.59375,0.25 -0.99439,-8.75539 -1.84943,-18.357783 -2.625,-27.281253 3.0164,2.106118 10.39403,4.670207 21.0625,5.3125 -0.99796,-8.077279 -1.88357,-16.277002 -0.28125,-24.46875 -1.23706,-2.281625 -2.18697,-4.914979 -2.34375,-7.5625 -1.31566,-1.512323 -2.06695,-4.594733 -3.03125,-6.8125 0.0945,-1.395977 -1.12086,-2.977747 -1.96875,-4.1875 -2.05505,-2.706514 -5.93226,-5.774682 -10.34375,-9.875 -0.0826,-0.125286 -0.16663,-0.250126 -0.25,-0.375 -10.193458,-3.461488 -15.731532,-6.736761 -23.312504,-10.09375 -8.83682,0.594185 -10.571634,0.785696 -17.3125,-0.15625 l 0.5,-9.8125 c 17.80961,-3.406542 24.58338,1.181126 29.228238,-5.740197 -9.078605,2.327856 -19.360854,-1.362513 -29.071988,-2.197303 l -0.8125,-1.7830898 -0.646447,-0.3535534 z m 0.708947,3.0741432 c 9.35933,-0.167279 18.877499,3.557136 28.625446,2.243718 -4.580329,5.098973 -19.357425,2.065821 -29.036138,4.026809 -0.282384,-1.940594 -1.226018,-3.690235 0.410692,-6.270527 z m -9.53125,16.34375 c 2.804102,0.316509 5.290861,0.620992 8.4375,0.9375 l 0.03125,1.8125 c -0.01761,0.007 -0.284865,0.113992 -0.3125,0.125 -2.45571,0.245816 -5.779048,-1.2704 -8.15625,-2.875 z m -0.4375,0.1875 c 2.312813,1.888267 5.919834,2.852887 8.190102,3.34375 -4.769594,0.465313 -9.300446,2.028067 -14.044575,2.712468 -6.524431,1.411925 -12.137944,1.777237 -17.864277,0.818782 9.263202,-1.715498 16.988765,-4.35348 23.71875,-6.875 z m 10,0.8125 c 5.509767,0.436571 10.719653,0.601849 17.0625,0.09375 -4.486537,1.322567 -11.257161,1.925238 -15.8125,2.0625 l -0.71875,0.03125 c -0.05225,0.0016 -0.103988,-0.0016 -0.15625,0 -0.166447,-0.112786 -0.297288,-0.221333 -0.34375,-0.28125 l -0.09375,0.03125 0.0625,-1.9375 z m 17.84375,0.03125 C 92.949655,32.5072 99.3762,36.27121 108.34899,39.108277 102.12215,40.217043 95.423163,38.36442 89.286486,37.202027 82.46955,35.93569 75.74693,34.283305 69.262437,31.827947 74.24908,31.745503 80.963394,30.94697 85.942736,29.233277 z m -18.875,3.15625 c -0.0142,0.131038 0.03208,0.158884 0,0.3125 C 64.225692,41.644515 56.276151,51.766023 49.707901,60.253804 43.9016,67.965844 36.810369,76.532237 28.130236,81.858277 24.370714,76.934069 21.631857,70.799089 16.552571,66.754724 39.427812,60.047984 53.022428,46.49002 67.067736,32.389527 z M 66.737311,31.93242 C 53.116438,45.905863 38.903084,60.21379 16.348986,66.170777 c 0.894356,-5.25 1.600439,-11.118718 1.911612,-16.368718 8.678358,-2.68324 17.567115,-5.009889 26.035691,-8.28309 10.119113,-3.920211 19.399984,-8.372991 22.441022,-9.586549 z m 2.1296,0.15717 c 6.227809,3.500753 13.13005,4.149042 20.055298,5.550857 6.637271,1.023778 15.664781,3.421204 19.770531,1.90533 3.21805,4.950256 6.54934,10.602385 11.10221,14.996496 0.20244,0.19538 -0.47484,0.829341 -0.26382,1.017749 -8.26916,-0.9003 -17.38903,-5.487809 -25.113362,-8.68658 C 85.870132,42.802425 75.914484,38.667994 68.866911,32.08959 z m -3.084262,-0.108915 c -4.531738,1.790657 -14.939777,6.544586 -21.388168,9.042735 -8.178597,3.094249 -17.077168,5.542418 -25.420495,8.178617 4.916007,-4.325938 10.861727,-8.85968 14.625,-13.5 5.923691,1.551979 12.334371,0.353302 18.59375,-0.90625 3.037405,-0.424941 11.06945,-2.385154 13.589913,-2.815102 z m 1.748476,0.428617 C 68.863731,42.396425 57.818933,72.289784 49.915928,91.191304 43.2843,88.204559 36.186626,83.763422 28.818656,82.249362 c 8.324657,-5.642556 15.14716,-13.815721 21.40533,-21.578585 6.028865,-8.908621 14.42646,-17.59783 17.307139,-28.261485 z m 1.501839,0.432138 c 1.626096,3.947796 4.710345,6.75913 7.753522,9.641847 4.68611,4.371655 10.80644,9.367368 16.875,14 7.487214,5.438896 15.294894,11.339641 23.467834,15.75 l -14.78033,12.90625 -0.95267,0.649968 C 95.50353,77.832612 89.959365,69.186827 84.344544,61.029692 78.524447,52.035931 71.190201,40.29563 69.032964,32.84143 z m -0.43842,0.104473 c 3.322086,10.323011 9.519621,19.313738 15.348192,28.349874 5.44057,8.352168 11.013631,16.621054 17.000004,24.59375 -7.562504,1.412117 -15.478557,4.465273 -23.041057,6.983915 -0.783662,-2.566927 -1.461881,-5.48 -1.989277,-8.108915 -3.155127,-16.35067 -5.649638,-35.254586 -7.317862,-51.818624 z m 0.670653,-0.196383 c 6.93709,6.957414 16.488935,10.905162 25.365039,14.765007 8.069924,2.847543 16.004464,7.478571 24.656254,8.34375 -2.06296,4.815154 -1.52284,10.58963 -2,15.827665 C 109.10571,67.258332 101.49058,61.79091 94.078459,56.201107 88.027183,51.581669 81.324288,46.36374 76.678491,42.029692 74.46441,39.964184 70.654748,34.414085 69.265197,32.74952 z m -1.009961,0.668813 c 1.630048,15.750699 4.334788,35.971412 7.21875,51.533694 0.52651,2.666216 1.050492,5.336848 1.84375,7.9375 -9,-1.130482 -18,-1.13669 -27,-1.375 7.455946,-17.842706 16.369184,-40.383468 17.9375,-58.096194 z m 41.468754,6.971194 c 4.01582,3.693153 7.76455,6.934692 9.59375,9.34375 1.23541,1.22371 1.1541,3.094757 0.9375,4.46875 -4.68831,-3.98283 -7.43975,-8.984304 -10.53125,-13.8125 z m -92.000004,10.34375 c -0.0415,5.092469 -0.937478,10.188779 -1.90625,15.28125 -2.806246,-4.294099 0.03555,-11.441452 1.90625,-15.28125 z m 103.468754,3.3125 c 0.77391,2.253703 1.53869,4.421299 2.78125,6.46875 -0.21304,1.875782 0.2621,3.611571 0.96875,5.3125 -1.04376,-1.588305 -1.78844,-3.633989 -2.65625,-5.40625 -0.47234,-1.922475 -0.36414,-3.926777 -1.53125,-5.75 0.1922,-0.201911 0.34128,-0.405145 0.4375,-0.625 z m -3.40625,18.1875 c 0.19477,-5.364846 -0.11559,-12.976733 2.53125,-17.5625 2.0657,5.884351 1.94991,12.534927 -2.53125,17.5625 z m 4.53125,-10.40625 c 1.10871,1.593135 2.0863,5.169984 3.40625,6.09375 -1.15196,6.941584 -0.50586,14.382632 0.4375,21.90625 -3.65694,-5.208058 -6.89917,-10.960559 -8.125,-17 3.14239,-2.493074 4.24732,-7.190536 4.28125,-11 z m -108.750004,0.28125 1.9375,4.1875 c 0.716481,6.686973 -3.075202,12.975164 -6.1874995,18.6875 1.1182885,-5.67951 2.9962085,-14.623339 1.3749995,-19.71875 0.998139,-0.994504 2.153022,-1.807969 2.875,-3.15625 z m 2.84375,5.625 c 4.3959,4.366463 8.296633,9.183611 11.28125,14.84375 -5.990714,-3.503055 -9.590355,-8.122974 -11.28125,-14.84375 z m -0.28125,0.78125 c 0.951883,6.604025 6.254077,10.953086 11.34375,14.21875 -0.410192,8.968107 -5.185559,19.195313 -8.34375,27.937503 -0.655,-8.03274 -3.524509,-18.057665 -9.4999995,-25.031253 3.2244795,-4.815745 5.5105655,-11.396733 6.4999995,-17.125 z m 101.000004,4.46875 c -1.25638,6.746981 -6.15853,11.802889 -13.6875,11.96875 4.29722,-3.628157 9.64001,-9.029655 13.6875,-11.96875 z m 0.5,0.75 c 1.62167,6.176188 4.7393,11.674606 7.5,16.3125 -4.74865,-2.13147 -7.04351,-4.364342 -7.6875,-9.78125 l -0.40625,-0.03125 c -1.62644,5.107787 -6.17023,5.428746 -10.71875,5.09375 6.6215,-1.915069 9.57668,-6.660475 11.3125,-11.59375 z m -0.40625,7.15625 c 0.39793,6.689419 3.62144,7.689105 8.84375,9.96875 0.22135,0.11685 0.2774,0.840027 0.4375,0.9375 -6.62797,0.08485 -15.42501,-2.277645 -20.75,-5.34375 -0.25208,-0.145148 0.2649,-0.850295 0,-0.96875 5.49732,1.020259 9.18066,0.178952 11.46875,-4.59375 z m -88.843754,2.125 c 7.547582,0.848952 14.127591,5.358363 20.8125,8.6875 -8.79906,3.270425 -15.947034,-1.959634 -20.8125,-8.6875 z m -0.34375,0.09375 c 4.710054,6.978574 13.528008,13.223912 21.4375,8.875 0.224709,9.697843 -2.265666,20.953083 -3.875,30.406253 -7.786855,-4.61633 -16.954163,-9.17641 -25.96875,-11.75 2.973033,-8.50833 7.519215,-18.566601 8.40625,-27.531253 z m 75.250004,2.34375 c 0.80281,-0.07496 1.48453,0.213844 2,0.4375 0,0 2.66604,27.064193 2.625,27.562503 -0.23353,2.83533 -4.45925,1.09251 -4.375,0.25 l -1.8125,-27.625003 c 0.55105,-0.409789 1.08081,-0.580024 1.5625,-0.625 z m -1.90625,1.21875 c -4.709277,7.865005 -12.774449,10.286633 -22.468754,6.59375 7.328719,-2.834606 14.987374,-5.877775 22.468754,-6.59375 z m 0.125,0.96875 c -1.991549,13.174063 -9.158795,26.133053 -19.031254,35.593753 0.875539,-6.29759 2.509036,-14.83649 0.4375,-20.9375 6.893375,-2.923495 13.804277,-8.937458 18.593754,-14.656253 z m -44.906254,4.3125 c 7.05209,0.005 14.328776,0.507753 21.1875,1.375 -0.0092,0.354869 -0.435434,1.048786 -0.4375,1.40625 -9.264627,5.716943 -19.220151,4.579676 -27.15625,-2.625 1.119792,-0.04948 2.267123,-0.102297 3.40625,-0.125 0.996736,-0.01986 1.992559,-0.03196 3,-0.03125 z m -6.625,0.28125 c 5.634983,7.046111 20.964762,9.633443 27.375,2.8125 -0.46055,8.089423 2.176575,18.971053 3.65625,28.000003 -11.425815,-0.9337 -23.335783,-2.45716 -34.8125,-0.90625 1.543203,-9.04893 3.816909,-20.37793 3.78125,-29.906253 z m 28.375,1.375 c 5.238558,2.300007 11.184917,2.365089 16.375,0.25 -3.396448,3.302763 -7.386305,6.143993 -12.28125,8.281253 2.384575,6.91012 0.58889,14.09134 -0.40625,21.09375 -2.14031,-9.61804 -5.241975,-19.89929 -3.6875,-29.625003 z"
       id="path2308"
       sodipodi:nodetypes="ccccccccccccccccccccccccccccccccccccccccccccccccsccccccccccccccccccccccscccccccccccccccccccccccccccccccccsccccccccccccccccccccccccccccccccccccccccccccccccccccsccccccccccccsccccccccccccccsccccccccccc"
       inkscape:connector-curvature="0" />
  </g>
</svg>
