<?xml version="1.0" encoding="UTF-8" standalone="no"?>
<!-- Generator: Adobe Illustrator 12.0.0, SVG Export Plug-In . SVG Version: 6.00 Build 51448)  -->

<svg
   xmlns:dc="http://purl.org/dc/elements/1.1/"
   xmlns:cc="http://creativecommons.org/ns#"
   xmlns:rdf="http://www.w3.org/1999/02/22-rdf-syntax-ns#"
   xmlns:svg="http://www.w3.org/2000/svg"
   xmlns="http://www.w3.org/2000/svg"
   xmlns:sodipodi="http://sodipodi.sourceforge.net/DTD/sodipodi-0.dtd"
   xmlns:inkscape="http://www.inkscape.org/namespaces/inkscape"
   height="276.061"
   id="Layer_1"
   inkscape:version="0.48.1 r9760"
   sodipodi:docname="sedia_in_legno_architett_01.svg"
   sodipodi:version="0.32"
   style="overflow:visible;enable-background:new 0 0 186.794 276.061;"
   version="1.0"
   viewBox="0 0 186.794 276.061"
   width="186.794"
   xml:space="preserve"><metadata
   id="metadata4102"><rdf:RDF><cc:Work
       rdf:about=""><dc:title>Sedia in legno</dc:title><dc:description /><dc:subject><rdf:Bag><rdf:li>furniture</rdf:li></rdf:Bag></dc:subject><dc:publisher><cc:Agent
           rdf:about="http://www.openclipart.org"><dc:title>Architetto Francesco Rollandin</dc:title></cc:Agent></dc:publisher><dc:creator><cc:Agent><dc:title>Architetto Francesco Rollandin</dc:title></cc:Agent></dc:creator><dc:rights><cc:Agent><dc:title>Architetto Francesco Rollandin</dc:title></cc:Agent></dc:rights><dc:date /><dc:format>image/svg+xml</dc:format><dc:type
         rdf:resource="http://purl.org/dc/dcmitype/StillImage" /><cc:license
         rdf:resource="http://web.resource.org/cc/PublicDomain" /><dc:language>en</dc:language></cc:Work><cc:License
       rdf:about="http://web.resource.org/cc/PublicDomain"><cc:permits
         rdf:resource="http://web.resource.org/cc/Reproduction" /><cc:permits
         rdf:resource="http://web.resource.org/cc/Distribution" /><cc:permits
         rdf:resource="http://web.resource.org/cc/DerivativeWorks" /></cc:License></rdf:RDF></metadata>
<defs
   id="defs130">
	

	

	

	

	

	

	

	

	

	

	

	

	

	

	

	

	

	

	

	

	

	

	

	

	

	

	

	

	

	

	

	

	

	

	

	

	

	

	

	

	

	

	

	

	

	

	

	

	

	

	

	

	

	

	

	

	

	

	

	

	

	

</defs>
<sodipodi:namedview
   bordercolor="#666666"
   borderopacity="1.0"
   id="base"
   inkscape:current-layer="Layer_1"
   inkscape:cx="93.397007"
   inkscape:cy="138.0305"
   inkscape:pageopacity="0.0"
   inkscape:pageshadow="2"
   inkscape:window-height="751"
   inkscape:window-width="1163"
   inkscape:window-x="285"
   inkscape:window-y="215"
   inkscape:zoom="1.3692626"
   pagecolor="#ffffff"
   showgrid="false"
   inkscape:window-maximized="0" />

<path
   style="fill:#360f00"
   d="M 73.625 0 C 69.082859 0.28748438 65.7875 6.5109996 64.625 10.65625 C 57.029 37.74725 49.4085 64.81525 41.8125 91.90625 C 39.7935 99.10625 38.19875 106.6275 35.71875 113.6875 C 33.44975 120.1445 31.93225 119.8285 25.65625 121.5625 C 18.84125 123.4445 12.03375 125.3045 5.21875 127.1875 C 0.64074968 128.4515 2.0705 129.74725 2.0625 133.78125 C 2.0585 135.70425 1.252 138.6465 2.25 140.4375 C 3.957 143.5025 25.15275 147.86 24.71875 149.375 C 17.65675 174.042 10.59325 198.708 3.53125 223.375 C 2.38125 227.393 -2.2077504 235.59775 1.28125 239.34375 C 3.46125 241.68475 8.9425 241.727 11.3125 239.75 C 15.8155 235.996 17.12375 223.24775 18.96875 217.71875 C 19.74775 215.38375 20.976 206.59425 24.125 207.53125 C 29.373 209.09225 34.61725 210.61425 39.90625 212.03125 C 60.19825 217.46725 80.852 221.46375 101.25 226.46875 C 105.986 227.63175 110.72225 228.86675 115.40625 230.21875 C 121.19725 231.88975 119.70125 232.22 118.28125 237.875 C 116.38125 245.439 114.49275 252.9975 112.59375 260.5625 C 111.66675 264.2495 109.198 268.5885 111.5 271.8125 C 120.636 284.6045 124.04625 264.9985 125.40625 259.6875 C 131.72025 235.0275 138.061 210.3475 144.375 185.6875 C 145.217 182.3995 153.848 186.126 156 186.625 C 160.926 187.766 160.395 190.42 161.125 195.25 C 162.459 204.068 162.7545 213.00275 163.9375 221.84375 C 164.5315 226.28875 165.13575 227.4415 169.59375 228.5625 C 172.56675 229.3105 174.26475 230.02 176.84375 227.875 C 179.97375 225.272 179.51975 221.19825 179.09375 217.65625 C 175.96175 191.60625 172.85175 165.551 169.71875 139.5 C 168.71775 131.175 167.36975 122.99375 165.96875 114.71875 C 164.60575 106.66775 166.95675 100.52225 168.96875 92.53125 C 174.87275 69.07925 180.7845 45.6385 186.6875 22.1875 C 187.6455 17.7375 181.88925 13.45375 177.53125 14.84375 C 172.83225 16.33875 173.2855 21.6305 172.4375 25.5625 C 171.1855 31.3685 170.96525 31.364 165.03125 30.375 C 148.21725 27.572 131.3185 25.41075 114.6875 21.59375 C 114.9765 21.48175 115.2315 21.47225 115.5625 21.40625 C 102.9075 19.90125 90.2745 18.2245 77.9375 14.9375 C 79.6645 10.9065 82.76925 5.6430004 78.53125 2 C 76.7715 0.48749988 75.139047 -0.095828133 73.625 0 z M 76.40625 28.53125 C 78.3365 28.559625 80.931 29.653 84.3125 30.375 C 93.3075 32.294 102.426 33.73575 111.5 35.21875 C 129.798 38.21175 148.06725 41.03725 166.15625 45.15625 C 165.61025 47.45925 165.046 49.7615 164.5 52.0625 C 160.853 48.3985 148.86125 48.15275 143.65625 47.21875 C 135.14225 45.69275 126.639 44.152 118.125 42.625 C 102.836 39.884 87.608 36.75325 72.5 33.15625 C 73.2235 29.55875 74.476 28.502875 76.40625 28.53125 z M 71.75 47.59375 C 78.428223 47.432088 92.135062 51.649312 96.6875 52.5 C 118.2215 56.527 139.75075 60.53225 161.21875 64.90625 C 159.00075 74.36825 156.573 83.78175 154.25 93.21875 C 153.135 97.75075 151.99025 102.2725 150.90625 106.8125 C 150.17725 109.8715 149.51875 120.182 147.34375 122.125 C 145.52675 123.748 135.0165 123.177 132.5625 123.25 C 127.3045 123.404 121.96375 123.283 116.71875 122.875 C 105.90575 122.035 95.09825 120.56725 84.65625 117.53125 C 82.19125 116.81525 71.5015 114.7925 71.1875 112.4375 C 70.5265 107.4775 69.99875 102.50625 69.46875 97.53125 C 68.42175 87.70525 67.34375 77.874 65.71875 68.125 C 64.88175 63.104 64.1625 52.815 68.4375 48.5 C 69.027938 47.903937 70.208872 47.631057 71.75 47.59375 z M 53.84375 98.15625 C 54.40275 102.98525 55.265 108.528 55.5 113 C 53.598 113.724 51.54275 113.73075 49.71875 114.71875 L 53.84375 98.15625 z M 154.84375 147.25 C 156.05275 156.715 157.25975 166.19025 158.46875 175.65625 C 154.79675 175.95225 151.03975 174.25125 147.34375 174.28125 C 149.37975 165.16025 153.13875 156.444 154.84375 147.25 z M 140.9375 148.625 C 139.3495 154.484 137.7755 160.35875 136.1875 166.21875 C 134.7335 171.58275 134.2885 170.12925 128.9375 168.90625 C 117.1215 166.20425 105.32075 163.3305 93.46875 160.8125 C 109.42375 162.4655 124.9495 154.136 140.9375 148.625 z M 38.6875 152.0625 C 40.90349 152.17147 57.783125 156.11312 59.75 156.53125 C 61.104 156.82025 61.8755 172.656 62.0625 174.625 C 62.7765 182.134 60.47575 201.13575 67.96875 204.34375 C 72.53375 206.29775 78.92325 205.00875 79.65625 198.96875 C 78.40325 188.98375 77.19025 178.57025 76.03125 168.40625 C 94.76125 172.77925 113.48975 177.15825 132.21875 181.53125 C 128.82175 194.34025 125.5225 206.21425 122.8125 218.90625 C 90.272498 211.67325 58.101752 203.03925 25.71875 195.15625 C 29.96575 180.80425 34.22075 166.44575 38.46875 152.09375 C 38.477313 152.06487 38.539767 152.05524 38.6875 152.0625 z "
   transform="translate(-1.6044719e-6,0)"
   id="path5" /><path
   inkscape:connector-curvature="0"
   style="fill:#d59758"
   id="path7"
   d="m 156.479,104.184 c -0.597,0.668 -1.191,1.277 -2.072,1.64 2.928,-11.738 5.856,-23.476 8.784,-35.214 0.499,-2.001 2.141,-4.29 2.437,-5.353 0.246,-0.883 -0.448,-2.241 -0.346,-2.676 1.948,-8.265 3.49,-16.929 6.548,-24.99 1.985,-5.233 1.558,-16.778 6.659,-20.066 -7.258,28.685 -12.852,58.647 -22.01,86.659" /><path
   inkscape:connector-curvature="0"
   style="fill:#d59758"
   id="path9"
   d="m 40.473,113.851 c 0.475,0.693 0.704,1.642 1.036,2.417 -1.698,0.719 -3.395,1.439 -5.093,2.158 C 42.56,97.343 48.393,76.171 54.51,55.081 57.525,44.685 60.4,34.248 63.384,23.844 64.84,18.768 66.169,3.272 73.014,3.198 62.571,40.196 51.37,76.983 40.473,113.851" /><path
   inkscape:connector-curvature="0"
   style="fill:#d18434"
   id="path11"
   d="m 169.08,34.442 c -10.377,-0.224 -20.479,-4.163 -30.891,-3.667 -3.87,0.185 -7.853,2.234 -11.618,1.639 -3.557,-0.563 -6.942,-2.073 -10.574,-2.029 8.907,-2.672 17.625,-3.048 26.797,-1.273 5.081,0.984 24.504,2.717 26.286,5.33" /><path
   inkscape:connector-curvature="0"
   style="fill:#d18434"
   id="path13"
   d="m 127.822,26.674 c -8.197,-0.381 -15.686,5.258 -23.778,1.908 -1.158,-0.479 -4.861,1.479 -6.906,1.156 -2.781,-0.44 -5.474,-1.182 -8.242,-1.683 5.845,-0.811 11.537,-4.639 17.263,-5.093 6.506,-0.515 15.148,2.664 21.663,3.712" /><path
   inkscape:connector-curvature="0"
   style="fill:#d18434"
   id="path15"
   d="m 168.045,36.687 c -1.347,5.87 -1.902,5.494 -7.624,4.223 -4.692,-1.042 -9.352,-2.224 -14.075,-3.117 -2.265,-0.428 -8.897,-0.068 -10.194,-1.624 -1.156,-1.386 -2.153,-2.607 -3.754,-2.935 9.306,-3.92 26.816,-0.01 35.647,3.453" /><path
   inkscape:connector-curvature="0"
   style="fill:#d18434"
   id="path17"
   d="m 102.966,22.187 c -7.421,3.229 -16.156,6.238 -24.255,3.884 8.372,0.389 15.901,-4.645 24.255,-3.884" /><path
   inkscape:connector-curvature="0"
   style="fill:#d18434"
   id="path19"
   d="m 86.134,19.77 c -4.875,1.935 -10.688,2.257 -15.882,2.244 0.662,-2.072 1.323,-4.143 1.985,-6.215 3.924,3.04 9.592,3.158 13.897,3.971" /><path
   inkscape:connector-curvature="0"
   style="fill:#d18434"
   id="path21"
   d="m 94.679,21.236 c -6.191,2.138 -17.368,5.524 -23.65,3.108 7.927,-0.016 15.969,-5.121 23.65,-3.108" /><path
   inkscape:connector-curvature="0"
   style="fill:#d18434"
   id="path25"
   d="m 161.917,61.718 c -6.371,-2.157 -13.314,-2.192 -19.863,-3.597 -6.931,-1.486 -10.345,-6.703 -16.571,-8.778 -13.083,-4.36 -25.088,0.652 -38.054,-1.608 9.335,-2.178 18.865,-3.758 28.468,-2.519 10.842,1.398 19.62,6.224 29.361,10.719 4.081,1.883 10.147,5.713 14.847,5.092 3.509,-0.464 3.11,-1.799 -0.272,-2.155 -9.964,-1.049 -18.735,-7.271 -27.866,-10.878 10.858,0.949 21.437,4.112 32.281,5.265 -0.531,2.84 -0.975,5.974 -2.331,8.459" /><path
   inkscape:connector-curvature="0"
   style="fill:#d18434"
   id="path27"
   d="m 110.474,43.592 c -5.293,0 -10.643,-0.101 -15.881,0.776 -5.84,0.978 -9.172,3.232 -15.022,1.902 -3.618,-0.822 -19.806,-2.423 -10.354,-5.009 4.485,-1.227 9.007,-0.236 13.379,-2.417 -5.363,-0.1 -10.715,0.429 -15.969,1.468 0.347,-1.886 1.079,-3.667 1.986,-5.352 1.619,2.861 15.587,3.534 19.981,4.315 7.26,1.293 14.926,2.926 21.88,4.317" /><path
   inkscape:connector-curvature="0"
   style="fill:#b34700"
   id="path29"
   d="m 131.793,55.675 c -3.443,1.649 -8.028,-2.906 -11.307,-3.97 -6.53,-2.12 -13.767,1.319 -19.938,-1.553 7.717,-1.15 26.923,-3.762 31.245,5.523" /><path
   inkscape:connector-curvature="0"
   style="fill:#b34700"
   id="path31"
   d="m 117.292,52.396 c -2.204,2.106 -5.477,0.549 -7.94,-0.518 2.636,0.074 5.675,-0.398 7.94,0.518" /><path
   inkscape:connector-curvature="0"
   style="fill:#b34700"
   id="path33"
   d="m 123.594,54.554 c -1.554,-0.345 -3.107,-0.691 -4.661,-1.036 0.028,-0.23 0.058,-0.46 0.086,-0.69 1.424,0.833 2.985,1.425 4.575,1.726" /><path
   inkscape:connector-curvature="0"
   style="fill:#b34700"
   id="path37"
   d="m 59.635,81.743 c -0.524,-4.845 2.243,-9.11 2.848,-13.811 0.77,4.672 -2.119,9.269 -2.848,13.811" /><path
   inkscape:connector-curvature="0"
   style="fill:#d59758"
   id="path39"
   d="m 60.584,111.175 c -3.895,3.308 -2.966,-6.149 -3.427,-8.909 -0.958,-5.75 -2.119,-11.165 0.406,-16.726 1.007,8.545 2.015,17.09 3.021,25.635" /><path
   inkscape:connector-curvature="0"
   style="fill:#d59758"
   id="path41"
   d="m 162.09,120.669 c 0.369,1.771 -0.616,4.827 -1.123,7.078 -0.196,-1.744 0.813,-4.931 1.123,-7.078" /><path
   inkscape:connector-curvature="0"
   style="fill:#d18434"
   id="path45"
   d="m 94.42,144.924 c 2.665,2.546 19.721,-5.687 23.707,-7.072 9.273,-3.224 18.548,-6.449 27.821,-9.673 -0.412,4.994 -11.146,6.174 -14.8,7.406 -9.594,3.237 -19.188,6.476 -28.781,9.713 -7.595,2.563 -15.187,1.627 -22.967,0.488 22.114,-7.177 42.838,-18.23 66.289,-20.284 -16.844,7.22 -34.586,11.817 -51.269,19.422" /><path
   inkscape:connector-curvature="0"
   style="fill:#d59758"
   id="path47"
   d="m 167.009,224.332 c -2.64,-15.468 -4.455,-31.449 -6.22,-47.017 -1.638,-14.443 -6.032,-31.452 -1.721,-45.252 3.769,31.303 7.538,62.606 11.307,93.909 -1.062,-0.517 -2.462,-0.894 -3.366,-1.64" /><path
   inkscape:connector-curvature="0"
   style="fill:#b34700"
   id="path49"
   d="m 75.172,145.527 c -1.149,-0.088 -2.326,-0.522 -3.453,-0.775 9.254,-3.633 18.508,-7.266 27.762,-10.899 8.801,-3.455 16.074,-7.543 25.493,-7.055 -16.415,6.689 -33.177,12.612 -49.802,18.729" /><path
   inkscape:connector-curvature="0"
   style="fill:#b34700"
   id="path51"
   d="m 66.022,115.059 c -9.794,3.211 -19.721,6.012 -29.625,8.863 -9.865,2.839 -22.234,9.484 -32.002,6.328 10.145,-2.685 20.229,-5.583 30.32,-8.466 6.607,-1.888 25.385,-10.261 31.307,-6.725" /><path
   inkscape:connector-curvature="0"
   style="fill:#d18434"
   id="path53"
   d="m 144.481,134.566 c -12.617,4.556 -25.627,7.86 -38.323,12.171 5.231,-1.88 36.757,-15.441 38.323,-12.171" /><path
   inkscape:connector-curvature="0"
   style="fill:#d18434"
   id="path55"
   d="m 17.946,134.221 c -1.762,-0.317 -3.544,-0.675 -5.093,-1.553 19.082,-5.207 37.961,-11.103 57.14,-15.968 -17.349,5.84 -34.698,11.68 -52.047,17.521" /><path
   inkscape:connector-curvature="0"
   style="fill:#d18434"
   id="path57"
   d="m 112.287,126.366 c -10.944,5.247 -22.45,9.185 -33.792,13.465 -5.814,2.194 -13.467,6.607 -19.637,2.848 2.277,1.245 16.145,-5.207 20.457,-6.733 7.514,-2.659 25.976,-12.866 32.972,-9.58" /><path
   inkscape:connector-curvature="0"
   style="fill:#d18434"
   id="path59"
   d="m 26.75,136.551 c -1.697,-0.489 -3.395,-0.979 -5.092,-1.468 8.618,-3.066 17.242,-6.134 25.906,-9.07 5.922,-2.006 22.746,-10.531 28.126,-6.552 -16.124,5.669 -32.507,12.854 -48.94,17.09" /><path
   inkscape:connector-curvature="0"
   style="fill:#b34700"
   id="path61"
   d="m 54.542,142.937 c -2.261,-0.512 -4.578,-0.727 -6.732,-1.553 9.142,-2.396 17.941,-5.532 26.882,-8.56 6.797,-2.302 22.186,-10.577 29.049,-7.493 -16.399,5.869 -32.799,11.737 -49.199,17.606" /><path
   inkscape:connector-curvature="0"
   style="fill:#d18434"
   id="path63"
   d="m 84.925,121.533 c -9.251,3.028 -18.312,6.528 -27.442,9.892 -8.504,3.133 -17.724,8.391 -26.59,5.73 9.359,-3.225 18.719,-6.449 28.079,-9.674 8.512,-2.932 17.056,-8.024 25.953,-5.948" /><path
   inkscape:connector-curvature="0"
   style="fill:#b34700"
   id="path65"
   d="m 93.471,123.432 c -8.694,3.479 -17.598,6.346 -26.413,9.495 -6.969,2.489 -18.698,9.738 -25.807,6.991 8.702,-3.322 17.38,-6.707 26.152,-9.84 8.343,-2.979 17.691,-7.994 26.068,-6.646" /><path
   inkscape:connector-curvature="0"
   style="fill:#b34700"
   id="path69"
   d="m 103.568,157.611 c -7.935,0.881 -13.53,-1.201 -19.938,-5.437 -2.401,-1.587 -4.055,-2.718 -6.991,-3.366 4.57,0.509 9.384,0.543 13.724,2.243 3.459,1.355 6.007,5.06 9.408,5.525 3.145,0.431 -3.339,-4.504 -5.178,-5.783 6.698,-0.841 8.766,0.078 8.975,6.818" /><path
   inkscape:connector-curvature="0"
   style="fill:#d18434"
   id="path71"
   d="m 72.237,147.772 c -6.033,-0.532 -9.931,7.355 -15.968,4.92 5.502,-2.27 9.598,-8.285 15.968,-4.92" /><path
   inkscape:connector-curvature="0"
   style="fill:#d18434"
   id="path73"
   d="m 62.743,146.563 c -3.043,2.766 -7.004,6.627 -11.48,5.524 3.792,-1.868 6.832,-6.331 11.48,-5.524" /><path
   inkscape:connector-curvature="0"
   style="fill:#b34700"
   id="path75"
   d="m 12.681,142.421 c -7.325,-2.114 -8.34,-1.188 -8.544,-8.891 4.134,1.293 6.277,5.827 8.544,8.891" /><path
   inkscape:connector-curvature="0"
   style="fill:#b34700"
   id="path77"
   d="m 15.27,142.075 c -2.072,-2.474 -4.143,-4.948 -6.215,-7.422 4.128,0.415 4.785,4.544 6.215,7.422" /><path
   inkscape:connector-curvature="0"
   style="fill:#b34700"
   id="path79"
   d="m 25.542,145.701 c -3.628,-1.317 -5.259,-5.256 -7.078,-8.373 5.125,-1.235 5.786,5.194 7.078,8.373" /><path
   inkscape:connector-curvature="0"
   style="fill:#d18434"
   id="path81"
   d="m 57.822,145.787 c -6.199,4.259 -7.997,6.282 -15.881,4.574 1.797,-1.244 2.832,-3.226 4.489,-4.487 0.709,-0.54 0.713,-2.551 1.729,-2.316 3.221,0.742 6.442,1.485 9.663,2.229" /><path
   inkscape:connector-curvature="0"
   style="fill:#b34700"
   id="path83"
   d="m 20.708,144.578 c -3.984,-0.582 -4.722,-5.065 -6.214,-8.113 3.71,1.067 4.167,5.395 6.214,8.113" /><path
   inkscape:connector-curvature="0"
   style="fill:#b34700"
   id="path85"
   d="m 38.661,141.903 c 0.953,4.409 -0.647,6.48 -4.747,6.646 1.213,-0.049 -4.453,-1.773 -3.625,-1.208 -2.371,-1.621 -4.245,-5.576 -6.042,-8.632 4.738,1.079 9.796,2.451 14.414,3.194" /><path
   inkscape:connector-curvature="0"
   style="fill:#b34700"
   id="path87"
   d="m 45.566,143.542 c -0.284,3.09 -3.342,4.766 -5.956,5.869 0.575,-2.326 1.531,-4.717 0.777,-7.077 1.727,0.403 3.453,0.806 5.179,1.208" /><path
   inkscape:connector-curvature="0"
   style="fill:#b34700"
   id="path89"
   d="m 73.79,149.93 c -3.316,0.698 -8.168,4.056 -10.529,3.97 2.035,-3.575 7.128,-4.663 10.529,-3.97" /><path
   inkscape:connector-curvature="0"
   style="fill:#b34700"
   id="path91"
   d="m 86.306,156.49 c -5.93,0.233 -7.09,-0.71 -10.444,-6.042 3.915,1.207 7.883,3.314 10.444,6.042" /><path
   inkscape:connector-curvature="0"
   style="fill:#b34700"
   id="path93"
   d="m 77.243,155.368 c -1.443,-1.727 -6.34,-3.021 -3.711,0 -3.107,-0.266 -8.05,-1.123 -2.502,-3.28 2.803,-1.09 5.384,-0.149 6.213,3.28" /><path
   inkscape:connector-curvature="0"
   style="fill:#d59758"
   id="path95"
   d="m 64.037,157.094 c 2.362,14.587 3.76,29.296 4.92,44.02 -4.252,-2.341 -3.337,-17.316 -3.817,-22.112 -0.739,-7.389 -1.485,-14.777 -2.225,-22.166 -0.101,-0.036 1.638,0.352 1.122,0.258" /><path
   inkscape:connector-curvature="0"
   style="fill:#b34700"
   id="path97"
   d="m 72.495,163.653 c -2.5,3.356 -3.02,-3.307 -3.021,-5.265 2.214,0.777 2.985,3.055 3.021,5.265" /><path
   inkscape:connector-curvature="0"
   style="fill:#d18434"
   id="path99"
   d="m 133.433,177.55 c -7.512,-8.786 -19.233,-7.155 -29.519,-6.905 -5.501,0.134 -10.392,-1.293 -15.839,-2.546 -5.148,-1.186 -13.701,-0.461 -13.335,-7.294 20.094,3.217 39.752,8.461 59.643,12.688 -0.283,1.208 -0.341,2.989 -0.95,4.057" /><path
   inkscape:connector-curvature="0"
   style="fill:#d59758"
   id="path101"
   d="m 29.426,150.448 c -7.92,28.855 -16.775,57.387 -25.894,85.882 -2.509,-3.756 2.859,-16.2 4.122,-20.51 2.329,-7.954 4.624,-15.92 7.012,-23.856 2.373,-7.884 4.845,-15.739 7.255,-23.612 1.087,-3.556 4.369,-19.232 7.505,-17.904" /><path
   inkscape:connector-curvature="0"
   style="fill:#d18434"
   id="path103"
   d="m 130.844,177.809 c -8.056,-1.813 -16.112,-3.625 -24.168,-5.438 8.364,-2.098 17.834,0.276 24.168,5.438" /><path
   inkscape:connector-curvature="0"
   style="fill:#d59758"
   id="path105"
   d="m 113.149,270.25 c -0.983,-2.16 0.42,-4.762 1.047,-7.095 1.779,-6.626 3.56,-13.252 5.34,-19.878 1.664,-6.192 3.327,-12.385 4.99,-18.577 0.714,-2.655 0.879,-6.399 3.038,-8.138 -2.389,9.479 -4.778,18.957 -7.167,28.436 -1.385,5.499 -2.65,22.026 -7.248,25.252" /><path
   inkscape:connector-curvature="0"
   style="fill:#b34700"
   id="path107"
   d="m 29.426,199.647 c -1.597,0.461 -3.262,0.695 -4.92,0.69 0.837,-2.144 3.088,-1.311 4.92,-0.69" /><path
   inkscape:connector-curvature="0"
   style="fill:#b34700"
   id="path109"
   d="m 23.557,204.394 c -0.137,-3.318 10.464,-4.355 12.687,-2.59 -4.229,0.863 -8.458,1.727 -12.687,2.59" /><path
   inkscape:connector-curvature="0"
   style="fill:#b34700"
   id="path111"
   d="m 55.061,206.034 c -9.13,1.145 -19.256,4.348 -27.879,-0.432 5.728,-1.598 10.648,-4.053 16.357,-2.374 3.754,1.105 7.872,2.013 11.522,2.806" /><path
   inkscape:connector-curvature="0"
   style="fill:#b34700"
   id="path113"
   d="m 67.921,209.314 c -3.606,0.655 -7.41,0.221 -10.962,1.121 -1.107,0.28 -3.561,2.028 -4.444,1.799 -3.64,-0.944 -7.28,-1.89 -10.919,-2.834 8.882,-0.51 17.906,-3.808 26.325,-0.086" /><path
   inkscape:connector-curvature="0"
   style="fill:#b34700"
   id="path115"
   d="m 78.538,211.73 c -7.758,-0.043 -15.804,5.603 -23.218,1.123 5.045,-3.841 17.397,-2.702 23.218,-1.123" /><path
   inkscape:connector-curvature="0"
   style="fill:#d18434"
   id="path117"
   d="m 116.344,220.361 c -16.461,5.597 -32.742,-1.034 -49.027,-4.401 4.043,-11.075 41.531,3.678 49.027,4.401" /><path
   inkscape:connector-curvature="0"
   style="fill:#b34700"
   id="path119"
   d="m 122.039,222.001 c -0.92,1.817 -1.136,3.75 -1.769,5.653 -0.312,0.935 -12.664,-2.858 -14.457,-3.323 3.7,-0.813 13.491,-4.08 16.226,-2.33" /><path
   inkscape:connector-curvature="0"
   style="fill:#d59758"
   id="path121"
   d="m 149.229,137.76 c 2.33,-10.214 4.661,-20.428 6.991,-30.642 -5.69,2.11 -7.661,21.085 -9.031,26.753 -2.588,10.702 -5.279,21.373 -8.034,32.032 -2.663,10.302 -5.486,20.57 -8.364,30.813 -0.795,2.831 -2.472,6.319 -2.968,8.972 -0.423,2.258 -0.404,5.945 -1.381,10.271 3.747,-1.733 4.021,-9.367 4.937,-12.854 2.734,-10.408 5.47,-20.815 8.204,-31.223 2.448,-9.32 4.897,-18.64 7.346,-27.96 0.619,-2.354 0.475,-6.072 2.905,-5.301 0.483,-0.717 0.032,-0.685 -0.605,-0.861" /><path
   inkscape:connector-curvature="0"
   style="fill:#d18434"
   id="path127"
   d="m 148.797,176.773 c -0.469,-0.888 -0.604,-1.424 -1.64,-1.64 -0.264,1.314 -1.657,6.084 -0.26,6.345 2.893,0.538 5.965,1.874 8.891,2.028 2.814,0.148 7.326,-1.98 2.935,-4.489 -2.963,-1.691 -6.924,-0.712 -9.926,-2.244" />


  
</svg>