<?xml version="1.0" encoding="UTF-8" standalone="no"?>
<!-- Created with Inkscape (http://www.inkscape.org/) -->

<svg
   xmlns:dc="http://purl.org/dc/elements/1.1/"
   xmlns:cc="http://creativecommons.org/ns#"
   xmlns:rdf="http://www.w3.org/1999/02/22-rdf-syntax-ns#"
   xmlns:svg="http://www.w3.org/2000/svg"
   xmlns="http://www.w3.org/2000/svg"
   xmlns:xlink="http://www.w3.org/1999/xlink"
   xmlns:sodipodi="http://sodipodi.sourceforge.net/DTD/sodipodi-0.dtd"
   xmlns:inkscape="http://www.inkscape.org/namespaces/inkscape"
   version="1.0"
   width="150.88162"
   height="483.00845"
   id="svg5733"
   inkscape:version="0.47 r22583"
   sodipodi:docname="sheikh_tuhin_table-lamp.svg">
  <metadata
     id="metadata5584">
    <rdf:RDF>
      <cc:Work
         rdf:about="">
        <dc:format>image/svg+xml</dc:format>
        <dc:type
           rdf:resource="http://purl.org/dc/dcmitype/StillImage" />
        <dc:title></dc:title>
      </cc:Work>
    </rdf:RDF>
  </metadata>
  <sodipodi:namedview
     pagecolor="#ffffff"
     bordercolor="#666666"
     borderopacity="1"
     objecttolerance="10"
     gridtolerance="10"
     guidetolerance="10"
     inkscape:pageopacity="0"
     inkscape:pageshadow="2"
     inkscape:window-width="1107"
     inkscape:window-height="1080"
     id="namedview5582"
     showgrid="false"
     inkscape:zoom="1.1796256"
     inkscape:cx="97.575793"
     inkscape:cy="261.32013"
     inkscape:window-x="78"
     inkscape:window-y="0"
     inkscape:window-maximized="0"
     inkscape:current-layer="svg5733" />
  <defs
     id="defs5735">
    <inkscape:perspective
       sodipodi:type="inkscape:persp3d"
       inkscape:vp_x="0 : 123.34422 : 1"
       inkscape:vp_y="0 : 1000 : 0"
       inkscape:vp_z="150.88162 : 123.34422 : 1"
       inkscape:persp3d-origin="75.440811 : 82.229482 : 1"
       id="perspective5586" />
    <linearGradient
       id="linearGradient7506">
      <stop
         id="stop7508"
         style="stop-color:#6c5d53;stop-opacity:1"
         offset="0" />
      <stop
         id="stop7514"
         style="stop-color:#ac9d93;stop-opacity:1"
         offset="0.5" />
      <stop
         id="stop7510"
         style="stop-color:#6c5d53;stop-opacity:1"
         offset="1" />
    </linearGradient>
    <linearGradient
       id="linearGradient9938">
      <stop
         id="stop9940"
         style="stop-color:#ffff00;stop-opacity:1"
         offset="0" />
      <stop
         id="stop9946"
         style="stop-color:#aa8800;stop-opacity:1"
         offset="0.5" />
      <stop
         id="stop9942"
         style="stop-color:#ffff00;stop-opacity:1"
         offset="1" />
    </linearGradient>
    <linearGradient
       x1="1020.4173"
       y1="908.21619"
       x2="1114.1747"
       y2="908.49152"
       id="linearGradient6556"
       xlink:href="#linearGradient9938"
       gradientUnits="userSpaceOnUse" />
    <linearGradient
       id="linearGradient9928">
      <stop
         id="stop9930"
         style="stop-color:#ffff00;stop-opacity:1"
         offset="0" />
      <stop
         id="stop9936"
         style="stop-color:#ffffff;stop-opacity:1"
         offset="0.5" />
      <stop
         id="stop9932"
         style="stop-color:#ffff00;stop-opacity:1"
         offset="1" />
    </linearGradient>
    <linearGradient
       x1="1319.2858"
       y1="1022.3622"
       x2="1424.2858"
       y2="1083.7908"
       id="linearGradient6554"
       xlink:href="#linearGradient9928"
       gradientUnits="userSpaceOnUse" />
    <linearGradient
       id="linearGradient5905">
      <stop
         id="stop5907"
         style="stop-color:#c6afe9;stop-opacity:1"
         offset="0" />
      <stop
         id="stop5917"
         style="stop-color:#af82f4;stop-opacity:0.49803922"
         offset="0.5" />
      <stop
         id="stop5909"
         style="stop-color:#8d5fd3;stop-opacity:1"
         offset="1" />
    </linearGradient>
    <linearGradient
       id="linearGradient5919">
      <stop
         id="stop5921"
         style="stop-color:#aa87de;stop-opacity:1"
         offset="0" />
      <stop
         id="stop5923"
         style="stop-color:#e3d7f4;stop-opacity:1"
         offset="0.5" />
      <stop
         id="stop5925"
         style="stop-color:#8d5fd3;stop-opacity:1"
         offset="1" />
    </linearGradient>
    <linearGradient
       x1="204.51208"
       y1="78.266823"
       x2="294.04834"
       y2="78.266823"
       id="linearGradient7512"
       xlink:href="#linearGradient7506"
       gradientUnits="userSpaceOnUse" />
    <linearGradient
       inkscape:collect="always"
       xlink:href="#linearGradient7506"
       id="linearGradient5731"
       gradientUnits="userSpaceOnUse"
       x1="204.51208"
       y1="78.266823"
       x2="294.04834"
       y2="78.266823" />
    <linearGradient
       inkscape:collect="always"
       xlink:href="#linearGradient9928"
       id="linearGradient5733"
       gradientUnits="userSpaceOnUse"
       x1="1319.2858"
       y1="1022.3622"
       x2="1424.2858"
       y2="1083.7908" />
    <linearGradient
       inkscape:collect="always"
       xlink:href="#linearGradient9938"
       id="linearGradient5735"
       gradientUnits="userSpaceOnUse"
       x1="1020.4173"
       y1="908.21619"
       x2="1114.1747"
       y2="908.49152" />
    <linearGradient
       inkscape:collect="always"
       xlink:href="#linearGradient7506"
       id="linearGradient5744"
       gradientUnits="userSpaceOnUse"
       x1="204.51208"
       y1="78.266823"
       x2="294.04834"
       y2="78.266823"
       gradientTransform="matrix(1.1,0,0,1.2,-197.20205,128.75917)" />
    <linearGradient
       inkscape:collect="always"
       xlink:href="#linearGradient9928"
       id="linearGradient5750"
       gradientUnits="userSpaceOnUse"
       x1="1319.2858"
       y1="1022.3622"
       x2="1424.2858"
       y2="1083.7908" />
    <linearGradient
       inkscape:collect="always"
       xlink:href="#linearGradient9938"
       id="linearGradient5752"
       gradientUnits="userSpaceOnUse"
       x1="1020.4173"
       y1="908.21619"
       x2="1114.1747"
       y2="908.49152" />
    <linearGradient
       inkscape:collect="always"
       xlink:href="#linearGradient9928"
       id="linearGradient5762"
       gradientUnits="userSpaceOnUse"
       x1="1319.2858"
       y1="1022.3622"
       x2="1424.2858"
       y2="1083.7908" />
    <linearGradient
       inkscape:collect="always"
       xlink:href="#linearGradient9938"
       id="linearGradient5764"
       gradientUnits="userSpaceOnUse"
       x1="1020.4173"
       y1="908.21619"
       x2="1114.1747"
       y2="908.49152" />
    <linearGradient
       inkscape:collect="always"
       xlink:href="#linearGradient7506"
       id="linearGradient6287"
       gradientUnits="userSpaceOnUse"
       gradientTransform="matrix(1.1,0,0,1.2,-197.20205,128.75917)"
       x1="204.51208"
       y1="78.266823"
       x2="294.04834"
       y2="78.266823" />
    <linearGradient
       inkscape:collect="always"
       xlink:href="#linearGradient9928"
       id="linearGradient6289"
       gradientUnits="userSpaceOnUse"
       x1="1319.2858"
       y1="1022.3622"
       x2="1424.2858"
       y2="1083.7908" />
    <linearGradient
       inkscape:collect="always"
       xlink:href="#linearGradient9938"
       id="linearGradient6291"
       gradientUnits="userSpaceOnUse"
       x1="1020.4173"
       y1="908.21619"
       x2="1114.1747"
       y2="908.49152" />
  </defs>
  <g
     id="g6278"
     transform="translate(-1.5583325,236.32001)">
    <path
       style="fill:url(#linearGradient6287);fill-opacity:1;stroke:#000000;stroke-width:3.44673753;stroke-miterlimit:4;stroke-opacity:1;stroke-dasharray:none;stroke-dashoffset:0"
       id="path7504"
       d="m 140.6551,222.67936 a 65.214288,22.285716 0 0 1 -130.428577,0 65.214288,22.285716 0 1 1 130.428577,0 z" />
    <path
       style="fill:#6c5d53;fill-opacity:1;stroke:#000000;stroke-width:3;stroke-miterlimit:4;stroke-opacity:1;stroke-dasharray:none;stroke-dashoffset:0"
       id="path7502"
       d="m 134.48661,218.67935 a 59.285719,18.57143 0 0 1 -118.571437,0 59.285719,18.57143 0 1 1 118.571437,0 z" />
    <rect
       ry="3.3909066"
       rx="3.3909066"
       y="-25.140903"
       x="70.538391"
       height="242.44981"
       width="9.3249931"
       id="rect5766"
       style="fill:#6c5d53;fill-opacity:1;stroke:#000000;stroke-width:2;stroke-miterlimit:4;stroke-opacity:1;stroke-dasharray:none;stroke-dashoffset:0" />
    <path
       d="M 92.343205,-86.247428 A 68.571426,17.142857 89.548487 1 1 58.05857,-85.97724 68.571426,17.142857 89.548487 1 1 92.343205,-86.247428 z"
       id="path5773"
       style="fill:#6c5d53;fill-opacity:1;stroke:#000000;stroke-width:2;stroke-miterlimit:4;stroke-opacity:1;stroke-dasharray:none;stroke-dashoffset:0" />
    <g
       transform="matrix(0.9063078,-0.4226182,0.4226182,0.9063078,-1613.3861,-534.57933)"
       id="g9948">
      <path
         d="m 1348.2432,972.91726 c 0,0 -68.6212,106.58844 -68.6919,106.72964 -3.9122,7.8162 22.7561,29.0726 59.5156,47.4714 36.7593,18.3989 69.7581,27.0074 73.6704,19.1911 l 44.1003,-119.0382 -108.5944,-54.35394 z"
         id="rect5758"
         style="fill:url(#linearGradient6289);fill-opacity:1;stroke:#000000;stroke-width:2;stroke-miterlimit:4;stroke-opacity:1;stroke-dashoffset:0" />
      <path
         d="m 1118.5714,908.07648 a 51.42857,12.857142 0 1 1 -102.8571,0 51.42857,12.857142 0 1 1 102.8571,0 z"
         transform="matrix(1.0450334,0.5230625,-0.4448803,0.8888321,691.96305,-366.4887)"
         id="path5761"
         style="fill:url(#linearGradient6291);fill-opacity:1;stroke:#000000;stroke-width:2;stroke-miterlimit:4;stroke-opacity:1;stroke-dasharray:none;stroke-dashoffset:0" />
    </g>
  </g>
</svg>
