<?xml version="1.0" encoding="UTF-8" standalone="no"?>
<!-- Created with Inkscape (http://www.inkscape.org/) -->
<svg
   xmlns:svg="http://www.w3.org/2000/svg"
   xmlns="http://www.w3.org/2000/svg"
   version="1.0"
   width="326.34601"
   height="502.48499"
   viewBox="37.327 -101.774 326.346 502.485"
   id="Layer_1"
   xml:space="preserve"><defs
   id="defs109" />
<line
   fill="#CCAC78"
   x1="234.173"
   y1="-15.182"
   x2="234.173"
   y2="-15.182"
   id="line3"
   style="fill:#ccac78" />
<line
   fill="#CCAC78"
   x1="234.173"
   y1="-15.182"
   x2="234.173"
   y2="-15.182"
   id="line5"
   style="fill:#ccac78" />
<line
   fill="#CCAC78"
   x1="234.173"
   y1="-15.182"
   x2="234.173"
   y2="-15.182"
   id="line7"
   style="fill:#ccac78" />
<line
   fill="#CCAC78"
   x1="234.173"
   y1="-15.182"
   x2="234.173"
   y2="-15.182"
   id="line9"
   style="fill:#ccac78" />
<linearGradient
   x1="163.1843"
   y1="118.7891"
   x2="176.1843"
   y2="49.789101"
   id="SVGID_1_"
   gradientUnits="userSpaceOnUse">
	<stop
   id="stop12"
   style="stop-color:#ccac78;stop-opacity:1"
   offset="0" />
	<stop
   id="stop14"
   style="stop-color:#e6d6bc;stop-opacity:1"
   offset="0.49450001" />
	<stop
   id="stop16"
   style="stop-color:#ccac78;stop-opacity:1"
   offset="1" />
</linearGradient>
<polygon
   points="259.5,-45.5 191.5,15.5 174.5,43.5 164.5,96.5 165.5,373.5 162.389,400.711 112.06,388.883 109.843,321.533 107.615,251.979 105.417,178.711 103.194,101 106.889,70.663 112.809,42.54 122.431,19.592 135.745,-0.385 152.771,-18.877 171.276,-35.166 189.031,-49.968 206.053,-64.766 255.636,-58.103 259.5,-45.5 "
   id="polygon18"
   style="fill:url(#SVGID_1_)" />
<polygon
   points="264.516,245.315 220.86,236.429 220.86,177.236 221.595,115.061 222.334,50.686 222.334,-16.662 220.115,-29.985 217.149,-40.345 211.97,-43.301 265.5,-45.5 272.5,30.5 267.5,217.5 264.516,245.315 "
   id="polygon20"
   style="fill:#bda070" />
<polygon
   points="270.442,236.429 271.92,176.495 273.407,115.061 274.872,49.935 275.613,-4.814 274.139,-35.908 269.701,-49.968 263.773,-55.88 255.636,-58.103 240.1,-42.567 223.821,-27.761 206.053,-10.734 190.515,7.77 177.928,27.734 168.313,52.162 162.389,80.277 158.691,111.354 159.435,189.075 160.163,263.082 160.911,333.388 162.389,400.711 170.527,388.133 169.79,321.533 169.046,251.231 168.313,177.972 168.313,115.061 170.527,79.543 174.965,60.299 180.886,43.282 188.296,28.479 206.053,10.72 223.821,-7.034 240.1,-23.319 252.678,-34.43 260.822,-37.381 265.255,-33.685 268.223,-23.319 270.442,-10.005 268.959,58.084 267.468,123.208 266.001,185.373 264.516,245.315 270.442,236.429 "
   id="polygon22"
   style="fill:#ad9368" />
<polygon
   points="337.782,352.623 352.575,324.504 356.283,260.854 359.248,194.243 362.94,123.94 363.673,63.265 357.764,25.518 344.443,2.576 322.976,-14.438 297.82,-28.495 252.678,-34.43 208.265,-40.345 164.608,-46.269 126.865,-49.226 99.49,-45.523 80.244,-35.908 83.5,-24.5 126.5,-20.5 286.5,4.5 325.5,35.5 337.5,81.5 329.5,312.5 337.782,352.623 "
   id="polygon24"
   style="fill:#ad9368" />
<polygon
   points="67.663,291.938 89.132,266.783 86.909,206.085 83.944,142.445 81.721,75.842 81.721,20.34 85.429,-8.521 93.57,-21.099 64.5,-13.5 44.5,21.5 54.5,271.5 67.663,291.938 "
   id="polygon26"
   style="fill:#ad9368" />
<polygon
   points="337.782,352.623 341.479,287.48 344.443,219.407 348.139,148.366 348.139,85.471 341.479,46.975 328.152,23.303 305.956,5.542 280.053,-8.521 233.434,-15.182 188.296,-21.833 143.148,-28.495 104.66,-31.468 76.548,-27.761 57.311,-17.414 45.458,1.099 37.327,22.561 41.026,93.594 44.717,160.954 47.681,226.074 50.636,288.237 67.663,291.938 65.442,229.776 62.481,164.654 59.522,96.563 58.046,40.312 61.745,10.72 70.625,-2.604 83.944,-9.263 100.224,-14.438 143.881,-7.774 188.296,-1.124 233.434,5.542 272.657,13.687 297.82,22.561 312.617,35.133 322.237,51.426 329.636,69.926 326.684,143.93 323.72,215.711 320.756,283.051 317.796,348.17 337.782,352.623 "
   id="polygon28"
   style="fill:#ccac78" />
<line
   fill="#CCAC78"
   x1="222.334"
   y1="-16.662001"
   x2="222.334"
   y2="-16.662001"
   id="line30"
   style="fill:#ccac78" />
<line
   fill="#CCAC78"
   x1="222.334"
   y1="-16.662001"
   x2="222.334"
   y2="-16.662001"
   id="line32"
   style="fill:#ccac78" />
<line
   fill="#CCAC78"
   x1="222.334"
   y1="-16.662001"
   x2="222.334"
   y2="-16.662001"
   id="line34"
   style="fill:#ccac78" />
<line
   fill="#CCAC78"
   x1="222.334"
   y1="-16.662001"
   x2="222.334"
   y2="-16.662001"
   id="line36"
   style="fill:#ccac78" />
<line
   fill="#CCAC78"
   x1="293.38501"
   y1="2.4749999"
   x2="293.38501"
   y2="2.4749999"
   id="line38"
   style="fill:#ccac78" />
<line
   fill="#CCAC78"
   x1="293.38501"
   y1="2.4749999"
   x2="293.38501"
   y2="2.4749999"
   id="line40"
   style="fill:#ccac78" />
<line
   fill="#CCAC78"
   x1="293.38501"
   y1="2.4749999"
   x2="293.38501"
   y2="2.4749999"
   id="line42"
   style="fill:#ccac78" />
<line
   fill="#CCAC78"
   x1="293.38501"
   y1="2.4749999"
   x2="293.38501"
   y2="2.4749999"
   id="line44"
   style="fill:#ccac78" />
<line
   fill="#CCAC78"
   x1="280.05301"
   y1="17.271999"
   x2="280.05301"
   y2="17.271999"
   id="line46"
   style="fill:#ccac78" />
<line
   fill="#CCAC78"
   x1="280.05301"
   y1="17.271999"
   x2="280.05301"
   y2="17.271999"
   id="line48"
   style="fill:#ccac78" />
<line
   fill="#CCAC78"
   x1="280.05301"
   y1="17.271999"
   x2="280.05301"
   y2="17.271999"
   id="line50"
   style="fill:#ccac78" />
<line
   fill="#CCAC78"
   x1="280.05301"
   y1="17.271999"
   x2="280.05301"
   y2="17.271999"
   id="line52"
   style="fill:#ccac78" />
<line
   fill="#CCAC78"
   x1="100.224"
   y1="11.355"
   x2="100.224"
   y2="11.355"
   id="line54"
   style="fill:#ccac78" />
<line
   fill="#CCAC78"
   x1="100.224"
   y1="11.355"
   x2="100.224"
   y2="11.355"
   id="line56"
   style="fill:#ccac78" />
<line
   fill="#CCAC78"
   x1="100.224"
   y1="11.355"
   x2="100.224"
   y2="11.355"
   id="line58"
   style="fill:#ccac78" />
<line
   fill="#CCAC78"
   x1="100.224"
   y1="11.355"
   x2="100.224"
   y2="11.355"
   id="line60"
   style="fill:#ccac78" />
<line
   fill="#CCAC78"
   x1="270.44199"
   y1="15.789"
   x2="270.44199"
   y2="15.789"
   id="line62"
   style="fill:#ccac78" />
<line
   fill="#CCAC78"
   x1="270.44199"
   y1="15.789"
   x2="270.44199"
   y2="15.789"
   id="line64"
   style="fill:#ccac78" />
<line
   fill="#CCAC78"
   x1="270.44199"
   y1="15.789"
   x2="270.44199"
   y2="15.789"
   id="line66"
   style="fill:#ccac78" />
<line
   fill="#CCAC78"
   x1="270.44199"
   y1="15.789"
   x2="270.44199"
   y2="15.789"
   id="line68"
   style="fill:#ccac78" />
<polygon
   points="48.425,-52.922 96.52,-62.651 142.404,-72.275 194.948,-75.98 248.237,-73.015 294.862,-63.39 347.402,-55.142 347.402,-29.348 342.218,-9.372 313.367,9.132 263.773,23.189 200.874,28.37 137.966,23.926 86.909,11.355 55.083,-7.147 48.425,-27.128 48.425,-52.922 "
   id="polygon70"
   style="fill:#ccac78" />
<title
   id="title72">Stool d.aoi</title>
<line
   fill="#CCAC78"
   x1="293.38501"
   y1="-23.319"
   x2="293.38501"
   y2="-23.319"
   id="line74"
   style="fill:#ccac78" />
<line
   fill="#CCAC78"
   x1="293.38501"
   y1="-23.319"
   x2="293.38501"
   y2="-23.319"
   id="line76"
   style="fill:#ccac78" />
<line
   fill="#CCAC78"
   x1="293.38501"
   y1="-23.319"
   x2="293.38501"
   y2="-23.319"
   id="line78"
   style="fill:#ccac78" />
<line
   fill="#CCAC78"
   x1="293.38501"
   y1="-23.319"
   x2="293.38501"
   y2="-23.319"
   id="line80"
   style="fill:#ccac78" />
<line
   fill="#CCAC78"
   x1="280.05301"
   y1="-8.5209999"
   x2="280.05301"
   y2="-8.5209999"
   id="line82"
   style="fill:#ccac78" />
<line
   fill="#CCAC78"
   x1="280.05301"
   y1="-8.5209999"
   x2="280.05301"
   y2="-8.5209999"
   id="line84"
   style="fill:#ccac78" />
<line
   fill="#CCAC78"
   x1="280.05301"
   y1="-8.5209999"
   x2="280.05301"
   y2="-8.5209999"
   id="line86"
   style="fill:#ccac78" />
<line
   fill="#CCAC78"
   x1="280.05301"
   y1="-8.5209999"
   x2="280.05301"
   y2="-8.5209999"
   id="line88"
   style="fill:#ccac78" />
<line
   fill="#CCAC78"
   x1="100.224"
   y1="-14.438"
   x2="100.224"
   y2="-14.438"
   id="line90"
   style="fill:#ccac78" />
<line
   fill="#CCAC78"
   x1="100.224"
   y1="-14.438"
   x2="100.224"
   y2="-14.438"
   id="line92"
   style="fill:#ccac78" />
<line
   fill="#CCAC78"
   x1="100.224"
   y1="-14.438"
   x2="100.224"
   y2="-14.438"
   id="line94"
   style="fill:#ccac78" />
<line
   fill="#CCAC78"
   x1="100.224"
   y1="-14.438"
   x2="100.224"
   y2="-14.438"
   id="line96"
   style="fill:#ccac78" />
<line
   fill="#CCAC78"
   x1="270.44199"
   y1="-10.005"
   x2="270.44199"
   y2="-10.005"
   id="line98"
   style="fill:#ccac78" />
<line
   fill="#CCAC78"
   x1="270.44199"
   y1="-10.005"
   x2="270.44199"
   y2="-10.005"
   id="line100"
   style="fill:#ccac78" />
<line
   fill="#CCAC78"
   x1="270.44199"
   y1="-10.005"
   x2="270.44199"
   y2="-10.005"
   id="line102"
   style="fill:#ccac78" />
<line
   fill="#CCAC78"
   x1="270.44199"
   y1="-10.005"
   x2="270.44199"
   y2="-10.005"
   id="line104"
   style="fill:#ccac78" />
<polygon
   points="62.481,-72.164 96.52,-88.445 142.404,-98.069 194.948,-101.774 248.237,-98.809 294.862,-89.184 330.375,-74.392 347.402,-55.142 342.218,-35.166 313.367,-16.662 263.773,-2.604 200.874,2.576 137.966,-1.868 86.909,-14.438 55.083,-32.941 48.425,-52.922 62.481,-72.164 "
   id="polygon106"
   style="fill:#ead4be" />
</svg>