<?xml version="1.0" encoding="UTF-8" standalone="no"?>
<!-- Created with Inkscape (http://www.inkscape.org/) -->
<svg
   xmlns:dc="http://purl.org/dc/elements/1.1/"
   xmlns:cc="http://creativecommons.org/ns#"
   xmlns:rdf="http://www.w3.org/1999/02/22-rdf-syntax-ns#"
   xmlns:svg="http://www.w3.org/2000/svg"
   xmlns="http://www.w3.org/2000/svg"
   xmlns:xlink="http://www.w3.org/1999/xlink"
   xmlns:sodipodi="http://sodipodi.sourceforge.net/DTD/sodipodi-0.dtd"
   xmlns:inkscape="http://www.inkscape.org/namespaces/inkscape"
   height="128.00000pt"
   id="svg1"
   inkscape:version="0.46"
   sodipodi:docbase="/home/andy/Desktop/etiquette-icons-0.4/scalable/stock"
   sodipodi:docname="calligraphy.svg"
   sodipodi:version="0.32"
   width="128.00000pt"
   inkscape:output_extension="org.inkscape.output.svg.inkscape"
   inkscape:export-filename="C:\Documents and Settings\HP_Owner.WINXPMAIN\Desktop\caligraphy.png"
   inkscape:export-xdpi="90"
   inkscape:export-ydpi="90">
  <metadata
     id="metadata3">
    <rdf:RDF>
      <cc:Work
         rdf:about="">
        <dc:title>Etiquette Icons</dc:title>
        <dc:description />
        <dc:subject>
          <rdf:Bag>
            <rdf:li>hash</rdf:li>
            <rdf:li />
            <rdf:li>computer</rdf:li>
            <rdf:li>icons</rdf:li>
            <rdf:li>stock</rdf:li>
            <rdf:li>theme</rdf:li>
          </rdf:Bag>
        </dc:subject>
        <dc:publisher>
          <cc:Agent
             rdf:about="http://www.openclipart.org">
            <dc:title>Andy Fitzsimon</dc:title>
          </cc:Agent>
        </dc:publisher>
        <dc:creator>
          <cc:Agent>
            <dc:title>Andy Fitzsimon</dc:title>
          </cc:Agent>
        </dc:creator>
        <dc:rights>
          <cc:Agent>
            <dc:title>Andy Fitzsimon</dc:title>
          </cc:Agent>
        </dc:rights>
        <dc:date />
        <dc:format>image/svg+xml</dc:format>
        <dc:type
           rdf:resource="http://purl.org/dc/dcmitype/StillImage" />
        <cc:license
           rdf:resource="http://web.resource.org/cc/PublicDomain" />
        <dc:language>en</dc:language>
      </cc:Work>
      <cc:License
         rdf:about="http://web.resource.org/cc/PublicDomain">
        <cc:permits
           rdf:resource="http://web.resource.org/cc/Reproduction" />
        <cc:permits
           rdf:resource="http://web.resource.org/cc/Distribution" />
        <cc:permits
           rdf:resource="http://web.resource.org/cc/DerivativeWorks" />
      </cc:License>
    </rdf:RDF>
  </metadata>
  <defs
     id="defs3">
    <inkscape:perspective
       sodipodi:type="inkscape:persp3d"
       inkscape:vp_x="0 : 80 : 1"
       inkscape:vp_y="0 : 1000 : 0"
       inkscape:vp_z="160 : 80 : 1"
       inkscape:persp3d-origin="80 : 53.333333 : 1"
       id="perspective106" />
    <linearGradient
       id="linearGradient977"
       x1="0.15789473"
       x2="0.50877196"
       xlink:href="#linearGradient978"
       y1="-0.058441557"
       y2="0.90909094" />
    <linearGradient
       id="linearGradient844">
      <stop
         id="stop2565"
         offset="0.00000000"
         style="stop-color:#ffffff;stop-opacity:1.0000000;" />
      <stop
         id="stop848"
         offset="1.0000000"
         style="stop-color:#ffffff;stop-opacity:0.00000000;" />
    </linearGradient>
    <linearGradient
       id="linearGradient1064"
       x1="0.30303031"
       x2="0.50505048"
       xlink:href="#linearGradient844"
       y1="-0.83766234"
       y2="0.48051947" />
    <linearGradient
       id="linearGradient1572"
       x1="0.63999999"
       x2="0.011428571"
       xlink:href="#linearGradient1525"
       y1="0.84415585"
       y2="-0.11688311" />
    <linearGradient
       id="linearGradient1570"
       x1="0.69090909"
       x2="0.85454547"
       xlink:href="#linearGradient1525"
       y1="0.53246754"
       y2="-0.36363637" />
    <linearGradient
       id="linearGradient1557"
       x1="0.39688715"
       x2="0.12451362"
       xlink:href="#linearGradient1510"
       y1="0.34821430"
       y2="1.7053572" />
    <linearGradient
       id="linearGradient978">
      <stop
         id="stop979"
         offset="0.00000000"
         style="stop-color:#ffffff;stop-opacity:0.61960787;" />
      <stop
         id="stop980"
         offset="1.0000000"
         style="stop-color:#ffffff;stop-opacity:0.00000000;" />
    </linearGradient>
    <linearGradient
       id="linearGradient1529"
       x1="-0.46198830"
       x2="0.32163742"
       xlink:href="#linearGradient978"
       y1="0.071428575"
       y2="1.1038961" />
    <linearGradient
       id="linearGradient1498">
      <stop
         id="stop1499"
         offset="0.0000000"
         style="stop-color:#ffffff;stop-opacity:1.0000000;" />
      <stop
         id="stop1500"
         offset="1.0000000"
         style="stop-color:#000000;stop-opacity:1.0000000;" />
    </linearGradient>
    <radialGradient
       cx="0.33548388"
       cy="0.30519480"
       fx="0.33548388"
       fy="0.29220778"
       id="radialGradient1574"
       r="2.2566767"
       xlink:href="#linearGradient1498" />
    <linearGradient
       id="linearGradient1525">
      <stop
         id="stop1526"
         offset="0.0000000"
         style="stop-color:#ffffff;stop-opacity:0.0000000;" />
      <stop
         id="stop1527"
         offset="1.0000000"
         style="stop-color:#ffffff;stop-opacity:1.0000000;" />
    </linearGradient>
    <linearGradient
       id="linearGradient1523"
       x1="0.41634241"
       x2="-0.023346303"
       xlink:href="#linearGradient1525"
       y1="0.50000000"
       y2="1.0250000" />
    <linearGradient
       id="linearGradient1653"
       x1="0.68844223"
       x2="1.8341708"
       xlink:href="#linearGradient1510"
       y1="0.94805193"
       y2="1.1558442" />
    <linearGradient
       id="linearGradient1510">
      <stop
         id="stop1511"
         offset="0.0000000"
         style="stop-color:#000000;stop-opacity:0.0000000;" />
      <stop
         id="stop1512"
         offset="1.0000000"
         style="stop-color:#000000;stop-opacity:1.0000000;" />
    </linearGradient>
    <linearGradient
       id="linearGradient1651"
       x1="0.58787876"
       x2="2.5272727"
       xlink:href="#linearGradient1510"
       y1="0.81168830"
       y2="1.3701298" />
    <linearGradient
       id="linearGradient1501"
       x1="0.30434781"
       x2="0.24844721"
       xlink:href="#linearGradient1806"
       y1="0.83116883"
       y2="0.37662336" />
    <radialGradient
       cx="0.49032259"
       cy="0.50649351"
       fx="0.50977784"
       fy="0.15800871"
       id="radialGradient1505"
       r="0.46014288"
       xlink:href="#linearGradient1806" />
    <linearGradient
       id="linearGradient1806">
      <stop
         id="stop1807"
         offset="0.0000000"
         style="stop-color:#000000;stop-opacity:0.40677965;" />
      <stop
         id="stop3276"
         offset="0.64777780"
         style="stop-color:#000000;stop-opacity:0.073446326;" />
      <stop
         id="stop1808"
         offset="1.0000000"
         style="stop-color:#000000;stop-opacity:0.0000000;" />
    </linearGradient>
    <radialGradient
       cx="0.49032259"
       cy="0.50649351"
       fx="0.49027237"
       fy="0.095238097"
       id="radialGradient1502"
       r="0.46014288"
       xlink:href="#linearGradient1806" />
    <linearGradient
       id="linearGradient894">
      <stop
         id="stop895"
         offset="0.0000000"
         style="stop-color:#000000;stop-opacity:0.71074378;" />
      <stop
         id="stop896"
         offset="1.0000000"
         style="stop-color:#000000;stop-opacity:0.0000000;" />
    </linearGradient>
    <linearGradient
       id="linearGradient874">
      <stop
         id="stop875"
         offset="0.0000000"
         style="stop-color:#000000;stop-opacity:0.46875000;" />
      <stop
         id="stop878"
         offset="1.0000000"
         style="stop-color:#000000;stop-opacity:0.0000000;" />
    </linearGradient>
    <linearGradient
       id="linearGradient867">
      <stop
         id="stop868"
         offset="0.0000000"
         style="stop-color:#8d8d8d;stop-opacity:1.0000000;" />
      <stop
         id="stop869"
         offset="0.50000000"
         style="stop-color:#ffffff;stop-opacity:1.0000000;" />
      <stop
         id="stop870"
         offset="0.59380955"
         style="stop-color:#5f5f5f;stop-opacity:1.0000000;" />
      <stop
         id="stop871"
         offset="1.0000000"
         style="stop-color:#dadada;stop-opacity:1.0000000;" />
    </linearGradient>
    <linearGradient
       id="linearGradient861">
      <stop
         id="stop862"
         offset="0.0000000"
         style="stop-color:#525252;stop-opacity:1.0000000;" />
      <stop
         id="stop864"
         offset="0.48280421"
         style="stop-color:#d7d7d7;stop-opacity:1.0000000;" />
      <stop
         id="stop865"
         offset="0.65853614"
         style="stop-color:#aaaaaa;stop-opacity:1.0000000;" />
      <stop
         id="stop880"
         offset="0.70680565"
         style="stop-color:#cacaca;stop-opacity:1.0000000;" />
      <stop
         id="stop863"
         offset="1.0000000"
         style="stop-color:#8a8a8a;stop-opacity:1.0000000;" />
    </linearGradient>
    <linearGradient
       id="linearGradient856">
      <stop
         id="stop857"
         offset="0.0000000"
         style="stop-color:#ffffff;stop-opacity:1.0000000;" />
      <stop
         id="stop858"
         offset="1.0000000"
         style="stop-color:#ffffff;stop-opacity:0.0000000;" />
    </linearGradient>
    <linearGradient
       id="linearGradient859"
       x1="0.67153287"
       x2="0.35766423"
       xlink:href="#linearGradient856"
       y1="0.17968749"
       y2="0.45312497" />
    <linearGradient
       id="linearGradient860"
       x1="0.52112675"
       x2="0.72769952"
       xlink:href="#linearGradient861"
       y1="0.19780220"
       y2="0.42857143" />
    <linearGradient
       id="linearGradient866"
       x1="0.40088105"
       x2="0.57268721"
       xlink:href="#linearGradient867"
       y1="0.46703297"
       y2="0.63736266" />
    <linearGradient
       id="linearGradient873"
       x1="0.17582418"
       x2="0.56410259"
       xlink:href="#linearGradient874"
       y1="0.16477273"
       y2="0.48170730" />
    <linearGradient
       id="linearGradient879"
       x1="-1.4266666"
       x2="0.82666665"
       xlink:href="#linearGradient874"
       y1="0.19230770"
       y2="0.52197802" />
    <linearGradient
       id="linearGradient880"
       x1="2.5214725"
       x2="-0.067484662"
       xlink:href="#linearGradient874"
       y1="1.7197802"
       y2="0.060439561" />
    <linearGradient
       id="linearGradient881"
       x1="0.82822084"
       x2="0.26380369"
       xlink:href="#linearGradient856"
       y1="0.19780220"
       y2="0.81318682" />
    <linearGradient
       id="linearGradient882"
       x1="0.29585800"
       x2="0.69822484"
       xlink:href="#linearGradient856"
       y1="0.15934066"
       y2="0.87912089" />
    <linearGradient
       id="linearGradient884"
       x1="0.93063593"
       x2="0.60693645"
       xlink:href="#linearGradient856"
       y1="-0.64062440"
       y2="0.52343774" />
    <linearGradient
       id="linearGradient887"
       x1="0.54578757"
       x2="0.55677658"
       xlink:href="#linearGradient874"
       y1="1.5714285"
       y2="0.26190478" />
    <linearGradient
       id="linearGradient890"
       x1="-0.029304029"
       x2="0.79853481"
       xlink:href="#linearGradient874"
       y1="-1.7702702"
       y2="0.31081080" />
    <linearGradient
       id="linearGradient899"
       x1="0.040000033"
       x2="0.22222225"
       xlink:href="#linearGradient856"
       y1="0.054687545"
       y2="0.35156250" />
    <linearGradient
       id="linearGradient875"
       x1="1.0648649"
       x2="0.42702702"
       xlink:href="#linearGradient874"
       y1="1.0604396"
       y2="0.22527473" />
    <linearGradient
       id="linearGradient878"
       x1="-0.51533741"
       x2="0.52760738"
       xlink:href="#linearGradient856"
       y1="-1.8021978"
       y2="1.8351648" />
    <linearGradient
       id="linearGradient893"
       x1="0.51648355"
       x2="0.59706962"
       xlink:href="#linearGradient894"
       y1="0.31999999"
       y2="1.0066667" />
    <linearGradient
       id="linearGradient903"
       x1="0.29387757"
       x2="0.49387756"
       xlink:href="#linearGradient856"
       y1="0.96875000"
       y2="0.53125000" />
    <linearGradient
       id="linearGradient904"
       x1="0.45421252"
       x2="0.45787543"
       xlink:href="#linearGradient894"
       y1="4.5000019"
       y2="0.25000012" />
    <linearGradient
       id="linearGradient936"
       x1="0.56410259"
       x2="0.53846157"
       xlink:href="#linearGradient894"
       y1="-11.749995"
       y2="0.87499970" />
    <linearGradient
       id="linearGradient1045"
       xlink:href="#linearGradient894" />
    <linearGradient
       id="linearGradient1579"
       x1="0.51612902"
       x2="0.41290322"
       xlink:href="#linearGradient1525"
       y1="0.50781250"
       y2="0.39843750" />
  </defs>
  <sodipodi:namedview
     bordercolor="#666666"
     borderopacity="1.0"
     id="base"
     inkscape:cx="69.01954"
     inkscape:cy="54.64447"
     inkscape:pageopacity="0.0000000"
     inkscape:pageshadow="2"
     inkscape:window-height="667"
     inkscape:window-width="573"
     inkscape:window-x="22"
     inkscape:window-y="29"
     inkscape:zoom="1.6073451"
     pagecolor="#ffffff"
     showborder="true"
     showgrid="false"
     inkscape:current-layer="svg1" />
  <g
     id="g2319"
     style="">
    <path
       d="M 87.921034,242.60338 C 86.202994,241.22383 90.247224,243.53479 90.932004,243.89333 C 97.713854,247.75243 101.05594,249.81892 110.87452,256.47202 C 124.32202,265.57478 106.90998,264.71502 98.806504,264.14567 C 85.598114,263.18503 51.281294,257.70033 40.248199,263.86341 C 44.942424,262.80283 94.315864,274.61200 104.47753,276.20122 C 142.17401,281.95894 106.70581,285.64334 93.565594,290.42210 C 93.411634,290.65199 114.01588,295.10328 117.02866,295.53199 C 129.33102,297.28257 141.72181,298.31215 154.03210,300.00146 C 173.68982,303.35716 161.16307,304.94711 155.77967,310.14758 C 155.15331,310.75265 156.94732,308.32516 157.80183,308.49325 C 158.68680,308.59623 159.57177,308.69922 160.45674,308.80220 L 159.90350,312.17719 C 158.82585,312.12700 157.74820,312.07682 156.67055,312.02663 C 134.95253,309.21411 172.02282,307.43705 153.06970,302.81852 C 135.07956,299.41393 116.68399,298.79067 98.712894,295.30787 C 94.925414,294.57386 83.448384,291.68581 91.490524,287.34375 C 104.49258,283.62674 133.20969,284.21853 103.67491,278.54313 C 84.756724,275.32773 65.625774,272.60964 46.944074,268.16962 C 43.710624,267.40114 32.217168,265.47720 37.760733,260.54461 C 56.522624,255.41810 79.948804,260.15601 99.163444,260.91777 C 108.03764,261.22676 115.24595,264.98056 107.14657,259.00088 C 97.593074,252.05561 94.296084,250.62664 87.495344,247.14173 C 86.013314,246.42796 84.200634,246.01593 82.899324,244.99422 L 87.921034,242.60338 z "
       id="path892"
       sodipodi:nodetypes="ccccccccccccccccccccccccc"
       style="fill:url(#linearGradient893);fill-opacity:1;stroke-width:1.0000000pt;"
       transform="matrix(0.586545,0.000000,0.000000,0.586545,-17.79490,-33.88357)" />
    <path
       d="M 103.20685,210.39272 L 102.28805,207.63622 C 102.28805,207.63622 111.47606,201.20462 111.47606,198.44822 C 111.47606,195.69182 122.50167,172.72182 126.17687,171.34362 C 129.85208,169.96542 153.28150,152.04882 155.57850,152.50822 C 157.87551,152.96762 189.57414,143.32022 192.78994,141.02322 C 196.00574,138.72621 210.24716,145.15782 213.92236,149.75182 C 217.59756,154.34582 255.26840,180.99102 255.72780,185.58502 C 256.18720,190.17902 276.40082,196.15132 278.69782,195.69182 C 280.99482,195.23242 278.69782,242.09132 278.69782,242.09132 C 278.69782,242.09132 260.32180,241.63192 241.94579,244.38832 C 237.35178,245.07742 230.63305,245.93882 222.98116,246.77862 C 215.32927,247.61852 199.85322,233.73592 191.52659,234.33892 C 183.19996,234.94192 191.67015,223.38512 166.67589,221.98532 C 160.07654,221.48532 176.82578,244.21602 166.60411,248.06352 C 161.49328,249.75752 160.57448,245.96752 159.32549,243.59152 C 156.92799,245.80962 158.44976,248.40802 152.36270,248.06352 C 146.50535,247.71902 134.44608,225.09352 137.20249,217.28372 C 134.44608,215.44612 127.32537,238.87552 117.21856,237.95672 C 109.40875,236.57852 117.44827,216.36492 107.11175,215.90542 C 103.89595,215.44612 103.20685,210.39272 103.20685,210.39272 z "
       id="path844"
       sodipodi:nodetypes="cccccccccccssszczczcc"
       style="fill:#b39169;fill-rule:evenodd;stroke-width:0.31912408pt;fill-opacity:1.0000000;"
       transform="matrix(0.586545,0.000000,0.000000,0.586545,-17.79490,-33.88357)" />
    <path
       d="M 193.98497,160.74124 C 199.06187,156.58741 196.10564,181.52393 196.52978,185.68047 C 196.95392,189.83701 190.93118,195.35078 182.78776,195.35078 C 174.64434,195.35078 154.79475,192.80596 154.79475,192.80596 L 193.98497,160.74124 z "
       id="path874"
       sodipodi:nodetypes="czccz"
       style="fill:url(#linearGradient875);fill-opacity:1;fill-rule:evenodd;stroke-width:1.0000000pt;"
       transform="matrix(0.586545,0.000000,0.000000,0.586545,-17.79490,-33.88357)" />
    <path
       d="M 103.13464,210.14280 L 102.21584,207.38630 C 102.21584,207.38630 111.40385,200.95470 111.40385,198.19830 C 111.40385,195.44190 122.42946,172.47190 126.10466,171.09370 C 129.77987,169.71550 153.20929,151.79890 155.50629,152.25830 C 157.80330,152.71770 189.50193,143.07030 192.71773,140.77330 C 195.93353,138.47629 210.17495,144.90790 213.85015,149.50190 C 217.52535,154.09590 255.19619,180.74110 255.65559,185.33510 C 256.11499,189.92910 276.32861,195.90140 278.62561,195.44190 C 280.92261,194.98250 259.23482,241.50988 259.23482,241.50988 C 259.23482,241.50988 260.24959,241.38195 241.87358,244.13835 C 237.27957,244.82745 230.56084,245.68885 222.90895,246.52865 C 215.25706,247.36855 199.78101,233.48595 191.45438,234.08895 C 183.12775,234.69195 191.59794,223.13520 166.60368,221.73540 C 160.00433,221.23540 176.75357,243.96605 166.53190,247.81355 C 161.42107,249.50755 160.50227,245.71755 159.25328,243.34155 C 156.85578,245.55965 158.37755,248.15805 152.29049,247.81355 C 146.43314,247.46905 134.37387,224.84355 137.13028,217.03380 C 134.37387,215.19620 127.25316,238.62555 117.14635,237.70675 C 109.33654,236.32855 117.37606,216.11500 107.03954,215.65550 C 103.82374,215.19620 103.13464,210.14280 103.13464,210.14280 z "
       id="path886"
       sodipodi:nodetypes="cccccccccccssszczczcc"
       style="fill:url(#linearGradient887);fill-rule:evenodd;stroke-width:0.31912408pt;"
       transform="matrix(0.586545,0.000000,0.000000,0.586545,-17.79490,-33.88357)" />
    <path
       d="M 81.206674,246.44492 L 100.50149,227.60952 C 103.44818,226.11532 105.74518,224.29622 107.39250,221.17782 L 109.23010,219.79962 L 114.28351,225.31252 L 111.87981,227.47012 L 106.93310,227.15002 L 107.23008,225.77182 L 104.22765,228.23372 L 105.93548,229.23372 L 101.87969,236.94611 L 81.206674,246.44492 z "
       id="path841"
       sodipodi:nodetypes="cccccccccccc"
       style="fill:url(#linearGradient866);fill-opacity:1;fill-rule:evenodd;stroke-width:0.31912408pt;"
       transform="matrix(0.586545,0.000000,0.000000,0.586545,-17.79490,-33.88357)" />
    <path
       d="M 103.71729,211.53042 L 103.71729,211.53042"
       id="path842"
       style="fill:none;fill-opacity:0.75000000;fill-rule:evenodd;stroke:#000000;stroke-width:0.31912408pt;"
       transform="matrix(0.586545,0.000000,0.000000,0.586545,-17.79490,-33.88357)" />
    <path
       d="M 122.73003,205.46147 C 115.09557,198.33598 135.96309,189.68360 137.99895,183.06707 C 140.03481,176.95951 148.17822,172.37883 158.86645,168.81608 C 169.55469,165.25334 192.96703,153.03821 192.96703,160.16370 C 192.96703,167.28919 200.60148,183.06707 193.98496,186.62981 C 187.36843,190.19256 152.24993,184.59396 148.68718,187.64774 C 145.12444,190.70152 125.78381,208.00629 122.73003,205.46147 z "
       id="path872"
       sodipodi:nodetypes="czccccc"
       style="fill:url(#linearGradient873);fill-opacity:1;fill-rule:evenodd;stroke-width:1.0000000pt;"
       transform="matrix(0.586545,0.000000,0.000000,0.586545,-17.79490,-33.88357)" />
    <path
       d="M 118.92218,206.88682 L 112.58770,211.27222 C 106.84715,215.24652 109.71823,220.74692 110.96347,222.64182 C 112.20871,224.53682 117.71066,224.55942 120.05914,222.64182 L 190.87539,164.81942 L 293.20162,77.760902 C 297.44482,74.150812 290.71643,69.484842 286.05502,73.213072 L 118.92218,206.88682 z "
       id="path850"
       sodipodi:nodetypes="czzzczzc"
       style="fill:#454239;fill-rule:evenodd;stroke-width:0.31912408pt;fill-opacity:1.0000000;"
       transform="matrix(0.586545,0.000000,0.000000,0.586545,-17.79490,-33.88357)" />
    <path
       d="M 118.74929,206.96411 L 112.41481,211.34951 C 106.67426,215.32371 109.54534,220.82421 110.79058,222.71911 C 112.03582,224.61401 117.53218,224.62981 119.88624,222.71911 L 157.36168,192.30191 C 159.76665,190.34991 151.65724,180.52921 149.52598,182.24121 L 118.74929,206.96411 z "
       id="path851"
       sodipodi:nodetypes="czzzzzc"
       style="fill:url(#linearGradient860);fill-opacity:1;fill-rule:evenodd;stroke-width:0.31912408pt;"
       transform="matrix(0.586545,0.000000,0.000000,0.586545,-17.79490,-33.88357)" />
    <path
       d="M 103.71729,210.61162 L 102.79849,207.85522 C 102.79849,207.85522 111.98650,201.42362 111.98650,198.66722 C 111.98650,195.91082 123.01211,172.94082 126.68732,171.56262 C 130.36252,170.18442 153.79194,152.26782 156.08894,152.72722 C 158.38595,153.18662 190.08458,143.53919 193.30038,141.24219 C 196.51619,138.94518 210.75760,145.37679 214.43280,149.97082 C 218.10801,154.56482 255.77884,181.21002 256.23824,185.80402 C 256.69764,190.39802 276.91126,196.37022 279.20827,195.91082 C 281.50527,195.45142 279.09108,241.13841 279.09108,241.13841 C 279.09108,241.13841 260.83225,239.09452 242.45623,241.85092 C 224.08021,244.60732 196.97559,228.98772 195.13798,228.06892 C 193.30038,227.15002 181.35597,217.04322 170.33036,218.88082 C 159.30475,220.71842 140.46933,219.34022 137.71293,217.50262 C 134.95653,215.66502 123.93091,212.44922 123.47151,208.31462 C 123.01211,204.18002 124.39031,195.45142 130.82192,194.07322 C 137.25353,192.69502 161.14235,191.31682 169.41156,193.15442 C 177.68077,194.99202 191.00338,194.53262 195.13798,190.39802 C 199.27259,186.26342 195.13798,164.21222 196.97559,160.53702 C 198.81319,156.86182 180.43717,155.02422 174.92437,158.69942 C 169.41156,162.37462 134.95653,175.23782 135.87533,180.75062 C 136.79413,186.26342 119.00023,197.74842 117.62203,202.80182 C 116.24383,207.85522 111.98650,214.28682 108.77070,213.82742 C 105.55489,213.36802 103.71729,210.61162 103.71729,210.61162 z "
       id="path843"
       sodipodi:nodetypes="ccccccccccccccccccccczcc"
       style="fill:#e0c39e;fill-rule:evenodd;stroke-width:0.31912408pt;fill-opacity:1.0000000;"
       transform="matrix(0.586545,0.000000,0.000000,0.586545,-17.79490,-33.88357)" />
    <path
       d="M 102.94607,210.89091 L 102.02727,208.13451 C 102.02727,208.13451 111.21529,201.70291 111.21529,198.94651 C 111.21529,196.19011 122.24090,173.22011 125.91611,171.84191 C 129.59131,170.46371 153.02073,152.54711 155.31773,153.00651 C 157.61474,153.46591 189.31337,143.81848 192.52917,141.52148 C 195.74498,139.22447 209.98639,145.65608 213.66159,150.25011 C 217.33680,154.84411 255.00763,181.48931 255.46703,186.08331 C 255.92643,190.67731 276.14005,196.64951 278.43706,196.19011 C 280.73406,195.73071 278.43706,240.43508 278.43706,240.43508 C 278.60279,238.94348 260.06104,239.37381 241.68502,242.13021 C 223.30900,244.88661 196.20438,229.26701 194.36677,228.34821 C 192.52917,227.42931 180.58476,217.32251 169.55915,219.16011 C 158.53354,220.99771 139.69812,219.61951 136.94172,217.78191 C 134.18532,215.94431 123.15970,212.72851 122.70030,208.59391 C 122.24090,204.45931 123.61910,195.73071 130.05071,194.35251 C 136.48232,192.97431 160.37114,191.59611 168.64035,193.43371 C 176.90956,195.27131 190.23217,194.81191 194.36677,190.67731 C 198.50138,186.54271 194.36677,164.49151 196.20438,160.81631 C 198.04198,157.14111 179.66596,155.30351 174.15316,158.97871 C 168.64035,162.65391 134.18532,175.51711 135.10412,181.02991 C 136.02292,186.54271 118.22902,198.02771 116.85082,203.08111 C 115.47262,208.13451 111.21529,214.56611 107.99948,214.10671 C 104.78367,213.64731 102.94607,210.89091 102.94607,210.89091 z "
       id="path1161"
       sodipodi:nodetypes="ccccccccccccccccccccczcc"
       style="fill:url(#linearGradient899);fill-rule:evenodd;stroke-width:0.31912408pt;"
       transform="matrix(0.586545,0.000000,0.000000,0.586545,-17.79490,-33.88357)" />
    <path
       d="M 206.00238,151.81973 C 192.76932,141.64046 213.52777,183.18900 190.02984,202.09565 C 176.71119,211.84105 270.73335,238.34816 275.28118,234.77486 C 279.82901,231.20156 280.80355,198.71706 276.25572,198.71706 C 231.43645,179.27912 274.74532,192.41957 206.00238,151.81973 z "
       id="path855"
       sodipodi:nodetypes="ccccc"
       style="fill:url(#linearGradient859);fill-rule:evenodd;stroke-width:0.31912408pt;"
       transform="matrix(0.586545,0.000000,0.000000,0.586545,-17.79490,-33.88357)" />
    <path
       d="M 189.46426,150.34387 C 178.14330,151.14348 166.88381,152.64778 155.58926,153.75012 C 145.27448,159.47196 135.72815,166.48239 126.08926,173.25012 C 121.81418,177.75356 119.65614,183.83689 116.61756,189.18838 C 113.98673,194.72323 112.71693,201.45781 107.35548,205.10858 C 105.54166,206.50389 102.53430,208.09413 105.18636,210.25708 C 106.81295,212.14053 110.20729,212.78878 111.49971,210.17314 C 115.27905,206.14564 115.96008,200.02246 120.46426,196.56262 C 125.15969,191.65901 130.69669,187.33448 134.05076,181.44599 C 134.64831,175.91814 140.62511,174.22346 144.64773,171.66728 C 155.03133,165.75095 166.15576,161.14110 176.96426,156.03137 C 183.22496,155.50234 189.69881,154.69201 195.70831,157.07431 C 199.01649,159.01915 197.03472,163.32864 197.44031,166.43977 C 197.54525,173.98551 198.49422,181.70192 196.65176,189.09387 C 194.62087,192.77850 190.36912,193.67349 186.56432,194.31744 C 176.35161,196.05306 166.09007,193.07650 155.82739,193.27572 C 147.26199,193.51385 138.58843,193.75050 130.15176,195.18762 C 125.75482,197.35850 124.01380,202.76846 124.43301,207.40637 C 126.11740,211.44236 130.98891,212.48770 134.50513,214.46756 C 142.00487,218.05411 150.56066,217.89613 158.68987,218.03640 C 166.88203,217.99279 175.62423,215.73319 183.27750,219.73377 C 191.62565,223.72122 199.25198,229.32160 207.95417,232.70140 C 217.19657,236.77782 227.00082,239.98101 237.16921,240.35155 C 248.99500,239.86984 260.88844,238.57129 272.70619,240.10123 C 274.90776,240.06635 278.78718,241.96101 277.73422,238.18349 C 278.37531,224.72269 278.43544,211.25378 278.24551,197.78137 C 276.54993,195.41417 273.14591,196.46718 270.84303,194.93905 C 264.32277,192.76352 257.00536,190.58490 253.17250,184.37289 C 247.61244,177.29260 239.75785,172.52912 233.01949,166.65548 C 226.22453,161.31955 219.65563,155.48679 212.71942,150.46123 C 205.06961,148.57251 197.20885,149.99299 189.46426,150.34387 z "
       id="path1159"
       style="fill:url(#linearGradient903);fill-rule:evenodd;stroke-width:0.31912408pt;"
       transform="matrix(0.586545,0.000000,0.000000,0.586545,-17.79490,-33.88357)" />
    <path
       d="M 124.24424,204.73263 C 124.24424,204.73263 125.67763,198.38479 129.56824,198.58956 C 133.45885,198.79433 135.91609,200.02294 135.91609,200.02294 C 135.91609,200.02294 136.53040,201.45632 136.73517,203.70878 C 136.93993,205.96124 135.91609,210.26139 135.91609,210.26139 C 135.91609,210.26139 134.68747,212.92339 132.43501,212.71862 C 130.18255,212.51385 125.26808,209.44232 125.26808,209.44232 C 125.26808,209.44232 124.03947,207.39463 124.24424,204.73263 z "
       id="path877"
       style="fill:url(#linearGradient878);fill-opacity:1;fill-rule:evenodd;stroke-width:0.31912408pt;"
       transform="matrix(0.586545,0.000000,0.000000,0.586545,-17.79490,-33.88357)" />
    <path
       d="M 159.10701,242.82096 C 167.76233,248.21256 163.53665,221.44028 160.47736,220.52682 C 155.10577,218.77742 154.63401,222.82944 154.65663,223.52945 C 154.67924,224.22946 154.59740,227.65281 155.61254,229.48002 C 156.62769,231.30723 160.48120,238.92276 159.10701,242.82096 z "
       id="path849"
       sodipodi:nodetypes="csszc"
       style="fill:url(#linearGradient879);fill-opacity:1;fill-rule:evenodd;stroke-width:0.31912408pt;"
       transform="matrix(0.586545,0.000000,0.000000,0.586545,-17.79490,-33.88357)" />
    <path
       d="M 124.39031,204.86912 C 124.39031,204.86912 125.99822,197.74842 130.36252,197.97812 C 134.72682,198.20782 137.48323,199.58602 137.48323,199.58602 C 137.48323,199.58602 138.17233,201.19392 138.40203,203.72062 C 138.63173,206.24732 137.48323,211.07102 137.48323,211.07102 C 137.48323,211.07102 136.10502,214.05712 133.57832,213.82742 C 131.05162,213.59772 125.53881,210.15222 125.53881,210.15222 C 125.53881,210.15222 124.16061,207.85522 124.39031,204.86912 z "
       id="path852"
       style="fill:url(#linearGradient880);fill-opacity:1;fill-rule:evenodd;stroke-width:0.31912408pt;"
       transform="matrix(0.586545,0.000000,0.000000,0.586545,-17.79490,-33.88357)" />
    <path
       d="M 125.76852,207.90812 L 134.26743,209.97542 C 135.81025,210.35070 138.66655,204.19478 135.90600,201.37701 C 133.50535,198.55924 129.67342,199.17952 129.67342,199.17952 C 129.67342,199.17952 125.76852,200.09832 125.76852,203.31412 C 125.76852,206.52992 125.76852,207.90812 125.76852,207.90812 z "
       id="path853"
       sodipodi:nodetypes="czzccc"
       style="fill:url(#linearGradient881);fill-opacity:1;fill-rule:evenodd;stroke-width:0.31912408pt;"
       transform="matrix(0.586545,0.000000,0.000000,0.586545,-17.79490,-33.88357)" />
    <path
       d="M 111.52710,199.35632 C 111.52710,199.35632 115.43200,201.42362 111.75680,205.32852 C 108.08160,209.23342 105.09549,212.44922 103.94699,212.21952 C 102.79849,211.98982 100.50149,209.00372 101.87969,208.08492 C 103.25789,207.16612 111.52710,199.35632 111.52710,199.35632 z "
       id="path854"
       style="fill:url(#linearGradient882);fill-rule:evenodd;stroke-width:0.31912408pt;"
       transform="matrix(0.586545,0.000000,0.000000,0.586545,-17.79490,-33.88357)" />
    <path
       d="M 191.67075,164.30260 L 293.99698,77.244082 C 298.24018,73.633992 291.51785,68.975612 286.85038,72.696252 L 174.27303,162.43649 L 191.67075,164.30260 z "
       id="path885"
       sodipodi:nodetypes="czzcc"
       style="fill:#454239;fill-rule:evenodd;stroke-width:0.31912408pt;fill-opacity:1.0000000;"
       transform="matrix(0.586545,0.000000,0.000000,0.586545,-17.79490,-33.88357)" />
    <path
       d="M 169.69274,201.38870 C 164.83421,196.71011 158.13386,192.20440 152.37560,195.80332 C 146.61733,199.40224 142.65852,209.11931 147.33711,213.43802 C 152.01571,217.75672 166.16438,215.98550 171.20287,213.82614 C 176.24136,211.30689 174.19138,206.06729 169.69274,201.38870 z "
       id="path888"
       sodipodi:nodetypes="ccczz"
       style="fill:url(#linearGradient884);fill-opacity:1;fill-rule:evenodd;stroke-width:1.0000000pt;"
       transform="matrix(0.586545,0.000000,0.000000,0.586545,-17.79490,-33.88357)" />
    <path
       d="M 101.60775,264.40317 L 100.68895,265.61297 C 100.68895,265.61297 109.87696,268.43587 109.87696,269.64567 C 109.87696,270.85542 120.90257,280.93702 124.57777,281.54192 C 128.25298,282.14682 151.68240,290.01052 153.97940,289.80892 C 156.27641,289.60722 187.97504,293.84152 191.19084,294.84972 C 194.40664,295.85782 208.64806,293.03502 212.32326,291.01872 C 215.99846,289.00232 253.66930,277.30772 254.12870,275.29132 C 254.58810,273.27502 274.80172,270.65376 277.09872,270.85542 C 279.39572,271.05702 277.09872,250.49054 277.09872,250.49054 C 277.09872,250.49054 258.72270,250.69214 240.34669,249.48234 C 235.75268,249.17984 229.03395,248.80184 221.38206,248.43324 C 213.73017,248.06454 198.25412,254.15774 189.92749,253.89304 C 181.60086,253.62844 190.07105,258.70077 165.07679,259.31507 C 158.47744,259.53457 175.22668,249.55794 165.00501,247.86924 C 159.89418,247.12574 158.97538,248.78924 157.72639,249.83204 C 155.32889,248.85854 156.85066,247.71804 150.76360,247.86924 C 144.90625,248.02044 132.84698,257.95094 135.60339,261.37867 C 132.84698,262.18517 125.72627,251.90194 115.61946,252.30514 C 107.80965,252.91004 115.84917,261.78187 105.51265,261.98357 C 102.29685,262.18517 101.60775,264.40317 101.60775,264.40317 z "
       id="path889"
       sodipodi:nodetypes="cccccccccccssszczczcc"
       style="fill:url(#linearGradient890);fill-rule:evenodd;stroke-width:0.31912408pt;"
       transform="matrix(0.586545,0.000000,0.000000,0.586545,-17.79490,-33.88357)" />
  </g>
  <path
     style="font-size:12px;stroke-width:1pt;font-family:helvetica"
     d="M -1.0242207,197.00785 L -1.0242207,188.418 L 0.1124981,188.418 L 0.1124981,197.00785 L -1.0242207,197.00785 z M 1.9523419,197.00785 L 1.9523419,188.418 L 3.0070294,188.418 L 3.0070294,197.00785 L 1.9523419,197.00785 z M 4.6242169,197.00785 L 4.6242169,188.418 L 5.6789044,188.418 L 5.6789044,197.00785 L 4.6242169,197.00785 z M 7.3253888,189.63089 L 7.3253888,188.418 L 8.3800763,188.418 L 8.3800763,189.63089 L 7.3253888,189.63089 z M 7.3253888,197.00785 L 7.3253888,190.78519 L 8.3800763,190.78519 L 8.3800763,197.00785 L 7.3253888,197.00785 z M 9.5695291,195.15042 L 10.612498,194.98636 C 10.67109,195.40433 10.834176,195.72464 11.101756,195.9473 C 11.369332,196.16996 11.743355,196.28128 12.223826,196.28128 C 12.708198,196.28128 13.067572,196.18265 13.301951,195.98539 C 13.536322,195.78812 13.653509,195.55668 13.653514,195.29105 C 13.653509,195.05277 13.549994,194.86527 13.342967,194.72855 C 13.198432,194.6348 12.839057,194.51566 12.264842,194.37113 C 11.491402,194.17582 10.95527,194.00687 10.656443,193.86429 C 10.357614,193.72172 10.131052,193.52445 9.9767561,193.27249 C 9.8224581,193.02055 9.7453101,192.74223 9.7453111,192.43753 C 9.7453101,192.1602 9.8087861,191.90336 9.9357401,191.66703 C 10.062692,191.4307 10.235544,191.23441 10.454295,191.07816 C 10.618356,190.95707 10.841989,190.85453 11.125193,190.77054 C 11.408394,190.68656 11.712105,190.64457 12.036326,190.64457 C 12.524604,190.64457 12.953315,190.71488 13.322459,190.8555 C 13.691595,190.99613 13.964056,191.18656 14.139842,191.42679 C 14.315618,191.66703 14.436712,191.98832 14.503123,192.39066 L 13.471873,192.53128 C 13.424994,192.21098 13.289252,191.96098 13.064646,191.78128 C 12.840033,191.6016 12.522651,191.51176 12.112498,191.51175 C 11.628121,191.51176 11.282418,191.59184 11.075389,191.75199 C 10.868356,191.91215 10.76484,192.09965 10.764842,192.31449 C 10.76484,192.45121 10.807809,192.57426 10.893748,192.68363 C 10.979684,192.79691 11.114449,192.89066 11.298045,192.96488 C 11.403511,193.00394 11.714058,193.09379 12.229686,193.23441 C 12.975776,193.43363 13.496283,193.59672 13.791209,193.72367 C 14.086126,193.85062 14.317571,194.03519 14.485545,194.27738 C 14.653508,194.51957 14.737492,194.82035 14.737498,195.17972 C 14.737492,195.53129 14.634954,195.86234 14.429881,196.17289 C 14.224798,196.48343 13.9289,196.72367 13.542186,196.89359 C 13.155463,197.06351 12.717963,197.14847 12.229686,197.14847 C 11.42109,197.14847 10.804879,196.9805 10.381053,196.64457 C 9.9572241,196.30863 9.6867161,195.81058 9.5695291,195.15042 L 9.5695291,195.15042 z M 18.294139,196.06449 L 18.446482,196.99613 C 18.149604,197.05863 17.88398,197.08988 17.649607,197.08988 C 17.266793,197.08988 16.969918,197.02933 16.758982,196.90824 C 16.548044,196.78714 16.399606,196.62796 16.31367,196.4307 C 16.227731,196.23343 16.184763,195.81839 16.184764,195.18558 L 16.184764,191.6055 L 15.411326,191.6055 L 15.411326,190.78519 L 16.184764,190.78519 L 16.184764,189.24417 L 17.233592,188.61136 L 17.233592,190.78519 L 18.294139,190.78519 L 18.294139,191.6055 L 17.233592,191.6055 L 17.233592,195.24417 C 17.23359,195.54496 17.252144,195.73832 17.289256,195.82425 C 17.326363,195.91019 17.38691,195.97855 17.470896,196.02933 C 17.554878,196.08011 17.674996,196.1055 17.831248,196.1055 C 17.948433,196.1055 18.10273,196.09183 18.294139,196.06449 L 18.294139,196.06449 z M 19.307811,197.00785 L 19.307811,190.78519 L 20.257029,190.78519 L 20.257029,191.72855 C 20.499215,191.28715 20.722847,190.99613 20.927928,190.8555 C 21.133003,190.71488 21.358589,190.64457 21.604686,190.64457 C 21.960151,190.64457 22.321479,190.75785 22.68867,190.98441 L 22.325389,191.96292 C 22.067573,191.81059 21.80976,191.73441 21.551951,191.73441 C 21.32148,191.73441 21.114449,191.80375 20.930857,191.94242 C 20.747261,192.08109 20.616402,192.27348 20.538279,192.51957 C 20.42109,192.89457 20.362496,193.30473 20.362498,193.75003 L 20.362498,197.00785 L 19.307811,197.00785 z M 27.387889,196.24027 C 26.997259,196.5723 26.621283,196.80667 26.259959,196.94339 C 25.898627,197.08011 25.510933,197.14847 25.096873,197.14847 C 24.413277,197.14847 23.887887,196.98148 23.520701,196.64749 C 23.153513,196.31351 22.969919,195.88675 22.96992,195.36722 C 22.969919,195.06254 23.039255,194.78422 23.177928,194.53226 C 23.316599,194.28031 23.498239,194.07816 23.72285,193.92582 C 23.947458,193.77347 24.200387,193.65824 24.481639,193.58011 C 24.688668,193.52543 25.001167,193.47269 25.419139,193.42191 C 26.270697,193.32035 26.89765,193.19926 27.299998,193.05863 C 27.3039,192.9141 27.305853,192.8223 27.305857,192.78324 C 27.305853,192.35355 27.206243,192.05082 27.007029,191.87503 C 26.737494,191.63676 26.337104,191.51762 25.805857,191.51761 C 25.309761,191.51762 24.94355,191.60453 24.707225,191.77835 C 24.470895,191.95219 24.29609,192.2598 24.182811,192.70121 L 23.151561,192.56058 C 23.24531,192.11918 23.399607,191.76273 23.614451,191.49124 C 23.829294,191.21977 24.13984,191.01078 24.546092,190.86429 C 24.952339,190.71781 25.423042,190.64457 25.958201,190.64457 C 26.489447,190.64457 26.921087,190.70707 27.253123,190.83207 C 27.585149,190.95707 27.82929,191.1143 27.985545,191.30374 C 28.141789,191.4932 28.251164,191.73246 28.31367,192.02152 C 28.34882,192.20121 28.366398,192.52543 28.366404,192.99417 L 28.366404,194.40042 C 28.366398,195.3809 28.388859,196.00101 28.433787,196.26078 C 28.478703,196.52054 28.56757,196.76957 28.700389,197.00785 L 27.598826,197.00785 C 27.489446,196.7891 27.419134,196.53324 27.387889,196.24027 L 27.387889,196.24027 z M 27.299998,193.8848 C 26.917181,194.04105 26.342963,194.17387 25.577342,194.28324 C 25.143745,194.34574 24.837105,194.41605 24.65742,194.49417 C 24.47773,194.5723 24.339059,194.68656 24.241404,194.83695 C 24.143746,194.98734 24.094918,195.15433 24.09492,195.33792 C 24.094918,195.61918 24.201364,195.85355 24.414256,196.04105 C 24.627144,196.22855 24.938668,196.3223 25.348826,196.3223 C 25.755073,196.3223 26.116401,196.23343 26.432811,196.0557 C 26.749213,195.87796 26.981634,195.6348 27.130076,195.32621 C 27.243353,195.08793 27.299993,194.73636 27.299998,194.27152 L 27.299998,193.8848 z M 32.309764,196.06449 L 32.462107,196.99613 C 32.165229,197.05863 31.899605,197.08988 31.665232,197.08988 C 31.282418,197.08988 30.985543,197.02933 30.774607,196.90824 C 30.563669,196.78714 30.415231,196.62796 30.329295,196.4307 C 30.243356,196.23343 30.200388,195.81839 30.200389,195.18558 L 30.200389,191.6055 L 29.426951,191.6055 L 29.426951,190.78519 L 30.200389,190.78519 L 30.200389,189.24417 L 31.249217,188.61136 L 31.249217,190.78519 L 32.309764,190.78519 L 32.309764,191.6055 L 31.249217,191.6055 L 31.249217,195.24417 C 31.249215,195.54496 31.267769,195.73832 31.304881,195.82425 C 31.341988,195.91019 31.402535,195.97855 31.486521,196.02933 C 31.570503,196.08011 31.690621,196.1055 31.846873,196.1055 C 31.964058,196.1055 32.118355,196.09183 32.309764,196.06449 L 32.309764,196.06449 z M 33.341014,189.63089 L 33.341014,188.418 L 34.395701,188.418 L 34.395701,189.63089 L 33.341014,189.63089 z M 33.341014,197.00785 L 33.341014,190.78519 L 34.395701,190.78519 L 34.395701,197.00785 L 33.341014,197.00785 z M 35.614451,193.89652 C 35.614451,192.74418 35.934763,191.89066 36.575389,191.33597 C 37.110543,190.87504 37.762886,190.64457 38.53242,190.64457 C 39.387884,190.64457 40.087103,190.92484 40.630076,191.48539 C 41.173039,192.04594 41.444523,192.82035 41.444529,193.80863 C 41.444523,194.60941 41.324406,195.23929 41.084178,195.69828 C 40.843938,196.15726 40.494329,196.51371 40.03535,196.76761 C 39.576361,197.02152 39.075385,197.14847 38.53242,197.14847 C 37.661324,197.14847 36.957223,196.86917 36.420115,196.31058 C 35.883005,195.75199 35.614451,194.9473 35.614451,193.89652 L 35.614451,193.89652 z M 36.698436,193.89652 C 36.698434,194.6934 36.872262,195.29007 37.21992,195.68656 C 37.567574,196.08304 38.005073,196.28128 38.53242,196.28128 C 39.055854,196.28128 39.4914,196.08207 39.839061,195.68363 C 40.186712,195.28519 40.36054,194.67777 40.360545,193.86136 C 40.36054,193.09183 40.185735,192.50883 39.836131,192.11234 C 39.486517,191.71586 39.051947,191.51762 38.53242,191.51761 C 38.005073,191.51762 37.567574,191.71488 37.21992,192.10941 C 36.872262,192.50394 36.698434,193.09965 36.698436,193.89652 L 36.698436,193.89652 z M 42.686717,197.00785 L 42.686717,190.78519 L 43.635936,190.78519 L 43.635936,191.66996 C 44.092965,190.98637 44.75312,190.64457 45.616404,190.64457 C 45.9914,190.64457 46.336126,190.71195 46.650584,190.84671 C 46.965032,190.98149 47.200383,191.15824 47.356639,191.37699 C 47.512883,191.59574 47.622258,191.85551 47.684764,192.15628 C 47.72382,192.3516 47.743352,192.6934 47.743357,193.18167 L 47.743357,197.00785 L 46.68867,197.00785 L 46.68867,193.22269 C 46.688665,192.79301 46.64765,192.47172 46.565623,192.25882 C 46.483587,192.04594 46.33808,191.87602 46.1291,191.74906 C 45.920111,191.62211 45.674994,191.55863 45.393748,191.55863 C 44.944526,191.55863 44.556831,191.70121 44.230662,191.98636 C 43.904488,192.27152 43.741402,192.81254 43.741404,193.60941 L 43.741404,197.00785 L 42.686717,197.00785 z"
     id="text1232" />
  <path
     style="font-size:12px;stroke-width:1pt;font-family:helvetica"
     d="M 4.2376982,201.58238 L 4.5181597,201.65322 C 4.4593669,201.88357 4.3535915,202.05922 4.2008334,202.18017 C 4.0480719,202.30113 3.8613387,202.3616 3.6406335,202.3616 C 3.4122155,202.3616 3.226446,202.3151 3.0833245,202.2221 C 2.9402022,202.12909 2.8312945,201.9944 2.7566015,201.81803 C 2.681908,201.64166 2.6445614,201.45227 2.6445614,201.24988 C 2.6445614,201.02917 2.6867268,200.83666 2.7710581,200.67233 C 2.8553891,200.50801 2.9753803,200.3832 3.131032,200.2979 C 3.2866825,200.21261 3.457995,200.16996 3.6449705,200.16996 C 3.8570017,200.16996 4.0353019,200.22393 4.179871,200.33187 C 4.324437,200.43982 4.4251525,200.59161 4.4820178,200.78726 L 4.2058933,200.85232 C 4.1567387,200.69811 4.0854185,200.58583 3.9919331,200.51547 C 3.8984445,200.44512 3.7808629,200.40994 3.6391876,200.40994 C 3.476307,200.40994 3.3401726,200.44898 3.2307838,200.52704 C 3.1213935,200.60511 3.0445318,200.70992 3.000198,200.84147 C 2.9558635,200.97303 2.9336964,201.10868 2.9336969,201.24843 C 2.9336964,201.42866 2.9599597,201.586 3.0124864,201.72045 C 3.065012,201.85489 3.1466929,201.95537 3.2575287,202.02187 C 3.3683631,202.08837 3.4883543,202.12162 3.6175026,202.12162 C 3.7745982,202.12162 3.9076004,202.07632 4.0165096,201.98573 C 4.1254157,201.89513 4.199145,201.76069 4.2376982,201.58238 L 4.2376982,201.58238 z M 4.8289805,202.32546 L 4.8289805,200.79015 L 5.0631804,200.79015 L 5.0631804,201.02291 C 5.1229344,200.914 5.1781112,200.8422 5.2287103,200.8075 C 5.2793083,200.77281 5.3349669,200.75546 5.3956862,200.75546 C 5.4833897,200.75546 5.5725398,200.78341 5.6631365,200.83931 L 5.5735045,201.08074 C 5.5098938,201.04315 5.4462841,201.02435 5.3826749,201.02435 C 5.325811,201.02435 5.2747305,201.04146 5.2294333,201.07568 C 5.1841348,201.10989 5.1518478,201.15736 5.1325729,201.21807 C 5.1036587,201.3106 5.0892019,201.4118 5.0892024,201.52166 L 5.0892024,202.32546 L 4.8289805,202.32546 z M 6.8717232,201.83104 L 7.140619,201.86429 C 7.098211,202.02139 7.0196626,202.14331 6.9049736,202.23005 C 6.7902821,202.31679 6.6437868,202.36016 6.4654876,202.36016 C 6.2409252,202.36016 6.0628661,202.29101 5.9313097,202.1527 C 5.7997528,202.0144 5.7339746,201.82044 5.7339748,201.57082 C 5.7339746,201.31252 5.8004757,201.11206 5.9334782,200.96942 C 6.0664801,200.82678 6.2389975,200.75546 6.451031,200.75546 C 6.6563162,200.75546 6.8240144,200.82533 6.9541267,200.96508 C 7.0842363,201.10483 7.1492916,201.30144 7.1492933,201.55492 C 7.1492916,201.57034 7.1488097,201.59347 7.1478475,201.62431 L 6.0028707,201.62431 C 6.0125082,201.79297 6.0602155,201.92212 6.1459928,202.01175 C 6.2317691,202.10138 6.3387491,202.1462 6.4669334,202.1462 C 6.5623472,202.1462 6.6437868,202.12114 6.7112528,202.07102 C 6.7787167,202.02091 6.8322066,201.94091 6.8717232,201.83104 L 6.8717232,201.83104 z M 6.0173275,201.41035 L 6.8746143,201.41035 C 6.8630477,201.2812 6.8302791,201.18434 6.7763084,201.11977 C 6.6934217,201.01953 6.5859599,200.96942 6.4539222,200.96942 C 6.3344121,200.96942 6.2339376,201.00942 6.1524985,201.08941 C 6.0710582,201.1694 6.0260013,201.27638 6.0173275,201.41035 L 6.0173275,201.41035 z M 8.4706426,202.13608 C 8.3742631,202.218 8.2814989,202.27583 8.1923498,202.30956 C 8.1031987,202.34329 8.0075431,202.36016 7.9053827,202.36016 C 7.7367198,202.36016 7.6070908,202.31896 7.5164954,202.23655 C 7.4258995,202.15415 7.3806015,202.04886 7.3806017,201.92067 C 7.3806015,201.8455 7.3977087,201.77683 7.4319231,201.71466 C 7.4661375,201.6525 7.5109534,201.60262 7.5663712,201.56504 C 7.6217885,201.52745 7.6841936,201.49902 7.7535864,201.47974 C 7.8046665,201.46625 7.8817693,201.45324 7.9848948,201.44071 C 8.1949991,201.41565 8.3496866,201.38577 8.4489575,201.35108 C 8.44992,201.31542 8.4504019,201.29277 8.4504031,201.28313 C 8.4504019,201.17711 8.4258255,201.10242 8.3766736,201.05905 C 8.3101715,201.00026 8.2113834,200.97086 8.0803096,200.97086 C 7.9579084,200.97086 7.8675535,200.99231 7.809245,201.03519 C 7.7509355,201.07809 7.7078063,201.15398 7.6798569,201.26289 L 7.4254176,201.22819 C 7.4485484,201.11929 7.4866177,201.03134 7.5396262,200.96436 C 7.592634,200.89738 7.6692549,200.84581 7.7694891,200.80967 C 7.869722,200.77353 7.9858581,200.75546 8.1178973,200.75546 C 8.2489711,200.75546 8.3554692,200.77088 8.4373921,200.80172 C 8.5193126,200.83256 8.579549,200.87135 8.6181019,200.9181 C 8.6566518,200.96484 8.6836378,201.02387 8.6990598,201.09519 C 8.7077324,201.13953 8.7120694,201.21952 8.7120708,201.33517 L 8.7120708,201.68214 C 8.7120694,201.92405 8.7176111,202.07705 8.7286962,202.14114 C 8.7397783,202.20523 8.7617043,202.26667 8.7944744,202.32546 L 8.5226871,202.32546 C 8.4956999,202.27149 8.4783516,202.20836 8.4706426,202.13608 L 8.4706426,202.13608 z M 8.4489575,201.55492 C 8.3545055,201.59347 8.2128293,201.62624 8.0239284,201.65322 C 7.9169474,201.66864 7.8412904,201.68599 7.7969569,201.70527 C 7.7526222,201.72454 7.7184078,201.75273 7.6943137,201.78984 C 7.6702186,201.82695 7.6581714,201.86815 7.6581719,201.91345 C 7.6581714,201.98284 7.6844344,202.04066 7.7369613,202.08693 C 7.789487,202.13319 7.8663487,202.15632 7.9675468,202.15632 C 8.0677797,202.15632 8.1569296,202.13439 8.2349971,202.09054 C 8.3130627,202.04669 8.3704079,201.98669 8.4070329,201.91055 C 8.4349813,201.85176 8.4489563,201.76502 8.4489575,201.65033 L 8.4489575,201.55492 z M 9.6850119,202.09271 L 9.7225995,202.32257 C 9.6493511,202.33799 9.5838137,202.3457 9.5259874,202.3457 C 9.4315361,202.3457 9.3582884,202.33076 9.3062444,202.30089 C 9.2541996,202.27101 9.2175759,202.23173 9.196373,202.18306 C 9.1751693,202.13439 9.1645676,202.03199 9.1645679,201.87586 L 9.1645679,200.99255 L 8.9737385,200.99255 L 8.9737385,200.79015 L 9.1645679,200.79015 L 9.1645679,200.40994 L 9.4233444,200.25381 L 9.4233444,200.79015 L 9.6850119,200.79015 L 9.6850119,200.99255 L 9.4233444,200.99255 L 9.4233444,201.89031 C 9.4233437,201.96453 9.4279217,202.01223 9.4370783,202.03344 C 9.4462337,202.05464 9.4611724,202.07151 9.4818942,202.08403 C 9.502615,202.09656 9.5322513,202.10283 9.5708035,202.10283 C 9.5997164,202.10283 9.6377857,202.09945 9.6850119,202.09271 L 9.6850119,202.09271 z M 10.989013,201.83104 L 11.257909,201.86429 C 11.215501,202.02139 11.136953,202.14331 11.022264,202.23005 C 10.907572,202.31679 10.761077,202.36016 10.582778,202.36016 C 10.358215,202.36016 10.180156,202.29101 10.0486,202.1527 C 9.917043,202.0144 9.8512648,201.82044 9.851265,201.57082 C 9.8512648,201.31252 9.9177659,201.11206 10.050768,200.96942 C 10.18377,200.82678 10.356288,200.75546 10.568321,200.75546 C 10.773606,200.75546 10.941305,200.82533 11.071417,200.96508 C 11.201526,201.10483 11.266582,201.30144 11.266583,201.55492 C 11.266582,201.57034 11.2661,201.59347 11.265138,201.62431 L 10.120161,201.62431 C 10.129798,201.79297 10.177506,201.92212 10.263283,202.01175 C 10.349059,202.10138 10.456039,202.1462 10.584224,202.1462 C 10.679637,202.1462 10.761077,202.12114 10.828543,202.07102 C 10.896007,202.02091 10.949497,201.94091 10.989013,201.83104 L 10.989013,201.83104 z M 10.134618,201.41035 L 10.991905,201.41035 C 10.980338,201.2812 10.947569,201.18434 10.893599,201.11977 C 10.810712,201.01953 10.70325,200.96942 10.571212,200.96942 C 10.451702,200.96942 10.351228,201.00942 10.269789,201.08941 C 10.188348,201.1694 10.143291,201.27638 10.134618,201.41035 L 10.134618,201.41035 z M 12.58215,202.32546 L 12.58215,202.13174 C 12.484807,202.28402 12.341685,202.36016 12.152784,202.36016 C 12.030382,202.36016 11.917861,202.32643 11.815218,202.25896 C 11.712575,202.1915 11.633062,202.09729 11.576681,201.97633 C 11.5203,201.85538 11.492109,201.71635 11.492109,201.55925 C 11.492109,201.40601 11.517649,201.26699 11.56873,201.14218 C 11.61981,201.01737 11.696431,200.92171 11.798593,200.85521 C 11.900753,200.78871 12.014962,200.75546 12.141219,200.75546 C 12.233741,200.75546 12.316144,200.77497 12.388429,200.81401 C 12.460712,200.85304 12.519503,200.90388 12.564802,200.96652 L 12.564802,200.2061 L 12.823578,200.2061 L 12.823578,202.32546 L 12.58215,202.32546 z M 11.75956,201.55925 C 11.759559,201.75587 11.801002,201.90284 11.883888,202.00019 C 11.966773,202.09753 12.064597,202.1462 12.17736,202.1462 C 12.291086,202.1462 12.387706,202.0997 12.467219,202.00669 C 12.54673,201.91369 12.586486,201.77177 12.586487,201.58094 C 12.586486,201.37083 12.546007,201.21663 12.46505,201.11832 C 12.384091,201.02002 12.28434,200.97086 12.165795,200.97086 C 12.05014,200.97086 11.953521,201.01809 11.875937,201.11254 C 11.798351,201.20699 11.759559,201.3559 11.75956,201.55925 L 11.75956,201.55925 z M 14.295278,202.32546 L 14.05385,202.32546 L 14.05385,200.2061 L 14.314072,200.2061 L 14.314072,200.96219 C 14.423943,200.82437 14.564174,200.75546 14.734764,200.75546 C 14.829214,200.75546 14.918605,200.77449 15.002937,200.81256 C 15.087267,200.85063 15.15666,200.90412 15.211115,200.97303 C 15.265568,201.04194 15.308215,201.12507 15.339058,201.22241 C 15.369897,201.31975 15.385318,201.42384 15.385319,201.53468 C 15.385318,201.79779 15.320262,202.00115 15.190153,202.14475 C 15.060041,202.28836 14.903908,202.36016 14.721753,202.36016 C 14.540561,202.36016 14.398403,202.2845 14.295278,202.13319 L 14.295278,202.32546 z M 14.292387,201.54624 C 14.292387,201.73033 14.317445,201.86333 14.367562,201.94525 C 14.449483,202.07922 14.560318,202.1462 14.700068,202.1462 C 14.813794,202.1462 14.9121,202.0968 14.994986,201.99802 C 15.07787,201.89923 15.119313,201.75201 15.119315,201.55636 C 15.119313,201.3559 15.079557,201.20795 15.000046,201.11254 C 14.920533,201.01713 14.824395,200.96942 14.711633,200.96942 C 14.597906,200.96942 14.4996,201.01881 14.416715,201.1176 C 14.333829,201.21639 14.292387,201.35927 14.292387,201.54624 L 14.292387,201.54624 z M 15.691803,202.91674 L 15.662889,202.67243 C 15.719753,202.68785 15.769387,202.69556 15.811794,202.69556 C 15.869621,202.69556 15.915883,202.68592 15.950579,202.66664 C 15.985275,202.64737 16.013707,202.62038 16.035874,202.58568 C 16.052258,202.55966 16.078762,202.49509 16.115386,202.39196 C 16.120205,202.37751 16.127915,202.3563 16.138517,202.32836 L 15.555909,200.79015 L 15.836371,200.79015 L 16.155866,201.67925 C 16.197308,201.79201 16.234413,201.91055 16.267183,202.03488 C 16.297059,201.91537 16.332719,201.79875 16.374163,201.68503 L 16.702332,200.79015 L 16.962554,200.79015 L 16.3785,202.35149 C 16.315853,202.52015 16.267182,202.63628 16.232486,202.69989 C 16.186224,202.78567 16.133216,202.84856 16.073462,202.88855 C 16.013707,202.92855 15.942387,202.94855 15.859502,202.94855 C 15.809384,202.94855 15.753485,202.93795 15.691803,202.91674 L 15.691803,202.91674 z M 17.805384,202.32546 L 18.6193,200.2061 L 18.921447,200.2061 L 19.788854,202.32546 L 19.469359,202.32546 L 19.222148,201.68358 L 18.335947,201.68358 L 18.103193,202.32546 L 17.805384,202.32546 z M 18.416905,201.45516 L 19.135407,201.45516 L 18.914219,200.86822 C 18.846753,200.68992 18.796636,200.54343 18.763868,200.42873 C 18.736881,200.56463 18.698812,200.69956 18.64966,200.83352 L 18.416905,201.45516 z M 19.982575,202.32546 L 19.982575,200.79015 L 20.216774,200.79015 L 20.216774,201.00845 C 20.329536,200.83979 20.492416,200.75546 20.705413,200.75546 C 20.797936,200.75546 20.88299,200.77208 20.960576,200.80533 C 21.038159,200.83859 21.096227,200.8822 21.13478,200.93617 C 21.17333,200.99014 21.200316,201.05423 21.215737,201.12844 C 21.225374,201.17663 21.230193,201.26096 21.230194,201.38144 L 21.230194,202.32546 L 20.969972,202.32546 L 20.969972,201.39155 C 20.969971,201.28554 20.959851,201.20627 20.939613,201.15374 C 20.919373,201.10122 20.883471,201.05929 20.83191,201.02797 C 20.780347,200.99665 20.719869,200.98098 20.650478,200.98098 C 20.539642,200.98098 20.443986,201.01616 20.363511,201.08652 C 20.283034,201.15687 20.242796,201.29036 20.242796,201.48697 L 20.242796,202.32546 L 19.982575,202.32546 z M 22.626719,202.32546 L 22.626719,202.13174 C 22.529376,202.28402 22.386254,202.36016 22.197353,202.36016 C 22.074951,202.36016 21.962429,202.32643 21.859787,202.25896 C 21.757144,202.1915 21.677631,202.09729 21.62125,201.97633 C 21.564869,201.85538 21.536678,201.71635 21.536678,201.55925 C 21.536678,201.40601 21.562218,201.26699 21.613299,201.14218 C 21.664379,201.01737 21.741,200.92171 21.843162,200.85521 C 21.945323,200.78871 22.059531,200.75546 22.185787,200.75546 C 22.27831,200.75546 22.360713,200.77497 22.432998,200.81401 C 22.505281,200.85304 22.564072,200.90388 22.609371,200.96652 L 22.609371,200.2061 L 22.868147,200.2061 L 22.868147,202.32546 L 22.626719,202.32546 z M 21.804128,201.55925 C 21.804128,201.75587 21.845571,201.90284 21.928457,202.00019 C 22.011342,202.09753 22.109166,202.1462 22.221929,202.1462 C 22.335655,202.1462 22.432274,202.0997 22.511788,202.00669 C 22.591299,201.91369 22.631055,201.77177 22.631056,201.58094 C 22.631055,201.37083 22.590576,201.21663 22.509619,201.11832 C 22.42866,201.02002 22.328909,200.97086 22.210364,200.97086 C 22.094709,200.97086 21.99809,201.01809 21.920506,201.11254 C 21.84292,201.20699 21.804128,201.3559 21.804128,201.55925 L 21.804128,201.55925 z M 23.275828,202.32546 L 23.275828,200.79015 L 23.510028,200.79015 L 23.510028,201.02291 C 23.569782,200.914 23.624959,200.8422 23.675558,200.8075 C 23.726156,200.77281 23.781815,200.75546 23.842534,200.75546 C 23.930238,200.75546 24.019388,200.78341 24.109983,200.83931 L 24.020352,201.08074 C 23.956742,201.04315 23.893132,201.02435 23.829523,201.02435 C 23.772659,201.02435 23.721578,201.04146 23.676281,201.07568 C 23.630983,201.10989 23.598696,201.15736 23.579421,201.21807 C 23.550507,201.3106 23.53605,201.4118 23.53605,201.52166 L 23.53605,202.32546 L 23.275828,202.32546 z M 25.318571,201.83104 L 25.587468,201.86429 C 25.545058,202.02139 25.466512,202.14331 25.351822,202.23005 C 25.23713,202.31679 25.090635,202.36016 24.912336,202.36016 C 24.687773,202.36016 24.509714,202.29101 24.378158,202.1527 C 24.2466,202.0144 24.180822,201.82044 24.180822,201.57082 C 24.180822,201.31252 24.247323,201.11206 24.380327,200.96942 C 24.513329,200.82678 24.685846,200.75546 24.897878,200.75546 C 25.103164,200.75546 25.270863,200.82533 25.400976,200.96508 C 25.531083,201.10483 25.596141,201.30144 25.596141,201.55492 C 25.596141,201.57034 25.595657,201.59347 25.594695,201.62431 L 24.449719,201.62431 C 24.459357,201.79297 24.507064,201.92212 24.592842,202.01175 C 24.678617,202.10138 24.785596,202.1462 24.913782,202.1462 C 25.009195,202.1462 25.090635,202.12114 25.1581,202.07102 C 25.225564,202.02091 25.279054,201.94091 25.318571,201.83104 L 25.318571,201.83104 z M 24.464175,201.41035 L 25.321462,201.41035 C 25.309896,201.2812 25.277127,201.18434 25.223156,201.11977 C 25.140269,201.01953 25.032807,200.96942 24.90077,200.96942 C 24.781259,200.96942 24.680786,201.00942 24.599346,201.08941 C 24.517905,201.1694 24.47285,201.27638 24.464175,201.41035 L 24.464175,201.41035 z M 26.198988,202.32546 L 25.729142,200.79015 L 25.99804,200.79015 L 26.242358,201.67635 L 26.333436,202.00597 C 26.337292,201.98958 26.363796,201.88405 26.412949,201.68936 L 26.657268,200.79015 L 26.92472,200.79015 L 27.154582,201.68069 L 27.231201,201.97416 L 27.31939,201.6778 L 27.582502,200.79015 L 27.835495,200.79015 L 27.355531,202.32546 L 27.08519,202.32546 L 26.840869,201.40601 L 26.781597,201.14434 L 26.470775,202.32546 L 26.198988,202.32546 z M 28.924091,202.32546 L 28.924091,200.2061 L 30.353865,200.2061 L 30.353865,200.4562 L 29.204552,200.4562 L 29.204552,201.11254 L 30.199179,201.11254 L 30.199179,201.36264 L 29.204552,201.36264 L 29.204552,202.32546 L 28.924091,202.32546 z M 30.687818,200.50535 L 30.687818,200.2061 L 30.948041,200.2061 L 30.948041,200.50535 L 30.687818,200.50535 z M 30.687818,202.32546 L 30.687818,200.79015 L 30.948041,200.79015 L 30.948041,202.32546 L 30.687818,202.32546 z M 31.913753,202.09271 L 31.951339,202.32257 C 31.878093,202.33799 31.812554,202.3457 31.754728,202.3457 C 31.660276,202.3457 31.587029,202.33076 31.534984,202.30089 C 31.482942,202.27101 31.446317,202.23173 31.425113,202.18306 C 31.403909,202.13439 31.393307,202.03199 31.39331,201.87586 L 31.39331,200.99255 L 31.20248,200.99255 L 31.20248,200.79015 L 31.39331,200.79015 L 31.39331,200.40994 L 31.652084,200.25381 L 31.652084,200.79015 L 31.913753,200.79015 L 31.913753,200.99255 L 31.652084,200.99255 L 31.652084,201.89031 C 31.652084,201.96453 31.656664,202.01223 31.66582,202.03344 C 31.674973,202.05464 31.689913,202.07151 31.710636,202.08403 C 31.731356,202.09656 31.760993,202.10283 31.799544,202.10283 C 31.828456,202.10283 31.866526,202.09945 31.913753,202.09271 L 31.913753,202.09271 z M 32.029407,202.32546 L 32.029407,202.11439 L 33.006686,200.99255 C 32.89585,200.99833 32.798025,201.00122 32.713211,201.00122 L 32.087235,201.00122 L 32.087235,200.79015 L 33.342082,200.79015 L 33.342082,200.96219 L 32.510817,201.93658 L 32.350347,202.11439 C 32.466966,202.10572 32.576353,202.10138 32.678516,202.10138 L 33.388343,202.10138 L 33.388343,202.32546 L 32.029407,202.32546 z M 33.543033,201.86718 L 33.800361,201.8267 C 33.814819,201.92983 33.855056,202.00886 33.921076,202.0638 C 33.987095,202.11873 34.079377,202.1462 34.197923,202.1462 C 34.317431,202.1462 34.4061,202.12186 34.463929,202.07319 C 34.521755,202.02452 34.550669,201.96742 34.550669,201.90188 C 34.550669,201.84309 34.525128,201.79683 34.474047,201.76309 C 34.438387,201.73996 34.349718,201.71057 34.208044,201.67491 C 34.017214,201.62672 33.884935,201.58503 33.811205,201.54986 C 33.737475,201.51468 33.681576,201.46601 33.643506,201.40384 C 33.605438,201.34168 33.586403,201.27301 33.586403,201.19783 C 33.586403,201.12941 33.602062,201.06604 33.633387,201.00773 C 33.664709,200.94942 33.707357,200.90099 33.761329,200.86244 C 33.801807,200.83256 33.856985,200.80726 33.926859,200.78654 C 33.996733,200.76582 34.071667,200.75546 34.151661,200.75546 C 34.272134,200.75546 34.377909,200.77281 34.468989,200.8075 C 34.560064,200.8422 34.627288,200.88918 34.670661,200.94845 C 34.714028,201.00773 34.743907,201.087 34.760292,201.18627 L 34.505853,201.22096 C 34.494286,201.14194 34.460795,201.08025 34.405378,201.03592 C 34.34996,200.99158 34.271653,200.96942 34.170455,200.96942 C 34.050946,200.96942 33.96565,200.98918 33.914572,201.02869 C 33.863489,201.06821 33.83795,201.11447 33.83795,201.16748 C 33.83795,201.20121 33.848552,201.23157 33.869754,201.25855 C 33.890957,201.2865 33.924209,201.30963 33.969506,201.32795 C 33.995529,201.33758 34.072148,201.35975 34.199369,201.39445 C 34.383451,201.4436 34.511876,201.48384 34.584643,201.51516 C 34.657406,201.54648 34.714512,201.59202 34.755955,201.65178 C 34.797395,201.71153 34.818118,201.78574 34.818118,201.87441 C 34.818118,201.96115 34.792819,202.04283 34.742222,202.11945 C 34.69162,202.19607 34.618616,202.25535 34.523201,202.29727 C 34.427786,202.3392 34.319842,202.36016 34.199369,202.36016 C 33.999866,202.36016 33.847829,202.31872 33.743258,202.23583 C 33.638687,202.15295 33.571944,202.03006 33.543033,201.86718 L 33.543033,201.86718 z M 35.12894,200.50535 L 35.12894,200.2061 L 35.389163,200.2061 L 35.389163,200.50535 L 35.12894,200.50535 z M 35.12894,202.32546 L 35.12894,200.79015 L 35.389163,200.79015 L 35.389163,202.32546 L 35.12894,202.32546 z M 35.786724,202.32546 L 35.786724,200.79015 L 36.019479,200.79015 L 36.019479,201.00556 C 36.067667,200.93039 36.131758,200.86991 36.211752,200.82413 C 36.291747,200.77835 36.382824,200.75546 36.484985,200.75546 C 36.598712,200.75546 36.691958,200.77907 36.764724,200.8263 C 36.837489,200.87352 36.888811,200.93954 36.91869,201.02435 C 37.040125,200.84509 37.198185,200.75546 37.392871,200.75546 C 37.545147,200.75546 37.662247,200.79762 37.744171,200.88195 C 37.82609,200.96629 37.867052,201.09616 37.867055,201.27156 L 37.867055,202.32546 L 37.608278,202.32546 L 37.608278,201.35831 C 37.608275,201.25422 37.599842,201.17928 37.582978,201.1335 C 37.566109,201.08772 37.53551,201.05086 37.491178,201.02291 C 37.446841,200.99496 37.394798,200.98098 37.335045,200.98098 C 37.227099,200.98098 37.137467,201.01688 37.066148,201.08869 C 36.994826,201.16049 36.959166,201.27542 36.959168,201.43348 L 36.959168,202.32546 L 36.698946,202.32546 L 36.698946,201.32795 C 36.698946,201.21229 36.677742,201.12555 36.635336,201.06772 C 36.592929,201.0099 36.523536,200.98098 36.427159,200.98098 C 36.35391,200.98098 36.286205,201.00026 36.224042,201.03881 C 36.161876,201.07736 36.116818,201.13374 36.088871,201.20795 C 36.060919,201.28217 36.046945,201.38915 36.046945,201.52889 L 36.046945,202.32546 L 35.786724,202.32546 z M 38.159081,201.55781 C 38.159081,201.27349 38.23811,201.0629 38.396172,200.92605 C 38.528209,200.81232 38.689163,200.75546 38.879028,200.75546 C 39.090095,200.75546 39.262613,200.82461 39.396582,200.96291 C 39.530546,201.10122 39.597528,201.29229 39.59753,201.53612 C 39.597528,201.7337 39.567893,201.88911 39.508622,202.00235 C 39.449347,202.1156 39.363088,202.20354 39.249845,202.26619 C 39.136599,202.32884 39.012992,202.36016 38.879028,202.36016 C 38.664103,202.36016 38.490381,202.29125 38.35786,202.15343 C 38.22534,202.01561 38.159081,201.81707 38.159081,201.55781 L 38.159081,201.55781 z M 38.42653,201.55781 C 38.42653,201.75442 38.469419,201.90164 38.555197,201.99946 C 38.640972,202.09729 38.748916,202.1462 38.879028,202.1462 C 39.008174,202.1462 39.115637,202.09705 39.201414,201.99874 C 39.28719,201.90043 39.330079,201.75057 39.330079,201.54913 C 39.330079,201.35927 39.286948,201.21542 39.200691,201.1176 C 39.114432,201.01978 39.007211,200.97086 38.879028,200.97086 C 38.748916,200.97086 38.640972,201.01953 38.555197,201.11688 C 38.469419,201.21422 38.42653,201.3612 38.42653,201.55781 L 38.42653,201.55781 z M 39.904015,202.32546 L 39.904015,200.79015 L 40.138212,200.79015 L 40.138212,201.00845 C 40.250975,200.83979 40.413855,200.75546 40.626852,200.75546 C 40.719375,200.75546 40.80443,200.77208 40.882014,200.80533 C 40.959598,200.83859 41.017665,200.8822 41.056219,200.93617 C 41.094768,200.99014 41.121755,201.05423 41.137176,201.12844 C 41.146813,201.17663 41.151632,201.26096 41.151634,201.38144 L 41.151634,202.32546 L 40.891412,202.32546 L 40.891412,201.39155 C 40.891409,201.28554 40.881291,201.20627 40.861052,201.15374 C 40.840813,201.10122 40.804911,201.05929 40.75335,201.02797 C 40.701786,200.99665 40.641307,200.98098 40.571917,200.98098 C 40.461082,200.98098 40.365425,201.01616 40.284949,201.08652 C 40.204474,201.15687 40.164235,201.29036 40.164235,201.48697 L 40.164235,202.32546 L 39.904015,202.32546 z"
     id="text1235" />
  <path
     d="M 73.137065,72.290514 C 75.886579,69.815952 149.57354,9.6016001 151.77315,9.3266491 C 153.97276,9.0516971 153.14791,10.976358 151.77315,11.801212 C 150.39840,12.626066 77.811238,76.414784 76.161530,76.139833 C 74.511821,75.864881 72.037259,73.665270 73.137065,72.290514 z "
     id="path1745"
     sodipodi:nodetypes="ccccc"
     style="fill:url(#linearGradient1579);fill-opacity:1;fill-rule:evenodd;stroke-width:1.0000000pt;" />
</svg>
