<?xml version="1.0" encoding="UTF-8" standalone="no"?>
<!-- Created with Inkscape (http://www.inkscape.org/) -->

<svg
   xmlns:dc="http://purl.org/dc/elements/1.1/"
   xmlns:cc="http://creativecommons.org/ns#"
   xmlns:rdf="http://www.w3.org/1999/02/22-rdf-syntax-ns#"
   xmlns:svg="http://www.w3.org/2000/svg"
   xmlns="http://www.w3.org/2000/svg"
   xmlns:xlink="http://www.w3.org/1999/xlink"
   xmlns:sodipodi="http://sodipodi.sourceforge.net/DTD/sodipodi-0.dtd"
   xmlns:inkscape="http://www.inkscape.org/namespaces/inkscape"
   height="682.61395"
   id="svg12263"
   inkscape:export-filename="C:\joanna\Gfx\drawings_vector\admin\thumbs\ezechiele\francobollo_gnome.png"
   inkscape:export-xdpi="25.690908"
   inkscape:export-ydpi="25.690908"
   inkscape:version="0.48.1 r9760"
   sodipodi:docname="Anonymous_Francobollo_gnome.svg"
   sodipodi:version="0.32"
   width="527.07861"
   inkscape:output_extension="org.inkscape.output.svg.inkscape"
   version="1.0">
  <metadata
     id="metadata3">
    <rdf:RDF>
      <cc:Work
         rdf:about="">
        <dc:title>francobollo_gnome</dc:title>
        <dc:description>Create with the Inkscape</dc:description>
        <dc:subject>
          <rdf:Bag>
            <rdf:li>logos</rdf:li>
          </rdf:Bag>
        </dc:subject>
        <dc:publisher>
          <cc:Agent
             rdf:about="http://www.openclipart.org/">
            <dc:title>Open Clip Library</dc:title>
          </cc:Agent>
        </dc:publisher>
        <dc:creator>
          <cc:Agent>
            <dc:title>ezechiele</dc:title>
          </cc:Agent>
        </dc:creator>
        <dc:rights>
          <cc:Agent>
            <dc:title>ezechiele</dc:title>
          </cc:Agent>
        </dc:rights>
        <dc:date>17 09 2005</dc:date>
        <dc:format>image/svg+xml</dc:format>
        <dc:type
           rdf:resource="http://purl.org/dc/dcmitype/StillImage" />
        <cc:license
           rdf:resource="http://web.resource.org/cc/PublicDomain" />
        <dc:language>it</dc:language>
      </cc:Work>
      <cc:License
         rdf:about="http://web.resource.org/cc/PublicDomain">
        <cc:permits
           rdf:resource="http://web.resource.org/cc/Reproduction" />
        <cc:permits
           rdf:resource="http://web.resource.org/cc/Distribution" />
        <cc:permits
           rdf:resource="http://web.resource.org/cc/DerivativeWorks" />
      </cc:License>
    </rdf:RDF>
  </metadata>
  <defs
     id="defs12265">
    <inkscape:perspective
       sodipodi:type="inkscape:persp3d"
       inkscape:vp_x="0 : 526.18109 : 1"
       inkscape:vp_y="0 : 1000 : 0"
       inkscape:vp_z="744.09448 : 526.18109 : 1"
       inkscape:persp3d-origin="372.04724 : 350.78739 : 1"
       id="perspective131" />
    <linearGradient
       id="linearGradient3532">
      <stop
         id="stop3534"
         offset="0.0000000"
         style="stop-color:#000000;stop-opacity:0.70238096;" />
      <stop
         id="stop3536"
         offset="1.0000000"
         style="stop-color:#000000;stop-opacity:0.0000000;" />
    </linearGradient>
    <linearGradient
       id="linearGradient4419">
      <stop
         id="stop4421"
         offset="0"
         style="stop-color:#ffffff;stop-opacity:1;" />
      <stop
         id="stop4423"
         offset="0.0000000"
         style="stop-color:#ffffff;stop-opacity:0.65098039;" />
      <stop
         id="stop4425"
         offset="0.0000000"
         style="stop-color:#137676;stop-opacity:0.11904762;" />
    </linearGradient>
    <linearGradient
       id="linearGradient2180">
      <stop
         id="stop2182"
         offset="0.0000000"
         style="stop-color:#fbffff;stop-opacity:1.0000000;" />
      <stop
         id="stop2184"
         offset="1.0000000"
         style="stop-color:#ffffff;stop-opacity:0.0000000;" />
    </linearGradient>
    <linearGradient
       id="linearGradient2150">
      <stop
         id="stop2152"
         offset="0.0000000"
         style="stop-color:#ff0000;stop-opacity:1.0000000;" />
      <stop
         id="stop2154"
         offset="1.0000000"
         style="stop-color:#fcff30;stop-opacity:0.27380952;" />
    </linearGradient>
    <linearGradient
       id="linearGradient2130">
      <stop
         id="stop2132"
         offset="0.0000000"
         style="stop-color:#ffff00;stop-opacity:1.0000000;" />
      <stop
         id="stop2134"
         offset="1.0000000"
         style="stop-color:#ff2d00;stop-opacity:0.36862746;" />
    </linearGradient>
    <linearGradient
       id="linearGradient2112">
      <stop
         id="stop2114"
         offset="0.0000000"
         style="stop-color:#ff3500;stop-opacity:1.0000000;" />
      <stop
         id="stop2116"
         offset="1.0000000"
         style="stop-color:#ffff00;stop-opacity:0.36904761;" />
    </linearGradient>
    <linearGradient
       id="linearGradient2088">
      <stop
         id="stop2090"
         offset="0.0000000"
         style="stop-color:#fb0000;stop-opacity:1.0000000;" />
      <stop
         id="stop2092"
         offset="1.0000000"
         style="stop-color:#ff8f00;stop-opacity:0.015686275;" />
    </linearGradient>
    <linearGradient
       id="linearGradient2478">
      <stop
         id="stop2480"
         offset="0"
         style="stop-color:#ffffff;stop-opacity:0.52592593" />
      <stop
         id="stop2482"
         offset="0.50000000"
         style="stop-color:#ffffff;stop-opacity:0.53725493;" />
      <stop
         id="stop2484"
         offset="1.0000000"
         style="stop-color:#767676;stop-opacity:0.074509807;" />
    </linearGradient>
    <linearGradient
       id="linearGradient2486">
      <stop
         id="stop2488"
         offset="0.0000000"
         style="stop-color:#fbffff;stop-opacity:1.0000000;" />
      <stop
         id="stop2490"
         offset="1.0000000"
         style="stop-color:#ffffff;stop-opacity:0.0000000;" />
    </linearGradient>
    <linearGradient
       id="linearGradient11879"
       inkscape:collect="always">
      <stop
         id="stop11881"
         offset="0"
         style="stop-color:#adadad;stop-opacity:1;" />
      <stop
         id="stop11883"
         offset="1"
         style="stop-color:none" />
    </linearGradient>
    <marker
       id="ArrowStart"
       markerHeight="3"
       markerUnits="strokeWidth"
       markerWidth="4"
       orient="auto"
       refX="10"
       refY="5"
       viewBox="0 0 10 10">
      <path
         d="M 10,0 0,5 10,10 10,0 z"
         id="path15808"
         inkscape:connector-curvature="0" />
    </marker>
    <marker
       id="ArrowEnd"
       markerHeight="3"
       markerUnits="strokeWidth"
       markerWidth="4"
       orient="auto"
       refX="0"
       refY="5"
       viewBox="0 0 10 10">
      <path
         d="M 0,0 10,5 0,10 0,0 z"
         id="path15805"
         inkscape:connector-curvature="0" />
    </marker>
    <linearGradient
       gradientTransform="matrix(0.910869,0,0,0.910869,-217.6704,-192.6088)"
       gradientUnits="userSpaceOnUse"
       id="linearGradient35381"
       inkscape:collect="always"
       x1="407.15894"
       x2="848.40326"
       xlink:href="#linearGradient11879"
       y1="311.72314"
       y2="919.31342" />
    <linearGradient
       gradientTransform="matrix(0.910869,0,0,0.910869,-217.6704,-192.6088)"
       gradientUnits="userSpaceOnUse"
       id="linearGradient35383"
       inkscape:collect="always"
       x1="407.15894"
       x2="848.40326"
       xlink:href="#linearGradient11879"
       y1="311.72314"
       y2="919.31342" />
    <linearGradient
       gradientTransform="matrix(0.607623,0,0,0.607623,128.2056,118.9165)"
       gradientUnits="userSpaceOnUse"
       id="linearGradient35385"
       inkscape:collect="always"
       x1="88.689644"
       x2="663.18671"
       xlink:href="#linearGradient2486"
       y1="399.76526"
       y2="399.76526" />
    <linearGradient
       gradientTransform="matrix(0.607623,0,0,0.522387,127.4013,65.78412)"
       gradientUnits="userSpaceOnUse"
       id="linearGradient35387"
       inkscape:collect="always"
       x1="377.2619"
       x2="398.44153"
       xlink:href="#linearGradient2486"
       y1="110.11734"
       y2="465.66083" />
    <linearGradient
       gradientTransform="matrix(0.60858,0,0,0.607623,126.7668,56.98339)"
       gradientUnits="userSpaceOnUse"
       id="linearGradient35389"
       inkscape:collect="always"
       x1="358.48715"
       x2="377.03015"
       xlink:href="#linearGradient2478"
       y1="277.88568"
       y2="701.47797" />
    <linearGradient
       gradientTransform="matrix(0.607623,0,0,0.607623,128.2056,57.38556)"
       gradientUnits="userSpaceOnUse"
       id="linearGradient35391"
       inkscape:collect="always"
       x1="660.53931"
       x2="551.99377"
       xlink:href="#linearGradient2486"
       y1="910.72351"
       y2="777.02716" />
    <radialGradient
       cx="376.73111"
       cy="609.92218"
       fx="376.73111"
       fy="609.92218"
       gradientTransform="matrix(1,0,0,1.011099,0,-6.769489)"
       gradientUnits="userSpaceOnUse"
       id="radialGradient35393"
       inkscape:collect="always"
       r="394.685"
       xlink:href="#linearGradient2088" />
    <radialGradient
       cx="376.73111"
       cy="609.92218"
       fx="376.73111"
       fy="609.92218"
       gradientTransform="matrix(1.623165,-2.064176e-7,1.61299e-7,1.268375,-234.7656,-163.6877)"
       gradientUnits="userSpaceOnUse"
       id="radialGradient35395"
       inkscape:collect="always"
       r="315.4028"
       xlink:href="#linearGradient2112" />
    <radialGradient
       cx="376.73111"
       cy="609.92218"
       fx="376.73111"
       fy="609.92218"
       gradientTransform="matrix(1.623165,-2.064176e-7,1.61299e-7,1.268375,-234.7656,-163.6877)"
       gradientUnits="userSpaceOnUse"
       id="radialGradient35397"
       inkscape:collect="always"
       r="315.4028"
       xlink:href="#linearGradient2130" />
    <radialGradient
       cx="376.73111"
       cy="609.92218"
       fx="376.73111"
       fy="609.92218"
       gradientTransform="matrix(1,0,0,1.013548,0,-8.263407)"
       gradientUnits="userSpaceOnUse"
       id="radialGradient35399"
       inkscape:collect="always"
       r="323.33102"
       xlink:href="#linearGradient2150" />
    <linearGradient
       gradientUnits="userSpaceOnUse"
       id="linearGradient35401"
       inkscape:collect="always"
       x1="325.55533"
       x2="320.22644"
       xlink:href="#linearGradient2180"
       y1="249.8591"
       y2="474.1716" />
    <linearGradient
       gradientTransform="matrix(0.815953,0,0,0.815953,60.49961,76.24396)"
       gradientUnits="userSpaceOnUse"
       id="linearGradient35403"
       inkscape:collect="always"
       x1="423.92313"
       x2="423.92313"
       xlink:href="#linearGradient4419"
       y1="495.48227"
       y2="795.4317" />
    <radialGradient
       cx="406.83707"
       cy="622.30322"
       fx="406.83707"
       fy="622.30322"
       gradientTransform="matrix(1,0,0,0.545558,-0.436133,254.2994)"
       gradientUnits="userSpaceOnUse"
       id="radialGradient35405"
       inkscape:collect="always"
       r="224.99788"
       xlink:href="#linearGradient3532" />
    <linearGradient
       gradientTransform="matrix(0.434313,0,0,0.434313,241.6915,215.9303)"
       gradientUnits="userSpaceOnUse"
       id="linearGradient35407"
       inkscape:collect="always"
       x1="660.53931"
       x2="551.99377"
       xlink:href="#linearGradient2486"
       y1="910.72351"
       y2="777.02716" />
    <radialGradient
       inkscape:collect="always"
       xlink:href="#linearGradient2088"
       id="radialGradient2677"
       gradientUnits="userSpaceOnUse"
       gradientTransform="matrix(1,0,0,1.011099,0,-6.769489)"
       cx="376.73111"
       cy="609.92218"
       fx="376.73111"
       fy="609.92218"
       r="394.685" />
    <radialGradient
       inkscape:collect="always"
       xlink:href="#linearGradient2112"
       id="radialGradient2679"
       gradientUnits="userSpaceOnUse"
       gradientTransform="matrix(1.623165,-2.064176e-7,1.61299e-7,1.268375,-234.7656,-163.6877)"
       cx="376.73111"
       cy="609.92218"
       fx="376.73111"
       fy="609.92218"
       r="315.4028" />
    <radialGradient
       inkscape:collect="always"
       xlink:href="#linearGradient2130"
       id="radialGradient2681"
       gradientUnits="userSpaceOnUse"
       gradientTransform="matrix(1.623165,-2.064176e-7,1.61299e-7,1.268375,-234.7656,-163.6877)"
       cx="376.73111"
       cy="609.92218"
       fx="376.73111"
       fy="609.92218"
       r="315.4028" />
    <radialGradient
       inkscape:collect="always"
       xlink:href="#linearGradient2150"
       id="radialGradient2683"
       gradientUnits="userSpaceOnUse"
       gradientTransform="matrix(1,0,0,1.013548,0,-8.263407)"
       cx="376.73111"
       cy="609.92218"
       fx="376.73111"
       fy="609.92218"
       r="323.33102" />
    <linearGradient
       inkscape:collect="always"
       xlink:href="#linearGradient2180"
       id="linearGradient2685"
       gradientUnits="userSpaceOnUse"
       x1="325.55533"
       y1="249.8591"
       x2="320.22644"
       y2="474.1716" />
    <linearGradient
       inkscape:collect="always"
       xlink:href="#linearGradient4419"
       id="linearGradient2687"
       gradientUnits="userSpaceOnUse"
       gradientTransform="matrix(0.815953,0,0,0.815953,60.49961,76.24396)"
       x1="423.92313"
       y1="495.48227"
       x2="423.92313"
       y2="795.4317" />
    <radialGradient
       inkscape:collect="always"
       xlink:href="#linearGradient3532"
       id="radialGradient2689"
       gradientUnits="userSpaceOnUse"
       gradientTransform="matrix(1,0,0,0.545558,-0.436133,254.2994)"
       cx="406.83707"
       cy="622.30322"
       fx="406.83707"
       fy="622.30322"
       r="224.99788" />
    <linearGradient
       inkscape:collect="always"
       xlink:href="#linearGradient2486"
       id="linearGradient2784"
       gradientUnits="userSpaceOnUse"
       gradientTransform="matrix(0.4343132,0,0,0.4343132,224.26496,253.31953)"
       x1="660.53931"
       y1="910.72351"
       x2="551.99377"
       y2="777.02716" />
    <linearGradient
       inkscape:collect="always"
       xlink:href="#linearGradient2486"
       id="linearGradient2812"
       gradientUnits="userSpaceOnUse"
       gradientTransform="matrix(0.6076233,0,0,0.6076233,110.77902,94.774732)"
       x1="660.53931"
       y1="910.72351"
       x2="551.99377"
       y2="777.02716" />
    <linearGradient
       inkscape:collect="always"
       xlink:href="#linearGradient2478"
       id="linearGradient2815"
       gradientUnits="userSpaceOnUse"
       gradientTransform="matrix(0.6072807,-0.03975078,0.03968827,0.6063257,115.27089,87.029237)"
       x1="358.48715"
       y1="277.88568"
       x2="377.03015"
       y2="701.47797" />
    <linearGradient
       inkscape:collect="always"
       xlink:href="#linearGradient2486"
       id="linearGradient2818"
       gradientUnits="userSpaceOnUse"
       gradientTransform="matrix(0.6063257,-0.03968827,0.03412089,0.5212717,116.47888,95.769734)"
       x1="377.2619"
       y1="110.11734"
       x2="398.44153"
       y2="465.66083" />
    <linearGradient
       inkscape:collect="always"
       xlink:href="#linearGradient2486"
       id="linearGradient2822"
       gradientUnits="userSpaceOnUse"
       gradientTransform="matrix(0.6063257,-0.03968827,0.03968827,0.6063257,120.75192,148.73614)"
       x1="88.689644"
       y1="399.76526"
       x2="663.18671"
       y2="399.76526" />
    <linearGradient
       inkscape:collect="always"
       xlink:href="#linearGradient11879"
       id="linearGradient2827"
       gradientUnits="userSpaceOnUse"
       gradientTransform="matrix(0.9089243,-0.05949547,0.05949547,0.9089243,-244.73361,-139.53238)"
       x1="407.15894"
       y1="311.72314"
       x2="848.40326"
       y2="919.31342" />
    <linearGradient
       inkscape:collect="always"
       xlink:href="#linearGradient11879"
       id="linearGradient2829"
       gradientUnits="userSpaceOnUse"
       gradientTransform="matrix(0.9089243,-0.05949547,0.05949547,0.9089243,-244.73361,-139.53238)"
       x1="407.15894"
       y1="311.72314"
       x2="848.40326"
       y2="919.31342" />
  </defs>
  <sodipodi:namedview
     bordercolor="#666666"
     borderopacity="1.0"
     id="base"
     inkscape:current-layer="layer1"
     inkscape:cx="514.98816"
     inkscape:cy="377.67415"
     inkscape:document-units="px"
     inkscape:pageopacity="0"
     inkscape:pageshadow="2"
     inkscape:window-height="744"
     inkscape:window-width="1280"
     inkscape:window-x="-4"
     inkscape:window-y="-4"
     inkscape:zoom="0.385"
     pagecolor="#ffffff"
     showborder="true"
     showgrid="false"
     fit-margin-top="0"
     fit-margin-left="0"
     fit-margin-right="0"
     fit-margin-bottom="0"
     inkscape:window-maximized="0" />
  <g
     id="layer1"
     inkscape:groupmode="layer"
     inkscape:label="Livello 1"
     transform="translate(-132.26624,-79.812901)">
    <path
       d="m 135.27943,110.38474 2.00426,30.61946 c 3.08358,-2.93517 7.10765,-4.91801 11.68472,-5.21761 10.37877,-0.67936 19.34832,7.20593 20.02768,17.58472 0.67937,10.37878 -7.18699,19.34708 -17.56577,20.02644 -4.57706,0.2996 -8.82527,-1.14175 -12.26516,-3.64992 l 2.0886,31.9079 c 3.08639,-2.94831 7.11329,-4.93739 11.70243,-5.23778 10.37876,-0.67937 19.36601,7.18573 20.04538,17.56451 0.67936,10.37879 -7.2047,19.36727 -17.58347,20.04663 -4.58914,0.3004 -8.84097,-1.1468 -12.28535,-3.66762 l 2.12829,32.51422 c 3.08638,-2.94831 7.11328,-4.9374 11.70242,-5.23779 10.37877,-0.67936 19.36602,7.18575 20.04538,17.56453 0.67937,10.37877 -7.2047,19.36726 -17.58346,20.04662 -4.58914,0.30039 -8.84097,-1.1468 -12.28535,-3.66762 l 2.07743,31.73738 c 3.08639,-2.94832 7.11329,-4.93741 11.70243,-5.2378 10.37876,-0.67937 19.36726,7.20469 20.04662,17.58348 0.67936,10.37877 -7.20594,19.3483 -17.58471,20.02767 -4.58914,0.30039 -8.84097,-1.14679 -12.28535,-3.66762 l 2.07744,31.73736 c 3.08638,-2.94831 7.11452,-4.91845 11.70366,-5.21884 10.37877,-0.67936 19.36602,7.18575 20.04538,17.56453 0.67937,10.3788 -7.20594,19.34831 -17.5847,20.02768 -4.59115,0.30052 -8.84022,-1.14469 -12.28535,-3.66762 l 1.97201,30.12681 c 3.08685,-2.9505 7.11128,-4.93727 11.70243,-5.23779 10.37876,-0.67936 19.36601,7.18575 20.04538,17.56453 0.67936,10.37878 -7.20471,19.36726 -17.58347,20.04662 -4.58914,0.30041 -8.84097,-1.14678 -12.28535,-3.66762 l 2.19278,33.49951 c 3.08639,-2.94832 7.11328,-4.93741 11.70243,-5.2378 10.37876,-0.67936 19.36725,7.20469 20.04662,17.58348 0.67936,10.37878 -7.20595,19.34831 -17.58471,20.02768 -4.58914,0.3004 -8.84097,-1.14681 -12.28535,-3.66762 l 2.11836,32.36263 c 3.08686,-2.95048 7.11128,-4.93726 11.70243,-5.23778 10.37876,-0.67938 19.36602,7.18574 20.04538,17.56452 0.67936,10.37878 -7.2047,19.36727 -17.58347,20.04664 -4.58914,0.30039 -8.84097,-1.14681 -12.28535,-3.66763 l 2.07744,31.73736 c 3.08638,-2.9483 7.11328,-4.93739 11.70242,-5.23778 10.37877,-0.67935 19.36726,7.20468 20.04663,17.58347 0.67936,10.37874 -7.20595,19.34831 -17.58471,20.02767 -4.58914,0.3004 -8.84097,-1.1468 -12.28535,-3.66764 l 2.00674,30.65736 45.98603,-3.01011 c -2.53716,-2.97903 -4.20835,-6.7316 -4.4834,-10.93355 -0.67936,-10.37873 7.18701,-19.34706 17.56577,-20.02643 10.37877,-0.67936 19.36602,7.18579 20.04538,17.56452 0.27512,4.20304 -0.91062,8.14115 -3.03883,11.42593 l 31.4342,-2.05759 c -2.79904,-3.05208 -4.66257,-6.98465 -4.95392,-11.43556 -0.67936,-10.37873 7.187,-19.34706 17.56577,-20.02643 10.37879,-0.67936 19.34707,7.18703 20.02643,17.56575 0.29135,4.45092 -1.04365,8.59285 -3.42095,11.98377 l 31.37736,-2.05387 c -2.79904,-3.05209 -4.68153,-6.98341 -4.97287,-11.43433 -0.67936,-10.37873 7.187,-19.34706 17.56577,-20.02642 10.37878,-0.67937 19.36603,7.18578 20.04539,17.5645 0.29134,4.45092 -1.06261,8.5941 -3.4399,11.98501 l 30.80892,-2.01666 c -2.53824,-2.97933 -4.22722,-6.72927 -4.50234,-10.93231 -0.67935,-10.37874 7.20595,-19.34831 17.58471,-20.02767 10.37877,-0.67937 19.34708,7.18702 20.02644,17.56575 0.27505,4.20195 -0.8927,8.14035 -3.01988,11.4247 l 30.9984,-2.02907 c -2.53825,-2.97933 -4.22722,-6.72927 -4.50234,-10.93231 -0.67937,-10.37873 7.20594,-19.3483 17.58471,-20.02767 10.37876,-0.67936 19.34708,7.18703 20.02644,17.56576 0.27512,4.20304 -0.91063,8.14115 -3.03884,11.42593 l 30.48683,-1.99557 c -2.53824,-2.97934 -4.22722,-6.72928 -4.50234,-10.93231 -0.67937,-10.37874 7.20594,-19.34831 17.58471,-20.02767 10.37879,-0.67937 19.34707,7.18702 20.02644,17.56575 0.27504,4.20195 -0.89272,8.14035 -3.0199,11.4247 l 45.98604,-3.01011 -1.94348,-29.691 c -2.9246,2.37399 -6.56778,3.93121 -10.60988,4.19579 -10.37878,0.67937 -19.34707,-7.18693 -20.02643,-17.56575 -0.67939,-10.37881 7.18575,-19.36603 17.56451,-20.04539 4.04209,-0.26459 7.85719,0.80448 11.0663,2.77694 l -1.98937,-30.39209 c -3.03176,2.71955 -6.91519,4.54387 -11.29145,4.83033 -10.37876,0.67934 -19.34832,-7.20594 -20.02768,-17.58473 -0.67938,-10.37876 7.187,-19.34707 17.56577,-20.02643 4.37897,-0.28664 8.46323,1.01329 11.82475,3.31719 l -1.98937,-30.39209 c -0.44114,0.35807 -0.92849,0.64916 -1.40194,0.96709 -0.4646,0.31335 -0.93271,0.62028 -1.42582,0.89255 -0.40378,0.22151 -0.81312,0.4214 -1.23477,0.61363 -0.6863,0.31575 -1.38584,0.59084 -2.11539,0.82351 -0.0193,0.006 -0.0363,0.0167 -0.0556,0.0227 -0.0251,0.008 -0.0494,0.0162 -0.0746,0.0239 -0.006,0.002 -0.0131,-5.4e-4 -0.019,0.001 -0.26893,0.0825 -0.52817,0.17211 -0.80235,0.24281 -1.12395,0.28983 -2.28138,0.51089 -3.48175,0.58946 -1.20037,0.0786 -2.37675,0.0103 -3.52888,-0.13056 -0.24065,-0.0294 -0.47303,-0.0672 -0.71099,-0.1057 -0.0318,-0.005 -0.0641,-0.007 -0.096,-0.0127 -0.9136,-0.15148 -1.80123,-0.36449 -2.66812,-0.6436 -0.0381,-0.0123 -0.0779,-0.0186 -0.11616,-0.0305 -0.019,-0.006 -0.0391,-0.009 -0.0581,-0.0152 -0.13775,-0.046 -0.27268,-0.0954 -0.40906,-0.14448 -0.0189,-0.007 -0.0393,-0.008 -0.0581,-0.0152 -1.06738,-0.38669 -2.11021,-0.84889 -3.08021,-1.41583 -1.04878,-0.61297 -2.00814,-1.33153 -2.91767,-2.13053 -0.90609,-0.79476 -1.7516,-1.65931 -2.49269,-2.61505 -0.68968,-0.88929 -1.28084,-1.86053 -1.80528,-2.86937 -0.006,-0.0124 -0.0165,-0.0235 -0.0214,-0.0367 -0.003,-0.005 10e-4,-0.014 -10e-4,-0.019 -0.0783,-0.15177 -0.14621,-0.30707 -0.22048,-0.46129 -0.0143,-0.031 -0.0294,-0.0614 -0.0441,-0.0923 -0.38973,-0.8231 -0.71663,-1.67538 -0.9859,-2.56145 -0.008,-0.025 -0.0171,-0.0494 -0.0239,-0.0745 -0.002,-0.006 5.1e-4,-0.0131 -10e-4,-0.019 -0.0692,-0.23091 -0.13694,-0.4564 -0.19748,-0.69114 -0.004,-0.0134 -0.018,-0.0232 -0.0214,-0.0367 -0.2838,-1.11475 -0.4902,-2.25635 -0.56802,-3.44511 -0.16984,-2.5947 0.19455,-5.09903 0.99918,-7.41054 0.80301,-2.30686 2.05956,-4.42215 3.64518,-6.23269 0.79761,-0.91075 1.65512,-1.74824 2.61505,-2.4927 0.88928,-0.68968 1.86052,-1.28084 2.86936,-1.80527 0.0124,-0.006 0.0235,-0.0164 0.0367,-0.0214 0.005,-0.003 0.014,0.001 0.0189,-10e-4 0.12882,-0.0665 0.25616,-0.13302 0.38673,-0.19657 0.018,-0.009 0.0376,-0.014 0.0556,-0.0227 0.0364,-0.0168 0.075,-0.0282 0.11121,-0.0453 0.8231,-0.38975 1.67539,-0.71665 2.56145,-0.98592 0.025,-0.008 0.0494,-0.017 0.0746,-0.0239 0.006,-0.002 0.0131,5.2e-4 0.019,-0.001 0.23091,-0.0692 0.45639,-0.13693 0.69115,-0.19747 0.008,-0.002 0.0107,-0.0149 0.0177,-0.0202 0.006,-0.002 0.0129,3e-4 0.0189,-10e-4 1.11474,-0.2838 2.25635,-0.49021 3.44509,-0.56802 1.18688,-0.0777 2.34991,-0.0228 3.48976,0.11408 0.0129,0.002 0.0262,0.0149 0.0391,0.0165 0.28105,0.0344 0.54976,0.0894 0.82716,0.13615 0.006,10e-4 0.0128,-0.002 0.019,-0.001 0.0258,0.005 0.0512,0.009 0.077,0.014 0.0196,0.004 0.0384,0.0117 0.0581,0.0152 0.37609,0.0666 0.73381,0.18158 1.10235,0.27036 0.36677,0.0903 0.74154,0.15857 1.10234,0.27036 0.44312,0.13562 0.87502,0.28047 1.30422,0.44744 0.5244,0.20567 1.02852,0.44897 1.53001,0.69906 0.51085,0.25352 1.03199,0.47859 1.51604,0.77609 l -2.10596,-32.17316 c -2.92461,2.37395 -6.56778,3.93121 -10.60988,4.1958 -10.37877,0.67938 -19.34831,-7.20593 -20.02767,-17.58471 -0.67939,-10.37878 7.18699,-19.34708 17.56575,-20.02644 4.0416,-0.26455 7.85622,0.78602 11.06506,2.75799 L 580.94807,385.58 c -2.92441,2.37345 -6.56952,3.9123 -10.61113,4.17685 -10.37877,0.67935 -19.34706,-7.18698 -20.02643,-17.56575 -0.67938,-10.37877 7.187,-19.34709 17.56576,-20.02645 4.04209,-0.26458 7.85595,0.78555 11.06506,2.758 l -2.00798,-30.67631 c -3.03175,2.71957 -6.91519,4.54387 -11.29144,4.83032 -10.37877,0.67937 -19.34708,-7.18698 -20.02644,-17.56576 -0.67939,-10.37878 7.18576,-19.36602 17.56452,-20.04538 4.37627,-0.28646 8.46437,1.01605 11.82476,3.31719 l -1.98938,-30.39209 c -2.9246,2.37395 -6.56778,3.93122 -10.60988,4.19581 -10.37877,0.67936 -19.34831,-7.20594 -20.02767,-17.58471 -0.67938,-10.37878 7.18699,-19.34708 17.56576,-20.02644 4.04209,-0.26458 7.85719,0.80449 11.0663,2.77694 l -1.98318,-30.29735 c -2.9246,2.37395 -6.56778,3.93123 -10.60988,4.19581 -10.37878,0.67936 -19.34831,-7.20593 -20.02767,-17.58471 -0.67939,-10.37879 7.18699,-19.34707 17.56576,-20.02644 4.04209,-0.26458 7.85718,0.80449 11.06629,2.77695 l -1.96333,-29.99419 c -2.9246,2.37395 -6.56778,3.93123 -10.60988,4.19581 -10.37877,0.67936 -19.34707,-7.18698 -20.02643,-17.56577 -0.67938,-10.37879 7.18575,-19.36603 17.56452,-20.04539 4.04209,-0.26458 7.85719,0.80449 11.0663,2.77694 l -1.94225,-29.672066 -45.43655,2.974141 c 1.94582,2.745372 3.22865,6.009336 3.46442,9.611146 0.67936,10.378779 -7.187,19.347079 -17.56577,20.026439 -10.37875,0.67937 -19.34708,-7.18698 -20.02644,-17.565765 -0.23576,-3.601811 0.61065,-7.005148 2.182,-9.980744 l -28.61101,1.872791 c 1.94583,2.745372 3.22865,6.009336 3.46441,9.611147 0.67939,10.378781 -7.18699,19.347081 -17.56575,20.026441 -10.37878,0.67936 -19.36602,-7.18574 -20.04538,-17.56453 -0.23577,-3.601809 0.62958,-7.006386 2.20093,-9.981982 L 394.029,93.447765 c 1.94582,2.745373 3.22864,6.009337 3.4644,9.611145 0.67937,10.37879 -7.18698,19.34708 -17.56575,20.02644 -10.37877,0.67937 -19.34708,-7.18698 -20.02644,-17.56576 -0.23577,-3.60181 0.61064,-7.005153 2.18199,-9.980748 l -28.62995,1.874031 c 1.9435,2.744237 3.22882,6.011827 3.46442,9.611147 0.67936,10.37878 -7.18699,19.34708 -17.56577,20.02644 -10.37876,0.67936 -19.36602,-7.18574 -20.04539,-17.56453 -0.2356,-3.59932 0.61281,-7.00657 2.182,-9.980741 l -28.47837,1.864111 c 1.9435,2.74423 3.22881,6.01182 3.46441,9.61115 0.67937,10.37878 -7.20593,19.34831 -17.58469,20.02768 -10.37879,0.67936 -19.34708,-7.18699 -20.02645,-17.56577 -0.2356,-3.59932 0.6128,-7.00658 2.18199,-9.98075 l -28.38363,1.85791 c 1.94583,2.74537 3.22866,6.00934 3.46442,9.61115 0.67936,10.37878 -7.18699,19.34708 -17.56577,20.02644 -10.37877,0.67936 -19.34707,-7.18698 -20.02644,-17.56577 -0.23576,-3.60181 0.61065,-7.00515 2.182,-9.98074 l -45.43655,2.97414 z"
       id="rect2161"
       style="opacity:0.25605535;fill:url(#linearGradient2827);fill-opacity:1;fill-rule:nonzero;stroke:url(#linearGradient2829);stroke-width:0.89886755;stroke-linecap:round;stroke-linejoin:round;stroke-miterlimit:4;stroke-opacity:1;stroke-dasharray:none;stroke-dashoffset:0"
       inkscape:connector-curvature="0" />
    <path
       d="m 132.71567,108.13592 2.00426,30.61948 c 3.08358,-2.93518 7.10765,-4.91802 11.68472,-5.21762 10.37877,-0.67936 19.34833,7.20593 20.02769,17.58472 0.67936,10.37879 -7.187,19.34709 -17.56578,20.02646 -4.57706,0.2996 -8.82527,-1.14176 -12.26516,-3.64992 l 2.0886,31.9079 c 3.08639,-2.9483 7.11329,-4.9374 11.70243,-5.23779 10.37877,-0.67936 19.36602,7.18574 20.04539,17.56453 0.67936,10.37879 -7.2047,19.36728 -17.58348,20.04664 -4.58914,0.30039 -8.84097,-1.1468 -12.28535,-3.66762 l 2.12829,32.51423 c 3.08638,-2.94831 7.11328,-4.9374 11.70242,-5.23779 10.37878,-0.67937 19.36603,7.18574 20.0454,17.56453 0.67936,10.37878 -7.20471,19.36727 -17.58348,20.04663 -4.58914,0.3004 -8.84097,-1.1468 -12.28535,-3.66762 l 2.07743,31.73738 c 3.08639,-2.94831 7.11329,-4.9374 11.70243,-5.2378 10.37877,-0.67936 19.36727,7.2047 20.04663,17.58348 0.67937,10.37879 -7.20594,19.34833 -17.58471,20.02769 -4.58915,0.30039 -8.84097,-1.1468 -12.28535,-3.66763 l 2.07743,31.73739 c 3.08639,-2.94831 7.11453,-4.91845 11.70367,-5.21884 10.37877,-0.67936 19.36602,7.18573 20.04539,17.56453 0.67936,10.3788 -7.20594,19.34832 -17.58472,20.02768 -4.59115,0.30052 -8.84022,-1.14469 -12.28535,-3.66763 l 1.97201,30.12683 c 3.08686,-2.95049 7.11129,-4.93726 11.70243,-5.23778 10.37878,-0.67938 19.36603,7.18574 20.04539,17.56452 0.67937,10.3788 -7.2047,19.36728 -17.58347,20.04664 -4.58914,0.3004 -8.84097,-1.1468 -12.28535,-3.66763 l 2.19278,33.49952 c 3.08638,-2.94831 7.11328,-4.93741 11.70242,-5.2378 10.37878,-0.67937 19.36727,7.2047 20.04663,17.58348 0.67937,10.37879 -7.20594,19.34833 -17.58471,20.02769 -4.58914,0.3004 -8.84097,-1.14679 -12.28535,-3.66763 l 2.11836,32.36266 c 3.08686,-2.95049 7.11128,-4.93726 11.70243,-5.23779 10.37877,-0.67938 19.36602,7.18575 20.04539,17.56453 0.67936,10.37878 -7.2047,19.36727 -17.58348,20.04663 -4.58914,0.30039 -8.84097,-1.14679 -12.28535,-3.66762 l 2.07744,31.73738 c 3.08638,-2.94831 7.11328,-4.9374 11.70242,-5.23779 10.37878,-0.67935 19.36727,7.20469 20.04664,17.58348 0.67936,10.37877 -7.20595,19.34832 -17.58472,20.02768 -4.58914,0.30039 -8.84097,-1.14679 -12.28535,-3.66762 l 2.00674,30.65737 45.98604,-3.01011 c -2.53716,-2.97905 -4.20834,-6.73159 -4.48339,-10.93357 -0.67936,-10.37877 7.187,-19.34709 17.56577,-20.02645 10.37877,-0.67936 19.36603,7.18575 20.04539,17.56453 0.27512,4.20303 -0.91063,8.14111 -3.03884,11.42596 l 31.43422,-2.05759 c -2.79905,-3.05215 -4.66258,-6.98466 -4.95393,-11.43558 -0.67936,-10.37879 7.18701,-19.34708 17.56578,-20.02644 10.37878,-0.67938 19.34709,7.18698 20.02645,17.56576 0.29135,4.45093 -1.04366,8.5928 -3.42096,11.98378 l 31.37737,-2.05387 c -2.79905,-3.05215 -4.68152,-6.98341 -4.97286,-11.43434 -0.67938,-10.37878 7.18699,-19.34708 17.56577,-20.02644 10.37878,-0.67938 19.36602,7.18574 20.04539,17.56452 0.29134,4.45093 -1.06261,8.59405 -3.43991,11.98502 l 30.80894,-2.01666 c -2.53825,-2.9794 -4.22722,-6.72932 -4.50234,-10.93233 -0.67936,-10.37877 7.20595,-19.34833 17.58472,-20.02769 10.37876,-0.67936 19.34708,7.18699 20.02644,17.56577 0.27505,4.20199 -0.89271,8.14035 -3.01989,11.42472 l 30.99843,-2.02907 c -2.53825,-2.97939 -4.22723,-6.72931 -4.50235,-10.93233 -0.67937,-10.37876 7.20595,-19.34833 17.58472,-20.02769 10.37877,-0.67935 19.34708,7.18699 20.02644,17.56578 0.27512,4.20302 -0.91063,8.14111 -3.03884,11.42595 l 30.48684,-1.99558 c -2.53824,-2.97939 -4.22723,-6.72931 -4.50234,-10.93233 -0.67937,-10.37876 7.20594,-19.34832 17.58471,-20.02769 10.3788,-0.67935 19.34708,7.187 20.02645,17.56578 0.27505,4.20199 -0.89271,8.14035 -3.01988,11.42471 l 45.98604,-3.01011 -1.94349,-29.69103 c -2.92459,2.37395 -6.56777,3.93121 -10.60987,4.1958 -10.3788,0.67936 -19.34708,-7.18699 -20.02645,-17.56577 -0.67937,-10.37879 7.18576,-19.36603 17.56453,-20.04539 4.04209,-0.26457 7.8572,0.8045 11.06629,2.77694 l -1.98938,-30.39209 c -3.03174,2.71955 -6.91516,4.54385 -11.29143,4.83031 -10.37877,0.67935 -19.34833,-7.20593 -20.02769,-17.58472 -0.67938,-10.37876 7.18699,-19.34707 17.56578,-20.02644 4.37898,-0.28663 8.46323,1.0133 11.82474,3.31719 l -1.98937,-30.3921 c -0.44112,0.35807 -0.92849,0.64917 -1.40192,0.96711 -0.46463,0.31334 -0.93274,0.62027 -1.42583,0.89254 -0.40379,0.22149 -0.81312,0.42141 -1.23477,0.61363 -0.68631,0.31574 -1.38585,0.59084 -2.11539,0.82351 -0.0193,0.006 -0.0363,0.0166 -0.0556,0.0227 -0.0251,0.008 -0.0494,0.0162 -0.0745,0.0239 -0.006,0.002 -0.0131,-5.6e-4 -0.019,0.001 -0.26892,0.0825 -0.52816,0.1721 -0.80234,0.2428 -1.12395,0.28984 -2.28138,0.51089 -3.48176,0.58946 -1.20036,0.0786 -2.37674,0.0103 -3.52888,-0.13057 -0.24064,-0.0294 -0.47302,-0.0672 -0.71099,-0.10568 -0.0318,-0.005 -0.0641,-0.007 -0.096,-0.0127 -0.91362,-0.15147 -1.80124,-0.36448 -2.66813,-0.64359 -0.0381,-0.0123 -0.0779,-0.0186 -0.11617,-0.0305 -0.019,-0.006 -0.0391,-0.009 -0.0581,-0.0152 -0.13775,-0.046 -0.27269,-0.0954 -0.40907,-0.14449 -0.0189,-0.007 -0.0393,-0.008 -0.0581,-0.0152 -1.06738,-0.3867 -2.11021,-0.8489 -3.0802,-1.41583 -1.0488,-0.61298 -2.00816,-1.33154 -2.91768,-2.13054 -0.90609,-0.79475 -1.7516,-1.6593 -2.4927,-2.61505 -0.68968,-0.88929 -1.28084,-1.86052 -1.80527,-2.86937 -0.006,-0.0124 -0.0164,-0.0235 -0.0214,-0.0367 -0.003,-0.005 10e-4,-0.014 -10e-4,-0.0189 -0.0783,-0.15178 -0.14621,-0.30708 -0.22048,-0.46129 -0.0143,-0.031 -0.0294,-0.0614 -0.0441,-0.0923 -0.38974,-0.8231 -0.71663,-1.67538 -0.9859,-2.56144 -0.008,-0.025 -0.0171,-0.0494 -0.0239,-0.0745 -0.002,-0.006 5.2e-4,-0.0131 -0.001,-0.019 -0.0692,-0.23093 -0.13693,-0.45639 -0.19747,-0.69115 -0.004,-0.0134 -0.018,-0.0232 -0.0214,-0.0367 -0.2838,-1.11473 -0.49021,-2.25635 -0.56802,-3.44509 -0.16984,-2.5947 0.19455,-5.09904 0.99918,-7.41056 0.80302,-2.30685 2.05956,-4.42215 3.64517,-6.23269 0.79761,-0.91074 1.65512,-1.74823 2.61506,-2.49269 0.88927,-0.68968 1.86051,-1.28085 2.86936,-1.80528 0.0124,-0.006 0.0235,-0.0165 0.0367,-0.0214 0.005,-0.003 0.014,10e-4 0.019,-0.001 0.12882,-0.0664 0.25616,-0.13301 0.38674,-0.19657 0.018,-0.009 0.0376,-0.014 0.0556,-0.0227 0.0364,-0.0168 0.075,-0.0281 0.1112,-0.0453 0.82312,-0.38974 1.67539,-0.71663 2.56147,-0.9859 0.025,-0.008 0.0494,-0.0171 0.0745,-0.0239 0.006,-0.002 0.0131,5.1e-4 0.0189,-0.001 0.23092,-0.0692 0.4564,-0.13694 0.69114,-0.19748 0.008,-0.002 0.0107,-0.0149 0.0177,-0.0202 0.006,-0.002 0.0129,3.1e-4 0.0189,-0.001 1.11475,-0.2838 2.25636,-0.49021 3.44511,-0.56803 1.18688,-0.0777 2.3499,-0.0228 3.48974,0.1141 0.013,0.002 0.0262,0.0149 0.0391,0.0165 0.28106,0.0344 0.54977,0.0894 0.82715,0.13615 0.006,10e-4 0.0128,-0.002 0.019,-0.001 0.0258,0.005 0.0512,0.009 0.077,0.014 0.0197,0.004 0.0384,0.0117 0.0581,0.0152 0.37608,0.0666 0.73381,0.18158 1.10234,0.27036 0.36677,0.0903 0.74154,0.15857 1.10235,0.27037 0.44311,0.13561 0.875,0.28045 1.30423,0.44743 0.52437,0.20567 1.0285,0.44896 1.53001,0.69906 0.51084,0.25352 1.03199,0.4786 1.51602,0.7761 l -2.10596,-32.17318 c -2.92459,2.37395 -6.56777,3.93123 -10.60988,4.19581 -10.37879,0.67937 -19.34831,-7.20593 -20.02768,-17.58472 -0.67937,-10.37879 7.187,-19.34708 17.56577,-20.02645 4.04159,-0.26455 7.8562,0.78603 11.06505,2.758 l -1.84303,-28.15626 c -2.92441,2.37343 -6.56951,3.9123 -10.61111,4.17685 -10.3788,0.67935 -19.34708,-7.18698 -20.02644,-17.56577 -0.67938,-10.37877 7.18699,-19.34708 17.56577,-20.02644 4.04209,-0.26458 7.85595,0.78554 11.06504,2.75799 l -2.00798,-30.6763 c -3.03174,2.71954 -6.91516,4.54384 -11.29143,4.8303 -10.37877,0.67937 -19.34709,-7.18698 -20.02645,-17.56577 -0.67939,-10.37878 7.18575,-19.36603 17.56454,-20.04539 4.37626,-0.28646 8.46436,1.01605 11.82474,3.3172 l -1.98937,-30.3921 c -2.92459,2.37395 -6.56778,3.93122 -10.60988,4.1958 -10.37879,0.67937 -19.34832,-7.20593 -20.02768,-17.58472 -0.67937,-10.37877 7.18699,-19.34707 17.56577,-20.02644 4.04209,-0.26458 7.8572,0.8045 11.06629,2.77695 l -1.98318,-30.29735 c -2.92458,2.37394 -6.56777,3.93121 -10.60987,4.1958 -10.37879,0.67936 -19.34832,-7.20594 -20.02768,-17.58473 -0.67938,-10.37878 7.18699,-19.34708 17.56576,-20.02644 4.0421,-0.26458 7.8572,0.8045 11.06629,2.77695 l -1.96333,-29.99419 c -2.92458,2.37394 -6.56777,3.93122 -10.60987,4.19581 -10.37879,0.67936 -19.34708,-7.187 -20.02644,-17.56578 -0.67938,-10.3788 7.18575,-19.36604 17.56452,-20.04541 4.0421,-0.26457 7.8572,0.8045 11.06629,2.77696 l -1.94224,-29.672085 -45.43657,2.974142 c 1.94583,2.745375 3.22866,6.009345 3.46443,9.611157 0.67936,10.378786 -7.18701,19.347086 -17.56577,20.026446 -10.37876,0.67936 -19.34709,-7.18699 -20.02645,-17.565771 -0.23577,-3.601813 0.61064,-7.005157 2.18199,-9.980755 l -28.61101,1.872791 c 1.94582,2.745375 3.22866,6.009345 3.46442,9.611157 0.67938,10.378788 -7.187,19.347078 -17.56578,20.026448 -10.37877,0.67936 -19.36602,-7.18575 -20.04539,-17.564533 -0.23576,-3.601813 0.6296,-7.006396 2.20095,-9.981995 l -29.14155,1.907519 c 1.94583,2.745374 3.22866,6.009344 3.46442,9.611159 0.67936,10.37878 -7.18699,19.34708 -17.56578,20.02644 -10.37876,0.67937 -19.34707,-7.18698 -20.02644,-17.56577 -0.23576,-3.601811 0.61065,-7.005154 2.18199,-9.980752 l -28.62996,1.874031 c 1.94351,2.744243 3.22883,6.011831 3.46443,9.611161 0.67935,10.37879 -7.18701,19.34708 -17.56577,20.02644 -10.37878,0.67937 -19.36604,-7.18574 -20.0454,-17.56453 -0.2356,-3.59932 0.6128,-7.00658 2.182,-9.980754 l -28.47838,1.864109 c 1.94349,2.744245 3.22881,6.011835 3.46441,9.611155 0.67937,10.37879 -7.20593,19.34832 -17.58472,20.02769 -10.37876,0.67936 -19.34707,-7.18698 -20.02644,-17.56577 -0.2356,-3.59933 0.6128,-7.00658 2.182,-9.98076 l -28.38364,1.85791 c 1.94582,2.74538 3.22866,6.00934 3.46442,9.61116 0.67935,10.37879 -7.187,19.34708 -17.56578,20.02644 -10.37877,0.67937 -19.34707,-7.18698 -20.02644,-17.56576 -0.23576,-3.60182 0.61064,-7.00516 2.18199,-9.98076 l -45.43656,2.97414 z"
       id="path11024"
       style="fill:#ffffff;fill-opacity:1;fill-rule:nonzero;stroke:#adadad;stroke-width:0.89886796;stroke-linecap:round;stroke-linejoin:round;stroke-miterlimit:4;stroke-opacity:1;stroke-dasharray:none;stroke-dashoffset:0"
       inkscape:connector-curvature="0" />
    <rect
       height="495.08563"
       id="rect11026"
       style="fill:#9db8d2;fill-opacity:1;fill-rule:nonzero;stroke:#838383;stroke-width:0.60762358;stroke-linecap:round;stroke-linejoin:round;stroke-miterlimit:4;stroke-opacity:1;stroke-dasharray:none;stroke-dashoffset:0"
       width="348.25122"
       x="164.61432"
       y="157.29121"
       transform="matrix(0.9978645,-0.06531723,0.06531723,0.9978645,0,0)" />
    <path
       d="m 187.97612,350.68432 c 116.11085,-7.60027 141.55907,52.79969 348.33254,-22.80081 1.61112,24.61336 3.22224,49.22673 4.83335,73.84008 -116.11084,7.60027 -212.62356,-42.50569 -348.33253,22.8008 -1.61112,-24.61334 -3.22224,-49.22671 -4.83336,-73.84007 z"
       id="path11028"
       sodipodi:nodetypes="ccccc"
       style="opacity:0.65743947;fill:url(#linearGradient2822);fill-opacity:1;fill-rule:nonzero;stroke:none"
       inkscape:connector-curvature="0" />
    <path
       d="m 191.01111,399.30714 c 158.41555,69.75341 157.41825,-85.80448 347.54306,-22.74913 5.23896,80.03669 10.47793,160.07338 15.71689,240.11007 -115.84769,7.58305 -231.69537,15.16609 -347.54306,22.74913 -5.23896,-80.03669 -10.47792,-160.07338 -15.71689,-240.11007 z"
       id="path11030"
       sodipodi:nodetypes="ccccc"
       style="fill:#409240;fill-opacity:1;fill-rule:nonzero;stroke:none"
       inkscape:connector-curvature="0" />
    <path
       d="m 174.57934,146.01886 c 116.11084,-7.60026 232.2217,-15.20053 348.33254,-22.8008 3.37245,51.52154 6.7449,103.04308 10.11734,154.56463 -42.68073,-7.60091 -81.17227,-10.13027 -174.16628,11.4004 -122.88311,28.45081 -112.04224,20.50051 -174.16627,11.4004 -3.37244,-51.52154 -6.74489,-103.04308 -10.11733,-154.56463 z"
       id="path11032"
       sodipodi:nodetypes="cccscc"
       style="opacity:0.65743947;fill:url(#linearGradient2818);fill-opacity:1;fill-rule:nonzero;stroke:none"
       inkscape:connector-curvature="0" />
    <path
       d="m 191.26754,399.29035 c 158.30251,69.76082 157.29847,-85.79664 347.28663,-22.73234 5.23896,80.03669 10.47793,160.07338 15.71689,240.11007 -115.76221,7.57745 -231.52442,15.1549 -347.28663,22.73235 -5.23896,-80.0367 -10.47792,-160.07338 -15.71689,-240.11008 z"
       id="path11034"
       sodipodi:nodetypes="ccccc"
       style="opacity:0.65743947;fill:url(#linearGradient2815);fill-opacity:1;fill-rule:nonzero;stroke:none"
       inkscape:connector-curvature="0" />
    <rect
       height="147.9962"
       id="rect11036"
       style="opacity:0.2318339;fill:url(#linearGradient2812);fill-opacity:1;fill-rule:nonzero;stroke:none"
       width="167.30005"
       x="344.83826"
       y="504.17725"
       transform="matrix(0.9978645,-0.06531723,0.06531723,0.9978645,0,0)" />
    <g
       id="g11066"
       inkscape:label="Livello 1"
       transform="matrix(0.2593571,-0.01697674,0.01697674,0.2593571,220.09312,179.48634)">
      <g
         id="g11068"
         transform="matrix(0.518725,0,0,0.518725,90.37994,133.8101)">
        <path
           d="m 692.13391,609.92218 c 0,176.61149 -141.21064,319.78339 -315.4028,319.78339 -174.19216,0 -315.402802,-143.1719 -315.402802,-319.78339 0,-176.61149 141.210642,-319.78339 315.402802,-319.78339 174.19216,0 315.4028,143.1719 315.4028,319.78339 z"
           id="path11070"
           sodipodi:cx="376.73111"
           sodipodi:cy="609.92218"
           sodipodi:rx="315.4028"
           sodipodi:ry="319.78339"
           sodipodi:type="arc"
           style="fill:#ff6400;fill-opacity:1;fill-rule:nonzero;stroke:url(#radialGradient2677);stroke-width:158.56437683;stroke-linecap:round;stroke-linejoin:round;stroke-miterlimit:4;stroke-opacity:1;stroke-dasharray:none;stroke-dashoffset:0"
           transform="matrix(0.945988,0,0,0.945988,16.941,-67.57368)" />
        <path
           d="m 692.13391,609.92218 c 0,176.61149 -141.21064,319.78339 -315.4028,319.78339 -174.19216,0 -315.402802,-143.1719 -315.402802,-319.78339 0,-176.61149 141.210642,-319.78339 315.402802,-319.78339 174.19216,0 315.4028,143.1719 315.4028,319.78339 z"
           id="path11072"
           sodipodi:cx="376.73111"
           sodipodi:cy="609.92218"
           sodipodi:rx="315.4028"
           sodipodi:ry="319.78339"
           sodipodi:type="arc"
           style="fill:url(#radialGradient2679);fill-opacity:1;fill-rule:nonzero;stroke:none"
           transform="matrix(0.945988,0,0,0.945988,16.941,-67.57368)" />
        <path
           d="m 692.13391,609.92218 c 0,176.61149 -141.21064,319.78339 -315.4028,319.78339 -174.19216,0 -315.402802,-143.1719 -315.402802,-319.78339 0,-176.61149 141.210642,-319.78339 315.402802,-319.78339 174.19216,0 315.4028,143.1719 315.4028,319.78339 z"
           id="path11074"
           sodipodi:cx="376.73111"
           sodipodi:cy="609.92218"
           sodipodi:rx="315.4028"
           sodipodi:ry="319.78339"
           sodipodi:type="arc"
           style="opacity:0.78892733;fill:url(#radialGradient2681);fill-opacity:1;fill-rule:nonzero;stroke:none"
           transform="matrix(0.945988,0,0,0.945988,16.941,-67.57368)" />
        <path
           d="m 692.13391,609.92218 c 0,176.61149 -141.21064,319.78339 -315.4028,319.78339 -174.19216,0 -315.402802,-143.1719 -315.402802,-319.78339 0,-176.61149 141.210642,-319.78339 315.402802,-319.78339 174.19216,0 315.4028,143.1719 315.4028,319.78339 z"
           id="path11076"
           sodipodi:cx="376.73111"
           sodipodi:cy="609.92218"
           sodipodi:rx="315.4028"
           sodipodi:ry="319.78339"
           sodipodi:type="arc"
           style="opacity:0.78892733;fill:none;stroke:url(#radialGradient2683);stroke-width:15.85643768;stroke-linecap:round;stroke-linejoin:round;stroke-miterlimit:4;stroke-opacity:1;stroke-dasharray:none;stroke-dashoffset:0"
           transform="matrix(0.969913,0,0,0.969913,7.875683,-82.21878)" />
      </g>
      <path
         d="m 464.02403,383.40448 c 0,73.75508 -61.99455,133.54538 -138.4687,133.54538 -76.47416,0 -138.46871,-59.7903 -138.46871,-133.54538 0,-73.75508 61.99455,-133.54538 138.46871,-133.54538 76.47415,0 138.4687,59.7903 138.4687,133.54538 z"
         id="path11078"
         sodipodi:cx="325.55533"
         sodipodi:cy="383.40448"
         sodipodi:rx="138.4687"
         sodipodi:ry="133.54538"
         sodipodi:type="arc"
         style="opacity:0.78892733;fill:url(#linearGradient2685);fill-opacity:1;fill-rule:nonzero;stroke:none"
         transform="matrix(0.942319,0,0,0.785872,-21.54966,51.45357)" />
      <g
         id="g11080"
         transform="translate(-1.322063,-22.47507)">
        <path
           d="m 377.10793,478.39296 c -47.44975,3.92005 -86.14575,22.97986 -96.9701,45.54155 -6.49828,-2.79237 -13.50139,-4.0589 -20.69477,-3.46462 -10.62642,0.87791 -20.17042,5.69866 -27.82143,13.22447 -3.24869,-0.5448 -6.59574,-0.74313 -10.03124,-0.45931 -22.05914,1.82242 -38.50411,21.00828 -36.70152,42.82763 1.53389,18.56674 15.79906,33.02675 33.60539,35.82007 7.33047,18.13898 21.05804,31.51632 37.09018,35.79866 0.0107,0.27443 -0.0215,0.54634 0.001,0.82156 1.25534,15.195 20.60847,26.05414 44.18819,25.75194 14.14206,23.25348 42.23645,37.94956 73.27619,35.38521 32.39907,-2.67662 58.54346,-23.36502 67.70951,-50.27496 21.22066,9.14936 48.43645,13.56445 77.73584,11.1439 63.53991,-5.24932 112.55869,-40.44604 109.40908,-78.56997 -2.52574,-30.57268 -37.85713,-53.75104 -84.51312,-59.04041 -0.008,-0.15596 0.0187,-0.31067 0.006,-0.46684 -1.32719,-16.06479 -26.73568,-27.08272 -56.70733,-24.60663 -1.95628,0.16163 -3.79319,0.51523 -5.68721,0.78075 -13.59256,-21.18367 -55.53488,-34.20823 -103.89475,-30.213 z"
           id="path11082"
           style="opacity:0.65397925;fill:url(#linearGradient2687);fill-opacity:1;fill-rule:nonzero;stroke:#000000;stroke-width:5.09970617;stroke-linecap:round;stroke-linejoin:round;stroke-miterlimit:4;stroke-opacity:0.27675273;stroke-dasharray:none;stroke-dashoffset:0"
           inkscape:connector-curvature="0" />
        <path
           d="m 377.65631,479.26559 c -46.56147,3.89041 -84.53306,22.80611 -95.15478,45.19722 -6.37663,-2.77127 -13.24864,-4.02822 -20.30736,-3.43843 -10.42748,0.87127 -19.79282,5.65557 -27.3006,13.12448 -3.18788,-0.54069 -6.47226,-0.73752 -9.84345,-0.45584 -21.64619,1.80864 -37.7833,20.84943 -36.01445,42.5038 1.50518,18.42635 15.5033,32.77703 32.97628,35.54923 7.19324,18.00183 20.66382,31.27802 36.39584,35.52798 0.0105,0.27235 -0.0211,0.54221 0.001,0.81535 1.23184,15.08011 20.22266,25.85714 43.36097,25.55722 13.87731,23.07766 41.44576,37.66262 71.90442,35.11766 31.79255,-2.65639 57.44751,-23.18836 66.44196,-49.89482 20.8234,9.08018 47.5297,13.46188 76.2806,11.05963 62.35041,-5.20962 110.45155,-40.14021 107.3609,-77.97588 -2.47846,-30.34151 -37.14843,-53.34463 -82.93101,-58.594 -0.008,-0.15478 0.0184,-0.30832 0.006,-0.4633 -1.30234,-15.94333 -26.23517,-26.87796 -55.64574,-24.42059 -1.91966,0.1604 -3.72219,0.51134 -5.58075,0.77485 -13.3381,-21.02351 -54.49523,-33.94959 -101.94979,-29.98456 z"
           id="path11084"
           style="fill:#ffffff;fill-opacity:1;fill-rule:nonzero;stroke:url(#radialGradient2689);stroke-width:15;stroke-linecap:round;stroke-linejoin:round;stroke-miterlimit:4;stroke-opacity:0.27675273;stroke-dasharray:none;stroke-dashoffset:0"
           inkscape:connector-curvature="0" />
      </g>
    </g>
    <path
       style="font-size:43.7489624px;font-style:normal;font-variant:normal;font-weight:bold;font-stretch:normal;text-align:start;line-height:125%;writing-mode:lr-tb;text-anchor:start;fill:#275400;fill-opacity:1;stroke:none;font-family:Andy MT"
       d="m 225.79029,611.94719 -3.66505,0.25959 -0.95854,-13.23103 11.59178,-0.82101 c 1.76332,1.91673 3.12986,3.92578 4.09961,6.02715 0.96976,2.10143 1.53513,4.28857 1.69611,6.56145 0.21733,3.06843 -0.24222,5.90281 -1.37865,8.50316 -1.13644,2.60036 -2.90237,4.62783 -5.2978,6.08241 -2.39542,1.45458 -5.12734,2.29053 -8.19577,2.50786 -3.03997,0.21531 -5.92257,-0.21941 -8.64778,-1.30417 -2.72516,-1.08476 -4.81152,-2.77513 -6.25909,-5.07113 -1.44751,-2.29598 -2.28145,-4.99948 -2.50183,-8.11053 -0.15994,-2.25867 0.0612,-4.32663 0.66348,-6.2039 0.60233,-1.8772 1.52022,-3.38061 2.75365,-4.51021 1.2335,-1.12955 2.88233,-2.0387 4.9465,-2.72745 l 1.28692,3.65654 c -1.5578,0.58149 -2.76664,1.25246 -3.62653,2.0129 -0.85983,0.7605 -1.51743,1.80645 -1.97281,3.13788 -0.45533,1.33147 -0.62718,2.7856 -0.51552,4.3624 0.13384,1.88936 0.53722,3.50263 1.21011,4.83981 0.67295,1.33721 1.50813,2.39522 2.50554,3.17404 0.99746,0.77883 2.0739,1.3629 3.22932,1.75219 1.98833,0.65868 4.11183,0.90804 6.3705,0.74805 2.78432,-0.19719 5.08007,-0.84164 6.88729,-1.93334 1.80724,-1.09168 3.10053,-2.58598 3.87988,-4.4829 0.77938,-1.89691 1.09611,-3.87528 0.95022,-5.93511 -0.12677,-1.78988 -0.59501,-3.51277 -1.40473,-5.16867 -0.8097,-1.65585 -1.63639,-2.89649 -2.48009,-3.72193 l -5.8172,0.41202 0.65048,9.18393 z m 10.888,-20.13061 -31.23815,2.21251 -0.30033,-4.24038 23.36389,-18.14458 -24.52599,1.73711 -0.28071,-3.96336 31.23814,-2.21252 0.30033,4.24037 -23.38519,18.1461 24.54729,-1.73862 0.28072,3.96337 z m -17.36183,-29.24429 c -5.18503,0.36724 -9.34288,-0.73741 -12.47357,-3.31394 -3.13063,-2.57652 -4.85191,-6.06665 -5.16385,-10.47041 -0.20422,-2.88371 0.30063,-5.53214 1.51454,-7.94527 1.21398,-2.41308 3.01027,-4.31421 5.38889,-5.70338 2.37867,-1.38912 5.13061,-2.19436 8.25581,-2.41575 3.16787,-0.22434 6.04717,0.21419 8.6379,1.31558 2.59075,1.10145 4.61193,2.77859 6.06354,5.03143 1.45162,2.2529 2.27352,4.73597 2.46569,7.44922 0.20827,2.94058 -0.31587,5.61892 -1.57243,8.03504 -1.25655,2.41613 -3.07135,4.30786 -5.44442,5.67519 -2.37304,1.36734 -4.93041,2.1481 -7.6721,2.34229 l 0,0 z m -0.23792,-4.26621 c 3.7645,-0.26663 6.65823,-1.48881 8.6812,-3.66655 2.02299,-2.17773 2.92631,-4.7937 2.70999,-7.84792 -0.22034,-3.11101 -1.49553,-5.5941 -3.82557,-7.44926 -2.33003,-1.85512 -5.50514,-2.64033 -9.52534,-2.35562 -2.54278,0.18013 -4.73197,0.76706 -6.56757,1.76079 -1.83554,0.99379 -3.21679,2.35512 -4.14371,4.084 -0.92686,1.72892 -1.31737,3.62329 -1.1715,5.68308 0.20728,2.92637 1.39068,5.37312 3.55015,7.34028 2.15953,1.96716 5.59031,2.78423 10.29235,2.4512 l 0,0 z m 12.96946,-31.86373 -31.23814,2.21251 -0.44069,-6.22205 21.59444,-8.9606 c 2.01152,-0.82774 3.51762,-1.4341 4.51828,-1.81908 -1.1616,-0.27463 -2.86999,-0.71043 -5.1252,-1.30739 l -22.26432,-5.93985 -0.39391,-5.5615 31.23814,-2.21251 0.28223,3.98467 -26.14543,1.85181 26.78836,7.22558 0.26411,3.72896 -25.95299,10.91829 26.5929,-1.88351 0.28222,3.98467 z m -2.59284,-36.60786 -31.23814,2.21251 -1.59977,-22.58692 3.68635,-0.2611 1.30699,18.45309 9.56748,-0.67764 -1.22398,-17.28112 3.66505,-0.25959 1.22398,17.28113 10.6329,-0.7531 -1.3583,-19.17758 3.68636,-0.26109 1.65108,23.31141 z m -7.91971,-59.509 3.68635,-0.2611 1.46244,20.64785 c -0.92136,0.0938 -1.81977,0.008 -2.69525,-0.25882 -1.44358,-0.426 -2.88824,-1.16958 -4.33399,-2.23075 -1.44572,-1.06116 -3.14101,-2.62219 -5.08589,-4.68308 -3.02475,-3.19793 -5.39266,-5.33593 -7.10373,-6.41402 -1.71104,-1.07804 -3.29106,-1.56576 -4.74005,-1.46316 -1.51998,0.10768 -2.76354,0.74185 -3.73072,1.90251 -0.96711,1.1607 -1.3888,2.61469 -1.26508,4.36196 0.13083,1.84674 0.78949,3.28488 1.97598,4.31443 1.18654,1.02956 2.76049,1.48202 4.72185,1.35738 l -0.12566,3.97073 c -2.95965,-0.0616 -5.27252,-0.91862 -6.93862,-2.57095 -1.66604,-1.65232 -2.60422,-3.96297 -2.81454,-6.93195 -0.21226,-2.99737 0.45074,-5.42856 1.98901,-7.29359 1.53833,-1.86498 3.53626,-2.88453 5.9938,-3.05861 1.25012,-0.0885 2.49701,0.0802 3.7407,0.50602 1.24371,0.42589 2.57523,1.18462 3.99456,2.2762 1.41935,1.09161 3.39148,2.93284 5.91637,5.5237 2.09497,2.16448 3.51007,3.54905 4.24532,4.1537 0.73527,0.60467 1.46602,1.09543 2.19228,1.47229 l -1.08513,-15.32074 z m 3.24113,-6.54708 -4.36822,0.30939 -0.30939,-4.36823 4.36822,-0.30939 0.30939,4.36823 z m -1.72805,-24.39815 0.27166,3.83551 -24.44076,1.73107 c 0.94617,0.861 1.9127,2.00964 2.89957,3.44595 0.98691,1.43631 1.74281,2.73551 2.26768,3.89759 l -3.70767,0.2626 c -1.1605,-2.07361 -2.51499,-3.86221 -4.06349,-5.36584 -1.54842,-1.5036 -3.02106,-2.54144 -4.41792,-3.11353 l -0.17507,-2.47178 31.366,-2.22157 z m -5.81134,-29.74116 3.68636,-0.26109 1.46243,20.64785 c -0.92136,0.0938 -1.81977,0.008 -2.69525,-0.25882 -1.44358,-0.426 -2.88824,-1.16958 -4.33398,-2.23075 -1.44573,-1.06116 -3.14102,-2.62219 -5.0859,-4.68308 -3.02475,-3.19793 -5.39266,-5.33593 -7.10373,-6.41402 -1.71104,-1.07805 -3.29105,-1.56577 -4.74005,-1.46316 -1.51998,0.10768 -2.76354,0.74185 -3.73072,1.90251 -0.96711,1.1607 -1.3888,2.61469 -1.26507,4.36196 0.13083,1.84674 0.78948,3.28488 1.97597,4.31443 1.18654,1.02956 2.76049,1.48202 4.72185,1.35738 l -0.12566,3.97073 c -2.95965,-0.0616 -5.27252,-0.91862 -6.93862,-2.57095 -1.66604,-1.65232 -2.60422,-3.96297 -2.81454,-6.93195 -0.21226,-2.99736 0.45074,-5.42856 1.98901,-7.29359 1.53833,-1.86498 3.53626,-2.88453 5.9938,-3.05861 1.25012,-0.0885 2.49702,0.0802 3.7407,0.50601 1.24371,0.4259 2.57523,1.18463 3.99456,2.27621 1.41935,1.09161 3.39148,2.93283 5.91637,5.5237 2.09497,2.16448 3.51008,3.54905 4.24532,4.1537 0.73527,0.60467 1.46602,1.09543 2.19228,1.47229 l -1.08513,-15.32075 z"
       id="text11086"
       inkscape:connector-curvature="0" />
    <rect
       height="105.78374"
       id="rect9997"
       style="opacity:0.2318339;fill:url(#linearGradient2784);fill-opacity:1;fill-rule:nonzero;stroke:none"
       width="119.58164"
       x="391.5643"
       y="545.94958"
       transform="matrix(0.9978645,-0.06531723,0.06531723,0.9978645,0,0)" />
    <g
       id="g35067"
       style="opacity:0.59999976;stroke:#cccccc;stroke-opacity:1"
       transform="matrix(0.9803724,-0.1971543,0.1971543,0.9803724,-405.11476,428.28486)">
      <path
         d="m 657.05889,467.77624 c 28.87777,8.00078 43.67044,19.43744 124.74958,-0.0227 76.91182,-18.4599 93.56175,-11.02657 124.74958,-0.0227 0,0 0,0 0,0 0,0 0,0 0,0 0.002,0.16683 0.004,0.33367 0.005,0.5005 0.002,0.16683 0.004,0.33367 0.005,0.5005"
         id="path35058"
         sodipodi:nodetypes="cscscsc"
         style="fill:none;stroke:#cccccc;stroke-width:5.3708396;stroke-linecap:round;stroke-linejoin:miter;stroke-miterlimit:4;stroke-opacity:1;stroke-dasharray:none;stroke-dashoffset:0"
         inkscape:connector-curvature="0" />
      <path
         d="m 657.05889,440.7481 c 28.87777,8.00078 43.67044,19.43744 124.74958,-0.0227 76.91182,-18.4599 93.56175,-11.02657 124.74958,-0.0227 0,0 0,0 0,0 0,0 0,0 0,0 0.002,0.16683 0.004,0.33367 0.005,0.5005 0.002,0.16683 0.004,0.33367 0.005,0.5005"
         id="path35061"
         sodipodi:nodetypes="cscscsc"
         style="fill:none;stroke:#cccccc;stroke-width:5.3708396;stroke-linecap:round;stroke-linejoin:miter;stroke-miterlimit:4;stroke-opacity:1;stroke-dasharray:none"
         inkscape:connector-curvature="0" />
      <path
         d="m 655.05681,409.71579 c 28.87777,8.00078 43.67044,19.43744 124.74958,-0.0227 76.91182,-18.4599 93.56175,-11.02657 124.74958,-0.0227 0,0 0,0 0,0 0,0 0,0 0,0 0.002,0.16683 0.004,0.33367 0.005,0.5005 0.002,0.16683 0.004,0.33367 0.005,0.5005"
         id="path35063"
         sodipodi:nodetypes="cscscsc"
         style="fill:none;stroke:#cccccc;stroke-width:5.3708396;stroke-linecap:round;stroke-linejoin:miter;stroke-miterlimit:4;stroke-opacity:1;stroke-dasharray:none"
         inkscape:connector-curvature="0" />
      <path
         d="m 652.05368,377.68244 c 28.87777,8.00078 43.67044,19.43744 124.74958,-0.0227 76.91182,-18.4599 93.56175,-11.02657 124.74958,-0.0227 0,0 0,0 0,0 0,0 0,0 0,0 0.002,0.16683 0.004,0.33367 0.005,0.5005 0.002,0.16683 0.004,0.33367 0.005,0.5005"
         id="path35065"
         sodipodi:nodetypes="cscscsc"
         style="fill:none;stroke:#cccccc;stroke-width:5.3708396;stroke-linecap:round;stroke-linejoin:miter;stroke-miterlimit:4;stroke-opacity:1;stroke-dasharray:none"
         inkscape:connector-curvature="0" />
    </g>
    <path
       transform="matrix(1.1698139,-0.07657252,0.07352129,1.1231996,569.48283,97.153335)"
       style="opacity:0.43944636;fill:none;stroke:#4c4c4c;stroke-width:2.61983442;stroke-linecap:round;stroke-linejoin:round;stroke-miterlimit:4;stroke-opacity:1;stroke-dasharray:none;stroke-dashoffset:0"
       sodipodi:type="arc"
       sodipodi:ry="101.10526"
       sodipodi:rx="97.101089"
       sodipodi:cy="465.75146"
       sodipodi:cx="-51.05315"
       id="path14444"
       d="m 46.047939,465.75146 c 0,55.8389 -43.4736383,101.10527 -97.101089,101.10527 -53.62745,0 -97.10109,-45.26637 -97.10109,-101.10527 0,-55.83889 43.47364,-101.10526 97.10109,-101.10526 53.6274507,0 97.101089,45.26637 97.101089,101.10526 z" />
    <path
       transform="matrix(1.0712471,-0.07012063,0.06732651,1.0285607,567.33593,141.56093)"
       style="opacity:0.43944636;fill:none;stroke:#4c4c4c;stroke-width:2.86088848;stroke-linecap:round;stroke-linejoin:round;stroke-miterlimit:4;stroke-opacity:1;stroke-dasharray:none;stroke-dashoffset:0"
       sodipodi:type="arc"
       sodipodi:ry="101.10526"
       sodipodi:rx="97.101089"
       sodipodi:cy="465.75146"
       sodipodi:cx="-51.05315"
       id="path14446"
       d="m 46.047939,465.75146 c 0,55.8389 -43.4736383,101.10527 -97.101089,101.10527 -53.62745,0 -97.10109,-45.26637 -97.10109,-101.10527 0,-55.83889 43.47364,-101.10526 97.10109,-101.10526 53.6274507,0 97.101089,45.26637 97.101089,101.10526 z" />
    <path
       transform="matrix(0.713834,-0.04672544,0.04486353,0.6853892,559.55104,302.58799)"
       style="opacity:0.43944636;fill:none;stroke:#4c4c4c;stroke-width:4.29332209;stroke-linecap:round;stroke-linejoin:round;stroke-miterlimit:4;stroke-opacity:1;stroke-dasharray:none;stroke-dashoffset:0"
       sodipodi:type="arc"
       sodipodi:ry="101.10526"
       sodipodi:rx="97.101089"
       sodipodi:cy="465.75146"
       sodipodi:cx="-51.05315"
       id="path14448"
       d="m 46.047939,465.75146 c 0,55.8389 -43.4736383,101.10527 -97.101089,101.10527 -53.62745,0 -97.10109,-45.26637 -97.10109,-101.10527 0,-55.83889 43.47364,-101.10526 97.10109,-101.10526 53.6274507,0 97.101089,45.26637 97.101089,101.10526 z" />
    <path
       style="font-size:16px;font-style:normal;font-variant:normal;font-weight:normal;font-stretch:normal;text-align:start;line-height:125%;writing-mode:lr-tb;text-anchor:start;opacity:0.43944636;fill:#4c4c4c;fill-opacity:1;stroke:#4c4c4c;stroke-width:1.20378554px;stroke-linecap:butt;stroke-linejoin:miter;stroke-opacity:1;font-family:Arial"
       d="m 638.5343,613.80375 1.93592,-0.20497 0.17825,1.6834 -1.93593,0.20499 -0.17824,-1.68342 z m -11.77454,1.24673 9.93214,-1.05165 0.17824,1.68342 -9.93214,1.05164 -0.17824,-1.68341 z m 0.48217,4.25846 9.98634,-0.16258 0.0248,1.52334 -1.4199,0.0231 c 1.10898,0.71558 1.67475,1.76609 1.69732,3.15152 0.01,0.60181 -0.0893,1.1568 -0.29739,1.66497 -0.20807,0.50816 -0.48559,0.89047 -0.83256,1.14695 -0.34698,0.25647 -0.761,0.43878 -1.24206,0.54696 -0.31244,0.0678 -0.86046,0.10805 -1.64406,0.12083 l -6.14037,0.1 -0.0276,-1.6926 6.07456,-0.0989 c 0.68957,-0.0112 1.20411,-0.0855 1.54363,-0.22266 0.3395,-0.13722 0.6084,-0.37518 0.80668,-0.71386 0.19827,-0.33872 0.29373,-0.73374 0.2864,-1.18509 -0.0118,-0.72094 -0.25069,-1.3394 -0.71684,-1.85539 -0.46616,-0.51601 -1.33865,-0.7636 -2.6175,-0.74278 l -5.45393,0.0888 -0.0276,-1.6926 z m -0.0139,10.73358 13.70985,1.45765 -0.17898,1.68334 -7.81816,-0.83124 3.61644,4.41343 -0.23168,2.17899 -3.28095,-4.18862 -6.69149,3.5161 0.22073,-2.07612 5.42707,-2.74259 -1.01466,-1.309 -3.93713,-0.41861 0.17896,-1.68333 z m 1.89286,9.5496 -0.1118,1.6909 c -0.6751,-0.056 -1.23424,0.0861 -1.67742,0.42634 -0.44318,0.34023 -0.74969,0.88647 -0.91951,1.63871 -0.17122,0.75836 -0.14383,1.35587 0.0822,1.79255 0.226,0.43667 0.54694,0.70195 0.96281,0.79584 0.37306,0.0842 0.7032,-0.0116 0.99044,-0.28736 0.19787,-0.19316 0.51142,-0.7137 0.94068,-1.56163 0.57918,-1.14189 1.03319,-1.92157 1.36205,-2.33902 0.32886,-0.41747 0.71778,-0.70245 1.1668,-0.85496 0.449,-0.15252 0.91202,-0.17493 1.38905,-0.0672 0.43422,0.098 0.8139,0.2882 1.13903,0.5705 0.32512,0.28229 0.57134,0.6223 0.73866,1.02002 0.13159,0.29966 0.21309,0.68603 0.24448,1.15912 0.0314,0.47307 -0.0102,0.96342 -0.12483,1.47104 -0.1726,0.76446 -0.43423,1.41082 -0.78486,1.93906 -0.35066,0.52823 -0.74511,0.88749 -1.18336,1.07779 -0.43826,0.19029 -0.98409,0.26631 -1.63748,0.22807 l 0.14434,-1.66427 c 0.51807,0.0398 0.95746,-0.0843 1.31818,-0.37247 0.36071,-0.28815 0.61357,-0.7533 0.75856,-1.39546 0.17119,-0.75835 0.16801,-1.32791 -0.01,-1.70866 -0.17757,-0.38074 -0.43454,-0.60909 -0.77091,-0.68503 -0.21406,-0.0483 -0.42189,-0.0245 -0.62351,0.0714 -0.20773,0.0945 -0.40215,0.27236 -0.58323,0.53357 -0.0985,0.15131 -0.34889,0.60576 -0.75131,1.36334 -0.57563,1.09769 -1.01495,1.85497 -1.31795,2.27184 -0.30301,0.41686 -0.6738,0.71399 -1.11234,0.89137 -0.43856,0.17736 -0.93916,0.20253 -1.5018,0.0755 -0.55044,-0.12427 -1.0325,-0.40183 -1.44622,-0.83268 -0.4137,-0.43085 -0.68524,-0.97904 -0.81458,-1.64456 -0.12934,-0.66552 -0.10772,-1.38053 0.0649,-2.14499 0.28581,-1.26597 0.76661,-2.17136 1.44237,-2.71618 0.67577,-0.54482 1.55115,-0.79229 2.62614,-0.74242 l 0,0 z m -4.03181,16.72906 -0.7559,1.49879 c -1.02221,-0.55191 -1.71523,-1.28885 -2.07909,-2.21082 -0.36385,-0.92198 -0.36496,-1.8976 -0.003,-2.92684 0.45309,-1.28951 1.23879,-2.17807 2.3571,-2.66565 1.1183,-0.48759 2.46417,-0.45495 4.03761,0.0979 1.01742,0.35748 1.84842,0.83886 2.49301,1.44414 0.64459,0.60529 1.03659,1.31952 1.17599,2.1427 0.13937,0.82317 0.0667,1.63995 -0.21802,2.45033 -0.35958,1.02332 -0.91246,1.7694 -1.65866,2.23821 -0.74621,0.46881 -1.6277,0.62759 -2.64448,0.47635 l 0.30602,-1.63692 c 0.68489,0.0745 1.25302,-0.0199 1.70443,-0.28331 0.45139,-0.26338 0.77062,-0.66127 0.95768,-1.19362 0.28267,-0.80447 0.22396,-1.55942 -0.1761,-2.26486 -0.40008,-0.70544 -1.22416,-1.27743 -2.47226,-1.71597 -1.26585,-0.44479 -2.27088,-0.52546 -3.01508,-0.24201 -0.74421,0.28344 -1.25348,0.81555 -1.52784,1.59637 -0.2203,0.62701 -0.212,1.21804 0.0249,1.77313 0.23693,0.55506 0.73492,1.02909 1.49399,1.42207 l 0,0 z m -6.38827,8.07573 c -0.19945,-0.79833 -0.26887,-1.50605 -0.20824,-2.12315 0.0606,-0.6171 0.23836,-1.22346 0.5332,-1.81906 0.48677,-0.98332 1.10109,-1.62017 1.84297,-1.91052 0.74188,-0.29036 1.48649,-0.25057 2.23381,0.11936 0.43827,0.21697 0.78924,0.51489 1.05293,0.89377 0.26367,0.37887 0.42511,0.7841 0.48432,1.21566 0.0592,0.43158 0.0448,0.87746 -0.043,1.33765 -0.0688,0.33674 -0.21542,0.82381 -0.44,1.4612 -0.46027,1.29724 -0.73252,2.28531 -0.81673,2.9642 0.20512,0.10853 0.33576,0.1767 0.39196,0.20453 0.61808,0.30595 1.12447,0.37824 1.51919,0.21686 0.53468,-0.21805 0.99116,-0.70916 1.36944,-1.47333 0.35325,-0.71361 0.489,-1.30227 0.40725,-1.76599 -0.0818,-0.46373 -0.39979,-0.93422 -0.95406,-1.41148 l 0.9366,-1.38326 c 0.56818,0.44916 0.97104,0.92492 1.20858,1.42728 0.23752,0.50236 0.31701,1.09788 0.23845,1.78656 -0.0786,0.68866 -0.3084,1.4179 -0.68945,2.18771 -0.3783,0.76416 -0.77556,1.34055 -1.19179,1.72916 -0.41623,0.38859 -0.81624,0.62782 -1.20002,0.71769 -0.38378,0.0898 -0.80582,0.0768 -1.26613,-0.0391 -0.28351,-0.0774 -0.76239,-0.28297 -1.43666,-0.61674 l -2.02282,-1.00134 c -1.41036,-0.69818 -2.31836,-1.10743 -2.724,-1.22777 -0.40565,-0.12036 -0.82714,-0.16986 -1.26447,-0.14848 l 0.78439,-1.58454 c 0.39255,-0.002 0.81066,0.0795 1.25432,0.24315 l 0,0 z m 3.45081,1.55082 c 0.0478,-0.66192 0.26567,-1.58247 0.65351,-2.76166 0.21885,-0.66822 0.33606,-1.15937 0.35163,-1.47347 0.0156,-0.31411 -0.05,-0.59494 -0.19683,-0.84249 -0.1468,-0.24756 -0.35223,-0.43671 -0.61632,-0.56745 -0.40457,-0.20026 -0.8175,-0.21405 -1.2388,-0.0413 -0.4213,0.17272 -0.77798,0.55408 -1.07004,1.14407 -0.28927,0.58437 -0.41873,1.16739 -0.38838,1.74909 0.0304,0.58169 0.21463,1.08916 0.55284,1.52244 0.26209,0.3326 0.72746,0.66441 1.39611,0.99542 l 0.55628,0.27537 z m -9.75438,-0.51958 11.50037,7.65537 -0.85464,1.28391 -1.08036,-0.71916 c 0.22124,0.58412 0.31074,1.13702 0.2685,1.65874 -0.0422,0.52169 -0.24403,1.05394 -0.60533,1.59673 -0.47249,0.7098 -1.07207,1.2145 -1.79872,1.5141 -0.72665,0.29959 -1.51476,0.36621 -2.36434,0.19989 -0.84957,-0.16636 -1.67101,-0.51358 -2.46432,-1.04165 -0.85072,-0.5663 -1.515,-1.22879 -1.99286,-1.98747 -0.47786,-0.75872 -0.70446,-1.54976 -0.67983,-2.37315 0.0246,-0.82339 0.25064,-1.55606 0.67795,-2.19801 0.31268,-0.46973 0.69239,-0.82516 1.13911,-1.06631 0.44673,-0.24115 0.90136,-0.38102 1.36389,-0.41959 l -4.04745,-2.69422 0.93803,-1.40918 z m 6.44692,6.13299 c -1.06992,-0.71221 -2.0048,-1.02196 -2.80463,-0.92922 -0.79984,0.0927 -1.40473,0.44699 -1.81468,1.06285 -0.4169,0.6263 -0.509,1.33888 -0.27631,2.13775 0.2327,0.79886 0.9049,1.56828 2.01656,2.3083 1.05948,0.70525 1.99784,1.01543 2.81507,0.93054 0.81723,-0.0849 1.42734,-0.43008 1.83035,-1.03549 0.39952,-0.60021 0.4725,-1.31799 0.21891,-2.15336 -0.25359,-0.83537 -0.91535,-1.60916 -1.98527,-2.32137 l 0,0 z m -11.39036,12.09838 -1.30978,1.17947 c -0.59109,-0.87814 -0.85527,-1.78387 -0.79251,-2.7172 0.0628,-0.93335 0.47423,-1.83807 1.23439,-2.71413 0.95741,-1.1034 2.05631,-1.68347 3.29674,-1.74024 1.24043,-0.0568 2.4739,0.44696 3.70042,1.51119 1.26913,1.1012 1.97061,2.28262 2.10443,3.54426 0.13382,1.26164 -0.25125,2.41337 -1.15522,3.4552 -0.87522,1.00867 -1.9335,1.53475 -3.17487,1.57826 -1.24137,0.0435 -2.48479,-0.47508 -3.73025,-1.55573 -0.0758,-0.0658 -0.18737,-0.16675 -0.3348,-0.30296 l 4.88148,-5.62585 c -0.86982,-0.67172 -1.70778,-0.98791 -2.51389,-0.94859 -0.8061,0.0393 -1.48241,0.37391 -2.02891,1.00375 -0.40677,0.46881 -0.63085,0.97581 -0.67224,1.52097 -0.0414,0.54515 0.12363,1.14901 0.49501,1.8116 l 0,0 z m 5.70969,-2.40451 -3.65494,4.2123 c 0.68388,0.49376 1.29951,0.74569 1.84689,0.75581 0.84588,0.0201 1.55028,-0.29427 2.1132,-0.94303 0.50951,-0.58723 0.74135,-1.25143 0.6955,-1.99262 -0.0458,-0.74122 -0.3794,-1.4187 -1.00065,-2.03246 l 0,0 z m -16.92637,8.46073 9.1872,5.45753 -1.39918,1.11138 -5.39926,-3.3499 c -0.58331,-0.36139 -1.16749,-0.75411 -1.75254,-1.17816 0.20974,0.50597 0.43914,1.13247 0.68819,1.87946 l 2.05249,6.15242 -1.36236,1.08214 -3.25171,-10.17217 1.23717,-0.9827 z m -9.60029,10.48519 -1.60488,0.72872 c -0.29823,-1.01567 -0.27645,-1.95889 0.0653,-2.82966 0.34178,-0.87079 1.00731,-1.60894 1.9966,-2.21448 1.24596,-0.76263 2.46876,-0.98366 3.6684,-0.66307 1.19962,0.32058 2.22331,1.17337 3.07106,2.55839 0.87719,1.43312 1.18903,2.77125 0.93549,4.01438 -0.25352,1.24312 -0.96852,2.22473 -2.14497,2.94482 -1.13902,0.69717 -2.30679,0.879 -3.50332,0.54549 -1.19651,-0.33352 -2.22518,-1.20348 -3.08603,-2.60987 -0.0524,-0.0856 -0.12824,-0.21554 -0.22764,-0.38993 l 6.35285,-3.88848 c -0.62627,-0.90308 -1.32958,-1.45763 -2.10991,-1.66364 -0.78032,-0.20601 -1.52609,-0.0914 -2.23733,0.34398 -0.52939,0.32403 -0.89615,0.73965 -1.10028,1.24685 -0.20412,0.50718 -0.22923,1.13268 -0.0754,1.8765 l 0,0 z m 6.1693,-0.56744 -4.75662,2.91145 c 0.50278,0.67729 1.01354,1.10342 1.53229,1.27842 0.80029,0.27464 1.56675,0.18775 2.29936,-0.26065 0.66309,-0.40588 1.08474,-0.96902 1.26493,-1.68944 0.1802,-0.72043 0.0669,-1.46703 -0.33996,-2.23978 l 0,0 z m -11.26628,-0.36464 4.30828,9.01066 -1.37451,0.6572 -0.65313,-1.36602 c -0.0451,0.80684 -0.16744,1.38307 -0.36704,1.72871 -0.19959,0.3456 -0.47757,0.6036 -0.83393,0.774 -0.51473,0.24609 -1.11638,0.33222 -1.80494,0.25838 l -0.15144,-1.66845 c 0.4788,0.0421 0.90486,-0.0261 1.27819,-0.20459 0.33373,-0.15957 0.58552,-0.40331 0.75536,-0.73122 0.16984,-0.32792 0.22612,-0.69709 0.16887,-1.10754 -0.0899,-0.62415 -0.28907,-1.25864 -0.59738,-1.90346 l -2.25557,-4.71745 1.52724,-0.73022 z m -4.18741,5.31285 -1.48286,0.82023 c -0.31792,-0.59818 -0.7398,-0.9917 -1.26564,-1.18054 -0.52583,-0.18885 -1.15105,-0.15133 -1.87568,0.11255 -0.73052,0.26601 -1.21835,0.61214 -1.46348,1.03837 -0.24514,0.42622 -0.29477,0.83963 -0.14888,1.24025 0.13087,0.35936 0.38996,0.58529 0.77727,0.67778 0.26947,0.062 0.8769,0.0443 1.82229,-0.0531 1.27374,-0.13022 2.17509,-0.16987 2.70409,-0.11895 0.52898,0.0509 0.97901,0.224 1.35009,0.51925 0.37108,0.29524 0.64028,0.67261 0.80762,1.13214 0.15231,0.41827 0.19763,0.84048 0.13597,1.26664 -0.0617,0.42613 -0.21457,0.81709 -0.45866,1.17289 -0.18093,0.27273 -0.46189,0.55019 -0.84288,0.83241 -0.38099,0.28218 -0.81597,0.51231 -1.30495,0.69038 -0.7364,0.26816 -1.42159,0.39756 -2.05554,0.38822 -0.63395,-0.009 -1.14945,-0.14692 -1.5465,-0.41269 -0.39704,-0.26578 -0.75613,-0.68383 -1.07724,-1.25414 l 1.47806,-0.77846 c 0.24661,0.45733 0.58862,0.75982 1.02605,0.90747 0.43744,0.14763 0.96545,0.10882 1.58403,-0.11642 0.73052,-0.26604 1.20791,-0.57667 1.43219,-0.9319 0.22428,-0.35525 0.27742,-0.69488 0.15943,-1.0189 -0.0751,-0.2062 -0.20747,-0.36817 -0.39715,-0.48592 -0.19182,-0.12366 -0.44655,-0.19104 -0.7642,-0.20213 -0.18052,-10e-4 -0.69822,0.0341 -1.5531,0.10516 -1.23464,0.10929 -2.10921,0.14921 -2.62373,0.11972 -0.5145,-0.0295 -0.96493,-0.18075 -1.35127,-0.45376 -0.38633,-0.27301 -0.67818,-0.68051 -0.87556,-1.22251 -0.19306,-0.53021 -0.22024,-1.08581 -0.0815,-1.66679 0.13875,-0.58099 0.45307,-1.10581 0.94297,-1.57446 0.48992,-0.46867 1.10308,-0.83708 1.83949,-1.10524 1.21949,-0.44408 2.24109,-0.52918 3.06478,-0.2553 0.82371,0.27387 1.5052,0.87645 2.0445,1.80771 l 0,0 z m -7.67599,11.9465 0.51106,1.87846 -1.63344,0.4444 -0.51106,-1.87846 1.63344,-0.4444 z m -3.10832,-11.42508 2.62195,9.63736 -1.63344,0.44439 -2.62196,-9.63735 1.63345,-0.4444 z m -2.63081,5.95859 c 0.32454,1.82087 0.0588,3.25976 -0.79728,4.31668 -0.71581,0.87905 -1.6817,1.42695 -2.89766,1.64369 -1.35176,0.24092 -2.53557,-0.005 -3.55142,-0.73784 -1.01583,-0.73284 -1.66292,-1.88007 -1.94126,-3.44169 -0.22552,-1.26535 -0.21311,-2.29448 0.0372,-3.0874 0.25034,-0.79292 0.70238,-1.45462 1.35613,-1.9851 0.65376,-0.53047 1.40961,-0.87217 2.26758,-1.02509 1.37646,-0.24533 2.5677,-0.002 3.57373,0.72909 1.00604,0.73138 1.65701,1.92727 1.95296,3.58766 l 0,0 z m -1.71286,0.3053 c -0.22442,-1.25918 -0.66715,-2.15307 -1.32816,-2.68165 -0.66101,-0.5286 -1.40815,-0.71864 -2.24144,-0.57012 -0.82709,0.14743 -1.45922,0.58488 -1.89635,1.31239 -0.43713,0.7275 -0.54073,1.73626 -0.31081,3.02632 0.21673,1.21596 0.65714,2.08796 1.32124,2.616 0.6641,0.52803 1.40662,0.71889 2.22755,0.57259 0.83329,-0.14853 1.46904,-0.58345 1.90726,-1.30477 0.43824,-0.72134 0.54515,-1.7116 0.32071,-2.97076 l 0,0 z m -10.37169,-3.38695 0.49585,9.97534 -1.52166,0.0756 -0.0705,-1.41835 c -0.67817,1.13227 -1.70921,1.73279 -3.09312,1.80159 -0.60114,0.0299 -1.15913,-0.0507 -1.67396,-0.24165 -0.51482,-0.19099 -0.90619,-0.45558 -1.17411,-0.7938 -0.26791,-0.33824 -0.46393,-0.74594 -0.5881,-1.22312 -0.0782,-0.31 -0.13673,-0.85636 -0.17565,-1.6391 l -0.30488,-6.13362 1.69074,-0.084 0.30162,6.06787 c 0.0342,0.68881 0.12559,1.20059 0.27405,1.53533 0.14847,0.33474 0.39527,0.59554 0.7404,0.78241 0.34514,0.18686 0.74313,0.26908 1.19399,0.24667 0.72013,-0.0358 1.33028,-0.29526 1.83042,-0.77837 0.50016,-0.48312 0.71849,-1.3634 0.65499,-2.64083 l -0.27081,-5.44793 1.69074,-0.084 z m -16.56107,6.83935 c -0.23233,1.61348 -0.58529,2.88812 -1.05893,3.82393 -0.47362,0.9358 -1.07621,1.62341 -1.80777,2.06284 -0.73153,0.43941 -1.59376,0.58764 -2.58669,0.44469 -0.73226,-0.10544 -1.35333,-0.34531 -1.86321,-0.71959 -0.50985,-0.37431 -0.90477,-0.86508 -1.18474,-1.4723 -0.27995,-0.60725 -0.46491,-1.32433 -0.5549,-2.15124 -0.09,-0.82693 -0.0375,-1.91681 0.15724,-3.26965 0.23053,-1.60108 0.58107,-2.86974 1.05158,-3.806 0.47054,-0.93624 1.0718,-1.62562 1.80378,-2.06815 0.73201,-0.44253 1.59756,-0.59187 2.59667,-0.44801 1.31562,0.18943 2.28097,0.80983 2.89604,1.86122 0.73632,1.26521 0.91996,3.1793 0.55093,5.74226 l 0,0 z m -1.72209,-0.24796 c 0.32256,-2.24026 0.27505,-3.76893 -0.14256,-4.58602 -0.4176,-0.81709 -1.01116,-1.28103 -1.78068,-1.39183 -0.7695,-0.11079 -1.47006,0.1684 -2.10168,0.83758 -0.63159,0.66918 -1.10823,2.1208 -1.4299,4.35487 -0.32346,2.24646 -0.27616,3.77669 0.14189,4.59067 0.41806,0.81398 1.01804,1.27727 1.79995,1.38986 0.76952,0.11079 1.43079,-0.12655 1.98384,-0.71202 0.69686,-0.74848 1.20658,-2.24285 1.52914,-4.48311 l 0,0 z m -8.81007,-8.44062 -0.45789,1.87278 -1.87277,-0.45788 0.45788,-1.87278 1.87278,0.45788 z m -9.40956,-2.78556 -1.08936,3.11608 5.64622,1.97388 -0.51209,1.46482 -8.88759,6.35753 -1.30502,-0.45624 2.94841,-8.43382 -1.7578,-0.61451 0.51209,-1.46482 1.75779,0.61451 1.08936,-3.11607 1.59799,0.55864 z m -1.60145,4.5809 -2.05147,5.86817 6.12634,-4.44363 -4.07487,-1.42454 z m -12.05267,-8.96058 0.72892,-1.45457 8.14725,4.08286 c -0.17137,0.36996 -0.40578,0.69079 -0.70325,0.9625 -0.48548,0.45099 -1.09147,0.83107 -1.81796,1.14025 -0.72649,0.30916 -1.6983,0.6006 -2.91545,0.87427 -1.89021,0.42729 -3.23156,0.84385 -4.02404,1.2497 -0.79246,0.40584 -1.33195,0.89463 -1.61847,1.46638 -0.30055,0.59975 -0.33966,1.21307 -0.11734,1.83995 0.22236,0.62687 0.67825,1.11306 1.36769,1.45856 0.7287,0.36517 1.42118,0.43869 2.07749,0.22059 0.65631,-0.21811 1.1811,-0.71253 1.57434,-1.48323 l 1.4754,0.93924 c -0.68796,1.10691 -1.53184,1.7903 -2.53168,2.05016 -0.99982,0.25985 -2.08548,0.0962 -3.25699,-0.49083 -1.1827,-0.5927 -1.95445,-1.38972 -2.31526,-2.39102 -0.36078,-1.00134 -0.2982,-1.98684 0.18774,-2.95655 0.2472,-0.49327 0.59107,-0.92756 1.03162,-1.30288 0.44055,-0.37533 1.02688,-0.70915 1.75894,-1.00151 0.7321,-0.29234 1.87219,-0.62567 3.42028,-0.99999 1.29008,-0.30726 2.13215,-0.53221 2.52622,-0.67485 0.39408,-0.14265 0.74402,-0.30916 1.04982,-0.49955 l -6.04527,-3.02948 z m -1.61159,-2.95872 -1.02442,1.63325 -1.63325,-1.02442 1.02442,-1.63325 1.63325,1.02442 z m -11.79943,-6.42871 0.99189,-1.28967 7.22367,5.55573 c -0.23852,0.33069 -0.52959,0.60116 -0.87324,0.81143 -0.56229,0.3506 -1.22943,0.60868 -2.00141,0.77428 -0.77198,0.16558 -1.78145,0.26715 -3.02842,0.30471 -1.93696,0.0606 -3.333,0.21483 -4.18812,0.46281 -0.85512,0.24796 -1.47762,0.62542 -1.8675,1.13234 -0.40897,0.53178 -0.56385,1.1265 -0.4646,1.78419 0.0993,0.65769 0.45453,1.22161 1.06581,1.69176 0.64609,0.49689 1.31203,0.70058 1.9978,0.61108 0.6858,-0.0895 1.29491,-0.47527 1.82736,-1.15728 l 1.27019,1.20233 c -0.88563,0.95612 -1.84395,1.46682 -2.87493,1.53209 -1.03098,0.0652 -2.06581,-0.30154 -3.10452,-1.1004 -1.04862,-0.80651 -1.65499,-1.73557 -1.81908,-2.78718 -0.16406,-1.05162 0.0845,-2.00731 0.74577,-2.8671 0.33638,-0.43734 0.75647,-0.79843 1.26026,-1.08326 0.50382,-0.28483 1.14286,-0.50126 1.91713,-0.64926 0.77429,-0.148 1.95693,-0.25877 3.54793,-0.33229 1.32495,-0.0567 2.19443,-0.11763 2.60842,-0.18285 0.41399,-0.0652 0.78919,-0.16225 1.12557,-0.29109 l -5.35998,-4.12237 z m -7.10773,-3.27743 -1.24587,1.15989 -3.54378,-3.80646 1.24587,-1.15991 3.54378,3.80648 z m -11.53898,-16.17463 -0.78267,-1.57928 c 1.00499,-0.33245 1.94841,-0.34264 2.83026,-0.0306 0.88186,0.31208 1.64214,0.95222 2.28082,1.92043 0.80441,1.21943 1.06673,2.43404 0.78697,3.64384 -0.27978,1.2098 -1.0974,2.26179 -2.45291,3.15595 -1.40258,0.92524 -2.72939,1.28223 -3.98039,1.07095 -1.25099,-0.21129 -2.25625,-0.89262 -3.01579,-2.04401 -0.73535,-1.11475 -0.95663,-2.27568 -0.66385,-3.48281 0.29281,-1.20713 1.12742,-2.26468 2.50385,-3.17267 0.0838,-0.0552 0.21107,-0.13546 0.38199,-0.24072 l 4.10145,6.21749 c 0.88135,-0.6565 1.41175,-1.37818 1.59121,-2.16505 0.17946,-0.78686 0.0396,-1.52832 -0.41956,-2.22439 -0.34179,-0.51812 -0.76958,-0.87059 -1.28341,-1.05742 -0.51381,-0.18683 -1.13979,-0.19074 -1.87797,-0.0118 l 0,0 z m 0.77609,6.14653 -3.07091,-4.65525 c -0.65986,0.52542 -1.06845,1.05032 -1.22578,1.57471 -0.24737,0.80914 -0.13458,1.5722 0.33839,2.28921 0.4281,0.64895 1.00521,1.05128 1.73132,1.20698 0.72612,0.15568 1.46844,0.0171 2.22698,-0.41565 l 0,0 z m 0.3239,-10.46439 -1.22995,0.61037 -9.36335,-2.45062 c 0.35422,0.62914 0.65397,1.19082 0.89923,1.68505 l 1.81021,3.64771 -1.22994,0.61036 -3.6288,-7.31225 1.00248,-0.4975 8.08183,2.02619 1.50024,0.42088 c -0.38778,-0.65448 -0.7294,-1.27937 -1.02483,-1.87468 l -2.0527,-4.13631 1.30577,-0.64801 3.92981,7.91881 z m -9.87178,-14.86988 -0.37597,-1.72201 c 1.05562,-0.0786 1.97331,0.14048 2.75305,0.65725 0.77975,0.51678 1.36194,1.32231 1.74654,2.41657 0.48439,1.37821 0.44409,2.62017 -0.12094,3.72589 -0.56502,1.10572 -1.61352,1.92781 -3.1455,2.46627 -1.58522,0.55716 -2.95899,0.58146 -4.12132,0.0729 -1.16231,-0.50859 -1.97215,-1.41352 -2.42953,-2.71483 -0.44281,-1.25989 -0.37572,-2.43982 0.20129,-3.5398 0.57702,-1.09998 1.64336,-1.92334 3.19899,-2.47012 0.0946,-0.0333 0.23765,-0.0802 0.429,-0.14082 l 2.46982,7.02702 c 1.01433,-0.42296 1.70403,-0.99433 2.06909,-1.71412 0.36508,-0.71977 0.40936,-1.47302 0.13286,-2.2597 -0.20583,-0.58559 -0.53529,-1.03135 -0.9884,-1.3373 -0.4531,-0.30594 -1.05943,-0.46167 -1.81898,-0.46718 l 0,0 z m -0.7389,6.15111 -1.84923,-5.26139 c -0.76766,0.34957 -1.29143,0.75961 -1.57133,1.23013 -0.43636,0.72492 -0.51213,1.49254 -0.22732,2.30289 0.2578,0.73346 0.72001,1.26383 1.38662,1.59109 0.66662,0.32726 1.42038,0.37302 2.26126,0.13728 l 0,0 z m -2.30615,-16.52751 -0.14557,-1.67228 c 1.15966,-0.0684 2.13672,0.1938 2.93116,0.78649 0.79445,0.59272 1.3086,1.42185 1.54248,2.48741 0.293,1.33502 0.0922,2.50401 -0.60235,3.50697 -0.69458,1.00295 -1.85635,1.68318 -3.48533,2.04071 -1.0533,0.23117 -2.01327,0.25893 -2.87988,0.0832 -0.86659,-0.17568 -1.57569,-0.5769 -2.12727,-1.20364 -0.55157,-0.62676 -0.91943,-1.35961 -1.10357,-2.1986 -0.23252,-1.05944 -0.15478,-1.98478 0.2332,-2.77603 0.38801,-0.79123 1.05416,-1.38997 1.99843,-1.79622 l 0.60084,1.55311 c -0.62164,0.29692 -1.05515,0.6761 -1.30051,1.13754 -0.24533,0.46146 -0.30752,0.96776 -0.18656,1.51891 0.1828,0.83286 0.62986,1.44404 1.34118,1.83352 0.71134,0.38949 1.71308,0.44245 3.00523,0.15884 1.31053,-0.28763 2.2077,-0.74771 2.69151,-1.38026 0.48381,-0.63253 0.637,-1.35298 0.45958,-2.16135 -0.14246,-0.64913 -0.46044,-1.14741 -0.95393,-1.49486 -0.49349,-0.34743 -1.16636,-0.4886 -2.01864,-0.42351 l 0,0 z m 3.02358,-3.85637 -13.72404,1.31721 -0.16172,-1.68508 4.92418,-0.47261 c -0.98667,-0.69892 -1.5375,-1.64751 -1.65252,-2.8458 -0.0707,-0.73643 0.013,-1.39006 0.25111,-1.9609 0.23811,-0.57081 0.60181,-0.9978 1.0911,-1.28097 0.48931,-0.28315 1.22076,-0.47145 2.19436,-0.56491 l 6.30032,-0.60469 0.16174,1.68507 -6.30033,0.60471 c -0.84253,0.0809 -1.4382,0.32228 -1.78698,0.72421 -0.34877,0.40194 -0.49112,0.93681 -0.42704,1.60459 0.0479,0.49929 0.22251,0.9565 0.52374,1.37162 0.30123,0.41514 0.68239,0.69507 1.14347,0.83976 0.4611,0.1447 1.0817,0.17961 1.86182,0.10473 l 5.43906,-0.52203 0.16173,1.68509 z m -12.60967,-10.62256 -1.94671,0.0127 -0.011,-1.69279 1.94671,-0.0127 0.011,1.69278 z m 11.8401,-0.077 -9.98745,0.0649 -0.011,-1.6928 9.98745,-0.0649 0.011,1.69279 z m -2.69237,-11.36718 0.36174,-1.72506 c 0.99533,0.36032 1.74297,0.93579 2.24292,1.72643 0.49996,0.79064 0.70146,1.7639 0.60453,2.91972 -0.12209,1.45574 -0.66717,2.57242 -1.63525,3.35005 -0.96807,0.77763 -2.2612,1.09861 -3.87937,0.96289 -1.67441,-0.14042 -2.93778,-0.68049 -3.79016,-1.62023 -0.85236,-0.93975 -1.22091,-2.09687 -1.10564,-3.47139 0.11161,-1.33077 0.65575,-2.37989 1.6324,-3.14738 0.97667,-0.76747 2.28658,-1.0823 3.92975,-0.94451 0.1,0.008 0.24965,0.0241 0.44905,0.0471 l -0.62246,7.42238 c 1.0986,0.0292 1.96174,-0.20984 2.58941,-0.71717 0.62768,-0.50732 0.97635,-1.17646 1.04605,-2.00742 0.0519,-0.61852 -0.0663,-1.16008 -0.35451,-1.62468 -0.28821,-0.46458 -0.77768,-0.85483 -1.46846,-1.17072 l 0,0 z m -3.19165,5.30995 0.46607,-5.5574 c -0.84348,0.005 -1.4892,0.16454 -1.93715,0.4793 -0.69482,0.48282 -1.07813,1.1522 -1.14993,2.00814 -0.0649,0.77473 0.13971,1.44781 0.61398,2.01922 0.4743,0.57144 1.14331,0.92168 2.00703,1.05074 l 0,0 z m 6.97345,-8.84639 -13.57859,-2.38877 0.29331,-1.66723 13.57858,2.38878 -0.2933,1.66722 z m -0.5955,-11.71267 0.66622,-1.63182 c 0.91427,0.53353 1.54615,1.23413 1.89568,2.10182 0.34954,0.86769 0.37264,1.86131 0.0693,2.98084 -0.38202,1.41001 -1.11913,2.41039 -2.21133,3.00115 -1.09218,0.59077 -2.42196,0.67382 -3.98932,0.24917 -1.62179,-0.43939 -2.76739,-1.19798 -3.43677,-2.27575 -0.66936,-1.07777 -0.82368,-2.28231 -0.46299,-3.61367 0.34923,-1.28896 1.07324,-2.22306 2.17205,-2.8023 1.09883,-0.57921 2.44401,-0.65322 4.03556,-0.22203 0.0968,0.0263 0.24124,0.0686 0.43325,0.12713 l -1.9478,7.18924 c 1.07542,0.22641 1.96749,0.14655 2.6762,-0.23955 0.70871,-0.38611 1.1721,-0.98159 1.39016,-1.78645 0.16232,-0.5991 0.14352,-1.15308 -0.0564,-1.66195 -0.19992,-0.50885 -0.6112,-0.9808 -1.23386,-1.41583 l 0,0 z m -4.09497,4.64902 1.4584,-5.38285 c -0.83058,-0.14707 -1.49451,-0.10609 -1.99178,0.12293 -0.77036,0.34993 -1.26785,0.93942 -1.49248,1.76848 -0.2033,0.75039 -0.12308,1.44931 0.24065,2.09674 0.36374,0.64744 0.95881,1.11235 1.78521,1.3947 l 0,0 z m 12.94774,-17.79034 -0.74717,1.519 -9.67944,-4.76119 c 0.16894,0.53727 0.28184,1.18846 0.33869,1.95356 0.0569,0.76512 0.0562,1.42686 -0.002,1.98521 l -1.46837,-0.72226 c 0.0184,-1.04599 -0.1001,-2.02661 -0.35562,-2.94184 -0.25551,-0.91523 -0.58546,-1.63651 -0.98987,-2.16383 l 0.48151,-0.97891 12.42208,6.11026 z m -7.91403,-10.56847 -1.35663,-0.89814 4.92683,-7.44185 1.09784,0.72682 c 0.29441,1.24762 0.8493,2.65827 1.66468,4.23196 0.81538,1.57372 1.77552,3.00829 2.8804,4.30371 0.77503,0.91915 1.70903,1.79691 2.80202,2.6333 l -0.96045,1.45072 c -0.89403,-0.61444 -1.86897,-1.51555 -2.92482,-2.70332 -1.05586,-1.18777 -1.96819,-2.49294 -2.73702,-3.91552 -0.76881,-1.42256 -1.32391,-2.76193 -1.66529,-4.01807 l -3.72756,5.63039 z m 14.48544,-11.06877 c -1.16383,-1.1414 -1.98306,-2.17975 -2.45769,-3.11505 -0.47462,-0.93529 -0.67285,-1.82783 -0.59466,-2.67763 0.0782,-0.84978 0.46848,-1.63277 1.17089,-2.34899 0.51802,-0.52819 1.0787,-0.88722 1.68202,-1.0771 0.60335,-0.18985 1.23263,-0.21814 1.88788,-0.0849 0.65525,0.13329 1.34292,0.40814 2.06299,0.82452 0.72007,0.41641 1.56802,1.10312 2.54384,2.06013 1.15488,1.13264 1.97074,2.16548 2.44756,3.09854 0.47681,0.93307 0.67725,1.82559 0.6013,2.67756 -0.076,0.85199 -0.46732,1.63832 -1.17411,2.359 -0.93069,0.94897 -2.00182,1.36064 -3.2134,1.23497 -1.45571,-0.15431 -3.10792,-1.138 -4.95662,-2.95108 l 0,0 z m 1.21822,-1.24216 c 1.61594,1.58479 2.87684,2.45037 3.78271,2.59674 0.90587,0.14636 1.631,-0.058 2.17536,-0.61306 0.54436,-0.55505 0.73344,-1.2851 0.56724,-2.19016 -0.16619,-0.90503 -1.05503,-2.14776 -2.66648,-3.72818 -1.62042,-1.58917 -2.88244,-2.45584 -3.78608,-2.60002 -0.90362,-0.14416 -1.63201,0.0658 -2.18516,0.62976 -0.54435,0.55507 -0.74397,1.2287 -0.59883,2.02089 0.19156,1.00457 1.0953,2.29924 2.71124,3.88403 l 0,0 z m 9.44825,-4.24716 1.1849,-1.12504 c 0.58171,0.51548 1.13193,0.78839 1.65068,0.8187 0.51875,0.0303 1.01697,-0.1427 1.49471,-0.51905 0.40875,-0.32204 0.69333,-0.69787 0.8537,-1.12753 0.16037,-0.42963 0.21588,-0.87843 0.1665,-1.34636 -0.0494,-0.46793 -0.21711,-1.02022 -0.50315,-1.65689 -0.28607,-0.63665 -0.64637,-1.23077 -1.08093,-1.78238 -0.0466,-0.0591 -0.11886,-0.1458 -0.21691,-0.26013 0.0677,0.63307 -0.0249,1.26274 -0.27777,1.88899 -0.25291,0.62627 -0.64777,1.15087 -1.18459,1.57376 -0.89635,0.70617 -1.91087,0.97862 -3.04357,0.8174 -1.1327,-0.16121 -2.11807,-0.77373 -2.95614,-1.83753 -0.86523,-1.09826 -1.23786,-2.23739 -1.11791,-3.41742 0.11996,-1.17999 0.66752,-2.15411 1.64266,-2.92235 0.70428,-0.55482 1.49759,-0.87251 2.37995,-0.95308 0.88237,-0.0805 1.75145,0.11079 2.60722,0.57397 0.85577,0.4632 1.80746,1.35966 2.85504,2.68939 1.09026,1.38393 1.8082,2.60423 2.15379,3.66091 0.34558,1.05669 0.39042,2.03304 0.13452,2.92903 -0.25591,0.89601 -0.78279,1.6583 -1.58062,2.28684 -0.84711,0.66736 -1.72433,0.97732 -2.63168,0.9299 -0.90736,-0.0474 -1.75083,-0.45446 -2.5304,-1.22113 l 0,0 z m 1.67906,-9.06896 c -0.6014,-0.76336 -1.28178,-1.20909 -2.04117,-1.33718 -0.75938,-0.12806 -1.42472,0.0329 -1.99601,0.483 -0.591,0.4656 -0.91554,1.11238 -0.97363,1.94033 -0.0581,0.82798 0.2155,1.6261 0.82077,2.3944 0.5432,0.6895 1.19263,1.08578 1.94827,1.18885 0.75566,0.10309 1.43884,-0.0859 2.04953,-0.56705 0.61562,-0.48498 0.95191,-1.09911 1.00888,-1.84239 0.057,-0.74326 -0.21524,-1.49658 -0.81664,-2.25996 l 0,0 z m 20.28497,-3.18776 0.7432,1.44734 -8.10672,4.16273 c -0.19731,-0.3568 -0.31775,-0.73546 -0.3613,-1.13598 -0.0772,-0.65812 -0.0259,-1.3716 0.15368,-2.14045 0.1796,-0.76883 0.51845,-1.72514 1.01651,-2.86895 0.77166,-1.77765 1.22777,-3.10605 1.36836,-3.98525 0.14058,-0.87917 0.0648,-1.6032 -0.22732,-2.17211 -0.30644,-0.59676 -0.77824,-0.99058 -1.41541,-1.18144 -0.63717,-0.19083 -1.29877,-0.11012 -1.98478,0.24213 -0.72506,0.37233 -1.19341,0.88769 -1.40506,1.5461 -0.21165,0.65844 -0.12264,1.37392 0.26699,2.14645 l -1.62935,0.63579 c -0.48685,-1.20893 -0.53986,-2.29352 -0.15901,-3.2538 0.38087,-0.96028 1.15413,-1.73969 2.31981,-2.33826 1.17682,-0.60429 2.27578,-0.75629 3.29688,-0.456 1.0211,0.30029 1.77937,0.93288 2.27484,1.89776 0.25203,0.49081 0.39936,1.02481 0.44202,1.60198 0.0426,0.57719 -0.0343,1.24749 -0.23078,2.01089 -0.19651,0.76342 -0.60092,1.88027 -1.21324,3.35056 -0.51405,1.22249 -0.82989,2.03485 -0.94755,2.43708 -0.11766,0.40226 -0.18998,0.78298 -0.21697,1.14219 l 6.0152,-3.08876 z m 0.12034,-5.69566 c -0.55163,-1.53394 -0.83776,-2.82523 -0.85842,-3.87387 -0.0206,-1.04862 0.18904,-1.93855 0.629,-2.66979 0.43997,-0.7312 1.13194,-1.26654 2.0759,-1.60602 0.69619,-0.25034 1.3572,-0.32981 1.98307,-0.23842 0.62586,0.0914 1.20483,0.33964 1.73691,0.7446 0.53207,0.40499 1.03178,0.95153 1.49911,1.63963 0.46733,0.68812 0.93225,1.67527 1.39478,2.96141 0.54737,1.52216 0.83287,2.80702 0.85646,3.85459 0.0236,1.04756 -0.18406,1.93844 -0.62297,2.67261 -0.43891,0.73417 -1.1333,1.27205 -2.08316,1.61363 -1.25077,0.4498 -2.39433,0.35467 -3.43071,-0.28539 -1.24373,-0.77202 -2.30373,-2.37635 -3.17997,-4.81298 l 0,0 z m 1.6372,-0.58876 c 0.76592,2.12984 1.52492,3.45763 2.27699,3.98338 0.75208,0.52574 1.4939,0.65708 2.22548,0.39399 0.73157,-0.26308 1.21933,-0.83825 1.46327,-1.72552 0.24393,-0.88725 -0.016,-2.39284 -0.77979,-4.51679 -0.76805,-2.13572 -1.52758,-3.46499 -2.27858,-3.9878 -0.75102,-0.52278 -1.49822,-0.65052 -2.2416,-0.3832 -0.73156,0.26309 -1.20426,0.78289 -1.41807,1.55935 -0.26439,0.98791 -0.0136,2.54676 0.7523,4.67659 l 0,0 z m 9.3327,-3.18483 c -0.35067,-1.59195 -0.46911,-2.90925 -0.35531,-3.95191 0.11381,-1.04263 0.4357,-1.89838 0.96567,-2.56725 0.52998,-0.66885 1.2848,-1.11118 2.26446,-1.327 0.72251,-0.15913 1.38826,-0.15331 1.99727,0.0175 0.609,0.17082 1.15143,0.4911 1.62727,0.96086 0.47584,0.46978 0.90145,1.07582 1.27683,1.8181 0.37535,0.74229 0.71006,1.78083 1.00409,3.11561 0.34796,1.57974 0.46659,2.89057 0.35585,3.93253 -0.11074,1.04198 -0.43076,1.89892 -0.96006,2.57084 -0.52931,0.67193 -1.28685,1.11647 -2.27264,1.33362 -1.29807,0.28593 -2.42004,0.0452 -3.36591,-0.72233 -1.13465,-0.92493 -1.98049,-2.65178 -2.53752,-5.18055 l 0,0 z m 1.69912,-0.37428 c 0.48689,2.21039 1.06962,3.62444 1.74818,4.24216 0.67856,0.61771 1.39746,0.84295 2.15671,0.6757 0.75924,-0.16723 1.31663,-0.67521 1.67217,-1.52394 0.35554,-0.84871 0.29053,-2.3752 -0.19501,-4.57947 -0.48826,-2.21648 -1.07132,-3.63206 -1.74921,-4.24673 -0.67789,-0.61465 -1.40257,-0.837 -2.17406,-0.66707 -0.75924,0.16726 -1.29461,0.62223 -1.60608,1.36493 -0.38871,0.94592 -0.33961,2.52406 0.1473,4.73442 l 0,0 z m 9.93933,1.2105 1.75673,-0.30975 c 0.20895,0.84987 0.57187,1.47022 1.08876,1.86106 0.51688,0.39083 1.11251,0.5558 1.7869,0.49489 0.81175,-0.0733 1.47099,-0.44132 1.97772,-1.10403 0.50671,-0.66269 0.71439,-1.49982 0.62304,-2.51141 -0.0869,-0.96161 -0.42545,-1.6959 -1.01577,-2.20287 -0.59033,-0.50695 -1.32259,-0.72095 -2.19679,-0.642 -0.54326,0.0491 -1.0223,0.21666 -1.43711,0.50278 -0.41483,0.28614 -0.72937,0.63717 -0.94361,1.05312 l -1.60154,-0.0631 0.69304,-7.17306 6.82815,-0.6167 0.14549,1.61103 -5.47936,0.49488 -0.40666,3.75721 c 0.77236,-0.64891 1.61126,-1.01425 2.51669,-1.09604 1.1989,-0.10827 2.24798,0.21562 3.14724,0.97165 0.89924,0.75606 1.4078,1.78661 1.52568,3.09167 0.11222,1.24262 -0.15295,2.34934 -0.7955,3.32018 -0.78007,1.19101 -1.9319,1.85532 -3.4555,1.99293 -1.24887,0.11278 -2.29983,-0.14483 -3.1529,-0.77285 -0.85307,-0.62803 -1.38796,-1.51455 -1.6047,-2.65959 l 0,0 z"
       id="text14450"
       inkscape:connector-curvature="0" />
    <path
       transform="matrix(0.6030303,-0.03947256,0.03789969,0.5790012,557.13758,352.50863)"
       style="opacity:0.43944636;fill:none;stroke:#4c4c4c;stroke-width:5.08219624;stroke-linecap:round;stroke-linejoin:round;stroke-miterlimit:4;stroke-opacity:1;stroke-dasharray:none;stroke-dashoffset:0"
       sodipodi:type="arc"
       sodipodi:ry="101.10526"
       sodipodi:rx="97.101089"
       sodipodi:cy="465.75146"
       sodipodi:cx="-51.05315"
       id="path15005"
       d="m 46.047939,465.75146 c 0,55.8389 -43.4736383,101.10527 -97.101089,101.10527 -53.62745,0 -97.10109,-45.26637 -97.10109,-101.10527 0,-55.83889 43.47364,-101.10526 97.10109,-101.10526 53.6274507,0 97.101089,45.26637 97.101089,101.10526 z" />
    <path
       style="fill:#ffffff;fill-opacity:0.10588235;fill-rule:nonzero;stroke:none;stroke-width:20;marker:none;visibility:visible;display:inline;overflow:visible;enable-background:accumulate"
       d="m 366.32919,153.71672 c -45.7591,0.82004 -87.30933,28.51687 -113.1563,64.90625 -42.47446,59.86209 -52.47202,138.26922 -38.2102,209.30663 12.15107,60.79366 43.22615,120.30837 95.1165,155.91212 36.0866,24.46538 82.7731,34.03442 125.1206,21.89182 37.0895,-10.26824 70.1008,-33.74151 92.6294,-64.70432 7.477,-14.53503 2.163,-36.75302 -14.75,-41.53125 -10.6772,-2.77622 -18.9848,6.55799 -24.625,14.125 -28.7665,31.71591 -73.8966,50.21408 -116.5418,40.60989 -42.4265,-9.16222 -76.1109,-41.68914 -94.95825,-79.70364 -29.16223,-56.94371 -34.00277,-127.36972 -9.75,-186.96875 14.62453,-35.25129 42.87225,-67.28201 80.90625,-77.03125 28.4602,-7.23471 60.1212,0.98592 81.8161,20.81362 32.75,28.47526 48.3549,72.91532 49.7318,115.77999 1.0938,37.78379 -10.0832,78.10079 -38.4229,104.18764 -18.746,17.12165 -47.3915,25.29872 -71.4375,14.6875 -28.7942,-12.21137 -46.0949,-42.56263 -51.2744,-72.35855 -5.8028,-30.53267 -0.4889,-65.88552 22.8994,-88.07895 13.4669,-12.44225 35.9047,-16.80673 51.25,-4.90625 19.2869,14.20032 26.376,41.10102 20.6563,63.75 -2.6561,10.18128 -10.823,21.55629 -22.4376,21.34375 12.2409,-7.46247 14.3965,-23.90849 12.5313,-37 -2.6569,-16.40952 -19.2043,-30.70426 -36.125,-27.46875 -18.3445,4.91102 -27.6708,24.5626 -29.6976,42.11583 -3.2656,26.57771 8.0669,56.00789 31.4476,69.94667 16.674,9.81943 39.0808,8.12365 54.3437,-3.75 25.6829,-18.69817 35.7357,-52.31767 34.7188,-83.125 -1.0978,-37.93137 -18.4425,-77.51907 -51.8125,-97.40625 -21.2569,-12.39838 -48.7992,-12.97269 -70.5,-1.28125 -33.4191,17.24822 -52.82419,53.32729 -59.24679,89.38912 -9.60549,52.11853 3.77145,108.95792 38.24679,149.36088 22.6319,25.97144 57.5934,42.87143 92.5625,37.5625 40.8437,-5.74319 74.3293,-36.13998 92.2581,-72.10607 30.0245,-58.29068 29.4133,-129.96535 5.5544,-190.42518 -17.6468,-44.92695 -51.5505,-86.16336 -98.3594,-101.70883 -13.041,-4.29719 -26.7396,-6.49377 -40.4843,-6.13492 z"
       id="path2831"
       inkscape:connector-curvature="0" />
    <path
       id="path3623"
       d="m 541.19468,576.14096 c -10.1887,0.18259 -19.44026,6.34954 -25.19533,14.45199 -9.45735,13.32887 -11.6834,30.78696 -8.50787,46.60411 2.70555,13.5363 9.62472,26.78781 21.1786,34.71532 8.03502,5.44745 18.43022,7.57809 27.85929,4.87443 8.25833,-2.28632 15.60861,-7.51287 20.62482,-14.40704 1.66483,-3.23636 0.48161,-8.18341 -3.28423,-9.24733 -2.37738,-0.61814 -4.22714,1.4602 -5.48299,3.14507 -6.40513,7.06185 -16.45378,11.18064 -25.94914,9.04218 -9.44667,-2.04005 -16.94682,-9.28249 -21.14336,-17.74677 -6.49324,-12.67906 -7.57104,-28.36009 -2.17093,-41.63037 3.25629,-7.84904 9.54592,-14.98099 18.01455,-17.15175 6.33694,-1.61088 13.38655,0.21953 18.21713,4.63436 7.2921,6.34028 10.76668,16.23528 11.07326,25.77951 0.24354,8.41292 -2.24512,17.38988 -8.55523,23.19837 -4.17397,3.81229 -10.55217,5.63299 -15.90623,3.27032 -6.41131,-2.71899 -10.26348,-9.47698 -11.41674,-16.11133 -1.29205,-6.79839 -0.10886,-14.67004 5.09877,-19.61162 2.99853,-2.77038 7.99452,-3.74217 11.41131,-1.09242 4.2944,3.16184 5.87286,9.15153 4.59931,14.19455 -0.5914,2.26695 -2.40984,4.7997 -4.99595,4.75239 2.72556,-1.66159 3.20552,-5.32346 2.79022,-8.23841 -0.59158,-3.65374 -4.27602,-6.8366 -8.04358,-6.11618 -4.08458,1.09349 -6.16116,5.4691 -6.61245,9.37749 -0.72712,5.91778 1.79617,12.47069 7.00211,15.57429 3.71263,2.18639 8.70171,1.80881 12.10014,-0.83497 5.71855,-4.16333 7.9569,-11.64902 7.73047,-18.50856 -0.24443,-8.44579 -4.10639,-17.26037 -11.53654,-21.68844 -4.73306,-2.76061 -10.86561,-2.88849 -15.6975,-0.28528 -7.44108,3.84048 -11.76181,11.87383 -13.19186,19.90333 -2.13875,11.60469 0.83975,24.26053 8.51601,33.25663 5.0392,5.78279 12.82372,9.54573 20.60992,8.36364 9.09424,-1.27877 16.55013,-8.04691 20.54215,-16.0551 6.68524,-12.97897 6.54915,-28.93802 1.23674,-42.39998 -3.92923,-10.00341 -11.47821,-19.18509 -21.90066,-22.64643 -2.9037,-0.95681 -5.95383,-1.44591 -9.01421,-1.366 z"
       style="opacity:0.43944636;color:#000000;fill:#7f7f7f;fill-opacity:1;fill-rule:nonzero;stroke:#4c4c4c;stroke-width:0.17974848;stroke-linecap:butt;stroke-linejoin:miter;stroke-miterlimit:4;stroke-opacity:1;stroke-dasharray:none;stroke-dashoffset:0;marker:none;visibility:visible;display:inline;overflow:visible;enable-background:accumulate"
       inkscape:connector-curvature="0" />
  </g>
</svg>
