<?xml version="1.0" encoding="UTF-8" standalone="no"?>
<!-- Generator: Adobe Illustrator 11 Build 196, SVG Export Plug-In . SVG Version: 6.0.0 Build 78)  -->

<svg
   xmlns:ns="http://ns.adobe.com/ImageReplacement/1.0/"
   xmlns:i="http://ns.adobe.com/AdobeIllustrator/10.0/"
   xmlns:x="http://ns.adobe.com/Extensibility/1.0/"
   xmlns:dc="http://purl.org/dc/elements/1.1/"
   xmlns:cc="http://creativecommons.org/ns#"
   xmlns:rdf="http://www.w3.org/1999/02/22-rdf-syntax-ns#"
   xmlns:svg="http://www.w3.org/2000/svg"
   xmlns="http://www.w3.org/2000/svg"
   xmlns:xlink="http://www.w3.org/1999/xlink"
   xmlns:sodipodi="http://sodipodi.sourceforge.net/DTD/sodipodi-0.dtd"
   xmlns:inkscape="http://www.inkscape.org/namespaces/inkscape"
   enable-background="new 0 0 620 490"
   height="490"
   i:pageBounds="0 490 620 0"
   i:rulerOrigin="0 0"
   i:viewOrigin="0 490"
   overflow="visible"
   space="preserve"
   viewBox="0 0 620 490"
   width="620"
   id="svg3037"
   version="1.1"
   inkscape:version="0.48.1 r9760"
   sodipodi:docname="Anonymous_Picture_frame.svg">
  <defs
     id="defs3324">
    <defs
       id="defs3046">
      <rect
         y="0"
         x="0"
         width="620"
         id="XMLID_1_"
         height="490" />
    </defs>
    <clipPath
       id="XMLID_55_">
      <use
         height="490"
         width="620"
         y="0"
         x="0"
         id="use3050"
         xlink:href="#XMLID_1_" />
    </clipPath>
  </defs>
  <sodipodi:namedview
     pagecolor="#ffffff"
     bordercolor="#666666"
     borderopacity="1"
     objecttolerance="10"
     gridtolerance="10"
     guidetolerance="10"
     inkscape:pageopacity="0"
     inkscape:pageshadow="2"
     inkscape:window-width="640"
     inkscape:window-height="480"
     id="namedview3322"
     showgrid="false"
     inkscape:zoom="0.62653061"
     inkscape:cx="312.25117"
     inkscape:cy="245"
     inkscape:window-x="0"
     inkscape:window-y="0"
     inkscape:window-maximized="0"
     inkscape:current-layer="svg3037" />
  <metadata
     id="metadata3039">
    <rdf:RDF>
      <cc:Work
         rdf:about="">
        <dc:title>Picture frame</dc:title>
        <dc:description />
        <dc:subject>
          <rdf:Bag>
            <rdf:li>unsorted</rdf:li>
          </rdf:Bag>
        </dc:subject>
        <dc:publisher>
          <cc:Agent
             rdf:about="http://www.openclipart.org/">
            <dc:title>Open Clip Art Library</dc:title>
          </cc:Agent>
        </dc:publisher>
        <dc:creator>
          <cc:Agent>
            <dc:title>Jakob [chaosinfaith@hotmail.com]</dc:title>
          </cc:Agent>
        </dc:creator>
        <dc:rights>
          <cc:Agent>
            <dc:title>Jakob [chaosinfaith@hotmail.com]</dc:title>
          </cc:Agent>
        </dc:rights>
        <dc:date />
        <dc:format>image/svg+xml</dc:format>
        <dc:type
           rdf:resource="http://purl.org/dc/dcmitype/StillImage" />
        <cc:license
           rdf:resource="http://web.resource.org/cc/PublicDomain" />
        <dc:language>en</dc:language>
      </cc:Work>
      <cc:License
         rdf:about="http://web.resource.org/cc/PublicDomain">
        <cc:permits
           rdf:resource="http://web.resource.org/cc/Reproduction" />
        <cc:permits
           rdf:resource="http://web.resource.org/cc/Distribution" />
        <cc:permits
           rdf:resource="http://web.resource.org/cc/DerivativeWorks" />
      </cc:License>
    </rdf:RDF>
  </metadata>
  <line
     style="fill:none;stroke:#808080;stroke-width:5;stroke-linecap:round;stroke-linejoin:round;stroke-miterlimit:1"
     id="line3054"
     y2="80.5"
     y1="10.5"
     x2="260.5"
     x1="310.5"
     stroke-miterlimit="1"
     i:knockout="Off"
     clip-path="url(#XMLID_55_)" />
  <line
     style="fill:none;stroke:#808080;stroke-width:5;stroke-linecap:round;stroke-linejoin:round;stroke-miterlimit:1"
     id="line3056"
     y2="80.5"
     y1="10.5"
     x2="360.5"
     x1="310.5"
     stroke-miterlimit="1"
     i:knockout="Off"
     clip-path="url(#XMLID_55_)" />
  <path
     style="fill:#808080;fill-rule:evenodd"
     inkscape:connector-curvature="0"
     id="path3058"
     i:knockout="Off"
     d="m 317.571,13.429 m 0,0 c 3.904,3.905 3.904,10.237 0,14.142 -3.905,3.905 -10.237,3.905 -14.142,0 -3.905,-3.905 -3.905,-10.237 0,-14.142 3.905,-3.905 10.237,-3.905 14.142,0 z"
     clip-rule="evenodd"
     clip-path="url(#XMLID_55_)" />
  <path
     style="fill:none;stroke:#808080;stroke-width:5;stroke-linecap:round;stroke-linejoin:round;stroke-miterlimit:1"
     inkscape:connector-curvature="0"
     id="path3060"
     stroke-miterlimit="1"
     i:knockout="Off"
     d="m 317.571,13.429 m 0,0 c 3.905,3.905 3.905,10.237 0,14.143 -3.905,3.905 -10.237,3.905 -14.143,0 -3.905,-3.905 -3.905,-10.237 0,-14.143 3.906,-3.905 10.238,-3.905 14.143,0 z"
     clip-path="url(#XMLID_55_)" />
  <g
     id="g3062"
     transform="translate(1.5960912,1.5960912)">
    <defs
       id="defs3064">
      <path
         d="m 10.5,80.5 m 0,0 60,50 h 480 l 60,-50 h -600 z"
         id="XMLID_3_"
         inkscape:connector-curvature="0" />
    </defs>
    <clipPath
       id="XMLID_56_">
      <use
         xlink:href="#XMLID_3_"
         id="use3068"
         x="0"
         y="0"
         width="620"
         height="490" />
    </clipPath>
    <g
       clip-path="url(#XMLID_56_)"
       id="g3070">
      <defs
         id="defs3072">
        <rect
           height="50"
           id="XMLID_5_"
           width="600"
           x="10.5"
           y="80.5" />
      </defs>
      <clipPath
         id="XMLID_57_">
        <use
           xlink:href="#XMLID_5_"
           id="use3076"
           x="0"
           y="0"
           width="620"
           height="490" />
      </clipPath>
      <g
         clip-path="url(#XMLID_57_)"
         id="g3078">
        <defs
           id="defs3080">
          <rect
             height="50"
             id="XMLID_7_"
             width="600"
             x="10.5"
             y="80.5" />
        </defs>
        <clipPath
           id="XMLID_58_">
          <use
             xlink:href="#XMLID_7_"
             id="use3084"
             x="0"
             y="0"
             width="620"
             height="490" />
        </clipPath>
        <g
           clip-path="url(#XMLID_58_)"
           id="g3086">
          <switch
             i:objectNS="http://ns.adobe.com/ImageReplacement/1.0/"
             i:objectType="replaceable-image"
             id="XMLID_60_"
             transform="matrix(1.5,0,0,-0.125,10.5,130.5)">
            <foreignObject
               height="400"
               overflow="visible"
               requiredExtensions="http://ns.adobe.com/ImageReplacement/1.0/"
               width="400"
               x="0"
               y="0"
               id="foreignObject3089">
              <ns:imageReplacement
                 align="center"
                 height="400"
                 placementMethod="ratio"
                 refHeight="400"
                 refWidth="400"
                 valign="middle"
                 width="400"
                 x="0"
                 y="0" />
              <x:targetRef
                 xlink:href="#XMLID_59_" />
            </foreignObject>
            <image
               height="400"
               i:knockout="Off"
               id="XMLID_59_"
               width="400"
               xlink:href="data:;base64,iVBORw0KGgoAAAANSUhEUgAAAZAAAAGQCAIAAAAP3aGbAAAACXBIWXMAAAsSAAALEgHS3X78AAAA BGdBTUEAANbY1E9YMgAAABl0RVh0U29mdHdhcmUAQWRvYmUgSW1hZ2VSZWFkeXHJZTwAABOASURB VHjaYty/fz/DKBgFo2AUDAUAEEBMo0EwCkbBKBgqACCAWBgZGUdDYRSMglEwJABAAI22sEbBKBgF QwYABNBogTUKRsEoGDIAIIBGC6xRMApGwZABAAE0WmCNglEwCoYMAAig0QJrFIyCUTBkAEAAjc4S joJRMAqGDAAIoNEW1igYBaNgyACAABotsEbBKBgFQwYABNBogTUKRsEoGDIAIIBGC6xRMApGwZAB AAE0WmCNglEwCoYMAAig0QJrFIyCUTBkAEAAjS5rGAWjYBQMGQAQQKMtrFEwCkbBkAEAATRaYI2C UTAKhgwACKDRAmsUjIJRMGQAQACNFlijYBSMgiEDAAJotMAaBaNgFAwZABBAo7OEo2AUjIIhAwAC aLSFNQpGwSgYMgAggEYLrFEwCkbBkAEAATRaYI2CUTAKhgwACKDRAmsUjIJRMGQAQACNFlijYBSM giEDAAJodJZwFIyCUTBkAEAAjbawRsEoGAVDBgAE0GiBNQpGwSgYMgAggEYLrFEwCkbBkAEAATRa YI2CUTAKhgwACKDRAmsUjIJRMGQAQACNzhKOglEwCoYMAAig0RbWKBgFo2DIAIAAGi2wRsEoGAVD BgAE0GiBNQpGwSgYMgAggEYLrFEwCkbBkAEAATRaYI2CUTAKhgwACKDRAmsUjIJRMGQAQACNLmsY BaNgFAwZABBAoy2sUTAKRsGQAQABNFpgjYJRMAqGDAAIoNECaxSMglEwZABAAI0WWKNgFIyCIQMA Ami0wBoFo2AUDBkAEECjs4SjYBSMgiEDAAJotIU1CkbBKBgyACCARgusUTAKRsGQAQABNFpgjYJR MAqGDAAIoNECaxSMglEwZABAAI0WWKNgFIyCIQMAAmh0lnAUjIJRMGQAQACNtrBGwSgYBUMGAATQ aIE1CkbBKBgyACCARgusUTAKRsGQAQABNFpgjYJRMAqGDAAIoNECaxSMglEwZABAAI0WWKNgFIyC IQMAAmh0WcMoGAWjYMgAgAAabWGNglEwCoYMAAig0QJrFIyCUTBkAEAAjRZYo2AUjIIhAwACaLTA GgWjYBQMGQAQQKMF1igYBaNgyACAABqdJRwFo2AUDBkAEECjLaxRMApGwZABAAE0WmCNglEwCoYM AAig0QJrFIyCUTBkAEAAjRZYo2AUjIIhAwACaLTAGgWjYBQMGQAQQKOzhKNgFIyCIQMAAmi0hTUK RsEoGDIAIIBGC6xRMApGwZABAAE0WmCNglEwCoYMAAig0QJrFIyCUTBkAEAAjRZYo2AUjIIhAwAC aHSWcBSMglEwZABAAI22sEbBKBgFQwYABNBogTUKRsEoGDIAIIBGC6xRMApGwZABAAE0WmCNglEw CoYMAAig0QJrFIyCUTBkAEAAjRZYo2AUjIIhAwACaHRZwygYBaNgyACAABptYY2CUTAKhgwACKDR AmsUjIJRMGQAQACNFlijYBSMgiEDAAJotMAaBaNgFAwZABBAowXWKBgFo2DIAIAAGp0lHAWjYBQM GQAQQKMtrFEwCkbBkAEAATRaYI2CUTAKhgwACKDRAmsUjIJRMGQAQACNFlijYBSMgiEDAAJotMAa BaNgFAwZABBAo7OEo2AUjIIhAwACaLSFNQpGwSgYMgAggEYLrFEwCkbBkAEAATRaYI2CUTAKhgwA CKDRAmsUjIJRMGQAQACNFlijYBSMgiEDAAJodJZwFIyCUTBkAEAAjbawRsEoGAVDBgAE0GiBNQpG wSgYMgAggEYLrFEwCkbBkAEAATRaYI2CUTAKhgwACKDRAmsUjIJRMGQAQACNFlijYBSMgiEDAAJo dFnDKBgFo2DIAIAAGm1hjYJRMAqGDAAIoNECaxSMglEwZABAAI0WWKNgFIyCIQMAAmi0wBoFo2AU DBkAEECjBdYoGAWjYMgAgAAanSUcBaNgFAwZABBAoy2sUTAKRsGQAQABNFpgjYJRMAqGDAAIoNEC axSMglEwZABAAI0WWKNgFIyCIQMAAmi0wBoFo2AUDBkAEECjs4SjYBSMgiEDAAJotIU1CkbBKBgy ACCARgusUTAKRsGQAQABNFpgjYJRMAqGDAAIoNECaxSMglEwZABAAI0WWKNgFIyCIQMAAmi0wBoF o2AUDBkAEECjyxpGwSgYBUMGAATQaAtrFIyCUTBkAEAAjRZYo2AUjIIhAwACaLTAGgWjYBQMGQAQ QKMF1igYBaNgyACAABotsEbBKBgFQwYABNDoLOEoGAWjYMgAgAAabWGNglEwCoYMAAig0QJrFIyC UTBkAEAAjRZYo2AUjIIhAwACaLTAGgWjYBQMGQAQQKMF1igYBaNgyACAABqdJRwFo2AUDBkAEECj LaxRMApGwZABAAE0WmCNglEwCoYMAAig0QJrFIyCUTBkAEAAjRZYo2AUjIIhAwACaLTAGgWjYBQM GQAQQKOzhKNgFIyCIQMAAmi0hTUKRsEoGDIAIIBGC6xRMApGwZABAAE0WmCNglEwCoYMAAig0QJr FIyCUTBkAEAAjRZYo2AUjIIhAwACaLTAGgWjYBQMGQAQQKPLGkbBKBgFQwYABNBoC2sUjIJRMGQA QACNFlijYBSMgiEDAAJotMAaBaNgFAwZABBAowXWKBgFo2DIAIAAGi2wRsEoGAVDBgAE0Ogs4SgY BaNgyACAABptYY2CUTAKhgwACKDRAmsUjIJRMGQAQACNFlijYBSMgiEDAAJotMAaBaNgFAwZABBA owXWKBgFo2DIAIAAGp0lHAWjYBQMGQAQQKMtrFEwCkbBkAEAATRaYI2CUTAKhgwACKDRAmsUjIJR MGQAQACNFlijYBSMgiEDAAJotMAaBaNgFAwZABBAo7OEo2AUjIIhAwACaLSFNQpGwSgYMgAggEYL rFEwCkbBkAEAATRaYI2CUTAKhgwACKDRAmsUjIJRMGQAQACNFlijYBSMgiEDAAJotMAaBaNgFAwZ ABBAo8saRsEoGAVDBgAE0GgLaxSMglEwZABAAI0WWKNgFIyCIQMAAmi0wBoFo2AUDBkAEECjBdYo GAWjYMgAgAAaLbBGwSgYBUMGAATQ6CzhKBgFo2DIAIAAGm1hjYJRMAqGDAAIoNECaxSMglEwZABA AI0WWKNgFIyCIQMAAmi0wBoFo2AUDBkAEECjBdYoGAWjYMgAgAAanSUcBaNgFAwZABBAoy2sUTAK RsGQAQABNFpgjYJRMAqGDAAIoNECaxSMglEwZABAAI0WWKNgFIyCIQMAAmi0wBoFo2AUDBkAEECj BdYoGAWjYMgAgAAaXdYwCkbBKBgyACCARltYo2AUjIIhAwACaLTAGgWjYBQMGQAQQKMF1igYBaNg yACAABotsEbBKBgFQwYABNBogTUKRsEoGDIAIIBGZwlHwSgYBUMGAATQaAtrFIyCUTBkAEAAjRZY o2AUjIIhAwACaLTAGgWjYBQMGQAQQKMF1igYBaNgyACAABotsEbBKBgFQwYABNDoLOEoGAWjYMgA gAAabWGNglEwCoYMAAig0QJrFIyCUTBkAEAAjRZYo2AUjIIhAwACaLTAGgWjYBQMGQAQQKMF1igY BaNgyACAABqdJRwFo2AUDBkAEECjLaxRMApGwZABAAE0WmCNglEwCoYMAAig0QJrFIyCUTBkAEAA jRZYo2AUjIIhAwACaLTAGgWjYBQMGQAQQKMF1igYBaNgyACAABpd1jAKRsEoGDIAIIBGW1ijYBSM giEDAAJotMAaBaNgFAwZABBAowXWKBgFo2DIAIAAGi2wRsEoGAVDBgAE0GiBNQpGwSgYMgAggEZn CUfBKBgFQwYABNBoC2sUjIJRMGQAQACNFlijYBSMgiEDAAJotMAaBaNgFAwZABBAowXWKBgFo2DI AIAAGi2wRsEoGAVDBgAE0Ogs4SgYBaNgyACAABptYY2CUTAKhgwACKDRAmsUjIJRMGQAQACNFlij YBSMgiEDAAJotMAaBaNgFAwZABBAowXWKBgFo2DIAIAAGp0lHAWjYBQMGQAQQKMtrFEwCkbBkAEA ATRaYI2CUTAKhgwACKDRAmsUjIJRMGQAQACNFlijYBSMgiEDAAJotMAaBaNgFAwZABBAowXWKBgF o2DIAIAAGl3WMApGwSgYMgAggEZbWKNgFIyCIQMAAmi0wBoFo2AUDBkAEECjBdYoGAWjYMgAgAAa LbBGwSgYBUMGAATQaIE1CkbBKBgyACCARmcJR8EoGAVDBgAE0GgLaxSMglEwZABAAI0WWKNgFIyC IQMAAmi0wBoFo2AUDBkAEECjBdYoGAWjYMgAgAAaLbBGwSgYBUMGAATQ6CzhKBgFo2DIAIAAGm1h jYJRMAqGDAAIoNECaxSMglEwZABAAI0WWKNgFIyCIQMAAmi0wBoFo2AUDBkAEECjBdYoGAWjYMgA gAAaLbBGwSgYBUMGAATQ6LKGUTAKRsGQAQABNNrCGgWjYBQMGQAQQKMF1igYBaNgyACAABotsEbB KBgFQwYABNBogTUKRsEoGDIAIIBGC6xRMApGwZABAAE0Oks4CkbBKBgyACCARltYo2AUjIIhAwAC aLTAGgWjYBQMGQAQQKMF1igYBaNgyACAABotsEbBKBgFQwYABNBogTUKRsEoGDIAIIBGZwlHwSgY BUMGAATQaAtrFIyCUTBkAEAAjRZYo2AUjIIhAwACaLTAGgWjYBQMGQAQQKMF1igYBaNgyACAABot sEbBKBgFQwYABNDoLOEoGAWjYMgAgAAabWGNglEwCoYMAAig0QJrFIyCUTBkAEAAjRZYo2AUjIIh AwACaLTAGgWjYBQMGQAQQKMF1igYBaNgyACAABotsEbBKBgFQwYABNDosoZRMApGwZABAAE02sIa BaNgFAwZABBAowXWKBgFo2DIAIAAGi2wRsEoGAVDBgAE0GiBNQpGwSgYMgAggEYLrFEwCkbBkAEA ATQ6SzgKRsEoGDIAIIBGW1ijYBSMgiEDAAJotMAaBaNgFAwZABBAowXWKBgFo2DIAIAAGi2wRsEo GAVDBgAE0GiBNQpGwSgYMgAggEZnCUfBKBgFQwYABNBoC2sUjIJRMGQAQACNFlijYBSMgiEDAAJo tMAaBaNgFAwZABBAowXWKBgFo2DIAIAAGi2wRsEoGAVDBgAE0GiBNQpGwSgYMgAggEaXNYyCUTAK hgwACKDRFtYoGAWjYMgAgAAaLbBGwSgYBUMGAATQaIE1CkbBKBgyACCARgusUTAKRsGQAQABNFpg jYJRMAqGDAAIoNFZwlEwCkbBkAEAATTawhoFo2AUDBkAEECjBdYoGAWjYMgAgAAaLbBGwSgYBUMG AATQaIE1CkbBKBgyACCARgusUTAKRsGQAQABNDpLOApGwSgYMgAggEZbWKNgFIyCIQMAAmi0wBoF o2AUDBkAEECjBdYoGAWjYMgAgAAaLbBGwSgYBUMGAATQaIE1CkbBKBgyACCARmcJR8EoGAVDBgAE 0GgLaxSMglEwZABAAI0WWKNgFIyCIQMAAmi0wBoFo2AUDBkAEECjBdYoGAWjYMgAgAAaLbBGwSgY BUMGAATQaIE1CkbBKBgyACCARpc1jIJRMAqGDAAIoNEW1igYBaNgyACAABotsEbBKBgFQwYABNBo gTUKRsEoGDIAIIBGC6xRMApGwZABAAE0WmCNglEwCoYMAAig0VnCUTAKRsGQAQABNNrCGgWjYBQM GQAQQKMF1igYBaNgyACAABotsEbBKBgFQwYABNBogTUKRsEoGDIAIIBGC6xRMApGwZABAAE0Oks4 CkbBKBgyACCARltYo2AUjIIhAwACaLTAGgWjYBQMGQAQQKMF1igYBaNgyACAABotsEbBKBgFQwYA BNBogTUKRsEoGDIAIIBGZwlHwSgYBUMGAATQaAtrFIyCUTBkAEAAjRZYo2AUjIIhAwACaLTAGgWj YBQMGQAQQKMF1igYBaNgyACAABotsEbBKBgFQwYABNBogTUKRsEoGDIAIIBGlzWMglEwCoYMAAig 0RbWKBgFo2DIAIAAGi2wRsEoGAVDBgAE0GiBNQpGwSgYMgAggEYLrFEwCkbBkAEAATRaYI2CUTAK hgwACKDRWcJRMApGwZABAAE02sIaBaNgFAwZABBAowXWKBgFo2DIAIAAGi2wRsEoGAVDBgAE0GiB NQpGwSgYMgAggEYLrFEwCkbBkAEAATQ6SzgKRsEoGDIAIIBGW1ijYBSMgiEDAAJotMAaBaNgFAwZ ABBAowXWKBgFo2DIAIAAGi2wRsEoGAVDBgAE0GiBNQpGwSgYMgAggEYLrFEwCkbBkAEAATS6rGEU jIJRMGQAQACNtrBGwSgYBUMGAATQaIE1CkbBKBgyACCARgusUTAKRsGQAQABNFpgjYJRMAqGDAAI oNECaxSMglEwZABAAI3OEo6CUTAKhgwACKDRFtYoGAWjYMgAgAAaLbBGwSgYBUMGAATQaIE1CkbB KBgyACCARgusUTAKRsGQAQABNFpgjYJRMAqGDAAIoNFZwlEwCkbBkAEAATTawhoFo2AUDBkAEECj BdYoGAWjYMgAgAAaLbBGwSgYBUMGAATQaIE1CkbBKBgyACCARgusUTAKRsGQAQABNDpLOApGwSgY MgAggEZbWKNgFIyCIQMAAmi0wBoFo2AUDBkAEGAANNkGnYZYJbwAAAAASUVORK5CYII=" />
          </switch>
        </g>
      </g>
    </g>
  </g>
  <g
     id="g3092"
     transform="translate(1.5960912,1.5960912)">
    <defs
       id="defs3094">
      <rect
         height="490"
         id="XMLID_9_"
         width="620"
         x="0"
         y="0" />
    </defs>
    <clipPath
       id="XMLID_61_">
      <use
         xlink:href="#XMLID_9_"
         id="use3098"
         x="0"
         y="0"
         width="620"
         height="490" />
    </clipPath>
    <path
       clip-path="url(#XMLID_61_)"
       d="m 10.5,80.5 m 0,0 60,50 h 480 l 60,-50 h -600 z"
       i:knockout="Off"
       stroke-miterlimit="1"
       id="path3100"
       inkscape:connector-curvature="0"
       style="fill:none;stroke:#808080;stroke-width:3;stroke-linecap:round;stroke-linejoin:round;stroke-miterlimit:1" />
  </g>
  <g
     id="g3102"
     transform="translate(1.5960912,1.5960912)">
    <defs
       id="defs3104">
      <path
         d="m 10.5,80.5 m 0,0 60,50 v 300 l -60,50 v -400 z"
         id="XMLID_11_"
         inkscape:connector-curvature="0" />
    </defs>
    <clipPath
       id="XMLID_62_">
      <use
         xlink:href="#XMLID_11_"
         id="use3108"
         x="0"
         y="0"
         width="620"
         height="490" />
    </clipPath>
    <g
       clip-path="url(#XMLID_62_)"
       id="g3110">
      <defs
         id="defs3112">
        <rect
           height="400"
           id="XMLID_13_"
           width="60"
           x="10.5"
           y="80.5" />
      </defs>
      <clipPath
         id="XMLID_63_">
        <use
           xlink:href="#XMLID_13_"
           id="use3116"
           x="0"
           y="0"
           width="620"
           height="490" />
      </clipPath>
      <g
         clip-path="url(#XMLID_63_)"
         id="g3118">
        <defs
           id="defs3120">
          <rect
             height="400"
             id="XMLID_15_"
             width="60"
             x="10.5"
             y="80.5" />
        </defs>
        <clipPath
           id="XMLID_64_">
          <use
             xlink:href="#XMLID_15_"
             id="use3124"
             x="0"
             y="0"
             width="620"
             height="490" />
        </clipPath>
        <g
           clip-path="url(#XMLID_64_)"
           id="g3126">
          <switch
             i:objectNS="http://ns.adobe.com/ImageReplacement/1.0/"
             i:objectType="replaceable-image"
             id="XMLID_66_"
             transform="matrix(0.15,0,0,-1,10.5,480.5)">
            <foreignObject
               height="400"
               overflow="visible"
               requiredExtensions="http://ns.adobe.com/ImageReplacement/1.0/"
               width="400"
               x="0"
               y="0"
               id="foreignObject3129">
              <ns:imageReplacement
                 align="center"
                 height="400"
                 placementMethod="ratio"
                 refHeight="400"
                 refWidth="400"
                 valign="middle"
                 width="400"
                 x="0"
                 y="0" />
              <x:targetRef
                 xlink:href="#XMLID_65_" />
            </foreignObject>
            <image
               height="400"
               i:knockout="Off"
               id="XMLID_65_"
               width="400"
               xlink:href="data:;base64,iVBORw0KGgoAAAANSUhEUgAAAZAAAAGQCAIAAAAP3aGbAAAACXBIWXMAAAsSAAALEgHS3X78AAAA BGdBTUEAANbY1E9YMgAAABl0RVh0U29mdHdhcmUAQWRvYmUgSW1hZ2VSZWFkeXHJZTwAABOISURB VHjaYmxoaGAYBaNgFIyCoQAAAohpNAhGwSgYBUMFAATQaIE1CkbBKBgyACCARgusUTAKRsGQAQAB xMLIyDgaCqNgFIyCIQEAAmi0hTUKRsEoGDIAIIBGC6xRMApGwZABAAE02iUcBaNgFAwZABBAoy2s UTAKRsGQAQABNFpgjYJRMAqGDAAIoNEu4SgYBaNgyACAABptYY2CUTAKhgwACKDRAmsUjIJRMGQA QACNdglHwSgYBUMGAATQaAtrFIyCUTBkAEAAjRZYo2AUjIIhAwACaLRLOApGwSgYMgAggEZbWKNg FIyCIQMAAmi0wBoFo2AUDBkAEECjXcJRMApGwZABAAE02sIaBaNgFAwZABBAowXWKBgFo2DIAIAA Gu0SjoJRMAqGDAAIoNEW1igYBaNgyACAABotsEbBKBgFQwYABNBogTUKRsEoGDIAIIBGx7BGwSgY BUMGAATQaAtrFIyCUTBkAEAAjRZYo2AUjIIhAwACaLRLOApGwSgYMgAggEZbWKNgFIyCIQMAAmi0 wBoFo2AUDBkAEECjXcJRMApGwZABAAE02sIaBaNgFAwZABBAowXWKBgFo2DIAIAAGu0SjoJRMAqG DAAIoNEW1igYBaNgyACAABotsEbBKBgFQwYABNBol3AUjIJRMGQAQACNtrBGwSgYBUMGAATQaIE1 CkbBKBgyACCARruEo2AUjIIhAwACaLSFNQpGwSgYMgAggEYLrFEwCkbBkAEAATTaJRwFo2AUDBkA EECjLaxRMApGwZABAAE0WmCNglEwCoYMAAig0QJrFIyCUTBkAEAAjY5hjYJRMAqGDAAIoNEW1igY BaNgyACAABotsEbBKBgFQwYABNBol3AUjIJRMGQAQACNtrBGwSgYBUMGAATQaIE1CkbBKBgyACCA RruEo2AUjIIhAwACaLSFNQpGwSgYMgAggEYLrFEwCkbBkAEAATTaJRwFo2AUDBkAEECjLaxRMApG wZABAAE0WmCNglEwCoYMAAig0S7hKBgFo2DIAIAAGm1hjYJRMAqGDAAIoNECaxSMglEwZABAAI12 CUfBKBgFQwYABNBoC2sUjIJRMGQAQACNFlijYBSMgiEDAAJotEs4CkbBKBgyACCARltYo2AUjIIh AwACaLTAGgWjYBQMGQAQQKMF1igYBaNgyACAABodwxoFo2AUDBkAEECjLaxRMApGwZABAAE0WmCN glEwCoYMAAig0S7hKBgFo2DIAIAAGm1hjYJRMAqGDAAIoNECaxSMglEwZABAAI12CUfBKBgFQwYA BNBoC2sUjIJRMGQAQACNFlijYBSMgiEDAAJotEs4CkbBKBgyACCARltYo2AUjIIhAwACaLTAGgWj YBQMGQAQQKNdwlEwCkbBkAEAATTawhoFo2AUDBkAEECjBdYoGAWjYMgAgAAa7RKOglEwCoYMAAig 0RbWKBgFo2DIAIAAGi2wRsEoGAVDBgAE0GiXcBSMglEwZABAAI22sEbBKBgFQwYABNBogTUKRsEo GDIAIIBGu4SjYBSMgiEDAAJotIU1CkbBKBgyACCARgusUTAKRsGQAQABNFpgjYJRMAqGDAAIoNEx rFEwCkbBkAEAATTawhoFo2AUDBkAEECjBdYoGAWjYMgAgAAa7RKOglEwCoYMAAig0RbWKBgFo2DI AIAAGi2wRsEoGAVDBgAE0GiXcBSMglEwZABAAI22sEbBKBgFQwYABNBogTUKRsEoGDIAIIBGu4Sj YBSMgiEDAAJotIU1CkbBKBgyACCARgusUTAKRsGQAQABNNolHAWjYBQMGQAQQKMtrFEwCkbBkAEA ATRaYI2CUTAKhgwACKDRLuEoGAWjYMgAgAAabWGNglEwCoYMAAig0QJrFIyCUTBkAEAAjXYJR8Eo GAVDBgAE0GgLaxSMglEwZABAAI0WWKNgFIyCIQMAAmi0wBoFo2AUDBkAEECjY1ijYBSMgiEDAAJo tIU1CkbBKBgyACCARgusUTAKRsGQAQABNNolHAWjYBQMGQAQQKMtrFEwCkbBkAEAATRaYI2CUTAK hgwACKDRLuEoGAWjYMgAgAAabWGNglEwCoYMAAig0QJrFIyCUTBkAEAAjXYJR8EoGAVDBgAE0GgL axSMglEwZABAAI0WWKNgFIyCIQMAAmi0SzgKRsEoGDIAIIBGW1ijYBSMgiEDAAJotMAaBaNgFAwZ ABBAo13CUTAKRsGQAQABNNrCGgWjYBQMGQAQQKMF1igYBaNgyACAABrtEo6CUTAKhgwACKDRFtYo GAWjYMgAgAAaLbBGwSgYBUMGAATQaIE1CkbBKBgyACCARsewRsEoGAVDBgAE0GgLaxSMglEwZABA AI0WWKNgFIyCIQMAAmi0SzgKRsEoGDIAIIBGW1ijYBSMgiEDAAJotMAaBaNgFAwZABBAo13CUTAK RsGQAQABNNrCGgWjYBQMGQAQQKMF1igYBaNgyACAABrtEo6CUTAKhgwACKDRFtYoGAWjYMgAgAAa LbBGwSgYBUMGAATQaJdwFIyCUTBkAEAAjbawRsEoGAVDBgAE0GiBNQpGwSgYMgAggEa7hKNgFIyC IQMAAmi0hTUKRsEoGDIAIIBGC6xRMApGwZABAAE02iUcBaNgFAwZABBAoy2sUTAKRsGQAQABNFpg jYJRMAqGDAAIoNEu4SgYBaNgyACAABptYY2CUTAKhgwACKDRAmsUjIJRMGQAQACNFlijYBSMgiED AAJodAxrFIyCUTBkAEAAjbawRsEoGAVDBgAE0GiBNQpGwSgYMgAggEa7hKNgFIyCIQMAAmi0hTUK RsEoGDIAIIBGC6xRMApGwZABAAE02iUcBaNgFAwZABBAoy2sUTAKRsGQAQABNFpgjYJRMAqGDAAI oNEu4SgYBaNgyACAABptYY2CUTAKhgwACKDRAmsUjIJRMGQAQACNdglHwSgYBUMGAATQaAtrFIyC UTBkAEAAjRZYo2AUjIIhAwACaLRLOApGwSgYMgAggEZbWKNgFIyCIQMAAmi0wBoFo2AUDBkAEECj XcJRMApGwZABAAE02sIaBaNgFAwZABBAowXWKBgFo2DIAIAAGi2wRsEoGAVDBgAE0OgY1igYBaNg yACAABptYY2CUTAKhgwACKDRAmsUjIJRMGQAQACNdglHwSgYBUMGAATQaAtrFIyCUTBkAEAAjRZY o2AUjIIhAwACaLRLOApGwSgYMgAggEZbWKNgFIyCIQMAAmi0wBoFo2AUDBkAEECjXcJRMApGwZAB AAE02sIaBaNgFAwZABBAowXWKBgFo2DIAIAAGu0SjoJRMAqGDAAIoNEW1igYBaNgyACAABotsEbB KBgFQwYABNBol3AUjIJRMGQAQACNtrBGwSgYBUMGAATQaIE1CkbBKBgyACCARruEo2AUjIIhAwAC aLSFNQpGwSgYMgAggEYLrFEwCkbBkAEAATRaYI2CUTAKhgwACKDRMaxRMApGwZABAAE02sIaBaNg FAwZABBAowXWKBgFo2DIAIAAGu0SjoJRMAqGDAAIoNEW1igYBaNgyACAABotsEbBKBgFQwYABNBo l3AUjIJRMGQAQACNtrBGwSgYBUMGAATQaIE1CkbBKBgyACCARruEo2AUjIIhAwACaLSFNQpGwSgY MgAggEYLrFEwCkbBkAEAATTaJRwFo2AUDBkAEECjLaxRMApGwZABAAE0WmCNglEwCoYMAAig0S7h KBgFo2DIAIAAGm1hjYJRMAqGDAAIoNECaxSMglEwZABAAI12CUfBKBgFQwYABNBoC2sUjIJRMGQA QACNFlijYBSMgiEDAAJotMAaBaNgFAwZABBAo2NYo2AUjIIhAwACaLSFNQpGwSgYMgAggEYLrFEw CkbBkAEAATTaJRwFo2AUDBkAEECjLaxRMApGwZABAAE0WmCNglEwCoYMAAig0S7hKBgFo2DIAIAA Gm1hjYJRMAqGDAAIoNECaxSMglEwZABAAI12CUfBKBgFQwYABNBoC2sUjIJRMGQAQACNFlijYBSM giEDAAJotEs4CkbBKBgyACCARltYo2AUjIIhAwACaLTAGgWjYBQMGQAQQKNdwlEwCkbBkAEAATTa whoFo2AUDBkAEECjBdYoGAWjYMgAgAAa7RKOglEwCoYMAAig0RbWKBgFo2DIAIAAGi2wRsEoGAVD BgAE0GiXcBSMglEwZABAAI22sEbBKBgFQwYABNBogTUKRsEoGDIAIIBGC6xRMApGwZABAAE0OoY1 CkbBKBgyACCARltYo2AUjIIhAwACaLTAGgWjYBQMGQAQQKNdwlEwCkbBkAEAATTawhoFo2AUDBkA EECjBdYoGAWjYMgAgAAa7RKOglEwCoYMAAig0RbWKBgFo2DIAIAAGi2wRsEoGAVDBgAE0GiXcBSM glEwZABAAI22sEbBKBgFQwYABNBogTUKRsEoGDIAIIBGu4SjYBSMgiEDAAJotIU1CkbBKBgyACCA RgusUTAKRsGQAQABNNolHAWjYBQMGQAQQKMtrFEwCkbBkAEAATRaYI2CUTAKhgwACKDRLuEoGAWj YMgAgAAabWGNglEwCoYMAAig0QJrFIyCUTBkAEAAjRZYo2AUjIIhAwACaHQMaxSMglEwZABAAI22 sEbBKBgFQwYABNBogTUKRsEoGDIAIIBGu4SjYBSMgiEDAAJotIU1CkbBKBgyACCARgusUTAKRsGQ AQABNNolHAWjYBQMGQAQQKMtrFEwCkbBkAEAATRaYI2CUTAKhgwACKDRLuEoGAWjYMgAgAAabWGN glEwCoYMAAig0QJrFIyCUTBkAEAAjXYJR8EoGAVDBgAE0GgLaxSMglEwZABAAI0WWKNgFIyCIQMA Ami0SzgKRsEoGDIAIIBGW1ijYBSMgiEDAAJotMAaBaNgFAwZABBAo13CUTAKRsGQAQABNNrCGgWj YBQMGQAQQKMF1igYBaNgyACAABotsEbBKBgFQwYABNDoGNYoGAWjYMgAgAAabWGNglEwCoYMAAig 0QJrFIyCUTBkAEAAjXYJR8EoGAVDBgAE0GgLaxSMglEwZABAAI0WWKNgFIyCIQMAAmi0SzgKRsEo GDIAIIBGW1ijYBSMgiEDAAJotMAaBaNgFAwZABBAo13CUTAKRsGQAQABNNrCGgWjYBQMGQAQQKMF 1igYBaNgyACAABrtEo6CUTAKhgwACKDRFtYoGAWjYMgAgAAaLbBGwSgYBUMGAATQaJdwFIyCUTBk AEAAjbawRsEoGAVDBgAE0GiBNQpGwSgYMgAggEa7hKNgFIyCIQMAAmi0hTUKRsEoGDIAIIBGC6xR MApGwZABAAE02iUcBaNgFAwZABBAoy2sUTAKRsGQAQABNFpgjYJRMAqGDAAIoNECaxSMglEwZABA AI2OYY2CUTAKhgwACKDRFtYoGAWjYMgAgAAaLbBGwSgYBUMGAATQaJdwFIyCUTBkAEAAjbawRsEo GAVDBgAE0GiBNQpGwSgYMgAggEa7hKNgFIyCIQMAAmi0hTUKRsEoGDIAIIBGC6xRMApGwZABAAE0 2iUcBaNgFAwZABBAoy2sUTAKRsGQAQABNFpgjYJRMAqGDAAIoNEu4SgYBaNgyACAABptYY2CUTAK hgwACKDRAmsUjIJRMGQAQACNdglHwSgYBUMGAATQaAtrFIyCUTBkAEAAjRZYo2AUjIIhAwACaLRL OApGwSgYMgAggEZbWKNgFIyCIQMAAmi0wBoFo2AUDBkAEECjBdYoGAWjYMgAgAAaHcMaBaNgFAwZ ABBAoy2sUTAKRsGQAQABNFpgjYJRMAqGDAAIoNEu4SgYBaNgyACAABptYY2CUTAKhgwACKDRAmsU jIJRMGQAQACNdglHwSgYBUMGAATQaAtrFIyCUTBkAEAAjRZYo2AUjIIhAwACaLRLOApGwSgYMgAg gEZbWKNgFIyCIQMAAmi0wBoFo2AUDBkAEECjXcJRMApGwZABAAE02sIaBaNgFAwZABBAowXWKBgF o2DIAIAAGu0SjoJRMAqGDAAIoNEW1igYBaNgyACAABotsEbBKBgFQwYABNBol3AUjIJRMGQAQACN trBGwSgYBUMGAATQaIE1CkbBKBgyACCARgusUTAKRsGQAQABNDqGNQpGwSgYMgAggEZbWKNgFIyC IQMAAmi0wBoFo2AUDBkAEECjXcJRMApGwZABAAE02sIaBaNgFAwZABBAowXWKBgFo2DIAIAAGu0S joJRMAqGDAAIoNEW1igYBaNgyACAABotsEbBKBgFQwYABNBol3AUjIJRMGQAQACNtrBGwSgYBUMG AATQaIE1CkbBKBgyACCARruEo2AUjIIhAwACaLSFNQpGwSgYMgAggEYLrFEwCkbBkAEAATTaJRwF o2AUDBkAEECjLaxRMApGwZABAAE0WmCNglEwCoYMAAig0S7hKBgFo2DIAIAAGm1hjYJRMAqGDAAI oNECaxSMglEwZABAAI0WWKNgFIyCIQMAAmh0DGsUjIJRMGQAQACNtrBGwSgYBUMGAATQaIE1CkbB KBgyACCARruEo2AUjIIhAwACaLSFNQpGwSgYMgAggEYLrFEwCkbBkAEAATTaJRwFo2AUDBkAEECj LaxRMApGwZABAAE0WmCNglEwCoYMAAig0S7hKBgFo2DIAIAAAwCRawcbCoqvjAAAAABJRU5ErkJg gg==" />
          </switch>
        </g>
      </g>
    </g>
  </g>
  <g
     id="g3132"
     transform="translate(1.5960912,1.5960912)">
    <defs
       id="defs3134">
      <rect
         height="490"
         id="XMLID_17_"
         width="620"
         x="0"
         y="0" />
    </defs>
    <clipPath
       id="XMLID_67_">
      <use
         xlink:href="#XMLID_17_"
         id="use3138"
         x="0"
         y="0"
         width="620"
         height="490" />
    </clipPath>
    <path
       clip-path="url(#XMLID_67_)"
       d="m 10.5,80.5 m 0,0 60,50 v 300 l -60,50 v -400 z"
       i:knockout="Off"
       stroke-miterlimit="1"
       id="path3140"
       inkscape:connector-curvature="0"
       style="fill:none;stroke:#808080;stroke-width:3;stroke-linecap:round;stroke-linejoin:round;stroke-miterlimit:1" />
  </g>
  <g
     id="g3142"
     transform="translate(1.5960912,1.5960912)">
    <defs
       id="defs3144">
      <path
         d="m 10.5,480.5 m 0,0 60,-50 h 480 l 60,50 h -600 z"
         id="XMLID_19_"
         inkscape:connector-curvature="0" />
    </defs>
    <clipPath
       id="XMLID_68_">
      <use
         xlink:href="#XMLID_19_"
         id="use3148"
         x="0"
         y="0"
         width="620"
         height="490" />
    </clipPath>
    <g
       clip-path="url(#XMLID_68_)"
       id="g3150">
      <defs
         id="defs3152">
        <rect
           height="50"
           id="XMLID_21_"
           width="600"
           x="10.5"
           y="430.5" />
      </defs>
      <clipPath
         id="XMLID_69_">
        <use
           xlink:href="#XMLID_21_"
           id="use3156"
           x="0"
           y="0"
           width="620"
           height="490" />
      </clipPath>
      <g
         clip-path="url(#XMLID_69_)"
         id="g3158">
        <defs
           id="defs3160">
          <rect
             height="50"
             id="XMLID_23_"
             width="600"
             x="10.5"
             y="430.5" />
        </defs>
        <clipPath
           id="XMLID_70_">
          <use
             xlink:href="#XMLID_23_"
             id="use3164"
             x="0"
             y="0"
             width="620"
             height="490" />
        </clipPath>
        <g
           clip-path="url(#XMLID_70_)"
           id="g3166">
          <switch
             i:objectNS="http://ns.adobe.com/ImageReplacement/1.0/"
             i:objectType="replaceable-image"
             id="XMLID_72_"
             transform="matrix(1.5,0,0,-0.125,10.5,480.5)">
            <foreignObject
               height="400"
               overflow="visible"
               requiredExtensions="http://ns.adobe.com/ImageReplacement/1.0/"
               width="400"
               x="0"
               y="0"
               id="foreignObject3169">
              <ns:imageReplacement
                 align="center"
                 height="400"
                 placementMethod="ratio"
                 refHeight="400"
                 refWidth="400"
                 valign="middle"
                 width="400"
                 x="0"
                 y="0" />
              <x:targetRef
                 xlink:href="#XMLID_71_" />
            </foreignObject>
            <image
               height="400"
               i:knockout="Off"
               id="XMLID_71_"
               width="400"
               xlink:href="data:;base64,iVBORw0KGgoAAAANSUhEUgAAAZAAAAGQCAIAAAAP3aGbAAAACXBIWXMAAAsSAAALEgHS3X78AAAA BGdBTUEAANbY1E9YMgAAABl0RVh0U29mdHdhcmUAQWRvYmUgSW1hZ2VSZWFkeXHJZTwAABOISURB VHjaYmxoaGAYBaNgFIyCoQAAAohpNAhGwSgYBUMFAATQaIE1CkbBKBgyACCARgusUTAKRsGQAQAB xMLIyDgaCqNgFIyCIQEAAmi0hTUKRsEoGDIAIIBGC6xRMApGwZABAAE02iUcBaNgFAwZABBAoy2s UTAKRsGQAQABNFpgjYJRMAqGDAAIoNEu4SgYBaNgyACAABptYY2CUTAKhgwACKDRAmsUjIJRMGQA QACNdglHwSgYBUMGAATQaAtrFIyCUTBkAEAAjRZYo2AUjIIhAwACaLRLOApGwSgYMgAggEZbWKNg FIyCIQMAAmi0wBoFo2AUDBkAEECjXcJRMApGwZABAAE02sIaBaNgFAwZABBAowXWKBgFo2DIAIAA Gu0SjoJRMAqGDAAIoNEW1igYBaNgyACAABotsEbBKBgFQwYABNBogTUKRsEoGDIAIIBGx7BGwSgY BUMGAATQaAtrFIyCUTBkAEAAjRZYo2AUjIIhAwACaLRLOApGwSgYMgAggEZbWKNgFIyCIQMAAmi0 wBoFo2AUDBkAEECjXcJRMApGwZABAAE02sIaBaNgFAwZABBAowXWKBgFo2DIAIAAGu0SjoJRMAqG DAAIoNEW1igYBaNgyACAABotsEbBKBgFQwYABNBol3AUjIJRMGQAQACNtrBGwSgYBUMGAATQaIE1 CkbBKBgyACCARruEo2AUjIIhAwACaLSFNQpGwSgYMgAggEYLrFEwCkbBkAEAATTaJRwFo2AUDBkA EECjLaxRMApGwZABAAE0WmCNglEwCoYMAAig0QJrFIyCUTBkAEAAjY5hjYJRMAqGDAAIoNEW1igY BaNgyACAABotsEbBKBgFQwYABNBol3AUjIJRMGQAQACNtrBGwSgYBUMGAATQaIE1CkbBKBgyACCA RruEo2AUjIIhAwACaLSFNQpGwSgYMgAggEYLrFEwCkbBkAEAATTaJRwFo2AUDBkAEECjLaxRMApG wZABAAE0WmCNglEwCoYMAAig0S7hKBgFo2DIAIAAGm1hjYJRMAqGDAAIoNECaxSMglEwZABAAI12 CUfBKBgFQwYABNBoC2sUjIJRMGQAQACNFlijYBSMgiEDAAJotEs4CkbBKBgyACCARltYo2AUjIIh AwACaLTAGgWjYBQMGQAQQKMF1igYBaNgyACAABodwxoFo2AUDBkAEECjLaxRMApGwZABAAE0WmCN glEwCoYMAAig0S7hKBgFo2DIAIAAGm1hjYJRMAqGDAAIoNECaxSMglEwZABAAI12CUfBKBgFQwYA BNBoC2sUjIJRMGQAQACNFlijYBSMgiEDAAJotEs4CkbBKBgyACCARltYo2AUjIIhAwACaLTAGgWj YBQMGQAQQKNdwlEwCkbBkAEAATTawhoFo2AUDBkAEECjBdYoGAWjYMgAgAAa7RKOglEwCoYMAAig 0RbWKBgFo2DIAIAAGi2wRsEoGAVDBgAE0GiXcBSMglEwZABAAI22sEbBKBgFQwYABNBogTUKRsEo GDIAIIBGu4SjYBSMgiEDAAJotIU1CkbBKBgyACCARgusUTAKRsGQAQABNFpgjYJRMAqGDAAIoNEx rFEwCkbBkAEAATTawhoFo2AUDBkAEECjBdYoGAWjYMgAgAAa7RKOglEwCoYMAAig0RbWKBgFo2DI AIAAGi2wRsEoGAVDBgAE0GiXcBSMglEwZABAAI22sEbBKBgFQwYABNBogTUKRsEoGDIAIIBGu4Sj YBSMgiEDAAJotIU1CkbBKBgyACCARgusUTAKRsGQAQABNNolHAWjYBQMGQAQQKMtrFEwCkbBkAEA ATRaYI2CUTAKhgwACKDRLuEoGAWjYMgAgAAabWGNglEwCoYMAAig0QJrFIyCUTBkAEAAjXYJR8Eo GAVDBgAE0GgLaxSMglEwZABAAI0WWKNgFIyCIQMAAmi0wBoFo2AUDBkAEECjY1ijYBSMgiEDAAJo tIU1CkbBKBgyACCARgusUTAKRsGQAQABNNolHAWjYBQMGQAQQKMtrFEwCkbBkAEAATRaYI2CUTAK hgwACKDRLuEoGAWjYMgAgAAabWGNglEwCoYMAAig0QJrFIyCUTBkAEAAjXYJR8EoGAVDBgAE0GgL axSMglEwZABAAI0WWKNgFIyCIQMAAmi0SzgKRsEoGDIAIIBGW1ijYBSMgiEDAAJotMAaBaNgFAwZ ABBAo13CUTAKRsGQAQABNNrCGgWjYBQMGQAQQKMF1igYBaNgyACAABrtEo6CUTAKhgwACKDRFtYo GAWjYMgAgAAaLbBGwSgYBUMGAATQaIE1CkbBKBgyACCARsewRsEoGAVDBgAE0GgLaxSMglEwZABA AI0WWKNgFIyCIQMAAmi0SzgKRsEoGDIAIIBGW1ijYBSMgiEDAAJotMAaBaNgFAwZABBAo13CUTAK RsGQAQABNNrCGgWjYBQMGQAQQKMF1igYBaNgyACAABrtEo6CUTAKhgwACKDRFtYoGAWjYMgAgAAa LbBGwSgYBUMGAATQaJdwFIyCUTBkAEAAjbawRsEoGAVDBgAE0GiBNQpGwSgYMgAggEa7hKNgFIyC IQMAAmi0hTUKRsEoGDIAIIBGC6xRMApGwZABAAE02iUcBaNgFAwZABBAoy2sUTAKRsGQAQABNFpg jYJRMAqGDAAIoNEu4SgYBaNgyACAABptYY2CUTAKhgwACKDRAmsUjIJRMGQAQACNFlijYBSMgiED AAJodAxrFIyCUTBkAEAAjbawRsEoGAVDBgAE0GiBNQpGwSgYMgAggEa7hKNgFIyCIQMAAmi0hTUK RsEoGDIAIIBGC6xRMApGwZABAAE02iUcBaNgFAwZABBAoy2sUTAKRsGQAQABNFpgjYJRMAqGDAAI oNEu4SgYBaNgyACAABptYY2CUTAKhgwACKDRAmsUjIJRMGQAQACNdglHwSgYBUMGAATQaAtrFIyC UTBkAEAAjRZYo2AUjIIhAwACaLRLOApGwSgYMgAggEZbWKNgFIyCIQMAAmi0wBoFo2AUDBkAEECj XcJRMApGwZABAAE02sIaBaNgFAwZABBAowXWKBgFo2DIAIAAGi2wRsEoGAVDBgAE0OgY1igYBaNg yACAABptYY2CUTAKhgwACKDRAmsUjIJRMGQAQACNdglHwSgYBUMGAATQaAtrFIyCUTBkAEAAjRZY o2AUjIIhAwACaLRLOApGwSgYMgAggEZbWKNgFIyCIQMAAmi0wBoFo2AUDBkAEECjXcJRMApGwZAB AAE02sIaBaNgFAwZABBAowXWKBgFo2DIAIAAGu0SjoJRMAqGDAAIoNEW1igYBaNgyACAABotsEbB KBgFQwYABNBol3AUjIJRMGQAQACNtrBGwSgYBUMGAATQaIE1CkbBKBgyACCARruEo2AUjIIhAwAC aLSFNQpGwSgYMgAggEYLrFEwCkbBkAEAATRaYI2CUTAKhgwACKDRMaxRMApGwZABAAE02sIaBaNg FAwZABBAowXWKBgFo2DIAIAAGu0SjoJRMAqGDAAIoNEW1igYBaNgyACAABotsEbBKBgFQwYABNBo l3AUjIJRMGQAQACNtrBGwSgYBUMGAATQaIE1CkbBKBgyACCARruEo2AUjIIhAwACaLSFNQpGwSgY MgAggEYLrFEwCkbBkAEAATTaJRwFo2AUDBkAEECjLaxRMApGwZABAAE0WmCNglEwCoYMAAig0S7h KBgFo2DIAIAAGm1hjYJRMAqGDAAIoNECaxSMglEwZABAAI12CUfBKBgFQwYABNBoC2sUjIJRMGQA QACNFlijYBSMgiEDAAJotMAaBaNgFAwZABBAo2NYo2AUjIIhAwACaLSFNQpGwSgYMgAggEYLrFEw CkbBkAEAATTaJRwFo2AUDBkAEECjLaxRMApGwZABAAE0WmCNglEwCoYMAAig0S7hKBgFo2DIAIAA Gm1hjYJRMAqGDAAIoNECaxSMglEwZABAAI12CUfBKBgFQwYABNBoC2sUjIJRMGQAQACNFlijYBSM giEDAAJotEs4CkbBKBgyACCARltYo2AUjIIhAwACaLTAGgWjYBQMGQAQQKNdwlEwCkbBkAEAATTa whoFo2AUDBkAEECjBdYoGAWjYMgAgAAa7RKOglEwCoYMAAig0RbWKBgFo2DIAIAAGi2wRsEoGAVD BgAE0GiXcBSMglEwZABAAI22sEbBKBgFQwYABNBogTUKRsEoGDIAIIBGC6xRMApGwZABAAE0OoY1 CkbBKBgyACCARltYo2AUjIIhAwACaLTAGgWjYBQMGQAQQKNdwlEwCkbBkAEAATTawhoFo2AUDBkA EECjBdYoGAWjYMgAgAAa7RKOglEwCoYMAAig0RbWKBgFo2DIAIAAGi2wRsEoGAVDBgAE0GiXcBSM glEwZABAAI22sEbBKBgFQwYABNBogTUKRsEoGDIAIIBGu4SjYBSMgiEDAAJotIU1CkbBKBgyACCA RgusUTAKRsGQAQABNNolHAWjYBQMGQAQQKMtrFEwCkbBkAEAATRaYI2CUTAKhgwACKDRLuEoGAWj YMgAgAAabWGNglEwCoYMAAig0QJrFIyCUTBkAEAAjRZYo2AUjIIhAwACaHQMaxSMglEwZABAAI22 sEbBKBgFQwYABNBogTUKRsEoGDIAIIBGu4SjYBSMgiEDAAJotIU1CkbBKBgyACCARgusUTAKRsGQ AQABNNolHAWjYBQMGQAQQKMtrFEwCkbBkAEAATRaYI2CUTAKhgwACKDRLuEoGAWjYMgAgAAabWGN glEwCoYMAAig0QJrFIyCUTBkAEAAjXYJR8EoGAVDBgAE0GgLaxSMglEwZABAAI0WWKNgFIyCIQMA Ami0SzgKRsEoGDIAIIBGW1ijYBSMgiEDAAJotMAaBaNgFAwZABBAo13CUTAKRsGQAQABNNrCGgWj YBQMGQAQQKMF1igYBaNgyACAABotsEbBKBgFQwYABNDoGNYoGAWjYMgAgAAabWGNglEwCoYMAAig 0QJrFIyCUTBkAEAAjXYJR8EoGAVDBgAE0GgLaxSMglEwZABAAI0WWKNgFIyCIQMAAmi0SzgKRsEo GDIAIIBGW1ijYBSMgiEDAAJotMAaBaNgFAwZABBAo13CUTAKRsGQAQABNNrCGgWjYBQMGQAQQKMF 1igYBaNgyACAABrtEo6CUTAKhgwACKDRFtYoGAWjYMgAgAAaLbBGwSgYBUMGAATQaJdwFIyCUTBk AEAAjbawRsEoGAVDBgAE0GiBNQpGwSgYMgAggEa7hKNgFIyCIQMAAmi0hTUKRsEoGDIAIIBGC6xR MApGwZABAAE02iUcBaNgFAwZABBAoy2sUTAKRsGQAQABNFpgjYJRMAqGDAAIoNECaxSMglEwZABA AI2OYY2CUTAKhgwACKDRFtYoGAWjYMgAgAAaLbBGwSgYBUMGAATQaJdwFIyCUTBkAEAAjbawRsEo GAVDBgAE0GiBNQpGwSgYMgAggEa7hKNgFIyCIQMAAmi0hTUKRsEoGDIAIIBGC6xRMApGwZABAAE0 2iUcBaNgFAwZABBAoy2sUTAKRsGQAQABNFpgjYJRMAqGDAAIoNEu4SgYBaNgyACAABptYY2CUTAK hgwACKDRAmsUjIJRMGQAQACNdglHwSgYBUMGAATQaAtrFIyCUTBkAEAAjRZYo2AUjIIhAwACaLRL OApGwSgYMgAggEZbWKNgFIyCIQMAAmi0wBoFo2AUDBkAEECjBdYoGAWjYMgAgAAaHcMaBaNgFAwZ ABBAoy2sUTAKRsGQAQABNFpgjYJRMAqGDAAIoNEu4SgYBaNgyACAABptYY2CUTAKhgwACKDRAmsU jIJRMGQAQACNdglHwSgYBUMGAATQaAtrFIyCUTBkAEAAjRZYo2AUjIIhAwACaLRLOApGwSgYMgAg gEZbWKNgFIyCIQMAAmi0wBoFo2AUDBkAEECjXcJRMApGwZABAAE02sIaBaNgFAwZABBAowXWKBgF o2DIAIAAGu0SjoJRMAqGDAAIoNEW1igYBaNgyACAABotsEbBKBgFQwYABNBol3AUjIJRMGQAQACN trBGwSgYBUMGAATQaIE1CkbBKBgyACCARgusUTAKRsGQAQABNDqGNQpGwSgYMgAggEZbWKNgFIyC IQMAAmi0wBoFo2AUDBkAEECjXcJRMApGwZABAAE02sIaBaNgFAwZABBAowXWKBgFo2DIAIAAGu0S joJRMAqGDAAIoNEW1igYBaNgyACAABotsEbBKBgFQwYABNBol3AUjIJRMGQAQACNtrBGwSgYBUMG AATQaIE1CkbBKBgyACCARruEo2AUjIIhAwACaLSFNQpGwSgYMgAggEYLrFEwCkbBkAEAATTaJRwF o2AUDBkAEECjLaxRMApGwZABAAE0WmCNglEwCoYMAAig0S7hKBgFo2DIAIAAGm1hjYJRMAqGDAAI oNECaxSMglEwZABAAI0WWKNgFIyCIQMAAmh0DGsUjIJRMGQAQACNtrBGwSgYBUMGAATQaIE1CkbB KBgyACCARruEo2AUjIIhAwACaLSFNQpGwSgYMgAggEYLrFEwCkbBkAEAATTaJRwFo2AUDBkAEECj LaxRMApGwZABAAE0WmCNglEwCoYMAAig0S7hKBgFo2DIAIAAAwCRawcbCoqvjAAAAABJRU5ErkJg gg==" />
          </switch>
        </g>
      </g>
    </g>
  </g>
  <g
     id="g3172"
     transform="translate(1.5960912,1.5960912)">
    <defs
       id="defs3174">
      <rect
         height="490"
         id="XMLID_25_"
         width="620"
         x="0"
         y="0" />
    </defs>
    <clipPath
       id="XMLID_73_">
      <use
         xlink:href="#XMLID_25_"
         id="use3178"
         x="0"
         y="0"
         width="620"
         height="490" />
    </clipPath>
    <path
       clip-path="url(#XMLID_73_)"
       d="m 10.5,480.5 m 0,0 60,-50 h 480 l 60,50 h -600 z"
       i:knockout="Off"
       stroke-miterlimit="1"
       id="path3180"
       inkscape:connector-curvature="0"
       style="fill:none;stroke:#808080;stroke-width:3;stroke-linecap:round;stroke-linejoin:round;stroke-miterlimit:1" />
  </g>
  <g
     id="g3182"
     transform="translate(1.5960912,1.5960912)">
    <defs
       id="defs3184">
      <path
         d="m 550.5,130.5 m 0,0 60,-50 v 400 l -60,-50 v -300 z"
         id="XMLID_27_"
         inkscape:connector-curvature="0" />
    </defs>
    <clipPath
       id="XMLID_74_">
      <use
         xlink:href="#XMLID_27_"
         id="use3188"
         x="0"
         y="0"
         width="620"
         height="490" />
    </clipPath>
    <g
       clip-path="url(#XMLID_74_)"
       id="g3190">
      <defs
         id="defs3192">
        <rect
           height="400"
           id="XMLID_29_"
           width="60"
           x="550.5"
           y="80.5" />
      </defs>
      <clipPath
         id="XMLID_75_">
        <use
           xlink:href="#XMLID_29_"
           id="use3196"
           x="0"
           y="0"
           width="620"
           height="490" />
      </clipPath>
      <g
         clip-path="url(#XMLID_75_)"
         id="g3198">
        <defs
           id="defs3200">
          <rect
             height="400"
             id="XMLID_31_"
             width="60"
             x="550.5"
             y="80.5" />
        </defs>
        <clipPath
           id="XMLID_76_">
          <use
             xlink:href="#XMLID_31_"
             id="use3204"
             x="0"
             y="0"
             width="620"
             height="490" />
        </clipPath>
        <g
           clip-path="url(#XMLID_76_)"
           id="g3206">
          <switch
             i:objectNS="http://ns.adobe.com/ImageReplacement/1.0/"
             i:objectType="replaceable-image"
             id="XMLID_78_"
             transform="matrix(0.15,0,0,-1,550.5,480.5)">
            <foreignObject
               height="400"
               overflow="visible"
               requiredExtensions="http://ns.adobe.com/ImageReplacement/1.0/"
               width="400"
               x="0"
               y="0"
               id="foreignObject3209">
              <ns:imageReplacement
                 align="center"
                 height="400"
                 placementMethod="ratio"
                 refHeight="400"
                 refWidth="400"
                 valign="middle"
                 width="400"
                 x="0"
                 y="0" />
              <x:targetRef
                 xlink:href="#XMLID_77_" />
            </foreignObject>
            <image
               height="400"
               i:knockout="Off"
               id="XMLID_77_"
               width="400"
               xlink:href="data:;base64,iVBORw0KGgoAAAANSUhEUgAAAZAAAAGQCAIAAAAP3aGbAAAACXBIWXMAAAsSAAALEgHS3X78AAAA BGdBTUEAANbY1E9YMgAAABl0RVh0U29mdHdhcmUAQWRvYmUgSW1hZ2VSZWFkeXHJZTwAABOISURB VHjaYmxoaGAYBaNgFIyCoQAAAohpNAhGwSgYBUMFAATQaIE1CkbBKBgyACCARgusUTAKRsGQAQAB xMLIyDgaCqNgFIyCIQEAAmi0hTUKRsEoGDIAIIBGC6xRMApGwZABAAE02iUcBaNgFAwZABBAoy2s UTAKRsGQAQABNFpgjYJRMAqGDAAIoNEu4SgYBaNgyACAABptYY2CUTAKhgwACKDRAmsUjIJRMGQA QACNdglHwSgYBUMGAATQaAtrFIyCUTBkAEAAjRZYo2AUjIIhAwACaLRLOApGwSgYMgAggEZbWKNg FIyCIQMAAmi0wBoFo2AUDBkAEECjXcJRMApGwZABAAE02sIaBaNgFAwZABBAowXWKBgFo2DIAIAA Gu0SjoJRMAqGDAAIoNEW1igYBaNgyACAABotsEbBKBgFQwYABNBogTUKRsEoGDIAIIBGx7BGwSgY BUMGAATQaAtrFIyCUTBkAEAAjRZYo2AUjIIhAwACaLRLOApGwSgYMgAggEZbWKNgFIyCIQMAAmi0 wBoFo2AUDBkAEECjXcJRMApGwZABAAE02sIaBaNgFAwZABBAowXWKBgFo2DIAIAAGu0SjoJRMAqG DAAIoNEW1igYBaNgyACAABotsEbBKBgFQwYABNBol3AUjIJRMGQAQACNtrBGwSgYBUMGAATQaIE1 CkbBKBgyACCARruEo2AUjIIhAwACaLSFNQpGwSgYMgAggEYLrFEwCkbBkAEAATTaJRwFo2AUDBkA EECjLaxRMApGwZABAAE0WmCNglEwCoYMAAig0QJrFIyCUTBkAEAAjY5hjYJRMAqGDAAIoNEW1igY BaNgyACAABotsEbBKBgFQwYABNBol3AUjIJRMGQAQACNtrBGwSgYBUMGAATQaIE1CkbBKBgyACCA RruEo2AUjIIhAwACaLSFNQpGwSgYMgAggEYLrFEwCkbBkAEAATTaJRwFo2AUDBkAEECjLaxRMApG wZABAAE0WmCNglEwCoYMAAig0S7hKBgFo2DIAIAAGm1hjYJRMAqGDAAIoNECaxSMglEwZABAAI12 CUfBKBgFQwYABNBoC2sUjIJRMGQAQACNFlijYBSMgiEDAAJotEs4CkbBKBgyACCARltYo2AUjIIh AwACaLTAGgWjYBQMGQAQQKMF1igYBaNgyACAABodwxoFo2AUDBkAEECjLaxRMApGwZABAAE0WmCN glEwCoYMAAig0S7hKBgFo2DIAIAAGm1hjYJRMAqGDAAIoNECaxSMglEwZABAAI12CUfBKBgFQwYA BNBoC2sUjIJRMGQAQACNFlijYBSMgiEDAAJotEs4CkbBKBgyACCARltYo2AUjIIhAwACaLTAGgWj YBQMGQAQQKNdwlEwCkbBkAEAATTawhoFo2AUDBkAEECjBdYoGAWjYMgAgAAa7RKOglEwCoYMAAig 0RbWKBgFo2DIAIAAGi2wRsEoGAVDBgAE0GiXcBSMglEwZABAAI22sEbBKBgFQwYABNBogTUKRsEo GDIAIIBGu4SjYBSMgiEDAAJotIU1CkbBKBgyACCARgusUTAKRsGQAQABNFpgjYJRMAqGDAAIoNEx rFEwCkbBkAEAATTawhoFo2AUDBkAEECjBdYoGAWjYMgAgAAa7RKOglEwCoYMAAig0RbWKBgFo2DI AIAAGi2wRsEoGAVDBgAE0GiXcBSMglEwZABAAI22sEbBKBgFQwYABNBogTUKRsEoGDIAIIBGu4Sj YBSMgiEDAAJotIU1CkbBKBgyACCARgusUTAKRsGQAQABNNolHAWjYBQMGQAQQKMtrFEwCkbBkAEA ATRaYI2CUTAKhgwACKDRLuEoGAWjYMgAgAAabWGNglEwCoYMAAig0QJrFIyCUTBkAEAAjXYJR8Eo GAVDBgAE0GgLaxSMglEwZABAAI0WWKNgFIyCIQMAAmi0wBoFo2AUDBkAEECjY1ijYBSMgiEDAAJo tIU1CkbBKBgyACCARgusUTAKRsGQAQABNNolHAWjYBQMGQAQQKMtrFEwCkbBkAEAATRaYI2CUTAK hgwACKDRLuEoGAWjYMgAgAAabWGNglEwCoYMAAig0QJrFIyCUTBkAEAAjXYJR8EoGAVDBgAE0GgL axSMglEwZABAAI0WWKNgFIyCIQMAAmi0SzgKRsEoGDIAIIBGW1ijYBSMgiEDAAJotMAaBaNgFAwZ ABBAo13CUTAKRsGQAQABNNrCGgWjYBQMGQAQQKMF1igYBaNgyACAABrtEo6CUTAKhgwACKDRFtYo GAWjYMgAgAAaLbBGwSgYBUMGAATQaIE1CkbBKBgyACCARsewRsEoGAVDBgAE0GgLaxSMglEwZABA AI0WWKNgFIyCIQMAAmi0SzgKRsEoGDIAIIBGW1ijYBSMgiEDAAJotMAaBaNgFAwZABBAo13CUTAK RsGQAQABNNrCGgWjYBQMGQAQQKMF1igYBaNgyACAABrtEo6CUTAKhgwACKDRFtYoGAWjYMgAgAAa LbBGwSgYBUMGAATQaJdwFIyCUTBkAEAAjbawRsEoGAVDBgAE0GiBNQpGwSgYMgAggEa7hKNgFIyC IQMAAmi0hTUKRsEoGDIAIIBGC6xRMApGwZABAAE02iUcBaNgFAwZABBAoy2sUTAKRsGQAQABNFpg jYJRMAqGDAAIoNEu4SgYBaNgyACAABptYY2CUTAKhgwACKDRAmsUjIJRMGQAQACNFlijYBSMgiED AAJodAxrFIyCUTBkAEAAjbawRsEoGAVDBgAE0GiBNQpGwSgYMgAggEa7hKNgFIyCIQMAAmi0hTUK RsEoGDIAIIBGC6xRMApGwZABAAE02iUcBaNgFAwZABBAoy2sUTAKRsGQAQABNFpgjYJRMAqGDAAI oNEu4SgYBaNgyACAABptYY2CUTAKhgwACKDRAmsUjIJRMGQAQACNdglHwSgYBUMGAATQaAtrFIyC UTBkAEAAjRZYo2AUjIIhAwACaLRLOApGwSgYMgAggEZbWKNgFIyCIQMAAmi0wBoFo2AUDBkAEECj XcJRMApGwZABAAE02sIaBaNgFAwZABBAowXWKBgFo2DIAIAAGi2wRsEoGAVDBgAE0OgY1igYBaNg yACAABptYY2CUTAKhgwACKDRAmsUjIJRMGQAQACNdglHwSgYBUMGAATQaAtrFIyCUTBkAEAAjRZY o2AUjIIhAwACaLRLOApGwSgYMgAggEZbWKNgFIyCIQMAAmi0wBoFo2AUDBkAEECjXcJRMApGwZAB AAE02sIaBaNgFAwZABBAowXWKBgFo2DIAIAAGu0SjoJRMAqGDAAIoNEW1igYBaNgyACAABotsEbB KBgFQwYABNBol3AUjIJRMGQAQACNtrBGwSgYBUMGAATQaIE1CkbBKBgyACCARruEo2AUjIIhAwAC aLSFNQpGwSgYMgAggEYLrFEwCkbBkAEAATRaYI2CUTAKhgwACKDRMaxRMApGwZABAAE02sIaBaNg FAwZABBAowXWKBgFo2DIAIAAGu0SjoJRMAqGDAAIoNEW1igYBaNgyACAABotsEbBKBgFQwYABNBo l3AUjIJRMGQAQACNtrBGwSgYBUMGAATQaIE1CkbBKBgyACCARruEo2AUjIIhAwACaLSFNQpGwSgY MgAggEYLrFEwCkbBkAEAATTaJRwFo2AUDBkAEECjLaxRMApGwZABAAE0WmCNglEwCoYMAAig0S7h KBgFo2DIAIAAGm1hjYJRMAqGDAAIoNECaxSMglEwZABAAI12CUfBKBgFQwYABNBoC2sUjIJRMGQA QACNFlijYBSMgiEDAAJotMAaBaNgFAwZABBAo2NYo2AUjIIhAwACaLSFNQpGwSgYMgAggEYLrFEw CkbBkAEAATTaJRwFo2AUDBkAEECjLaxRMApGwZABAAE0WmCNglEwCoYMAAig0S7hKBgFo2DIAIAA Gm1hjYJRMAqGDAAIoNECaxSMglEwZABAAI12CUfBKBgFQwYABNBoC2sUjIJRMGQAQACNFlijYBSM giEDAAJotEs4CkbBKBgyACCARltYo2AUjIIhAwACaLTAGgWjYBQMGQAQQKNdwlEwCkbBkAEAATTa whoFo2AUDBkAEECjBdYoGAWjYMgAgAAa7RKOglEwCoYMAAig0RbWKBgFo2DIAIAAGi2wRsEoGAVD BgAE0GiXcBSMglEwZABAAI22sEbBKBgFQwYABNBogTUKRsEoGDIAIIBGC6xRMApGwZABAAE0OoY1 CkbBKBgyACCARltYo2AUjIIhAwACaLTAGgWjYBQMGQAQQKNdwlEwCkbBkAEAATTawhoFo2AUDBkA EECjBdYoGAWjYMgAgAAa7RKOglEwCoYMAAig0RbWKBgFo2DIAIAAGi2wRsEoGAVDBgAE0GiXcBSM glEwZABAAI22sEbBKBgFQwYABNBogTUKRsEoGDIAIIBGu4SjYBSMgiEDAAJotIU1CkbBKBgyACCA RgusUTAKRsGQAQABNNolHAWjYBQMGQAQQKMtrFEwCkbBkAEAATRaYI2CUTAKhgwACKDRLuEoGAWj YMgAgAAabWGNglEwCoYMAAig0QJrFIyCUTBkAEAAjRZYo2AUjIIhAwACaHQMaxSMglEwZABAAI22 sEbBKBgFQwYABNBogTUKRsEoGDIAIIBGu4SjYBSMgiEDAAJotIU1CkbBKBgyACCARgusUTAKRsGQ AQABNNolHAWjYBQMGQAQQKMtrFEwCkbBkAEAATRaYI2CUTAKhgwACKDRLuEoGAWjYMgAgAAabWGN glEwCoYMAAig0QJrFIyCUTBkAEAAjXYJR8EoGAVDBgAE0GgLaxSMglEwZABAAI0WWKNgFIyCIQMA Ami0SzgKRsEoGDIAIIBGW1ijYBSMgiEDAAJotMAaBaNgFAwZABBAo13CUTAKRsGQAQABNNrCGgWj YBQMGQAQQKMF1igYBaNgyACAABotsEbBKBgFQwYABNDoGNYoGAWjYMgAgAAabWGNglEwCoYMAAig 0QJrFIyCUTBkAEAAjXYJR8EoGAVDBgAE0GgLaxSMglEwZABAAI0WWKNgFIyCIQMAAmi0SzgKRsEo GDIAIIBGW1ijYBSMgiEDAAJotMAaBaNgFAwZABBAo13CUTAKRsGQAQABNNrCGgWjYBQMGQAQQKMF 1igYBaNgyACAABrtEo6CUTAKhgwACKDRFtYoGAWjYMgAgAAaLbBGwSgYBUMGAATQaJdwFIyCUTBk AEAAjbawRsEoGAVDBgAE0GiBNQpGwSgYMgAggEa7hKNgFIyCIQMAAmi0hTUKRsEoGDIAIIBGC6xR MApGwZABAAE02iUcBaNgFAwZABBAoy2sUTAKRsGQAQABNFpgjYJRMAqGDAAIoNECaxSMglEwZABA AI2OYY2CUTAKhgwACKDRFtYoGAWjYMgAgAAaLbBGwSgYBUMGAATQaJdwFIyCUTBkAEAAjbawRsEo GAVDBgAE0GiBNQpGwSgYMgAggEa7hKNgFIyCIQMAAmi0hTUKRsEoGDIAIIBGC6xRMApGwZABAAE0 2iUcBaNgFAwZABBAoy2sUTAKRsGQAQABNFpgjYJRMAqGDAAIoNEu4SgYBaNgyACAABptYY2CUTAK hgwACKDRAmsUjIJRMGQAQACNdglHwSgYBUMGAATQaAtrFIyCUTBkAEAAjRZYo2AUjIIhAwACaLRL OApGwSgYMgAggEZbWKNgFIyCIQMAAmi0wBoFo2AUDBkAEECjBdYoGAWjYMgAgAAaHcMaBaNgFAwZ ABBAoy2sUTAKRsGQAQABNFpgjYJRMAqGDAAIoNEu4SgYBaNgyACAABptYY2CUTAKhgwACKDRAmsU jIJRMGQAQACNdglHwSgYBUMGAATQaAtrFIyCUTBkAEAAjRZYo2AUjIIhAwACaLRLOApGwSgYMgAg gEZbWKNgFIyCIQMAAmi0wBoFo2AUDBkAEECjXcJRMApGwZABAAE02sIaBaNgFAwZABBAowXWKBgF o2DIAIAAGu0SjoJRMAqGDAAIoNEW1igYBaNgyACAABotsEbBKBgFQwYABNBol3AUjIJRMGQAQACN trBGwSgYBUMGAATQaIE1CkbBKBgyACCARgusUTAKRsGQAQABNDqGNQpGwSgYMgAggEZbWKNgFIyC IQMAAmi0wBoFo2AUDBkAEECjXcJRMApGwZABAAE02sIaBaNgFAwZABBAowXWKBgFo2DIAIAAGu0S joJRMAqGDAAIoNEW1igYBaNgyACAABotsEbBKBgFQwYABNBol3AUjIJRMGQAQACNtrBGwSgYBUMG AATQaIE1CkbBKBgyACCARruEo2AUjIIhAwACaLSFNQpGwSgYMgAggEYLrFEwCkbBkAEAATTaJRwF o2AUDBkAEECjLaxRMApGwZABAAE0WmCNglEwCoYMAAig0S7hKBgFo2DIAIAAGm1hjYJRMAqGDAAI oNECaxSMglEwZABAAI0WWKNgFIyCIQMAAmh0DGsUjIJRMGQAQACNtrBGwSgYBUMGAATQaIE1CkbB KBgyACCARruEo2AUjIIhAwACaLSFNQpGwSgYMgAggEYLrFEwCkbBkAEAATTaJRwFo2AUDBkAEECj LaxRMApGwZABAAE0WmCNglEwCoYMAAig0S7hKBgFo2DIAIAAAwCRawcbCoqvjAAAAABJRU5ErkJg gg==" />
          </switch>
        </g>
      </g>
    </g>
  </g>
  <g
     id="g3212"
     transform="translate(1.5960912,1.5960912)">
    <defs
       id="defs3214">
      <rect
         height="490"
         id="XMLID_33_"
         width="620"
         x="0"
         y="0" />
    </defs>
    <clipPath
       id="XMLID_79_">
      <use
         xlink:href="#XMLID_33_"
         id="use3218"
         x="0"
         y="0"
         width="620"
         height="490" />
    </clipPath>
    <path
       clip-path="url(#XMLID_79_)"
       d="m 550.5,130.5 m 0,0 60,-50 v 400 l -60,-50 v -300 z"
       i:knockout="Off"
       stroke-miterlimit="1"
       id="path3220"
       inkscape:connector-curvature="0"
       style="fill:none;stroke:#808080;stroke-width:3;stroke-linecap:round;stroke-linejoin:round;stroke-miterlimit:1" />
  </g>
  <g
     id="g3222"
     transform="translate(1.5960912,1.5960912)">
    <defs
       id="defs3224">
      <path
         d="m 530,420 m 0,0 H 90 c -5.523,0 -10,-4.477 -10,-10 V 150 c 0,-5.523 4.477,-10 10,-10 h 440 c 5.523,0 10,4.477 10,10 v 260 c 0,5.523 -4.477,10 -10,10 z"
         id="XMLID_35_"
         inkscape:connector-curvature="0" />
    </defs>
    <clipPath
       id="XMLID_80_">
      <use
         xlink:href="#XMLID_35_"
         id="use3228"
         x="0"
         y="0"
         width="620"
         height="490" />
    </clipPath>
    <g
       clip-path="url(#XMLID_80_)"
       id="g3230">
      <defs
         id="defs3232">
        <rect
           height="280"
           id="XMLID_37_"
           width="460"
           x="80"
           y="140" />
      </defs>
      <clipPath
         id="XMLID_81_">
        <use
           xlink:href="#XMLID_37_"
           id="use3236"
           x="0"
           y="0"
           width="620"
           height="490" />
      </clipPath>
      <g
         clip-path="url(#XMLID_81_)"
         id="g3238">
        <defs
           id="defs3240">
          <rect
             height="280"
             id="XMLID_39_"
             width="460"
             x="80"
             y="140" />
        </defs>
        <clipPath
           id="XMLID_82_">
          <use
             xlink:href="#XMLID_39_"
             id="use3244"
             x="0"
             y="0"
             width="620"
             height="490" />
        </clipPath>
        <g
           clip-path="url(#XMLID_82_)"
           id="g3246">
          <switch
             i:objectNS="http://ns.adobe.com/ImageReplacement/1.0/"
             i:objectType="replaceable-image"
             id="XMLID_84_"
             transform="matrix(1.15,0,0,-0.7,80,420)">
            <foreignObject
               height="400"
               overflow="visible"
               requiredExtensions="http://ns.adobe.com/ImageReplacement/1.0/"
               width="400"
               x="0"
               y="0"
               id="foreignObject3249">
              <ns:imageReplacement
                 align="center"
                 height="400"
                 placementMethod="ratio"
                 refHeight="400"
                 refWidth="400"
                 valign="middle"
                 width="400"
                 x="0"
                 y="0" />
              <x:targetRef
                 xlink:href="#XMLID_83_" />
            </foreignObject>
            <image
               height="400"
               i:knockout="Off"
               id="XMLID_83_"
               width="400"
               xlink:href="data:;base64,iVBORw0KGgoAAAANSUhEUgAAAZAAAAGQCAIAAAAP3aGbAAAACXBIWXMAAAsSAAALEgHS3X78AAAA BGdBTUEAANbY1E9YMgAAABl0RVh0U29mdHdhcmUAQWRvYmUgSW1hZ2VSZWFkeXHJZTwAABNjSURB VHjaYjz6+AnDKBgFo2AUDAUAEEBMo0EwCkbBKBgqACCARgusUTAKRsGQAQABNFpgjYJRMAqGDAAI oNECaxSMglEwZABAAI0WWKNgFIyCIQMAAmi0wBoFo2AUDBkAEECjBdYoGAWjYMgAgAAaLbBGwSgY BUMGAATQaIE1CkbBKBgyACCARgusUTAKRsGQAQABNFpgjYJRMAqGDAAIoNECaxSMglEwZABAAI0W WKNgFIyCIQMAAmi0wBoFo2AUDBkAEECjBdYoGAWjYMgAgAAaLbBGwSgYBUMGAATQaIE1CkbBKBgy ACCARgusUTAKRsGQAQABNFpgjYJRMAqGDAAIoNECaxSMglEwZABAAI0WWKNgFIyCIQMAAmi0wBoF o2AUDBkAEECjBdYoGAWjYMgAgAAaLbBGwSgYBUMGAATQaIE1CkbBKBgyACCARgusUTAKRsGQAQAB NFpgjYJRMAqGDAAIoNECaxSMglEwZABAAI0WWKNgFIyCIQMAAmi0wBoFo2AUDBkAEECjBdYoGAWj YMgAgAAaLbBGwSgYBUMGAATQaIE1CkbBKBgyACCARgusUTAKRsGQAQABNFpgjYJRMAqGDAAIoNEC axSMglEwZABAAI0WWKNgFIyCIQMAAmi0wBoFo2AUDBkAEECjBdYoGAWjYMgAgAAaLbBGwSgYBUMG AATQaIE1CkbBKBgyACCARgusUTAKRsGQAQABNFpgjYJRMAqGDAAIoNECaxSMglEwZABAAI0WWKNg FIyCIQMAAmi0wBoFo2AUDBkAEECjBdYoGAWjYMgAgAAaLbBGwSgYBUMGAATQaIE1CkbBKBgyACCA RgusUTAKRsGQAQABNFpgjYJRMAqGDAAIoNECaxSMglEwZABAAI0WWKNgFIyCIQMAAmi0wBoFo2AU DBkAEECjBdYoGAWjYMgAgAAaLbBGwSgYBUMGAATQaIE1CkbBKBgyACCARgusUTAKRsGQAQABNFpg jYJRMAqGDAAIoNECaxSMglEwZABAAI0WWKNgFIyCIQMAAmi0wBoFo2AUDBkAEECjBdYoGAWjYMgA gAAaLbBGwSgYBUMGAATQaIE1CkbBKBgyACCARgusUTAKRsGQAQABNFpgjYJRMAqGDAAIoNECaxSM glEwZABAAI0WWKNgFIyCIQMAAmi0wBoFo2AUDBkAEECjBdYoGAWjYMgAgAAaLbBGwSgYBUMGAATQ aIE1CkbBKBgyACCARgusUTAKRsGQAQABNFpgjYJRMAqGDAAIoNECaxSMglEwZABAAI0WWKNgFIyC IQMAAmi0wBoFo2AUDBkAEECjBdYoGAWjYMgAgAAaLbBGwSgYBUMGAATQaIE1CkbBKBgyACCARgus UTAKRsGQAQABNFpgjYJRMAqGDAAIoNECaxSMglEwZABAAI0WWKNgFIyCIQMAAmi0wBoFo2AUDBkA EECjBdYoGAWjYMgAgAAaLbBGwSgYBUMGAATQaIE1CkbBKBgyACCARgusUTAKRsGQAQABNFpgjYJR MAqGDAAIoNECaxSMglEwZABAAI0WWKNgFIyCIQMAAmi0wBoFo2AUDBkAEECjBdYoGAWjYMgAgAAa LbBGwSgYBUMGAATQaIE1CkbBKBgyACCARgusUTAKRsGQAQABNFpgjYJRMAqGDAAIoNECaxSMglEw ZABAAI0WWKNgFIyCIQMAAmi0wBoFo2AUDBkAEECjBdYoGAWjYMgAgAAaLbBGwSgYBUMGAATQaIE1 CkbBKBgyACCARgusUTAKRsGQAQABNFpgjYJRMAqGDAAIoNECaxSMglEwZABAAI0WWKNgFIyCIQMA Ami0wBoFo2AUDBkAEECjBdYoGAWjYMgAgAAaLbBGwSgYBUMGAATQaIE1CkbBKBgyACCARgusUTAK RsGQAQABNFpgjYJRMAqGDAAIoNECaxSMglEwZABAAI0WWKNgFIyCIQMAAmi0wBoFo2AUDBkAEECj BdYoGAWjYMgAgAAaLbBGwSgYBUMGAATQaIE1CkbBKBgyACCARgusUTAKRsGQAQABNFpgjYJRMAqG DAAIoNECaxSMglEwZABAAI0WWKNgFIyCIQMAAmi0wBoFo2AUDBkAEECjBdYoGAWjYMgAgAAaLbBG wSgYBUMGAATQaIE1CkbBKBgyACCARgusUTAKRsGQAQABNFpgjYJRMAqGDAAIoNECaxSMglEwZABA AI0WWKNgFIyCIQMAAmi0wBoFo2AUDBkAEECjBdYoGAWjYMgAgAAaLbBGwSgYBUMGAATQaIE1CkbB KBgyACCARgusUTAKRsGQAQABNFpgjYJRMAqGDAAIoNECaxSMglEwZABAAI0WWKNgFIyCIQMAAmi0 wBoFo2AUDBkAEECjBdYoGAWjYMgAgAAaLbBGwSgYBUMGAATQaIE1CkbBKBgyACCARgusUTAKRsGQ AQABNFpgjYJRMAqGDAAIoNECaxSMglEwZABAAI0WWKNgFIyCIQMAAmi0wBoFo2AUDBkAEECjBdYo GAWjYMgAgAAaLbBGwSgYBUMGAATQaIE1CkbBKBgyACCARgusUTAKRsGQAQABNFpgjYJRMAqGDAAI oNECaxSMglEwZABAAI0WWKNgFIyCIQMAAmi0wBoFo2AUDBkAEECjBdYoGAWjYMgAgAAaLbBGwSgY BUMGAATQaIE1CkbBKBgyACCARgusUTAKRsGQAQABNFpgjYJRMAqGDAAIoNECaxSMglEwZABAAI0W WKNgFIyCIQMAAmi0wBoFo2AUDBkAEECjBdYoGAWjYMgAgAAaLbBGwSgYBUMGAATQaIE1CkbBKBgy ACCARgusUTAKRsGQAQABNFpgjYJRMAqGDAAIoNECaxSMglEwZABAAI0WWKNgFIyCIQMAAmi0wBoF o2AUDBkAEECjBdYoGAWjYMgAgAAaLbBGwSgYBUMGAATQaIE1CkbBKBgyACCARgusUTAKRsGQAQAB NFpgjYJRMAqGDAAIoNECaxSMglEwZABAAI0WWKNgFIyCIQMAAmi0wBoFo2AUDBkAEECjBdYoGAWj YMgAgAAaLbBGwSgYBUMGAATQaIE1CkbBKBgyACCARgusUTAKRsGQAQABNFpgjYJRMAqGDAAIoNEC axSMglEwZABAAI0WWKNgFIyCIQMAAmi0wBoFo2AUDBkAEECjBdYoGAWjYMgAgAAaLbBGwSgYBUMG AATQaIE1CkbBKBgyACCARgusUTAKRsGQAQABNFpgjYJRMAqGDAAIoNECaxSMglEwZABAAI0WWKNg FIyCIQMAAmi0wBoFo2AUDBkAEECjBdYoGAWjYMgAgAAaLbBGwSgYBUMGAATQaIE1CkbBKBgyACCA RgusUTAKRsGQAQABNFpgjYJRMAqGDAAIoNECaxSMglEwZABAAI0WWKNgFIyCIQMAAmi0wBoFo2AU DBkAEECjBdYoGAWjYMgAgAAaLbBGwSgYBUMGAATQaIE1CkbBKBgyACCARgusUTAKRsGQAQABNFpg jYJRMAqGDAAIoNECaxSMglEwZABAAI0WWKNgFIyCIQMAAmi0wBoFo2AUDBkAEECjBdYoGAWjYMgA gAAaLbBGwSgYBUMGAATQaIE1CkbBKBgyACCARgusUTAKRsGQAQABNFpgjYJRMAqGDAAIoNECaxSM glEwZABAAI0WWKNgFIyCIQMAAmi0wBoFo2AUDBkAEECjBdYoGAWjYMgAgAAaLbBGwSgYBUMGAATQ aIE1CkbBKBgyACCARgusUTAKRsGQAQABNFpgjYJRMAqGDAAIoNECaxSMglEwZABAAI0WWKNgFIyC IQMAAmi0wBoFo2AUDBkAEECjBdYoGAWjYMgAgAAaLbBGwSgYBUMGAATQaIE1CkbBKBgyACCARgus UTAKRsGQAQABNFpgjYJRMAqGDAAIoNECaxSMglEwZABAAI0WWKNgFIyCIQMAAmi0wBoFo2AUDBkA EECjBdYoGAWjYMgAgAAaLbBGwSgYBUMGAATQaIE1CkbBKBgyACCARgusUTAKRsGQAQABNFpgjYJR MAqGDAAIoNECaxSMglEwZABAAI0WWKNgFIyCIQMAAmi0wBoFo2AUDBkAEECjBdYoGAWjYMgAgAAa LbBGwSgYBUMGAATQaIE1CkbBKBgyACCARgusUTAKRsGQAQABNFpgjYJRMAqGDAAIoNECaxSMglEw ZABAAI0WWKNgFIyCIQMAAmi0wBoFo2AUDBkAEECjBdYoGAWjYMgAgAAaLbBGwSgYBUMGAATQaIE1 CkbBKBgyACCARgusUTAKRsGQAQABNFpgjYJRMAqGDAAIoNECaxSMglEwZABAAI0WWKNgFIyCIQMA Ami0wBoFo2AUDBkAEECjBdYoGAWjYMgAgAAaLbBGwSgYBUMGAATQaIE1CkbBKBgyACCARgusUTAK RsGQAQABNFpgjYJRMAqGDAAIoNECaxSMglEwZABAAI0WWKNgFIyCIQMAAmi0wBoFo2AUDBkAEECj BdYoGAWjYMgAgAAaLbBGwSgYBUMGAATQaIE1CkbBKBgyACCARgusUTAKRsGQAQABNFpgjYJRMAqG DAAIoNECaxSMglEwZABAAI0WWKNgFIyCIQMAAmi0wBoFo2AUDBkAEECjBdYoGAWjYMgAgAAaLbBG wSgYBUMGAATQaIE1CkbBKBgyACCARgusUTAKRsGQAQABNFpgjYJRMAqGDAAIoNECaxSMglEwZABA AI0WWKNgFIyCIQMAAmi0wBoFo2AUDBkAEECjBdYoGAWjYMgAgAAaLbBGwSgYBUMGAATQaIE1CkbB KBgyACCARgusUTAKRsGQAQABNFpgjYJRMAqGDAAIoNECaxSMglEwZABAAI0WWKNgFIyCIQMAAmi0 wBoFo2AUDBkAEECjBdYoGAWjYMgAgAAaLbBGwSgYBUMGAATQaIE1CkbBKBgyACCARgusUTAKRsGQ AQABNFpgjYJRMAqGDAAIoNECaxSMglEwZABAAI0WWKNgFIyCIQMAAmi0wBoFo2AUDBkAEECjBdYo GAWjYMgAgAAaLbBGwSgYBUMGAATQaIE1CkbBKBgyACCARgusUTAKRsGQAQABNFpgjYJRMAqGDAAI oNECaxSMglEwZABAAI0WWKNgFIyCIQMAAmi0wBoFo2AUDBkAEECjBdYoGAWjYMgAgAAaLbBGwSgY BUMGAATQaIE1CkbBKBgyACCARgusUTAKRsGQAQABNFpgjYJRMAqGDAAIoNECaxSMglEwZABAAI0W WKNgFIyCIQMAAmi0wBoFo2AUDBkAEECjBdYoGAWjYMgAgAAaLbBGwSgYBUMGAATQaIE1CkbBKBgy ACCARgusUTAKRsGQAQABNFpgjYJRMAqGDAAIoNECaxSMglEwZABAAI0WWKNgFIyCIQMAAmi0wBoF o2AUDBkAEECjBdYoGAWjYMgAgAAaLbBGwSgYBUMGAATQaIE1CkbBKBgyACCARgusUTAKRsGQAQAB NFpgjYJRMAqGDAAIoNECaxSMglEwZABAAI0WWKNgFIyCIQMAAmi0wBoFo2AUDBkAEECjBdYoGAWj YMgAgAAaLbBGwSgYBUMGAATQaIE1CkbBKBgyACCARgusUTAKRsGQAQABNFpgjYJRMAqGDAAIoNEC axSMglEwZABAAI0WWKNgFIyCIQMAAmi0wBoFo2AUDBkAEECjBdYoGAWjYMgAgAAaLbBGwSgYBUMG AATQaIE1CkbBKBgyACCARgusUTAKRsGQAQABNFpgjYJRMAqGDAAIoNECaxSMglEwZABAAI0WWKNg FIyCIQMAAmi0wBoFo2AUDBkAEECjBdYoGAWjYMgAgAAaLbBGwSgYBUMGAATQaIE1CkbBKBgyACCA RgusUTAKRsGQAQABNFpgjYJRMAqGDAAIoNECaxSMglEwZABAAI0WWKNgFIyCIQMAAmi0wBoFo2AU DBkAEECjBdYoGAWjYMgAgAAaLbBGwSgYBUMGAATQaIE1CkbBKBgyACCARgusUTAKRsGQAQABNFpg jYJRMAqGDAAIoNECaxSMglEwZABAAI0WWKNgFIyCIQMAAmi0wBoFo2AUDBkAEECjBdYoGAWjYMgA gAAaLbBGwSgYBUMGAATQaIE1CkbBKBgyACCARgusUTAKRsGQAQABNFpgjYJRMAqGDAAIoNECaxSM glEwZABAAI0WWKNgFIyCIQMAAmi0wBoFo2AUDBkAEECjBdYoGAWjYMgAgAAaLbBGwSgYBUMGAATQ aIE1CkbBKBgyACCARgusUTAKRsGQAQABNFpgjYJRMAqGDAAIoNECaxSMglEwZABAAI0WWKNgFIyC IQMAAmi0wBoFo2AUDBkAEECjBdYoGAWjYMgAgAAaLbBGwSgYBUMGAATQaIE1CkbBKBgyACCARgus UTAKRsGQAQABNFpgjYJRMAqGDAAIoNECaxSMglEwZABAAI0WWKNgFIyCIQMAAmi0wBoFo2AUDBkA EECjBdYoGAWjYMgAgAAaLbBGwSgYBUMGAATQaIE1CkbBKBgyACCARgusUTAKRsGQAQABNFpgjYJR MAqGDAAIoNECaxSMglEwZABAAI0WWKNgFIyCIQMAAmi0wBoFo2AUDBkAEECjBdYoGAWjYMgAgAAD AJNxBaxhs6PSAAAAAElFTkSuQmCC" />
          </switch>
        </g>
      </g>
    </g>
  </g>
  <g
     id="g3252"
     transform="translate(1.5960912,1.5960912)">
    <defs
       id="defs3254">
      <path
         d="m 85,420 m 0,0 0,0 c -2.761,0 -5,-2.239 -5,-5 V 145 c 0,-2.761 2.239,-5 5,-5 l 0,0 c 2.762,0 5,2.239 5,5 v 270 c 0,2.761 -2.239,5 -5,5 z"
         id="XMLID_41_"
         inkscape:connector-curvature="0" />
    </defs>
    <clipPath
       id="XMLID_85_">
      <use
         xlink:href="#XMLID_41_"
         id="use3258"
         x="0"
         y="0"
         width="620"
         height="490" />
    </clipPath>
    <g
       clip-path="url(#XMLID_85_)"
       id="g3260">
      <defs
         id="defs3262">
        <rect
           height="280"
           id="XMLID_43_"
           width="10"
           x="80"
           y="140" />
      </defs>
      <clipPath
         id="XMLID_86_">
        <use
           xlink:href="#XMLID_43_"
           id="use3266"
           x="0"
           y="0"
           width="620"
           height="490" />
      </clipPath>
      <g
         clip-path="url(#XMLID_86_)"
         id="g3268">
        <defs
           id="defs3270">
          <rect
             height="280"
             id="XMLID_45_"
             width="10"
             x="80"
             y="140" />
        </defs>
        <clipPath
           id="XMLID_87_">
          <use
             xlink:href="#XMLID_45_"
             id="use3274"
             x="0"
             y="0"
             width="620"
             height="490" />
        </clipPath>
        <g
           clip-path="url(#XMLID_87_)"
           id="g3276">
          <switch
             i:objectNS="http://ns.adobe.com/ImageReplacement/1.0/"
             i:objectType="replaceable-image"
             id="XMLID_89_"
             transform="matrix(0.025,0,0,-0.7,80,420)">
            <foreignObject
               height="400"
               overflow="visible"
               requiredExtensions="http://ns.adobe.com/ImageReplacement/1.0/"
               width="400"
               x="0"
               y="0"
               id="foreignObject3279">
              <ns:imageReplacement
                 align="center"
                 height="400"
                 placementMethod="ratio"
                 refHeight="400"
                 refWidth="400"
                 valign="middle"
                 width="400"
                 x="0"
                 y="0" />
              <x:targetRef
                 xlink:href="#XMLID_88_" />
            </foreignObject>
            <image
               height="400"
               i:knockout="Off"
               id="XMLID_88_"
               width="400"
               xlink:href="data:;base64,iVBORw0KGgoAAAANSUhEUgAAAZAAAAGQCAIAAAAP3aGbAAAACXBIWXMAAAsSAAALEgHS3X78AAAA BGdBTUEAANbY1E9YMgAAABl0RVh0U29mdHdhcmUAQWRvYmUgSW1hZ2VSZWFkeXHJZTwAABOgSURB VHjaYjz6+AnDKBgFo2AUDAUAEEBMo0EwCkbBKBgqACCARgusUTAKRsGQAQABxPL////RUBgFo2AU DAkAEECjLaxRMApGwZABAAE0WmCNglEwCoYMAAig0QJrFIyCUTBkAEAAjRZYo2AUjIIhAwACaLTA GgWjYBQMGQAQQKOzhKNgFIyCIQMAAmi0hTUKRsEoGDIAIIBGC6xRMApGwZABAAE0WmCNglEwCoYM AAig0QJrFIyCUTBkAEAAsYyOuY+CUTAKhgoACCAWBobREmsUjIJRMDQAQACNdglHwSgYBUMGAATQ aIE1CkbBKBgyACCARgusUTAKRsGQAQABNFpgjYJRMAqGDAAIoNGtOaNgFIyCIQMAAmi0hTUKRsEo GDIAIIBGC6xRMApGwZABAAE0WmCNglEwCoYMAAig0QJrFIyCUTBkAEAAjW7NGQWjYBQMGQAQQKNb c0bBKBgFQwYABNBol3AUjIJRMGQAQACNFlijYBSMgiEDAAJotMAaBaNgFAwZABBAowXWKBgFo2DI AIAAGt2aMwpGwSgYMgAggEZbWKNgFIyCIQMAAmi0wBoFo2AUDBkAEECjBdYoGAWjYMgAgAAaLbBG wSgYBUMGAATQaIE1CkbBKBgyACCARmcJR8EoGAVDBgAE0GgLaxSMglEwZABAAI0WWKNgFIyCIQMA Ami0wBoFo2AUDBkAEECjBdYoGAWjYMgAgAAaPcBvFIyCUTBkAEAAjR7gNwpGwSgYMgAggEa7hKNg FIyCIQMAAmi0wBoFo2AUDBkAEECjBdYoGAWjYMgAgAAaLbBGwSgYBUMGAATQ6NacUTAKRsGQAQAB NNrCGgWjYBQMGQAQQKMF1igYBaNgyACAABotsEbBKBgFQwYABNBogTUKRsEoGDIAIIBGt+aMglEw CoYMAAig0a05o2AUjIIhAwACaLRLOApGwSgYMgAggEYLrFEwCkbBkAEAATRaYI2CUTAKhgwACKDR AmsUjIJRMGQAQACNzhKOglEwCoYMAAig0VnCUTAKRsGQAQABNNolHAWjYBQMGQAQQKMF1igYBaNg yACAABotsEbBKBgFQwYABNDooPsoGAWjYMgAgAAaHXQfBaNgFAwZABBAo13CUTAKRsGQAQABNFpg jYJRMAqGDAAIoNECaxSMglEwZABAAI0WWKNgFIyCIQMAAmh0lnAUjIJRMGQAQACNzhKOglEwCoYM AAig0S7hKBgFo2DIAIAAGi2wRsEoGAVDBgAE0GiBNQpGwSgYMgAggEYH3UfBKBgFQwYABNBoC2sU jIJRMGQAQACNzhKOglEwCoYMAAig0RbWKBgFo2DIAIAAGi2wRsEoGAVDBgAE0GiBNQpGwSgYMgAg gEZnCUfBKBgFQwYABNDooPsoGAWjYMgAgAAa7RKOglEwCoYMAAig0QJrFIyCUTBkAEAAjRZYo2AU jIIhAwACaLTAGgWjYBQMGQAQQKOzhKNgFIyCIQMAAmh0lnAUjIJRMGQAQACNdglHwSgYBUMGAATQ aIE1CkbBKBgyACCARgusUTAKRsGQAQABNDroPgpGwSgYMgAggEYH3UfBKBgFQwYABNBol3AUjIJR MGQAQACNFlijYBSMgiEDAAJotMAaBaNgFAwZABBAowXWKBgFo2DIAIAAGp0lHAWjYBQMGQAQQKOz hKNgFIyCIQMAAmi0SzgKRsEoGDIAIIBGC6xRMApGwZABAAE0WmCNglEwCoYMAAig0UH3UTAKRsGQ AQABNNrCGgWjYBQMGQAQQKOzhKNgFIyCIQMAAmi0hTUKRsEoGDIAIIBGC6xRMApGwZABAAE0WmCN glEwCoYMAAig0VnCUTAKRsGQAQABNDroPgpGwSgYMgAggEa7hKNgFIyCIQMAAmi0wBoFo2AUDBkA EECjBdYoGAWjYMgAgAAaHXQfBaNgFAwZABBAoy2sUTAKRsGQAQABNDpLOApGwSgYMgAggEZbWKNg FIyCIQMAAmi0wBoFo2AUDBkAEECjBdYoGAWjYMgAgAAanSUcBaNgFAwZABBAoy2sUTAKRsGQAQAB NDpLOApGwSgYMgAggEZbWKNgFIyCIQMAAmi0wBoFo2AUDBkAEECjg+6jYBSMgiEDAAJotIU1CkbB KBgyACCARgfdR8EoGAVDBgAE0GgLaxSMglEwZABAAI0WWKNgFIyCIQMAAmi0wBoFo2AUDBkAEECj s4SjYBSMgiEDAAJotIU1CkbBKBgyACCARmcJR8EoGAVDBgAE0GgLaxSMglEwZABAAI0WWKNgFIyC IQMAAmi0wBoFo2AUDBkAEECjs4SjYBSMgiEDAAJotIU1CkbBKBgyACCARmcJR8EoGAVDBgAE0GgL axSMglEwZABAAI0WWKNgFIyCIQMAAmh00H0UjIJRMGQAQACNtrBGwSgYBUMGAATQ6KD7KBgFo2DI AIAAGm1hjYJRMAqGDAAIoNECaxSMglEwZABAAI0WWKNgFIyCIQMAAmh0lnAUjIJRMGQAQACNtrBG wSgYBUMGAATQ6CzhKBgFo2DIAIAAGm1hjYJRMAqGDAAIoNECaxSMglEwZABAAI0Ouo+CUTAKhgwA CKDRFtYoGAWjYMgAgAAaHXQfBaNgFAwZABBAoy2sUTAKRsGQAQABNFpgjYJRMAqGDAAIoNECaxSM glEwZABAAI3OEo6CUTAKhgwACKDRFtYoGAWjYMgAgAAanSUcBaNgFAwZABBAoy2sUTAKRsGQAQAB NFpgjYJRMAqGDAAIoNFB91EwCkbBkAEAATTawhoFo2AUDBkAEECjBdYoGAWjYMgAgAAanSUcBaNg FAwZABBAoy2sUTAKRsGQAQABNFpgjYJRMAqGDAAIoNFZwlEwCkbBkAEAATTawhoFo2AUDBkAEECj g+6jYBSMgiEDAAJotIU1CkbBKBgyACCARgusUTAKRsGQAQABNDroPgpGwSgYMgAggEZbWKNgFIyC IQMAAmi0wBoFo2AUDBkAEECjs4SjYBSMgiEDAAJotIU1CkbBKBgyACCARgusUTAKRsGQAQABNDpL OApGwSgYMgAggEZbWKNgFIyCIQMAAmi0wBoFo2AUDBkAEECjs4SjYBSMgiEDAAJotIU1CkbBKBgy ACCARgusUTAKRsGQAQABNDpLOApGwSgYMgAggEZbWKNgFIyCIQMAAmh00H0UjIJRMGQAQACNtrBG wSgYBUMGAATQaIE1CkbBKBgyACCARgfdR8EoGAVDBgAE0GgLaxSMglEwZABAAI0WWKNgFIyCIQMA Amh0lnAUjIJRMGQAQACNtrBGwSgYBUMGAATQaIE1CkbBKBgyACCARmcJR8EoGAVDBgAE0GgLaxSM glEwZABAAI0WWKNgFIyCIQMAAmh0lnAUjIJRMGQAQACNtrBGwSgYBUMGAATQ6KD7KBgFo2DIAIAA Gm1hjYJRMAqGDAAIoNECaxSMglEwZABAAI0Ouo+CUTAKhgwACKDRFtYoGAWjYMgAgAAaLbBGwSgY BUMGAATQ6CzhKBgFo2DIAIAAGm1hjYJRMAqGDAAIoNECaxSMglEwZABAAI3OEo6CUTAKhgwACKDR FtYoGAWjYMgAgAAaHXQfBaNgFAwZABBAoy2sUTAKRsGQAQABNFpgjYJRMAqGDAAIoNFB91EwCkbB kAEAATTawhoFo2AUDBkAEECjBdYoGAWjYMgAgAAanSUcBaNgFAwZABBAoy2sUTAKRsGQAQABNFpg jYJRMAqGDAAIoNFZwlEwCkbBkAEAATTawhoFo2AUDBkAEECjg+6jYBSMgiEDAAJotIU1CkbBKBgy ACCARgusUTAKRsGQAQABNFpgjYJRMAqGDAAIoNFZwlEwCkbBkAEAATTawhoFo2AUDBkAEECjs4Sj YBSMgiEDAAJotIU1CkbBKBgyACCARgusUTAKRsGQAQABNDroPgpGwSgYMgAggEZbWKNgFIyCIQMA Ami0wBoFo2AUDBkAEECjs4SjYBSMgiEDAAJotIU1CkbBKBgyACCARgusUTAKRsGQAQABNDpLOApG wSgYMgAggEZbWKNgFIyCIQMAAmh00H0UjIJRMGQAQACNtrBGwSgYBUMGAATQaIE1CkbBKBgyACCA RgusUTAKRsGQAQABNDpLOApGwSgYMgAggEZbWKNgFIyCIQMAAmh0lnAUjIJRMGQAQACNtrBGwSgY BUMGAATQaIE1CkbBKBgyACCARgfdR8EoGAVDBgAE0GgLaxSMglEwZABAAI0Ouo+CUTAKhgwACKDR FtYoGAWjYMgAgAAaLbBGwSgYBUMGAATQaIE1CkbBKBgyACCARmcJR8EoGAVDBgAE0GgLaxSMglEw ZABAAI3OEo6CUTAKhgwACKDRFtYoGAWjYMgAgAAaLbBGwSgYBUMGAATQ6KD7KBgFo2DIAIAAGm1h jYJRMAqGDAAIoNFB91EwCkbBkAEAATTawhoFo2AUDBkAEECjBdYoGAWjYMgAgAAaLbBGwSgYBUMG AATQ6CzhKBgFo2DIAIAAGm1hjYJRMAqGDAAIoNFZwlEwCkbBkAEAATTawhoFo2AUDBkAEECjBdYo GAWjYMgAgAAaLbBGwSgYBUMGAATQ6CzhKBgFo2DIAIAAGh10HwWjYBQMGQAQQKNdwlEwCkbBkAEA ATRaYI2CUTAKhgwACKDRAmsUjIJRMGQAQACNDrqPglEwCoYMAAig0RbWKBgFo2DIAIAAGp0lHAWj YBQMGQAQQKMtrFEwCkbBkAEAATRaYI2CUTAKhgwACKDRAmsUjIJRMGQAQACNzhKOglEwCoYMAAig 0RbWKBgFo2DIAIAAGp0lHAWjYBQMGQAQQKMtrFEwCkbBkAEAATRaYI2CUTAKhgwACKDRAmsUjIJR MGQAQACNzhKOglEwCoYMAAig0UH3UTAKRsGQAQABNNolHAWjYBQMGQAQQKMF1igYBaNgyACAABot sEbBKBgFQwYABNDooPsoGAWjYMgAgAAabWGNglEwCoYMAAig0VnCUTAKRsGQAQABNNrCGgWjYBQM GQAQQKMF1igYBaNgyACAABotsEbBKBgFQwYABNDoLOEoGAWjYMgAgAAaHXQfBaNgFAwZABBAo13C UTAKRsGQAQABNFpgjYJRMAqGDAAIoNECaxSMglEwZABAAI0WWKNgFIyCIQMAAmh0lnAUjIJRMGQA QACNzhKOglEwCoYMAAig0S7hKBgFo2DIAIAAGi2wRsEoGAVDBgAE0GiBNQpGwSgYMgAggEYH3UfB KBgFQwYABNDooPsoGAWjYMgAgAAa7RKOglEwCoYMAAig0QJrFIyCUTBkAEAAjRZYo2AUjIIhAwAC aLTAGgWjYBQMGQAQQKOzhKNgFIyCIQMAAmh0lnAUjIJRMGQAQACNdglHwSgYBUMGAATQaIE1CkbB KBgyACCARgusUTAKRsGQAQABNDroPgpGwSgYMgAggEYH3UfBKBgFQwYABNBol3AUjIJRMGQAQACN FlijYBSMgiEDAAJotMAaBaNgFAwZABBAowXWKBgFo2DIAIAAGp0lHAWjYBQMGQAQQKOzhKNgFIyC IQMAAmi0SzgKRsEoGDIAIIBGC6xRMApGwZABAAE0WmCNglEwCoYMAAig0QJrFIyCUTBkAEAAjc4S joJRMAqGDAAIoNFZwlEwCkbBkAEAATTaJRwFo2AUDBkAEECjBdYoGAWjYMgAgAAaLbBGwSgYBUMG AATQ6KD7KBgFo2DIAIAAGh10HwWjYBQMGQAQQKNdwlEwCkbBkAEAATRaYI2CUTAKhgwACKDRAmsU jIJRMGQAQACNFlijYBSMgiEDAAJodJZwFIyCUTBkAEAAjc4SjoJRMAqGDAAIoNEu4SgYBaNgyACA ABotsEbBKBgFQwYABNBogTUKRsEoGDIAIIBGC6xRMApGwZABAAHE8n901H0UjIJRMEQAQACNtrBG wSgYBUMGAATQaIE1CkbBKBgyACCARgusUTAKRsGQAQABNFpgjYJRMAqGDAAIoNGtOaNgFIyCIQMA Amh0a84oGAWjYMgAgAAa7RKOglEwCoYMAAig0QJrFIyCUTBkAEAAjRZYo2AUjIIhAwACaLTAGgWj YBQMGQAQQKNbc0bBKBgFQwYABNBoC2sUjIJRMGQAQACNFlijYBSMgiEDAAJotMAaBaNgFAwZABBA owXWKBgFo2DIAIAAGi2wRsEoGAVDBgAE0Ogs4SgYBaNgyACAABptYY2CUTAKhgwACKDRAmsUjIJR MGQAQACNFlijYBSMgiEDAAJotMAaBaNgFAwZABBAo4Puo2AUjIIhAwACaLSFNQpGwSgYMgAggEYL rFEwCkbBkAEAATRaYI2CUTAKhgwACKDRAmsUjIJRMGQAQACNFlijYBSMgiEDAAJodJZwFIyCUTBk AEAAjbawRsEoGAVDBgAE0GiBNQpGwSgYMgAggEYLrFEwCkbBkAEAATRaYI2CUTAKhgwACCAWBobR QfdRMApGwdAAAAHEMjpJOApGwSgYKgAggEa7hKNgFIyCIQMAAmi0wBoFo2AUDBkAEECjBdYoGAWj YMgAgAAaLbBGwSgYBUMGAATQ6NacUTAKRsGQAQABNNrCGgWjYBQMGQAQQKMF1igYBaNgyACAABot sEbBKBgFQwYABNBogTUKRsEoGDIAIIBGC6xRMApGwZABAAE0Oks4CkbBKBgyACCARltYo2AUjIIh AwACDABBd9zZVNn/VQAAAABJRU5ErkJggg==" />
          </switch>
        </g>
      </g>
    </g>
  </g>
  <g
     id="g3282"
     transform="translate(1.5960912,1.5960912)">
    <defs
       id="defs3284">
      <rect
         height="490"
         id="XMLID_47_"
         width="620"
         x="0"
         y="0" />
    </defs>
    <clipPath
       id="XMLID_90_">
      <use
         xlink:href="#XMLID_47_"
         id="use3288"
         x="0"
         y="0"
         width="620"
         height="490" />
    </clipPath>
    <path
       clip-path="url(#XMLID_90_)"
       clip-rule="evenodd"
       d="m 535,150 m 0,0 H 85 c -2.761,0 -5,-2.239 -5,-5 l 0,0 c 0,-2.761 2.239,-5 5,-5 h 450 c 2.761,0 5,2.239 5,5 l 0,0 c 0,2.761 -2.239,5 -5,5 z"
       i:knockout="Off"
       id="path3290"
       inkscape:connector-curvature="0"
       style="fill:#7d9b9d;fill-rule:evenodd" />
  </g>
  <g
     id="g3292"
     transform="translate(1.5960912,1.5960912)">
    <defs
       id="defs3294">
      <path
         d="m 535,420 m 0,0 0,0 c -2.761,0 -5,-2.239 -5,-5 V 145 c 0,-2.761 2.239,-5 5,-5 l 0,0 c 2.761,0 5,2.239 5,5 v 270 c 0,2.761 -2.239,5 -5,5 z"
         id="XMLID_49_"
         inkscape:connector-curvature="0" />
    </defs>
    <clipPath
       id="XMLID_91_">
      <use
         xlink:href="#XMLID_49_"
         id="use3298"
         x="0"
         y="0"
         width="620"
         height="490" />
    </clipPath>
    <g
       clip-path="url(#XMLID_91_)"
       id="g3300">
      <defs
         id="defs3302">
        <rect
           height="280"
           id="XMLID_51_"
           width="10"
           x="530"
           y="140" />
      </defs>
      <clipPath
         id="XMLID_92_">
        <use
           xlink:href="#XMLID_51_"
           id="use3306"
           x="0"
           y="0"
           width="620"
           height="490" />
      </clipPath>
      <g
         clip-path="url(#XMLID_92_)"
         id="g3308">
        <defs
           id="defs3310">
          <rect
             height="280"
             id="XMLID_53_"
             width="10"
             x="530"
             y="140" />
        </defs>
        <clipPath
           id="XMLID_93_">
          <use
             xlink:href="#XMLID_53_"
             id="use3314"
             x="0"
             y="0"
             width="620"
             height="490" />
        </clipPath>
        <g
           clip-path="url(#XMLID_93_)"
           id="g3316">
          <switch
             i:objectNS="http://ns.adobe.com/ImageReplacement/1.0/"
             i:objectType="replaceable-image"
             id="XMLID_95_"
             transform="matrix(0.025,0,0,-0.7,530,420)">
            <foreignObject
               height="400"
               overflow="visible"
               requiredExtensions="http://ns.adobe.com/ImageReplacement/1.0/"
               width="400"
               x="0"
               y="0"
               id="foreignObject3319">
              <ns:imageReplacement
                 align="center"
                 height="400"
                 placementMethod="ratio"
                 refHeight="400"
                 refWidth="400"
                 valign="middle"
                 width="400"
                 x="0"
                 y="0" />
              <x:targetRef
                 xlink:href="#XMLID_94_" />
            </foreignObject>
            <image
               height="400"
               i:knockout="Off"
               id="XMLID_94_"
               width="400"
               xlink:href="data:;base64,iVBORw0KGgoAAAANSUhEUgAAAZAAAAGQCAIAAAAP3aGbAAAACXBIWXMAAAsSAAALEgHS3X78AAAA BGdBTUEAANbY1E9YMgAAABl0RVh0U29mdHdhcmUAQWRvYmUgSW1hZ2VSZWFkeXHJZTwAABOgSURB VHjaYjz6+AnDKBgFo2AUDAUAEEBMo0EwCkbBKBgqACCARgusUTAKRsGQAQABxPL////RUBgFo2AU DAkAEECjLaxRMApGwZABAAE0WmCNglEwCoYMAAig0QJrFIyCUTBkAEAAjRZYo2AUjIIhAwACaLTA GgWjYBQMGQAQQKOzhKNgFIyCIQMAAmi0hTUKRsEoGDIAIIBGC6xRMApGwZABAAE0WmCNglEwCoYM AAig0QJrFIyCUTBkAEAAsYyOuY+CUTAKhgoACCAWBobREmsUjIJRMDQAQACNdglHwSgYBUMGAATQ aIE1CkbBKBgyACCARgusUTAKRsGQAQABNFpgjYJRMAqGDAAIoNGtOaNgFIyCIQMAAmi0hTUKRsEo GDIAIIBGC6xRMApGwZABAAE0WmCNglEwCoYMAAig0QJrFIyCUTBkAEAAjW7NGQWjYBQMGQAQQKNb c0bBKBgFQwYABNBol3AUjIJRMGQAQACNFlijYBSMgiEDAAJotMAaBaNgFAwZABBAowXWKBgFo2DI AIAAGt2aMwpGwSgYMgAggEZbWKNgFIyCIQMAAmi0wBoFo2AUDBkAEECjBdYoGAWjYMgAgAAaLbBG wSgYBUMGAATQaIE1CkbBKBgyACCARmcJR8EoGAVDBgAE0GgLaxSMglEwZABAAI0WWKNgFIyCIQMA Ami0wBoFo2AUDBkAEECjBdYoGAWjYMgAgAAaPcBvFIyCUTBkAEAAjR7gNwpGwSgYMgAggEa7hKNg FIyCIQMAAmi0wBoFo2AUDBkAEECjBdYoGAWjYMgAgAAaLbBGwSgYBUMGAATQ6NacUTAKRsGQAQAB NNrCGgWjYBQMGQAQQKMF1igYBaNgyACAABotsEbBKBgFQwYABNBogTUKRsEoGDIAIIBGt+aMglEw CoYMAAig0a05o2AUjIIhAwACaLRLOApGwSgYMgAggEYLrFEwCkbBkAEAATRaYI2CUTAKhgwACKDR AmsUjIJRMGQAQACNzhKOglEwCoYMAAig0VnCUTAKRsGQAQABNNolHAWjYBQMGQAQQKMF1igYBaNg yACAABotsEbBKBgFQwYABNDooPsoGAWjYMgAgAAaHXQfBaNgFAwZABBAo13CUTAKRsGQAQABNFpg jYJRMAqGDAAIoNECaxSMglEwZABAAI0WWKNgFIyCIQMAAmh0lnAUjIJRMGQAQACNzhKOglEwCoYM AAig0S7hKBgFo2DIAIAAGi2wRsEoGAVDBgAE0GiBNQpGwSgYMgAggEYH3UfBKBgFQwYABNBoC2sU jIJRMGQAQACNzhKOglEwCoYMAAig0RbWKBgFo2DIAIAAGi2wRsEoGAVDBgAE0GiBNQpGwSgYMgAg gEZnCUfBKBgFQwYABNDooPsoGAWjYMgAgAAa7RKOglEwCoYMAAig0QJrFIyCUTBkAEAAjRZYo2AU jIIhAwACaLTAGgWjYBQMGQAQQKOzhKNgFIyCIQMAAmh0lnAUjIJRMGQAQACNdglHwSgYBUMGAATQ aIE1CkbBKBgyACCARgusUTAKRsGQAQABNDroPgpGwSgYMgAggEYH3UfBKBgFQwYABNBol3AUjIJR MGQAQACNFlijYBSMgiEDAAJotMAaBaNgFAwZABBAowXWKBgFo2DIAIAAGp0lHAWjYBQMGQAQQKOz hKNgFIyCIQMAAmi0SzgKRsEoGDIAIIBGC6xRMApGwZABAAE0WmCNglEwCoYMAAig0UH3UTAKRsGQ AQABNNrCGgWjYBQMGQAQQKOzhKNgFIyCIQMAAmi0hTUKRsEoGDIAIIBGC6xRMApGwZABAAE0WmCN glEwCoYMAAig0VnCUTAKRsGQAQABNDroPgpGwSgYMgAggEa7hKNgFIyCIQMAAmi0wBoFo2AUDBkA EECjBdYoGAWjYMgAgAAaHXQfBaNgFAwZABBAoy2sUTAKRsGQAQABNDpLOApGwSgYMgAggEZbWKNg FIyCIQMAAmi0wBoFo2AUDBkAEECjBdYoGAWjYMgAgAAanSUcBaNgFAwZABBAoy2sUTAKRsGQAQAB NDpLOApGwSgYMgAggEZbWKNgFIyCIQMAAmi0wBoFo2AUDBkAEECjg+6jYBSMgiEDAAJotIU1CkbB KBgyACCARgfdR8EoGAVDBgAE0GgLaxSMglEwZABAAI0WWKNgFIyCIQMAAmi0wBoFo2AUDBkAEECj s4SjYBSMgiEDAAJotIU1CkbBKBgyACCARmcJR8EoGAVDBgAE0GgLaxSMglEwZABAAI0WWKNgFIyC IQMAAmi0wBoFo2AUDBkAEECjs4SjYBSMgiEDAAJotIU1CkbBKBgyACCARmcJR8EoGAVDBgAE0GgL axSMglEwZABAAI0WWKNgFIyCIQMAAmh00H0UjIJRMGQAQACNtrBGwSgYBUMGAATQ6KD7KBgFo2DI AIAAGm1hjYJRMAqGDAAIoNECaxSMglEwZABAAI0WWKNgFIyCIQMAAmh0lnAUjIJRMGQAQACNtrBG wSgYBUMGAATQ6CzhKBgFo2DIAIAAGm1hjYJRMAqGDAAIoNECaxSMglEwZABAAI0Ouo+CUTAKhgwA CKDRFtYoGAWjYMgAgAAaHXQfBaNgFAwZABBAoy2sUTAKRsGQAQABNFpgjYJRMAqGDAAIoNECaxSM glEwZABAAI3OEo6CUTAKhgwACKDRFtYoGAWjYMgAgAAanSUcBaNgFAwZABBAoy2sUTAKRsGQAQAB NFpgjYJRMAqGDAAIoNFB91EwCkbBkAEAATTawhoFo2AUDBkAEECjBdYoGAWjYMgAgAAanSUcBaNg FAwZABBAoy2sUTAKRsGQAQABNFpgjYJRMAqGDAAIoNFZwlEwCkbBkAEAATTawhoFo2AUDBkAEECj g+6jYBSMgiEDAAJotIU1CkbBKBgyACCARgusUTAKRsGQAQABNDroPgpGwSgYMgAggEZbWKNgFIyC IQMAAmi0wBoFo2AUDBkAEECjs4SjYBSMgiEDAAJotIU1CkbBKBgyACCARgusUTAKRsGQAQABNDpL OApGwSgYMgAggEZbWKNgFIyCIQMAAmi0wBoFo2AUDBkAEECjs4SjYBSMgiEDAAJotIU1CkbBKBgy ACCARgusUTAKRsGQAQABNDpLOApGwSgYMgAggEZbWKNgFIyCIQMAAmh00H0UjIJRMGQAQACNtrBG wSgYBUMGAATQaIE1CkbBKBgyACCARgfdR8EoGAVDBgAE0GgLaxSMglEwZABAAI0WWKNgFIyCIQMA Amh0lnAUjIJRMGQAQACNtrBGwSgYBUMGAATQaIE1CkbBKBgyACCARmcJR8EoGAVDBgAE0GgLaxSM glEwZABAAI0WWKNgFIyCIQMAAmh0lnAUjIJRMGQAQACNtrBGwSgYBUMGAATQ6KD7KBgFo2DIAIAA Gm1hjYJRMAqGDAAIoNECaxSMglEwZABAAI0Ouo+CUTAKhgwACKDRFtYoGAWjYMgAgAAaLbBGwSgY BUMGAATQ6CzhKBgFo2DIAIAAGm1hjYJRMAqGDAAIoNECaxSMglEwZABAAI3OEo6CUTAKhgwACKDR FtYoGAWjYMgAgAAaHXQfBaNgFAwZABBAoy2sUTAKRsGQAQABNFpgjYJRMAqGDAAIoNFB91EwCkbB kAEAATTawhoFo2AUDBkAEECjBdYoGAWjYMgAgAAanSUcBaNgFAwZABBAoy2sUTAKRsGQAQABNFpg jYJRMAqGDAAIoNFZwlEwCkbBkAEAATTawhoFo2AUDBkAEECjg+6jYBSMgiEDAAJotIU1CkbBKBgy ACCARgusUTAKRsGQAQABNFpgjYJRMAqGDAAIoNFZwlEwCkbBkAEAATTawhoFo2AUDBkAEECjs4Sj YBSMgiEDAAJotIU1CkbBKBgyACCARgusUTAKRsGQAQABNDroPgpGwSgYMgAggEZbWKNgFIyCIQMA Ami0wBoFo2AUDBkAEECjs4SjYBSMgiEDAAJotIU1CkbBKBgyACCARgusUTAKRsGQAQABNDpLOApG wSgYMgAggEZbWKNgFIyCIQMAAmh00H0UjIJRMGQAQACNtrBGwSgYBUMGAATQaIE1CkbBKBgyACCA RgusUTAKRsGQAQABNDpLOApGwSgYMgAggEZbWKNgFIyCIQMAAmh0lnAUjIJRMGQAQACNtrBGwSgY BUMGAATQaIE1CkbBKBgyACCARgfdR8EoGAVDBgAE0GgLaxSMglEwZABAAI0Ouo+CUTAKhgwACKDR FtYoGAWjYMgAgAAaLbBGwSgYBUMGAATQaIE1CkbBKBgyACCARmcJR8EoGAVDBgAE0GgLaxSMglEw ZABAAI3OEo6CUTAKhgwACKDRFtYoGAWjYMgAgAAaLbBGwSgYBUMGAATQ6KD7KBgFo2DIAIAAGm1h jYJRMAqGDAAIoNFB91EwCkbBkAEAATTawhoFo2AUDBkAEECjBdYoGAWjYMgAgAAaLbBGwSgYBUMG AATQ6CzhKBgFo2DIAIAAGm1hjYJRMAqGDAAIoNFZwlEwCkbBkAEAATTawhoFo2AUDBkAEECjBdYo GAWjYMgAgAAaLbBGwSgYBUMGAATQ6CzhKBgFo2DIAIAAGh10HwWjYBQMGQAQQKNdwlEwCkbBkAEA ATRaYI2CUTAKhgwACKDRAmsUjIJRMGQAQACNDrqPglEwCoYMAAig0RbWKBgFo2DIAIAAGp0lHAWj YBQMGQAQQKMtrFEwCkbBkAEAATRaYI2CUTAKhgwACKDRAmsUjIJRMGQAQACNzhKOglEwCoYMAAig 0RbWKBgFo2DIAIAAGp0lHAWjYBQMGQAQQKMtrFEwCkbBkAEAATRaYI2CUTAKhgwACKDRAmsUjIJR MGQAQACNzhKOglEwCoYMAAig0UH3UTAKRsGQAQABNNolHAWjYBQMGQAQQKMF1igYBaNgyACAABot sEbBKBgFQwYABNDooPsoGAWjYMgAgAAabWGNglEwCoYMAAig0VnCUTAKRsGQAQABNNrCGgWjYBQM GQAQQKMF1igYBaNgyACAABotsEbBKBgFQwYABNDoLOEoGAWjYMgAgAAaHXQfBaNgFAwZABBAo13C UTAKRsGQAQABNFpgjYJRMAqGDAAIoNECaxSMglEwZABAAI0WWKNgFIyCIQMAAmh0lnAUjIJRMGQA QACNzhKOglEwCoYMAAig0S7hKBgFo2DIAIAAGi2wRsEoGAVDBgAE0GiBNQpGwSgYMgAggEYH3UfB KBgFQwYABNDooPsoGAWjYMgAgAAa7RKOglEwCoYMAAig0QJrFIyCUTBkAEAAjRZYo2AUjIIhAwAC aLTAGgWjYBQMGQAQQKOzhKNgFIyCIQMAAmh0lnAUjIJRMGQAQACNdglHwSgYBUMGAATQaIE1CkbB KBgyACCARgusUTAKRsGQAQABNDroPgpGwSgYMgAggEYH3UfBKBgFQwYABNBol3AUjIJRMGQAQACN FlijYBSMgiEDAAJotMAaBaNgFAwZABBAowXWKBgFo2DIAIAAGp0lHAWjYBQMGQAQQKOzhKNgFIyC IQMAAmi0SzgKRsEoGDIAIIBGC6xRMApGwZABAAE0WmCNglEwCoYMAAig0QJrFIyCUTBkAEAAjc4S joJRMAqGDAAIoNFZwlEwCkbBkAEAATTaJRwFo2AUDBkAEECjBdYoGAWjYMgAgAAaLbBGwSgYBUMG AATQ6KD7KBgFo2DIAIAAGh10HwWjYBQMGQAQQKNdwlEwCkbBkAEAATRaYI2CUTAKhgwACKDRAmsU jIJRMGQAQACNFlijYBSMgiEDAAJodJZwFIyCUTBkAEAAjc4SjoJRMAqGDAAIoNEu4SgYBaNgyACA ABotsEbBKBgFQwYABNBogTUKRsEoGDIAIIBGC6xRMApGwZABAAHE8n901H0UjIJRMEQAQACNtrBG wSgYBUMGAATQaIE1CkbBKBgyACCARgusUTAKRsGQAQABNFpgjYJRMAqGDAAIoNGtOaNgFIyCIQMA Amh0a84oGAWjYMgAgAAa7RKOglEwCoYMAAig0QJrFIyCUTBkAEAAjRZYo2AUjIIhAwACaLTAGgWj YBQMGQAQQKNbc0bBKBgFQwYABNBoC2sUjIJRMGQAQACNFlijYBSMgiEDAAJotMAaBaNgFAwZABBA owXWKBgFo2DIAIAAGi2wRsEoGAVDBgAE0Ogs4SgYBaNgyACAABptYY2CUTAKhgwACKDRAmsUjIJR MGQAQACNFlijYBSMgiEDAAJotMAaBaNgFAwZABBAo4Puo2AUjIIhAwACaLSFNQpGwSgYMgAggEYL rFEwCkbBkAEAATRaYI2CUTAKhgwACKDRAmsUjIJRMGQAQACNFlijYBSMgiEDAAJodJZwFIyCUTBk AEAAjbawRsEoGAVDBgAE0GiBNQpGwSgYMgAggEYLrFEwCkbBkAEAATRaYI2CUTAKhgwACCAWBobR QfdRMApGwdAAAAHEMjpJOApGwSgYKgAggEa7hKNgFIyCIQMAAmi0wBoFo2AUDBkAEECjBdYoGAWj YMgAgAAaLbBGwSgYBUMGAATQ6NacUTAKRsGQAQABNNrCGgWjYBQMGQAQQKMF1igYBaNgyACAABot sEbBKBgFQwYABNBogTUKRsEoGDIAIIBGC6xRMApGwZABAAE0Oks4CkbBKBgyACCARltYo2AUjIIh AwACDABBd9zZVNn/VQAAAABJRU5ErkJggg==" />
          </switch>
        </g>
      </g>
    </g>
  </g>
</svg>
