<?xml version="1.0" encoding="UTF-8" standalone="no"?>
<!-- Created with Inkscape (http://www.inkscape.org/) -->

<svg
   xmlns:dc="http://purl.org/dc/elements/1.1/"
   xmlns:cc="http://creativecommons.org/ns#"
   xmlns:rdf="http://www.w3.org/1999/02/22-rdf-syntax-ns#"
   xmlns:svg="http://www.w3.org/2000/svg"
   xmlns="http://www.w3.org/2000/svg"
   xmlns:sodipodi="http://sodipodi.sourceforge.net/DTD/sodipodi-0.dtd"
   xmlns:inkscape="http://www.inkscape.org/namespaces/inkscape"
   id="svg548"
   sodipodi:version="0.32"
   width="301.97934"
   height="500.54187"
   sodipodi:docname="nicubunu_Scissors.svg"
   inkscape:version="0.48.1 r9760"
   version="1.1">
  <metadata
     id="metadata3456" />
  <defs
     id="defs550" />
  <sodipodi:namedview
     id="base"
     showgrid="true"
     inkscape:zoom="1"
     inkscape:cx="101.18152"
     inkscape:cy="202.00878"
     inkscape:window-width="673"
     inkscape:window-height="625"
     inkscape:window-x="137"
     inkscape:window-y="24"
     fit-margin-top="0"
     fit-margin-left="0"
     fit-margin-right="0"
     fit-margin-bottom="0"
     inkscape:window-maximized="0"
     inkscape:current-layer="svg548" />
  <g
     id="g834"
     transform="translate(-98.818466,-1.4668665)">
    <path
       style="font-size:12px;fill:#dadadb;fill-rule:evenodd;stroke:#000000;stroke-width:10.00000572;stroke-linejoin:round;stroke-dasharray:none"
       d="m 130.58,19.2281 c 0.848,0 152.626,249.2889 152.626,249.2889 0,0 -45.788,26.286 -44.94,26.286 0.848,0 -125.492,-194.174 -107.686,-275.5749 z"
       id="path693"
       transform="matrix(-0.97454,0.224211,0.224211,0.97454,434.7533,-39.90828)"
       inkscape:connector-curvature="0" />
    <path
       style="font-size:12px;fill:#3f3f3f;fill-rule:evenodd;stroke:#000000;stroke-width:10;stroke-linejoin:bevel;stroke-dasharray:none"
       d="m 267.3664,300.285 c 0,0 -45.4019,119.0532 -36.9992,136.7337 -0.3631,10.7858 -33.7965,59.4537 -55.4097,59.9259 -18.6363,1.1717 -79.9342,-13.4894 -70.1064,-73.7501 11.6856,-61.9974 61.9556,-40.508 81.8308,-42.8379 19.8759,-2.3306 53.6582,-79.181 30.2135,-95.5688 26.1647,6.88 49.8112,17.2749 50.471,15.4972 z m -89.3556,88.1777 c -67.7877,-17.8794 -80.96695,88.4602 -20.5873,94.693 67.695,2.8793 67.1257,-87.1263 20.5873,-94.693 z"
       id="path596"
       inkscape:connector-curvature="0" />
    <path
       style="font-size:12px;fill:#dadadb;fill-rule:evenodd;stroke:#000000;stroke-width:9.99999332;stroke-linejoin:bevel;stroke-dasharray:none"
       d="m 130.58,19.2281 c 0.848,0 152.626,249.2889 152.626,249.2889 0,0 -45.788,26.286 -44.94,26.286 0.848,0 -125.492,-194.174 -107.686,-275.5749 z"
       id="path674"
       transform="matrix(0.984591,0.174877,-0.174877,0.984591,41.2727,-35.37063)"
       inkscape:connector-curvature="0" />
    <path
       style="font-size:12px;fill:none;stroke:#000000;stroke-width:6.25;stroke-dasharray:none"
       d="m 81.4005,200.683 c -15.2626,0.848 -17.8063,24.59 0,25.438 16.9585,-0.848 16.9587,-25.438 0,-25.438 z"
       id="path710"
       sodipodi:nodetypes="ccc"
       transform="translate(161.5948,57.16911)"
       inkscape:connector-curvature="0" />
    <path
       style="font-size:12px;fill:none;stroke:#000000;stroke-width:6.25;stroke-dasharray:none"
       d="m 69.5296,209.163 c 1.6959,0 16.9585,15.262 16.9585,15.262"
       id="path711"
       transform="translate(161.5948,57.16911)"
       inkscape:connector-curvature="0" />
    <path
       style="font-size:12px;fill:none;stroke:#000000;stroke-width:6.25;stroke-dasharray:none"
       d="m 76.313,203.227 c 0.8479,0 16.1105,15.263 16.1105,15.263"
       id="path712"
       sodipodi:nodetypes="cc"
       transform="translate(161.5948,57.16911)"
       inkscape:connector-curvature="0" />
    <path
       style="font-size:12px;fill:#e6ffff;fill-opacity:0.75;fill-rule:evenodd;stroke-width:1pt"
       d="m 311.59912,21.2822 c 0.848,0 -61.05,186.5428 -61.05,186.5428 0,0 6.62825,12.79688 9.17125,11.94888 2.544,-0.848 58.66275,-189.16448 51.87875,-198.49168 z"
       id="path717"
       sodipodi:nodetypes="cccc"
       inkscape:connector-curvature="0" />
    <path
       style="font-size:12px;fill-opacity:0.31851896;fill-rule:evenodd;stroke-width:1pt"
       d="m 236.859,262.031 3.531,-4.948 16.242,15.525 -3.951,4.1 -15.822,-14.677 z"
       id="path718"
       sodipodi:nodetypes="ccccc"
       transform="translate(-3.75,3.75)"
       inkscape:connector-curvature="0" />
    <path
       style="font-size:12px;fill:#3f3f40;fill-rule:evenodd;stroke:#000000;stroke-width:10;stroke-linejoin:bevel;stroke-dasharray:none"
       d="m 319.2507,379.5357 c 66.8021,-21.2687 85.3169,84.2729 25.3274,93.5368 -67.4644,6.2828 -71.4259,-83.6375 -25.3274,-93.5368 z M 225.5702,295.967 c 0,0 51.3366,116.6173 43.8343,134.6983 0.9056,10.7538 36.7461,57.6774 58.3558,57.0612 18.6716,0.2322 79.154,-17.4955 66.3056,-77.1853 -14.7911,-61.3307 -63.9159,-37.3384 -83.8832,-38.665 -19.9681,-1.3273 -57.5756,-76.38 -34.9854,-93.9271 -25.7853,8.1882 -48.8787,19.7601 -49.6271,18.0179 z"
       id="path590"
       inkscape:connector-curvature="0" />
  </g>
  <metadata
     id="metadata3458">
    <rdf:RDF>
      <cc:Work
         rdf:about="">
        <dc:title>Clipart by Nicu Buculei - book_01</dc:title>
        <dc:rights>
          <cc:Agent>
            <dc:title>Nicu Buculei</dc:title>
          </cc:Agent>
        </dc:rights>
        <dc:type
           rdf:resource="http://purl.org/dc/dcmitype/StillImage" />
        <cc:license
           rdf:resource="http://web.resource.org/cc/PublicDomain" />
        <dc:format>image/svg+xml</dc:format>
      </cc:Work>
      <cc:License
         rdf:about="http://web.resource.org/cc/PublicDomain">
        <cc:permits
           rdf:resource="http://web.resource.org/cc/Reproduction" />
        <cc:permits
           rdf:resource="http://web.resource.org/cc/Distribution" />
        <cc:permits
           rdf:resource="http://web.resource.org/cc/DerivativeWorks" />
      </cc:License>
    </rdf:RDF>
  </metadata>
</svg>
