<?xml version="1.0" encoding="UTF-8" standalone="no"?>
<!-- Created with Inkscape (http://www.inkscape.org/) -->

<svg
   xmlns:dc="http://purl.org/dc/elements/1.1/"
   xmlns:cc="http://creativecommons.org/ns#"
   xmlns:rdf="http://www.w3.org/1999/02/22-rdf-syntax-ns#"
   xmlns:svg="http://www.w3.org/2000/svg"
   xmlns="http://www.w3.org/2000/svg"
   xmlns:xlink="http://www.w3.org/1999/xlink"
   xmlns:sodipodi="http://sodipodi.sourceforge.net/DTD/sodipodi-0.dtd"
   xmlns:inkscape="http://www.inkscape.org/namespaces/inkscape"
   height="77.966148"
   id="svg20305"
   inkscape:export-filename="/home/Krug/Projekte/spreadSVG/website/images/palette.png"
   inkscape:export-xdpi="72.000000"
   inkscape:export-ydpi="72.000000"
   inkscape:version="0.48.1 r9760"
   sodipodi:docname="palette_juliane_krug_01.svg"
   sodipodi:version="0.32"
   width="71.850983"
   version="1.1">
  <metadata
     id="metadata3357">
    <rdf:RDF>
      <cc:Work
         rdf:about="">
        <dc:title>palette</dc:title>
        <dc:description />
        <dc:subject>
          <rdf:Bag>
            <rdf:li>education</rdf:li>
          </rdf:Bag>
        </dc:subject>
        <dc:publisher>
          <cc:Agent
             rdf:about="http://www.openclipart.org/">
            <dc:title>Open Clip Art Library</dc:title>
          </cc:Agent>
        </dc:publisher>
        <dc:creator>
          <cc:Agent>
            <dc:title>Juliane Krug</dc:title>
          </cc:Agent>
        </dc:creator>
        <dc:rights>
          <cc:Agent>
            <dc:title>Juliane Krug</dc:title>
          </cc:Agent>
        </dc:rights>
        <dc:date />
        <dc:format>image/svg+xml</dc:format>
        <dc:type
           rdf:resource="http://purl.org/dc/dcmitype/StillImage" />
        <cc:license
           rdf:resource="http://web.resource.org/cc/PublicDomain" />
        <dc:language>en</dc:language>
      </cc:Work>
      <cc:License
         rdf:about="http://web.resource.org/cc/PublicDomain">
        <cc:permits
           rdf:resource="http://web.resource.org/cc/Reproduction" />
        <cc:permits
           rdf:resource="http://web.resource.org/cc/Distribution" />
        <cc:permits
           rdf:resource="http://web.resource.org/cc/DerivativeWorks" />
      </cc:License>
    </rdf:RDF>
  </metadata>
  <defs
     id="defs20307">
    <linearGradient
       id="linearGradient3532">
      <stop
         id="stop3533"
         offset="0.0000000"
         style="stop-color:#000000;stop-opacity:0.48677248;" />
      <stop
         id="stop3534"
         offset="0.50000000"
         style="stop-color:#000000;stop-opacity:0.079096042;" />
      <stop
         id="stop3535"
         offset="1.0000000"
         style="stop-color:#000000;stop-opacity:0.0000000;" />
    </linearGradient>
    <linearGradient
       id="linearGradient21044">
      <stop
         id="stop21045"
         offset="0.0000000"
         style="stop-color:#ffffff;stop-opacity:0.0000000;" />
      <stop
         id="stop21046"
         offset="1.0000000"
         style="stop-color:#ffffff;stop-opacity:1.0000000;" />
    </linearGradient>
    <linearGradient
       id="linearGradient21036">
      <stop
         id="stop21037"
         offset="0.0000000"
         style="stop-color:#ffffff;stop-opacity:0.0000000;" />
      <stop
         id="stop21038"
         offset="1.0000000"
         style="stop-color:#ffffff;stop-opacity:1.0000000;" />
    </linearGradient>
    <linearGradient
       id="linearGradient21012">
      <stop
         id="stop21013"
         offset="0.0000000"
         style="stop-color:#000000;stop-opacity:1.0000000;" />
      <stop
         id="stop21014"
         offset="1.0000000"
         style="stop-color:#000000;stop-opacity:0.0000000;" />
    </linearGradient>
    <linearGradient
       id="linearGradient20962">
      <stop
         id="stop20963"
         offset="0.0000000"
         style="stop-color:#ffffff;stop-opacity:0.0000000;" />
      <stop
         id="stop20964"
         offset="1.0000000"
         style="stop-color:#ffffff;stop-opacity:1.0000000;" />
    </linearGradient>
    <linearGradient
       id="linearGradient20965"
       inkscape:collect="always"
       x1="55.498673"
       x2="31.814258"
       xlink:href="#linearGradient21044"
       y1="51.981258"
       y2="24.857854"
       gradientTransform="scale(0.98919242,1.0109257)"
       gradientUnits="userSpaceOnUse" />
    <radialGradient
       id="radialGradient21017"
       inkscape:collect="always"
       xlink:href="#linearGradient21012"
       gradientTransform="scale(1.1152124,0.89669018)"
       cx="124.13605"
       cy="198.77112"
       fx="124.13605"
       fy="198.77112"
       r="67.54684"
       gradientUnits="userSpaceOnUse" />
    <linearGradient
       id="linearGradient21035"
       inkscape:collect="always"
       x1="57.450615"
       x2="51.829425"
       xlink:href="#linearGradient21036"
       y1="22.078526"
       y2="17.653362"
       gradientTransform="scale(0.94827073,1.0545512)"
       gradientUnits="userSpaceOnUse" />
    <radialGradient
       cx="0.5"
       cy="0.5"
       fx="0.18039216"
       fy="0.47916666"
       id="radialGradient1502"
       r="0.5"
       xlink:href="#linearGradient1918" />
    <linearGradient
       id="linearGradient1918">
      <stop
         id="stop1919"
         offset="0.0000000"
         style="stop-color:#000000;stop-opacity:0.31638417;" />
      <stop
         id="stop1920"
         offset="0.50000000"
         style="stop-color:#000000;stop-opacity:0.079096042;" />
      <stop
         id="stop1921"
         offset="1.0000000"
         style="stop-color:#000000;stop-opacity:0.0000000;" />
    </linearGradient>
    <radialGradient
       cx="0.5"
       cy="0.5"
       fx="0.18039216"
       fy="0.47916666"
       id="radialGradient2541"
       r="0.5"
       xlink:href="#linearGradient3532" />
    <linearGradient
       id="linearGradient2121"
       x1="0.41568628"
       x2="0.59607846"
       xlink:href="#linearGradient1513"
       y1="0.27687296"
       y2="0.44299674" />
    <linearGradient
       id="linearGradient1513">
      <stop
         id="stop1514"
         offset="0.0000000"
         style="stop-color:#ffffff;stop-opacity:1.0000000;" />
      <stop
         id="stop1515"
         offset="1.0000000"
         style="stop-color:#ffffff;stop-opacity:0.0000000;" />
    </linearGradient>
    <linearGradient
       id="linearGradient2316"
       x1="0.47450981"
       x2="0.80392158"
       xlink:href="#linearGradient2317"
       y1="0.21771218"
       y2="0.5202952" />
    <linearGradient
       id="linearGradient2317">
      <stop
         id="stop2318"
         offset="0.0000000"
         style="stop-color:#d6d6d6;stop-opacity:1.0000000;" />
      <stop
         id="stop2322"
         offset="0.25769231"
         style="stop-color:#eaeaea;stop-opacity:1.0000000;" />
      <stop
         id="stop2320"
         offset="0.70594490"
         style="stop-color:#919191;stop-opacity:1.0000000;" />
      <stop
         id="stop2321"
         offset="0.73347497"
         style="stop-color:#d2d2d2;stop-opacity:1.0000000;" />
      <stop
         id="stop2319"
         offset="1.0000000"
         style="stop-color:#a6a6a6;stop-opacity:1.0000000;" />
    </linearGradient>
    <linearGradient
       id="linearGradient2315"
       x1="0.27843139"
       x2="0.4509804"
       xlink:href="#linearGradient1513"
       y1="-0.063694268"
       y2="0.61146498" />
    <linearGradient
       id="linearGradient1512"
       x1="0.99512196"
       x2="0.32682925"
       xlink:href="#linearGradient1918"
       y1="0.64396286"
       y2="0.3003096" />
    <linearGradient
       id="linearGradient2224"
       x1="-0.14213198"
       x2="0.49753696"
       xlink:href="#linearGradient1513"
       y1="-0.28792569"
       y2="0.35603714" />
    <linearGradient
       id="linearGradient2138"
       x1="1.3783784"
       x2="0.58378381"
       xlink:href="#linearGradient2122"
       y1="0.25386998"
       y2="0.13003096" />
    <linearGradient
       id="linearGradient2122">
      <stop
         id="stop2123"
         offset="0.0000000"
         style="stop-color:#000000;stop-opacity:0.40784314;" />
      <stop
         id="stop2124"
         offset="1.0000000"
         style="stop-color:#000000;stop-opacity:0.0000000;" />
    </linearGradient>
    <linearGradient
       id="linearGradient2223"
       x1="-0.18232045"
       x2="0.68508285"
       xlink:href="#linearGradient1513"
       y1="-0.43962848"
       y2="0.42414862" />
    <linearGradient
       id="linearGradient1516"
       x1="0.45882353"
       x2="0.6901961"
       xlink:href="#linearGradient2122"
       y1="1.2772278"
       y2="-0.2970297" />
    <linearGradient
       id="linearGradient2314"
       x1="-0.4509804"
       x2="0.47058824"
       xlink:href="#linearGradient1513"
       y1="-0.15053764"
       y2="0.36559141" />
    <linearGradient
       id="linearGradient2313"
       x1="-0.0078431377"
       x2="0.59607846"
       xlink:href="#linearGradient1513"
       y1="-1.244898"
       y2="0.3605442" />
    <linearGradient
       id="linearGradient2312"
       x1="0.45882353"
       x2="0.65490198"
       xlink:href="#linearGradient1513"
       y1="-0.58685446"
       y2="0.45070422" />
    <linearGradient
       id="linearGradient2222"
       x1="-0.10588235"
       x2="0.58431375"
       xlink:href="#linearGradient1513"
       y1="-0.10497238"
       y2="0.55248618" />
    <linearGradient
       inkscape:collect="always"
       xlink:href="#linearGradient21036"
       id="linearGradient3430"
       x1="31.343282"
       y1="60.651523"
       x2="25.262002"
       y2="55.864163"
       gradientTransform="scale(0.90208682,1.1085408)"
       gradientUnits="userSpaceOnUse" />
    <linearGradient
       inkscape:collect="always"
       xlink:href="#linearGradient21036"
       id="linearGradient3432"
       x1="50.46396"
       y1="59.3046"
       x2="44.333638"
       y2="54.478633"
       gradientTransform="scale(0.9265633,1.0792571)"
       gradientUnits="userSpaceOnUse" />
    <linearGradient
       inkscape:collect="always"
       xlink:href="#linearGradient21036"
       id="linearGradient3434"
       x1="57.88905"
       y1="52.688184"
       x2="51.929723"
       y2="47.996829"
       gradientTransform="scale(1.0053135,0.99471461)"
       gradientUnits="userSpaceOnUse" />
    <linearGradient
       inkscape:collect="always"
       xlink:href="#linearGradient21036"
       id="linearGradient3436"
       x1="64.26098"
       y1="37.175372"
       x2="58.719794"
       y2="32.81319"
       gradientTransform="scale(0.9759872,1.0246036)"
       gradientUnits="userSpaceOnUse" />
  </defs>
  <sodipodi:namedview
     bordercolor="#666666"
     borderopacity="1.0"
     id="base"
     inkscape:cx="62.732908"
     inkscape:cy="29.180607"
     inkscape:pageopacity="0.0"
     inkscape:pageshadow="2"
     inkscape:window-height="937"
     inkscape:window-width="1272"
     inkscape:window-x="0"
     inkscape:window-y="0"
     inkscape:zoom="4"
     pagecolor="#ffffff"
     showgrid="false"
     fit-margin-top="0"
     fit-margin-left="0"
     fit-margin-right="0"
     fit-margin-bottom="0"
     inkscape:window-maximized="0"
     inkscape:current-layer="svg20305" />
  <g
     id="g21200"
     transform="translate(-6.4623425,-7.4634242)">
    <path
       d="m 80.038306,139.98171 c 26.275994,-25.93342 73.723394,-29.82954 105.976734,-8.70222 32.25334,21.12732 37.09893,59.2776 10.82294,85.21103 -26.276,25.93342 -73.7234,29.82954 -105.976741,8.70222 C 58.818943,204.20366 53.793978,166.37532 79.600141,140.41828 l 58.837999,37.81783 z"
       id="path21016"
       sodipodi:cx="138.43814"
       sodipodi:cy="178.23611"
       sodipodi:end="10.099141"
       sodipodi:rx="75.326637"
       sodipodi:ry="60.566689"
       sodipodi:start="3.8252181"
       sodipodi:type="arc"
       style="fill:url(#radialGradient21017);fill-opacity:1;fill-rule:evenodd;stroke:none"
       transform="matrix(0.476914,0,0,0.267047,-23.63522,21.65749)" />
    <path
       d="M 56.964452,9.6436025 C 52.703192,6.7734207 45.987673,6.4848753 43.087575,10.980078 39.455492,16.782437 39.651089,24.597615 34.788703,29.670482 28.819708,36.547896 19.661454,39.992573 14.662947,47.835307 11.22661,52.53752 8.856009,59.176396 11.790275,65.010658 c 3.23461,6.34728 10.01591,9.623753 16.218925,12.145349 9.556521,3.543166 20.640766,2.117371 28.234783,-4.200867 C 66.568849,65.055233 73.162354,52.530821 74.222673,39.263848 74.440095,32.31612 72.524065,25.071249 68.406436,19.230786 65.15022,15.430234 61.352312,12.02286 56.964452,9.6436025 z"
       id="path20328"
       style="fill:#e6c5a2;fill-opacity:1;fill-rule:evenodd;stroke:none"
       inkscape:connector-curvature="0" />
    <path
       d="M 61.390968,12.647344 C 59.908904,11.499452 58.344782,10.463499 56.699338,9.5712772 52.438078,6.7010954 45.723193,6.412567 42.823095,10.907764 39.191023,16.710123 39.388771,24.525891 34.52639,29.598759 28.557392,36.476174 19.397455,39.921037 14.398951,47.763772 c -3.436334,4.702212 -5.809596,11.340218 -2.87533,17.174482 3.23461,6.347278 10.017711,9.623293 16.220718,12.144888 9.556521,3.543166 20.641614,2.118309 28.23562,-4.19993 C 66.304824,64.983311 72.898196,52.45949 73.958528,39.192517 74.17595,32.244788 72.258137,24.998486 68.140507,19.158018 66.105369,16.782675 63.861084,14.560501 61.390968,12.647344 z m -1.357558,0.884012 c 1.940387,1.494023 3.776504,3.12709 5.425304,4.950779 4.231408,4.990576 6.293423,11.547854 6.40398,17.895576 -0.200268,12.027296 -5.730189,23.420021 -14.277482,31.284966 -5.54421,5.744489 -13.801322,8.681586 -21.945349,7.754744 -4.830958,-0.626745 -9.513597,-2.507419 -13.774232,-5.001587 -3.773435,-2.202357 -7.512268,-5.515303 -8.419105,-9.978124 -0.725317,-4.61787 1.287995,-9.041651 3.897482,-12.554822 5.27257,-7.042526 13.488012,-10.924057 19.385083,-17.334077 3.796732,-4.037067 4.911981,-9.733572 6.836223,-14.825759 0.846185,-2.446571 1.870691,-5.303792 4.525551,-6.19702 3.398763,-1.165364 7.071088,0.566216 9.966931,2.555016 0.666988,0.468834 1.32882,0.952298 1.975614,1.450308 z"
       id="path21001"
       style="fill:#ae7172;fill-opacity:0.29375;fill-rule:evenodd;stroke:none"
       inkscape:connector-curvature="0" />
    <path
       d="M 59.792029,13.407478 C 57.022986,11.126228 53.757988,9.1117056 50.1577,9.0660911 47.618511,8.9293384 45.100473,10.161181 43.93158,12.415163 c -2.323595,3.559451 -3.121695,7.903247 -5.029958,11.692112 -1.97494,4.419354 -5.229669,8.090467 -8.992111,11.01798 -5.133777,4.507026 -10.716118,8.658671 -14.746349,14.27064 -2.260219,3.451801 -3.404117,7.855348 -2.527339,12.089262 0.799814,3.332373 3.241463,6.043989 5.923288,8.083183 2.203352,-1.462876 3.734217,-3.697943 5.635195,-5.494336 C 30.780676,57.107752 38.139514,50.854043 46.348819,45.868036 54.235255,40.898272 62.790113,37.031037 71.552135,33.757244 70.745571,25.811718 66.404038,18.127162 59.792029,13.407478 z"
       id="path20961"
       style="fill:url(#linearGradient20965);fill-opacity:1;fill-rule:evenodd;stroke:none"
       inkscape:connector-curvature="0" />
    <path
       d="m 52.219162,17.613379 c 10.429234,-0.846391 10.968677,7.278974 4.854987,9.648873 -12.407194,1.015674 -12.047565,-6.940415 -4.854987,-9.648873 z"
       id="path21018"
       sodipodi:nodetypes="ccc"
       style="fill:#ffb300;fill-opacity:0.75;fill-rule:evenodd;stroke:none"
       inkscape:connector-curvature="0" />
    <path
       d="m 52.276081,17.708296 c -7.192578,2.708463 -7.544677,10.67287 4.862523,9.657197 6.113685,-2.369893 5.566705,-10.503594 -4.862523,-9.657197 z m 2.18999,0.496964 c 2.43309,-0.204759 6.338626,1.799212 5.072866,4.902473 -1.841877,4.333716 -7.160552,3.076384 -10.467425,1.799814 -2.89771,-2.424895 0.469096,-6.222516 3.09321,-6.635132 0.76604,9.43e-4 1.53765,-0.139423 2.301349,-0.06715 z"
       id="path21019"
       style="fill:#000000;fill-opacity:0.21874994;fill-rule:evenodd;stroke:none"
       inkscape:connector-curvature="0" />
    <path
       d="m 60.226117,32.125462 c 10.581291,-0.810658 11.1286,6.971599 4.925775,9.241428 -12.588081,0.972786 -12.223211,-6.647342 -4.925775,-9.241428 z"
       id="path21026"
       sodipodi:nodetypes="ccc"
       style="fill:#ff8000;fill-opacity:0.75;fill-rule:evenodd;stroke:none"
       inkscape:connector-curvature="0" />
    <path
       d="m 60.283867,32.216368 c -7.297443,2.594085 -7.654668,10.222191 4.933414,9.24941 6.202819,-2.26983 5.64787,-10.060063 -4.933414,-9.24941 z m 2.221918,0.475974 c 2.468564,-0.196111 6.431035,1.723239 5.146823,4.695457 -1.868724,4.150719 -7.264943,2.946485 -10.620033,1.723813 -2.939955,-2.322495 0.475935,-5.959754 3.138313,-6.35495 0.777204,9.09e-4 1.560069,-0.13353 2.334897,-0.06432 z"
       id="path21027"
       style="fill:#000000;fill-opacity:0.21874994;fill-rule:evenodd;stroke:none"
       inkscape:connector-curvature="0" />
    <path
       d="m 55.349068,46.446177 c 11.721686,-0.846391 12.327983,7.278968 5.456655,9.648873 -13.944775,1.015668 -13.540579,-6.940415 -5.456655,-9.648873 z"
       id="path21028"
       sodipodi:nodetypes="ccc"
       style="fill:#ff3a00;fill-opacity:0.75;fill-rule:evenodd;stroke:none"
       inkscape:connector-curvature="0" />
    <path
       d="m 55.413039,46.541094 c -8.08393,2.708458 -8.479655,10.67287 5.46512,9.657197 6.871328,-2.369899 6.256571,-10.503589 -5.46512,-9.657197 z m 2.461385,0.496964 c 2.734624,-0.204765 7.124149,1.799212 5.70153,4.902467 -2.070133,4.333716 -8.047931,3.076385 -11.764615,1.799814 -3.25681,-2.424894 0.52723,-6.22251 3.476543,-6.635125 0.86097,9.49e-4 1.728207,-0.139424 2.586542,-0.06716 z"
       id="path21029"
       style="fill:#000000;fill-opacity:0.21874994;fill-rule:evenodd;stroke:none"
       inkscape:connector-curvature="0" />
    <path
       d="m 43.927053,57.270954 c 11.11348,-0.944683 11.688312,8.12423 5.173516,10.769333 C 35.879362,69.1739 36.26259,60.293923 43.927053,57.270954 z"
       id="path21030"
       sodipodi:nodetypes="ccc"
       style="fill:#23b300;fill-opacity:0.75;fill-rule:evenodd;stroke:none"
       inkscape:connector-curvature="0" />
    <path
       d="m 43.987697,57.376888 c -7.664464,3.022975 -8.03966,11.912242 5.181554,10.778629 6.514796,-2.645104 5.931926,-11.723307 -5.181554,-10.778629 z m 2.333675,0.554676 c 2.592722,-0.228538 6.754492,2.008142 5.405686,5.471761 -1.962714,4.83696 -7.630332,3.433625 -11.154165,2.008819 -3.087825,-2.706485 0.49987,-6.945098 3.296147,-7.405624 0.816298,0.0011 1.638535,-0.155611 2.452332,-0.07496 z"
       id="path21031"
       style="fill:#000000;fill-opacity:0.21874994;fill-rule:evenodd;stroke:none"
       inkscape:connector-curvature="0" />
    <path
       d="M 25.812991,60.121426 C 36.546335,59.158872 37.101503,68.399334 30.809549,71.094478 18.040567,72.249535 18.410684,63.201577 25.812991,60.121426 z"
       id="path21032"
       sodipodi:nodetypes="ccc"
       style="fill:#0002ff;fill-opacity:0.75;fill-rule:evenodd;stroke:none"
       inkscape:connector-curvature="0" />
    <path
       d="m 25.871566,60.229365 c -7.402308,3.080158 -7.764671,12.137576 5.004312,10.982518 6.29196,-2.695132 5.729025,-11.945071 -5.004312,-10.982518 z m 2.25385,0.565164 c 2.504037,-0.232856 6.523453,2.046132 5.220785,5.575271 -1.895581,4.928455 -7.369344,3.49858 -10.772646,2.046813 -2.982201,-2.75768 0.482774,-7.076465 3.183407,-7.545712 0.788375,0.0011 1.58249,-0.158555 2.368454,-0.07637 z"
       id="path21033"
       style="fill:#000000;fill-opacity:0.21874994;fill-rule:evenodd;stroke:none"
       inkscape:connector-curvature="0" />
    <path
       d="m 23.897359,62.344055 c -2.172068,1.281735 -3.45454,5.484449 -0.508199,6.680132 4.329811,1.123261 5.49463,-2.81659 4.710532,-7.900418 -1.584842,-0.333569 -2.844788,0.28712 -4.202333,1.220286 z"
       id="path21034"
       sodipodi:nodetypes="cccc"
       style="fill:url(#linearGradient3430);fill-opacity:1;fill-rule:evenodd;stroke:none"
       inkscape:connector-curvature="0" />
    <path
       d="m 42.226034,59.205072 c -2.248997,1.257946 -3.576888,5.382629 -0.526198,6.556119 4.483157,1.102402 5.68923,-2.764305 4.87736,-7.75375 -1.640969,-0.327371 -2.945536,0.281795 -4.351162,1.197631 z"
       id="path21040"
       sodipodi:nodetypes="cccc"
       style="fill:url(#linearGradient3432);fill-opacity:1;fill-rule:evenodd;stroke:none"
       inkscape:connector-curvature="0" />
    <path
       d="m 53.416597,48.109256 c -2.372077,1.127068 -3.772646,4.822618 -0.555001,5.874003 4.728512,0.987712 6.000591,-2.476697 5.144293,-6.94703 -1.73078,-0.293313 -3.106743,0.252471 -4.589292,1.073027 z"
       id="path21041"
       sodipodi:nodetypes="cccc"
       style="fill:url(#linearGradient3434);fill-opacity:1;fill-rule:evenodd;stroke:none"
       inkscape:connector-curvature="0" />
    <path
       d="m 58.4029,33.971158 c -2.141301,1.07947 -3.405601,4.618972 -0.501,5.62597 4.268475,0.946001 5.416788,-2.372121 4.643799,-6.653684 -1.562387,-0.280925 -2.804488,0.241806 -4.142799,1.027714 z"
       id="path21042"
       sodipodi:nodetypes="cccc"
       style="fill:url(#linearGradient3436);fill-opacity:1;fill-rule:evenodd;stroke:none"
       inkscape:connector-curvature="0" />
    <path
       d="m 50.225748,18.982481 c -2.110526,1.127062 -3.356658,4.822612 -0.493799,5.874008 4.207134,0.987707 5.338949,-2.476703 4.577067,-6.947035 -1.539939,-0.293313 -2.764188,0.252476 -4.083268,1.073027 z"
       id="path21043"
       sodipodi:nodetypes="cccc"
       style="fill:url(#linearGradient21035);fill-opacity:1;fill-rule:evenodd;stroke:none"
       inkscape:connector-curvature="0" />
  </g>
</svg>
