<?xml version="1.0" encoding="UTF-8" standalone="no"?>
<!-- Created with Inkscape (http://www.inkscape.org/) -->
<svg
   xmlns:dc="http://purl.org/dc/elements/1.1/"
   xmlns:cc="http://creativecommons.org/ns#"
   xmlns:rdf="http://www.w3.org/1999/02/22-rdf-syntax-ns#"
   xmlns:svg="http://www.w3.org/2000/svg"
   xmlns="http://www.w3.org/2000/svg"
   xmlns:sodipodi="http://sodipodi.sourceforge.net/DTD/sodipodi-0.dtd"
   xmlns:inkscape="http://www.inkscape.org/namespaces/inkscape"
   width="332.96622"
   height="348.99774"
   id="svg2"
   sodipodi:version="0.32"
   inkscape:version="0.46"
   version="1.0"
   sodipodi:docname="pencil sharpener.svg"
   inkscape:output_extension="org.inkscape.output.svg.inkscape">
  <defs
     id="defs4">
    <inkscape:perspective
       sodipodi:type="inkscape:persp3d"
       inkscape:vp_x="0 : 526.18109 : 1"
       inkscape:vp_y="0 : 1000 : 0"
       inkscape:vp_z="744.09448 : 526.18109 : 1"
       inkscape:persp3d-origin="372.04724 : 350.78739 : 1"
       id="perspective10" />
    <inkscape:perspective
       id="perspective2390"
       inkscape:persp3d-origin="372.04724 : 350.78739 : 1"
       inkscape:vp_z="744.09448 : 526.18109 : 1"
       inkscape:vp_y="0 : 1000 : 0"
       inkscape:vp_x="0 : 526.18109 : 1"
       sodipodi:type="inkscape:persp3d" />
  </defs>
  <sodipodi:namedview
     id="base"
     pagecolor="#ffffff"
     bordercolor="#666666"
     borderopacity="1.0"
     inkscape:pageopacity="0.0"
     inkscape:pageshadow="2"
     inkscape:zoom="0.35"
     inkscape:cx="391.78418"
     inkscape:cy="659.05777"
     inkscape:document-units="px"
     inkscape:current-layer="layer1"
     showgrid="false"
     inkscape:window-width="1280"
     inkscape:window-height="719"
     inkscape:window-x="-4"
     inkscape:window-y="-4" />
  <metadata
     id="metadata7">
    <rdf:RDF>
      <cc:Work
         rdf:about="">
        <dc:format>image/svg+xml</dc:format>
        <dc:type
           rdf:resource="http://purl.org/dc/dcmitype/StillImage" />
      </cc:Work>
    </rdf:RDF>
  </metadata>
  <g
     inkscape:label="Camada 1"
     inkscape:groupmode="layer"
     id="layer1"
     transform="translate(-166.41466,-286.89825)">
    <g
       id="g3201"
       transform="matrix(1,0,0,0.9531649,0,29.779558)">
      <path
         sodipodi:nodetypes="cssccssscsssss"
         id="path2398"
         d="M 181.69657,369.54025 C 214.70872,394.97834 245.60953,423.30913 271.29102,455.3704 C 285.46784,473.069 295.79503,493.22577 306.9744,512.68318 C 313.16881,523.46437 319.33308,542.67184 329.93494,541.3829 C 385.40453,517.32656 452.61429,469.04827 495.69901,428.4186 C 500.11913,423.81146 491.95522,419.42048 487.56828,416.49139 C 473.87427,407.34811 458.19483,400.85338 444.88051,390.96984 C 431.3701,380.94073 416.32846,372.37428 404.22175,360.91561 C 384.59201,342.3366 362.74871,315.00988 352.33963,299.41084 C 341.93058,283.81181 345.38094,271.45898 334.31637,272.32246 C 308.42788,274.34278 281.4022,290.17689 256.26679,302.09253 C 229.38675,314.83524 202.18403,327.47981 178.1197,344.56388 C 174.67607,347.00864 167.22596,351.44342 170.88015,355.79082 C 174.63921,360.26297 177.02805,365.94284 181.69657,369.54025 z"
         style="opacity:1;fill:none;fill-opacity:1;stroke:#000000;stroke-width:4.93463945;stroke-miterlimit:4;stroke-dasharray:none;stroke-dashoffset:0;stroke-opacity:1" />
      <path
         sodipodi:nodetypes="csssssssscssccc"
         id="path3170"
         d="M 170.01276,356.53222 C 169.0846,389.57063 167.74418,423.5716 170.48976,454.72742 C 170.95015,459.95181 175.68308,463.19762 179.77456,465.36249 C 189.13885,470.31727 198.52553,474.99773 206.30697,482.19451 C 218.91343,493.85377 231.65651,505.83162 241.49764,519.58027 C 255.80127,539.56337 267.45888,561.21947 278.82283,582.78638 C 286.11457,596.62491 291.42398,612.3062 302.9237,623.32972 C 308.32507,628.5074 315.71362,630.97785 323.3946,632.73514 C 329.91868,634.22775 336.93201,632.81851 342.38241,629.94686 C 382.95929,608.56817 422.19951,584.14047 462.10804,561.23726 C 461.62121,554.61914 457.93422,546.47067 460.64755,541.38292 C 463.2893,536.42939 472.80487,528.83685 475.84966,530.14519 C 478.64679,531.34715 478.17327,542.98037 478.17327,548.91384 C 484.25858,544.12142 490.3439,539.32899 496.42923,534.53657 C 496.42923,499.16391 496.42923,463.79126 496.42923,428.4186"
         style="opacity:1;fill:none;fill-opacity:1;stroke:#000000;stroke-width:5;stroke-miterlimit:4;stroke-dasharray:none;stroke-dashoffset:0;stroke-opacity:1" />
      <path
         id="path3172"
         d="M 327.01531,542.18624 L 327.74288,632.35468"
         style="opacity:1;fill:none;fill-opacity:1;fill-rule:evenodd;stroke:#000000;stroke-width:4.98501492;stroke-linecap:butt;stroke-linejoin:miter;marker:none;marker-start:none;marker-mid:none;marker-end:none;stroke-miterlimit:4;stroke-dasharray:none;stroke-dashoffset:0;stroke-opacity:1;visibility:visible;display:inline;overflow:visible;enable-background:accumulate" />
      <path
         transform="matrix(0.6935654,-0.6609249,0.6939078,0.6178038,-274.43938,480.86534)"
         d="M 436.42857,553.79077 A 36.785713,31.428572 0 1 1 362.85714,553.79077 A 36.785713,31.428572 0 1 1 436.42857,553.79077 z"
         sodipodi:ry="31.428572"
         sodipodi:rx="36.785713"
         sodipodi:cy="553.79077"
         sodipodi:cx="399.64285"
         id="path3176"
         style="opacity:1;fill:none;fill-opacity:1;stroke:#000000;stroke-width:5.30862045;stroke-miterlimit:4;stroke-dasharray:none;stroke-dashoffset:0;stroke-opacity:1"
         sodipodi:type="arc" />
      <path
         sodipodi:nodetypes="czscccc"
         id="path3178"
         d="M 224.78063,392.81773 C 224.78063,392.81773 280.16591,360.72572 294.8835,353.7937 C 309.60109,346.86168 312.97416,345.64178 321.17206,343.52422 C 322.67009,343.13727 326.28373,342.83958 326.28373,342.83958 L 377.40041,380.49436 L 420.48447,416.09523 L 454.44055,446.90367"
         style="opacity:1;fill:none;fill-opacity:1;stroke:#000000;stroke-width:4.93463945;stroke-miterlimit:4;stroke-dasharray:none;stroke-dashoffset:0;stroke-opacity:1" />
      <path
         sodipodi:nodetypes="cc"
         id="path3180"
         d="M 270.78564,368.17097 C 307.5922,407.42322 352.03742,449.07168 398.57731,488.32392"
         style="opacity:1;fill:none;fill-opacity:1;stroke:#000000;stroke-width:3;stroke-miterlimit:4;stroke-dasharray:none;stroke-dashoffset:0;stroke-opacity:1" />
      <path
         sodipodi:nodetypes="cc"
         id="path3182"
         d="M 252.24065,380.09104 C 288.32002,419.93232 330.94187,461.91557 376.7531,501.91416"
         style="opacity:1;fill:none;fill-opacity:1;stroke:#000000;stroke-width:3;stroke-miterlimit:4;stroke-dasharray:none;stroke-dashoffset:0;stroke-opacity:1" />
      <path
         transform="matrix(1.0060462,-0.1905224,0.1677166,0.8976848,-83.32523,117.32366)"
         d="M 399.28573,399.86218 A 25.714285,15.357142 0 1 1 347.85716,399.86218 A 25.714285,15.357142 0 1 1 399.28573,399.86218 z"
         sodipodi:ry="15.357142"
         sodipodi:rx="25.714285"
         sodipodi:cy="399.86218"
         sodipodi:cx="373.57144"
         id="path3186"
         style="opacity:1;fill:none;fill-opacity:1;stroke:#000000;stroke-width:3.10241628;stroke-miterlimit:4;stroke-dasharray:none;stroke-dashoffset:0;stroke-opacity:1"
         sodipodi:type="arc" />
      <path
         sodipodi:nodetypes="csccc"
         id="path3188"
         d="M 333.55238,409.5351 L 335.46541,420.99437 C 336.73964,428.62712 349.63071,432.58543 363.91081,429.88111 C 378.19093,427.17677 388.62669,418.80588 387.20493,411.19608 L 385.29059,399.85295"
         style="fill:none;fill-opacity:1;stroke:#000000;stroke-width:3;stroke-miterlimit:4;stroke-dasharray:none;stroke-dashoffset:0;stroke-opacity:1" />
      <path
         id="path3191"
         d="M 370.27476,401.06322 C 348.32961,407.84073 348.32961,407.84073 348.32961,407.84073"
         style="opacity:1;fill:none;fill-opacity:1;stroke:#000000;stroke-width:3;stroke-miterlimit:4;stroke-dasharray:none;stroke-dashoffset:0;stroke-opacity:1" />
      <path
         id="path3193"
         d="M 356.05419,397.20982 C 362.50865,412.21716 362.50865,412.21716 362.50865,412.21716"
         style="opacity:1;fill:none;fill-opacity:1;stroke:#000000;stroke-width:3;stroke-miterlimit:4;stroke-dasharray:none;stroke-dashoffset:0;stroke-opacity:1" />
      <path
         sodipodi:nodetypes="cssscsssccss"
         id="path3195"
         d="M 201.59981,370.93287 C 230.08308,393.88346 256.60455,419.3728 278.52761,447.99549 C 290.71413,463.90618 303.67738,481.98396 313.27625,499.45377 C 318.59491,509.13367 324.57696,528.58848 332.9699,525.22182 C 381.30737,505.83224 440.41207,464.09064 477.40557,427.61129 C 481.20079,423.47476 471.99043,422.34149 464.22807,416.92191 C 456.46572,411.50232 423.58484,389.28723 412.0847,380.49127 C 381.55386,357.13951 366.78968,337.30528 346.05231,306.03074 C 340.77426,298.07076 338.012,284.80702 328.51172,285.58231 C 287.69497,297.43772 231.74669,321.11084 196.4632,343.66677 C 193.50643,345.86178 181.94604,351.77999 185.0836,355.6833 C 188.3112,359.69863 197.58088,367.69458 201.59981,370.93287 z"
         style="opacity:1;fill:none;fill-opacity:1;stroke:#000000;stroke-width:4;stroke-miterlimit:4;stroke-dasharray:none;stroke-dashoffset:0;stroke-opacity:1" />
      <path
         id="path3197"
         d="M 325.18796,342.66114 L 330.17809,285.67049"
         style="opacity:1;fill:none;fill-opacity:1;stroke:#000000;stroke-width:3;stroke-miterlimit:4;stroke-dasharray:none;stroke-dashoffset:0;stroke-opacity:1" />
      <path
         sodipodi:nodetypes="cc"
         id="path3199"
         d="M 476.33623,552.79559 L 459.23651,544.33839"
         style="opacity:1;fill:none;fill-opacity:1;stroke:#000000;stroke-width:3;stroke-miterlimit:4;stroke-dasharray:none;stroke-dashoffset:0;stroke-opacity:1" />
    </g>
  </g>
</svg>
