<?xml version="1.0" encoding="UTF-8" standalone="no"?>
<!-- Created with Inkscape (http://www.inkscape.org/) -->

<svg
   xmlns:dc="http://purl.org/dc/elements/1.1/"
   xmlns:cc="http://creativecommons.org/ns#"
   xmlns:rdf="http://www.w3.org/1999/02/22-rdf-syntax-ns#"
   xmlns:svg="http://www.w3.org/2000/svg"
   xmlns="http://www.w3.org/2000/svg"
   xmlns:xlink="http://www.w3.org/1999/xlink"
   xmlns:sodipodi="http://sodipodi.sourceforge.net/DTD/sodipodi-0.dtd"
   xmlns:inkscape="http://www.inkscape.org/namespaces/inkscape"
   id="svg1"
   sodipodi:version="0.32"
   inkscape:version="0.48.1 r9760"
   width="97.898476"
   height="70.633232"
   sodipodi:docname="nicubunu_Weather_Symbols_Cloudy_Day.svg"
   version="1.1">
  <metadata
     id="metadata3110" />
  <defs
     id="defs3">
    <linearGradient
       id="linearGradient893">
      <stop
         style="stop-color:#f3f3f3;stop-opacity:1.0000000;"
         offset="0.0000000"
         id="stop894" />
      <stop
         style="stop-color:#ffffff;stop-opacity:1.0000000;"
         offset="0.37650406"
         id="stop895" />
      <stop
         style="stop-color:#e6ffff;stop-opacity:1.0000000;"
         offset="1.0000000"
         id="stop896" />
    </linearGradient>
    <linearGradient
       id="linearGradient912">
      <stop
         style="stop-color:#ffffff;stop-opacity:0.49803922;"
         offset="0.0000000"
         id="stop913" />
      <stop
         style="stop-color:#ffffff;stop-opacity:0.0000000;"
         offset="1.0000000"
         id="stop914" />
    </linearGradient>
    <radialGradient
       xlink:href="#linearGradient912"
       id="radialGradient915"
       cx="43.785932"
       cy="41.191084"
       r="12.971196"
       fx="43.785932"
       fy="41.191084"
       gradientTransform="scale(1.0224747,0.97801928)"
       gradientUnits="userSpaceOnUse" />
    <linearGradient
       xlink:href="#linearGradient893"
       id="linearGradient854"
       x1="58.047035"
       y1="85.199616"
       x2="-27.824841"
       y2="37.242694"
       gradientTransform="matrix(1.3745692,0,0,0.72750065,-2.3385625,-7.9128647)"
       gradientUnits="userSpaceOnUse" />
  </defs>
  <sodipodi:namedview
     id="base"
     pagecolor="#ffffff"
     bordercolor="#666666"
     borderopacity="1.0"
     inkscape:pageopacity="0.0"
     inkscape:pageshadow="2"
     inkscape:zoom="2.1435469"
     inkscape:cx="31.911291"
     inkscape:cy="10.455535"
     inkscape:window-width="809"
     inkscape:window-height="630"
     inkscape:window-x="39"
     inkscape:window-y="118"
     showgrid="false"
     fit-margin-top="0"
     fit-margin-left="0"
     fit-margin-right="0"
     fit-margin-bottom="0"
     inkscape:window-maximized="0"
     inkscape:current-layer="svg1" />
  <g
     id="g916"
     transform="matrix(0.644669,0,0,0.640749,36.649777,-2.7320537)">
    <path
       transform="matrix(0.964932,0,0,0.945883,4.5275,-0.755837)"
       style="fill:#ffbb00;fill-opacity:0.9807692;fill-rule:evenodd;stroke-width:1.30840731;stroke-linejoin:round"
       d="m 68.562931,51.180321 c 0,11.889027 -9.649066,21.538093 -21.538094,21.538093 -11.889027,0 -21.538093,-9.649066 -21.538093,-21.538093 0,-11.889028 9.649066,-21.538094 21.538093,-21.538094 11.889028,0 21.538094,9.649066 21.538094,21.538094 z"
       id="path910"
       inkscape:connector-curvature="0" />
    <path
       style="fill:#ffbb00;fill-opacity:0.9807692;fill-rule:evenodd;stroke:none"
       d="m 47.528593,16.16176 c -1.63011,3.452297 2.325899,8.671223 5.419725,4.753249 1.192317,-3.410291 0.345251,-7.149161 0.748825,-10.695373 C 54.487548,7.1213391 53.255242,4.6333245 49.816525,4.2638439 47.827095,4.6538753 48.093381,12.121929 47.528593,16.16176 z"
       id="path854"
       sodipodi:nodetypes="ccccc"
       inkscape:connector-curvature="0" />
    <path
       style="fill:#ffbb00;fill-opacity:0.9807692;fill-rule:evenodd;stroke:none"
       d="m 25.351361,9.6280267 c -1.173808,0.036974 -2.218951,0.7385733 -2.678449,1.7980283 -0.459498,1.059455 -0.24976,2.284035 0.537507,3.1383 0,0 2.44992,2.712919 10.071475,11.202806 0.694596,0.849229 1.80908,1.255587 2.900986,1.057743 1.091907,-0.197844 1.984567,-0.967878 2.323584,-2.004389 0.339016,-1.03651 0.06954,-2.171792 -0.701452,-2.955123 C 30.185852,13.378174 27.763691,10.662587 27.763691,10.662587 27.16374,9.973658 26.274697,9.5923797 25.351361,9.6280267 l 0,0 z"
       id="path855"
       inkscape:connector-curvature="0" />
    <path
       style="fill:#ffbb00;fill-opacity:0.9807692;fill-rule:evenodd;stroke:none"
       d="m 10.605997,24.850836 c -0.31152,1.093833 -0.7464239,2.900139 1.057838,3.595012 4.149063,2.767325 8.959171,3.979419 14.045246,6.039803 1.955837,0.767631 4.209276,-1.006483 3.992549,-3.028961 -0.09177,-1.919385 -2.15382,-2.716617 -3.732084,-3.254243 -3.96176,-1.61642 -8.019906,-2.995016 -12.06248,-4.403386 -1.195998,-0.119875 -2.324944,0.437285 -3.301069,1.051775 z"
       id="path870"
       sodipodi:nodetypes="ccccccc"
       inkscape:connector-curvature="0" />
    <path
       style="fill:#ffbb00;fill-opacity:0.9807692;fill-rule:evenodd;stroke:none"
       d="m 6.4751911,46.864567 c 0.1293616,1.377117 -0.6017915,2.966392 0.7107835,3.773276 2.7443126,0.897493 9.2677224,0.864931 14.2018514,0.914164 2.390739,-0.18456 3.556045,-3.507855 1.713113,-5.0531 -1.418014,-1.320939 -3.480228,-0.72722 -5.22832,-0.911729 -2.050293,-0.04521 -11.8393721,-0.375139 -11.3974279,1.277389 z"
       id="path873"
       sodipodi:nodetypes="cccccc"
       inkscape:connector-curvature="0" />
    <path
       style="fill:#ffbb00;fill-opacity:0.9807692;fill-rule:evenodd;stroke:none"
       d="m 25.110128,56.833515 c -0.474485,0.01191 -0.939401,0.133443 -1.356935,0.354706 -5.704245,2.880541 -8.626826,4.322813 -10.10163,5.025006 -0.687085,0.327139 -1.01334,0.461505 -1.176011,0.532059 -0.01191,0.0052 -0.08078,0.02542 -0.09046,0.02956 -1.416812,0.456688 -2.280271,1.86001 -2.031411,3.301516 0.24886,1.441506 1.535283,2.488184 3.026497,2.46246 0,0 0.396038,-0.0091 0.51262,-0.02956 0.116582,-0.02045 0.206733,-0.04202 0.271387,-0.05912 0.129309,-0.03421 0.204028,-0.06479 0.271387,-0.08868 0.134717,-0.04776 0.221696,-0.08791 0.36185,-0.147794 0.280307,-0.119774 0.699541,-0.309423 1.477551,-0.679854 1.55602,-0.740861 4.526109,-2.192449 10.252401,-5.084123 1.284016,-0.608102 1.958007,-2.014707 1.615577,-3.371674 -0.342431,-1.356968 -1.607672,-2.293338 -3.032821,-2.244508 l 0,0 z"
       id="path858"
       inkscape:connector-curvature="0" />
    <path
       style="fill:#ffbb00;fill-opacity:0.9807692;fill-rule:evenodd;stroke:none"
       d="m 33.734206,68.036321 c -0.774323,0.02641 -1.508571,0.343948 -2.05048,0.886765 -5.183853,5.08152 -7.799673,7.549812 -9.046236,8.690303 -0.485767,0.444432 -0.601916,0.54804 -0.723698,0.650295 -0.0053,0.0044 -0.02551,0.02568 -0.03016,0.02956 -0.925047,0.537638 -1.488025,1.51748 -1.477551,2.57162 0,0 0.120577,0.886642 0.120616,0.886765 4e-5,1.24e-4 0.693387,1.123071 0.693545,1.123237 1.58e-4,1.65e-4 1.175653,0.768406 1.17601,0.76853 3.57e-4,1.24e-4 1.024607,0.177353 1.02524,0.177353 6.34e-4,0 0.47178,-0.02535 0.633237,-0.05912 0.161457,-0.03376 0.260776,-0.08301 0.361849,-0.118235 0.202148,-0.07045 0.325019,-0.126569 0.422158,-0.177353 0.388554,-0.203138 0.458088,-0.27056 0.603082,-0.384265 0.289989,-0.227411 0.651138,-0.534644 1.326782,-1.152795 1.351286,-1.236304 3.959308,-3.703796 9.166852,-8.808539 0.900845,-0.849931 1.173235,-2.156624 0.684752,-3.28485 -0.488484,-1.128226 -1.636517,-1.843965 -2.886003,-1.799272 l 0,0 z"
       id="path859"
       inkscape:connector-curvature="0" />
    <path
       style="fill:#ffbb00;fill-opacity:0.9807692;fill-rule:evenodd;stroke:none"
       d="m 51.012516,71.760736 c -0.79993,0.03082 -1.554537,0.372149 -2.097533,0.948783 -0.542996,0.576633 -0.829818,1.341242 -0.797262,2.125338 0.124846,5.017636 -1.023527,11.07868 0.530638,13.142157 1.790487,0.780063 2.816469,0.691386 2.816469,0.691386 l 2.418583,-0.83918 c 0.596829,-1.950158 0.611514,-5.071406 0.265133,-13.142157 -0.0076,-0.799704 -0.345386,-1.562272 -0.936305,-2.113677 -0.590918,-0.551404 -1.38453,-0.84459 -2.199723,-0.81265 l 0,0 z"
       id="path860"
       sodipodi:nodetypes="cccccccccc"
       inkscape:connector-curvature="0" />
    <path
       style="fill:#ffbb00;fill-opacity:0.9807692;fill-rule:evenodd;stroke:none"
       d="m 66.391116,69.721175 c -1.116945,-0.01612 -2.151483,0.57431 -2.688605,1.534433 -0.537122,0.960122 -0.488829,2.132638 0.125505,3.047189 3.153719,4.808941 4.912606,7.187949 6.030824,8.483391 0.55911,0.647721 0.938324,1.023316 1.447398,1.389266 0.254537,0.182976 0.531835,0.375861 1.055394,0.53206 0.26178,0.0781 0.597658,0.157784 0.995086,0.147794 0.198713,-0.005 0.414593,-0.03736 0.633236,-0.08868 0.218643,-0.05132 0.633237,-0.236471 0.633237,-0.236471 1.018922,-0.483324 1.675929,-1.485266 1.70136,-2.594589 0.02543,-1.109322 -0.584999,-2.139184 -1.580744,-2.666887 -0.02252,-0.02396 -1.47e-4,-0.01092 -0.271387,-0.325148 -0.786871,-0.91158 -2.497395,-3.134862 -5.578512,-7.833096 -0.540738,-0.848361 -1.482473,-1.371105 -2.502792,-1.389266 z"
       id="path861"
       inkscape:connector-curvature="0" />
    <path
       style="fill:#ffbb00;fill-opacity:0.9807692;fill-rule:evenodd;stroke:none"
       d="m 75.678585,58.547929 c -1.3285,0.148808 -2.398408,1.137388 -2.628399,2.428601 -0.229989,1.291215 0.434862,2.57671 1.633313,3.158022 3.490202,1.765834 7.811957,5.214356 10.704712,4.658767 2.393693,-0.453722 2.599013,-2.077537 2.406447,-3.701351 -0.397885,-1.560125 -1.787577,-2.346345 -10.33698,-6.218892 -0.545088,-0.284368 -1.166089,-0.397862 -1.779093,-0.325147 z"
       id="path862"
       sodipodi:nodetypes="ccccccc"
       inkscape:connector-curvature="0" />
    <path
       style="fill:#ffbb00;fill-opacity:0.9807692;fill-rule:evenodd;stroke:none"
       d="m 91.961809,43.56159 c -0.329367,0.0071 -0.655329,0.06697 -0.964932,0.177353 -0.190571,0.01781 -0.380257,0.02904 -1.055394,0.05912 -1.813995,0.08083 -5.579836,0.147794 -13.17735,0.147794 -1.087466,-0.01508 -2.098972,0.544993 -2.647193,1.465744 -0.548221,0.920751 -0.548221,2.059533 0,2.980284 0.548221,0.920751 1.559727,1.480819 2.647193,1.465743 7.643203,0 11.452554,-0.08841 13.448737,-0.177353 0.998092,-0.04447 1.544111,-0.06264 1.960018,-0.118236 0.207953,-0.0278 0.347499,-0.03986 0.693545,-0.147794 0.173022,-0.05397 0.398132,-0.106208 0.814161,-0.384265 0.104007,-0.06951 0.232651,-0.178535 0.361849,-0.295589 0.129199,-0.117054 0.421925,-0.443061 0.422158,-0.443382 2.32e-4,-3.22e-4 0.361791,-0.738808 0.361849,-0.738972 5.8e-5,-1.63e-4 0.180925,-0.975442 0.180925,-0.975442 0.01627,-0.799271 -0.298385,-1.570926 -0.872203,-2.138986 -0.573819,-0.56806 -1.357875,-0.884089 -2.173363,-0.876017 z"
       id="path863"
       inkscape:connector-curvature="0" />
    <path
       style="fill:#ffbb00;fill-opacity:0.9807692;fill-rule:evenodd;stroke:none"
       d="m 90.972605,27.977944 c -3.183088,0 -3.184103,-0.191169 -14.600475,2.814222 -1.084729,0.216998 -1.960958,0.999167 -2.282613,2.037585 -0.321655,1.038417 -0.03702,2.166114 0.741491,2.937699 0.77851,0.771585 1.925716,1.062994 2.988519,0.759133 5.220033,-1.248046 13.699401,-2.749787 14.003647,-4.539804 1.506964,-1.531293 0.228727,-2.672556 -0.850569,-4.008835 z"
       id="path864"
       sodipodi:nodetypes="ccccccc"
       inkscape:connector-curvature="0" />
    <path
       style="fill:#ffbb00;fill-opacity:0.9807692;fill-rule:evenodd;stroke:none"
       d="m 75.99152,10.632665 c -1.790487,0.975078 -3.972813,2.939085 -9.751174,11.262286 -0.899298,1.379454 -0.487534,3.212357 0.919701,4.093901 1.407234,0.881545 3.277047,0.477909 4.176345,-0.901545 2.948929,-4.5246 7.448468,-9.762481 7.827678,-11.62728 -0.261744,-1.527501 -1.717147,-2.664971 -3.17255,-2.827362 z"
       id="path865"
       sodipodi:nodetypes="cccccc"
       inkscape:connector-curvature="0" />
    <path
       style="fill:url(#radialGradient915);fill-opacity:1;fill-rule:evenodd;stroke:none"
       d="m 58.218067,41.781933 c 0,6.607478 -5.606346,11.970069 -12.514164,11.970069 -6.907819,0 -12.514164,-5.362591 -12.514164,-11.970069 0,-6.607479 5.606345,-11.97007 12.514164,-11.97007 6.907818,0 12.514164,5.362591 12.514164,11.97007 z"
       id="path911"
       inkscape:connector-curvature="0" />
  </g>
  <path
     style="fill:url(#linearGradient854);fill-rule:evenodd;stroke:#000000;stroke-width:1.12266743;stroke-linejoin:round"
     d="M 41.041528,36.507977 C 40.128938,31.824298 32.412155,24.959685 27.790019,26.243013 22.001723,27.909459 19.335524,33.297946 23.472405,37.359929 19.812275,34.777409 10.680103,32.555369 5.7302896,41.552734 2.6576791,48.255288 11.358784,52.448568 14.020641,51.952848 8.9272185,51.314166 -3.6218827,62.236487 1.9656933,67.800127 c 6.8847602,5.655277 22.6552907,-0.460101 23.3477557,-5.18368 -1.536378,6.90734 15.986052,8.233427 16.419528,-1.366685 -1.250597,4.500948 11.251711,9.291364 17.195469,7.458664 7.449373,-1.894901 6.553679,-8.291954 5.672228,-10.24253 5.729853,0.682768 14.701442,2.375933 18.675537,-3.763624 C 86.046275,48.900479 84.3994,42.4203 80.833508,40.381943 76.948174,38.454495 72.702869,38.554939 67.751311,41.819748 71.680321,39.1535 69.257076,30.555684 65.31935,28.666904 c -4.487761,-2.14517 -9.879518,-2.563833 -14.72209,-1.520828 -3.990186,0.666315 -10.304883,4.174555 -9.555732,9.361901 z"
     id="path853"
     sodipodi:nodetypes="cccccccccccccccc"
     inkscape:connector-curvature="0" />
  <metadata
     id="metadata3112">
    <rdf:RDF>
      <cc:Work
         rdf:about="">
        <dc:title>Clipart by Nicu Buculei - w_cloud</dc:title>
        <dc:rights>
          <cc:Agent>
            <dc:title>Nicu Buculei</dc:title>
          </cc:Agent>
        </dc:rights>
        <dc:type
           rdf:resource="http://purl.org/dc/dcmitype/StillImage" />
        <cc:license
           rdf:resource="http://web.resource.org/cc/PublicDomain" />
        <dc:format>image/svg+xml</dc:format>
      </cc:Work>
      <cc:License
         rdf:about="http://web.resource.org/cc/PublicDomain">
        <cc:permits
           rdf:resource="http://web.resource.org/cc/Reproduction" />
        <cc:permits
           rdf:resource="http://web.resource.org/cc/Distribution" />
        <cc:permits
           rdf:resource="http://web.resource.org/cc/DerivativeWorks" />
      </cc:License>
    </rdf:RDF>
  </metadata>
</svg>
