<?xml version="1.0" encoding="UTF-8" standalone="no"?>
<!-- Created with Inkscape (http://www.inkscape.org/) -->

<svg
   xmlns:dc="http://purl.org/dc/elements/1.1/"
   xmlns:cc="http://creativecommons.org/ns#"
   xmlns:rdf="http://www.w3.org/1999/02/22-rdf-syntax-ns#"
   xmlns:svg="http://www.w3.org/2000/svg"
   xmlns="http://www.w3.org/2000/svg"
   xmlns:sodipodi="http://sodipodi.sourceforge.net/DTD/sodipodi-0.dtd"
   xmlns:inkscape="http://www.inkscape.org/namespaces/inkscape"
   width="540.69458"
   height="774.66583"
   id="svg2"
   version="1.1"
   inkscape:version="0.47 r22583"
   sodipodi:docname="telescope.svg">
  <defs
     id="defs4">
    <inkscape:perspective
       sodipodi:type="inkscape:persp3d"
       inkscape:vp_x="0 : 526.18109 : 1"
       inkscape:vp_y="0 : 1000 : 0"
       inkscape:vp_z="744.09448 : 526.18109 : 1"
       inkscape:persp3d-origin="372.04724 : 350.78739 : 1"
       id="perspective10" />
    <inkscape:perspective
       id="perspective3706"
       inkscape:persp3d-origin="0.5 : 0.33333333 : 1"
       inkscape:vp_z="1 : 0.5 : 1"
       inkscape:vp_y="0 : 1000 : 0"
       inkscape:vp_x="0 : 0.5 : 1"
       sodipodi:type="inkscape:persp3d" />
    <inkscape:perspective
       id="perspective3730"
       inkscape:persp3d-origin="0.5 : 0.33333333 : 1"
       inkscape:vp_z="1 : 0.5 : 1"
       inkscape:vp_y="0 : 1000 : 0"
       inkscape:vp_x="0 : 0.5 : 1"
       sodipodi:type="inkscape:persp3d" />
    <inkscape:perspective
       id="perspective3756"
       inkscape:persp3d-origin="0.5 : 0.33333333 : 1"
       inkscape:vp_z="1 : 0.5 : 1"
       inkscape:vp_y="0 : 1000 : 0"
       inkscape:vp_x="0 : 0.5 : 1"
       sodipodi:type="inkscape:persp3d" />
    <inkscape:perspective
       id="perspective3786"
       inkscape:persp3d-origin="0.5 : 0.33333333 : 1"
       inkscape:vp_z="1 : 0.5 : 1"
       inkscape:vp_y="0 : 1000 : 0"
       inkscape:vp_x="0 : 0.5 : 1"
       sodipodi:type="inkscape:persp3d" />
  </defs>
  <sodipodi:namedview
     id="base"
     pagecolor="#ffffff"
     bordercolor="#666666"
     borderopacity="1.0"
     inkscape:pageopacity="0.0"
     inkscape:pageshadow="2"
     inkscape:zoom="0.78743629"
     inkscape:cx="251.29812"
     inkscape:cy="387.33292"
     inkscape:document-units="px"
     inkscape:current-layer="layer1"
     showgrid="false"
     inkscape:window-width="1440"
     inkscape:window-height="852"
     inkscape:window-x="-4"
     inkscape:window-y="-3"
     inkscape:window-maximized="1" />
  <metadata
     id="metadata7">
    <rdf:RDF>
      <cc:Work
         rdf:about="">
        <dc:format>image/svg+xml</dc:format>
        <dc:type
           rdf:resource="http://purl.org/dc/dcmitype/StillImage" />
        <dc:title></dc:title>
      </cc:Work>
    </rdf:RDF>
  </metadata>
  <g
     inkscape:label="Layer 1"
     inkscape:groupmode="layer"
     id="layer1"
     transform="translate(-55.651276,-118.58552)">
    <g
       id="g3818">
      <path
         sodipodi:nodetypes="ccccc"
         id="path3610"
         d="m 310.2857,403.97854 92.56535,69.25124 2.95463,-3.66017 -92.42575,-68.83651 -3.09423,3.24544 z"
         style="fill:#ececec;fill-opacity:1;stroke:#000000;stroke-width:1px;stroke-linecap:butt;stroke-linejoin:miter;stroke-opacity:1" />
      <path
         sodipodi:nodetypes="ccccc"
         id="path3606"
         d="m 255.49921,445.13825 -79.7765,93.96192 c 0.77981,5.16699 3.84706,6.33096 7.58515,6.32096 l 78.51231,-94.24124 -6.32096,-6.04164 z"
         style="fill:#ececec;fill-opacity:1;stroke:#000000;stroke-width:1px;stroke-linecap:butt;stroke-linejoin:miter;stroke-opacity:1" />
      <path
         sodipodi:nodetypes="cccc"
         id="path3688"
         d="m 359.86482,457.20555 3.49998,2.83295 -19.17893,22.62971 -3.22142,-2.4445"
         style="fill:#989698;fill-opacity:1;stroke:#000000;stroke-width:1px;stroke-linecap:butt;stroke-linejoin:round;stroke-opacity:1" />
      <path
         sodipodi:nodetypes="ccccc"
         id="path3602"
         d="m 273.0655,432.90803 67.76611,47.22131 18.96288,-22.92221 -67.07204,-48.98578 -19.65695,24.68668 z"
         style="fill:#161516;fill-opacity:1;stroke:#000000;stroke-width:1px;stroke-linecap:butt;stroke-linejoin:miter;stroke-opacity:1" />
      <path
         sodipodi:nodetypes="cccc"
         id="path3600"
         d="m 291.19461,488.28464 3.37385,-50.12497 c 11.55935,-10.75027 24.1648,-15.79838 40.59474,0 l 4.18341,49.27468"
         style="fill:#343331;fill-opacity:1;stroke:#000000;stroke-width:1px;stroke-linecap:butt;stroke-linejoin:miter;stroke-opacity:1" />
      <rect
         ry="1.3400126"
         y="486.5358"
         x="268.29071"
         height="64.847519"
         width="94.092476"
         id="rect3668"
         style="color:#000000;fill:#000000;fill-opacity:1;fill-rule:nonzero;stroke:#000000;stroke-width:0.40000001;stroke-linecap:round;stroke-linejoin:round;stroke-miterlimit:4;stroke-opacity:1;stroke-dasharray:none;stroke-dashoffset:0;marker:none;visibility:visible;display:inline;overflow:visible;enable-background:accumulate" />
      <path
         sodipodi:nodetypes="cccc"
         id="path3674"
         d="m 275.22988,530.60543 9.03612,-1.27569 7.86675,8.29198 -9.46136,-0.53154"
         style="fill:#87421b;fill-opacity:1;stroke:#5c310e;stroke-width:1px;stroke-linecap:butt;stroke-linejoin:miter;stroke-opacity:1" />
      <path
         sodipodi:nodetypes="cccc"
         id="path3666"
         d="m 282.62137,537.45913 8.62966,0.71914 -216.853222,345.18286 -7.970646,6.60429"
         style="fill:#7d5922;fill-opacity:1;stroke:#572900;stroke-width:1px;stroke-linecap:butt;stroke-linejoin:miter;stroke-opacity:1" />
      <path
         sodipodi:nodetypes="cccc"
         id="path3664"
         d="m 358.91632,534.294 14.57566,-0.32651 140.81006,315.63824 -0.64133,20.40381"
         style="fill:#7d5922;fill-opacity:1;stroke:#5f2900;stroke-width:1px;stroke-linecap:butt;stroke-linejoin:miter;stroke-opacity:1" />
      <path
         transform="matrix(0.77885146,0.62720842,-0.62720842,0.77885146,0,0)"
         sodipodi:nodetypes="ccccccccc"
         id="rect2816"
         d="m 247.88472,-37.983868 484.36035,0 c 2.98258,0 5.38371,2.401138 5.38371,5.383718 16.47199,42.4781199 10.67832,74.766693 0,104.819883 0,2.98258 -2.40113,5.383718 -5.38371,5.383718 l -484.36035,0 c -2.98257,0 -5.38371,-2.401138 -5.38371,-5.383718 -10.31078,-41.564597 -7.53485,-74.7210343 0,-104.819883 0,-2.98258 2.40114,-5.383718 5.38371,-5.383718 z"
         style="color:#000000;fill:#000000;fill-opacity:1;fill-rule:nonzero;stroke:#514f58;stroke-width:0.40000001;stroke-linecap:round;stroke-linejoin:round;stroke-miterlimit:4;stroke-opacity:1;stroke-dashoffset:0;marker:none;visibility:visible;display:inline;overflow:visible;enable-background:accumulate" />
      <path
         sodipodi:nodetypes="ccccc"
         id="path3590"
         d="M 59.71116,877.85276 251.87685,512.37962 282.3526,537.10601 66.611896,889.92905 c -9.731967,5.38808 -14.064324,3.93666 -6.900736,-12.07629 z"
         style="fill:#9a723d;fill-opacity:1;stroke:#553000;stroke-width:1px;stroke-linecap:butt;stroke-linejoin:miter;stroke-opacity:1" />
      <path
         sodipodi:nodetypes="ccccc"
         id="path3592"
         d="m 345.03678,553.78403 13.80147,-18.97702 153.18502,323.25139 c 5.30874,28.6848 -6.44425,13.49655 -15.52665,5.17555 L 345.03678,553.78403 z"
         style="fill:#9a723d;fill-opacity:1;stroke:#522d00;stroke-width:1px;stroke-linecap:butt;stroke-linejoin:miter;stroke-opacity:1" />
      <path
         sodipodi:nodetypes="ccccc"
         id="path3594"
         d="m 329.51013,552.05885 -31.05331,-1.72518 -13.80148,192.74546 c 3.10101,5.93917 6.53314,6.24912 10.35111,0 l 34.50368,-191.02028 z"
         style="fill:#764b19;fill-opacity:1;stroke:#562f00;stroke-width:1px;stroke-linecap:butt;stroke-linejoin:miter;stroke-opacity:1" />
      <path
         sodipodi:nodetypes="ccccc"
         id="path3604"
         d="m 246.78225,439.6407 63.63585,-76.8364 20.80024,18.27186 -63.20961,75.85152 -21.22648,-17.28698 z"
         style="fill:#000000;fill-opacity:1;stroke:#000000;stroke-width:1px;stroke-linecap:butt;stroke-linejoin:miter;stroke-opacity:1" />
      <path
         sodipodi:nodetypes="ccccc"
         id="path3614"
         d="m 301.61778,340.12477 -11.05786,13.95627 55.82873,45.958 10.48356,-13.01195 -55.25443,-46.90232 z"
         style="fill:#000000;fill-opacity:1;stroke:#000000;stroke-width:1px;stroke-linecap:butt;stroke-linejoin:miter;stroke-opacity:1" />
      <g
         transform="matrix(0.78149766,0.62390818,-0.62390818,0.78149766,162.82895,-105.56244)"
         id="g3641">
        <path
           sodipodi:nodetypes="ccccc"
           id="rect3639"
           d="m 314.78384,104.21807 58.15284,0 c 3.66945,6.6592 5.53676,12.26899 0,21.49127 l -58.15284,0 0,-21.49127 z"
           style="color:#000000;fill:#000000;fill-opacity:1;fill-rule:nonzero;stroke:#514f58;stroke-width:0.40000001;stroke-linecap:round;stroke-linejoin:round;stroke-miterlimit:4;stroke-opacity:1;stroke-dashoffset:0;marker:none;visibility:visible;display:inline;overflow:visible;enable-background:accumulate" />
        <path
           sodipodi:nodetypes="ccccc"
           id="rect3637"
           d="m 249.04585,100.4255 65.73799,0 c 6.55318,12.27492 5.76094,20.94184 0,30.34061 l -65.73799,0 c -4.49637,-8.46212 -5.48984,-18.21078 0,-30.34061 z"
           style="color:#000000;fill:#000000;fill-opacity:1;fill-rule:nonzero;stroke:#514f58;stroke-width:0.40000001;stroke-linecap:round;stroke-linejoin:round;stroke-miterlimit:4;stroke-opacity:1;stroke-dashoffset:0;marker:none;visibility:visible;display:inline;overflow:visible;enable-background:accumulate" />
      </g>
      <path
         sodipodi:nodetypes="ccccc"
         id="path3645"
         d="m 289.5,187.65476 15.72591,-13.90612 18.40728,15.17031 -10.11354,16.4345 L 289.5,187.65476 z"
         style="fill:none;stroke:#000000;stroke-width:4;stroke-linecap:butt;stroke-linejoin:miter;stroke-miterlimit:4;stroke-opacity:1;stroke-dasharray:none" />
      <path
         sodipodi:nodetypes="ccccc"
         id="path3649"
         d="m 213.62667,170.84038 -16.4127,20.60695 39.3799,28.90829 17.34061,-23.69428 -37.03055,-25.45198"
         style="fill:none;stroke:#4b4b4f;stroke-width:1px;stroke-linecap:butt;stroke-linejoin:miter;stroke-opacity:1" />
      <rect
         transform="matrix(0.77264185,0.63484216,-0.63484216,0.77264185,0,0)"
         ry="7.6013594"
         y="257.95267"
         x="456.76675"
         height="38.006798"
         width="54.47641"
         id="rect3658"
         style="color:#000000;fill:#000000;fill-opacity:1;fill-rule:nonzero;stroke:#59595c;stroke-width:0.40000001;stroke-linecap:round;stroke-linejoin:round;stroke-miterlimit:4;stroke-opacity:1;stroke-dasharray:none;stroke-dashoffset:0;marker:none;visibility:visible;display:inline;overflow:visible;enable-background:accumulate" />
      <rect
         transform="matrix(0.57544083,-0.81784341,0.81784341,0.57544083,0,0)"
         ry="5.6555161"
         y="595.48364"
         x="-166.70987"
         height="16.469612"
         width="27.871651"
         id="rect3660"
         style="color:#000000;fill:#000000;fill-opacity:1;fill-rule:nonzero;stroke:#59595c;stroke-width:0.40000001;stroke-linecap:round;stroke-linejoin:round;stroke-miterlimit:4;stroke-opacity:1;stroke-dasharray:none;stroke-dashoffset:0;marker:none;visibility:visible;display:inline;overflow:visible;enable-background:accumulate" />
      <rect
         transform="matrix(0.80846674,0.58854186,-0.56222241,0.82698607,0,0)"
         ry="1.2349135"
         y="266.9274"
         x="510.33392"
         height="24.40357"
         width="15.658986"
         id="rect3662"
         style="color:#000000;fill:#000000;fill-opacity:1;fill-rule:nonzero;stroke:#000000;stroke-width:0.40010363;stroke-linecap:round;stroke-linejoin:round;stroke-miterlimit:4;stroke-opacity:1;stroke-dasharray:none;stroke-dashoffset:0;marker:none;visibility:visible;display:inline;overflow:visible;enable-background:accumulate" />
      <path
         sodipodi:nodetypes="cccc"
         id="path3670"
         d="m 251.84224,512.00163 12.54428,-1.4883 8.92982,8.50459 -10.20551,2.01985"
         style="fill:#965c1b;fill-opacity:1;stroke:#5a2a00;stroke-width:1px;stroke-linecap:butt;stroke-linejoin:miter;stroke-opacity:1" />
      <path
         id="path3676"
         d="m 263.42975,521.5693 c 0.74416,-0.10631 11.90643,-2.65768 11.90643,-2.65768 l 8.6109,9.35505 -9.46136,1.91353 -11.05597,-8.6109 z"
         style="fill:#000000;fill-opacity:1;stroke:#000000;stroke-width:1px;stroke-linecap:butt;stroke-linejoin:miter;stroke-opacity:1" />
      <rect
         transform="matrix(0.9999681,-0.00798707,0.41075184,0.91174718,0,0)"
         ry="1.2167205"
         y="586.57086"
         x="121.55217"
         height="9.4513588"
         width="8.4349031"
         id="rect3678"
         style="color:#000000;fill:#000000;fill-opacity:1;fill-rule:nonzero;stroke:#000000;stroke-width:0.41816702;stroke-linecap:round;stroke-linejoin:round;stroke-miterlimit:4;stroke-opacity:1;stroke-dasharray:none;stroke-dashoffset:0;marker:none;visibility:visible;display:inline;overflow:visible;enable-background:accumulate" />
      <path
         sodipodi:nodetypes="ccccc"
         id="path3680"
         d="m 361.32428,532.02078 c 0.61492,0.12298 8.58846,2.02519 8.58846,2.02519 l -6.95198,0.15947 -2.98929,-1.07781 1.96773,-0.86088"
         style="fill:#000000;fill-opacity:1;stroke:#000000;stroke-width:1px;stroke-linecap:butt;stroke-linejoin:miter;stroke-opacity:1" />
      <path
         transform="translate(-2.334594,-1.6675672)"
         d="m 325.1756,448.953 c 0,4.28252 -3.47166,7.75419 -7.75418,7.75419 -4.28252,0 -7.75419,-3.47167 -7.75419,-7.75419 0,-4.28252 3.47167,-7.75418 7.75419,-7.75418 4.28252,0 7.75418,3.47166 7.75418,7.75418 z"
         sodipodi:ry="7.7541871"
         sodipodi:rx="7.7541871"
         sodipodi:cy="448.953"
         sodipodi:cx="317.42142"
         id="path3682"
         style="color:#000000;fill:#d6d1de;fill-opacity:1;fill-rule:nonzero;stroke:#a1a1a0;stroke-width:0.40000001;stroke-linecap:round;stroke-linejoin:round;stroke-miterlimit:4;stroke-opacity:1;stroke-dasharray:none;stroke-dashoffset:0;marker:none;visibility:visible;display:inline;overflow:visible;enable-background:accumulate"
         sodipodi:type="arc" />
      <path
         transform="translate(3.501891,3.3351343)"
         d="m 315.83723,447.8691 -5.63381,1.75373 -4.33567,-4.00216 1.29813,-5.75589 5.63381,-1.75372 4.33568,4.00216 -1.29814,5.75588 z"
         inkscape:randomized="0"
         inkscape:rounded="0"
         inkscape:flatsided="true"
         sodipodi:arg2="1.2690183"
         sodipodi:arg1="0.74541948"
         sodipodi:r2="5.1099439"
         sodipodi:r1="5.900455"
         sodipodi:cy="443.86694"
         sodipodi:cx="311.50156"
         sodipodi:sides="6"
         id="path3684"
         style="fill:#babbbd;fill-opacity:1;fill-rule:evenodd;stroke:#727472;stroke-width:0.30000001;stroke-linecap:butt;stroke-linejoin:miter;stroke-miterlimit:4;stroke-opacity:1;stroke-dasharray:none"
         sodipodi:type="star" />
      <path
         transform="translate(2.8348642,2.6681075)"
         d="m 308.49993,414.01749 c 0,4.42066 -3.58366,8.00432 -8.00432,8.00432 -4.42067,0 -8.00433,-3.58366 -8.00433,-8.00432 0,-4.42067 3.58366,-8.00433 8.00433,-8.00433 4.42066,0 8.00432,3.58366 8.00432,8.00433 z"
         sodipodi:ry="8.0043221"
         sodipodi:rx="8.0043221"
         sodipodi:cy="414.01749"
         sodipodi:cx="300.49561"
         id="path3686"
         style="color:#000000;fill:#161516;fill-opacity:1;fill-rule:nonzero;stroke:#727472;stroke-width:0.80000001;stroke-linecap:round;stroke-linejoin:round;stroke-miterlimit:4;stroke-opacity:1;stroke-dasharray:none;stroke-dashoffset:0;marker:none;visibility:visible;display:inline;overflow:visible;enable-background:accumulate"
         sodipodi:type="arc" />
      <rect
         transform="matrix(0.76533595,0.64363102,-0.64363102,0.76533595,0,0)"
         ry="1.3400126"
         y="295.21558"
         x="478.4386"
         height="3.35181"
         width="16.200415"
         id="rect3690"
         style="color:#000000;fill:#ececec;fill-opacity:1;fill-rule:nonzero;stroke:#727472;stroke-width:0.80000001;stroke-linecap:round;stroke-linejoin:round;stroke-miterlimit:4;stroke-opacity:1;stroke-dasharray:none;stroke-dashoffset:0;marker:none;visibility:visible;display:inline;overflow:visible;enable-background:accumulate" />
      <path
         sodipodi:nodetypes="cccc"
         id="path3692"
         d="m 202.50519,502.94466 8.37952,-10.33475 c 5.12638,1.37991 9.49122,5.04445 13.12792,10.89339 l -7.82089,9.21747"
         style="fill:#000000;fill-opacity:1;stroke:#000000;stroke-width:1px;stroke-linecap:butt;stroke-linejoin:miter;stroke-opacity:1" />
      <path
         id="path3694"
         d="m 356.12981,469.14724 16.20042,12.84861 -4.18977,5.02771 -16.47973,-13.12792 4.46908,-4.7484 z"
         style="fill:#000000;fill-opacity:1;stroke:#000000;stroke-width:1px;stroke-linecap:butt;stroke-linejoin:miter;stroke-opacity:1" />
      <path
         id="path3696"
         d="m 289.05192,331.67301 -3.67698,4.69837 12.25662,10.21385 5.10692,-5.71976"
         style="fill:#000000;fill-opacity:1;stroke:#000000;stroke-width:1px;stroke-linecap:butt;stroke-linejoin:miter;stroke-opacity:1" />
      <path
         sodipodi:nodetypes="cccc"
         id="path3696-8"
         d="m 356.1569,384.68289 -5.51547,5.92403 13.278,10.00957 5.10692,-5.71976"
         style="fill:#000000;fill-opacity:1;stroke:#000000;stroke-width:1px;stroke-linecap:butt;stroke-linejoin:miter;stroke-opacity:1" />
      <path
         sodipodi:nodetypes="ccccc"
         id="path3720"
         d="m 286.18371,329.649 76.5059,-88.21013 10.78499,8.64008 -76.5059,88.82297 -10.78499,-9.25292 z"
         style="fill:#141418;fill-opacity:1;stroke:#5c5c5c;stroke-width:1px;stroke-linecap:butt;stroke-linejoin:miter;stroke-opacity:1" />
      <path
         sodipodi:nodetypes="ccccc"
         id="path3720-9"
         d="m 360.93129,390.75486 76.5059,-88.21013 10.78499,8.64008 -76.5059,88.82297 -10.78499,-9.25292 z"
         style="fill:#141418;fill-opacity:1;stroke:#5c5c5c;stroke-width:1px;stroke-linecap:butt;stroke-linejoin:miter;stroke-opacity:1" />
      <path
         sodipodi:nodetypes="cccc"
         id="path3746"
         d="m 284.80588,180.8624 5.90111,-4.96935 34.47486,29.50552 -4.96935,6.52227"
         style="fill:#141418;fill-opacity:1;stroke:#000000;stroke-width:1px;stroke-linecap:butt;stroke-linejoin:miter;stroke-opacity:1" />
      <path
         sodipodi:nodetypes="ccccc"
         id="path3770"
         d="m 216.47732,176.82481 31.6796,21.7409 -2.48467,3.41643 -31.67961,-21.43032 2.48468,-3.72701 z"
         style="fill:#cacbcb;fill-opacity:1;stroke:#8d8c8e;stroke-width:1px;stroke-linecap:butt;stroke-linejoin:miter;stroke-opacity:1" />
      <path
         sodipodi:nodetypes="ccccc"
         id="path3651"
         d="m 212.07894,164.22276 -12.93734,16.69254 9.97217,7.1483 12.32635,-16.84899 -9.36118,-6.99185 z"
         style="fill:#141418;fill-opacity:1;stroke:#525353;stroke-width:1px;stroke-linecap:butt;stroke-linejoin:miter;stroke-opacity:1" />
      <path
         sodipodi:nodetypes="ccccc"
         id="path3651-4"
         d="m 250.59179,190.0455 -12.52857,17.00149 10.14265,6.90427 11.91397,-17.14307 -9.52805,-6.76269 z"
         style="fill:#141418;fill-opacity:1;stroke:#525353;stroke-width:1px;stroke-linecap:butt;stroke-linejoin:miter;stroke-opacity:1" />
      <path
         sodipodi:nodetypes="ccccc"
         id="path3647"
         d="m 217.44105,185.12637 c 1.26419,-6.32096 38.54693,-65.75984 38.54693,-65.75984 12.13621,-1.49183 19.14596,2.9315 20.5158,13.8624 l -37.57147,65.80356 c -9.49636,-0.18221 -20.69095,2.87765 -21.49126,-13.90612 z"
         style="fill:#141218;fill-opacity:1;stroke:#454545;stroke-width:1px;stroke-linecap:butt;stroke-linejoin:miter;stroke-opacity:1" />
      <path
         sodipodi:nodetypes="cc"
         id="path3772"
         d="m 256.02846,119.41557 c -6.07841,10.98553 12.52193,22.80486 20.27148,14.14737"
         style="fill:none;stroke:#444148;stroke-width:1px;stroke-linecap:butt;stroke-linejoin:miter;stroke-opacity:1" />
      <path
         transform="matrix(0.88283156,0.46968972,-0.46968972,0.88283156,89.343289,-109.4877)"
         d="m 269.77,125.76917 c 0,0.84534 -1.45621,1.53061 -3.25254,1.53061 -1.79634,0 -3.25255,-0.68527 -3.25255,-1.53061 0,-0.84533 1.45621,-1.53061 3.25255,-1.53061 1.79633,0 3.25254,0.68528 3.25254,1.53061 z"
         sodipodi:ry="1.53061"
         sodipodi:rx="3.2525461"
         sodipodi:cy="125.76917"
         sodipodi:cx="266.51746"
         id="path3774"
         style="color:#000000;fill:#141218;fill-opacity:1;fill-rule:nonzero;stroke:#656664;stroke-width:4;stroke-linecap:round;stroke-linejoin:round;stroke-miterlimit:4;stroke-opacity:1;stroke-dasharray:none;stroke-dashoffset:0;marker:none;visibility:visible;display:inline;overflow:visible;enable-background:accumulate"
         sodipodi:type="arc" />
      <path
         id="path3800"
         d="m 232.34415,193.03108 c -4.82394,-1.04955 -8.48695,-5.04295 -10.81596,-11.79151 l -0.70951,-2.05588 1.49215,-2.72727 c 1.66558,-3.04426 7.29512,-12.78847 7.51607,-13.00962 0.0781,-0.0781 0.42766,0.65369 0.77689,1.62627 2.36139,6.57629 6.0712,10.53572 11.0894,11.83556 1.82304,0.47222 5.36943,0.51229 7.57001,0.0856 0.8345,-0.16184 1.54879,-0.26274 1.5873,-0.22423 0.0385,0.0385 -1.92054,3.55958 -4.35345,7.82461 l -4.42347,7.75459 -1.27735,0.29914 c -3.25448,0.76218 -6.11326,0.89166 -8.45208,0.38279 z"
         style="color:#000000;fill:#ccd7db;fill-opacity:1;fill-rule:nonzero;stroke:#656664;stroke-width:0.5;stroke-linecap:round;stroke-linejoin:round;stroke-miterlimit:4;stroke-opacity:1;stroke-dasharray:none;stroke-dashoffset:0;marker:none;visibility:visible;display:inline;overflow:visible;enable-background:accumulate" />
      <path
         d="m 202.67474,191.35265 c 0,0.59329 -0.48095,1.07424 -1.07425,1.07424 -0.59329,0 -1.07424,-0.48095 -1.07424,-1.07424 0,-0.59329 0.48095,-1.07425 1.07424,-1.07425 0.5933,0 1.07425,0.48096 1.07425,1.07425 z"
         sodipodi:ry="1.0742477"
         sodipodi:rx="1.0742477"
         sodipodi:cy="191.35265"
         sodipodi:cx="201.60049"
         id="path3802"
         style="color:#000000;fill:#ccd7db;fill-opacity:1;fill-rule:nonzero;stroke:#656664;stroke-width:0.5;stroke-linecap:round;stroke-linejoin:round;stroke-miterlimit:4;stroke-opacity:1;stroke-dasharray:none;stroke-dashoffset:0;marker:none;visibility:visible;display:inline;overflow:visible;enable-background:accumulate"
         sodipodi:type="arc" />
      <path
         d="m 237.2297,216.14986 c 0,0.64273 -0.52104,1.16376 -1.16377,1.16376 -0.64273,0 -1.16377,-0.52103 -1.16377,-1.16376 0,-0.64273 0.52104,-1.16377 1.16377,-1.16377 0.64273,0 1.16377,0.52104 1.16377,1.16377 z"
         sodipodi:ry="1.1637684"
         sodipodi:rx="1.1637684"
         sodipodi:cy="216.14986"
         sodipodi:cx="236.06593"
         id="path3804"
         style="color:#000000;fill:#ccd7db;fill-opacity:1;fill-rule:nonzero;stroke:#656664;stroke-width:0.5;stroke-linecap:round;stroke-linejoin:round;stroke-miterlimit:4;stroke-opacity:1;stroke-dasharray:none;stroke-dashoffset:0;marker:none;visibility:visible;display:inline;overflow:visible;enable-background:accumulate"
         sodipodi:type="arc" />
      <path
         d="m 563.85513,484.06223 c 0,1.75342 -1.13714,3.17486 -2.53988,3.17486 -1.40274,0 -2.53989,-1.42144 -2.53989,-3.17486 0,-1.75343 1.13715,-3.17486 2.53989,-3.17486 1.40274,0 2.53988,1.42143 2.53988,3.17486 z"
         sodipodi:ry="3.17486"
         sodipodi:rx="2.5398879"
         sodipodi:cy="484.06223"
         sodipodi:cx="561.31525"
         id="path3806"
         style="color:#000000;fill:#ccd7db;fill-opacity:1;fill-rule:nonzero;stroke:#656664;stroke-width:0.5;stroke-linecap:round;stroke-linejoin:round;stroke-miterlimit:4;stroke-opacity:1;stroke-dasharray:none;stroke-dashoffset:0;marker:none;visibility:visible;display:inline;overflow:visible;enable-background:accumulate"
         sodipodi:type="arc" />
      <path
         d="m 589.254,438.34427 c 0,1.75343 -1.13715,3.17486 -2.53989,3.17486 -1.40274,0 -2.53989,-1.42143 -2.53989,-3.17486 0,-1.75343 1.13715,-3.17486 2.53989,-3.17486 1.40274,0 2.53989,1.42143 2.53989,3.17486 z"
         sodipodi:ry="3.17486"
         sodipodi:rx="2.5398879"
         sodipodi:cy="438.34427"
         sodipodi:cx="586.71411"
         id="path3808"
         style="color:#000000;fill:#ccd7db;fill-opacity:1;fill-rule:nonzero;stroke:#656664;stroke-width:0.5;stroke-linecap:round;stroke-linejoin:round;stroke-miterlimit:4;stroke-opacity:1;stroke-dasharray:none;stroke-dashoffset:0;marker:none;visibility:visible;display:inline;overflow:visible;enable-background:accumulate"
         sodipodi:type="arc" />
      <path
         d="m 529.56664,512.63599 c 0,0.70137 -1.42143,1.26994 -3.17486,1.26994 -1.75342,0 -3.17486,-0.56857 -3.17486,-1.26994 0,-0.70137 1.42144,-1.26995 3.17486,-1.26995 1.75343,0 3.17486,0.56858 3.17486,1.26995 z"
         sodipodi:ry="1.269944"
         sodipodi:rx="3.17486"
         sodipodi:cy="512.63599"
         sodipodi:cx="526.39178"
         id="path3810"
         style="color:#000000;fill:#ccd7db;fill-opacity:1;fill-rule:nonzero;stroke:#656664;stroke-width:0.5;stroke-linecap:round;stroke-linejoin:round;stroke-miterlimit:4;stroke-opacity:1;stroke-dasharray:none;stroke-dashoffset:0;marker:none;visibility:visible;display:inline;overflow:visible;enable-background:accumulate"
         sodipodi:type="arc" />
      <path
         d="m 151.16498,211.907 c 0,1.03596 -0.69161,1.87577 -1.54476,1.87577 -0.85314,0 -1.54475,-0.83981 -1.54475,-1.87577 0,-1.03596 0.69161,-1.87577 1.54475,-1.87577 0.85315,0 1.54476,0.83981 1.54476,1.87577 z"
         sodipodi:ry="1.8757697"
         sodipodi:rx="1.5447515"
         sodipodi:cy="211.907"
         sodipodi:cx="149.62022"
         id="path3812"
         style="color:#000000;fill:#ccd7db;fill-opacity:1;fill-rule:nonzero;stroke:#656664;stroke-width:0.5;stroke-linecap:round;stroke-linejoin:round;stroke-miterlimit:4;stroke-opacity:1;stroke-dasharray:none;stroke-dashoffset:0;marker:none;visibility:visible;display:inline;overflow:visible;enable-background:accumulate"
         sodipodi:type="arc" />
      <path
         d="m 177.64643,168.54361 c 0,1.21877 -1.03742,2.20679 -2.31713,2.20679 -1.27971,0 -2.31713,-0.98802 -2.31713,-2.20679 0,-1.21878 1.03742,-2.20679 2.31713,-2.20679 1.27971,0 2.31713,0.98801 2.31713,2.20679 z"
         sodipodi:ry="2.2067878"
         sodipodi:rx="2.3171272"
         sodipodi:cy="168.54361"
         sodipodi:cx="175.3293"
         id="path3814"
         style="color:#000000;fill:#ccd7db;fill-opacity:1;fill-rule:nonzero;stroke:#656664;stroke-width:0.5;stroke-linecap:round;stroke-linejoin:round;stroke-miterlimit:4;stroke-opacity:1;stroke-dasharray:none;stroke-dashoffset:0;marker:none;visibility:visible;display:inline;overflow:visible;enable-background:accumulate"
         sodipodi:type="arc" />
      <path
         d="m 215.60318,130.47652 c 0,0.67032 -0.74101,1.21373 -1.65509,1.21373 -0.91408,0 -1.65509,-0.54341 -1.65509,-1.21373 0,-0.67033 0.74101,-1.21374 1.65509,-1.21374 0.91408,0 1.65509,0.54341 1.65509,1.21374 z"
         sodipodi:ry="1.2137333"
         sodipodi:rx="1.6550909"
         sodipodi:cy="130.47652"
         sodipodi:cx="213.94809"
         id="path3816"
         style="color:#000000;fill:#ccd7db;fill-opacity:1;fill-rule:nonzero;stroke:#656664;stroke-width:0.5;stroke-linecap:round;stroke-linejoin:round;stroke-miterlimit:4;stroke-opacity:1;stroke-dasharray:none;stroke-dashoffset:0;marker:none;visibility:visible;display:inline;overflow:visible;enable-background:accumulate"
         sodipodi:type="arc" />
    </g>
  </g>
</svg>
