<?xml version="1.0" encoding="UTF-8" standalone="no"?>
<!-- Created with Inkscape (http://www.inkscape.org/) -->

<svg
   xmlns:dc="http://purl.org/dc/elements/1.1/"
   xmlns:cc="http://creativecommons.org/ns#"
   xmlns:rdf="http://www.w3.org/1999/02/22-rdf-syntax-ns#"
   xmlns:svg="http://www.w3.org/2000/svg"
   xmlns="http://www.w3.org/2000/svg"
   xmlns:sodipodi="http://sodipodi.sourceforge.net/DTD/sodipodi-0.dtd"
   xmlns:inkscape="http://www.inkscape.org/namespaces/inkscape"
   id="svg2985"
   version="1.1"
   inkscape:version="0.48.1 r9760"
   width="62.362026"
   height="53.806129"
   sodipodi:docname="heartarrow.svg">
  <metadata
     id="metadata2991">
    <rdf:RDF>
      <cc:Work
         rdf:about="">
        <dc:format>image/svg+xml</dc:format>
        <dc:type
           rdf:resource="http://purl.org/dc/dcmitype/StillImage" />
        <dc:title></dc:title>
      </cc:Work>
    </rdf:RDF>
  </metadata>
  <defs
     id="defs2989" />
  <sodipodi:namedview
     pagecolor="#ffffff"
     bordercolor="#666666"
     borderopacity="1"
     objecttolerance="10"
     gridtolerance="10"
     guidetolerance="10"
     inkscape:pageopacity="0"
     inkscape:pageshadow="2"
     inkscape:window-width="1680"
     inkscape:window-height="1026"
     id="namedview2987"
     showgrid="false"
     inkscape:zoom="1.515625"
     inkscape:cx="-208.28636"
     inkscape:cy="46.39852"
     inkscape:window-x="0"
     inkscape:window-y="0"
     inkscape:window-maximized="1"
     inkscape:current-layer="svg2985"
     fit-margin-top="0"
     fit-margin-left="0"
     fit-margin-right="0"
     fit-margin-bottom="0" />
  <path
     inkscape:connector-curvature="0"
     id="path3000"
     d="m 22.354181,51.051071 c -2.79833,-3.54851 -6.41539,-7.16075 -9.03205,-9.02 l -2.06935,-1.47036 -3.0838297,2.26367 c -2.84901,2.09129 -2.9924,2.29584 -1.88317,2.68626 2.10229,0.73993 0.89177,1.72201 -2.5202,2.0446 -1.79622,0.16982 -3.4359,0.16982 -3.64372,0 -0.65857,-0.53815 1.52761,-7.13083 2.36463,-7.13083 0.53083,0 0.72736,0.53124 0.63098,1.70552 -0.077,0.93803 -0.0166,1.70551 0.13415,1.70551 0.15078,0 1.61681,-0.98845 3.25784,-2.19655 l 2.9837,-2.19655 -2.17828,-2.45791 c -8.21272,-9.26702 -4.17792,-22.73065 7.3028497,-24.36872 2.79266,-0.39846 5.93059,0.55765 8.0512,2.45315 l 1.22549,1.09541 2.91863,-2.90985 c 3.04393,-3.034773 5.41972,-4.0680685 9.26142,-4.0280535 2.32162,0.02418 5.77451,1.1338335 7.11216,2.2856235 1.33083,1.14592 1.67973,1.07112 4.08692,-0.876264 1.73243,-1.4015115 2.16664,-2.1554875 2.48877,-4.3215725 0.26864,-1.806411 0.64584,-2.623866 1.21072,-2.623866 0.57468,0 0.79613,0.510971 0.73918,1.705513 -0.12952,2.716229 0.83017,1.972924 1.01631,-0.78716 0.19639,-2.912096 1.59671,-3.511808 2.14434,-0.918353 0.38888,1.841659 0.92832,0.997653 1.1739,-1.836706 0.20183,-2.32937797 1.67998,-2.51510197 2.08831,-0.262387 0.24067,1.327765 0.58703,1.615412 2.2116,1.836707 3.05925,0.416721 2.51911,1.780297 -0.83149,2.099092 -2.14592,0.204175 -2.46952,0.342012 -1.45864,0.621296 2.11589,0.584574 1.05792,1.715481 -1.89341,2.023926 -1.90526,0.19912 -2.30373,0.355626 -1.33609,0.524773 0.75837,0.132567 1.37886,0.595253 1.37886,1.028191 0,0.6053255 -0.57752,0.7535505 -2.50008,0.6416625 -2.15625,-0.125487 -2.88305,0.12711 -5.28471,1.836708 l -2.78463,1.9822 1.31407,2.62387 c 1.06267,2.12185 1.26967,3.23268 1.08199,5.80597 -0.3087,4.23239 -1.65742,6.15073 -8.60928,12.2453 -3.09412,2.71256 -6.42745,6.13671 -7.40739,7.60921 -2.41463,3.62835 -4.76615,8.01131 -4.76615,8.88356 0,0.70696 -1.68689,2.45247 -2.37011,2.45247 -0.19405,0 -1.33051,-1.23978 -2.52544,-2.75506 z M 9.3541713,26.472201 c 0.56838,-0.87502 -0.70996,-1.87843 -1.47082,-1.1545 -0.63644,0.60554 -0.23811,1.72499 0.6138,1.72499 0.26754,0 0.6532,-0.25672 0.85702,-0.57049 z m 5.5296397,-8.3166 c 3.38125,-0.36934 3.85272,-1.78066 0.67873,-2.03175 -3.20596,-0.2536 -7.5488397,2.41279 -7.5985897,4.6653 -0.0358,1.62055 0.7258,1.49346 2.4548297,-0.40964 1.45042,-1.59644 2.21727,-1.97839 4.46503,-2.22391 z"
     style="fill:#cecece" />
  <path
     inkscape:connector-curvature="0"
     id="path2998"
     d="m 23.079841,51.838231 c -2.58683,-3.78046 -10.41895,-11.15143 -11.84911,-11.15143 -0.21707,0 -1.7941797,1.03399 -3.5046897,2.29775 -2.73746,2.0225 -2.96969,2.33266 -1.93866,2.5892 0.64598,0.16072 1.06389,0.60121 0.93178,0.98208 -0.30473,0.87848 -6.49521,1.283 -6.49521,0.42443 0,-1.07561 1.24909,-5.50209 1.68157,-5.95911 0.8726,-0.92211 1.54947,0.19452 1.07403,1.77182 -0.25982,0.86198 -0.34468,1.56724 -0.18856,1.56724 0.32033,0 6.80925,-4.79372 6.80925,-5.03037 0,-0.0839 -0.77242,-0.93464 -1.7165,-1.89048 -3.83864,-3.8865 -5.70257,-10.26258 -4.34686,-14.86964 1.8054,-6.13523 6.4789497,-9.77087 12.5602897,-9.77087 2.55871,0 3.48223,0.27725 5.55578,1.66787 l 2.48695,1.66787 2.24435,-2.38037 c 3.01566,-3.198439 5.34076,-4.2474355 9.41445,-4.2474355 3.30494,0 5.83567,0.8604125 7.67327,2.6088155 0.81024,0.77091 1.07739,0.6983 3.22364,-0.876151 1.28711,-0.944195 2.45404,-1.7991665 2.59319,-1.8999365 0.13915,-0.10077 0.38734,-1.294996 0.55155,-2.653835 0.20785,-1.720005 0.5499,-2.470617 1.12587,-2.470617 0.61293,0 0.77955,0.475965 0.64296,1.836706 -0.14779,1.472247 -0.0461,1.70869 0.51259,1.191565 0.38333,-0.354829 0.71449,-1.535569 0.73591,-2.623866 0.0455,-2.310894 1.42532,-2.769437 2.00647,-0.666791 0.41786,1.511853 0.91602,0.736558 1.18016,-1.836706 0.20676,-2.01421397 1.74761,-2.13984997 1.98764,-0.162065 0.141,1.161919 0.48319,1.440982 1.93041,1.574319 2.78694,0.256771 2.29864,1.699529 -0.64322,1.900455 -2.11031,0.144133 -2.28439,0.246057 -1.43248,0.838743 1.46244,1.017461 0.44792,1.937086 -1.98623,1.800433 -2.56796,-0.144166 -3.35666,0.34388 -1.33566,0.826497 2.27189,0.542528 1.33364,1.6141735 -1.25739,1.4361765 -1.88949,-0.129804 -2.71666,0.1658 -4.99753,1.785973 l -2.73327,1.94152 1.38636,2.88122 c 1.13698,2.36294 1.33077,3.39364 1.07735,5.72992 -0.44326,4.08624 -2.19865,6.49558 -9.39795,12.89906 -6.0953,5.42152 -6.46201,5.87239 -9.49653,11.6762 -3.40551,6.51337 -4.29273,7.18527 -6.06597,4.59381 z M 9.3244713,25.993151 c 0,-0.42503 -0.43434,-0.85237 -0.96521,-0.94965 -0.67721,-0.12409 -0.9652,0.15926 -0.9652,0.94965 0,0.79038 0.28799,1.07373 0.9652,0.94964 0.53087,-0.0973 0.96521,-0.52461 0.96521,-0.94964 z m 5.6783197,-7.74269 c 2.33975,-0.21391 2.87065,-0.4442 2.87065,-1.24522 0,-0.82287 -0.42629,-0.98246 -2.61985,-0.98082 -3.16766,0.002 -5.7884397,1.383 -7.0574497,3.71788 -0.74693,1.37429 -0.77585,1.74499 -0.16466,2.11015 0.51203,0.30592 1.26114,-0.1422 2.4210497,-1.44828 1.43684,-1.6179 2.09455,-1.9292 4.55026,-2.15371 z"
     style="fill:#9d9d9d" />
  <path
     inkscape:connector-curvature="0"
     id="path2996"
     d="m 20.606011,48.792591 c -4.38597,-4.91535 -8.01544,-8.10579 -9.22121,-8.10579 -0.42605,0 -2.2790197,1.1217 -4.1177197,2.49267 -3.1524,2.3505 -3.25985,2.50215 -1.88383,2.65872 2.54063,0.28911 1.57971,1.006 -1.71213,1.27734 -1.74427,0.14378 -3.23641,0.20956 -3.31587,0.14617 -0.0795,-0.0634 0.18488,-1.49507 0.58743,-3.18153 0.88081,-3.69003 2.41693,-4.80319 1.83291,-1.32823 l -0.37054,2.20476 3.78553,-2.79092 3.78552,-2.79091 -1.90506,-1.83671 c -2.23659,-2.15633 -4.44054,-6.52515 -4.89971,-9.71251 -1.08972,-7.56446 5.06385,-14.95183 12.4546497,-14.95183 2.90036,0 6.35449,1.27157 7.72634,2.84431 0.63078,0.72316 0.9354,0.55926 2.53487,-1.36387 4.52063,-5.4354065 11.90221,-6.6376855 16.77946,-2.73297 l 1.67841,1.34374 2.75904,-1.927006 c 2.35406,-1.6441595 2.75903,-2.1837395 2.75903,-3.6760985 0,-0.962 0.15065,-2.122628 0.33478,-2.579172 0.59391,-1.472565 1.31986,-0.883556 1.31986,1.070883 0,1.630243 0.11782,1.807926 0.82732,1.247677 0.47511,-0.375162 0.82732,-1.519575 0.82732,-2.688122 0,-1.11916 0.24819,-2.034837 0.55154,-2.034837 0.30335,0 0.55155,0.716753 0.55155,1.592783 0,1.430168 0.11262,1.535436 1.10309,1.031083 0.81835,-0.416706 1.1031,-1.098782 1.1031,-2.642329 0,-1.144347 0.24819,-2.08062997 0.55154,-2.08062997 0.30335,0 0.55155,0.582062 0.55155,1.29346997 0,1.381408 1.37323,2.379943 3.27302,2.379943 0.62664,0 1.13935,0.236148 1.13935,0.524773 0,0.288625 -0.96239,0.524773 -2.13865,0.524773 -1.22817,0 -2.43097,0.335118 -2.82527,0.78716 -0.57364,0.657647 -0.49401,0.78716 0.48402,0.78716 0.64384,0 1.17062,0.236147 1.17062,0.524773 0,0.288625 -1.10223,0.524773 -2.4494,0.524773 -2.76633,0 -3.83497,0.845935 -1.70975,1.353438 2.30479,0.550385 1.61325,1.4006935 -0.94265,1.1590695 -2.05428,-0.1942015 -2.70442,0.03554 -5.25877,1.858336 -1.60308,1.14397 -2.83097,2.22251 -2.72864,2.39677 2.51351,4.28045 2.94983,8.9474 1.14868,12.28649 -0.59305,1.09943 -4.30576,5.11395 -8.25046,8.92114 -6.29417,6.07478 -7.44763,7.46824 -9.42229,11.38275 -1.23757,2.45331 -2.39484,4.87383 -2.57172,5.37892 -0.59817,1.70806 -1.8787,0.93273 -5.89686,-3.57041 z M 9.4625213,26.124621 c 0.30156,-0.86175 -1.42657,-1.47689 -2.16779,-0.77165 -0.3172,0.3018 -0.40147,0.81853 -0.18728,1.14828 0.48732,0.75023 2.04807,0.50062 2.35507,-0.37663 z m 0.6955597,-5.24801 c 1.60366,-1.94568 3.18053,-2.71423 5.61451,-2.73646 2.34677,-0.0214 3.14741,-0.82207 1.95582,-1.9558 -0.6975,-0.66366 -1.30825,-0.69191 -3.8982,-0.18034 -2.3801,0.47013 -3.44967,1.01685 -4.7536297,2.42988 -1.65265,1.7909 -2.04369,2.84252 -1.31483,3.536 0.65258,0.62089 1.1829,0.37894 2.3963297,-1.09328 z"
     style="fill:#676767" />
  <path
     inkscape:connector-curvature="0"
     id="path2994"
     d="m 22.377981,50.556961 c -2.8126,-3.56722 -6.43014,-7.18507 -9.03413,-9.0349 l -2.04764,-1.45461 -3.8244797,2.80235 c -3.69871,2.71018 -3.77194,2.80776 -2.22686,2.96679 2.71579,0.27953 1.76353,1.03959 -1.57375,1.25613 -1.74427,0.11317 -3.22672,0.18079 -3.29433,0.15025 -0.0676,-0.0305 0.0944,-0.86876 0.36013,-1.86272 0.26569,-0.99396 0.63598,-2.4566 0.82288,-3.25032 0.56846,-2.41419 1.57002,-1.73134 1.12624,0.76785 l -0.3926,2.21098 2.13665,-1.52874 c 1.17516,-0.84081 2.92316,-2.11568 3.88446,-2.83304 l 1.7478097,-1.30431 -2.3855197,-2.65777 c -2.32735,-2.59295 -4.69516,-7.81112 -4.69516,-10.34719 0,-2.41332 1.83089,-7.23092 3.46482,-9.11693 2.01558,-2.32655 6.4656697,-4.43468 9.3763497,-4.44183 2.50933,-0.006 5.38102,1.06455 7.00868,2.61319 l 1.19394,1.13599 2.85311,-2.95508 c 2.36935,-2.454043 3.36309,-3.080462 5.86095,-3.6945335 3.59688,-0.884257 7.01242,-0.298249 9.81885,1.6846235 1.91701,1.35446 2.06263,1.32722 5.16392,-0.965916 1.67154,-1.2359605 2.05544,-1.9036865 2.36307,-4.1101255 0.42179,-3.025303 1.4324,-3.557265 1.4324,-0.753987 0,2.837366 1.34336,1.966287 1.54697,-1.003105 0.18368,-2.678696 1.21076,-3.422935 1.21076,-0.877332 0,0.865875 0.19856,1.574319 0.44124,1.574319 1.01282,0 1.76495,-1.386508 1.76495,-3.253593 0,-1.096776 0.24819,-1.99413897 0.55154,-1.99413897 0.30335,0 0.55155,0.683179 0.55155,1.51817497 0,1.602129 0.79008,2.155238 3.07862,2.155238 0.73356,0 1.33375,0.236148 1.33375,0.524773 0,0.288625 -0.94534,0.524773 -2.10077,0.524773 -1.15542,0 -2.58255,0.346711 -3.17139,0.77047 -1.02548,0.737988 -1.00668,0.771174 0.44613,0.78716 2.58357,0.02843 1.66694,0.999561 -1.10309,1.168676 -2.59946,0.158702 -3.42168,1.055372 -1.26283,1.377185 0.61872,0.09223 1.12494,0.419513 1.12494,0.727295 0,0.3596285 -0.86901,0.4462755 -2.4318,0.2424695 -2.24027,-0.2921585 -2.65295,-0.1496015 -5.23969,1.810014 -1.54434,1.16994 -2.80789,2.23455 -2.80789,2.36581 0,0.13126 0.49639,1.16443 1.10309,2.29593 1.37427,2.56303 1.48914,7.70923 0.22607,10.12795 -0.48236,0.92369 -4.0539,4.6313 -7.93674,8.23912 -6.72454,6.24822 -7.20008,6.83177 -10.01602,12.29102 -1.62596,3.15225 -3.248,5.82271 -3.60453,5.93436 -0.35652,0.11165 -1.63661,-1.05057 -2.84465,-2.58272 z M 9.4625213,26.124621 c 0.30156,-0.86175 -1.42657,-1.47689 -2.16779,-0.77165 -0.3172,0.3018 -0.40147,0.81853 -0.18728,1.14828 0.48732,0.75023 2.04807,0.50062 2.35507,-0.37663 z m 0.6955597,-5.24801 c 1.60366,-1.94568 3.18053,-2.71423 5.61451,-2.73646 2.34677,-0.0214 3.14741,-0.82207 1.95582,-1.9558 -0.6975,-0.66366 -1.30825,-0.69191 -3.8982,-0.18034 -2.3801,0.47013 -3.44967,1.01685 -4.7536297,2.42988 -1.65265,1.7909 -2.04369,2.84252 -1.31483,3.536 0.65258,0.62089 1.1829,0.37894 2.3963297,-1.09328 z"
     style="fill:#f60000" />
  <path
     inkscape:connector-curvature="0"
     id="path2992"
     d="m 22.377981,50.556961 c -2.8126,-3.56722 -6.43014,-7.18507 -9.03413,-9.0349 l -2.04764,-1.45461 -3.8244797,2.80235 c -3.69871,2.71018 -3.77194,2.80776 -2.22686,2.96679 2.71579,0.27953 1.76353,1.03959 -1.57375,1.25613 -1.74427,0.11317 -3.22672,0.18079 -3.29433,0.15025 -0.0676,-0.0305 0.0944,-0.86876 0.36013,-1.86272 0.26569,-0.99396 0.63598,-2.4566 0.82288,-3.25032 0.56846,-2.41419 1.57002,-1.73134 1.12624,0.76785 l -0.3926,2.21098 2.13665,-1.52874 c 1.17516,-0.84081 2.92316,-2.11568 3.88446,-2.83304 l 1.7478097,-1.30431 -2.3855197,-2.65777 c -2.32735,-2.59295 -4.69516,-7.81112 -4.69516,-10.34719 0,-2.41332 1.83089,-7.23092 3.46482,-9.11693 2.01558,-2.32655 6.4656697,-4.43468 9.3763497,-4.44183 2.50933,-0.006 5.38102,1.06455 7.00868,2.61319 l 1.19394,1.13599 2.85311,-2.95508 c 2.36935,-2.454043 3.36309,-3.080462 5.86095,-3.6945335 3.59688,-0.884257 7.01242,-0.298249 9.81885,1.6846235 1.91701,1.35446 2.06263,1.32722 5.16392,-0.965916 1.67154,-1.2359605 2.05544,-1.9036865 2.36307,-4.1101255 0.42179,-3.025303 1.4324,-3.557265 1.4324,-0.753987 0,2.837366 1.34336,1.966287 1.54697,-1.003105 0.18368,-2.678696 1.21076,-3.422935 1.21076,-0.877332 0,0.865875 0.19856,1.574319 0.44124,1.574319 1.01282,0 1.76495,-1.386508 1.76495,-3.253593 0,-1.096776 0.24819,-1.99413897 0.55154,-1.99413897 0.30335,0 0.55155,0.683179 0.55155,1.51817497 0,1.602129 0.79008,2.155238 3.07862,2.155238 0.73356,0 1.33375,0.236148 1.33375,0.524773 0,0.288625 -0.94534,0.524773 -2.10077,0.524773 -1.15542,0 -2.58255,0.346711 -3.17139,0.77047 -1.02548,0.737988 -1.00668,0.771174 0.44613,0.78716 2.58357,0.02843 1.66694,0.999561 -1.10309,1.168676 -2.59946,0.158702 -3.42168,1.055372 -1.26283,1.377185 0.61872,0.09223 1.12494,0.419513 1.12494,0.727295 0,0.3596285 -0.86901,0.4462755 -2.4318,0.2424695 -2.24027,-0.2921585 -2.65295,-0.1496015 -5.23969,1.810014 -1.54434,1.16994 -2.80789,2.23455 -2.80789,2.36581 0,0.13126 0.49639,1.16443 1.10309,2.29593 1.37427,2.56303 1.48914,7.70923 0.22607,10.12795 -0.48236,0.92369 -4.0539,4.6313 -7.93674,8.23912 -6.72454,6.24822 -7.20008,6.83177 -10.01602,12.29102 -1.62596,3.15225 -3.248,5.82271 -3.60453,5.93436 -0.35652,0.11165 -1.63661,-1.05057 -2.84465,-2.58272 z m 2.72297,-5.80317 c 1.87854,-3.56572 5.52046,-8.03243 11.23164,-13.7753 7.3919,-7.43292 8.75704,-13.75845 3.90317,-18.08593 -1.16382,-1.03761 -2.01814,-1.29048 -4.32265,-1.27946 -1.58224,0.008 -3.64997,0.40425 -4.60408,0.88328 -1.58557,0.79606 -5.853,5.32532 -6.43457,6.82935 -0.15101,0.39055 -1.06218,-0.0966 -2.38182,-1.27333 -1.17548,-1.04822 -2.67937,-2.16992 -3.34196,-2.49267 -2.1133,-1.02939 -7.77048,-0.618 -7.03667,0.51171 0.16569,0.25507 -0.0896,0.32107 -0.56727,0.14666 -2.1504197,-0.78513 -6.3588697,5.91603 -6.3588697,10.12529 0,3.55363 4.3121,11.19477 6.3174997,11.19477 0.39014,0 3.33438,-1.91091 6.54275,-4.24647 3.20838,-2.33557 6.10496,-4.08681 6.43685,-3.89164 1.14552,0.6736 -0.10433,2.44368 -4.67061,6.6147 l -4.58206,4.18543 3.94041,3.90384 c 2.16723,2.14711 3.99889,3.90964 4.07036,3.91673 0.0715,0.007 0.90752,-1.46305 1.85788,-3.26696 z"
     style="fill:#bc1515" />
  <path
     inkscape:connector-curvature="0"
     id="path2990"
     d="m 22.377981,50.556961 c -2.8126,-3.56722 -6.43014,-7.18507 -9.03413,-9.0349 l -2.04764,-1.45461 -3.8244797,2.80235 c -3.69871,2.71018 -3.77194,2.80776 -2.22686,2.96679 2.71579,0.27953 1.76353,1.03959 -1.57375,1.25613 -1.74427,0.11317 -3.22672,0.18079 -3.29433,0.15025 -0.0676,-0.0305 0.0944,-0.86876 0.36013,-1.86272 0.26569,-0.99396 0.63598,-2.4566 0.82288,-3.25032 0.56846,-2.41419 1.57002,-1.73134 1.12624,0.76785 l -0.3926,2.21098 2.13665,-1.52874 c 1.17516,-0.84081 2.92316,-2.11568 3.88446,-2.83304 l 1.7478097,-1.30431 -2.3855197,-2.65777 c -2.32735,-2.59295 -4.69516,-7.81112 -4.69516,-10.34719 0,-2.41332 1.83089,-7.23092 3.46482,-9.11693 2.01558,-2.32655 6.4656697,-4.43468 9.3763497,-4.44183 2.50933,-0.006 5.38102,1.06455 7.00868,2.61319 l 1.19394,1.13599 2.85311,-2.95508 c 2.36935,-2.454043 3.36309,-3.080462 5.86095,-3.6945335 3.59688,-0.884257 7.01242,-0.298249 9.81885,1.6846235 1.91701,1.35446 2.06263,1.32722 5.16392,-0.965916 1.67154,-1.2359605 2.05544,-1.9036865 2.36307,-4.1101255 0.42179,-3.025303 1.4324,-3.557265 1.4324,-0.753987 0,2.837366 1.34336,1.966287 1.54697,-1.003105 0.18368,-2.678696 1.21076,-3.422935 1.21076,-0.877332 0,0.865875 0.19856,1.574319 0.44124,1.574319 1.01282,0 1.76495,-1.386508 1.76495,-3.253593 0,-1.096776 0.24819,-1.99413897 0.55154,-1.99413897 0.30335,0 0.55155,0.683179 0.55155,1.51817497 0,1.602129 0.79008,2.155238 3.07862,2.155238 0.73356,0 1.33375,0.236148 1.33375,0.524773 0,0.288625 -0.94534,0.524773 -2.10077,0.524773 -1.15542,0 -2.58255,0.346711 -3.17139,0.77047 -1.02548,0.737988 -1.00668,0.771174 0.44613,0.78716 2.58357,0.02843 1.66694,0.999561 -1.10309,1.168676 -2.59946,0.158702 -3.42168,1.055372 -1.26283,1.377185 0.61872,0.09223 1.12494,0.419513 1.12494,0.727295 0,0.3596285 -0.86901,0.4462755 -2.4318,0.2424695 -2.24027,-0.2921585 -2.65295,-0.1496015 -5.23969,1.810014 -1.54434,1.16994 -2.80789,2.23455 -2.80789,2.36581 0,0.13126 0.49639,1.16443 1.10309,2.29593 1.37427,2.56303 1.48914,7.70923 0.22607,10.12795 -0.48236,0.92369 -4.0539,4.6313 -7.93674,8.23912 -6.72454,6.24822 -7.20008,6.83177 -10.01602,12.29102 -1.62596,3.15225 -3.248,5.82271 -3.60453,5.93436 -0.35652,0.11165 -1.63661,-1.05057 -2.84465,-2.58272 z m 8.91155,-11.18209 c 1.15499,-1.44313 4.07079,-4.22526 6.47956,-6.18251 4.97493,-4.04239 6.83712,-6.43795 7.62297,-9.80629 0.8653,-3.70892 -0.0837,-6.78866 -2.85036,-9.25051 -1.26644,-1.1269 -1.93662,-1.56503 -1.4893,-0.97364 0.72784,0.96227 0.69283,0.95639 -0.33317,-0.0559 -1.50128,-1.48126 -4.6004,-1.997873 -7.53221,-1.2556 -1.72906,0.43777 -3.11933,1.38212 -5.24765,3.56454 -1.59248,1.63295 -2.8955,3.26418 -2.89562,3.62497 -3.4e-4,1.06483 -0.79156,0.7614 -2.51687,-0.96521 -0.89096,-0.89164 -2.29015,-1.95431 -3.1093,-2.36148 -2.32203,-1.15419 -8.10184,-0.87072 -7.30357,0.35822 0.16569,0.25507 -0.0936,0.31961 -0.57615,0.14342 -1.37675,-0.50266 -4.8475797,3.33753 -5.6605597,6.26295 -0.91586,3.29565 -0.86976,4.91892 0.2276,8.01362 0.96556,2.72299 4.2719297,7.04673 5.3886497,7.04673 0.55703,0 7.20509,-4.3553 8.03453,-5.2636 1.28665,-1.409 4.54711,-3.21448 5.00985,-2.7742 0.64565,0.61431 -0.264,3.31484 -1.11658,3.31484 -0.30052,0 -2.27348,1.65963 -4.38436,3.68807 l -3.83798,3.68806 3.90063,3.78996 c 2.14535,2.08447 4.12395,3.72718 4.3969,3.65045 0.27295,-0.0767 0.44535,0.15942 0.3831,0.52478 -0.0622,0.36534 0.0811,1.08864 0.31857,1.60734 0.33965,0.74191 0.91802,0.0143 2.71155,-3.41103 1.2539,-2.39476 3.22479,-5.53484 4.37977,-6.97796 z m -4.59135,2.16334 c 0,-0.10897 0.43434,-0.52222 0.96521,-0.91835 0.87478,-0.65275 0.89429,-0.63419 0.20824,0.19813 -0.72053,0.87415 -1.17345,1.15213 -1.17345,0.72022 z m 2.48196,-2.9505 c 0.54906,-0.57725 1.12238,-1.04955 1.27406,-1.04955 0.15168,0 -0.17346,0.4723 -0.72251,1.04955 -0.54906,0.57725 -1.12239,1.04954 -1.27407,1.04954 -0.15167,0 0.17346,-0.47229 0.72252,-1.04954 z m 3.562,-3.80461 c 1.3524,-1.37097 2.53133,-2.49267 2.61985,-2.49267 0.41414,0 -0.0237,0.47115 -2.45891,2.6458 l -2.61985,2.33955 2.45891,-2.49268 z m 3.6081,-4.06699 c 0.54906,-0.57725 1.12239,-1.04955 1.27406,-1.04955 0.15168,0 -0.17345,0.4723 -0.72251,1.04955 -0.54906,0.57725 -1.12239,1.04954 -1.27406,1.04954 -0.15168,0 0.17345,-0.47229 0.72251,-1.04954 z m 2.75773,-2.62387 c 0.54906,-0.57725 1.12239,-1.04955 1.27407,-1.04955 0.15167,0 -0.17346,0.4723 -0.72252,1.04955 -0.54906,0.57725 -1.12239,1.04955 -1.27406,1.04955 -0.15168,0 0.17346,-0.4723 0.72251,-1.04955 z m 3.67214,-6.82205 c 0,-0.72156 0.12519,-1.01675 0.27819,-0.65597 0.15301,0.36078 0.15301,0.95115 0,1.31194 -0.153,0.36078 -0.27819,0.0656 -0.27819,-0.65597 z m -0.29472,-5.00563 c -0.53223,-1.31965 -0.37522,-1.66015 0.27496,-0.59632 0.32194,0.52674 0.46915,1.06826 0.32714,1.20337 -0.142,0.13511 -0.41295,-0.13806 -0.6021,-0.60705 z"
     style="fill:#ce0b0b" />
  <path
     inkscape:connector-curvature="0"
     id="path2988"
     d="m 22.377981,50.556961 c -2.8126,-3.56722 -6.43014,-7.18507 -9.03413,-9.0349 l -2.04764,-1.45461 -3.8244797,2.80235 c -3.69871,2.71018 -3.77194,2.80776 -2.22686,2.96679 2.71579,0.27953 1.76353,1.03959 -1.57375,1.25613 -1.74427,0.11317 -3.22672,0.18079 -3.29433,0.15025 -0.0676,-0.0305 0.0944,-0.86876 0.36013,-1.86272 0.26569,-0.99396 0.63598,-2.4566 0.82288,-3.25032 0.56846,-2.41419 1.57002,-1.73134 1.12624,0.76785 l -0.3926,2.21098 2.13665,-1.52874 c 1.17516,-0.84081 2.92316,-2.11568 3.88446,-2.83304 l 1.7478097,-1.30431 -2.3855197,-2.65777 c -2.32735,-2.59295 -4.69516,-7.81112 -4.69516,-10.34719 0,-2.41332 1.83089,-7.23092 3.46482,-9.11693 2.01558,-2.32655 6.4656697,-4.43468 9.3763497,-4.44183 2.50933,-0.006 5.38102,1.06455 7.00868,2.61319 l 1.19394,1.13599 2.85311,-2.95508 c 2.36935,-2.454043 3.36309,-3.080462 5.86095,-3.6945335 3.59688,-0.884257 7.01242,-0.298249 9.81885,1.6846235 1.91701,1.35446 2.06263,1.32722 5.16392,-0.965916 1.67154,-1.2359605 2.05544,-1.9036865 2.36307,-4.1101255 0.42179,-3.025303 1.4324,-3.557265 1.4324,-0.753987 0,2.837366 1.34336,1.966287 1.54697,-1.003105 0.18368,-2.678696 1.21076,-3.422935 1.21076,-0.877332 0,0.865875 0.19856,1.574319 0.44124,1.574319 1.01282,0 1.76495,-1.386508 1.76495,-3.253593 0,-1.096776 0.24819,-1.99413897 0.55154,-1.99413897 0.30335,0 0.55155,0.683179 0.55155,1.51817497 0,1.602129 0.79008,2.155238 3.07862,2.155238 0.73356,0 1.33375,0.236148 1.33375,0.524773 0,0.288625 -0.94534,0.524773 -2.10077,0.524773 -1.15542,0 -2.58255,0.346711 -3.17139,0.77047 -1.02548,0.737988 -1.00668,0.771174 0.44613,0.78716 2.58357,0.02843 1.66694,0.999561 -1.10309,1.168676 -2.59946,0.158702 -3.42168,1.055372 -1.26283,1.377185 0.61872,0.09223 1.12494,0.419513 1.12494,0.727295 0,0.3596285 -0.86901,0.4462755 -2.4318,0.2424695 -2.24027,-0.2921585 -2.65295,-0.1496015 -5.23969,1.810014 -1.54434,1.16994 -2.80789,2.23455 -2.80789,2.36581 0,0.13126 0.49639,1.16443 1.10309,2.29593 1.37427,2.56303 1.48914,7.70923 0.22607,10.12795 -0.48236,0.92369 -4.0539,4.6313 -7.93674,8.23912 -6.72454,6.24822 -7.20008,6.83177 -10.01602,12.29102 -1.62596,3.15225 -3.248,5.82271 -3.60453,5.93436 -0.35652,0.11165 -1.63661,-1.05057 -2.84465,-2.58272 z m 8.24458,-10.21316 c 0.86401,-1.19883 3.94237,-4.2548 6.84079,-6.79104 2.89842,-2.53624 5.74368,-5.34078 6.3228,-6.23233 1.62506,-2.50177 2.24153,-5.88603 1.59481,-8.75517 -0.76169,-3.37922 -4.2586,-6.50731 -7.8469,-7.01929 -4.24814,-0.606122 -6.74535,0.5129 -10.26972,4.60196 l -3.04812,3.53649 -1.65464,-1.75094 c -2.27349,-2.40583 -3.586,-2.96089 -6.99596,-2.95861 -3.3909,0.002 -5.6949097,1.11866 -7.7557397,3.75797 -3.95131,5.06048 -3.38589,11.62375 1.45916,16.93755 l 2.2679297,2.48736 5.86094,-4.24559 c 3.22351,-2.33508 6.13839,-4.2456 6.47751,-4.2456 1.70377,0 0.14957,2.25858 -4.18274,6.07843 l -4.81079,4.24172 4.02737,3.89227 c 2.21506,2.14074 4.42549,4.53302 4.91205,5.31618 l 0.88467,1.42392 2.17283,-4.04779 c 1.19505,-2.22628 2.87974,-5.02865 3.74375,-6.22749 z m -14.92562,-2.62701 1.90072,-1.92047 -2.06828,1.52689 c -1.13755,0.83979 -2.06829,1.704 -2.0683,1.92046 -2e-5,0.64979 0.25172,0.47787 2.23586,-1.52688 z"
     style="fill:#941313" />
  <path
     inkscape:connector-curvature="0"
     id="path2986"
     d="m 22.377981,50.556961 c -2.8126,-3.56722 -6.43014,-7.18507 -9.03413,-9.0349 l -2.04764,-1.45461 -3.8244797,2.80235 c -3.69871,2.71018 -3.77194,2.80776 -2.22686,2.96679 2.71579,0.27953 1.76353,1.03959 -1.57375,1.25613 -1.74427,0.11317 -3.22672,0.18079 -3.29433,0.15025 -0.0676,-0.0305 0.0944,-0.86876 0.36013,-1.86272 0.26569,-0.99396 0.63598,-2.4566 0.82288,-3.25032 0.56846,-2.41419 1.57002,-1.73134 1.12624,0.76785 l -0.3926,2.21098 2.13665,-1.52874 c 1.17516,-0.84081 2.92316,-2.11568 3.88446,-2.83304 l 1.7478097,-1.30431 -2.3855197,-2.65777 c -2.32735,-2.59295 -4.69516,-7.81112 -4.69516,-10.34719 0,-2.41332 1.83089,-7.23092 3.46482,-9.11693 2.01558,-2.32655 6.4656697,-4.43468 9.3763497,-4.44183 2.50933,-0.006 5.38102,1.06455 7.00868,2.61319 l 1.19394,1.13599 2.85311,-2.95508 c 2.37221,-2.456997 3.36441,-3.081811 5.88661,-3.7069275 2.64663,-0.655957 3.39171,-0.653534 5.84221,0.019 1.54478,0.4239635 3.46591,1.2627045 4.26916,1.8638675 1.56717,1.1729 1.7656,1.12573 4.84574,-1.151766 1.67154,-1.2359605 2.05544,-1.9036865 2.36307,-4.1101255 0.42179,-3.025305 1.4324,-3.557267 1.4324,-0.753989 0,2.837366 1.34336,1.966287 1.54697,-1.003105 0.18368,-2.678696 1.21076,-3.422935 1.21076,-0.877332 0,0.865875 0.19856,1.574319 0.44124,1.574319 1.01282,0 1.76495,-1.386508 1.76495,-3.253593 0,-1.096776 0.24819,-1.99413897 0.55154,-1.99413897 0.30335,0 0.55155,0.683179 0.55155,1.51817497 0,1.602129 0.79008,2.155238 3.07862,2.155238 0.73356,0 1.33375,0.236148 1.33375,0.524773 0,0.288625 -0.94534,0.524773 -2.10077,0.524773 -1.15542,0 -2.58255,0.346711 -3.17139,0.77047 -1.02548,0.737988 -1.00668,0.771174 0.44613,0.78716 2.58357,0.02843 1.66694,0.999561 -1.10309,1.168676 -2.59946,0.158702 -3.42168,1.055372 -1.26283,1.377185 0.61872,0.09223 1.12494,0.419513 1.12494,0.727295 0,0.3596285 -0.86901,0.4462755 -2.4318,0.2424695 -2.24027,-0.2921585 -2.65295,-0.1496015 -5.23969,1.810016 -1.54434,1.16994 -2.80789,2.23455 -2.80789,2.36581 0,0.13126 0.49639,1.16443 1.10309,2.29593 1.37427,2.56302 1.48914,7.70923 0.22607,10.12794 -0.48236,0.9237 -4.0539,4.63131 -7.93674,8.23913 -6.72454,6.24822 -7.20008,6.83177 -10.01602,12.29102 -1.62596,3.15225 -3.248,5.82271 -3.60453,5.93436 -0.35652,0.11165 -1.63661,-1.05057 -2.84465,-2.58272 z m 3.21711,-0.73256 c 0,-1.21911 2.98411,-6.52368 5.31658,-9.45078 1.17111,-1.46967 4.32627,-4.53902 7.01147,-6.82078 5.56439,-4.72838 7.42402,-7.3594 7.89906,-11.17574 0.44896,-3.60672 -0.82195,-6.61714 -3.77842,-8.95008 -2.10081,-1.65773 -2.60198,-1.81064 -6.01996,-1.8367 -4.39925,-0.0336 -5.55039,0.60071 -9.32564,5.13832 l -2.48196,2.98316 -1.65464,-1.76463 c -2.26656,-2.41724 -3.57839,-2.97458 -6.99596,-2.9723 -3.3909,0.002 -5.6949097,1.11866 -7.7557297,3.75797 -3.97016,5.0846 -3.37354,11.97692 1.47811,17.07561 l 2.3375397,2.45656 5.83499,-4.29923 c 5.4079,-3.98454 7.06075,-4.9051 7.01244,-3.90564 -0.0105,0.21647 -1.93397,1.85819 -4.27448,3.64827 -2.34051,1.79008 -4.87595,3.74272 -5.63433,4.33921 l -1.37887,1.0845 1.93042,1.43331 c 2.88242,2.14016 7.04076,6.42371 8.37539,8.6276 1.14916,1.8976 2.10399,2.18412 2.10399,0.63137 z"
     style="fill:#670c0c" />
  <path
     inkscape:connector-curvature="0"
     id="path2984"
     d="m 22.377981,50.556961 c -2.80678,-3.55984 -6.42915,-7.18444 -9.0167,-9.02225 l -2.0302,-1.44195 -3.9277797,2.78969 c -3.86115,2.74238 -3.89921,2.79249 -2.24428,2.95414 2.79688,0.2732 1.89238,1.0368 -1.4879,1.25613 -1.74427,0.11317 -3.21963,0.18753 -3.27858,0.16523 -0.0589,-0.0223 0.28183,-1.50992 0.75731,-3.30584 0.98078,-3.70453 2.14918,-4.50643 1.53619,-1.05433 l -0.3926,2.21098 1.99876,-1.42382 c 1.09932,-0.7831 2.86132,-2.03777 3.91556,-2.78816 l 1.9167997,-1.36434 -2.1626097,-2.44026 c -4.19428,-4.73278 -5.65215,-9.68097 -4.22676,-14.34614 1.25871,-4.11963 3.7157,-7.07734 7.1388997,-8.5938 4.45456,-1.97333 8.99834,-1.47555 11.92187,1.30606 l 1.15839,1.10216 3.16444,-3.04918 c 2.59457,-2.500055 3.67356,-3.158399 5.99152,-3.6557265 3.30794,-0.709729 5.68505,-0.242237 8.71453,1.7138265 1.11115,0.71744 2.22175,1.30444 2.46801,1.30444 0.24625,0 1.57603,-0.8197 2.95506,-1.821554 2.22078,-1.6133805 2.55092,-2.1231475 2.8888,-4.4605725 0.20981,-1.451461 0.63906,-2.639019 0.95389,-2.639019 0.34903,0 0.45742,0.815695 0.27775,2.090192 -0.27186,1.928515 -0.21348,2.048862 0.7547,1.555856 0.7909,-0.402731 1.04936,-1.111414 1.04936,-2.877352 0,-1.288659 0.24819,-2.343016 0.55154,-2.343016 0.30335,0 0.55155,0.708444 0.55155,1.57432 0,0.865875 0.19856,1.574319 0.44124,1.574319 1.01282,0 1.76495,-1.386508 1.76495,-3.253593 0,-1.096776 0.24819,-1.99413897 0.55154,-1.99413897 0.30335,0 0.55155,0.683179 0.55155,1.51817497 0,1.602129 0.79008,2.155238 3.07862,2.155238 0.73356,0 1.33375,0.236148 1.33375,0.524773 0,0.288625 -0.94534,0.524773 -2.10077,0.524773 -1.15542,0 -2.58255,0.346711 -3.17139,0.77047 -1.02548,0.737988 -1.00668,0.771174 0.44613,0.78716 2.55973,0.02817 1.67953,0.998626 -1.05998,1.168676 -2.72853,0.169369 -4.14958,1.471879 -1.60583,1.471879 0.78366,0 1.42483,0.262962 1.42483,0.584358 0,0.3918515 -0.7873,0.4720265 -2.38986,0.2433735 -2.22094,-0.3168835 -2.60865,-0.1793455 -5.48502,1.945783 l -3.09515,2.28677 1.3312,2.06162 c 1.04403,1.61687 1.33492,2.80363 1.34842,5.5011 0.0225,4.49731 -1.35672,6.57734 -8.46952,12.77298 -5.88888,5.12953 -7.79427,7.47482 -10.64072,13.09726 -2.61459,5.16446 -2.65985,5.23825 -3.34626,5.45594 -0.33485,0.1062 -1.59721,-1.06048 -2.80525,-2.59263 z m 2.9817,0.23172 c 0.15484,-0.50509 1.30246,-2.89712 2.55027,-5.31561 2.42499,-4.7001 8.07786,-11.08355 9.81504,-11.08355 1.26413,0 6.89181,-6.10727 8.21099,-8.91072 1.98164,-4.21129 0.36747,-9.15765 -4.02986,-12.34885 -1.40027,-1.01618 -2.81748,-1.47825 -5.15168,-1.67963 -4.2606,-0.367587 -6.88202,0.89535 -9.99118,4.81351 -2.44613,3.0826 -2.82808,3.15565 -4.70794,0.90046 -1.18018,-1.41582 -4.03834,-2.71769 -5.95669,-2.71323 -8.3550897,0.0194 -13.5806897,9.60149 -9.5856497,17.57698 1.28419,2.56369 4.2381397,6.03967 5.1244697,6.03008 0.24461,-0.003 3.02757,-1.89183 6.18434,-4.19818 5.67279,-4.14457 6.6702,-4.69315 6.6702,-3.66861 0,0.28863 -0.18905,0.52478 -0.42011,0.52478 -0.23107,0 -2.31123,1.5019 -4.62256,3.33756 -2.31135,1.83566 -4.7904,3.73649 -5.50901,4.22407 l -1.30656,0.88649 1.65464,1.10865 c 2.93495,1.96647 9.09997,8.49795 9.10025,9.64118 4.5e-4,1.86878 1.46682,2.51946 1.97104,0.87462 z"
     style="fill:#070404" />
</svg>
