<?xml version="1.0" encoding="UTF-8" standalone="no"?>
<!-- Created with Inkscape (http://www.inkscape.org/) -->

<svg
   xmlns:dc="http://purl.org/dc/elements/1.1/"
   xmlns:cc="http://creativecommons.org/ns#"
   xmlns:rdf="http://www.w3.org/1999/02/22-rdf-syntax-ns#"
   xmlns:svg="http://www.w3.org/2000/svg"
   xmlns="http://www.w3.org/2000/svg"
   xmlns:sodipodi="http://sodipodi.sourceforge.net/DTD/sodipodi-0.dtd"
   xmlns:inkscape="http://www.inkscape.org/namespaces/inkscape"
   width="295.32385"
   height="192.42"
   id="svg2"
   sodipodi:version="0.32"
   inkscape:version="0.48.1 r9760"
   sodipodi:docname="alicvb_kablam_Number_Animals_12.svg"
   inkscape:output_extension="org.inkscape.output.svg.inkscape"
   version="1.0">
  <defs
     id="defs4">
    <inkscape:perspective
       sodipodi:type="inkscape:persp3d"
       inkscape:vp_x="0 : 526.18109 : 1"
       inkscape:vp_y="0 : 1000 : 0"
       inkscape:vp_z="744.09448 : 526.18109 : 1"
       inkscape:persp3d-origin="372.04724 : 350.78739 : 1"
       id="perspective10" />
    <filter
       inkscape:collect="always"
       id="filter3345"
       x="-0.1685358"
       width="1.3370717"
       y="-0.10605735"
       height="1.2121147"
       color-interpolation-filters="sRGB">
      <feGaussianBlur
         inkscape:collect="always"
         stdDeviation="4.9872207"
         id="feGaussianBlur3347" />
    </filter>
    <filter
       inkscape:collect="always"
       id="filter3427"
       x="-0.096582323"
       width="1.1931646"
       y="-0.22891882"
       height="1.4578376"
       color-interpolation-filters="sRGB">
      <feGaussianBlur
         inkscape:collect="always"
         stdDeviation="5.5205941"
         id="feGaussianBlur3429" />
    </filter>
  </defs>
  <sodipodi:namedview
     id="base"
     pagecolor="#ffffff"
     bordercolor="#666666"
     borderopacity="1.0"
     gridtolerance="10000"
     guidetolerance="10"
     objecttolerance="10"
     inkscape:pageopacity="0.0"
     inkscape:pageshadow="2"
     inkscape:zoom="0.35"
     inkscape:cx="-1383.3699"
     inkscape:cy="-494.17982"
     inkscape:document-units="px"
     inkscape:current-layer="layer1"
     showgrid="false"
     inkscape:window-width="1680"
     inkscape:window-height="1026"
     inkscape:window-x="0"
     inkscape:window-y="0"
     inkscape:window-maximized="1"
     fit-margin-top="0"
     fit-margin-left="0"
     fit-margin-right="0"
     fit-margin-bottom="0" />
  <metadata
     id="metadata7">
    <rdf:RDF>
      <cc:Work
         rdf:about="">
        <dc:format>image/svg+xml</dc:format>
        <dc:type
           rdf:resource="http://purl.org/dc/dcmitype/StillImage" />
        <dc:title></dc:title>
      </cc:Work>
    </rdf:RDF>
  </metadata>
  <g
     inkscape:label="Layer 1"
     inkscape:groupmode="layer"
     id="layer1"
     transform="translate(-1196.2199,-188.34176)">
    <g
       id="g3226"
       transform="matrix(0.6782175,0,0,0.6782175,1106.1623,59.380137)">
      <path
         inkscape:connector-curvature="0"
         id="path3159"
         d="m 154.28571,277.36218 c 0,0 -10,7.14286 -7.14285,17.85714 2.85714,10.71429 10.71428,9.28572 10.71428,13.57143 0,4.28572 -5.71428,8.57143 -5.71428,8.57143 0,0 10,-2.14286 10,-7.85714 0,-5.71429 8.57143,-0.71429 8.57143,-0.71429 0,0 -5.71429,-5.71428 -11.42858,-7.14285 -5.71428,-1.42858 -7.85714,-7.14286 -7.14285,-12.85715 0.71428,-5.71428 6.42857,-5.71428 6.42857,-5.71428 l -4.28572,-5.71429 z"
         style="fill:#ff2a2a;fill-rule:evenodd;stroke:none" />
      <path
         inkscape:connector-curvature="0"
         sodipodi:nodetypes="cccccccccccc"
         id="path2383"
         d="m 134.28571,250.93361 40,52.85714 40,-33.57143 -7.14285,146.42858 -54.28572,-5.71429 0,61.42857 161.42857,0 -10,-68.57143 L 260,409.50504 287.14286,213.79076 231.42857,195.21933 134.28571,250.93361 z"
         style="fill:#88aa00;fill-rule:evenodd;stroke:#668000;stroke-width:3;stroke-linecap:butt;stroke-linejoin:miter;stroke-miterlimit:4;stroke-opacity:1;stroke-dasharray:none" />
      <path
         transform="translate(-7.8571429,-12.857143)"
         sodipodi:open="true"
         sodipodi:end="6.2832186"
         sodipodi:start="3.3369056e-05"
         d="m 235,223.07708 c -3.4e-4,10.25672 -8.31533,18.57115 -18.57205,18.57081 -10.25671,-3.4e-4 -18.57115,-8.31533 -18.5708,-18.57205 3.4e-4,-10.25671 8.31533,-18.57115 18.57204,-18.57081 10.25672,3.5e-4 18.57115,8.31533 18.57081,18.57205"
         sodipodi:ry="18.571428"
         sodipodi:rx="18.571428"
         sodipodi:cy="223.07646"
         sodipodi:cx="216.42857"
         id="path3155"
         style="fill:#e6e6e6;fill-opacity:1;stroke:#668000;stroke-width:3;stroke-miterlimit:4;stroke-opacity:1;stroke-dasharray:none;stroke-dashoffset:0"
         sodipodi:type="arc" />
      <path
         transform="matrix(1.1779359,0,0,1.1779359,-7.7961385,-28.264744)"
         sodipodi:open="true"
         sodipodi:end="6.2832186"
         sodipodi:start="3.3369056e-05"
         d="m 235,223.07708 c -3.4e-4,10.25672 -8.31533,18.57115 -18.57205,18.57081 -10.25671,-3.4e-4 -18.57115,-8.31533 -18.5708,-18.57205 3.4e-4,-10.25671 8.31533,-18.57115 18.57204,-18.57081 10.25672,3.5e-4 18.57115,8.31533 18.57081,18.57205"
         sodipodi:ry="18.571428"
         sodipodi:rx="18.571428"
         sodipodi:cy="223.07646"
         sodipodi:cx="216.42857"
         id="path3157"
         style="fill:#e6e6e6;fill-opacity:1;stroke:#668000;stroke-width:3;stroke-miterlimit:4;stroke-opacity:1;stroke-dasharray:none;stroke-dashoffset:0"
         sodipodi:type="arc" />
      <path
         inkscape:connector-curvature="0"
         id="path3161"
         d="m 145.71429,243.79075 27.85714,34.28572"
         style="fill:none;stroke:#668000;stroke-width:2;stroke-linecap:butt;stroke-linejoin:miter;stroke-miterlimit:4;stroke-opacity:1;stroke-dasharray:none" />
      <path
         inkscape:connector-curvature="0"
         id="path3163"
         d="m 160.71429,234.50504 22.14285,30.71428"
         style="fill:none;stroke:#668000;stroke-width:2;stroke-linecap:butt;stroke-linejoin:miter;stroke-miterlimit:4;stroke-opacity:1;stroke-dasharray:none" />
      <path
         inkscape:connector-curvature="0"
         id="path3165"
         d="m 175.71429,226.6479 22.85714,28.57142"
         style="fill:none;stroke:#668000;stroke-width:2;stroke-linecap:butt;stroke-linejoin:miter;stroke-miterlimit:4;stroke-opacity:1;stroke-dasharray:none" />
      <path
         inkscape:connector-curvature="0"
         id="path3167"
         d="m 242.85714,287.36218 c 2.85715,0 35.71429,0 35.71429,0"
         style="fill:none;stroke:#668000;stroke-width:2;stroke-linecap:butt;stroke-linejoin:miter;stroke-miterlimit:4;stroke-opacity:1;stroke-dasharray:none" />
      <path
         inkscape:connector-curvature="0"
         id="path3169"
         d="m 249.28571,303.79075 25,-0.71428 0,0 0,0"
         style="fill:none;stroke:#668000;stroke-width:2;stroke-linecap:butt;stroke-linejoin:miter;stroke-miterlimit:4;stroke-opacity:1;stroke-dasharray:none" />
      <path
         inkscape:connector-curvature="0"
         id="path3171"
         d="m 236.42857,319.50504 37.14286,0"
         style="fill:none;stroke:#668000;stroke-width:2;stroke-linecap:butt;stroke-linejoin:miter;stroke-miterlimit:4;stroke-opacity:1;stroke-dasharray:none" />
      <path
         inkscape:connector-curvature="0"
         id="path3173"
         d="m 241.42857,335.21932 29.28572,1.42858"
         style="fill:none;stroke:#668000;stroke-width:2;stroke-linecap:butt;stroke-linejoin:miter;stroke-miterlimit:4;stroke-opacity:1;stroke-dasharray:none" />
      <path
         inkscape:connector-curvature="0"
         id="path3175"
         d="m 235,350.93361 c 3.57143,0 34.28571,0.71429 34.28571,0.71429 l 0,0 0,0"
         style="fill:none;stroke:#668000;stroke-width:2;stroke-linecap:butt;stroke-linejoin:miter;stroke-miterlimit:4;stroke-opacity:1;stroke-dasharray:none" />
      <path
         inkscape:connector-curvature="0"
         id="path3177"
         d="m 243.57143,363.79075 24.28571,0"
         style="fill:none;stroke:#668000;stroke-width:2;stroke-linecap:butt;stroke-linejoin:miter;stroke-miterlimit:4;stroke-opacity:1;stroke-dasharray:none" />
      <path
         inkscape:connector-curvature="0"
         id="path3179"
         d="m 232.14286,380.93361 32.14285,-2.14286"
         style="fill:none;stroke:#668000;stroke-width:2;stroke-linecap:butt;stroke-linejoin:miter;stroke-miterlimit:4;stroke-opacity:1;stroke-dasharray:none" />
      <path
         inkscape:connector-curvature="0"
         id="path3181"
         d="m 238.57143,393.07647 22.14286,-0.71429"
         style="fill:none;stroke:#668000;stroke-width:2;stroke-linecap:butt;stroke-linejoin:miter;stroke-miterlimit:4;stroke-opacity:1;stroke-dasharray:none" />
      <g
         transform="matrix(0.8514851,0,0,0.8514851,3.178926,9.3041433)"
         id="g3189">
        <path
           sodipodi:type="arc"
           style="fill:#445500;fill-opacity:1;stroke:#222b00;stroke-width:2;stroke-miterlimit:4;stroke-opacity:1;stroke-dasharray:none;stroke-dashoffset:0"
           id="path3183"
           sodipodi:cx="246.25"
           sodipodi:cy="232.18361"
           sodipodi:rx="9.8214283"
           sodipodi:ry="9.8214283"
           d="m 256.07143,232.18394 c -1.8e-4,5.42422 -4.39753,9.82128 -9.82176,9.8211 -5.42422,-1.8e-4 -9.82128,-4.39753 -9.8211,-9.82176 1.8e-4,-5.42422 4.39753,-9.82128 9.82176,-9.8211 5.42422,1.8e-4 9.82128,4.39753 9.8211,9.82176"
           sodipodi:start="3.3369056e-05"
           sodipodi:end="6.2832186"
           sodipodi:open="true" />
        <path
           sodipodi:type="arc"
           style="fill:#222b00;fill-opacity:1;stroke:none"
           id="path3185"
           sodipodi:cx="246.25"
           sodipodi:cy="232.18361"
           sodipodi:rx="4.1071429"
           sodipodi:ry="4.1071429"
           d="m 250.35714,232.18375 c -7e-5,2.26831 -1.83896,4.10708 -4.10728,4.107 -2.26831,-7e-5 -4.10708,-1.83897 -4.107,-4.10728 7e-5,-2.26831 1.83896,-4.10708 4.10728,-4.107 2.26831,7e-5 4.10708,1.83896 4.107,4.10728"
           sodipodi:start="3.3369056e-05"
           sodipodi:end="6.2832186"
           sodipodi:open="true" />
        <path
           sodipodi:type="arc"
           style="fill:#cdde87;fill-opacity:1;stroke:none"
           id="path3187"
           sodipodi:cx="249.64285"
           sodipodi:cy="228.79076"
           sodipodi:rx="1.7857143"
           sodipodi:ry="1.7857143"
           d="m 251.42857,228.79082 c -4e-5,0.98622 -0.79955,1.78568 -1.78578,1.78565 -0.98622,-3e-5 -1.78568,-0.79955 -1.78565,-1.78577 3e-5,-0.98623 0.79955,-1.78569 1.78577,-1.78566 0.98623,3e-5 1.78569,0.79955 1.78566,1.78578"
           sodipodi:start="3.3369056e-05"
           sodipodi:end="6.2832186"
           sodipodi:open="true"
           transform="translate(0,1.0714286)" />
      </g>
      <g
         transform="matrix(1.1485149,0,0,1.1485149,-31.21464,-31.268429)"
         id="g3194">
        <path
           sodipodi:type="arc"
           style="fill:#445500;fill-opacity:1;stroke:#222b00;stroke-width:2;stroke-miterlimit:4;stroke-opacity:1;stroke-dasharray:none;stroke-dashoffset:0"
           id="path3196"
           sodipodi:cx="246.25"
           sodipodi:cy="232.18361"
           sodipodi:rx="9.8214283"
           sodipodi:ry="9.8214283"
           d="m 256.07143,232.18394 c -1.8e-4,5.42422 -4.39753,9.82128 -9.82176,9.8211 -5.42422,-1.8e-4 -9.82128,-4.39753 -9.8211,-9.82176 1.8e-4,-5.42422 4.39753,-9.82128 9.82176,-9.8211 5.42422,1.8e-4 9.82128,4.39753 9.8211,9.82176"
           sodipodi:start="3.3369056e-05"
           sodipodi:end="6.2832186"
           sodipodi:open="true" />
        <path
           sodipodi:type="arc"
           style="fill:#222b00;fill-opacity:1;stroke:none"
           id="path3198"
           sodipodi:cx="246.25"
           sodipodi:cy="232.18361"
           sodipodi:rx="4.1071429"
           sodipodi:ry="4.1071429"
           d="m 250.35714,232.18375 c -7e-5,2.26831 -1.83896,4.10708 -4.10728,4.107 -2.26831,-7e-5 -4.10708,-1.83897 -4.107,-4.10728 7e-5,-2.26831 1.83896,-4.10708 4.10728,-4.107 2.26831,7e-5 4.10708,1.83896 4.107,4.10728"
           sodipodi:start="3.3369056e-05"
           sodipodi:end="6.2832186"
           sodipodi:open="true" />
        <path
           sodipodi:type="arc"
           style="fill:#cdde87;fill-opacity:1;stroke:none"
           id="path3200"
           sodipodi:cx="249.64285"
           sodipodi:cy="228.79076"
           sodipodi:rx="1.7857143"
           sodipodi:ry="1.7857143"
           d="m 251.42857,228.79082 c -4e-5,0.98622 -0.79955,1.78568 -1.78578,1.78565 -0.98622,-3e-5 -1.78568,-0.79955 -1.78565,-1.78577 3e-5,-0.98623 0.79955,-1.78569 1.78577,-1.78566 0.98623,3e-5 1.78569,0.79955 1.78566,1.78578"
           sodipodi:start="3.3369056e-05"
           sodipodi:end="6.2832186"
           sodipodi:open="true"
           transform="translate(0,1.0714286)" />
      </g>
      <path
         inkscape:connector-curvature="0"
         id="path3202"
         d="m 297.6426,435.76636 c 0.0474,2.85675 0.59298,35.70937 0.59298,35.70937"
         style="fill:none;stroke:#668000;stroke-width:2;stroke-linecap:butt;stroke-linejoin:miter;stroke-miterlimit:4;stroke-opacity:1;stroke-dasharray:none" />
      <path
         inkscape:connector-curvature="0"
         id="path3204"
         d="m 281.32303,445.49727 1.12927,24.98469 0,0 0,0"
         style="fill:none;stroke:#668000;stroke-width:2;stroke-linecap:butt;stroke-linejoin:miter;stroke-miterlimit:4;stroke-opacity:1;stroke-dasharray:none" />
      <path
         inkscape:connector-curvature="0"
         id="path3206"
         d="m 265.64998,435.17565 0.61669,37.13774"
         style="fill:none;stroke:#668000;stroke-width:2;stroke-linecap:butt;stroke-linejoin:miter;stroke-miterlimit:4;stroke-opacity:1;stroke-dasharray:none" />
      <path
         inkscape:connector-curvature="0"
         id="path3208"
         d="m 249.76834,441.69856 -0.94214,29.3054"
         style="fill:none;stroke:#668000;stroke-width:2;stroke-linecap:butt;stroke-linejoin:miter;stroke-miterlimit:4;stroke-opacity:1;stroke-dasharray:none" />
      <path
         inkscape:connector-curvature="0"
         style="fill:none;stroke:#668000;stroke-width:2;stroke-linecap:butt;stroke-linejoin:miter;stroke-miterlimit:4;stroke-opacity:1;stroke-dasharray:none"
         d="m 221.88116,434.75621 c 0.0474,2.85675 0.59298,35.70937 0.59298,35.70937"
         id="path3218" />
      <path
         inkscape:connector-curvature="0"
         style="fill:none;stroke:#668000;stroke-width:2;stroke-linecap:butt;stroke-linejoin:miter;stroke-miterlimit:4;stroke-opacity:1;stroke-dasharray:none"
         d="m 205.56159,444.48712 1.12927,24.98469 0,0 0,0"
         id="path3220" />
      <path
         inkscape:connector-curvature="0"
         style="fill:none;stroke:#668000;stroke-width:2;stroke-linecap:butt;stroke-linejoin:miter;stroke-miterlimit:4;stroke-opacity:1;stroke-dasharray:none"
         d="m 189.88854,434.1655 0.61669,37.13774"
         id="path3222" />
      <path
         inkscape:connector-curvature="0"
         style="fill:none;stroke:#668000;stroke-width:2;stroke-linecap:butt;stroke-linejoin:miter;stroke-miterlimit:4;stroke-opacity:1;stroke-dasharray:none"
         d="m 174.0069,440.68841 -0.94214,29.3054"
         id="path3224" />
    </g>
    <g
       id="g3441"
       transform="matrix(0.9023628,0,0,0.9023628,1163.7419,-79.075114)">
      <path
         inkscape:connector-curvature="0"
         sodipodi:nodetypes="ccssccccssc"
         id="path3259"
         d="m 170.71578,371.51936 18.18275,19.19291 c 0,0 41.21027,-61.8253 74.75128,-28.28428 34.34519,34.34519 -63.63961,57.5787 -70.71067,86.87312 -7.07107,29.29443 0,52.52794 0,52.52794 l 163.64471,-1.01016 -3.03046,-77.78174 -105.05586,28.28427 c 0,0 67.68021,-26.26396 75.76143,-69.70053 5.91537,-31.79507 -35.35534,-96.97465 -96.97464,-74.75129 -61.61931,22.22336 2.02031,40.40611 -56.56854,64.64976 z"
         style="fill:#ffcc00;fill-rule:evenodd;stroke:#aa8800;stroke-width:3;stroke-linecap:butt;stroke-linejoin:miter;stroke-miterlimit:4;stroke-opacity:1;stroke-dasharray:none" />
      <g
         id="g3269">
        <path
           sodipodi:type="arc"
           style="fill:#ffeeaa;fill-opacity:1;stroke:#aa8800;stroke-width:3;stroke-miterlimit:4;stroke-opacity:1;stroke-dasharray:none;stroke-dashoffset:0"
           id="path3261"
           sodipodi:cx="201.02036"
           sodipodi:cy="333.13358"
           sodipodi:rx="20.203051"
           sodipodi:ry="20.203051"
           d="m 221.22341,333.13425 c -3.8e-4,11.15784 -9.04589,20.20275 -20.20373,20.20238 -11.15784,-3.8e-4 -20.20275,-9.04589 -20.20238,-20.20373 3.8e-4,-11.15784 9.04589,-20.20275 20.20373,-20.20238 11.15784,3.8e-4 20.20275,9.04589 20.20238,20.20373"
           sodipodi:start="3.3369056e-05"
           sodipodi:end="6.2832186"
           sodipodi:open="true" />
        <path
           sodipodi:type="arc"
           style="fill:#554400;fill-opacity:1;stroke:none"
           id="path3263"
           sodipodi:cx="206.5762"
           sodipodi:cy="332.62848"
           sodipodi:rx="9.5964489"
           sodipodi:ry="9.5964489"
           d="m 216.17265,332.6288 c -1.8e-4,5.29997 -4.2968,9.5963 -9.59677,9.59613 -5.29997,-1.8e-4 -9.5963,-4.2968 -9.59613,-9.59677 1.8e-4,-5.29997 4.2968,-9.59631 9.59677,-9.59613 5.29997,1.8e-4 9.59631,4.2968 9.59613,9.59677"
           sodipodi:start="3.3369056e-05"
           sodipodi:end="6.2832186"
           sodipodi:open="true" />
        <path
           sodipodi:type="arc"
           style="fill:#2b2200;fill-opacity:1;stroke:none"
           id="path3265"
           sodipodi:cx="210.49054"
           sodipodi:cy="333.51239"
           sodipodi:rx="3.9143412"
           sodipodi:ry="3.9143412"
           d="m 214.40488,333.51252 c -7e-5,2.16183 -1.75264,3.91428 -3.91447,3.91421 -2.16183,-7e-5 -3.91428,-1.75264 -3.91421,-3.91447 7e-5,-2.16183 1.75264,-3.91428 3.91447,-3.91421 2.16183,7e-5 3.91428,1.75264 3.91421,3.91447"
           sodipodi:start="3.3369056e-05"
           sodipodi:end="6.2832186"
           sodipodi:open="true" />
        <path
           sodipodi:type="arc"
           style="fill:#ffeeaa;fill-opacity:1;stroke:none"
           id="path3267"
           sodipodi:cx="208.34396"
           sodipodi:cy="330.35565"
           sodipodi:rx="1.767767"
           sodipodi:ry="1.767767"
           d="m 210.11173,330.35571 c -3e-5,0.97631 -0.79151,1.76774 -1.76783,1.76771 -0.97631,-3e-5 -1.76774,-0.79152 -1.7677,-1.76783 3e-5,-0.97631 0.79151,-1.76774 1.76782,-1.76771 0.97631,4e-5 1.76774,0.79152 1.76771,1.76783"
           sodipodi:start="3.3369056e-05"
           sodipodi:end="6.2832186"
           sodipodi:open="true" />
      </g>
      <path
         inkscape:connector-curvature="0"
         sodipodi:nodetypes="csscssc"
         id="path3275"
         d="m 242.85714,314.50504 c 2.85715,1.42857 33.57144,2.85714 52.14287,24.28571 18.57143,21.42857 5.71428,49.28572 -2.14286,61.42857 -7.85715,12.14286 -20,25.71429 -20,25.71429 0,0 37.14285,-20 40.71428,-54.28571 3.57143,-34.28572 -30,-58.57144 -46.42857,-58.57144 -16.42857,0 -25,2.14287 -24.28572,1.42858 z"
         style="fill:#ffeeaa;fill-rule:evenodd;stroke:none;filter:url(#filter3345)" />
      <path
         inkscape:connector-curvature="0"
         id="path3349"
         d="m 212.85714,491.64789 c 0,0 123.57143,5.71429 132.14286,-1.42857 8.57143,-7.14285 3.57143,-54.28571 3.57143,-54.28571 0,0 -5,28.57143 -30.71429,38.57143 -25.71429,10 -106.42857,17.85714 -105,17.14285 z"
         style="fill:#ffe680;fill-rule:evenodd;stroke:none;filter:url(#filter3427)" />
      <path
         inkscape:connector-curvature="0"
         id="path3431"
         d="m 196.42857,365.93361 -15.71428,14.28571"
         style="fill:none;stroke:#806600;stroke-width:2;stroke-linecap:butt;stroke-linejoin:miter;stroke-miterlimit:4;stroke-opacity:1;stroke-dasharray:none" />
      <path
         inkscape:connector-curvature="0"
         sodipodi:nodetypes="csc"
         id="path3433"
         d="m 242.85714,454.50504 c 0,0 -5,58.57143 48.57144,27.85714 43.85632,-25.14429 61.42856,-58.57143 61.42856,-58.57143"
         style="fill:none;stroke:#aa8800;stroke-width:3;stroke-linecap:butt;stroke-linejoin:miter;stroke-miterlimit:4;stroke-opacity:1;stroke-dasharray:none" />
      <path
         inkscape:connector-curvature="0"
         id="path3435"
         d="m 254.05337,461.42294 64.14468,-19.69797"
         style="fill:none;stroke:#aa8800;stroke-width:2;stroke-linecap:butt;stroke-linejoin:miter;stroke-miterlimit:4;stroke-opacity:1;stroke-dasharray:none" />
      <path
         inkscape:connector-curvature="0"
         id="path3437"
         d="M 267.18535,467.48386 319.2082,449.80619"
         style="fill:none;stroke:#aa8800;stroke-width:2;stroke-linecap:butt;stroke-linejoin:miter;stroke-miterlimit:4;stroke-opacity:1;stroke-dasharray:none" />
      <path
         inkscape:connector-curvature="0"
         id="path3439"
         d="m 282.33764,471.52447 35.86041,-13.13198"
         style="fill:none;stroke:#aa8800;stroke-width:2;stroke-linecap:butt;stroke-linejoin:miter;stroke-miterlimit:4;stroke-opacity:1;stroke-dasharray:none" />
    </g>
  </g>
</svg>
