<?xml version="1.0" encoding="UTF-8" standalone="no"?>
<!-- Created with Inkscape (http://www.inkscape.org/) -->

<svg
   xmlns:dc="http://purl.org/dc/elements/1.1/"
   xmlns:cc="http://creativecommons.org/ns#"
   xmlns:rdf="http://www.w3.org/1999/02/22-rdf-syntax-ns#"
   xmlns:svg="http://www.w3.org/2000/svg"
   xmlns="http://www.w3.org/2000/svg"
   xmlns:sodipodi="http://sodipodi.sourceforge.net/DTD/sodipodi-0.dtd"
   xmlns:inkscape="http://www.inkscape.org/namespaces/inkscape"
   width="272.97882"
   height="192.42"
   id="svg2"
   sodipodi:version="0.32"
   inkscape:version="0.48.1 r9760"
   sodipodi:docname="alicvb_kablam_Number_Animals_15.svg"
   inkscape:output_extension="org.inkscape.output.svg.inkscape"
   version="1.0">
  <defs
     id="defs4">
    <inkscape:perspective
       sodipodi:type="inkscape:persp3d"
       inkscape:vp_x="0 : 526.18109 : 1"
       inkscape:vp_y="0 : 1000 : 0"
       inkscape:vp_z="744.09448 : 526.18109 : 1"
       inkscape:persp3d-origin="372.04724 : 350.78739 : 1"
       id="perspective10" />
    <filter
       inkscape:collect="always"
       id="filter3345"
       x="-0.1685358"
       width="1.3370717"
       y="-0.10605735"
       height="1.2121147"
       color-interpolation-filters="sRGB">
      <feGaussianBlur
         inkscape:collect="always"
         stdDeviation="4.9872207"
         id="feGaussianBlur3347" />
    </filter>
    <filter
       inkscape:collect="always"
       id="filter3427"
       x="-0.096582323"
       width="1.1931646"
       y="-0.22891882"
       height="1.4578376"
       color-interpolation-filters="sRGB">
      <feGaussianBlur
         inkscape:collect="always"
         stdDeviation="5.5205941"
         id="feGaussianBlur3429" />
    </filter>
    <filter
       inkscape:collect="always"
       id="filter3875"
       x="-0.077257492"
       width="1.154515"
       y="-0.14956847"
       height="1.2991369"
       color-interpolation-filters="sRGB">
      <feGaussianBlur
         inkscape:collect="always"
         stdDeviation="3.4826958"
         id="feGaussianBlur3877" />
    </filter>
    <filter
       inkscape:collect="always"
       id="filter3909"
       color-interpolation-filters="sRGB">
      <feGaussianBlur
         inkscape:collect="always"
         stdDeviation="2.8320834"
         id="feGaussianBlur3911" />
    </filter>
    <filter
       inkscape:collect="always"
       id="filter4112"
       x="-0.24339622"
       width="1.4867924"
       y="-0.24339622"
       height="1.4867924"
       color-interpolation-filters="sRGB">
      <feGaussianBlur
         inkscape:collect="always"
         stdDeviation="1.6391155"
         id="feGaussianBlur4114" />
    </filter>
    <filter
       inkscape:collect="always"
       id="filter4230"
       color-interpolation-filters="sRGB">
      <feGaussianBlur
         inkscape:collect="always"
         stdDeviation="2.5878233"
         id="feGaussianBlur4232" />
    </filter>
    <filter
       inkscape:collect="always"
       id="filter4438"
       x="-0.24642596"
       width="1.4928519"
       y="-0.085661612"
       height="1.1713232"
       color-interpolation-filters="sRGB">
      <feGaussianBlur
         inkscape:collect="always"
         stdDeviation="2.680981"
         id="feGaussianBlur4440" />
    </filter>
    <filter
       inkscape:collect="always"
       id="filter4442"
       color-interpolation-filters="sRGB">
      <feGaussianBlur
         inkscape:collect="always"
         stdDeviation="2.680981"
         id="feGaussianBlur4444" />
    </filter>
    <filter
       inkscape:collect="always"
       id="filter4570"
       x="-0.38401869"
       width="1.7680374"
       y="-0.1889251"
       height="1.3778502"
       color-interpolation-filters="sRGB">
      <feGaussianBlur
         inkscape:collect="always"
         stdDeviation="3.317435"
         id="feGaussianBlur4572" />
    </filter>
    <filter
       inkscape:collect="always"
       id="filter4574"
       x="-0.22601227"
       width="1.4520245"
       y="-0.11123173"
       height="1.2224635"
       color-interpolation-filters="sRGB">
      <feGaussianBlur
         inkscape:collect="always"
         stdDeviation="3.317435"
         id="feGaussianBlur4576" />
    </filter>
    <filter
       inkscape:collect="always"
       id="filter4951"
       x="-0.46415094"
       width="1.9283019"
       y="-0.46415094"
       height="1.9283019"
       color-interpolation-filters="sRGB">
      <feGaussianBlur
         inkscape:collect="always"
         stdDeviation="3.0280753"
         id="feGaussianBlur4953" />
    </filter>
    <filter
       inkscape:collect="always"
       id="filter5047"
       x="-0.11380523"
       width="1.2276105"
       y="-0.048408564"
       height="1.0968171"
       color-interpolation-filters="sRGB">
      <feGaussianBlur
         inkscape:collect="always"
         stdDeviation="2.276355"
         id="feGaussianBlur5049" />
    </filter>
    <filter
       inkscape:collect="always"
       id="filter5109"
       color-interpolation-filters="sRGB">
      <feGaussianBlur
         inkscape:collect="always"
         stdDeviation="2.5194836"
         id="feGaussianBlur5111" />
    </filter>
    <filter
       inkscape:collect="always"
       id="filter5207"
       x="-0.17798477"
       width="1.3559695"
       y="-0.065937594"
       height="1.1318752"
       color-interpolation-filters="sRGB">
      <feGaussianBlur
         inkscape:collect="always"
         stdDeviation="3.2587653"
         id="feGaussianBlur5209" />
    </filter>
  </defs>
  <sodipodi:namedview
     id="base"
     pagecolor="#ffffff"
     bordercolor="#666666"
     borderopacity="1.0"
     gridtolerance="10000"
     guidetolerance="10"
     objecttolerance="10"
     inkscape:pageopacity="0.0"
     inkscape:pageshadow="2"
     inkscape:zoom="0.35"
     inkscape:cx="-1157.1066"
     inkscape:cy="-540.47087"
     inkscape:document-units="px"
     inkscape:current-layer="layer1"
     showgrid="false"
     inkscape:window-width="1680"
     inkscape:window-height="1026"
     inkscape:window-x="0"
     inkscape:window-y="0"
     inkscape:window-maximized="1"
     fit-margin-top="0"
     fit-margin-left="0"
     fit-margin-right="0"
     fit-margin-bottom="0" />
  <metadata
     id="metadata7">
    <rdf:RDF>
      <cc:Work
         rdf:about="">
        <dc:format>image/svg+xml</dc:format>
        <dc:type
           rdf:resource="http://purl.org/dc/dcmitype/StillImage" />
        <dc:title></dc:title>
      </cc:Work>
    </rdf:RDF>
  </metadata>
  <g
     inkscape:label="Layer 1"
     inkscape:groupmode="layer"
     id="layer1"
     transform="translate(-1196.2199,-188.34176)">
    <g
       id="g3226"
       transform="matrix(0.6782175,0,0,0.6782175,1106.1623,59.380137)">
      <path
         inkscape:connector-curvature="0"
         id="path3159"
         d="m 154.28571,277.36218 c 0,0 -10,7.14286 -7.14285,17.85714 2.85714,10.71429 10.71428,9.28572 10.71428,13.57143 0,4.28572 -5.71428,8.57143 -5.71428,8.57143 0,0 10,-2.14286 10,-7.85714 0,-5.71429 8.57143,-0.71429 8.57143,-0.71429 0,0 -5.71429,-5.71428 -11.42858,-7.14285 -5.71428,-1.42858 -7.85714,-7.14286 -7.14285,-12.85715 0.71428,-5.71428 6.42857,-5.71428 6.42857,-5.71428 l -4.28572,-5.71429 z"
         style="fill:#ff2a2a;fill-rule:evenodd;stroke:none" />
      <path
         inkscape:connector-curvature="0"
         sodipodi:nodetypes="cccccccccccc"
         id="path2383"
         d="m 134.28571,250.93361 40,52.85714 40,-33.57143 -7.14285,146.42858 -54.28572,-5.71429 0,61.42857 161.42857,0 -10,-68.57143 L 260,409.50504 287.14286,213.79076 231.42857,195.21933 134.28571,250.93361 z"
         style="fill:#88aa00;fill-rule:evenodd;stroke:#668000;stroke-width:3;stroke-linecap:butt;stroke-linejoin:miter;stroke-miterlimit:4;stroke-opacity:1;stroke-dasharray:none" />
      <path
         transform="translate(-7.8571429,-12.857143)"
         sodipodi:open="true"
         sodipodi:end="6.2832186"
         sodipodi:start="3.3369056e-05"
         d="m 235,223.07708 c -3.4e-4,10.25672 -8.31533,18.57115 -18.57205,18.57081 -10.25671,-3.4e-4 -18.57115,-8.31533 -18.5708,-18.57205 3.4e-4,-10.25671 8.31533,-18.57115 18.57204,-18.57081 10.25672,3.5e-4 18.57115,8.31533 18.57081,18.57205"
         sodipodi:ry="18.571428"
         sodipodi:rx="18.571428"
         sodipodi:cy="223.07646"
         sodipodi:cx="216.42857"
         id="path3155"
         style="fill:#e6e6e6;fill-opacity:1;stroke:#668000;stroke-width:3;stroke-miterlimit:4;stroke-opacity:1;stroke-dasharray:none;stroke-dashoffset:0"
         sodipodi:type="arc" />
      <path
         transform="matrix(1.1779359,0,0,1.1779359,-7.7961385,-28.264744)"
         sodipodi:open="true"
         sodipodi:end="6.2832186"
         sodipodi:start="3.3369056e-05"
         d="m 235,223.07708 c -3.4e-4,10.25672 -8.31533,18.57115 -18.57205,18.57081 -10.25671,-3.4e-4 -18.57115,-8.31533 -18.5708,-18.57205 3.4e-4,-10.25671 8.31533,-18.57115 18.57204,-18.57081 10.25672,3.5e-4 18.57115,8.31533 18.57081,18.57205"
         sodipodi:ry="18.571428"
         sodipodi:rx="18.571428"
         sodipodi:cy="223.07646"
         sodipodi:cx="216.42857"
         id="path3157"
         style="fill:#e6e6e6;fill-opacity:1;stroke:#668000;stroke-width:3;stroke-miterlimit:4;stroke-opacity:1;stroke-dasharray:none;stroke-dashoffset:0"
         sodipodi:type="arc" />
      <path
         inkscape:connector-curvature="0"
         id="path3161"
         d="m 145.71429,243.79075 27.85714,34.28572"
         style="fill:none;stroke:#668000;stroke-width:2;stroke-linecap:butt;stroke-linejoin:miter;stroke-miterlimit:4;stroke-opacity:1;stroke-dasharray:none" />
      <path
         inkscape:connector-curvature="0"
         id="path3163"
         d="m 160.71429,234.50504 22.14285,30.71428"
         style="fill:none;stroke:#668000;stroke-width:2;stroke-linecap:butt;stroke-linejoin:miter;stroke-miterlimit:4;stroke-opacity:1;stroke-dasharray:none" />
      <path
         inkscape:connector-curvature="0"
         id="path3165"
         d="m 175.71429,226.6479 22.85714,28.57142"
         style="fill:none;stroke:#668000;stroke-width:2;stroke-linecap:butt;stroke-linejoin:miter;stroke-miterlimit:4;stroke-opacity:1;stroke-dasharray:none" />
      <path
         inkscape:connector-curvature="0"
         id="path3167"
         d="m 242.85714,287.36218 c 2.85715,0 35.71429,0 35.71429,0"
         style="fill:none;stroke:#668000;stroke-width:2;stroke-linecap:butt;stroke-linejoin:miter;stroke-miterlimit:4;stroke-opacity:1;stroke-dasharray:none" />
      <path
         inkscape:connector-curvature="0"
         id="path3169"
         d="m 249.28571,303.79075 25,-0.71428 0,0 0,0"
         style="fill:none;stroke:#668000;stroke-width:2;stroke-linecap:butt;stroke-linejoin:miter;stroke-miterlimit:4;stroke-opacity:1;stroke-dasharray:none" />
      <path
         inkscape:connector-curvature="0"
         id="path3171"
         d="m 236.42857,319.50504 37.14286,0"
         style="fill:none;stroke:#668000;stroke-width:2;stroke-linecap:butt;stroke-linejoin:miter;stroke-miterlimit:4;stroke-opacity:1;stroke-dasharray:none" />
      <path
         inkscape:connector-curvature="0"
         id="path3173"
         d="m 241.42857,335.21932 29.28572,1.42858"
         style="fill:none;stroke:#668000;stroke-width:2;stroke-linecap:butt;stroke-linejoin:miter;stroke-miterlimit:4;stroke-opacity:1;stroke-dasharray:none" />
      <path
         inkscape:connector-curvature="0"
         id="path3175"
         d="m 235,350.93361 c 3.57143,0 34.28571,0.71429 34.28571,0.71429 l 0,0 0,0"
         style="fill:none;stroke:#668000;stroke-width:2;stroke-linecap:butt;stroke-linejoin:miter;stroke-miterlimit:4;stroke-opacity:1;stroke-dasharray:none" />
      <path
         inkscape:connector-curvature="0"
         id="path3177"
         d="m 243.57143,363.79075 24.28571,0"
         style="fill:none;stroke:#668000;stroke-width:2;stroke-linecap:butt;stroke-linejoin:miter;stroke-miterlimit:4;stroke-opacity:1;stroke-dasharray:none" />
      <path
         inkscape:connector-curvature="0"
         id="path3179"
         d="m 232.14286,380.93361 32.14285,-2.14286"
         style="fill:none;stroke:#668000;stroke-width:2;stroke-linecap:butt;stroke-linejoin:miter;stroke-miterlimit:4;stroke-opacity:1;stroke-dasharray:none" />
      <path
         inkscape:connector-curvature="0"
         id="path3181"
         d="m 238.57143,393.07647 22.14286,-0.71429"
         style="fill:none;stroke:#668000;stroke-width:2;stroke-linecap:butt;stroke-linejoin:miter;stroke-miterlimit:4;stroke-opacity:1;stroke-dasharray:none" />
      <g
         transform="matrix(0.8514851,0,0,0.8514851,3.178926,9.3041433)"
         id="g3189">
        <path
           sodipodi:type="arc"
           style="fill:#445500;fill-opacity:1;stroke:#222b00;stroke-width:2;stroke-miterlimit:4;stroke-opacity:1;stroke-dasharray:none;stroke-dashoffset:0"
           id="path3183"
           sodipodi:cx="246.25"
           sodipodi:cy="232.18361"
           sodipodi:rx="9.8214283"
           sodipodi:ry="9.8214283"
           d="m 256.07143,232.18394 c -1.8e-4,5.42422 -4.39753,9.82128 -9.82176,9.8211 -5.42422,-1.8e-4 -9.82128,-4.39753 -9.8211,-9.82176 1.8e-4,-5.42422 4.39753,-9.82128 9.82176,-9.8211 5.42422,1.8e-4 9.82128,4.39753 9.8211,9.82176"
           sodipodi:start="3.3369056e-05"
           sodipodi:end="6.2832186"
           sodipodi:open="true" />
        <path
           sodipodi:type="arc"
           style="fill:#222b00;fill-opacity:1;stroke:none"
           id="path3185"
           sodipodi:cx="246.25"
           sodipodi:cy="232.18361"
           sodipodi:rx="4.1071429"
           sodipodi:ry="4.1071429"
           d="m 250.35714,232.18375 c -7e-5,2.26831 -1.83896,4.10708 -4.10728,4.107 -2.26831,-7e-5 -4.10708,-1.83897 -4.107,-4.10728 7e-5,-2.26831 1.83896,-4.10708 4.10728,-4.107 2.26831,7e-5 4.10708,1.83896 4.107,4.10728"
           sodipodi:start="3.3369056e-05"
           sodipodi:end="6.2832186"
           sodipodi:open="true" />
        <path
           sodipodi:type="arc"
           style="fill:#cdde87;fill-opacity:1;stroke:none"
           id="path3187"
           sodipodi:cx="249.64285"
           sodipodi:cy="228.79076"
           sodipodi:rx="1.7857143"
           sodipodi:ry="1.7857143"
           d="m 251.42857,228.79082 c -4e-5,0.98622 -0.79955,1.78568 -1.78578,1.78565 -0.98622,-3e-5 -1.78568,-0.79955 -1.78565,-1.78577 3e-5,-0.98623 0.79955,-1.78569 1.78577,-1.78566 0.98623,3e-5 1.78569,0.79955 1.78566,1.78578"
           sodipodi:start="3.3369056e-05"
           sodipodi:end="6.2832186"
           sodipodi:open="true"
           transform="translate(0,1.0714286)" />
      </g>
      <g
         transform="matrix(1.1485149,0,0,1.1485149,-31.21464,-31.268429)"
         id="g3194">
        <path
           sodipodi:type="arc"
           style="fill:#445500;fill-opacity:1;stroke:#222b00;stroke-width:2;stroke-miterlimit:4;stroke-opacity:1;stroke-dasharray:none;stroke-dashoffset:0"
           id="path3196"
           sodipodi:cx="246.25"
           sodipodi:cy="232.18361"
           sodipodi:rx="9.8214283"
           sodipodi:ry="9.8214283"
           d="m 256.07143,232.18394 c -1.8e-4,5.42422 -4.39753,9.82128 -9.82176,9.8211 -5.42422,-1.8e-4 -9.82128,-4.39753 -9.8211,-9.82176 1.8e-4,-5.42422 4.39753,-9.82128 9.82176,-9.8211 5.42422,1.8e-4 9.82128,4.39753 9.8211,9.82176"
           sodipodi:start="3.3369056e-05"
           sodipodi:end="6.2832186"
           sodipodi:open="true" />
        <path
           sodipodi:type="arc"
           style="fill:#222b00;fill-opacity:1;stroke:none"
           id="path3198"
           sodipodi:cx="246.25"
           sodipodi:cy="232.18361"
           sodipodi:rx="4.1071429"
           sodipodi:ry="4.1071429"
           d="m 250.35714,232.18375 c -7e-5,2.26831 -1.83896,4.10708 -4.10728,4.107 -2.26831,-7e-5 -4.10708,-1.83897 -4.107,-4.10728 7e-5,-2.26831 1.83896,-4.10708 4.10728,-4.107 2.26831,7e-5 4.10708,1.83896 4.107,4.10728"
           sodipodi:start="3.3369056e-05"
           sodipodi:end="6.2832186"
           sodipodi:open="true" />
        <path
           sodipodi:type="arc"
           style="fill:#cdde87;fill-opacity:1;stroke:none"
           id="path3200"
           sodipodi:cx="249.64285"
           sodipodi:cy="228.79076"
           sodipodi:rx="1.7857143"
           sodipodi:ry="1.7857143"
           d="m 251.42857,228.79082 c -4e-5,0.98622 -0.79955,1.78568 -1.78578,1.78565 -0.98622,-3e-5 -1.78568,-0.79955 -1.78565,-1.78577 3e-5,-0.98623 0.79955,-1.78569 1.78577,-1.78566 0.98623,3e-5 1.78569,0.79955 1.78566,1.78578"
           sodipodi:start="3.3369056e-05"
           sodipodi:end="6.2832186"
           sodipodi:open="true"
           transform="translate(0,1.0714286)" />
      </g>
      <path
         inkscape:connector-curvature="0"
         id="path3202"
         d="m 297.6426,435.76636 c 0.0474,2.85675 0.59298,35.70937 0.59298,35.70937"
         style="fill:none;stroke:#668000;stroke-width:2;stroke-linecap:butt;stroke-linejoin:miter;stroke-miterlimit:4;stroke-opacity:1;stroke-dasharray:none" />
      <path
         inkscape:connector-curvature="0"
         id="path3204"
         d="m 281.32303,445.49727 1.12927,24.98469 0,0 0,0"
         style="fill:none;stroke:#668000;stroke-width:2;stroke-linecap:butt;stroke-linejoin:miter;stroke-miterlimit:4;stroke-opacity:1;stroke-dasharray:none" />
      <path
         inkscape:connector-curvature="0"
         id="path3206"
         d="m 265.64998,435.17565 0.61669,37.13774"
         style="fill:none;stroke:#668000;stroke-width:2;stroke-linecap:butt;stroke-linejoin:miter;stroke-miterlimit:4;stroke-opacity:1;stroke-dasharray:none" />
      <path
         inkscape:connector-curvature="0"
         id="path3208"
         d="m 249.76834,441.69856 -0.94214,29.3054"
         style="fill:none;stroke:#668000;stroke-width:2;stroke-linecap:butt;stroke-linejoin:miter;stroke-miterlimit:4;stroke-opacity:1;stroke-dasharray:none" />
      <path
         inkscape:connector-curvature="0"
         style="fill:none;stroke:#668000;stroke-width:2;stroke-linecap:butt;stroke-linejoin:miter;stroke-miterlimit:4;stroke-opacity:1;stroke-dasharray:none"
         d="m 221.88116,434.75621 c 0.0474,2.85675 0.59298,35.70937 0.59298,35.70937"
         id="path3218" />
      <path
         inkscape:connector-curvature="0"
         style="fill:none;stroke:#668000;stroke-width:2;stroke-linecap:butt;stroke-linejoin:miter;stroke-miterlimit:4;stroke-opacity:1;stroke-dasharray:none"
         d="m 205.56159,444.48712 1.12927,24.98469 0,0 0,0"
         id="path3220" />
      <path
         inkscape:connector-curvature="0"
         style="fill:none;stroke:#668000;stroke-width:2;stroke-linecap:butt;stroke-linejoin:miter;stroke-miterlimit:4;stroke-opacity:1;stroke-dasharray:none"
         d="m 189.88854,434.1655 0.61669,37.13774"
         id="path3222" />
      <path
         inkscape:connector-curvature="0"
         style="fill:none;stroke:#668000;stroke-width:2;stroke-linecap:butt;stroke-linejoin:miter;stroke-miterlimit:4;stroke-opacity:1;stroke-dasharray:none"
         d="m 174.0069,440.68841 -0.94214,29.3054"
         id="path3224" />
    </g>
    <g
       id="g4240"
       transform="matrix(0.9023628,0,0,0.9023628,948.8307,-75.50467)">
      <path
         inkscape:connector-curvature="0"
         sodipodi:nodetypes="cssssscsccccsssc"
         id="path3796"
         d="m 504.52751,298.34948 c -10.71541,0.0911 -22.55344,1.99447 -33.51764,7.90572 -17.3422,9.34986 -59.44275,30.34824 -57.62682,101.59831 1.8159,71.25005 64.81793,95.64368 101.30429,86.4729 36.48634,-9.17079 57.73137,-29.38465 58.34553,-61.31834 0.45821,-24.88155 -3.43575,-53.69744 -53.57596,-57.79016 -59.09907,-4.82398 -65.36921,47.07497 -65.3692,47.07497 0,0 -5.16738,-65.83068 37.01314,-80.00459 42.18056,-14.17388 61.84101,24.17451 61.84103,24.17452 l 5.40946,-57.31553 c -0.59765,0.88666 -34.48452,-10.96218 -53.82383,-10.7978 z m 20.61368,125.9035 c 11.94837,0.0568 21.1364,5.44697 21.13637,19.30694 0,15.83996 -26.39031,39.07689 -46.45428,19.01293 -20.06396,-20.06396 5.80235,-36.44187 20.05832,-38.02586 1.80121,-0.20014 3.55267,-0.30213 5.25959,-0.29401 z"
         style="fill:#aad400;fill-rule:evenodd;stroke:#668000;stroke-width:3.1361537;stroke-linecap:butt;stroke-linejoin:miter;stroke-miterlimit:4;stroke-opacity:1;stroke-dasharray:none" />
      <path
         inkscape:connector-curvature="0"
         sodipodi:nodetypes="ccssccc"
         id="path3801"
         d="m 532.85547,383.6412 c 29.89465,7.77493 39.70688,32.21084 33.84011,53.53808 0,0 -5.55584,-30.80965 -32.82996,-40.91118 -27.27412,-10.10152 -55.55839,4.54569 -64.64976,16.16244 -9.09138,11.61676 -9.09138,17.1726 -9.09138,17.1726 0,0 0,-16.16244 11.61676,-29.29443 16.43945,-19.67209 36.31082,-21.71562 61.11423,-16.66751 z"
         style="fill:#e5ff80;fill-rule:evenodd;stroke:none;filter:url(#filter3875)" />
      <path
         inkscape:connector-curvature="0"
         id="path3879"
         d="m 424.26407,376.57013 c 1.51523,-2.02031 21.2132,-59.599 62.62946,-64.64976 41.41625,-5.05077 64.64976,4.04061 64.64976,4.04061 0,0 -24.74874,-16.66752 -57.5787,-11.11168 -32.82995,5.55584 -59.599,25.25381 -69.70052,71.72083 z"
         style="fill:#e5ff80;fill-rule:evenodd;stroke:none;filter:url(#filter3909)" />
      <path
         transform="matrix(1.1699029,0,0,1.1699029,-73.368582,-64.879497)"
         sodipodi:open="true"
         sodipodi:end="6.2832186"
         sodipodi:start="3.3369056e-05"
         d="m 447.14284,337.71977 c -2.4e-4,7.29805 -5.91667,13.21409 -13.21472,13.21385 -7.29805,-2.5e-4 -13.21409,-5.91668 -13.21385,-13.21473 2.5e-4,-7.29805 5.91668,-13.21409 13.21473,-13.21385 7.29805,2.5e-4 13.21409,5.91668 13.21384,13.21473"
         sodipodi:ry="13.214286"
         sodipodi:rx="13.214286"
         sodipodi:cy="337.71933"
         sodipodi:cx="433.92856"
         id="path3913"
         style="fill:#eeffaa;fill-opacity:1;stroke:#445500;stroke-width:3;stroke-miterlimit:4;stroke-opacity:1;stroke-dasharray:none;stroke-dashoffset:0"
         sodipodi:type="arc" />
      <path
         sodipodi:type="arc"
         style="fill:#eeffaa;fill-opacity:1;stroke:#445500;stroke-width:3;stroke-miterlimit:4;stroke-opacity:1;stroke-dasharray:none;stroke-dashoffset:0"
         id="path3915"
         sodipodi:cx="433.92856"
         sodipodi:cy="337.71933"
         sodipodi:rx="13.214286"
         sodipodi:ry="13.214286"
         d="m 447.14284,337.71977 c -2.4e-4,7.29805 -5.91667,13.21409 -13.21472,13.21385 -7.29805,-2.5e-4 -13.21409,-5.91668 -13.21385,-13.21473 2.5e-4,-7.29805 5.91668,-13.21409 13.21473,-13.21385 7.29805,2.5e-4 13.21409,5.91668 13.21384,13.21473"
         sodipodi:start="3.3369056e-05"
         sodipodi:end="6.2832186"
         sodipodi:open="true"
         transform="matrix(1.5097087,0,0,1.5097087,-191.53432,-148.20992)" />
      <g
         id="g3923">
        <path
           sodipodi:type="arc"
           style="fill:#445500;fill-opacity:1;stroke:none"
           id="path3917"
           sodipodi:cx="433.92856"
           sodipodi:cy="337.71933"
           sodipodi:rx="13.214286"
           sodipodi:ry="13.214286"
           d="m 447.14284,337.71977 c -2.4e-4,7.29805 -5.91667,13.21409 -13.21472,13.21385 -7.29805,-2.5e-4 -13.21409,-5.91668 -13.21385,-13.21473 2.5e-4,-7.29805 5.91668,-13.21409 13.21473,-13.21385 7.29805,2.5e-4 13.21409,5.91668 13.21384,13.21473"
           sodipodi:start="3.3369056e-05"
           sodipodi:end="6.2832186"
           sodipodi:open="true"
           transform="matrix(0.8548937,0,0,0.8548937,94.751467,73.64805)" />
        <path
           transform="matrix(0.4917848,0,0,0.4917848,253.0724,196.0244)"
           sodipodi:open="true"
           sodipodi:end="6.2832186"
           sodipodi:start="3.3369056e-05"
           d="m 447.14284,337.71977 c -2.4e-4,7.29805 -5.91667,13.21409 -13.21472,13.21385 -7.29805,-2.5e-4 -13.21409,-5.91668 -13.21385,-13.21473 2.5e-4,-7.29805 5.91668,-13.21409 13.21473,-13.21385 7.29805,2.5e-4 13.21409,5.91668 13.21384,13.21473"
           sodipodi:ry="13.214286"
           sodipodi:rx="13.214286"
           sodipodi:cy="337.71933"
           sodipodi:cx="433.92856"
           id="path3919"
           style="fill:#222b00;fill-opacity:1;stroke:none"
           sodipodi:type="arc" />
        <path
           sodipodi:type="arc"
           style="fill:#eeffaa;fill-opacity:1;stroke:none"
           id="path3921"
           sodipodi:cx="433.92856"
           sodipodi:cy="337.71933"
           sodipodi:rx="13.214286"
           sodipodi:ry="13.214286"
           d="m 447.14284,337.71977 c -2.4e-4,7.29805 -5.91667,13.21409 -13.21472,13.21385 -7.29805,-2.5e-4 -13.21409,-5.91668 -13.21385,-13.21473 2.5e-4,-7.29805 5.91668,-13.21409 13.21473,-13.21385 7.29805,2.5e-4 13.21409,5.91668 13.21384,13.21473"
           sodipodi:start="3.3369056e-05"
           sodipodi:end="6.2832186"
           sodipodi:open="true"
           transform="matrix(0.2242309,0,0,0.2242309,372.70722,282.84699)" />
      </g>
      <g
         transform="matrix(0.7093874,0,0,0.7093874,106.30057,74.749921)"
         id="g3928">
        <path
           transform="matrix(0.8548937,0,0,0.8548937,94.751467,73.64805)"
           sodipodi:open="true"
           sodipodi:end="6.2832186"
           sodipodi:start="3.3369056e-05"
           d="m 447.14284,337.71977 c -2.4e-4,7.29805 -5.91667,13.21409 -13.21472,13.21385 -7.29805,-2.5e-4 -13.21409,-5.91668 -13.21385,-13.21473 2.5e-4,-7.29805 5.91668,-13.21409 13.21473,-13.21385 7.29805,2.5e-4 13.21409,5.91668 13.21384,13.21473"
           sodipodi:ry="13.214286"
           sodipodi:rx="13.214286"
           sodipodi:cy="337.71933"
           sodipodi:cx="433.92856"
           id="path3930"
           style="fill:#445500;fill-opacity:1;stroke:none"
           sodipodi:type="arc" />
        <path
           sodipodi:type="arc"
           style="fill:#222b00;fill-opacity:1;stroke:none"
           id="path3932"
           sodipodi:cx="433.92856"
           sodipodi:cy="337.71933"
           sodipodi:rx="13.214286"
           sodipodi:ry="13.214286"
           d="m 447.14284,337.71977 c -2.4e-4,7.29805 -5.91667,13.21409 -13.21472,13.21385 -7.29805,-2.5e-4 -13.21409,-5.91668 -13.21385,-13.21473 2.5e-4,-7.29805 5.91668,-13.21409 13.21473,-13.21385 7.29805,2.5e-4 13.21409,5.91668 13.21384,13.21473"
           sodipodi:start="3.3369056e-05"
           sodipodi:end="6.2832186"
           sodipodi:open="true"
           transform="matrix(0.4917848,0,0,0.4917848,253.0724,196.0244)" />
        <path
           transform="matrix(0.2242309,0,0,0.2242309,372.70722,282.84699)"
           sodipodi:open="true"
           sodipodi:end="6.2832186"
           sodipodi:start="3.3369056e-05"
           d="m 447.14284,337.71977 c -2.4e-4,7.29805 -5.91667,13.21409 -13.21472,13.21385 -7.29805,-2.5e-4 -13.21409,-5.91668 -13.21385,-13.21473 2.5e-4,-7.29805 5.91668,-13.21409 13.21473,-13.21385 7.29805,2.5e-4 13.21409,5.91668 13.21384,13.21473"
           sodipodi:ry="13.214286"
           sodipodi:rx="13.214286"
           sodipodi:cy="337.71933"
           sodipodi:cx="433.92856"
           id="path3934"
           style="fill:#eeffaa;fill-opacity:1;stroke:none"
           sodipodi:type="arc" />
      </g>
      <path
         transform="translate(6.0609153,8.0812204)"
         sodipodi:open="true"
         sodipodi:end="6.2832186"
         sodipodi:start="3.3369056e-05"
         d="m 442.95189,378.59069 c -1.5e-4,4.46314 -3.61836,8.0811 -8.08149,8.08095 -4.46314,-1.4e-4 -8.0811,-3.61835 -8.08095,-8.08149 1.4e-4,-4.46313 3.61835,-8.0811 8.08149,-8.08095 4.46313,1.5e-4 8.0811,3.61836 8.08095,8.08149"
         sodipodi:ry="8.0812206"
         sodipodi:rx="8.0812206"
         sodipodi:cy="378.59042"
         sodipodi:cx="434.87067"
         id="path3938"
         style="fill:#668000;fill-opacity:1;stroke:none;filter:url(#filter4112)"
         sodipodi:type="arc" />
      <path
         inkscape:connector-curvature="0"
         id="path3936"
         d="m 403.81841,364.71837 36.34563,19.12928 c 0,0 -10.20228,13.39049 -22.95513,12.75286 -12.75285,-0.63765 -13.3905,-33.15743 -13.3905,-31.88214 z"
         style="fill:#eeffaa;fill-rule:evenodd;stroke:#445500;stroke-width:2.5249362;stroke-linecap:butt;stroke-linejoin:miter;stroke-miterlimit:4;stroke-opacity:1;stroke-dasharray:none" />
      <path
         inkscape:connector-curvature="0"
         id="path4136"
         d="m 475,432.36218 17.85714,8.57143"
         style="fill:none;stroke:#668000;stroke-width:2;stroke-linecap:butt;stroke-linejoin:miter;stroke-miterlimit:4;stroke-opacity:1;stroke-dasharray:none" />
      <path
         inkscape:connector-curvature="0"
         id="path4138"
         d="m 482.85714,422.36218 15.71429,10.71429"
         style="fill:none;stroke:#668000;stroke-width:2;stroke-linecap:butt;stroke-linejoin:miter;stroke-miterlimit:4;stroke-opacity:1;stroke-dasharray:none" />
      <path
         inkscape:connector-curvature="0"
         id="path4140"
         d="m 497.14286,410.93361 10,15.71429"
         style="fill:none;stroke:#668000;stroke-width:2;stroke-linecap:butt;stroke-linejoin:miter;stroke-miterlimit:4;stroke-opacity:1;stroke-dasharray:none" />
      <path
         inkscape:connector-curvature="0"
         id="path4142"
         d="m 512.85714,406.6479 2.85715,16.42857"
         style="fill:none;stroke:#668000;stroke-width:2;stroke-linecap:butt;stroke-linejoin:miter;stroke-miterlimit:4;stroke-opacity:1;stroke-dasharray:none" />
      <path
         inkscape:connector-curvature="0"
         id="path4144"
         d="m 527.14286,405.21932 -2.85715,16.42858"
         style="fill:none;stroke:#668000;stroke-width:2;stroke-linecap:butt;stroke-linejoin:miter;stroke-miterlimit:4;stroke-opacity:1;stroke-dasharray:none" />
      <path
         inkscape:connector-curvature="0"
         id="path4146"
         d="m 537.85714,408.07647 -5.71428,15"
         style="fill:none;stroke:#668000;stroke-width:2;stroke-linecap:butt;stroke-linejoin:miter;stroke-miterlimit:4;stroke-opacity:1;stroke-dasharray:none" />
      <path
         inkscape:connector-curvature="0"
         id="path4148"
         d="m 548.57143,415.93361 -10,11.42857"
         style="fill:none;stroke:#668000;stroke-width:2;stroke-linecap:butt;stroke-linejoin:miter;stroke-miterlimit:4;stroke-opacity:1;stroke-dasharray:none" />
      <path
         inkscape:connector-curvature="0"
         id="path4150"
         d="m 554.28571,426.6479 -12.14285,6.42857"
         style="fill:none;stroke:#668000;stroke-width:2;stroke-linecap:butt;stroke-linejoin:miter;stroke-miterlimit:4;stroke-opacity:1;stroke-dasharray:none" />
      <path
         inkscape:connector-curvature="0"
         id="path4152"
         d="M 556.42857,437.36218 545,438.07647"
         style="fill:none;stroke:#668000;stroke-width:2;stroke-linecap:butt;stroke-linejoin:miter;stroke-miterlimit:4;stroke-opacity:1;stroke-dasharray:none" />
      <path
         inkscape:connector-curvature="0"
         id="path4154"
         d="m 553.57143,446.6479 -7.14286,-2.85715"
         style="fill:none;stroke:#668000;stroke-width:2;stroke-linecap:butt;stroke-linejoin:miter;stroke-miterlimit:4;stroke-opacity:1;stroke-dasharray:none" />
      <path
         inkscape:connector-curvature="0"
         id="path4156"
         d="m 477.14286,445.93361 13.57143,0.71429"
         style="fill:none;stroke:#668000;stroke-width:2;stroke-linecap:butt;stroke-linejoin:miter;stroke-miterlimit:4;stroke-opacity:1;stroke-dasharray:none" />
      <path
         inkscape:connector-curvature="0"
         id="path4158"
         d="m 479.28571,453.79075 13.57143,-1.42857"
         style="fill:none;stroke:#668000;stroke-width:2;stroke-linecap:butt;stroke-linejoin:miter;stroke-miterlimit:4;stroke-opacity:1;stroke-dasharray:none" />
      <path
         inkscape:connector-curvature="0"
         id="path4160"
         d="m 421.42857,420.93361 c 0,0 11.42857,55 50,65 38.57143,10 64.28572,-4.28571 64.28572,-4.28571 0,0 -25.71429,11.42857 -66.42858,-3.57143 -40.71428,-15 -47.85714,-58.57143 -47.85714,-57.14286 z"
         style="fill:#e5ff80;fill-rule:evenodd;stroke:none;filter:url(#filter4230)" />
      <path
         inkscape:connector-curvature="0"
         id="path4234"
         d="m 415.71429,370.93361 -5,7.14286"
         style="fill:none;stroke:#668000;stroke-width:3;stroke-linecap:butt;stroke-linejoin:miter;stroke-miterlimit:4;stroke-opacity:1;stroke-dasharray:none" />
      <path
         inkscape:connector-curvature="0"
         id="path4236"
         d="m 429.28571,377.36218 -7.14285,6.42857 0,0 0,-0.71428"
         style="fill:none;stroke:#668000;stroke-width:3;stroke-linecap:butt;stroke-linejoin:miter;stroke-miterlimit:4;stroke-opacity:1;stroke-dasharray:none" />
      <path
         inkscape:connector-curvature="0"
         id="path4238"
         d="m 410.71429,391.6479 5.71428,-12.14286"
         style="fill:none;stroke:#668000;stroke-width:3;stroke-linecap:butt;stroke-linejoin:miter;stroke-miterlimit:4;stroke-opacity:1;stroke-dasharray:none" />
    </g>
  </g>
</svg>
