<?xml version="1.0" encoding="UTF-8" standalone="no"?>
<!-- Created with Inkscape (http://www.inkscape.org/) -->

<svg
   xmlns:dc="http://purl.org/dc/elements/1.1/"
   xmlns:cc="http://creativecommons.org/ns#"
   xmlns:rdf="http://www.w3.org/1999/02/22-rdf-syntax-ns#"
   xmlns:svg="http://www.w3.org/2000/svg"
   xmlns="http://www.w3.org/2000/svg"
   xmlns:sodipodi="http://sodipodi.sourceforge.net/DTD/sodipodi-0.dtd"
   xmlns:inkscape="http://www.inkscape.org/namespaces/inkscape"
   width="272.168"
   height="202.72661"
   id="svg2"
   sodipodi:version="0.32"
   inkscape:version="0.48.1 r9760"
   sodipodi:docname="alicvb_kablam_Number_Animals_30.svg"
   inkscape:output_extension="org.inkscape.output.svg.inkscape"
   version="1.0">
  <defs
     id="defs4">
    <inkscape:perspective
       sodipodi:type="inkscape:persp3d"
       inkscape:vp_x="0 : 526.18109 : 1"
       inkscape:vp_y="0 : 1000 : 0"
       inkscape:vp_z="744.09448 : 526.18109 : 1"
       inkscape:persp3d-origin="372.04724 : 350.78739 : 1"
       id="perspective10" />
    <filter
       inkscape:collect="always"
       id="filter3345"
       x="-0.1685358"
       width="1.3370717"
       y="-0.10605735"
       height="1.2121147"
       color-interpolation-filters="sRGB">
      <feGaussianBlur
         inkscape:collect="always"
         stdDeviation="4.9872207"
         id="feGaussianBlur3347" />
    </filter>
    <filter
       inkscape:collect="always"
       id="filter3427"
       x="-0.096582323"
       width="1.1931646"
       y="-0.22891882"
       height="1.4578376"
       color-interpolation-filters="sRGB">
      <feGaussianBlur
         inkscape:collect="always"
         stdDeviation="5.5205941"
         id="feGaussianBlur3429" />
    </filter>
    <filter
       inkscape:collect="always"
       id="filter3875"
       x="-0.077257492"
       width="1.154515"
       y="-0.14956847"
       height="1.2991369"
       color-interpolation-filters="sRGB">
      <feGaussianBlur
         inkscape:collect="always"
         stdDeviation="3.4826958"
         id="feGaussianBlur3877" />
    </filter>
    <filter
       inkscape:collect="always"
       id="filter3909"
       color-interpolation-filters="sRGB">
      <feGaussianBlur
         inkscape:collect="always"
         stdDeviation="2.8320834"
         id="feGaussianBlur3911" />
    </filter>
    <filter
       inkscape:collect="always"
       id="filter4112"
       x="-0.24339622"
       width="1.4867924"
       y="-0.24339622"
       height="1.4867924"
       color-interpolation-filters="sRGB">
      <feGaussianBlur
         inkscape:collect="always"
         stdDeviation="1.6391155"
         id="feGaussianBlur4114" />
    </filter>
    <filter
       inkscape:collect="always"
       id="filter4230"
       color-interpolation-filters="sRGB">
      <feGaussianBlur
         inkscape:collect="always"
         stdDeviation="2.5878233"
         id="feGaussianBlur4232" />
    </filter>
    <filter
       inkscape:collect="always"
       id="filter4438"
       x="-0.24642596"
       width="1.4928519"
       y="-0.085661612"
       height="1.1713232"
       color-interpolation-filters="sRGB">
      <feGaussianBlur
         inkscape:collect="always"
         stdDeviation="2.680981"
         id="feGaussianBlur4440" />
    </filter>
    <filter
       inkscape:collect="always"
       id="filter4442"
       color-interpolation-filters="sRGB">
      <feGaussianBlur
         inkscape:collect="always"
         stdDeviation="2.680981"
         id="feGaussianBlur4444" />
    </filter>
    <filter
       inkscape:collect="always"
       id="filter4570"
       x="-0.38401869"
       width="1.7680374"
       y="-0.1889251"
       height="1.3778502"
       color-interpolation-filters="sRGB">
      <feGaussianBlur
         inkscape:collect="always"
         stdDeviation="3.317435"
         id="feGaussianBlur4572" />
    </filter>
    <filter
       inkscape:collect="always"
       id="filter4574"
       x="-0.22601227"
       width="1.4520245"
       y="-0.11123173"
       height="1.2224635"
       color-interpolation-filters="sRGB">
      <feGaussianBlur
         inkscape:collect="always"
         stdDeviation="3.317435"
         id="feGaussianBlur4576" />
    </filter>
    <filter
       inkscape:collect="always"
       id="filter4951"
       x="-0.46415094"
       width="1.9283019"
       y="-0.46415094"
       height="1.9283019"
       color-interpolation-filters="sRGB">
      <feGaussianBlur
         inkscape:collect="always"
         stdDeviation="3.0280753"
         id="feGaussianBlur4953" />
    </filter>
    <filter
       inkscape:collect="always"
       id="filter5047"
       x="-0.11380523"
       width="1.2276105"
       y="-0.048408564"
       height="1.0968171"
       color-interpolation-filters="sRGB">
      <feGaussianBlur
         inkscape:collect="always"
         stdDeviation="2.276355"
         id="feGaussianBlur5049" />
    </filter>
    <filter
       inkscape:collect="always"
       id="filter5109"
       color-interpolation-filters="sRGB">
      <feGaussianBlur
         inkscape:collect="always"
         stdDeviation="2.5194836"
         id="feGaussianBlur5111" />
    </filter>
    <filter
       inkscape:collect="always"
       id="filter5207"
       x="-0.17798477"
       width="1.3559695"
       y="-0.065937594"
       height="1.1318752"
       color-interpolation-filters="sRGB">
      <feGaussianBlur
         inkscape:collect="always"
         stdDeviation="3.2587653"
         id="feGaussianBlur5209" />
    </filter>
  </defs>
  <sodipodi:namedview
     id="base"
     pagecolor="#ffffff"
     bordercolor="#666666"
     borderopacity="1.0"
     gridtolerance="10000"
     guidetolerance="10"
     objecttolerance="10"
     inkscape:pageopacity="0.0"
     inkscape:pageshadow="2"
     inkscape:zoom="0.35"
     inkscape:cx="-1693.2258"
     inkscape:cy="-133.98502"
     inkscape:document-units="px"
     inkscape:current-layer="layer1"
     showgrid="false"
     inkscape:window-width="1680"
     inkscape:window-height="1026"
     inkscape:window-x="0"
     inkscape:window-y="0"
     inkscape:window-maximized="1"
     fit-margin-top="0"
     fit-margin-left="0"
     fit-margin-right="0"
     fit-margin-bottom="0" />
  <metadata
     id="metadata7">
    <rdf:RDF>
      <cc:Work
         rdf:about="">
        <dc:format>image/svg+xml</dc:format>
        <dc:type
           rdf:resource="http://purl.org/dc/dcmitype/StillImage" />
        <dc:title></dc:title>
      </cc:Work>
    </rdf:RDF>
  </metadata>
  <g
     inkscape:label="Layer 1"
     inkscape:groupmode="layer"
     id="layer1"
     transform="translate(-1255.314,-580.18451)">
    <g
       id="g3684"
       transform="matrix(0.9023628,0,0,0.9023628,1211.6878,327.35248)">
      <g
         transform="matrix(1.0302015,0,0,1.0302015,-58.857086,-41.078618)"
         id="g3665">
        <path
           inkscape:connector-curvature="0"
           style="fill:#0088aa;fill-rule:evenodd;stroke:#006680;stroke-width:3;stroke-linecap:butt;stroke-linejoin:miter;stroke-miterlimit:4;stroke-opacity:1;stroke-dasharray:none"
           d="m 124.24604,321.02174 -12.125,156.5625 67.25,1.53125 c -1.25025,21.12013 -12.08441,43.03003 -13.91071,48.50893 l 40.13839,0 -8.66518,-48.10268 47.53125,1.09375 -3.03125,-51.53125 -41.1875,6.9375 13.84375,-45.02679 -40.53571,1.91965 c 0,0 8.75332,22.48472 7.78571,46.29464 l -41.9375,7.0625 38.375,-124.25 -53.53125,-1 z"
           id="path3630"
           sodipodi:nodetypes="ccccccccccccccc" />
        <path
           sodipodi:type="arc"
           style="fill:#d5f6ff;fill-opacity:1;stroke:#006680;stroke-width:3;stroke-miterlimit:4;stroke-opacity:1;stroke-dasharray:none;stroke-dashoffset:0"
           id="path3635"
           sodipodi:cx="168.69548"
           sodipodi:cy="351.31631"
           sodipodi:rx="17.172594"
           sodipodi:ry="17.172594"
           d="m 185.86807,351.31689 c -3.1e-4,9.48416 -7.689,17.17234 -17.17316,17.17202 -9.48416,-3.2e-4 -17.17234,-7.68901 -17.17202,-17.17317 3.1e-4,-9.48416 7.689,-17.17234 17.17316,-17.17202 9.48416,3.2e-4 17.17234,7.68901 17.17202,17.17317"
           sodipodi:start="3.3369056e-05"
           sodipodi:end="6.2832186"
           sodipodi:open="true" />
        <path
           sodipodi:open="true"
           sodipodi:end="6.2832186"
           sodipodi:start="3.3369056e-05"
           d="m 185.86807,351.31689 c -3.1e-4,9.48416 -7.689,17.17234 -17.17316,17.17202 -9.48416,-3.2e-4 -17.17234,-7.68901 -17.17202,-17.17317 3.1e-4,-9.48416 7.689,-17.17234 17.17316,-17.17202 9.48416,3.2e-4 17.17234,7.68901 17.17202,17.17317"
           sodipodi:ry="17.172594"
           sodipodi:rx="17.172594"
           sodipodi:cy="351.31631"
           sodipodi:cx="168.69548"
           id="path3637"
           style="fill:#d5f6ff;fill-opacity:1;stroke:#006680;stroke-width:3;stroke-miterlimit:4;stroke-opacity:1;stroke-dasharray:none;stroke-dashoffset:0"
           sodipodi:type="arc"
           transform="matrix(0.8377056,0,0,0.8377056,-9.9973108,56.511598)" />
        <path
           inkscape:connector-curvature="0"
           style="fill:#d5f6ff;fill-rule:evenodd;stroke:#004455;stroke-width:3;stroke-linecap:butt;stroke-linejoin:miter;stroke-miterlimit:4;stroke-opacity:1;stroke-dasharray:none"
           d="m 105.56094,375.0549 44.95179,0 c 0,0 -14.64721,19.1929 -27.27412,19.1929 -12.62691,0 -17.17259,-18.18275 -17.67767,-19.1929 z"
           id="path3639" />
        <path
           sodipodi:type="arc"
           style="fill:#004455;fill-opacity:1;stroke:none"
           id="path3641"
           sodipodi:cx="170.46324"
           sodipodi:cy="351.56885"
           sodipodi:rx="8.3337584"
           sodipodi:ry="8.3337584"
           d="m 178.797,351.56913 c -1.5e-4,4.6026 -3.73143,8.33363 -8.33404,8.33348 -4.6026,-1.6e-4 -8.33363,-3.73143 -8.33348,-8.33404 1.6e-4,-4.60261 3.73143,-8.33363 8.33404,-8.33348 4.60261,1.5e-4 8.33363,3.73143 8.33348,8.33404"
           sodipodi:start="3.3369056e-05"
           sodipodi:end="6.2832186"
           sodipodi:open="true" />
        <path
           sodipodi:open="true"
           sodipodi:end="6.2832186"
           sodipodi:start="3.3369056e-05"
           d="m 178.797,351.56913 c -1.5e-4,4.6026 -3.73143,8.33363 -8.33404,8.33348 -4.6026,-1.6e-4 -8.33363,-3.73143 -8.33348,-8.33404 1.6e-4,-4.60261 3.73143,-8.33363 8.33404,-8.33348 4.60261,1.5e-4 8.33363,3.73143 8.33348,8.33404"
           sodipodi:ry="8.3337584"
           sodipodi:rx="8.3337584"
           sodipodi:cy="351.56885"
           sodipodi:cx="170.46324"
           id="path3643"
           style="fill:#004455;fill-opacity:1;stroke:none"
           sodipodi:type="arc"
           transform="matrix(0.8030303,0,0,0.8030303,-8.2189677,68.364527)" />
        <g
           id="g3649">
          <path
             sodipodi:open="true"
             sodipodi:end="6.2832186"
             sodipodi:start="3.3369056e-05"
             d="m 174.25132,350.93763 c -8e-5,2.16183 -1.75264,3.91428 -3.91448,3.91421 -2.16183,-7e-5 -3.91428,-1.75264 -3.91421,-3.91447 8e-5,-2.16183 1.75264,-3.91428 3.91448,-3.91421 2.16183,7e-5 3.91428,1.75264 3.91421,3.91447"
             sodipodi:ry="3.9143412"
             sodipodi:rx="3.9143412"
             sodipodi:cy="350.9375"
             sodipodi:cx="170.33698"
             id="path3645"
             style="fill:#00222b;fill-opacity:1;stroke:none"
             sodipodi:type="arc" />
          <path
             sodipodi:open="true"
             sodipodi:end="6.2832186"
             sodipodi:start="3.3369056e-05"
             d="m 174.50385,348.66473 c -3e-5,0.90657 -0.73498,1.64147 -1.64155,1.64144 -0.90658,-3e-5 -1.64148,-0.73498 -1.64145,-1.64155 3e-5,-0.90658 0.73498,-1.64148 1.64156,-1.64144 0.90657,3e-5 1.64147,0.73497 1.64144,1.64155"
             sodipodi:ry="1.6414979"
             sodipodi:rx="1.6414979"
             sodipodi:cy="348.66467"
             sodipodi:cx="172.86235"
             id="path3647"
             style="fill:#aaeeff;fill-opacity:1;stroke:none"
             sodipodi:type="arc" />
        </g>
        <g
           id="g3653"
           transform="matrix(0.7096774,0,0,0.7096774,7.6576075,101.50627)">
          <path
             sodipodi:type="arc"
             style="fill:#00222b;fill-opacity:1;stroke:none"
             id="path3655"
             sodipodi:cx="170.33698"
             sodipodi:cy="350.9375"
             sodipodi:rx="3.9143412"
             sodipodi:ry="3.9143412"
             d="m 174.25132,350.93763 c -8e-5,2.16183 -1.75264,3.91428 -3.91448,3.91421 -2.16183,-7e-5 -3.91428,-1.75264 -3.91421,-3.91447 8e-5,-2.16183 1.75264,-3.91428 3.91448,-3.91421 2.16183,7e-5 3.91428,1.75264 3.91421,3.91447"
             sodipodi:start="3.3369056e-05"
             sodipodi:end="6.2832186"
             sodipodi:open="true" />
          <path
             sodipodi:type="arc"
             style="fill:#aaeeff;fill-opacity:1;stroke:none"
             id="path3657"
             sodipodi:cx="172.86235"
             sodipodi:cy="348.66467"
             sodipodi:rx="1.6414979"
             sodipodi:ry="1.6414979"
             d="m 174.50385,348.66473 c -3e-5,0.90657 -0.73498,1.64147 -1.64155,1.64144 -0.90658,-3e-5 -1.64148,-0.73498 -1.64145,-1.64155 3e-5,-0.90658 0.73498,-1.64148 1.64156,-1.64144 0.90657,3e-5 1.64147,0.73497 1.64144,1.64155"
             sodipodi:start="3.3369056e-05"
             sodipodi:end="6.2832186"
             sodipodi:open="true" />
        </g>
        <path
           inkscape:connector-curvature="0"
           style="fill:none;stroke:#0088aa;stroke-width:3;stroke-linecap:butt;stroke-linejoin:miter;stroke-miterlimit:4;stroke-opacity:1;stroke-dasharray:none"
           d="m 117.5,375.21932 0,7.14286"
           id="path3659" />
        <path
           inkscape:connector-curvature="0"
           id="path3661"
           d="m 133.39286,375.39789 0,7.14286"
           style="fill:none;stroke:#0088aa;stroke-width:3;stroke-linecap:butt;stroke-linejoin:miter;stroke-miterlimit:4;stroke-opacity:1;stroke-dasharray:none" />
        <path
           inkscape:connector-curvature="0"
           style="fill:none;stroke:#0088aa;stroke-width:3;stroke-linecap:butt;stroke-linejoin:miter;stroke-miterlimit:4;stroke-opacity:1;stroke-dasharray:none"
           d="m 123.39286,382.29012 0,11.21554"
           id="path3663" />
      </g>
      <path
         inkscape:connector-curvature="0"
         id="path3682"
         d="m 100,450.93361 c 0,0 32.85714,0 43.57143,-11.42857 10.71428,-11.42857 -6.42857,-22.85714 -15,-20 -8.57143,2.85714 -10.71429,14.28571 -5,17.14286 5.71428,2.85714 13.57143,0 12.85714,-5.71429 -0.71428,-5.71429 -8.57143,-1.42857 -8.57143,-1.42857"
         style="fill:none;stroke:#006680;stroke-width:2;stroke-linecap:butt;stroke-linejoin:miter;stroke-miterlimit:4;stroke-opacity:1;stroke-dasharray:none" />
    </g>
    <g
       id="g5241"
       transform="matrix(0.9023628,0,0,0.9023628,1111.2821,-152.9462)">
      <path
         sodipodi:type="arc"
         style="fill:#ffd5d5;fill-opacity:1;stroke:#a02c2c;stroke-width:3;stroke-miterlimit:4;stroke-opacity:1;stroke-dasharray:none;stroke-dashoffset:0"
         id="path5213"
         sodipodi:cx="341.42856"
         sodipodi:cy="979.50507"
         sodipodi:rx="15"
         sodipodi:ry="15"
         d="m 356.42856,979.50557 c -2.8e-4,8.28427 -6.71623,14.99977 -15.0005,14.9995 -8.28427,-2.8e-4 -14.99978,-6.71623 -14.9995,-15.0005 2.7e-4,-8.28428 6.71623,-14.99978 15.0005,-14.9995 8.28427,2.7e-4 14.99977,6.71622 14.9995,15.0005"
         sodipodi:start="3.3369056e-05"
         sodipodi:end="6.2832186"
         sodipodi:open="true"
         transform="matrix(0.8154982,0,0,0.8154982,43.508169,195.93729)" />
      <path
         sodipodi:type="arc"
         style="fill:#782121;fill-opacity:1;stroke:none"
         id="path5219"
         sodipodi:cx="347.85715"
         sodipodi:cy="985.93359"
         sodipodi:rx="7.8571429"
         sodipodi:ry="7.8571429"
         d="m 355.71429,985.93386 c -1.4e-4,4.33938 -3.51802,7.85702 -7.8574,7.85688 -4.33939,-1.5e-4 -7.85703,-3.51803 -7.85689,-7.85741 1.5e-4,-4.33938 3.51803,-7.85702 7.85741,-7.85688 4.33938,1.5e-4 7.85702,3.51803 7.85688,7.85741"
         sodipodi:start="3.3369056e-05"
         sodipodi:end="6.2832186"
         sodipodi:open="true"
         transform="matrix(0.8409091,0,0,0.8409091,26.233766,166.85307)" />
      <path
         transform="matrix(0.401343,0,0,0.401343,179.13998,600.23606)"
         sodipodi:open="true"
         sodipodi:end="6.2832186"
         sodipodi:start="3.3369056e-05"
         d="m 355.71429,985.93386 c -1.4e-4,4.33938 -3.51802,7.85702 -7.8574,7.85688 -4.33939,-1.5e-4 -7.85703,-3.51803 -7.85689,-7.85741 1.5e-4,-4.33938 3.51803,-7.85702 7.85741,-7.85688 4.33938,1.5e-4 7.85702,3.51803 7.85688,7.85741"
         sodipodi:ry="7.8571429"
         sodipodi:rx="7.8571429"
         sodipodi:cy="985.93359"
         sodipodi:cx="347.85715"
         id="path5221"
         style="fill:#280b0b;fill-opacity:1;stroke:none"
         sodipodi:type="arc" />
      <path
         inkscape:connector-curvature="0"
         id="path5066"
         d="m 389.53125,813.96875 c -3.36408,0.0597 -6.60508,0.31684 -9.71875,0.5 0,0 -49.26265,11.73414 -59.8125,68 -10.54986,56.26587 -5.85103,99.6477 19.9375,130.12505 25.78851,30.4774 73.8531,29.3037 96.125,4.6874 22.2719,-24.61624 33.99066,-70.33983 11.71875,-139.49995 -18.79191,-58.35383 -40.08396,-64.1351 -58.25,-63.8125 z m 1.15625,65.125 c 6.27004,-0.2555 26.25919,6.9789 31.5625,30.84375 6.06092,27.27412 12.12023,62.62818 -6.0625,74.75 -18.18275,12.12183 -46.4797,8.07946 -48.5,-46.46875 -2.02031,-54.54823 19.19845,-56.06837 21.21875,-58.59375 0.25254,-0.31567 0.88553,-0.49475 1.78125,-0.53125 z"
         style="fill:#ff5555;fill-rule:evenodd;stroke:#c83737;stroke-width:3;stroke-linecap:butt;stroke-linejoin:miter;stroke-miterlimit:4;stroke-opacity:1;stroke-dasharray:none" />
      <path
         inkscape:connector-curvature="0"
         id="path5071"
         d="m 360.71429,830.21933 c 0,0 -31.42858,16.42857 -35.71429,64.28571 -4.28571,47.85714 -2.14286,78.57143 13.57143,107.85716 15.71428,29.2857 51.42857,27.8571 51.42857,27.8571 0,0 -45,5.7143 -53.57143,-57.85712 -8.57143,-63.57143 5.71429,-105.71428 11.42857,-117.14285 5.71429,-11.42858 14.28572,-25 12.85715,-25 z"
         style="fill:#ff8080;fill-rule:evenodd;stroke:none;filter:url(#filter5109)" />
      <path
         inkscape:connector-curvature="0"
         id="path5113"
         d="m 395,871.6479 c 0,0 23.57143,9.28571 30.71428,32.85714 7.14286,23.57143 9.28572,47.85714 7.85715,57.14286 -1.42857,9.28571 -6.42857,17.85714 -11.42857,20.71428 -5,2.85714 -13.57143,7.85714 -13.57143,7.85714 0,0 34.28571,3.57143 30,-55.71428 C 434.28571,875.21932 412.14286,873.07647 395,871.6479 z"
         style="fill:#c83737;fill-rule:evenodd;stroke:none;filter:url(#filter5207)" />
      <path
         transform="matrix(0.95671,0,0,0.95671,21.923313,53.831385)"
         sodipodi:open="true"
         sodipodi:end="6.2832186"
         sodipodi:start="3.3369056e-05"
         d="m 356.42856,979.50557 c -2.8e-4,8.28427 -6.71623,14.99977 -15.0005,14.9995 -8.28427,-2.8e-4 -14.99978,-6.71623 -14.9995,-15.0005 2.7e-4,-8.28428 6.71623,-14.99978 15.0005,-14.9995 8.28427,2.7e-4 14.99977,6.71622 14.9995,15.0005"
         sodipodi:ry="15"
         sodipodi:rx="15"
         sodipodi:cy="979.50507"
         sodipodi:cx="341.42856"
         id="path5211"
         style="fill:#ffd5d5;fill-opacity:1;stroke:#a02c2c;stroke-width:3;stroke-miterlimit:4;stroke-opacity:1;stroke-dasharray:none;stroke-dashoffset:0"
         sodipodi:type="arc" />
      <path
         transform="translate(3.5714286,6.7857143)"
         sodipodi:open="true"
         sodipodi:end="6.2832186"
         sodipodi:start="3.3369056e-05"
         d="m 355.71429,985.93386 c -1.4e-4,4.33938 -3.51802,7.85702 -7.8574,7.85688 -4.33939,-1.5e-4 -7.85703,-3.51803 -7.85689,-7.85741 1.5e-4,-4.33938 3.51803,-7.85702 7.85741,-7.85688 4.33938,1.5e-4 7.85702,3.51803 7.85688,7.85741"
         sodipodi:ry="7.8571429"
         sodipodi:rx="7.8571429"
         sodipodi:cy="985.93359"
         sodipodi:cx="347.85715"
         id="path5215"
         style="fill:#782121;fill-opacity:1;stroke:none"
         sodipodi:type="arc" />
      <path
         sodipodi:type="arc"
         style="fill:#280b0b;fill-opacity:1;stroke:none"
         id="path5217"
         sodipodi:cx="347.85715"
         sodipodi:cy="985.93359"
         sodipodi:rx="7.8571429"
         sodipodi:ry="7.8571429"
         d="m 355.71429,985.93386 c -1.4e-4,4.33938 -3.51802,7.85702 -7.8574,7.85688 -4.33939,-1.5e-4 -7.85703,-3.51803 -7.85689,-7.85741 1.5e-4,-4.33938 3.51803,-7.85702 7.85741,-7.85688 4.33938,1.5e-4 7.85702,3.51803 7.85688,7.85741"
         sodipodi:start="3.3369056e-05"
         sodipodi:end="6.2832186"
         sodipodi:open="true"
         transform="matrix(0.4772727,0,0,0.4772727,185.40585,522.16009)" />
      <path
         inkscape:connector-curvature="0"
         sodipodi:nodetypes="cscc"
         id="path5223"
         d="m 346.42857,1019.505 c 0,0 15.71429,1.4286 22.85715,-5 7.14285,-6.4285 7.14285,-24.28567 7.14285,-24.28567 l 0.71429,-1.42858"
         style="fill:none;stroke:#501616;stroke-width:3;stroke-linecap:butt;stroke-linejoin:miter;stroke-miterlimit:4;stroke-opacity:1;stroke-dasharray:none" />
      <path
         inkscape:connector-curvature="0"
         id="path5225"
         d="m 315,925.21933 c 0,0 22.14286,-2.85715 30.71429,-0.71429 8.57142,2.14286 12.14285,5 12.14285,5"
         style="fill:none;stroke:#c83737;stroke-width:3;stroke-linecap:butt;stroke-linejoin:miter;stroke-miterlimit:4;stroke-opacity:1;stroke-dasharray:none" />
      <path
         inkscape:connector-curvature="0"
         id="path5227"
         d="m 317.85714,905.93361 c 0,0 23.57143,-4.28571 31.42857,-2.14286 7.85715,2.14286 11.42858,5.71429 11.42858,5.71429"
         style="fill:none;stroke:#c83737;stroke-width:3;stroke-linecap:butt;stroke-linejoin:miter;stroke-miterlimit:4;stroke-opacity:1;stroke-dasharray:none" />
      <path
         inkscape:connector-curvature="0"
         id="path5229"
         d="m 321.42857,883.79075 c 0,0 25,-5 32.14286,-2.14285 7.14286,2.85714 8.57143,5 8.57143,5"
         style="fill:none;stroke:#c83737;stroke-width:3;stroke-linecap:butt;stroke-linejoin:miter;stroke-miterlimit:4;stroke-opacity:1;stroke-dasharray:none" />
      <path
         inkscape:connector-curvature="0"
         id="path5231"
         d="m 327.14286,861.6479 c 0,0 17.85714,-5.71429 24.28571,-5 6.42857,0.71428 15.71429,9.28571 15.71429,9.28571"
         style="fill:none;stroke:#c83737;stroke-width:3;stroke-linecap:butt;stroke-linejoin:miter;stroke-miterlimit:4;stroke-opacity:1;stroke-dasharray:none" />
      <path
         inkscape:connector-curvature="0"
         id="path5233"
         d="m 341.42857,840.93361 c 0,0 10,-9.28571 22.85714,-0.71428 12.85715,8.57142 14.28572,15.71428 14.28572,15.71428"
         style="fill:none;stroke:#c83737;stroke-width:3;stroke-linecap:butt;stroke-linejoin:miter;stroke-miterlimit:4;stroke-opacity:1;stroke-dasharray:none" />
      <path
         inkscape:connector-curvature="0"
         id="path5235"
         d="m 367.14286,820.93361 c 0,0 15,1.42857 22.14285,8.57143 7.14286,7.14286 7.14286,17.85714 7.14286,17.85714"
         style="fill:none;stroke:#c83737;stroke-width:3;stroke-linecap:butt;stroke-linejoin:miter;stroke-miterlimit:4;stroke-opacity:1;stroke-dasharray:none" />
      <path
         inkscape:connector-curvature="0"
         id="path5239"
         d="m 315.71429,948.79075 c 0,0 22.85714,-7.14285 30,-7.14285 7.14285,0 13.57142,7.14285 13.57142,7.14285"
         style="fill:none;stroke:#c83737;stroke-width:3;stroke-linecap:butt;stroke-linejoin:miter;stroke-miterlimit:4;stroke-opacity:1;stroke-dasharray:none" />
    </g>
  </g>
</svg>
