<?xml version="1.0" encoding="UTF-8" standalone="no"?>
<!-- Created with Inkscape (http://www.inkscape.org/) -->

<svg
   xmlns:dc="http://purl.org/dc/elements/1.1/"
   xmlns:cc="http://creativecommons.org/ns#"
   xmlns:rdf="http://www.w3.org/1999/02/22-rdf-syntax-ns#"
   xmlns:svg="http://www.w3.org/2000/svg"
   xmlns="http://www.w3.org/2000/svg"
   xmlns:sodipodi="http://sodipodi.sourceforge.net/DTD/sodipodi-0.dtd"
   xmlns:inkscape="http://www.inkscape.org/namespaces/inkscape"
   width="417.48785"
   height="206.94705"
   id="svg2"
   sodipodi:version="0.32"
   inkscape:version="0.48.1 r9760"
   sodipodi:docname="alicvb_kablam_Number_Animals_10.svg"
   inkscape:output_extension="org.inkscape.output.svg.inkscape"
   version="1.0">
  <defs
     id="defs4">
    <inkscape:perspective
       sodipodi:type="inkscape:persp3d"
       inkscape:vp_x="0 : 526.18109 : 1"
       inkscape:vp_y="0 : 1000 : 0"
       inkscape:vp_z="744.09448 : 526.18109 : 1"
       inkscape:persp3d-origin="372.04724 : 350.78739 : 1"
       id="perspective10" />
    <filter
       inkscape:collect="always"
       id="filter5109"
       color-interpolation-filters="sRGB">
      <feGaussianBlur
         inkscape:collect="always"
         stdDeviation="2.5194836"
         id="feGaussianBlur5111" />
    </filter>
    <filter
       inkscape:collect="always"
       id="filter5207"
       x="-0.17798477"
       width="1.3559695"
       y="-0.065937594"
       height="1.1318752"
       color-interpolation-filters="sRGB">
      <feGaussianBlur
         inkscape:collect="always"
         stdDeviation="3.2587653"
         id="feGaussianBlur5209" />
    </filter>
    <filter
       inkscape:collect="always"
       id="filter5109-8"
       color-interpolation-filters="sRGB">
      <feGaussianBlur
         inkscape:collect="always"
         stdDeviation="2.5194836"
         id="feGaussianBlur5111-3" />
    </filter>
    <filter
       inkscape:collect="always"
       id="filter5207-3"
       x="-0.17798477"
       width="1.3559695"
       y="-0.065937594"
       height="1.1318752"
       color-interpolation-filters="sRGB">
      <feGaussianBlur
         inkscape:collect="always"
         stdDeviation="3.2587653"
         id="feGaussianBlur5209-3" />
    </filter>
  </defs>
  <sodipodi:namedview
     id="base"
     pagecolor="#ffffff"
     bordercolor="#666666"
     borderopacity="1.0"
     gridtolerance="10000"
     guidetolerance="10"
     objecttolerance="10"
     inkscape:pageopacity="0.0"
     inkscape:pageshadow="2"
     inkscape:zoom="0.35"
     inkscape:cx="-1069.4416"
     inkscape:cy="108.62506"
     inkscape:document-units="px"
     inkscape:current-layer="layer1"
     showgrid="false"
     inkscape:window-width="1336"
     inkscape:window-height="925"
     inkscape:window-x="0"
     inkscape:window-y="0"
     inkscape:window-maximized="0"
     fit-margin-top="0"
     fit-margin-left="0"
     fit-margin-right="0"
     fit-margin-bottom="0" />
  <metadata
     id="metadata7">
    <rdf:RDF>
      <cc:Work
         rdf:about="">
        <dc:format>image/svg+xml</dc:format>
        <dc:type
           rdf:resource="http://purl.org/dc/dcmitype/StillImage" />
        <dc:title></dc:title>
      </cc:Work>
    </rdf:RDF>
  </metadata>
  <g
     inkscape:label="Layer 1"
     inkscape:groupmode="layer"
     id="layer1"
     transform="translate(-884.79137,-648.75594)">
    <g
       id="g3226"
       transform="matrix(0.6782175,0,0,0.6782175,794.73378,527.95157)">
      <path
         inkscape:connector-curvature="0"
         id="path3159"
         d="m 154.28571,277.36218 c 0,0 -10,7.14286 -7.14285,17.85714 2.85714,10.71429 10.71428,9.28572 10.71428,13.57143 0,4.28572 -5.71428,8.57143 -5.71428,8.57143 0,0 10,-2.14286 10,-7.85714 0,-5.71429 8.57143,-0.71429 8.57143,-0.71429 0,0 -5.71429,-5.71428 -11.42858,-7.14285 -5.71428,-1.42858 -7.85714,-7.14286 -7.14285,-12.85715 0.71428,-5.71428 6.42857,-5.71428 6.42857,-5.71428 l -4.28572,-5.71429 z"
         style="fill:#ff2a2a;fill-rule:evenodd;stroke:none" />
      <path
         inkscape:connector-curvature="0"
         sodipodi:nodetypes="cccccccccccc"
         id="path2383"
         d="m 134.28571,250.93361 40,52.85714 40,-33.57143 -7.14285,146.42858 -54.28572,-5.71429 0,61.42857 161.42857,0 -10,-68.57143 L 260,409.50504 287.14286,213.79076 231.42857,195.21933 134.28571,250.93361 z"
         style="fill:#88aa00;fill-rule:evenodd;stroke:#668000;stroke-width:3;stroke-linecap:butt;stroke-linejoin:miter;stroke-miterlimit:4;stroke-opacity:1;stroke-dasharray:none" />
      <path
         transform="translate(-7.8571429,-12.857143)"
         sodipodi:open="true"
         sodipodi:end="6.2832186"
         sodipodi:start="3.3369056e-05"
         d="m 235,223.07708 c -3.4e-4,10.25672 -8.31533,18.57115 -18.57205,18.57081 -10.25671,-3.4e-4 -18.57115,-8.31533 -18.5708,-18.57205 3.4e-4,-10.25671 8.31533,-18.57115 18.57204,-18.57081 10.25672,3.5e-4 18.57115,8.31533 18.57081,18.57205"
         sodipodi:ry="18.571428"
         sodipodi:rx="18.571428"
         sodipodi:cy="223.07646"
         sodipodi:cx="216.42857"
         id="path3155"
         style="fill:#e6e6e6;fill-opacity:1;stroke:#668000;stroke-width:3;stroke-miterlimit:4;stroke-opacity:1;stroke-dasharray:none;stroke-dashoffset:0"
         sodipodi:type="arc" />
      <path
         transform="matrix(1.1779359,0,0,1.1779359,-7.7961385,-28.264744)"
         sodipodi:open="true"
         sodipodi:end="6.2832186"
         sodipodi:start="3.3369056e-05"
         d="m 235,223.07708 c -3.4e-4,10.25672 -8.31533,18.57115 -18.57205,18.57081 -10.25671,-3.4e-4 -18.57115,-8.31533 -18.5708,-18.57205 3.4e-4,-10.25671 8.31533,-18.57115 18.57204,-18.57081 10.25672,3.5e-4 18.57115,8.31533 18.57081,18.57205"
         sodipodi:ry="18.571428"
         sodipodi:rx="18.571428"
         sodipodi:cy="223.07646"
         sodipodi:cx="216.42857"
         id="path3157"
         style="fill:#e6e6e6;fill-opacity:1;stroke:#668000;stroke-width:3;stroke-miterlimit:4;stroke-opacity:1;stroke-dasharray:none;stroke-dashoffset:0"
         sodipodi:type="arc" />
      <path
         inkscape:connector-curvature="0"
         id="path3161"
         d="m 145.71429,243.79075 27.85714,34.28572"
         style="fill:none;stroke:#668000;stroke-width:2;stroke-linecap:butt;stroke-linejoin:miter;stroke-miterlimit:4;stroke-opacity:1;stroke-dasharray:none" />
      <path
         inkscape:connector-curvature="0"
         id="path3163"
         d="m 160.71429,234.50504 22.14285,30.71428"
         style="fill:none;stroke:#668000;stroke-width:2;stroke-linecap:butt;stroke-linejoin:miter;stroke-miterlimit:4;stroke-opacity:1;stroke-dasharray:none" />
      <path
         inkscape:connector-curvature="0"
         id="path3165"
         d="m 175.71429,226.6479 22.85714,28.57142"
         style="fill:none;stroke:#668000;stroke-width:2;stroke-linecap:butt;stroke-linejoin:miter;stroke-miterlimit:4;stroke-opacity:1;stroke-dasharray:none" />
      <path
         inkscape:connector-curvature="0"
         id="path3167"
         d="m 242.85714,287.36218 c 2.85715,0 35.71429,0 35.71429,0"
         style="fill:none;stroke:#668000;stroke-width:2;stroke-linecap:butt;stroke-linejoin:miter;stroke-miterlimit:4;stroke-opacity:1;stroke-dasharray:none" />
      <path
         inkscape:connector-curvature="0"
         id="path3169"
         d="m 249.28571,303.79075 25,-0.71428 0,0 0,0"
         style="fill:none;stroke:#668000;stroke-width:2;stroke-linecap:butt;stroke-linejoin:miter;stroke-miterlimit:4;stroke-opacity:1;stroke-dasharray:none" />
      <path
         inkscape:connector-curvature="0"
         id="path3171"
         d="m 236.42857,319.50504 37.14286,0"
         style="fill:none;stroke:#668000;stroke-width:2;stroke-linecap:butt;stroke-linejoin:miter;stroke-miterlimit:4;stroke-opacity:1;stroke-dasharray:none" />
      <path
         inkscape:connector-curvature="0"
         id="path3173"
         d="m 241.42857,335.21932 29.28572,1.42858"
         style="fill:none;stroke:#668000;stroke-width:2;stroke-linecap:butt;stroke-linejoin:miter;stroke-miterlimit:4;stroke-opacity:1;stroke-dasharray:none" />
      <path
         inkscape:connector-curvature="0"
         id="path3175"
         d="m 235,350.93361 c 3.57143,0 34.28571,0.71429 34.28571,0.71429 l 0,0 0,0"
         style="fill:none;stroke:#668000;stroke-width:2;stroke-linecap:butt;stroke-linejoin:miter;stroke-miterlimit:4;stroke-opacity:1;stroke-dasharray:none" />
      <path
         inkscape:connector-curvature="0"
         id="path3177"
         d="m 243.57143,363.79075 24.28571,0"
         style="fill:none;stroke:#668000;stroke-width:2;stroke-linecap:butt;stroke-linejoin:miter;stroke-miterlimit:4;stroke-opacity:1;stroke-dasharray:none" />
      <path
         inkscape:connector-curvature="0"
         id="path3179"
         d="m 232.14286,380.93361 32.14285,-2.14286"
         style="fill:none;stroke:#668000;stroke-width:2;stroke-linecap:butt;stroke-linejoin:miter;stroke-miterlimit:4;stroke-opacity:1;stroke-dasharray:none" />
      <path
         inkscape:connector-curvature="0"
         id="path3181"
         d="m 238.57143,393.07647 22.14286,-0.71429"
         style="fill:none;stroke:#668000;stroke-width:2;stroke-linecap:butt;stroke-linejoin:miter;stroke-miterlimit:4;stroke-opacity:1;stroke-dasharray:none" />
      <g
         transform="matrix(0.8514851,0,0,0.8514851,3.178926,9.3041433)"
         id="g3189">
        <path
           sodipodi:type="arc"
           style="fill:#445500;fill-opacity:1;stroke:#222b00;stroke-width:2;stroke-miterlimit:4;stroke-opacity:1;stroke-dasharray:none;stroke-dashoffset:0"
           id="path3183"
           sodipodi:cx="246.25"
           sodipodi:cy="232.18361"
           sodipodi:rx="9.8214283"
           sodipodi:ry="9.8214283"
           d="m 256.07143,232.18394 c -1.8e-4,5.42422 -4.39753,9.82128 -9.82176,9.8211 -5.42422,-1.8e-4 -9.82128,-4.39753 -9.8211,-9.82176 1.8e-4,-5.42422 4.39753,-9.82128 9.82176,-9.8211 5.42422,1.8e-4 9.82128,4.39753 9.8211,9.82176"
           sodipodi:start="3.3369056e-05"
           sodipodi:end="6.2832186"
           sodipodi:open="true" />
        <path
           sodipodi:type="arc"
           style="fill:#222b00;fill-opacity:1;stroke:none"
           id="path3185"
           sodipodi:cx="246.25"
           sodipodi:cy="232.18361"
           sodipodi:rx="4.1071429"
           sodipodi:ry="4.1071429"
           d="m 250.35714,232.18375 c -7e-5,2.26831 -1.83896,4.10708 -4.10728,4.107 -2.26831,-7e-5 -4.10708,-1.83897 -4.107,-4.10728 7e-5,-2.26831 1.83896,-4.10708 4.10728,-4.107 2.26831,7e-5 4.10708,1.83896 4.107,4.10728"
           sodipodi:start="3.3369056e-05"
           sodipodi:end="6.2832186"
           sodipodi:open="true" />
        <path
           sodipodi:type="arc"
           style="fill:#cdde87;fill-opacity:1;stroke:none"
           id="path3187"
           sodipodi:cx="249.64285"
           sodipodi:cy="228.79076"
           sodipodi:rx="1.7857143"
           sodipodi:ry="1.7857143"
           d="m 251.42857,228.79082 c -4e-5,0.98622 -0.79955,1.78568 -1.78578,1.78565 -0.98622,-3e-5 -1.78568,-0.79955 -1.78565,-1.78577 3e-5,-0.98623 0.79955,-1.78569 1.78577,-1.78566 0.98623,3e-5 1.78569,0.79955 1.78566,1.78578"
           sodipodi:start="3.3369056e-05"
           sodipodi:end="6.2832186"
           sodipodi:open="true"
           transform="translate(0,1.0714286)" />
      </g>
      <g
         transform="matrix(1.1485149,0,0,1.1485149,-31.21464,-31.268429)"
         id="g3194">
        <path
           sodipodi:type="arc"
           style="fill:#445500;fill-opacity:1;stroke:#222b00;stroke-width:2;stroke-miterlimit:4;stroke-opacity:1;stroke-dasharray:none;stroke-dashoffset:0"
           id="path3196"
           sodipodi:cx="246.25"
           sodipodi:cy="232.18361"
           sodipodi:rx="9.8214283"
           sodipodi:ry="9.8214283"
           d="m 256.07143,232.18394 c -1.8e-4,5.42422 -4.39753,9.82128 -9.82176,9.8211 -5.42422,-1.8e-4 -9.82128,-4.39753 -9.8211,-9.82176 1.8e-4,-5.42422 4.39753,-9.82128 9.82176,-9.8211 5.42422,1.8e-4 9.82128,4.39753 9.8211,9.82176"
           sodipodi:start="3.3369056e-05"
           sodipodi:end="6.2832186"
           sodipodi:open="true" />
        <path
           sodipodi:type="arc"
           style="fill:#222b00;fill-opacity:1;stroke:none"
           id="path3198"
           sodipodi:cx="246.25"
           sodipodi:cy="232.18361"
           sodipodi:rx="4.1071429"
           sodipodi:ry="4.1071429"
           d="m 250.35714,232.18375 c -7e-5,2.26831 -1.83896,4.10708 -4.10728,4.107 -2.26831,-7e-5 -4.10708,-1.83897 -4.107,-4.10728 7e-5,-2.26831 1.83896,-4.10708 4.10728,-4.107 2.26831,7e-5 4.10708,1.83896 4.107,4.10728"
           sodipodi:start="3.3369056e-05"
           sodipodi:end="6.2832186"
           sodipodi:open="true" />
        <path
           sodipodi:type="arc"
           style="fill:#cdde87;fill-opacity:1;stroke:none"
           id="path3200"
           sodipodi:cx="249.64285"
           sodipodi:cy="228.79076"
           sodipodi:rx="1.7857143"
           sodipodi:ry="1.7857143"
           d="m 251.42857,228.79082 c -4e-5,0.98622 -0.79955,1.78568 -1.78578,1.78565 -0.98622,-3e-5 -1.78568,-0.79955 -1.78565,-1.78577 3e-5,-0.98623 0.79955,-1.78569 1.78577,-1.78566 0.98623,3e-5 1.78569,0.79955 1.78566,1.78578"
           sodipodi:start="3.3369056e-05"
           sodipodi:end="6.2832186"
           sodipodi:open="true"
           transform="translate(0,1.0714286)" />
      </g>
      <path
         inkscape:connector-curvature="0"
         id="path3202"
         d="m 297.6426,435.76636 c 0.0474,2.85675 0.59298,35.70937 0.59298,35.70937"
         style="fill:none;stroke:#668000;stroke-width:2;stroke-linecap:butt;stroke-linejoin:miter;stroke-miterlimit:4;stroke-opacity:1;stroke-dasharray:none" />
      <path
         inkscape:connector-curvature="0"
         id="path3204"
         d="m 281.32303,445.49727 1.12927,24.98469 0,0 0,0"
         style="fill:none;stroke:#668000;stroke-width:2;stroke-linecap:butt;stroke-linejoin:miter;stroke-miterlimit:4;stroke-opacity:1;stroke-dasharray:none" />
      <path
         inkscape:connector-curvature="0"
         id="path3206"
         d="m 265.64998,435.17565 0.61669,37.13774"
         style="fill:none;stroke:#668000;stroke-width:2;stroke-linecap:butt;stroke-linejoin:miter;stroke-miterlimit:4;stroke-opacity:1;stroke-dasharray:none" />
      <path
         inkscape:connector-curvature="0"
         id="path3208"
         d="m 249.76834,441.69856 -0.94214,29.3054"
         style="fill:none;stroke:#668000;stroke-width:2;stroke-linecap:butt;stroke-linejoin:miter;stroke-miterlimit:4;stroke-opacity:1;stroke-dasharray:none" />
      <path
         inkscape:connector-curvature="0"
         style="fill:none;stroke:#668000;stroke-width:2;stroke-linecap:butt;stroke-linejoin:miter;stroke-miterlimit:4;stroke-opacity:1;stroke-dasharray:none"
         d="m 221.88116,434.75621 c 0.0474,2.85675 0.59298,35.70937 0.59298,35.70937"
         id="path3218" />
      <path
         inkscape:connector-curvature="0"
         style="fill:none;stroke:#668000;stroke-width:2;stroke-linecap:butt;stroke-linejoin:miter;stroke-miterlimit:4;stroke-opacity:1;stroke-dasharray:none"
         d="m 205.56159,444.48712 1.12927,24.98469 0,0 0,0"
         id="path3220" />
      <path
         inkscape:connector-curvature="0"
         style="fill:none;stroke:#668000;stroke-width:2;stroke-linecap:butt;stroke-linejoin:miter;stroke-miterlimit:4;stroke-opacity:1;stroke-dasharray:none"
         d="m 189.88854,434.1655 0.61669,37.13774"
         id="path3222" />
      <path
         inkscape:connector-curvature="0"
         style="fill:none;stroke:#668000;stroke-width:2;stroke-linecap:butt;stroke-linejoin:miter;stroke-miterlimit:4;stroke-opacity:1;stroke-dasharray:none"
         d="m 174.0069,440.68841 -0.94214,29.3054"
         id="path3224" />
    </g>
    <g
       id="g5241"
       transform="matrix(0.9023628,0,0,0.9023628,736.9964,-84.37477)">
      <path
         sodipodi:type="arc"
         style="fill:#ffd5d5;fill-opacity:1;stroke:#a02c2c;stroke-width:3;stroke-miterlimit:4;stroke-opacity:1;stroke-dasharray:none;stroke-dashoffset:0"
         id="path5213"
         sodipodi:cx="341.42856"
         sodipodi:cy="979.50507"
         sodipodi:rx="15"
         sodipodi:ry="15"
         d="m 356.42856,979.50557 c -2.8e-4,8.28427 -6.71623,14.99977 -15.0005,14.9995 -8.28427,-2.8e-4 -14.99978,-6.71623 -14.9995,-15.0005 2.7e-4,-8.28428 6.71623,-14.99978 15.0005,-14.9995 8.28427,2.7e-4 14.99977,6.71622 14.9995,15.0005"
         sodipodi:start="3.3369056e-05"
         sodipodi:end="6.2832186"
         sodipodi:open="true"
         transform="matrix(0.8154982,0,0,0.8154982,43.508169,195.93729)" />
      <path
         sodipodi:type="arc"
         style="fill:#782121;fill-opacity:1;stroke:none"
         id="path5219"
         sodipodi:cx="347.85715"
         sodipodi:cy="985.93359"
         sodipodi:rx="7.8571429"
         sodipodi:ry="7.8571429"
         d="m 355.71429,985.93386 c -1.4e-4,4.33938 -3.51802,7.85702 -7.8574,7.85688 -4.33939,-1.5e-4 -7.85703,-3.51803 -7.85689,-7.85741 1.5e-4,-4.33938 3.51803,-7.85702 7.85741,-7.85688 4.33938,1.5e-4 7.85702,3.51803 7.85688,7.85741"
         sodipodi:start="3.3369056e-05"
         sodipodi:end="6.2832186"
         sodipodi:open="true"
         transform="matrix(0.8409091,0,0,0.8409091,26.233766,166.85307)" />
      <path
         transform="matrix(0.401343,0,0,0.401343,179.13998,600.23606)"
         sodipodi:open="true"
         sodipodi:end="6.2832186"
         sodipodi:start="3.3369056e-05"
         d="m 355.71429,985.93386 c -1.4e-4,4.33938 -3.51802,7.85702 -7.8574,7.85688 -4.33939,-1.5e-4 -7.85703,-3.51803 -7.85689,-7.85741 1.5e-4,-4.33938 3.51803,-7.85702 7.85741,-7.85688 4.33938,1.5e-4 7.85702,3.51803 7.85688,7.85741"
         sodipodi:ry="7.8571429"
         sodipodi:rx="7.8571429"
         sodipodi:cy="985.93359"
         sodipodi:cx="347.85715"
         id="path5221"
         style="fill:#280b0b;fill-opacity:1;stroke:none"
         sodipodi:type="arc" />
      <path
         inkscape:connector-curvature="0"
         id="path5066"
         d="m 389.53125,813.96875 c -3.36408,0.0597 -6.60508,0.31684 -9.71875,0.5 0,0 -49.26265,11.73414 -59.8125,68 -10.54986,56.26587 -5.85103,99.6477 19.9375,130.12505 25.78851,30.4774 73.8531,29.3037 96.125,4.6874 22.2719,-24.61624 33.99066,-70.33983 11.71875,-139.49995 -18.79191,-58.35383 -40.08396,-64.1351 -58.25,-63.8125 z m 1.15625,65.125 c 6.27004,-0.2555 26.25919,6.9789 31.5625,30.84375 6.06092,27.27412 12.12023,62.62818 -6.0625,74.75 -18.18275,12.12183 -46.4797,8.07946 -48.5,-46.46875 -2.02031,-54.54823 19.19845,-56.06837 21.21875,-58.59375 0.25254,-0.31567 0.88553,-0.49475 1.78125,-0.53125 z"
         style="fill:#ff5555;fill-rule:evenodd;stroke:#c83737;stroke-width:3;stroke-linecap:butt;stroke-linejoin:miter;stroke-miterlimit:4;stroke-opacity:1;stroke-dasharray:none" />
      <path
         inkscape:connector-curvature="0"
         id="path5071"
         d="m 360.71429,830.21933 c 0,0 -31.42858,16.42857 -35.71429,64.28571 -4.28571,47.85714 -2.14286,78.57143 13.57143,107.85716 15.71428,29.2857 51.42857,27.8571 51.42857,27.8571 0,0 -45,5.7143 -53.57143,-57.85712 -8.57143,-63.57143 5.71429,-105.71428 11.42857,-117.14285 5.71429,-11.42858 14.28572,-25 12.85715,-25 z"
         style="fill:#ff8080;fill-rule:evenodd;stroke:none;filter:url(#filter5109)" />
      <path
         inkscape:connector-curvature="0"
         id="path5113"
         d="m 395,871.6479 c 0,0 23.57143,9.28571 30.71428,32.85714 7.14286,23.57143 9.28572,47.85714 7.85715,57.14286 -1.42857,9.28571 -6.42857,17.85714 -11.42857,20.71428 -5,2.85714 -13.57143,7.85714 -13.57143,7.85714 0,0 34.28571,3.57143 30,-55.71428 C 434.28571,875.21932 412.14286,873.07647 395,871.6479 z"
         style="fill:#c83737;fill-rule:evenodd;stroke:none;filter:url(#filter5207)" />
      <path
         transform="matrix(0.95671,0,0,0.95671,21.923313,53.831385)"
         sodipodi:open="true"
         sodipodi:end="6.2832186"
         sodipodi:start="3.3369056e-05"
         d="m 356.42856,979.50557 c -2.8e-4,8.28427 -6.71623,14.99977 -15.0005,14.9995 -8.28427,-2.8e-4 -14.99978,-6.71623 -14.9995,-15.0005 2.7e-4,-8.28428 6.71623,-14.99978 15.0005,-14.9995 8.28427,2.7e-4 14.99977,6.71622 14.9995,15.0005"
         sodipodi:ry="15"
         sodipodi:rx="15"
         sodipodi:cy="979.50507"
         sodipodi:cx="341.42856"
         id="path5211"
         style="fill:#ffd5d5;fill-opacity:1;stroke:#a02c2c;stroke-width:3;stroke-miterlimit:4;stroke-opacity:1;stroke-dasharray:none;stroke-dashoffset:0"
         sodipodi:type="arc" />
      <path
         transform="translate(3.5714286,6.7857143)"
         sodipodi:open="true"
         sodipodi:end="6.2832186"
         sodipodi:start="3.3369056e-05"
         d="m 355.71429,985.93386 c -1.4e-4,4.33938 -3.51802,7.85702 -7.8574,7.85688 -4.33939,-1.5e-4 -7.85703,-3.51803 -7.85689,-7.85741 1.5e-4,-4.33938 3.51803,-7.85702 7.85741,-7.85688 4.33938,1.5e-4 7.85702,3.51803 7.85688,7.85741"
         sodipodi:ry="7.8571429"
         sodipodi:rx="7.8571429"
         sodipodi:cy="985.93359"
         sodipodi:cx="347.85715"
         id="path5215"
         style="fill:#782121;fill-opacity:1;stroke:none"
         sodipodi:type="arc" />
      <path
         sodipodi:type="arc"
         style="fill:#280b0b;fill-opacity:1;stroke:none"
         id="path5217"
         sodipodi:cx="347.85715"
         sodipodi:cy="985.93359"
         sodipodi:rx="7.8571429"
         sodipodi:ry="7.8571429"
         d="m 355.71429,985.93386 c -1.4e-4,4.33938 -3.51802,7.85702 -7.8574,7.85688 -4.33939,-1.5e-4 -7.85703,-3.51803 -7.85689,-7.85741 1.5e-4,-4.33938 3.51803,-7.85702 7.85741,-7.85688 4.33938,1.5e-4 7.85702,3.51803 7.85688,7.85741"
         sodipodi:start="3.3369056e-05"
         sodipodi:end="6.2832186"
         sodipodi:open="true"
         transform="matrix(0.4772727,0,0,0.4772727,185.40585,522.16009)" />
      <path
         inkscape:connector-curvature="0"
         sodipodi:nodetypes="cscc"
         id="path5223"
         d="m 346.42857,1019.505 c 0,0 15.71429,1.4286 22.85715,-5 7.14285,-6.4285 7.14285,-24.28567 7.14285,-24.28567 l 0.71429,-1.42858"
         style="fill:none;stroke:#501616;stroke-width:3;stroke-linecap:butt;stroke-linejoin:miter;stroke-miterlimit:4;stroke-opacity:1;stroke-dasharray:none" />
      <path
         inkscape:connector-curvature="0"
         id="path5225"
         d="m 315,925.21933 c 0,0 22.14286,-2.85715 30.71429,-0.71429 8.57142,2.14286 12.14285,5 12.14285,5"
         style="fill:none;stroke:#c83737;stroke-width:3;stroke-linecap:butt;stroke-linejoin:miter;stroke-miterlimit:4;stroke-opacity:1;stroke-dasharray:none" />
      <path
         inkscape:connector-curvature="0"
         id="path5227"
         d="m 317.85714,905.93361 c 0,0 23.57143,-4.28571 31.42857,-2.14286 7.85715,2.14286 11.42858,5.71429 11.42858,5.71429"
         style="fill:none;stroke:#c83737;stroke-width:3;stroke-linecap:butt;stroke-linejoin:miter;stroke-miterlimit:4;stroke-opacity:1;stroke-dasharray:none" />
      <path
         inkscape:connector-curvature="0"
         id="path5229"
         d="m 321.42857,883.79075 c 0,0 25,-5 32.14286,-2.14285 7.14286,2.85714 8.57143,5 8.57143,5"
         style="fill:none;stroke:#c83737;stroke-width:3;stroke-linecap:butt;stroke-linejoin:miter;stroke-miterlimit:4;stroke-opacity:1;stroke-dasharray:none" />
      <path
         inkscape:connector-curvature="0"
         id="path5231"
         d="m 327.14286,861.6479 c 0,0 17.85714,-5.71429 24.28571,-5 6.42857,0.71428 15.71429,9.28571 15.71429,9.28571"
         style="fill:none;stroke:#c83737;stroke-width:3;stroke-linecap:butt;stroke-linejoin:miter;stroke-miterlimit:4;stroke-opacity:1;stroke-dasharray:none" />
      <path
         inkscape:connector-curvature="0"
         id="path5233"
         d="m 341.42857,840.93361 c 0,0 10,-9.28571 22.85714,-0.71428 12.85715,8.57142 14.28572,15.71428 14.28572,15.71428"
         style="fill:none;stroke:#c83737;stroke-width:3;stroke-linecap:butt;stroke-linejoin:miter;stroke-miterlimit:4;stroke-opacity:1;stroke-dasharray:none" />
      <path
         inkscape:connector-curvature="0"
         id="path5235"
         d="m 367.14286,820.93361 c 0,0 15,1.42857 22.14285,8.57143 7.14286,7.14286 7.14286,17.85714 7.14286,17.85714"
         style="fill:none;stroke:#c83737;stroke-width:3;stroke-linecap:butt;stroke-linejoin:miter;stroke-miterlimit:4;stroke-opacity:1;stroke-dasharray:none" />
      <path
         inkscape:connector-curvature="0"
         id="path5239"
         d="m 315.71429,948.79075 c 0,0 22.85714,-7.14285 30,-7.14285 7.14285,0 13.57142,7.14285 13.57142,7.14285"
         style="fill:none;stroke:#c83737;stroke-width:3;stroke-linecap:butt;stroke-linejoin:miter;stroke-miterlimit:4;stroke-opacity:1;stroke-dasharray:none" />
    </g>
    <g
       id="g5241-8"
       transform="matrix(0.9023628,0,0,0.9023628,886.07932,-80.154319)">
      <path
         sodipodi:type="arc"
         style="fill:#ffd5d5;fill-opacity:1;stroke:#a02c2c;stroke-width:3;stroke-miterlimit:4;stroke-opacity:1;stroke-dasharray:none;stroke-dashoffset:0"
         id="path5213-0"
         sodipodi:cx="341.42856"
         sodipodi:cy="979.50507"
         sodipodi:rx="15"
         sodipodi:ry="15"
         d="m 356.42856,979.50557 c -2.8e-4,8.28427 -6.71623,14.99977 -15.0005,14.9995 -8.28427,-2.8e-4 -14.99978,-6.71623 -14.9995,-15.0005 2.7e-4,-8.28428 6.71623,-14.99978 15.0005,-14.9995 8.28427,2.7e-4 14.99977,6.71622 14.9995,15.0005"
         sodipodi:start="3.3369056e-05"
         sodipodi:end="6.2832186"
         sodipodi:open="true"
         transform="matrix(0.8154982,0,0,0.8154982,43.508169,195.93729)" />
      <path
         sodipodi:type="arc"
         style="fill:#782121;fill-opacity:1;stroke:none"
         id="path5219-4"
         sodipodi:cx="347.85715"
         sodipodi:cy="985.93359"
         sodipodi:rx="7.8571429"
         sodipodi:ry="7.8571429"
         d="m 355.71429,985.93386 c -1.4e-4,4.33938 -3.51802,7.85702 -7.8574,7.85688 -4.33939,-1.5e-4 -7.85703,-3.51803 -7.85689,-7.85741 1.5e-4,-4.33938 3.51803,-7.85702 7.85741,-7.85688 4.33938,1.5e-4 7.85702,3.51803 7.85688,7.85741"
         sodipodi:start="3.3369056e-05"
         sodipodi:end="6.2832186"
         sodipodi:open="true"
         transform="matrix(0.8409091,0,0,0.8409091,26.233766,166.85307)" />
      <path
         transform="matrix(0.401343,0,0,0.401343,179.13998,600.23606)"
         sodipodi:open="true"
         sodipodi:end="6.2832186"
         sodipodi:start="3.3369056e-05"
         d="m 355.71429,985.93386 c -1.4e-4,4.33938 -3.51802,7.85702 -7.8574,7.85688 -4.33939,-1.5e-4 -7.85703,-3.51803 -7.85689,-7.85741 1.5e-4,-4.33938 3.51803,-7.85702 7.85741,-7.85688 4.33938,1.5e-4 7.85702,3.51803 7.85688,7.85741"
         sodipodi:ry="7.8571429"
         sodipodi:rx="7.8571429"
         sodipodi:cy="985.93359"
         sodipodi:cx="347.85715"
         id="path5221-7"
         style="fill:#280b0b;fill-opacity:1;stroke:none"
         sodipodi:type="arc" />
      <path
         inkscape:connector-curvature="0"
         id="path5066-6"
         d="m 389.53125,813.96875 c -3.36408,0.0597 -6.60508,0.31684 -9.71875,0.5 0,0 -49.26265,11.73414 -59.8125,68 -10.54986,56.26587 -5.85103,99.6477 19.9375,130.12505 25.78851,30.4774 73.8531,29.3037 96.125,4.6874 22.2719,-24.61624 33.99066,-70.33983 11.71875,-139.49995 -18.79191,-58.35383 -40.08396,-64.1351 -58.25,-63.8125 z m 1.15625,65.125 c 6.27004,-0.2555 26.25919,6.9789 31.5625,30.84375 6.06092,27.27412 12.12023,62.62818 -6.0625,74.75 -18.18275,12.12183 -46.4797,8.07946 -48.5,-46.46875 -2.02031,-54.54823 19.19845,-56.06837 21.21875,-58.59375 0.25254,-0.31567 0.88553,-0.49475 1.78125,-0.53125 z"
         style="fill:#ff5555;fill-rule:evenodd;stroke:#c83737;stroke-width:3;stroke-linecap:butt;stroke-linejoin:miter;stroke-miterlimit:4;stroke-opacity:1;stroke-dasharray:none" />
      <path
         inkscape:connector-curvature="0"
         id="path5071-8"
         d="m 360.71429,830.21933 c 0,0 -31.42858,16.42857 -35.71429,64.28571 -4.28571,47.85714 -2.14286,78.57143 13.57143,107.85716 15.71428,29.2857 51.42857,27.8571 51.42857,27.8571 0,0 -45,5.7143 -53.57143,-57.85712 -8.57143,-63.57143 5.71429,-105.71428 11.42857,-117.14285 5.71429,-11.42858 14.28572,-25 12.85715,-25 z"
         style="fill:#ff8080;fill-rule:evenodd;stroke:none;filter:url(#filter5109-8)" />
      <path
         inkscape:connector-curvature="0"
         id="path5113-9"
         d="m 395,871.6479 c 0,0 23.57143,9.28571 30.71428,32.85714 7.14286,23.57143 9.28572,47.85714 7.85715,57.14286 -1.42857,9.28571 -6.42857,17.85714 -11.42857,20.71428 -5,2.85714 -13.57143,7.85714 -13.57143,7.85714 0,0 34.28571,3.57143 30,-55.71428 C 434.28571,875.21932 412.14286,873.07647 395,871.6479 z"
         style="fill:#c83737;fill-rule:evenodd;stroke:none;filter:url(#filter5207-3)" />
      <path
         transform="matrix(0.95671,0,0,0.95671,21.923313,53.831385)"
         sodipodi:open="true"
         sodipodi:end="6.2832186"
         sodipodi:start="3.3369056e-05"
         d="m 356.42856,979.50557 c -2.8e-4,8.28427 -6.71623,14.99977 -15.0005,14.9995 -8.28427,-2.8e-4 -14.99978,-6.71623 -14.9995,-15.0005 2.7e-4,-8.28428 6.71623,-14.99978 15.0005,-14.9995 8.28427,2.7e-4 14.99977,6.71622 14.9995,15.0005"
         sodipodi:ry="15"
         sodipodi:rx="15"
         sodipodi:cy="979.50507"
         sodipodi:cx="341.42856"
         id="path5211-0"
         style="fill:#ffd5d5;fill-opacity:1;stroke:#a02c2c;stroke-width:3;stroke-miterlimit:4;stroke-opacity:1;stroke-dasharray:none;stroke-dashoffset:0"
         sodipodi:type="arc" />
      <path
         transform="translate(3.5714286,6.7857143)"
         sodipodi:open="true"
         sodipodi:end="6.2832186"
         sodipodi:start="3.3369056e-05"
         d="m 355.71429,985.93386 c -1.4e-4,4.33938 -3.51802,7.85702 -7.8574,7.85688 -4.33939,-1.5e-4 -7.85703,-3.51803 -7.85689,-7.85741 1.5e-4,-4.33938 3.51803,-7.85702 7.85741,-7.85688 4.33938,1.5e-4 7.85702,3.51803 7.85688,7.85741"
         sodipodi:ry="7.8571429"
         sodipodi:rx="7.8571429"
         sodipodi:cy="985.93359"
         sodipodi:cx="347.85715"
         id="path5215-6"
         style="fill:#782121;fill-opacity:1;stroke:none"
         sodipodi:type="arc" />
      <path
         sodipodi:type="arc"
         style="fill:#280b0b;fill-opacity:1;stroke:none"
         id="path5217-8"
         sodipodi:cx="347.85715"
         sodipodi:cy="985.93359"
         sodipodi:rx="7.8571429"
         sodipodi:ry="7.8571429"
         d="m 355.71429,985.93386 c -1.4e-4,4.33938 -3.51802,7.85702 -7.8574,7.85688 -4.33939,-1.5e-4 -7.85703,-3.51803 -7.85689,-7.85741 1.5e-4,-4.33938 3.51803,-7.85702 7.85741,-7.85688 4.33938,1.5e-4 7.85702,3.51803 7.85688,7.85741"
         sodipodi:start="3.3369056e-05"
         sodipodi:end="6.2832186"
         sodipodi:open="true"
         transform="matrix(0.4772727,0,0,0.4772727,185.40585,522.16009)" />
      <path
         inkscape:connector-curvature="0"
         sodipodi:nodetypes="cscc"
         id="path5223-7"
         d="m 346.42857,1019.505 c 0,0 15.71429,1.4286 22.85715,-5 7.14285,-6.4285 7.14285,-24.28567 7.14285,-24.28567 l 0.71429,-1.42858"
         style="fill:none;stroke:#501616;stroke-width:3;stroke-linecap:butt;stroke-linejoin:miter;stroke-miterlimit:4;stroke-opacity:1;stroke-dasharray:none" />
      <path
         inkscape:connector-curvature="0"
         id="path5225-9"
         d="m 315,925.21933 c 0,0 22.14286,-2.85715 30.71429,-0.71429 8.57142,2.14286 12.14285,5 12.14285,5"
         style="fill:none;stroke:#c83737;stroke-width:3;stroke-linecap:butt;stroke-linejoin:miter;stroke-miterlimit:4;stroke-opacity:1;stroke-dasharray:none" />
      <path
         inkscape:connector-curvature="0"
         id="path5227-0"
         d="m 317.85714,905.93361 c 0,0 23.57143,-4.28571 31.42857,-2.14286 7.85715,2.14286 11.42858,5.71429 11.42858,5.71429"
         style="fill:none;stroke:#c83737;stroke-width:3;stroke-linecap:butt;stroke-linejoin:miter;stroke-miterlimit:4;stroke-opacity:1;stroke-dasharray:none" />
      <path
         inkscape:connector-curvature="0"
         id="path5229-3"
         d="m 321.42857,883.79075 c 0,0 25,-5 32.14286,-2.14285 7.14286,2.85714 8.57143,5 8.57143,5"
         style="fill:none;stroke:#c83737;stroke-width:3;stroke-linecap:butt;stroke-linejoin:miter;stroke-miterlimit:4;stroke-opacity:1;stroke-dasharray:none" />
      <path
         inkscape:connector-curvature="0"
         id="path5231-3"
         d="m 327.14286,861.6479 c 0,0 17.85714,-5.71429 24.28571,-5 6.42857,0.71428 15.71429,9.28571 15.71429,9.28571"
         style="fill:none;stroke:#c83737;stroke-width:3;stroke-linecap:butt;stroke-linejoin:miter;stroke-miterlimit:4;stroke-opacity:1;stroke-dasharray:none" />
      <path
         inkscape:connector-curvature="0"
         id="path5233-3"
         d="m 341.42857,840.93361 c 0,0 10,-9.28571 22.85714,-0.71428 12.85715,8.57142 14.28572,15.71428 14.28572,15.71428"
         style="fill:none;stroke:#c83737;stroke-width:3;stroke-linecap:butt;stroke-linejoin:miter;stroke-miterlimit:4;stroke-opacity:1;stroke-dasharray:none" />
      <path
         inkscape:connector-curvature="0"
         id="path5235-7"
         d="m 367.14286,820.93361 c 0,0 15,1.42857 22.14285,8.57143 7.14286,7.14286 7.14286,17.85714 7.14286,17.85714"
         style="fill:none;stroke:#c83737;stroke-width:3;stroke-linecap:butt;stroke-linejoin:miter;stroke-miterlimit:4;stroke-opacity:1;stroke-dasharray:none" />
      <path
         inkscape:connector-curvature="0"
         id="path5239-3"
         d="m 315.71429,948.79075 c 0,0 22.85714,-7.14285 30,-7.14285 7.14285,0 13.57142,7.14285 13.57142,7.14285"
         style="fill:none;stroke:#c83737;stroke-width:3;stroke-linecap:butt;stroke-linejoin:miter;stroke-miterlimit:4;stroke-opacity:1;stroke-dasharray:none" />
    </g>
  </g>
</svg>
