<?xml version="1.0" encoding="UTF-8" standalone="no"?>
<!-- Created with Inkscape (http://www.inkscape.org/) -->

<svg
   xmlns:dc="http://purl.org/dc/elements/1.1/"
   xmlns:cc="http://creativecommons.org/ns#"
   xmlns:rdf="http://www.w3.org/1999/02/22-rdf-syntax-ns#"
   xmlns:svg="http://www.w3.org/2000/svg"
   xmlns="http://www.w3.org/2000/svg"
   xmlns:xlink="http://www.w3.org/1999/xlink"
   xmlns:sodipodi="http://sodipodi.sourceforge.net/DTD/sodipodi-0.dtd"
   xmlns:inkscape="http://www.inkscape.org/namespaces/inkscape"
   width="786.05737"
   height="427.48596"
   id="svg3714"
   version="1.1"
   inkscape:version="0.47 r22583"
   sodipodi:docname="billet20.svg">
  <title
     id="title2876">Billet de banque de 20 euros.</title>
  <defs
     id="defs3716">
    <inkscape:perspective
       sodipodi:type="inkscape:persp3d"
       inkscape:vp_x="0 : 213.74298 : 1"
       inkscape:vp_y="0 : 1000 : 0"
       inkscape:vp_z="786.05737 : 213.74298 : 1"
       inkscape:persp3d-origin="393.02869 : 142.49532 : 1"
       id="perspective63" />
    <g
       id="s">
      <g
         id="c">
        <path
           transform="matrix(0.95105652,0.30901699,-0.30901699,0.95105652,0,-1)"
           d="M 0,0 V 1 H 0.5 z"
           id="t" />
        <use
           id="use3251"
           transform="scale(-1,1)"
           xlink:href="#t"
           x="0"
           y="0"
           width="744.09448"
           height="1052.3622" />
      </g>
      <g
         id="a">
        <use
           id="use3254"
           transform="matrix(0.30901699,0.95105652,-0.95105652,0.30901699,0,0)"
           xlink:href="#c"
           x="0"
           y="0"
           width="744.09448"
           height="1052.3622" />
        <use
           id="use3256"
           transform="matrix(-0.80901699,0.58778525,-0.58778525,-0.80901699,0,0)"
           xlink:href="#c"
           x="0"
           y="0"
           width="744.09448"
           height="1052.3622" />
      </g>
      <use
         id="use3258"
         transform="scale(-1,1)"
         xlink:href="#a"
         x="0"
         y="0"
         width="744.09448"
         height="1052.3622" />
    </g>
  </defs>
  <sodipodi:namedview
     id="base"
     pagecolor="#ffffff"
     bordercolor="#666666"
     borderopacity="1.0"
     inkscape:pageopacity="0.0"
     inkscape:pageshadow="2"
     inkscape:zoom="0.98994949"
     inkscape:cx="270.40195"
     inkscape:cy="143.40255"
     inkscape:document-units="px"
     inkscape:current-layer="layer1"
     showgrid="false"
     showguides="true"
     inkscape:guide-bbox="true"
     inkscape:window-width="1489"
     inkscape:window-height="933"
     inkscape:window-x="287"
     inkscape:window-y="58"
     inkscape:window-maximized="0" />
  <metadata
     id="metadata3719">
    <rdf:RDF>
      <cc:Work
         rdf:about="">
        <dc:format>image/svg+xml</dc:format>
        <dc:type
           rdf:resource="http://purl.org/dc/dcmitype/StillImage" />
        <dc:title>Billet de banque de 20 euros.</dc:title>
        <dc:date>juillet 2011</dc:date>
        <dc:creator>
          <cc:Agent>
            <dc:title>mathafix (openclipart.org)</dc:title>
          </cc:Agent>
        </dc:creator>
        <dc:rights>
          <cc:Agent>
            <dc:title>mathafix (openclipart.org)</dc:title>
          </cc:Agent>
        </dc:rights>
        <dc:language>fr-FR</dc:language>
        <dc:subject>
          <rdf:Bag>
            <rdf:li>billet</rdf:li>
            <rdf:li>banque</rdf:li>
            <rdf:li>euro</rdf:li>
            <rdf:li>bank</rdf:li>
            <rdf:li>banknote</rdf:li>
          </rdf:Bag>
        </dc:subject>
        <dc:description>Billet de banque de 20 euros.
20 euros banknote.</dc:description>
        <cc:license
           rdf:resource="http://artlibre.org/licence/lal" />
      </cc:Work>
      <cc:License
         rdf:about="http://artlibre.org/licence/lal">
        <cc:permits
           rdf:resource="http://creativecommons.org/ns#Reproduction" />
        <cc:permits
           rdf:resource="http://creativecommons.org/ns#Distribution" />
        <cc:permits
           rdf:resource="http://creativecommons.org/ns#DerivativeWorks" />
        <cc:requires
           rdf:resource="http://creativecommons.org/ns#ShareAlike" />
        <cc:requires
           rdf:resource="http://creativecommons.org/ns#Notice" />
        <cc:requires
           rdf:resource="http://creativecommons.org/ns#Attribution" />
      </cc:License>
    </rdf:RDF>
  </metadata>
  <g
     inkscape:label="Calque 1"
     inkscape:groupmode="layer"
     id="layer1"
     transform="translate(3.5762787e-7,-624.87626)">
    <rect
       style="fill:#ffffff;stroke:#000000;stroke-width:1.77165353;stroke-linecap:round;stroke-linejoin:round;stroke-miterlimit:4;stroke-opacity:1;stroke-dasharray:none;stroke-dashoffset:0"
       id="rect3740"
       width="784.28571"
       height="425.71429"
       x="0.88582641"
       y="625.76208" />
    <rect
       style="fill:#cccccc;fill-opacity:1;stroke:none"
       id="rect3773"
       width="517.14288"
       height="424.28571"
       x="178.74297"
       y="625.76208" />
    <rect
       style="fill:#999999;fill-opacity:1;stroke:none"
       id="rect2856"
       width="176.69742"
       height="425.77917"
       x="476.36615"
       y="625.82526"
       ry="0" />
    <g
       transform="scale(0.85714092,1.1666693)"
       style="font-size:162.99197388px;font-style:normal;font-variant:normal;font-weight:normal;font-stretch:normal;fill:#000000;fill-opacity:1;stroke:#000000;stroke-width:1;font-family:Sans;-inkscape-font-specification:Sans"
       id="text3742">
      <path
         d="m 590.58478,648.55134 52.28796,0 0,22.52282 -86.35073,0 0,-22.52282 43.37433,-38.28083 c 3.87312,-3.50172 6.73821,-6.92391 8.59528,-10.26658 1.85694,-3.34254 2.78544,-6.81779 2.78551,-10.42576 -7e-5,-5.57093 -1.8836,-10.05426 -5.65061,-13.45002 -3.71406,-3.39557 -8.67491,-5.0934 -14.88256,-5.0935 -4.7752,10e-5 -10.00134,1.03472 -15.67843,3.10385 -5.67716,2.01627 -11.75221,5.04054 -18.22518,9.0728 l 0,-26.10419 c 6.89743,-2.28134 13.71528,-4.0057 20.45359,-5.17308 6.73823,-1.2202 13.34386,-1.83036 19.81689,-1.83048 14.21928,1.2e-4 25.25519,3.1305 33.10775,9.39114 7.90544,6.26087 11.8582,14.98878 11.8583,26.18377 -10e-5,6.47307 -1.6714,12.52159 -5.01391,18.14559 -3.3427,5.57108 -10.37279,13.05215 -21.09028,22.44323 l -25.38791,22.28406"
         style="font-weight:bold;fill:#000000;stroke:#000000;font-family:Sans;-inkscape-font-specification:Sans Bold"
         id="path2908" />
      <path
         d="m 731.92939,611.54389 c -7e-5,-14.85597 -1.40609,-25.30824 -4.21805,-31.35686 -2.75905,-6.10149 -7.42809,-9.15228 -14.00713,-9.15238 -6.57915,10e-5 -11.27471,3.05089 -14.0867,9.15238 -2.81208,6.04862 -4.2181,16.50089 -4.21806,31.35686 -4e-5,15.01525 1.40598,25.60017 4.21806,31.75478 2.81199,6.15467 7.50755,9.23199 14.0867,9.23197 6.52599,2e-5 11.19502,-3.0773 14.00713,-9.23197 2.81196,-6.15461 4.21798,-16.73953 4.21805,-31.75478 m 30.64058,0.23875 c -10e-5,19.6843 -4.24468,34.88519 -12.73375,45.60274 -8.48925,10.66452 -20.53324,15.99677 -36.13201,15.99677 -15.65194,0 -27.72246,-5.33225 -36.21159,-15.99677 -8.48918,-10.71755 -12.73376,-25.91844 -12.73375,-45.60274 -10e-6,-19.73723 4.24457,-34.93812 12.73375,-45.60273 8.48913,-10.71746 20.55965,-16.07624 36.21159,-16.07636 15.59877,1.2e-4 27.64276,5.3589 36.13201,16.07636 8.48907,10.66461 12.73365,25.8655 12.73375,45.60273"
         style="font-weight:bold;fill:#000000;stroke:#000000;font-family:Sans;-inkscape-font-specification:Sans Bold"
         id="path2910" />
    </g>
    <g
       transform="scale(0.74009166,1.351184)"
       style="font-size:77.68704987px;font-style:normal;font-variant:normal;font-weight:normal;font-stretch:normal;fill:#000000;fill-opacity:1;stroke:none;font-family:Sans;-inkscape-font-specification:Sans"
       id="text3742-2">
      <path
         d="m 52.053009,744.77939 24.922066,0 0,10.73508 -41.157446,0 0,-10.73508 20.673556,-18.24584 c 1.846051,-1.66902 3.211642,-3.30015 4.096778,-4.89337 0.885075,-1.59316 1.327628,-3.24957 1.32766,-4.96924 -3.2e-5,-2.65528 -0.897782,-4.79217 -2.693252,-6.4107 -1.770241,-1.61843 -4.134737,-2.42767 -7.093496,-2.42772 -2.276008,5e-5 -4.766947,0.49318 -7.472826,1.47939 -2.705909,0.96102 -5.601468,2.40248 -8.686687,4.32438 l 0,-12.44207 c 3.287528,-1.08736 6.53713,-1.90924 9.748814,-2.46565 3.211653,-0.58158 6.360099,-0.8724 9.44535,-0.87246 6.777353,6e-5 12.037409,1.49209 15.780182,4.47611 3.767979,2.98412 5.651989,7.14412 5.652036,12.48 -4.7e-5,3.08526 -0.796642,5.96818 -2.389787,8.64875 -1.593235,2.65535 -4.943991,6.22106 -10.05228,10.69714 l -12.100668,10.62128"
         style="font-weight:bold;fill:#000000;font-family:Sans;-inkscape-font-specification:Sans Bold"
         id="path2913" />
      <path
         d="m 119.42225,727.14048 c -4e-5,-7.08081 -0.67019,-12.06269 -2.01046,-14.94565 -1.31505,-2.90816 -3.54045,-4.36226 -6.67623,-4.36231 -3.13583,5e-5 -5.37388,1.45415 -6.71416,4.36231 -1.34033,2.88296 -2.01048,7.86484 -2.01046,14.94565 -2e-5,7.15674 0.67013,12.20184 2.01046,15.13532 1.34028,2.93351 3.57833,4.40025 6.71416,4.40025 3.11049,0 5.3359,-1.46674 6.67623,-4.40025 1.34027,-2.93348 2.01042,-7.97858 2.01046,-15.13532 m 14.60425,0.1138 c -5e-5,9.38215 -2.02315,16.62737 -6.0693,21.73569 -4.04624,5.08304 -9.78678,7.62455 -17.22164,7.62456 -7.4602,-10e-6 -13.213386,-2.54152 -17.259573,-7.62456 -4.046206,-5.10832 -6.069304,-12.35354 -6.069301,-21.73569 -3e-6,-9.40737 2.023095,-16.6526 6.069301,-21.73568 4.046187,-5.10827 9.799373,-7.66243 17.259573,-7.66249 7.43486,6e-5 13.1754,2.55422 17.22164,7.66249 4.04615,5.08308 6.06925,12.32831 6.0693,21.73568"
         style="font-weight:bold;fill:#000000;font-family:Sans;-inkscape-font-specification:Sans Bold"
         id="path2915" />
    </g>
    <path
       id="path3813-6-0"
       style="fill:#b3b3b3;stroke:none"
       d="m 764.27714,1051.8622 -44.48027,0 c 0.35714,-7.5 2.14285,-9.6429 1.78571,-22.5 -0.35714,-12.8572 -3.92857,-19.6429 -4.28571,-31.78573 -0.35715,-12.14286 4.28571,-26.42857 3.21428,-41.07143 -1.07143,-14.64286 -3.21428,-24.28572 -3.92857,-34.28572 -0.71429,-10 4.64286,-24.64285 4.28571,-37.85714 -0.35714,-13.21428 -3.92857,-23.57143 -4.28571,-36.07143 -0.35714,-12.5 3.57143,-23.57143 3.21429,-37.14285 -0.35715,-13.57143 -3.57143,-26.42858 -3.92858,-36.78572 -0.35714,-10.35714 4.64286,-24.64286 3.92858,-37.85714 -0.71429,-13.21429 -4.64286,-17.85714 -3.92858,-32.14286 0.71429,-14.28571 3.92858,-31.07143 3.92858,-39.64286 0,-8.57142 -2.85715,-16.78571 -3.92858,-37.14285 l 52.33743,0 c -1.07143,20.35714 -3.92858,28.57143 -3.92858,37.14285 0,8.57143 3.21429,25.35715 3.92858,39.64286 0.71428,14.28572 -3.21429,18.92857 -3.92858,32.14286 -0.71428,13.21428 4.28572,27.5 3.92858,37.85714 -0.35715,10.35714 -3.57143,23.21429 -3.92858,36.78572 -0.35714,13.57142 3.57143,24.64285 3.21429,37.14285 -0.35714,12.5 -3.92857,22.85715 -4.28571,36.07143 -0.35715,13.21429 5,27.85714 4.28571,37.85714 -0.71429,10 -2.85714,19.64286 -3.92857,34.28572 -1.07143,14.64286 3.57143,28.92857 3.21428,41.07143 -0.35714,12.14283 -3.92857,18.92853 -4.28571,31.78573 -0.35714,12.8571 1.42857,15 1.78571,22.5 z"
       sodipodi:nodetypes="ccsssssssssssccsssssssssssc" />
    <g
       transform="translate(7.3005453,0)"
       style="font-size:40px;font-style:normal;font-variant:normal;font-weight:normal;font-stretch:normal;fill:#000000;fill-opacity:1;stroke:none;font-family:DejaVu Sans;-inkscape-font-specification:DejaVu Sans"
       id="flowRoot2826">
      <path
         d="m 202.53418,645.2325 0,1.88965 c -0.334,-0.21679 -0.66505,-0.37499 -0.99316,-0.47461 -0.32228,-0.10546 -0.6504,-0.15819 -0.98438,-0.1582 -0.66212,10e-6 -1.18067,0.1875 -1.55566,0.5625 -0.36915,0.375 -0.55372,0.89649 -0.55371,1.56445 -1e-5,0.67383 0.18456,1.19532 0.55371,1.56445 0.36913,0.36915 0.88768,0.55372 1.55566,0.55371 0.37499,10e-6 0.72948,-0.0527 1.06348,-0.1582 0.33983,-0.10546 0.64452,-0.26074 0.91406,-0.46582 l 0,1.87207 c -0.38087,0.12891 -0.76466,0.22852 -1.15137,0.29883 -0.38087,0.0644 -0.75294,0.0967 -1.11621,0.0967 -1.23633,0 -2.22657,-0.34277 -2.9707,-1.02832 -0.74415,-0.68554 -1.11622,-1.59668 -1.11621,-2.7334 -1e-5,-1.14257 0.37206,-2.0537 1.11621,-2.7334 0.74413,-0.68554 1.73437,-1.02831 2.9707,-1.02832 0.40429,1e-5 0.79394,0.0322 1.16895,0.0967 0.37499,0.0586 0.7412,0.15235 1.09863,0.28125 m -2.62793,-1.80176 c -0.70899,10e-6 -1.36817,0.12892 -1.97754,0.38672 -0.60938,0.25197 -1.16895,0.63282 -1.67871,1.14258 -0.50977,0.50977 -0.89356,1.06934 -1.15137,1.67871 -0.25195,0.60352 -0.37793,1.2627 -0.37793,1.97754 0,0.70899 0.12598,1.36817 0.37793,1.97754 0.25781,0.60352 0.6416,1.16016 1.15137,1.66992 0.5039,0.50391 1.06054,0.88184 1.66992,1.13379 0.61523,0.25195 1.27734,0.37793 1.98633,0.37793 0.72069,0 1.3828,-0.12305 1.98633,-0.36914 0.6035,-0.25195 1.16014,-0.63281 1.66992,-1.14258 0.50975,-0.50976 0.89061,-1.0664 1.14258,-1.66992 0.2578,-0.60937 0.3867,-1.26855 0.38672,-1.97754 -2e-5,-0.71484 -0.12892,-1.37402 -0.38672,-1.97754 -0.25197,-0.60937 -0.63283,-1.16894 -1.14258,-1.67871 -0.51564,-0.51561 -1.07814,-0.8994 -1.6875,-1.15137 -0.60353,-0.25194 -1.25978,-0.37792 -1.96875,-0.37793 m 0,-1.35351 c 0.89062,10e-6 1.71972,0.16114 2.4873,0.4834 0.77343,0.32227 1.47948,0.80274 2.11817,1.4414 0.63866,0.63868 1.11619,1.34181 1.43262,2.10938 0.31639,0.76758 0.47459,1.60254 0.47461,2.50488 -2e-5,0.89063 -0.15822,1.71973 -0.47461,2.4873 -0.31643,0.76173 -0.79396,1.46192 -1.43262,2.10059 -0.63869,0.63867 -1.34474,1.11914 -2.11817,1.44141 -0.76758,0.32226 -1.59668,0.48339 -2.4873,0.48339 -0.89063,0 -1.72266,-0.16113 -2.49609,-0.48339 -0.76759,-0.32227 -1.47071,-0.80274 -2.10938,-1.44141 -0.63867,-0.63867 -1.11621,-1.33886 -1.43262,-2.10059 -0.3164,-0.76757 -0.47461,-1.59667 -0.47461,-2.4873 0,-0.90234 0.15821,-1.7373 0.47461,-2.50488 0.31641,-0.76757 0.79395,-1.4707 1.43262,-2.10938 0.63867,-0.63866 1.34179,-1.11913 2.10938,-1.4414 0.77343,-0.32226 1.60546,-0.48339 2.49609,-0.4834"
         style="font-size:18px;font-weight:bold;-inkscape-font-specification:Andale Mono Bold"
         id="path2872" />
      <path
         d="m 215.81445,647.08699 c 0.5332,10e-6 0.9375,-0.11718 1.21289,-0.35156 0.27539,-0.23437 0.41308,-0.58007 0.41309,-1.03711 -1e-5,-0.45116 -0.1377,-0.79393 -0.41309,-1.02832 -0.27539,-0.24022 -0.67969,-0.36034 -1.21289,-0.36035 l -1.87207,0 0,2.77734 1.87207,0 m 0.11426,5.73926 c 0.67968,0 1.18945,-0.14355 1.5293,-0.43066 0.34569,-0.28711 0.51854,-0.7207 0.51855,-1.30078 -1e-5,-0.56836 -0.16993,-0.99316 -0.50976,-1.27442 -0.33986,-0.2871 -0.85255,-0.43066 -1.53809,-0.43066 l -1.98633,0 0,3.43652 1.98633,0 m 3.14649,-4.71973 c 0.72655,0.21095 1.28905,0.6006 1.6875,1.16895 0.39842,0.56836 0.59764,1.26563 0.59765,2.0918 -1e-5,1.26562 -0.42774,2.20898 -1.2832,2.83007 -0.85548,0.6211 -2.15626,0.93164 -3.90235,0.93164 l -5.61621,0 0,-13.12207 5.08008,0 c 1.82226,2e-5 3.14062,0.27541 3.95508,0.82618 0.8203,0.55079 1.23046,1.43262 1.23047,2.6455 -1e-5,0.63869 -0.14943,1.18361 -0.44824,1.63477 -0.29884,0.44532 -0.73244,0.77637 -1.30078,0.99316"
         style="font-size:18px;font-weight:bold;-inkscape-font-specification:Andale Mono Bold"
         id="path2874" />
      <path
         d="m 234.67578,654.40828 c -0.6211,0.32227 -1.26856,0.56543 -1.94238,0.72949 -0.67384,0.16407 -1.37696,0.2461 -2.10938,0.2461 -2.18555,0 -3.91699,-0.60938 -5.19433,-1.82813 -1.27735,-1.2246 -1.91602,-2.88281 -1.91602,-4.97461 0,-2.09764 0.63867,-3.75585 1.91602,-4.97461 1.27734,-1.22459 3.00878,-1.8369 5.19433,-1.83691 0.73242,1e-5 1.43554,0.082 2.10938,0.24609 0.67382,0.16408 1.32128,0.40724 1.94238,0.7295 l 0,2.71582 c -0.62696,-0.42773 -1.24513,-0.7412 -1.85449,-0.94043 -0.60939,-0.19921 -1.25099,-0.29882 -1.92481,-0.29883 -1.20703,10e-6 -2.15625,0.38673 -2.84765,1.16015 -0.69141,0.77345 -1.03712,1.83986 -1.03711,3.19922 -1e-5,1.35352 0.3457,2.417 1.03711,3.19043 0.6914,0.77344 1.64062,1.16016 2.84765,1.16016 0.67382,0 1.31542,-0.0996 1.92481,-0.29883 0.60936,-0.19921 1.22753,-0.51269 1.85449,-0.94043 l 0,2.71582"
         style="font-size:18px;font-weight:bold;-inkscape-font-specification:Andale Mono Bold"
         id="path2876" />
      <path
         d="m 237.48828,642.00691 9.13184,0 0,2.55762 -5.74805,0 0,2.44336 5.40527,0 0,2.55762 -5.40527,0 0,3.00586 5.94141,0 0,2.55761 -9.3252,0 0,-13.12207"
         style="font-size:18px;font-weight:bold;-inkscape-font-specification:Andale Mono Bold"
         id="path2878" />
      <path
         d="m 256.05078,642.00691 9.13184,0 0,2.55762 -5.74805,0 0,2.44336 5.40527,0 0,2.55762 -5.40527,0 0,3.00586 5.94141,0 0,2.55761 -9.3252,0 0,-13.12207"
         style="font-size:18px;font-weight:bold;-inkscape-font-specification:Andale Mono Bold"
         id="path2880" />
      <path
         d="m 278.76172,654.40828 c -0.62111,0.32227 -1.26857,0.56543 -1.94238,0.72949 -0.67384,0.16407 -1.37697,0.2461 -2.10938,0.2461 -2.18555,0 -3.917,-0.60938 -5.19434,-1.82813 -1.27734,-1.2246 -1.91601,-2.88281 -1.91601,-4.97461 0,-2.09764 0.63867,-3.75585 1.91601,-4.97461 1.27734,-1.22459 3.00879,-1.8369 5.19434,-1.83691 0.73241,1e-5 1.43554,0.082 2.10938,0.24609 0.67381,0.16408 1.32127,0.40724 1.94238,0.7295 l 0,2.71582 c -0.62697,-0.42773 -1.24513,-0.7412 -1.85449,-0.94043 -0.60939,-0.19921 -1.25099,-0.29882 -1.92481,-0.29883 -1.20704,10e-6 -2.15625,0.38673 -2.84765,1.16015 -0.69142,0.77345 -1.03712,1.83986 -1.03711,3.19922 -1e-5,1.35352 0.34569,2.417 1.03711,3.19043 0.6914,0.77344 1.64061,1.16016 2.84765,1.16016 0.67382,0 1.31542,-0.0996 1.92481,-0.29883 0.60936,-0.19921 1.22752,-0.51269 1.85449,-0.94043 l 0,2.71582"
         style="font-size:18px;font-weight:bold;-inkscape-font-specification:Andale Mono Bold"
         id="path2882" />
      <path
         d="m 286.83008,647.08699 c 0.53319,10e-6 0.93749,-0.11718 1.21289,-0.35156 0.27538,-0.23437 0.41308,-0.58007 0.41308,-1.03711 0,-0.45116 -0.1377,-0.79393 -0.41308,-1.02832 -0.2754,-0.24022 -0.6797,-0.36034 -1.21289,-0.36035 l -1.87207,0 0,2.77734 1.87207,0 m 0.11426,5.73926 c 0.67968,0 1.18944,-0.14355 1.52929,-0.43066 0.3457,-0.28711 0.51855,-0.7207 0.51856,-1.30078 -10e-6,-0.56836 -0.16993,-0.99316 -0.50977,-1.27442 -0.33985,-0.2871 -0.85254,-0.43066 -1.53808,-0.43066 l -1.98633,0 0,3.43652 1.98633,0 m 3.14648,-4.71973 c 0.72655,0.21095 1.28905,0.6006 1.6875,1.16895 0.39843,0.56836 0.59764,1.26563 0.59766,2.0918 -2e-5,1.26562 -0.42775,2.20898 -1.28321,2.83007 -0.85548,0.6211 -2.15626,0.93164 -3.90234,0.93164 l -5.61621,0 0,-13.12207 5.08008,0 c 1.82225,2e-5 3.14061,0.27541 3.95507,0.82618 0.82031,0.55079 1.23046,1.43262 1.23047,2.6455 -10e-6,0.63869 -0.14942,1.18361 -0.44824,1.63477 -0.29884,0.44532 -0.73243,0.77637 -1.30078,0.99316"
         style="font-size:18px;font-weight:bold;-inkscape-font-specification:Andale Mono Bold"
         id="path2884" />
      <path
         d="m 301.54297,642.00691 9.13183,0 0,2.55762 -5.74804,0 0,2.44336 5.40527,0 0,2.55762 -5.40527,0 0,3.00586 5.9414,0 0,2.55761 -9.32519,0 0,-13.12207"
         style="font-size:18px;font-weight:bold;-inkscape-font-specification:Andale Mono Bold"
         id="path2886" />
      <path
         d="m 313.20605,642.00691 11.03028,0 0,2.04786 -7.04004,8.5166 7.24219,0 0,2.55761 -11.43457,0 0,-2.04785 7.04004,-8.5166 -6.8379,0 0,-2.55762"
         style="font-size:18px;font-weight:bold;-inkscape-font-specification:Andale Mono Bold"
         id="path2888" />
      <path
         d="m 332.14648,647.08699 c 0.5332,10e-6 0.9375,-0.11718 1.21289,-0.35156 0.27539,-0.23437 0.41308,-0.58007 0.41309,-1.03711 -1e-5,-0.45116 -0.1377,-0.79393 -0.41309,-1.02832 -0.27539,-0.24022 -0.67969,-0.36034 -1.21289,-0.36035 l -1.87207,0 0,2.77734 1.87207,0 m 0.11426,5.73926 c 0.67968,0 1.18945,-0.14355 1.5293,-0.43066 0.34569,-0.28711 0.51854,-0.7207 0.51855,-1.30078 -10e-6,-0.56836 -0.16993,-0.99316 -0.50976,-1.27442 -0.33985,-0.2871 -0.85255,-0.43066 -1.53809,-0.43066 l -1.98633,0 0,3.43652 1.98633,0 m 3.14649,-4.71973 c 0.72655,0.21095 1.28905,0.6006 1.6875,1.16895 0.39842,0.56836 0.59764,1.26563 0.59765,2.0918 -1e-5,1.26562 -0.42774,2.20898 -1.2832,2.83007 -0.85548,0.6211 -2.15626,0.93164 -3.90234,0.93164 l -5.61622,0 0,-13.12207 5.08008,0 c 1.82226,2e-5 3.14062,0.27541 3.95508,0.82618 0.8203,0.55079 1.23046,1.43262 1.23047,2.6455 -10e-6,0.63869 -0.14943,1.18361 -0.44824,1.63477 -0.29884,0.44532 -0.73243,0.77637 -1.30078,0.99316"
         style="font-size:18px;font-weight:bold;-inkscape-font-specification:Andale Mono Bold"
         id="path2890" />
      <path
         d="m 346.85937,642.00691 9.13184,0 0,2.55762 -5.74805,0 0,2.44336 5.40528,0 0,2.55762 -5.40528,0 0,3.00586 5.94141,0 0,2.55761 -9.3252,0 0,-13.12207"
         style="font-size:18px;font-weight:bold;-inkscape-font-specification:Andale Mono Bold"
         id="path2892" />
      <path
         d="m 359.16406,642.00691 3.38379,0 0,4.79004 4.87793,-4.79004 3.92871,0 -6.31933,6.21387 6.96972,6.9082 -4.23633,0 -5.2207,-5.16796 0,5.16796 -3.38379,0 0,-13.12207"
         style="font-size:18px;font-weight:bold;-inkscape-font-specification:Andale Mono Bold"
         id="path2894" />
      <path
         d="m 373.12109,642.00691 5.61621,0 c 1.66992,2e-5 2.95019,0.37209 3.84082,1.11622 0.89648,0.73829 1.34472,1.79297 1.34473,3.16406 -10e-6,1.37696 -0.44825,2.4375 -1.34473,3.18164 -0.89063,0.73828 -2.1709,1.10743 -3.84082,1.10742 l -2.23242,0 0,4.55273 -3.38379,0 0,-13.12207 m 3.38379,2.45215 0,3.66504 1.87207,0 c 0.65625,10e-6 1.16308,-0.15819 1.52051,-0.47461 0.35741,-0.32226 0.53612,-0.77636 0.53613,-1.3623 -10e-6,-0.58593 -0.17872,-1.0371 -0.53613,-1.35352 -0.35743,-0.31639 -0.86426,-0.4746 -1.52051,-0.47461 l -1.87207,0"
         style="font-size:18px;font-weight:bold;-inkscape-font-specification:Andale Mono Bold"
         id="path2896" />
    </g>
    <g
       style="font-size:21.63596153px;font-style:normal;font-variant:normal;font-weight:normal;font-stretch:normal;fill:#000000;fill-opacity:1;stroke:none;font-family:DejaVu Sans;-inkscape-font-specification:DejaVu Sans"
       id="text2836">
      <path
         d="m 398.89968,647.47443 2.97917,0 0,0.71838 -4.00603,0 0,-0.71838 c 0.32397,-0.33525 0.76486,-0.78459 1.32267,-1.34802 0.56061,-0.56625 0.91276,-0.93108 1.05644,-1.09448 0.27326,-0.30707 0.46342,-0.56625 0.57048,-0.77754 0.10987,-0.2141 0.1648,-0.42398 0.1648,-0.62964 0,-0.33524 -0.11832,-0.60851 -0.35496,-0.8198 -0.23383,-0.21128 -0.53949,-0.31693 -0.91699,-0.31693 -0.26764,0 -0.55077,0.0465 -0.84938,0.13945 -0.29581,0.093 -0.61274,0.23383 -0.9508,0.42257 l 0,-0.86205 c 0.34369,-0.13804 0.66485,-0.24228 0.96347,-0.31271 0.29862,-0.0704 0.57189,-0.10564 0.8198,-0.10565 0.65359,10e-6 1.17476,0.16341 1.56354,0.49019 0.38877,0.3268 0.58315,0.76347 0.58316,1.30999 -1e-5,0.25919 -0.0493,0.50569 -0.14791,0.73951 -0.0958,0.23102 -0.27186,0.50428 -0.52822,0.8198 -0.0704,0.0817 -0.2944,0.31835 -0.6719,0.70993 -0.3775,0.38878 -0.90995,0.9339 -1.59734,1.63538"
         style="font-size:8.65438461px"
         id="path2899" />
      <path
         d="m 405.50034,642.44576 c -0.43948,0 -0.7705,0.21693 -0.99306,0.65077 -0.21974,0.43103 -0.32961,1.08039 -0.32961,1.94808 0,0.86488 0.10987,1.51424 0.32961,1.94808 0.22256,0.43103 0.55358,0.64654 0.99306,0.64654 0.44229,0 0.77331,-0.21551 0.99306,-0.64654 0.22255,-0.43384 0.33383,-1.0832 0.33383,-1.94808 0,-0.86769 -0.11128,-1.51705 -0.33383,-1.94808 -0.21975,-0.43384 -0.55077,-0.65077 -0.99306,-0.65077 m 0,-0.67613 c 0.70711,10e-6 1.2466,0.28032 1.61847,0.84093 0.37468,0.55781 0.56202,1.36916 0.56203,2.43405 -10e-6,1.06208 -0.18735,1.87343 -0.56203,2.43404 -0.37187,0.55781 -0.91136,0.83671 -1.61847,0.83671 -0.70711,0 -1.24801,-0.2789 -1.6227,-0.83671 -0.37187,-0.56061 -0.5578,-1.37196 -0.5578,-2.43404 0,-1.06489 0.18593,-1.87624 0.5578,-2.43405 0.37469,-0.56061 0.91559,-0.84092 1.6227,-0.84093"
         style="font-size:8.65438461px"
         id="path2901" />
      <path
         d="m 411.01075,642.44576 c -0.43948,0 -0.7705,0.21693 -0.99306,0.65077 -0.21974,0.43103 -0.32961,1.08039 -0.32961,1.94808 0,0.86488 0.10987,1.51424 0.32961,1.94808 0.22256,0.43103 0.55358,0.64654 0.99306,0.64654 0.44229,0 0.77331,-0.21551 0.99306,-0.64654 0.22255,-0.43384 0.33383,-1.0832 0.33383,-1.94808 0,-0.86769 -0.11128,-1.51705 -0.33383,-1.94808 -0.21975,-0.43384 -0.55077,-0.65077 -0.99306,-0.65077 m 0,-0.67613 c 0.70711,10e-6 1.2466,0.28032 1.61847,0.84093 0.37468,0.55781 0.56202,1.36916 0.56203,2.43405 -1e-5,1.06208 -0.18735,1.87343 -0.56203,2.43404 -0.37187,0.55781 -0.91136,0.83671 -1.61847,0.83671 -0.70712,0 -1.24801,-0.2789 -1.6227,-0.83671 -0.37187,-0.56061 -0.5578,-1.37196 -0.5578,-2.43404 0,-1.06489 0.18593,-1.87624 0.5578,-2.43405 0.37469,-0.56061 0.91558,-0.84092 1.6227,-0.84093"
         style="font-size:8.65438461px"
         id="path2903" />
      <path
         d="m 415.43091,647.47443 2.97917,0 0,0.71838 -4.00603,0 0,-0.71838 c 0.32397,-0.33525 0.76486,-0.78459 1.32266,-1.34802 0.56062,-0.56625 0.91277,-0.93108 1.05645,-1.09448 0.27326,-0.30707 0.46342,-0.56625 0.57048,-0.77754 0.10986,-0.2141 0.1648,-0.42398 0.1648,-0.62964 0,-0.33524 -0.11832,-0.60851 -0.35496,-0.8198 -0.23383,-0.21128 -0.5395,-0.31693 -0.917,-0.31693 -0.26763,0 -0.55076,0.0465 -0.84938,0.13945 -0.2958,0.093 -0.61274,0.23383 -0.9508,0.42257 l 0,-0.86205 c 0.3437,-0.13804 0.66486,-0.24228 0.96348,-0.31271 0.29862,-0.0704 0.57189,-0.10564 0.8198,-0.10565 0.65358,10e-6 1.17476,0.16341 1.56354,0.49019 0.38876,0.3268 0.58315,0.76347 0.58315,1.30999 0,0.25919 -0.0493,0.50569 -0.1479,0.73951 -0.0958,0.23102 -0.27186,0.50428 -0.52822,0.8198 -0.0704,0.0817 -0.2944,0.31835 -0.6719,0.70993 -0.3775,0.38878 -0.90995,0.9339 -1.59734,1.63538"
         style="font-size:8.65438461px"
         id="path2905" />
    </g>
    <path
       style="fill:none;stroke:#000000;stroke-width:1px;stroke-linecap:butt;stroke-linejoin:miter;stroke-opacity:1"
       d="m 201.16877,659.91792 216.74131,0"
       id="path2840" />
    <g
       transform="scale(1.1674577,0.85656208)"
       style="font-size:36.60410309px;font-style:normal;font-variant:normal;font-weight:normal;font-stretch:normal;fill:#000000;fill-opacity:1;stroke:none;font-family:DejaVu Sans;-inkscape-font-specification:DejaVu Sans"
       id="text2858">
      <path
         d="m 98.51083,1124.902 18.57015,0 0,5.2011 -11.68901,0 0,4.9687 10.99196,0 0,5.2011 -10.99196,0 0,6.1126 12.08222,0 0,5.201 -18.96336,0 0,-26.6845"
         style="font-weight:bold;-inkscape-font-specification:Andale Mono Bold"
         id="path2927" />
      <path
         d="m 123.53317,1124.902 6.88114,0 0,15.9964 c -1e-5,2.2044 0.35745,3.7832 1.07239,4.7364 0.72682,0.9413 1.90645,1.412 3.53887,1.412 1.64431,0 2.82393,-0.4707 3.53887,-1.412 0.72682,-0.9532 1.09024,-2.532 1.09026,-4.7364 l 0,-15.9964 6.88114,0 0,15.9964 c -2e-5,3.7772 -0.9473,6.5893 -2.84182,8.4361 -1.89457,1.8469 -4.78405,2.7704 -8.66845,2.7704 -3.87252,0 -6.75604,-0.9235 -8.65058,-2.7704 -1.89455,-1.8468 -2.84183,-4.6589 -2.84182,-8.4361 l 0,-15.9964"
         style="font-weight:bold;-inkscape-font-specification:Andale Mono Bold"
         id="path2929" />
      <path
         d="m 163.05058,1136.734 c 1.44175,0 2.47243,-0.2681 3.09205,-0.8043 0.6315,-0.5362 0.94726,-1.4179 0.94727,-2.6452 -1e-5,-1.2154 -0.31577,-2.0852 -0.94727,-2.6095 -0.61962,-0.5242 -1.6503,-0.7864 -3.09205,-0.7864 l -2.89544,0 0,6.8454 2.89544,0 m -2.89544,4.7542 0,10.0983 -6.88114,0 0,-26.6845 10.50938,0 c 3.51503,0 6.08875,0.5899 7.72118,1.7695 1.6443,1.1796 2.46646,3.0444 2.46649,5.5942 -3e-5,1.7635 -0.42898,3.2112 -1.28687,4.3432 -0.84601,1.132 -2.12692,1.966 -3.84271,2.5022 0.94129,0.2145 1.78133,0.703 2.5201,1.4656 0.75065,0.7507 1.50728,1.8946 2.26989,3.4317 l 3.73547,7.5781 -7.32797,0 -3.2529,-6.6309 c -0.65536,-1.3345 -1.32262,-2.246 -2.00179,-2.7346 -0.66727,-0.4885 -1.56093,-0.7327 -2.68096,-0.7328 l -1.94817,0"
         style="font-weight:bold;-inkscape-font-specification:Andale Mono Bold"
         id="path2931" />
      <path
         d="m 193.63145,1129.406 c -2.09712,10e-5 -3.72357,0.7746 -4.87936,2.3235 -1.1558,1.5491 -1.73369,3.7296 -1.73369,6.5416 0,2.8001 0.57789,4.9747 1.73369,6.5237 1.15579,1.549 2.78224,2.3235 4.87936,2.3235 2.10901,0 3.74142,-0.7745 4.89723,-2.3235 1.15577,-1.549 1.73367,-3.7236 1.73369,-6.5237 -2e-5,-2.812 -0.57792,-4.9925 -1.73369,-6.5416 -1.15581,-1.5489 -2.78822,-2.3234 -4.89723,-2.3235 m 0,-4.9866 c 4.28952,10e-5 7.64966,1.2274 10.08043,3.6819 2.43071,2.4546 3.64608,5.8445 3.64611,10.1698 -3e-5,4.3134 -1.2154,7.6973 -3.64611,10.1519 -2.43077,2.4546 -5.79091,3.6819 -10.08043,3.6819 -4.27764,0 -7.63778,-1.2273 -10.08043,-3.6819 -2.43074,-2.4546 -3.64611,-5.8385 -3.64611,-10.1519 0,-4.3253 1.21537,-7.7152 3.64611,-10.1698 2.44265,-2.4545 5.80279,-3.6818 10.08043,-3.6819"
         style="font-weight:bold;-inkscape-font-specification:Andale Mono Bold"
         id="path2933" />
    </g>
    <g
       transform="scale(1.208306,0.82760494)"
       style="font-size:37.88484955px;font-style:normal;font-variant:normal;font-weight:normal;font-stretch:normal;fill:#000000;fill-opacity:1;stroke:none;font-family:DejaVu Sans;-inkscape-font-specification:DejaVu Sans"
       id="text2858-6">
      <path
         d="m 95.180554,1207.6637 19.219906,0 0,5.383 -12.098,0 0,5.1426 11.37656,0 0,5.383 -11.37656,0 0,6.3265 12.50496,0 0,5.3831 -19.626866,0 0,-27.6182"
         style="font-weight:bold;-inkscape-font-specification:Andale Mono Bold"
         id="path2918" />
      <path
         d="m 117.23072,1207.6637 7.78785,0 6.28948,9.8411 6.28948,-9.8411 7.80635,0 -10.52563,15.9826 0,11.6356 -7.12191,0 0,-11.6356 -10.52562,-15.9826"
         style="font-weight:bold;-inkscape-font-specification:Andale Mono Bold"
         id="path2920" />
      <path
         d="m 148.53012,1207.6637 11.82051,0 c 3.51469,0 6.2093,0.7831 8.08383,2.3493 1.88682,1.5539 2.83024,3.7737 2.83027,6.6594 -3e-5,2.8981 -0.94345,5.1303 -2.83027,6.6965 -1.87453,1.5538 -4.56914,2.3308 -8.08383,2.3308 l -4.69861,0 0,9.5822 -7.1219,0 0,-27.6182 m 7.1219,5.161 0,7.7139 3.94018,0 c 1.3812,0 2.44794,-0.333 3.20023,-0.9989 0.75225,-0.6783 1.12839,-1.634 1.12841,-2.8673 -2e-5,-1.2332 -0.37616,-2.1828 -1.12841,-2.8488 -0.75229,-0.6659 -1.81903,-0.9988 -3.20023,-0.9989 l -3.94018,0"
         style="font-weight:bold;-inkscape-font-specification:Andale Mono Bold"
         id="path2922" />
      <path
         d="m 188.89376,1207.1642 c 4.42728,0 7.89882,1.2703 10.41464,3.8107 2.52809,2.5405 3.79215,5.7222 3.79218,9.5452 -3e-5,4.2916 -1.60323,7.4179 -4.8096,9.3787 l 5.67903,0 0,5.3831 -12.67145,0 0,-5.7716 c 0.46861,-0.2589 0.88174,-0.5672 1.2394,-0.9249 2.13347,-2.1581 3.20021,-4.7911 3.20023,-7.8988 -2e-5,-2.3678 -0.59813,-4.3533 -1.79435,-5.9565 -1.19625,-1.6032 -2.87961,-2.4048 -5.05008,-2.4048 -2.1705,0 -3.85385,0.8016 -5.05008,2.4048 -1.19624,1.6032 -1.79436,3.5887 -1.79435,5.9565 -1e-5,3.1077 1.06674,5.7407 3.20024,7.8988 0.35762,0.3577 0.77075,0.666 1.23939,0.9249 l 0,5.7716 -12.67144,0 0,-5.3831 5.67903,0 c -3.20641,-1.9608 -4.80961,-5.0871 -4.8096,-9.3787 -1e-5,-3.823 1.25789,-7.0047 3.77368,-9.5452 2.52812,-2.5404 6.00582,-3.8107 10.43313,-3.8107"
         style="font-weight:bold;-inkscape-font-specification:Andale Mono Bold"
         id="path2924" />
    </g>
    <g
       id="g3320"
       transform="matrix(0.30496453,0,0,0.30496455,52.836184,534.03289)">
      <rect
         id="rect3260"
         height="201.42857"
         width="302.14285"
         x="110.71428"
         y="355.21933"
         style="fill:#333333" />
      <g
         id="g3262"
         transform="matrix(11.190476,0,0,11.190476,261.78571,455.93362)"
         style="fill:#ffffff">
        <use
           style="fill:#ffffff"
           id="use3264"
           y="-6"
           xlink:href="#s"
           x="0"
           width="1"
           height="1" />
        <use
           style="fill:#ffffff"
           id="use3266"
           y="6"
           xlink:href="#s"
           x="0"
           width="1"
           height="1" />
        <g
           style="fill:#ffffff"
           id="l">
          <use
             style="fill:#ffffff"
             id="use3269"
             x="-6"
             xlink:href="#s"
             y="0"
             width="1"
             height="1" />
          <use
             style="fill:#ffffff"
             id="use3271"
             transform="matrix(-0.80901699,-0.58778525,0.58778525,-0.80901699,-3,-5.1961524)"
             xlink:href="#s"
             x="0"
             y="0"
             width="1"
             height="1" />
          <use
             style="fill:#ffffff"
             id="use3273"
             transform="matrix(-0.80901699,0.58778525,-0.58778525,-0.80901699,-5.1961524,-3)"
             xlink:href="#s"
             x="0"
             y="0"
             width="1"
             height="1" />
          <use
             style="fill:#ffffff"
             id="use3275"
             transform="matrix(0.30901699,0.95105652,-0.95105652,0.30901699,-5.1961524,3)"
             xlink:href="#s"
             x="0"
             y="0"
             width="1"
             height="1" />
          <use
             style="fill:#ffffff"
             id="use3277"
             transform="matrix(0.30901699,0.95105652,-0.95105652,0.30901699,-3,5.1961524)"
             xlink:href="#s"
             x="0"
             y="0"
             width="1"
             height="1" />
        </g>
        <use
           style="fill:#ffffff"
           id="use3279"
           transform="scale(-1,1)"
           xlink:href="#l"
           x="0"
           y="0"
           width="1"
           height="1" />
      </g>
    </g>
    <g
       id="g3460"
       transform="translate(-20.947208,-72.588587)">
      <path
         d="m 51.850993,763.40032 13.916882,0 0,10.9357 -22.982978,0 0,-10.9357 11.544445,-18.58683 c 1.030864,-1.70022 1.793432,-3.36183 2.287707,-4.98482 0.494239,-1.62294 0.741368,-3.3103 0.741386,-5.06212 -1.8e-5,-2.7049 -0.501336,-4.88173 -1.503955,-6.53049 -0.988531,-1.64869 -2.308903,-2.47305 -3.961122,-2.47311 -1.270959,6e-5 -2.66194,0.5024 -4.172946,1.50704 -1.511024,0.97899 -3.12795,2.44739 -4.850786,4.4052 l 0,-12.67459 c 1.835809,-1.10768 3.650439,-1.94493 5.443895,-2.51173 1.793438,-0.59246 3.551581,-0.88871 5.274435,-0.88878 3.784583,7e-5 6.721882,1.51998 8.811906,4.55977 2.104101,3.03989 3.156162,7.27764 3.156188,12.71324 -2.6e-5,3.14292 -0.444857,6.07972 -1.334495,8.81039 -0.889688,2.70496 -2.760804,6.33731 -5.613354,10.89706 l -6.757208,10.81977"
         style="font-size:58.59334946px;font-style:normal;font-variant:normal;font-weight:bold;font-stretch:normal;fill:#000000;fill-opacity:1;stroke:#000000;stroke-width:0.99999988;font-family:Sans;-inkscape-font-specification:Sans Bold"
         id="path3406" />
      <path
         d="m 89.471059,745.43176 c -2.2e-5,-7.21314 -0.374243,-12.28813 -1.12267,-15.22496 -0.734344,-2.96251 -1.977052,-4.44379 -3.728117,-4.44385 -1.751094,6e-5 -3.000859,1.48134 -3.7493,4.44385 -0.748456,2.93683 -1.122677,8.01182 -1.12267,15.22496 -7e-6,7.2905 0.374214,12.42988 1.12267,15.41817 0.748441,2.98834 1.998206,4.48249 3.7493,4.48249 1.736945,0 2.979646,-1.49415 3.728117,-4.48249 0.748427,-2.98829 1.122648,-8.12767 1.12267,-15.41817 m 8.155248,0.11589 c -2.9e-5,9.55748 -1.129755,16.93811 -3.389191,22.14189 -2.259488,5.17804 -5.4651,7.76706 -9.616844,7.76706 -4.165893,0 -7.378569,-2.58902 -9.638019,-7.76706 -2.25947,-5.20378 -3.389201,-12.58441 -3.389199,-22.14189 -2e-6,-9.58319 1.129729,-16.96382 3.389199,-22.1419 2.25945,-5.20373 5.472126,-7.80563 9.638019,-7.8057 4.151744,7e-5 7.357356,2.60197 9.616844,7.8057 2.259436,5.17808 3.389162,12.55871 3.389191,22.1419"
         style="font-size:58.59334946px;font-style:normal;font-variant:normal;font-weight:bold;font-stretch:normal;fill:#000000;fill-opacity:1;stroke:#000000;stroke-width:0.99999988;font-family:Sans;-inkscape-font-specification:Sans Bold"
         id="path3408" />
      <path
         style="fill:#ffffff;fill-opacity:1;stroke:none"
         d="m 84.10968,713.45093 15.531095,0 0,32.57742 -15.531095,0 0,-32.57742 z"
         id="rect3412" />
      <path
         style="fill:#ffffff;fill-opacity:1;stroke:none"
         d="m 68.831123,746.02832 15.278557,0 0,31.81981 -15.278557,0 0,-31.81981 z"
         id="rect3412-6" />
      <path
         sodipodi:nodetypes="ccccc"
         id="rect3457"
         d="m 45.456863,735.99504 19.950513,-19.12976 3.598668,46.34074 -28.726213,0 5.177032,-27.21098 z"
         style="fill:#ffffff;fill-opacity:1;stroke:none" />
    </g>
    <g
       transform="scale(0.96327745,1.0381225)"
       style="font-size:30.07865523999999979px;font-style:normal;font-variant:normal;font-weight:normal;font-stretch:normal;fill:#ffffff;fill-opacity:1;stroke:none;font-family:Sans;-inkscape-font-specification:Sans"
       id="text3742-8">
      <path
         d="m 757.96327,684.03156 10.35423,0 0,2.49676 -13.92313,0 0,-2.49676 c 1.12599,-1.16516 2.65832,-2.72686 4.59698,-4.68511 1.94845,-1.96802 3.17235,-3.23599 3.67171,-3.80389 0.94974,-1.06723 1.61065,-1.96802 1.98273,-2.70238 0.38184,-0.74412 0.57277,-1.47356 0.57279,-2.18834 -2e-5,-1.16514 -0.41125,-2.11488 -1.2337,-2.84924 -0.81268,-0.73433 -1.87503,-1.1015 -3.18704,-1.10152 -0.93018,2e-5 -1.9142,0.16158 -2.95206,0.48467 -1.02808,0.32313 -2.1296,0.81269 -3.30454,1.46868 l 0,-2.99611 c 1.19453,-0.47975 2.31073,-0.84203 3.3486,-1.08683 1.03786,-0.24476 1.98761,-0.36715 2.84925,-0.36717 2.27155,2e-5 4.08293,0.56791 5.43413,1.70367 1.35117,1.1358 2.02677,2.65344 2.02678,4.55292 -1e-5,0.90081 -0.17136,1.75754 -0.51404,2.5702 -0.33291,0.80289 -0.94486,1.75264 -1.83585,2.84925 -0.24479,0.28395 -1.0232,1.10642 -2.33521,2.46739 -1.31203,1.35119 -3.16257,3.2458 -5.55163,5.68381"
         style="fill:#ffffff;font-family:Sans;-inkscape-font-specification:Sans"
         id="path2952" />
      <path
         d="m 780.90412,666.55421 c -1.52744,2e-5 -2.6779,0.75395 -3.4514,2.26178 -0.76373,1.49807 -1.14558,3.75495 -1.14558,6.77063 0,3.00592 0.38185,5.26279 1.14558,6.77064 0.7735,1.49806 1.92396,2.24709 3.4514,2.24708 1.53722,10e-6 2.68768,-0.74902 3.45141,-2.24708 0.7735,-1.50785 1.16025,-3.76472 1.16026,-6.77064 -1e-5,-3.01568 -0.38676,-5.27256 -1.16026,-6.77063 -0.76373,-1.50783 -1.91419,-2.26176 -3.45141,-2.26178 m 0,-2.34989 c 2.45759,2e-5 4.33261,0.97425 5.62507,2.92268 1.30221,1.93868 1.95333,4.75855 1.95335,8.45962 -2e-5,3.6913 -0.65114,6.51117 -1.95335,8.45962 -1.29246,1.93867 -3.16748,2.908 -5.62507,2.908 -2.4576,0 -4.33752,-0.96933 -5.63974,-2.908 -1.29245,-1.94845 -1.93867,-4.76832 -1.93867,-8.45962 0,-3.70107 0.64622,-6.52094 1.93867,-8.45962 1.30222,-1.94843 3.18214,-2.92266 5.63974,-2.92268"
         style="fill:#ffffff;font-family:Sans;-inkscape-font-specification:Sans"
         id="path2954" />
    </g>
    <g
       transform="scale(0.96327745,1.0381225)"
       style="font-size:30.07865523999999979px;font-style:normal;font-variant:normal;font-weight:normal;font-stretch:normal;fill:#ffffff;fill-opacity:1;stroke:none;font-family:Sans;-inkscape-font-specification:Sans"
       id="text3742-8-5">
      <path
         d="m 756.24282,825.61151 10.35422,0 0,2.49677 -13.92313,0 0,-2.49677 c 1.12599,-1.16515 2.65832,-2.72685 4.59698,-4.6851 1.94845,-1.96803 3.17235,-3.23599 3.67172,-3.80389 0.94973,-1.06723 1.61064,-1.96803 1.98272,-2.70238 0.38184,-0.74412 0.57277,-1.47357 0.57279,-2.18834 -2e-5,-1.16514 -0.41125,-2.11489 -1.2337,-2.84925 -0.81268,-0.73432 -1.87503,-1.10149 -3.18704,-1.10151 -0.93018,2e-5 -1.9142,0.16157 -2.95206,0.48466 -1.02808,0.32313 -2.12959,0.81269 -3.30454,1.46869 l 0,-2.99612 c 1.19453,-0.47975 2.31073,-0.84202 3.3486,-1.08682 1.03786,-0.24476 1.98761,-0.36715 2.84925,-0.36718 2.27155,3e-5 4.08293,0.56792 5.43413,1.70368 1.35118,1.1358 2.02677,2.65344 2.02679,4.55292 -2e-5,0.90081 -0.17137,1.75754 -0.51404,2.5702 -0.33292,0.80289 -0.94487,1.75264 -1.83586,2.84924 -0.24479,0.28396 -1.0232,1.10642 -2.33521,2.46739 -1.31203,1.3512 -3.16257,3.2458 -5.55162,5.68381"
         style="fill:#ffffff;font-family:Sans;-inkscape-font-specification:Sans"
         id="path2944" />
      <path
         d="m 779.18367,808.13417 c -1.52744,2e-5 -2.67791,0.75394 -3.45141,2.26177 -0.76372,1.49808 -1.14558,3.75495 -1.14558,6.77064 0,3.00591 0.38186,5.26279 1.14558,6.77063 0.7735,1.49806 1.92397,2.24709 3.45141,2.24709 1.53721,0 2.68768,-0.74903 3.4514,-2.24709 0.7735,-1.50784 1.16025,-3.76472 1.16026,-6.77063 -1e-5,-3.01569 -0.38676,-5.27256 -1.16026,-6.77064 -0.76372,-1.50783 -1.91419,-2.26175 -3.4514,-2.26177 m 0,-2.3499 c 2.45758,3e-5 4.3326,0.97425 5.62506,2.92269 1.30221,1.93868 1.95333,4.75855 1.95335,8.45962 -2e-5,3.6913 -0.65114,6.51117 -1.95335,8.45962 -1.29246,1.93866 -3.16748,2.90799 -5.62506,2.90799 -2.45761,0 -4.33752,-0.96933 -5.63975,-2.90799 -1.29245,-1.94845 -1.93867,-4.76832 -1.93867,-8.45962 0,-3.70107 0.64622,-6.52094 1.93867,-8.45962 1.30223,-1.94844 3.18214,-2.92266 5.63975,-2.92269"
         style="fill:#ffffff;font-family:Sans;-inkscape-font-specification:Sans"
         id="path2946" />
    </g>
    <g
       transform="scale(0.96327745,1.0381225)"
       style="font-size:30.07865523999999979px;font-style:normal;font-variant:normal;font-weight:normal;font-stretch:normal;fill:#ffffff;fill-opacity:1;stroke:none;font-family:Sans;-inkscape-font-specification:Sans"
       id="text3742-8-59">
      <path
         d="m 759.38875,965.73175 10.35423,0 0,2.49677 -13.92313,0 0,-2.49677 c 1.12599,-1.16515 2.65831,-2.72685 4.59698,-4.6851 1.94845,-1.96803 3.17235,-3.23599 3.67171,-3.80389 0.94974,-1.06724 1.61065,-1.96803 1.98272,-2.70238 0.38185,-0.74412 0.57278,-1.47357 0.57279,-2.18834 -10e-6,-1.16514 -0.41124,-2.11489 -1.23369,-2.84925 -0.81269,-0.73432 -1.87503,-1.10149 -3.18705,-1.10151 -0.93017,2e-5 -1.91419,0.16157 -2.95205,0.48466 -1.02809,0.32313 -2.1296,0.81269 -3.30454,1.46869 l 0,-2.99612 c 1.19452,-0.47975 2.31072,-0.84202 3.3486,-1.08683 1.03786,-0.24475 1.98761,-0.36714 2.84924,-0.36717 2.27156,3e-5 4.08293,0.56792 5.43414,1.70368 1.35117,1.1358 2.02676,2.65344 2.02678,4.55292 -2e-5,0.90081 -0.17136,1.75754 -0.51404,2.5702 -0.33292,0.80289 -0.94487,1.75264 -1.83585,2.84924 -0.2448,0.28396 -1.0232,1.10642 -2.33521,2.46739 -1.31204,1.3512 -3.16258,3.2458 -5.55163,5.68381"
         style="fill:#ffffff;font-family:Sans;-inkscape-font-specification:Sans"
         id="path2936" />
      <path
         d="m 782.3296,948.25441 c -1.52744,2e-5 -2.67791,0.75394 -3.45141,2.26177 -0.76372,1.49808 -1.14558,3.75495 -1.14557,6.77064 -10e-6,3.00591 0.38185,5.26279 1.14557,6.77063 0.7735,1.49806 1.92397,2.24709 3.45141,2.24709 1.53721,0 2.68768,-0.74903 3.45141,-2.24709 0.77349,-1.50784 1.16024,-3.76472 1.16026,-6.77063 -2e-5,-3.01569 -0.38677,-5.27256 -1.16026,-6.77064 -0.76373,-1.50783 -1.9142,-2.26175 -3.45141,-2.26177 m 0,-2.3499 c 2.45759,3e-5 4.3326,0.97425 5.62506,2.92269 1.30222,1.93868 1.95333,4.75855 1.95335,8.45962 -2e-5,3.6913 -0.65113,6.51117 -1.95335,8.45962 -1.29246,1.93866 -3.16747,2.90799 -5.62506,2.90799 -2.45761,0 -4.33752,-0.96933 -5.63975,-2.90799 -1.29244,-1.94845 -1.93866,-4.76832 -1.93866,-8.45962 0,-3.70107 0.64622,-6.52094 1.93866,-8.45962 1.30223,-1.94844 3.18214,-2.92266 5.63975,-2.92269"
         style="fill:#ffffff;font-family:Sans;-inkscape-font-specification:Sans"
         id="path2938" />
    </g>
    <g
       transform="scale(1.1638509,0.85921659)"
       style="font-size:46.55403519000000045px;font-style:normal;font-variant:normal;font-weight:normal;font-stretch:normal;fill:#ffffff;fill-opacity:1;stroke:none;font-family:DejaVu Sans;-inkscape-font-specification:DejaVu Sans"
       id="text3528">
      <path
         d="m 648.84048,885.44399 0,4.8418 c -1.37906,-1.59117 -2.71264,-2.72775 -4.00073,-3.40972 -1.27299,-0.68191 -2.68234,-1.02288 -4.22806,-1.02291 -2.37924,3e-5 -4.33414,0.75774 -5.86471,2.27314 -1.5306,1.51546 -2.53836,3.6901 -3.02329,6.52393 l 13.11606,0 -1.25023,2.79597 -12.22953,0 c -0.0303,0.36372 -0.053,0.71985 -0.0682,1.06838 -10e-6,0.34857 -10e-6,0.78804 0,1.31842 -10e-6,0.48496 -10e-6,0.9017 0,1.25024 0.0152,0.34856 0.0379,0.70469 0.0682,1.06837 l 10.13823,0 -1.27296,2.79597 -8.50157,0 c 0.48493,2.83387 1.49269,5.01609 3.02329,6.54667 1.53057,1.53058 3.48547,2.29588 5.86471,2.29587 1.54572,10e-6 2.95507,-0.34097 4.22806,-1.02291 1.28809,-0.68194 2.62167,-1.81851 4.00073,-3.40972 l 0,4.79634 c -1.34876,1.09111 -2.7278,1.90944 -4.13712,2.45499 -1.39422,0.54556 -2.81872,0.81834 -4.27352,0.81834 -3.59158,0 -6.56183,-1.09869 -8.91073,-3.29607 -2.33377,-2.19737 -3.80374,-5.25853 -4.40991,-9.18351 l -4.79633,0 1.25023,-2.79597 3.15967,0 c 0,-0.34853 -0.008,-0.69708 -0.0227,-1.04564 -10e-6,-0.36369 -10e-6,-0.78801 0,-1.27297 -10e-6,-0.53038 -10e-6,-0.96985 0,-1.31842 0.0152,-0.36368 0.0227,-0.71981 0.0227,-1.06838 l -4.4099,0 1.25023,-2.79597 3.5461,0 c 0.60617,-3.89463 2.08372,-6.94064 4.43264,-9.13805 2.34891,-2.19734 5.31157,-3.29602 8.888,-3.29606 1.4851,4e-5 2.92476,0.27281 4.31898,0.81833 1.40933,0.53044 2.77321,1.33362 4.09166,2.40954"
         style="-inkscape-font-specification:DejaVu Sans;fill:#ffffff"
         id="path2949" />
    </g>
    <g
       transform="scale(1.1638509,0.85921659)"
       style="font-size:46.55403519000000045px;font-style:normal;font-variant:normal;font-weight:normal;font-stretch:normal;fill:#ffffff;fill-opacity:1;stroke:none;font-family:DejaVu Sans;-inkscape-font-specification:DejaVu Sans"
       id="text3528-1">
      <path
         d="m 647.66379,1061.1054 0,4.8418 c -1.37907,-1.5912 -2.71265,-2.7278 -4.00074,-3.4098 -1.27298,-0.6819 -2.68233,-1.0228 -4.22805,-1.0229 -2.37925,10e-5 -4.33415,0.7578 -5.86472,2.2732 -1.5306,1.5154 -2.53836,3.6901 -3.02329,6.5239 l 13.11606,0 -1.25023,2.796 -12.22953,0 c -0.0303,0.3637 -0.0531,0.7198 -0.0682,1.0684 -10e-6,0.3485 -10e-6,0.788 0,1.3184 -10e-6,0.4849 -10e-6,0.9017 0,1.2502 0.0151,0.3486 0.0379,0.7047 0.0682,1.0684 l 10.13823,0 -1.27296,2.796 -8.50157,0 c 0.48493,2.8338 1.49269,5.016 3.02329,6.5466 1.53057,1.5306 3.48547,2.2959 5.86472,2.2959 1.54572,0 2.95507,-0.341 4.22805,-1.0229 1.28809,-0.682 2.62167,-1.8185 4.00074,-3.4097 l 0,4.7963 c -1.34876,1.0911 -2.7278,1.9094 -4.13713,2.455 -1.39422,0.5456 -2.81872,0.8183 -4.27351,0.8183 -3.59159,0 -6.56183,-1.0987 -8.91074,-3.296 -2.33377,-2.1974 -3.80374,-5.2586 -4.4099,-9.1835 l -4.79634,0 1.25023,-2.796 3.15967,0 c 0,-0.3485 -0.008,-0.6971 -0.0227,-1.0457 0,-0.3636 0,-0.788 0,-1.2729 0,-0.5304 0,-0.9699 0,-1.3184 0.0152,-0.3637 0.0227,-0.7199 0.0227,-1.0684 l -4.4099,0 1.25023,-2.796 3.54611,0 c 0.60616,-3.8946 2.08371,-6.9406 4.43263,-9.138 2.34891,-2.1974 5.31157,-3.2961 8.88801,-3.2961 1.4851,0 2.92476,0.2728 4.31897,0.8183 1.40933,0.5305 2.77322,1.3336 4.09167,2.4096"
         style="-inkscape-font-specification:DejaVu Sans;fill:#ffffff"
         id="path2941" />
    </g>
  </g>
</svg>
