<?xml version="1.0" encoding="UTF-8" standalone="no"?>
<svg
   viewBox="0 0 12141.905 9834.998"
   version="1.1"
   id="svg16"
   sodipodi:docname="MEN-logo.svg"
   inkscape:version="1.1.2 (0a00cf5339, 2022-02-04)"
   width="12141.905"
   height="9834.998"
   xmlns:inkscape="http://www.inkscape.org/namespaces/inkscape"
   xmlns:sodipodi="http://sodipodi.sourceforge.net/DTD/sodipodi-0.dtd"
   xmlns="http://www.w3.org/2000/svg"
   xmlns:svg="http://www.w3.org/2000/svg">
  <defs
     id="defs20">
    <rect
       x="8827.2666"
       y="2329.752"
       width="1699.6333"
       height="2243.2095"
       id="rect3633" />
  </defs>
  <sodipodi:namedview
     id="namedview18"
     pagecolor="#ffffff"
     bordercolor="#666666"
     borderopacity="1.0"
     inkscape:pageshadow="2"
     inkscape:pageopacity="0.0"
     inkscape:pagecheckerboard="0"
     showgrid="false"
     inkscape:zoom="0.074969056"
     inkscape:cx="8350.1118"
     inkscape:cy="3221.3291"
     inkscape:window-width="2560"
     inkscape:window-height="1422"
     inkscape:window-x="0"
     inkscape:window-y="0"
     inkscape:window-maximized="1"
     inkscape:current-layer="svg16"
     fit-margin-top="0"
     fit-margin-left="0"
     fit-margin-right="0"
     fit-margin-bottom="0" />
  <!-- fond -->
  <path
     fill="#ffffff"
     d="M 0,0 H 12141.905 V 9834.9981 H 0 Z"
     id="path2"
     style="stroke-width:1.35339" />
  <!-- Marianne -->
  <g
     id="g10"
     transform="translate(-0.09451694,-17.001886)">
    <path
       d="m 2145,1884 c 11,-11 22,-22 32,-34 20,-23 40,-44 63,-64 7,-6 14,-12 21,-16 2,-2 2,-6 4,-8 -9,4 -15,11 -25,15 -2,0 -4,-2 -2,-4 7,-5 14,-10 20,-15 h -1 c -2,0 -2,-2 -2,-4 -25,-4 -43,13 -60,28 -4,2 -8,-2 -9,-2 -28,9 -49,34 -77,45 v -4 c -11,4 -22,11 -34,13 -17,4 -32,2 -47,2 -23,2 -46,7 -69,12 -1,0 -1,0 -2,1 -12,3 -24,8 -35,14 l -4,4 c -4,4 -8,9 -13,11 -12,6 -21,16 -31,25 -1,1 -2,1 -3,1 -10,10 -20,20 -30,29 -1,1 -4,1 -6,1 0,-1 1,-1 1,-2 2,-3 3,-5 5,-8 l 6,-9 c 3,-4 5,-8 8,-11 1,-1 1,-2 0,-2 -1,-1 -2,-1 -3,-1 9,-9 21,-17 32,-24 -1,0 -3,-1 -2,-2 1,-2 2,-3 3,-5 0,-1 0,-1 1,-2 0,-1 -1,-1 -1,-2 l -9,6 c -5,4 -8,12 -15,12 h -3 c -1,0 -2,0 -2,-1 v -1 c 0,-1 1,-1 1,-2 0,-1 1,-1 1,-2 0,0 0,-1 1,-1 0,-1 1,-2 1,-2 0,-1 1,-1 1,-2 1,-1 2,-3 2,-4 0,-1 1,-1 1,-2 1,-1 1,-2 2,-3 1,-2 0,-3 -1,-3 3,-5 8,-8 13,-11 h -1 c 7,-4 15,-8 22,-12 l 3,-3 c -11,4 -20,9 -30,15 0,0 -2,1 -3,2 0,0 -2,1 -5,-2 v -1 c 2,-4 8,-6 11,-9 2,0 4,0 4,2 61,-47 144,-36 214,-60 6,-4 11,-8 17,-11 9,-4 17,-13 28,-19 15,-11 26,-25 32,-43 0,-2 -2,-4 -2,-4 -25,26 -53,47 -83,62 -40,21 -83,17 -125,23 2,-4 6,-4 9,-4 0,-6 4,-8 8,-11 h 6 c 2,0 2,-4 4,-4 4,0 10,-2 8,-2 -6,-8 -17,6 -26,0 4,-4 2,-9 6,-11 h 8 c 0,-4 4,-8 4,-8 28,-17 55,-30 81,-45 -6,0 -9,6 -15,2 4,0 0,-6 4,-6 21,-6 38,-17 59,-25 -8,0 -13,6 -21,0 4,-2 6,-6 11,-6 v -6 c 0,-2 2,-2 4,-2 -2,0 -4,-2 -4,-2 2,-4 8,-2 11,-6 -2,0 -6,0 -6,-2 6,-8 15,-9 25,-11 -2,-4 -8,0 -8,-4 0,-2 2,-2 4,-2 h -4 c -4,-2 -2,-6 -2,-8 11,-13 11,-30 17,-45 -2,0 -4,0 -4,-2 -19,21 -49,28 -77,36 h -13 c -9,4 -23,4 -32,-2 -8,-4 -11,-9 -19,-15 -15,-9 -30,-17 -47,-23 -47,-15 -96,-23 -145,-21 21,-11 44,-12 66,-19 32,-9 62,-21 96,-19 -6,-2 -13,0 -19,0 -26,-2 -53,6 -81,11 -19,4 -36,11 -55,15 -11,4 -17,15 -30,13 v -6 c 19,-23 42,-45 72,-47 34,-6 66,0 100,4 25,2 47,8 72,13 9,0 11,15 19,17 11,4 23,0 34,8 0,-4 -2,-8 0,-11 8,-8 17,2 25,-2 15,-9 -13,-26 -21,-40 0,-2 2,-4 2,-4 15,13 26,28 45,38 9,4 32,9 28,-2 -9,-21 -28,-38 -44,-57 v -8 c -4,0 -4,-2 -6,-4 v -8 c -8,-4 -6,-11 -9,-17 -6,-9 -2,-23 -6,-34 -4,-11 -6,-21 -8,-32 -6,-32 -13,-60 -17,-91 -4,-36 21,-64 38,-96 13,-23 28,-45 53,-60 6,-23 21,-42 36,-60 15,-18 40,-30 58,-38 26,-12 50,-19 50,-19 H 1000 v 1000 h 927 c 36,-26 72,-38 122,-63 24,-10 78,-35 96,-53 m -290,-136 c -4,0 -11,2 -9,-2 2,-9 15,-9 23,-13 4,-2 9,-6 13,-4 4,6 9,4 13,8 -12,11 -27,6 -40,11 m -290,-41 c 0,0 -2,-2 -2,-4 25,-32 43,-62 61,-96 25,-13 45,-32 64,-53 32,-34 66,-64 106,-83 15,-6 34,-4 49,2 -6,8 -15,6 -23,11 -2,0 -4,0 -6,-2 2,-2 2,-4 2,-6 -19,21 -45,30 -60,55 -11,19 -19,43 -43,49 -8,2 2,-6 -2,-4 -59,36 -100,80 -146,131 m 157,-125 c -2,4 -4,4 -6,8 -2,4 -4,6 -8,8 -2,0 -4,0 -4,-2 2,-8 8,-15 15,-17 3,-1 3,1 3,3 m 88,283 c -1,2 -3,4 -5,6 2,0 4,2 2,3 -4,4 -9,8 -14,10 h -3 c -2,2 -5,4 -7,7 -2,2 -13,1 -10,-2 5,-4 9,-9 14,-13 3,-2 6,-5 8,-8 1,-2 2,-3 4,-4 3,-2 13,-3 11,1 m -34,-15 c -8,5 -15,10 -22,15 -8,5 -17,8 -25,12 -1,-1 -2,-1 -3,-1 -7,4 -13,9 -19,15 l -3,3 -3,3 -4,4 c -1,1 -1,2 -3,3 -1,1 -4,1 -4,-1 -1,1 -2,1 -3,2 -1,1 -2,1 -3,2 h -2 c -2,2 -5,4 -7,6 -4,4 -8,7 -11,12 v 1 l -1,1 c 0,0 0,1 -1,1 0,1 -1,1 -1,2 0,0 -1,1 -2,1 l -1,-1 c 0,0 0,-1 -1,-1 -1,-1 -1,-2 -2,-3 v -1 c 2,-2 4,-4 6,-7 1,-1 1,-2 2,-2 1,-1 2,-3 3,-4 0,-1 1,-1 1,-2 2,-3 4,-5 6,-8 l 1,-1 c 1,-1 2,-3 3,-4 1,-1 1,-2 2,-4 v -1 c 1,-2 1,-3 2,-4 v -1 c 0,-1 0,-1 1,-2 0,-1 0,-2 1,-3 v -1 c 2,-4 5,-7 8,-10 h -1 c -3,2 -5,4 -7,6 -2,2 -6,-1 -3,-3 2,-1 3,-3 4,-4 3,-3 6,-7 10,-10 2,-2 4,-3 6,-4 l 1,-1 c 1,-2 3,-3 4,-5 18,-17 49,-17 72,-28 9,-4 21,2 30,0 6,0 11,0 17,4 -17,3 -32,14 -48,24 m 39,-132 c -2,-2 6,0 8,-4 h -15 c -2,0 -2,-2 -2,-4 -9,2 -21,6 -30,8 -13,4 -25,13 -40,17 -21,8 -38,25 -60,32 -2,0 -2,-2 -2,-4 2,-6 9,-8 13,-13 0,-2 0,-4 -2,-4 15,-21 36,-32 55,-49 v -6 c 6,-8 15,-11 19,-21 2,-6 10,-13 19,-17 -2,-2 -6,-2 -6,-6 -8,0 -15,4 -23,-2 4,-3 8,-5 12,-7 -2,0 -3,-1 -4,-3 -2,-4 4,-8 9,-9 8,-2 17,-2 23,-8 -13,-2 -28,4 -42,-4 9,-25 25,-45 47,-57 2,0 6,0 6,2 0,9 -6,17 -15,19 15,4 30,4 45,11 -2,4 -6,2 -8,2 9,6 21,2 30,9 -6,6 -11,0 -17,0 59,17 121,30 170,68 -42,21 -85,30 -130,40 -6,0 -9,0 -15,-2 0,2 0,6 -2,6 -8,0 -13,0 -19,4 -7,6 -18,8 -24,2"
       fill="#000091"
       id="path4" />
    <path
       d="M 3755,1000 H 2681 c 0,0 2,0 10,5 9,5 20,11 27,14 14,7 27,16 36,30 4,6 9,17 6,25 -4,9 -6,25 -15,28 -11,6 -26,6 -40,4 -8,0 -15,-2 -23,-4 28,11 55,25 74,51 2,4 9,6 17,6 2,0 2,4 2,6 -4,4 -8,6 -6,11 h 6 c 9,-4 8,-23 21,-17 9,6 13,19 8,28 -8,8 -15,13 -23,19 -2,4 -2,9 0,13 6,8 8,15 9,23 6,13 8,28 13,42 8,28 15,57 13,85 0,15 -8,28 -2,43 4,15 13,26 21,40 8,11 15,19 21,30 11,19 32,38 23,60 -6,13 -26,11 -40,19 -11,9 -2,25 4,34 9,17 -11,28 -25,33 4,6 11,4 13,8 2,9 11,15 6,25 -8,11 -30,17 -19,34 8,13 3,28 -2,42 -6,15 -19,25 -34,28 -11,4 -25,4 -36,2 -4,-2 -8,-4 -11,-4 -32,-4 -64,-13 -96,-13 -9,2 -19,4 -26,7 -8,6 -16,13 -23,20 -1,2 -3,3 -4,5 -1,1 -2,2 -2,3 l -2,2 c -6,7 -10,14 -15,22 0,1 -1,1 -1,1 0,1 -1,2 -2,3 -6,11 -11,23 -14,35 -13,43 -7,80 2,89 2,2 62,21 104,40 20,9 33,15 45,23 H 3756 V 1000 Z"
       fill="#e1000f"
       id="path6" />
    <path
       d="m 2745,1366 c 8,2 19,2 19,6 -4,15 -26,19 -38,34 h -6 c -6,4 -4,13 -9,13 -6,-2 -11,0 -17,2 8,8 17,13 28,11 2,0 6,4 6,8 0,0 2,0 4,-2 2,0 4,0 4,2 v 8 c -6,8 -15,4 -23,6 15,4 30,4 44,0 11,-4 0,-23 8,-32 -4,0 0,-6 -4,-6 4,-4 8,-9 11,-11 4,0 9,-2 11,-6 0,-4 -8,-6 -6,-9 11,-8 21,-19 17,-30 -2,-6 -17,-6 -26,-10 -9,-4 -21,0 -32,2 -9,0 -19,6 -28,8 -13,4 -25,11 -36,19 13,-6 26,-8 41,-11 11,-2 20,-4 32,-2"
       fill="#808080"
       id="path8" />
  </g>
  <!-- RF -->
  <!-- devise -->
  <path
     d="m 3483.9055,8555.9981 c 22,0 41,17 31,56 l -101,27 c 16,-48 46,-83 70,-83 m 56,164 h -20 c -25,30 -53,54 -80,54 -28,0 -42,-17 -42,-54 0,-15 2,-31 5,-45 l 164,-54 c 32,-76 -7,-109 -52,-109 -78,0 -166,136 -166,243 0,51 24,79 62,79 45,0 91,-43 129,-114 m -26,-244 93,-85 v -12 h -62 l -55,98 h 24 z m -349,82 h 54 l -86,236 c -8,20 3,40 24,40 61,0 134,-52 162,-126 h -15 c -22,31 -70,65 -106,72 l 79,-222 h 81 l 10,-34 h -79 l 30,-85 h -31 l -56,85 -67,9 z m -56,-12 c 7,-22 -8,-34 -19,-34 -47,0 -104,43 -126,102 h 15 c 15,-22 41,-46 66,-50 l -91,236 c -8,22 8,34 20,34 45,0 98,-43 120,-102 h -15 c -15,22 -41,46 -66,50 z m 9,-94 c 20,0 37,-17 37,-37 0,-20 -17,-37 -37,-37 -10,0 -19,4 -26,11 -7,7 -11,16 -11,26 0,21 16,37 37,37 m -439,126 c 14,0 22,22 0,71 l -64,142 c -12,27 1,44 27,44 16,0 23,-4 30,-21 l 63,-166 c 29,-36 83,-74 107,-74 17,0 15,14 4,36 l -97,185 c -9,18 3,40 24,40 47,0 104,-43 126,-102 h -17 c -15,22 -41,46 -66,50 l 83,-168 c 11,-21 16,-41 16,-57 0,-27 -15,-45 -44,-45 -41,0 -76,46 -126,103 v -44 c 0,-31 -10,-59 -38,-59 -33,0 -63,52 -87,102 h 15 c 17,-24 32,-37 44,-37 m -65,6 c 11,-39 5,-72 -24,-72 -37,0 -49,25 -85,103 v -44 c 0,-31 -10,-59 -38,-59 -33,0 -63,52 -87,102 h 15 c 16,-23 31,-37 43,-37 14,0 22,22 0,71 l -64,142 c -12,27 1,44 27,44 16,0 23,-4 30,-21 l 61,-166 c 18,-22 34,-41 54,-62 h 68 z m -349,-28 c 22,0 41,17 31,56 l -101,27 c 17,-48 46,-83 70,-83 m 56,164 h -20 c -25,30 -53,54 -80,54 -28,0 -42,-17 -42,-54 0,-15 2,-31 5,-45 l 164,-54 c 32,-76 -6,-109 -52,-109 -78,0 -166,136 -166,243 0,51 24,79 62,79 45,0 91,-43 129,-114 m -375,-162 h 54 l -86,236 c -8,20 3,40 24,40 61,0 135,-52 162,-126 h -15 c -22,31 -70,65 -106,72 l 79,-222 h 81 l 10,-34 h -79 l 30,-85 h -31 l -56,85 -67,9 z m -287,184 c 0,-73 81,-172 127,-172 10,0 20,1 28,4 l -47,126 c -27,33 -69,73 -89,73 -12,0 -19,-9 -19,-31 m 249,-244 -25,-2 -28,28 h -5 c -119,0 -247,148 -247,265 0,27 15,45 44,45 35,0 69,-50 108,-103 l -2,19 c -5,54 12,84 40,84 33,0 63,-52 86,-102 h -15 c -16,23 -31,37 -43,37 -12,0 -21,-23 0,-71 z m -255,86 c 11,-39 5,-72 -24,-72 -37,0 -49,25 -85,103 v -44 c 0,-31 -10,-59 -39,-59 -33,0 -63,52 -86,102 h 15 c 16,-23 31,-37 43,-37 14,0 22,22 0,71 l -65,143 c -12,27 1,44 27,44 16,0 23,-4 30,-21 l 63,-167 c 18,-22 34,-41 54,-62 h 67 z m -419,239 6,-18 c -79,-15 -89,-15 -57,-101 l 30,-81 h 63 c 39,0 40,17 34,60 h 23 l 52,-143 h -23 c -20,34 -35,60 -78,60 h -63 l 43,-117 c 15,-42 22,-50 76,-50 h 14 c 55,0 62,15 62,73 h 22 l 18,-97 h -305 l -6,18 c 63,13 69,19 40,101 l -65,177 c -30,81 -42,88 -115,101 l -5.00002,18 h 234.00002 z m 1513,-956 c 22,0 41,17 31,56 l -101,27 c 16,-48 46,-83 70,-83 m 56,164 h -20 c -25,30 -53,54 -80,54 -28,0 -42,-17 -42,-54 0,-15 2,-31 5,-45 l 164,-54 c 32,-76 -7,-109 -52,-109 -78,0 -166,136 -166,243 0,51 24,79 62,79 45,1 91,-43 129,-114 m -26,-244 93,-85 v -12 h -62 l -55,98 h 24 z m -349,82 h 54 l -86,236 c -8,20 3,40 24,40 61,0 134,-52 162,-126 h -15 c -22,31 -70,65 -106,72 l 79,-222 h 81 l 10,-34 h -79 l 30,-85 h -31 l -56,85 -67,10 z m -56,-11 c 7,-22 -8,-34 -20,-34 -47,0 -104,43 -126,102 h 15 c 15,-22 41,-46 66,-50 l -91,236 c -8,22 8,34 20,34 45,0 98,-43 120,-102 h -15 c -15,22 -41,46 -66,50 z m 9,-94 c 20,0 37,-17 37,-37 0,-20 -17,-37 -37,-37 -13,0 -25,7 -32,18 -7,11 -7,26 0,38 7,11 19,19 32,18 m -290,330 150,-398 -5,-7 -104,12 v 12 l 20,15 c 18,14 12,27 -4,72 l -114,304 c -10,18 3,40 24,40 47,0 98,-43 120,-102 h -15 c -16,23 -48,47 -72,52 m -306,-41 c 0,-73 81,-172 127,-172 10,0 19,1 28,4 l -48,126 c -27,33 -69,73 -89,73 -11,1 -18,-9 -18,-31 m 249,-243 -25,-2 -28,28 h -5 c -119,0 -247,148 -247,265 0,27 15,45 44,45 35,0 69,-50 108,-103 l -2,19 c -5,54 12,84 40,84 33,0 63,-52 86,-102 h -15 c -16,23 -31,37 -43,37 -12,0 -21,-23 0,-70 z m -579,393 c 0,-31 30,-51 73,-68 14,7 36,15 64,24 45,15 62,21 62,34 0,29 -41,51 -116,51 -56,1 -83,-11 -83,-41 m 123,-191 c -20,0 -27,-17 -27,-36 0,-59 28,-130 73,-130 20,0 27,17 27,36 0,58 -29,130 -73,130 m 128,162 c 0,-38 -34,-52 -89,-68 -47,-14 -69,-18 -69,-34 0,-12 10,-27 30,-38 78,-4 127,-74 127,-136 0,-11 -2,-21 -5,-30 h 53 l 10,-34 h -90 c -12,-8 -27,-12 -44,-12 -82,0 -135,72 -135,136 0,41 24,69 62,74 -38,18 -60,37 -60,61 0,14 5,24 17,33 -88,26 -124,59 -124,97 0,41 54,58 118,58 108,1 199,-58 199,-107 m -408,-240 c 39,0 40,17 34,60 h 23 l 52,-143 h -23 c -20,34 -35,60 -78,60 h -87 l 43,-117 c 15,-42 23,-50 76,-50 h 38 c 55,0 62,15 62,73 h 22 l 18,-97 h -327 l -6,18 c 63,13 69,19 40,101 l -65,177 c -30,81 -42,88 -115,101 l -5.00002,18 h 364.00002 l 65,-103 h -25 c -42,42 -85,79 -166,79 -97,0 -88,-5 -56,-95 l 30,-81 h 86 z m 47,-244 93,-68 v -12 h -62 l -55,80 z m 1390,-511 c 22,0 41,17 31,56 l -101,27 c 16,-49 46,-83 70,-83 m 56,164 h -20 c -25,30 -53,54 -80,54 -28,0 -42,-17 -42,-54 0,-15 2,-31 5,-45 l 164,-54 c 32,-76 -7,-109 -52,-109 -78,0 -166,136 -166,243 0,51 24,79 62,79 45,0 91,-43 129,-114 m -26,-244 93,-85 v -12 h -62 l -55,98 h 24 z m -349,81 h 55 l -86,236 c -8,20 3,40 24,40 61,0 135,-52 162,-126 h -15 c -22,31 -70,65 -106,72 l 79,-222 h 81 l 10,-34 h -79 l 30,-85 h -31 l -56,85 -67,9 v 25 z m -28,27 c 11,-39 5,-72 -24,-72 -37,0 -49,25 -85,103 v -44 c 0,-31 -10,-59 -38,-59 -33,0 -63,52 -87,102 h 15 c 16,-23 31,-37 43,-37 14,0 22,22 0,71 l -64,142 c -12,27 1,44 27,44 16,0 23,-4 30,-21 l 63,-166 c 18,-22 34,-41 54,-62 h 66 z m -349,-28 c 22,0 41,17 31,56 l -101,27 c 16,-49 46,-83 70,-83 m 56,164 h -20 c -25,30 -53,54 -80,54 -28,0 -42,-17 -42,-54 0,-15 2,-31 5,-45 l 164,-54 c 32,-76 -6,-109 -52,-109 -78,0 -166,136 -166,243 0,51 24,79 62,79 45,0 91,-43 129,-114 m -382,66 c -16,0 -39,-15 -39,-28 0,-4 7,-23 16,-46 l 26,-70 c 28,-34 72,-71 97,-71 15,0 26,10 26,31 -1,66 -61,184 -126,184 m 182,-209 c 0,-48 -12,-66 -46,-66 -42,0 -81,45 -121,99 l 84,-226 -5,-7 -104,12 v 12 l 20,15 c 18,14 12,28 -4,72 l -91,239 c -8,20 -17,44 -17,50 0,28 38,55 73,55 79,2 211,-143 211,-255 m -307,-31 c 6,-22 -8,-34 -20,-34 -47,0 -104,43 -126,102 h 15 c 15,-22 41,-46 66,-50 l -91,236 c -8,22 8,34 20,34 45,0 98,-43 120,-102 h -15 c -15,22 -41,46 -66,50 z m 10,-94 c 20,0 37,-17 37,-37 0,-20 -17,-37 -37,-37 -13,0 -25,7 -32,18 -7,11 -7,26 0,38 7,11 19,19 32,18 m -231,-45 h -216 l -6,18 c 63,13 69,19 40,101 l -65,177 c -30,81 -42,88 -115,101 l -5.00002,18 h 328.00002 l 71,-127 h -25 c -41,45 -88,102 -161,102 -55,0 -63,-10 -32,-95 l 65,-177 c 30,-81 42,-88 115,-101 z"
     id="path14" />
  <text
     xml:space="preserve"
     id="text3631"
     style="font-weight:bold;font-size:40px;line-height:1.25;font-family:sans-serif;-inkscape-font-specification:'sans-serif Bold';letter-spacing:0px;word-spacing:0px;white-space:pre;shape-inside:url(#rect3633)"
     transform="translate(-0.09451694,-17.001886)" />
  <g
     aria-label="MINISTÈRE
DE L'ÉDUCATION
NATIONALE
ET DE LA JEUNESSE"
     id="text4893"
     style="font-weight:bold;font-size:1076.94px;line-height:1;-inkscape-font-specification:'sans-serif Bold';letter-spacing:0px;word-spacing:0px;stroke-width:26.9235">
    <path
       d="m 1011.5841,3227.3586 h 152.9255 v -540.6238 l 168.0026,282.1583 h 107.694 l 168.0026,-282.1583 v 540.6238 h 152.9255 v -753.8579 h -190.6184 l -184.1567,316.6203 -184.1567,-316.6203 h -190.6184 z"
       style="font-family:Marianne;-inkscape-font-specification:'Marianne, Bold'"
       id="path21593" />
    <path
       d="m 1981.906,3227.3586 h 152.9255 V 2473.5007 H 1981.906 Z"
       style="font-family:Marianne;-inkscape-font-specification:'Marianne, Bold'"
       id="path21595" />
    <path
       d="m 2356.6807,3227.3586 h 152.9254 V 2682.427 l 337.0822,544.9316 h 196.0031 v -753.8579 h -152.9255 v 544.9316 l -337.0822,-544.9316 h -196.003 z"
       style="font-family:Marianne;-inkscape-font-specification:'Marianne, Bold'"
       id="path21597" />
    <path
       d="m 3264.5394,3227.3586 h 152.9255 v -753.8579 h -152.9255 z"
       style="font-family:Marianne;-inkscape-font-specification:'Marianne, Bold'"
       id="path21599" />
    <path
       d="m 3571.4669,3122.8955 c 66.7703,79.6935 151.8485,126.0019 278.9274,126.0019 138.9253,0 248.7732,-85.0782 250.927,-227.2343 0,-258.4656 -342.4669,-219.6957 -342.4669,-356.4671 0,-45.2315 35.539,-79.6936 89.386,-79.6936 57.0779,0 106.6171,37.6929 150.7716,94.7708 l 112.0018,-101.2324 c -64.6164,-76.4627 -150.7716,-127.0789 -263.8503,-127.0789 -144.3099,0 -243.3884,99.0785 -243.3884,218.6188 0,255.2348 342.4669,217.5419 342.4669,356.4671 0,53.847 -36.616,86.1552 -96.9246,86.1552 -61.3856,0 -121.6942,-34.4621 -166.9257,-92.6168 z"
       style="font-family:Marianne;-inkscape-font-specification:'Marianne, Bold'"
       id="path21601" />
    <path
       d="m 4189.6284,2612.4259 h 232.6191 v 614.9327 h 152.9254 v -614.9327 h 232.6191 v -138.9252 h -618.1636 z"
       style="font-family:Marianne;-inkscape-font-specification:'Marianne, Bold'"
       id="path21603" />
    <path
       d="m 5105.0264,2408.8843 h 140.0022 l -121.6942,-145.3869 h -157.2333 z m -151.8485,818.4743 h 439.3915 v -127.0789 h -286.4661 v -193.8492 h 243.3885 v -127.0789 h -243.3885 v -178.772 h 286.4661 v -127.0789 h -439.3915 z"
       style="font-family:Marianne;-inkscape-font-specification:'Marianne, Bold'"
       id="path21605" />
    <path
       d="m 5581.0324,3227.3586 h 152.9254 v -304.774 h 78.6166 l 201.3878,304.774 h 179.849 l -235.8499,-333.8513 c 77.5397,-35.5391 121.6943,-103.3863 121.6943,-194.9262 0,-140.0022 -102.3093,-225.0804 -268.1581,-225.0804 h -230.4651 z m 239.0806,-626.779 c 64.6164,0 102.3093,38.7698 102.3093,95.8477 0,61.3855 -37.6929,99.0784 -102.3093,99.0784 h -86.1552 v -194.9261 z"
       style="font-family:Marianne;-inkscape-font-specification:'Marianne, Bold'"
       id="path21607" />
    <path
       d="m 6301.5035,3227.3586 h 439.3915 v -127.0789 h -286.466 v -193.8492 h 243.3884 V 2779.3516 H 6454.429 v -178.772 h 286.466 v -127.0789 h -439.3915 z"
       style="font-family:Marianne;-inkscape-font-specification:'Marianne, Bold'"
       id="path21609" />
    <path
       d="m 1011.5841,4314.8156 h 296.1585 c 239.0807,0 400.6217,-173.3874 400.6217,-376.929 0,-203.5417 -161.541,-376.929 -400.6217,-376.929 h -296.1585 z m 298.3124,-614.9327 c 140.0022,0 241.2345,103.3862 241.2345,238.0037 0,133.5405 -101.2323,238.0037 -241.2345,238.0037 h -145.3869 v -476.0074 z"
       style="font-family:Marianne;-inkscape-font-specification:'Marianne, Bold'"
       id="path21611" />
    <path
       d="m 1866.673,4314.8156 h 439.3915 v -127.0789 h -286.466 v -193.8492 h 243.3884 v -127.0789 h -243.3884 v -178.7721 h 286.466 V 3560.9576 H 1866.673 Z"
       style="font-family:Marianne;-inkscape-font-specification:'Marianne, Bold'"
       id="path21613" />
    <path
       d="m 2785.2994,4314.8156 h 439.3915 v -138.9253 h -286.466 v -614.9327 h -152.9255 z"
       style="font-family:Marianne;-inkscape-font-specification:'Marianne, Bold'"
       id="path21615" />
    <path
       d="m 3398.077,3871.1163 16.1541,-310.1587 h -152.9255 l 17.2311,310.1587 z"
       style="font-family:Marianne;-inkscape-font-specification:'Marianne, Bold'"
       id="path21617" />
    <path
       d="m 3881.6217,3496.3412 140.0022,-145.3869 h -157.2332 l -121.6942,145.3869 z m -287.543,818.4744 h 439.3915 v -127.0789 h -286.466 v -193.8492 h 243.3884 v -127.0789 h -243.3884 v -178.7721 h 286.466 v -127.0789 h -439.3915 z"
       style="font-family:Marianne;-inkscape-font-specification:'Marianne, Bold'"
       id="path21619" />
    <path
       d="m 4221.9327,4314.8156 h 296.1585 c 239.0807,0 400.6217,-173.3874 400.6217,-376.929 0,-203.5417 -161.541,-376.929 -400.6217,-376.929 h -296.1585 z m 298.3124,-614.9327 c 140.0022,0 241.2346,103.3862 241.2346,238.0037 0,133.5405 -101.2324,238.0037 -241.2346,238.0037 h -145.3869 v -476.0074 z"
       style="font-family:Marianne;-inkscape-font-specification:'Marianne, Bold'"
       id="path21621" />
    <path
       d="m 5521.7973,4032.6573 c 0,101.2324 -58.1548,160.4641 -151.8485,160.4641 -95.8477,0 -152.9255,-59.2317 -152.9255,-160.4641 v -471.6997 h -152.9255 v 458.7764 c 0,198.157 116.3095,316.6204 304.774,316.6204 189.5414,0 305.851,-118.4634 305.851,-316.6204 v -458.7764 h -152.9255 z"
       style="font-family:Marianne;-inkscape-font-specification:'Marianne, Bold'"
       id="path21623" />
    <path
       d="m 6219.6533,4193.1214 c -142.156,0 -243.3884,-110.9249 -243.3884,-255.2348 0,-144.31 101.2324,-255.2348 243.3884,-255.2348 86.1552,0 154.0025,42.0007 197.0801,103.3863 l 120.6172,-93.6938 c -68.9241,-91.5399 -180.9259,-152.9255 -317.6973,-152.9255 -238.0037,0 -400.6216,183.0798 -400.6216,398.4678 0,215.388 162.6179,398.4678 400.6216,398.4678 136.7714,0 248.7732,-60.3087 317.6973,-154.0024 l -120.6172,-92.6169 c -43.0776,61.3856 -110.9249,103.3863 -197.0801,103.3863 z"
       style="font-family:Marianne;-inkscape-font-specification:'Marianne, Bold'"
       id="path21625" />
    <path
       d="m 6580.4272,4314.8156 h 162.6179 l 72.155,-196.0031 h 301.5432 l 72.1549,196.0031 h 162.618 l -285.3891,-753.858 h -200.3108 z m 282.1582,-326.3128 103.3863,-283.2352 103.3862,283.2352 z"
       style="font-family:Marianne;-inkscape-font-specification:'Marianne, Bold'"
       id="path21627" />
    <path
       d="m 7325.666,3699.8829 h 232.619 v 614.9327 h 152.9255 v -614.9327 h 232.619 V 3560.9576 H 7325.666 Z"
       style="font-family:Marianne;-inkscape-font-specification:'Marianne, Bold'"
       id="path21629" />
    <path
       d="m 8089.2155,4314.8156 h 152.9254 v -753.858 h -152.9254 z"
       style="font-family:Marianne;-inkscape-font-specification:'Marianne, Bold'"
       id="path21631" />
    <path
       d="m 8799.9951,3539.4188 c -238.0037,0 -400.6216,183.0798 -400.6216,398.4678 0,215.388 162.6179,398.4678 400.6216,398.4678 236.9268,0 399.5448,-183.0798 399.5448,-398.4678 0,-215.388 -162.618,-398.4678 -399.5448,-398.4678 z m 0,653.7026 c -142.156,0 -243.3884,-110.9249 -243.3884,-255.2348 0,-144.31 101.2324,-255.2348 243.3884,-255.2348 141.0792,0 242.3115,110.9248 242.3115,255.2348 0,144.3099 -101.2323,255.2348 -242.3115,255.2348 z"
       style="font-family:Marianne;-inkscape-font-specification:'Marianne, Bold'"
       id="path21633" />
    <path
       d="m 9356.7716,4314.8156 h 152.9255 V 3769.884 l 337.0822,544.9316 h 196.0027 v -753.858 h -152.9251 v 544.9316 l -337.0822,-544.9316 h -196.0031 z"
       style="font-family:Marianne;-inkscape-font-specification:'Marianne, Bold'"
       id="path21635" />
    <path
       d="m 1011.5841,5402.2725 h 152.9255 v -544.9316 l 337.0822,544.9316 h 196.0031 v -753.858 h -152.9255 v 544.9317 l -337.0822,-544.9317 h -196.0031 z"
       style="font-family:Marianne;-inkscape-font-specification:'Marianne, Bold'"
       id="path21637" />
    <path
       d="m 1824.6722,5402.2725 h 162.6179 l 72.155,-196.0031 h 301.5432 l 72.1549,196.0031 h 162.618 l -285.3891,-753.858 h -200.3108 z m 282.1582,-326.3128 103.3863,-283.2352 103.3862,283.2352 z"
       style="font-family:Marianne;-inkscape-font-specification:'Marianne, Bold'"
       id="path21639" />
    <path
       d="m 2569.9111,4787.3398 h 232.6191 v 614.9327 h 152.9254 v -614.9327 h 232.6191 v -138.9253 h -618.1636 z"
       style="font-family:Marianne;-inkscape-font-specification:'Marianne, Bold'"
       id="path21641" />
    <path
       d="m 3333.4606,5402.2725 h 152.9255 v -753.858 h -152.9255 z"
       style="font-family:Marianne;-inkscape-font-specification:'Marianne, Bold'"
       id="path21643" />
    <path
       d="m 4044.2405,4626.8758 c -238.0037,0 -400.6217,183.0797 -400.6217,398.4677 0,215.388 162.618,398.4678 400.6217,398.4678 236.9268,0 399.5447,-183.0798 399.5447,-398.4678 0,-215.388 -162.6179,-398.4677 -399.5447,-398.4677 z m 0,653.7025 c -142.1561,0 -243.3884,-110.9248 -243.3884,-255.2348 0,-144.3099 101.2323,-255.2347 243.3884,-255.2347 141.0791,0 242.3115,110.9248 242.3115,255.2347 0,144.31 -101.2324,255.2348 -242.3115,255.2348 z"
       style="font-family:Marianne;-inkscape-font-specification:'Marianne, Bold'"
       id="path21645" />
    <path
       d="m 4601.017,5402.2725 h 152.9254 v -544.9316 l 337.0823,544.9316 h 196.003 v -753.858 h -152.9255 v 544.9317 L 4797.02,4648.4145 h -196.003 z"
       style="font-family:Marianne;-inkscape-font-specification:'Marianne, Bold'"
       id="path21647" />
    <path
       d="m 5414.1049,5402.2725 h 162.6179 l 72.155,-196.0031 h 301.5432 l 72.155,196.0031 h 162.6179 l -285.3891,-753.858 H 5699.494 Z m 282.1583,-326.3128 103.3862,-283.2352 103.3862,283.2352 z"
       style="font-family:Marianne;-inkscape-font-specification:'Marianne, Bold'"
       id="path21649" />
    <path
       d="m 6312.2711,5402.2725 h 439.3915 v -138.9252 h -286.466 v -614.9328 h -152.9255 z"
       style="font-family:Marianne;-inkscape-font-specification:'Marianne, Bold'"
       id="path21651" />
    <path
       d="m 6897.049,5402.2725 h 439.3915 v -127.0789 h -286.4661 v -193.8492 h 243.3885 v -127.0789 h -243.3885 v -178.772 h 286.4661 v -127.079 H 6897.049 Z"
       style="font-family:Marianne;-inkscape-font-specification:'Marianne, Bold'"
       id="path21653" />
    <path
       d="m 1011.5841,6489.7294 h 439.3915 v -127.0789 h -286.466 v -193.8492 h 243.3884 v -127.0789 h -243.3884 v -178.772 h 286.466 v -127.0789 h -439.3915 z"
       style="font-family:Marianne;-inkscape-font-specification:'Marianne, Bold'"
       id="path21655" />
    <path
       d="m 1578.052,5874.7967 h 232.619 v 614.9327 h 152.9255 v -614.9327 h 232.619 V 5735.8715 H 1578.052 Z"
       style="font-family:Marianne;-inkscape-font-specification:'Marianne, Bold'"
       id="path21657" />
    <path
       d="m 2632.3737,6489.7294 h 296.1585 c 239.0806,0 400.6216,-173.3873 400.6216,-376.9289 0,-203.5417 -161.541,-376.929 -400.6216,-376.929 h -296.1585 z m 298.3123,-614.9327 c 140.0022,0 241.2346,103.3863 241.2346,238.0038 0,133.5405 -101.2324,238.0037 -241.2346,238.0037 h -145.3869 v -476.0075 z"
       style="font-family:Marianne;-inkscape-font-specification:'Marianne, Bold'"
       id="path21659" />
    <path
       d="m 3487.4625,6489.7294 h 439.3915 v -127.0789 h -286.466 v -193.8492 h 243.3884 V 6041.7224 H 3640.388 v -178.772 h 286.466 v -127.0789 h -439.3915 z"
       style="font-family:Marianne;-inkscape-font-specification:'Marianne, Bold'"
       id="path21661" />
    <path
       d="m 4406.089,6489.7294 h 439.3915 v -138.9252 h -286.466 V 5735.8715 H 4406.089 Z"
       style="font-family:Marianne;-inkscape-font-specification:'Marianne, Bold'"
       id="path21663" />
    <path
       d="m 4928.4028,6489.7294 h 162.6179 l 72.155,-196.003 h 301.5431 l 72.155,196.003 h 162.618 l -285.3891,-753.8579 h -200.3109 z m 282.1582,-326.3128 103.3863,-283.2352 103.3862,283.2352 z"
       style="font-family:Marianne;-inkscape-font-specification:'Marianne, Bold'"
       id="path21665" />
    <path
       d="m 6282.1128,6427.2669 v -691.3954 h -152.9255 v 698.934 c 0,77.5397 -35.539,106.6171 -103.3862,106.6171 -15.0772,0 -28.0005,-1.077 -38.7699,-3.2309 v 134.6175 c 15.0772,4.3078 35.539,4.3078 60.3087,4.3078 157.2332,0 234.7729,-82.9244 234.7729,-249.8501 z"
       style="font-family:Marianne;-inkscape-font-specification:'Marianne, Bold'"
       id="path21667" />
    <path
       d="m 6503.9616,6489.7294 h 439.3915 V 6362.6505 H 6656.887 v -193.8492 h 243.3885 V 6041.7224 H 6656.887 v -178.772 h 286.4661 v -127.0789 h -439.3915 z"
       style="font-family:Marianne;-inkscape-font-specification:'Marianne, Bold'"
       id="path21669" />
    <path
       d="m 7572.2839,6207.5712 c 0,101.2323 -58.1548,160.464 -151.8486,160.464 -95.8476,0 -152.9254,-59.2317 -152.9254,-160.464 v -471.6997 h -152.9255 v 458.7764 c 0,198.1569 116.3095,316.6203 304.774,316.6203 189.5414,0 305.8509,-118.4634 305.8509,-316.6203 v -458.7764 h -152.9254 z"
       style="font-family:Marianne;-inkscape-font-specification:'Marianne, Bold'"
       id="path21671" />
    <path
       d="m 7925.5202,6489.7294 h 152.9254 v -544.9316 l 337.0822,544.9316 h 196.0031 v -753.8579 h -152.9255 v 544.9316 l -337.0822,-544.9316 h -196.003 z"
       style="font-family:Marianne;-inkscape-font-specification:'Marianne, Bold'"
       id="path21673" />
    <path
       d="m 8833.379,6489.7294 h 439.3915 v -127.0789 h -286.466 v -193.8492 h 243.3884 v -127.0789 h -243.3884 v -178.772 h 286.466 V 5735.8715 H 8833.379 Z"
       style="font-family:Marianne;-inkscape-font-specification:'Marianne, Bold'"
       id="path21675" />
    <path
       d="m 9393.3853,6385.2663 c 66.7703,79.6935 151.8486,126.0019 278.9275,126.0019 138.9252,0 248.7731,-85.0782 250.927,-227.2343 0,-258.4656 -342.4669,-219.6957 -342.4669,-356.4671 0,-45.2315 35.539,-79.6936 89.386,-79.6936 57.0778,0 106.6171,37.6929 150.7716,94.7708 l 112.0017,-101.2324 c -64.6163,-76.4627 -150.7715,-127.0789 -263.8502,-127.0789 -144.31,0 -243.3885,99.0785 -243.3885,218.6188 0,255.2348 342.4669,217.5419 342.4669,356.4671 0,53.847 -36.6159,86.1552 -96.9246,86.1552 -61.3855,0 -121.6942,-34.4621 -166.9256,-92.6168 z"
       style="font-family:Marianne;-inkscape-font-specification:'Marianne, Bold'"
       id="path21677" />
    <path
       d="m 10019.086,6385.2663 c 66.77,79.6935 151.848,126.0019 278.927,126.0019 138.925,0 248.773,-85.0782 250.927,-227.2343 0,-258.4656 -342.467,-219.6957 -342.467,-356.4671 0,-45.2315 35.539,-79.6936 89.386,-79.6936 57.078,0 106.617,37.6929 150.772,94.7708 l 112.001,-101.2324 c -64.616,-76.4627 -150.771,-127.0789 -263.85,-127.0789 -144.31,0 -243.388,99.0785 -243.388,218.6188 0,255.2348 342.467,217.5419 342.467,356.4671 0,53.847 -36.616,86.1552 -96.925,86.1552 -61.386,0 -121.694,-34.4621 -166.926,-92.6168 z"
       style="font-family:Marianne;-inkscape-font-specification:'Marianne, Bold'"
       id="path21679" />
    <path
       d="m 10720.172,6489.7294 h 439.392 v -127.0789 h -286.467 v -193.8492 h 243.389 v -127.0789 h -243.389 v -178.772 h 286.467 v -127.0789 h -439.392 z"
       style="font-family:Marianne;-inkscape-font-specification:'Marianne, Bold'"
       id="path21681" />
  </g>
</svg>
