<?xml version="1.0" encoding="UTF-8" standalone="no"?>
<!-- Created with Inkscape (http://www.inkscape.org/) -->

<svg
   xmlns:dc="http://purl.org/dc/elements/1.1/"
   xmlns:cc="http://creativecommons.org/ns#"
   xmlns:rdf="http://www.w3.org/1999/02/22-rdf-syntax-ns#"
   xmlns:svg="http://www.w3.org/2000/svg"
   xmlns="http://www.w3.org/2000/svg"
   xmlns:xlink="http://www.w3.org/1999/xlink"
   xmlns:sodipodi="http://sodipodi.sourceforge.net/DTD/sodipodi-0.dtd"
   xmlns:inkscape="http://www.inkscape.org/namespaces/inkscape"
   id="svg1"
   sodipodi:version="0.32"
   inkscape:version="0.48.1 r9760"
   width="163.75464"
   height="161.22588"
   sodipodi:docname="nicubunu_Golden_Trophy.svg"
   version="1.1">
  <metadata
     id="metadata3151" />
  <defs
     id="defs3">
    <linearGradient
       id="linearGradient848">
      <stop
         style="stop-color:#e6b500;stop-opacity:1.0000000;"
         offset="0.0000000"
         id="stop849" />
      <stop
         style="stop-color:#ffff00;stop-opacity:1.0000000;"
         offset="0.50000000"
         id="stop852" />
      <stop
         style="stop-color:#ffe800;stop-opacity:1.0000000;"
         offset="1.0000000"
         id="stop850" />
    </linearGradient>
    <linearGradient
       xlink:href="#linearGradient848"
       id="linearGradient851"
       x1="43.240515"
       y1="38.833449"
       x2="136.62479"
       y2="116.81428"
       gradientTransform="scale(0.9191166,1.0880012)"
       gradientUnits="userSpaceOnUse" />
    <linearGradient
       xlink:href="#linearGradient848"
       id="linearGradient853"
       x1="50.841646"
       y1="38.688287"
       x2="83.582814"
       y2="69.527346"
       gradientTransform="scale(1.7240964,0.58001398)"
       gradientUnits="userSpaceOnUse" />
    <linearGradient
       xlink:href="#linearGradient848"
       id="linearGradient854"
       x1="82.031291"
       y1="16.923561"
       x2="97.51161"
       y2="31.866053"
       gradientTransform="scale(1.1733701,0.85224601)"
       gradientUnits="userSpaceOnUse" />
    <linearGradient
       xlink:href="#linearGradient848"
       id="linearGradient855"
       x1="65.256881"
       y1="196.64443"
       x2="105.3676"
       y2="196.23585"
       gradientTransform="scale(1.2825132,0.77971904)"
       gradientUnits="userSpaceOnUse" />
    <linearGradient
       xlink:href="#linearGradient848"
       id="linearGradient856"
       x1="260.4763"
       y1="41.095442"
       x2="167.49549"
       y2="66.165681"
       gradientTransform="scale(0.74434072,1.3434708)"
       gradientUnits="userSpaceOnUse" />
    <linearGradient
       xlink:href="#linearGradient848"
       id="linearGradient857"
       x1="22.802735"
       y1="32.220577"
       x2="129.61547"
       y2="75.8774"
       gradientTransform="scale(0.74434118,1.3434699)"
       gradientUnits="userSpaceOnUse" />
    <linearGradient
       xlink:href="#linearGradient848"
       id="linearGradient865"
       x1="96.964883"
       y1="41.198205"
       x2="140.09673"
       y2="76.129461"
       gradientTransform="scale(0.85666192,1.1673216)"
       gradientUnits="userSpaceOnUse" />
    <linearGradient
       xlink:href="#linearGradient848"
       id="linearGradient869"
       x1="157.07384"
       y1="137.03379"
       x2="172.69702"
       y2="150.51464"
       gradientTransform="scale(0.95061931,1.0519458)"
       gradientUnits="userSpaceOnUse" />
    <linearGradient
       inkscape:collect="always"
       xlink:href="#linearGradient848"
       id="linearGradient3702"
       x1="157.07384"
       y1="137.03379"
       x2="172.69702"
       y2="150.51464"
       gradientTransform="scale(0.95061931,1.0519458)"
       gradientUnits="userSpaceOnUse" />
    <linearGradient
       inkscape:collect="always"
       xlink:href="#linearGradient848"
       id="linearGradient3704"
       x1="157.07384"
       y1="137.03379"
       x2="172.69702"
       y2="150.51464"
       gradientTransform="scale(0.95061931,1.0519458)"
       gradientUnits="userSpaceOnUse" />
    <linearGradient
       inkscape:collect="always"
       xlink:href="#linearGradient848"
       id="linearGradient3706"
       x1="157.07384"
       y1="137.03379"
       x2="172.69702"
       y2="150.51464"
       gradientTransform="scale(0.95061931,1.0519458)"
       gradientUnits="userSpaceOnUse" />
    <linearGradient
       inkscape:collect="always"
       xlink:href="#linearGradient848"
       id="linearGradient3708"
       x1="157.07384"
       y1="137.03379"
       x2="172.69702"
       y2="150.51464"
       gradientTransform="scale(0.95061931,1.0519458)"
       gradientUnits="userSpaceOnUse" />
    <linearGradient
       inkscape:collect="always"
       xlink:href="#linearGradient848"
       id="linearGradient3710"
       x1="157.07384"
       y1="137.03379"
       x2="172.69702"
       y2="150.51464"
       gradientTransform="scale(0.95061931,1.0519458)"
       gradientUnits="userSpaceOnUse" />
    <linearGradient
       inkscape:collect="always"
       xlink:href="#linearGradient848"
       id="linearGradient3712"
       x1="157.07384"
       y1="137.03379"
       x2="172.69702"
       y2="150.51464"
       gradientTransform="scale(0.95061931,1.0519458)"
       gradientUnits="userSpaceOnUse" />
    <linearGradient
       inkscape:collect="always"
       xlink:href="#linearGradient848"
       id="linearGradient3714"
       x1="157.07384"
       y1="137.03379"
       x2="172.69702"
       y2="150.51464"
       gradientTransform="scale(0.95061931,1.0519458)"
       gradientUnits="userSpaceOnUse" />
    <linearGradient
       inkscape:collect="always"
       xlink:href="#linearGradient848"
       id="linearGradient3716"
       x1="157.07384"
       y1="137.03379"
       x2="172.69702"
       y2="150.51464"
       gradientTransform="scale(0.95061931,1.0519458)"
       gradientUnits="userSpaceOnUse" />
    <linearGradient
       inkscape:collect="always"
       xlink:href="#linearGradient848"
       id="linearGradient3718"
       x1="157.07384"
       y1="137.03379"
       x2="172.69702"
       y2="150.51464"
       gradientTransform="scale(0.95061931,1.0519458)"
       gradientUnits="userSpaceOnUse" />
  </defs>
  <sodipodi:namedview
     id="base"
     pagecolor="#ffffff"
     bordercolor="#666666"
     borderopacity="1.0"
     inkscape:pageopacity="0.0"
     inkscape:pageshadow="2"
     inkscape:zoom="1"
     inkscape:cx="101.08355"
     inkscape:cy="29.80372"
     inkscape:window-width="805"
     inkscape:window-height="759"
     inkscape:window-x="60"
     inkscape:window-y="35"
     showgrid="false"
     fit-margin-top="0"
     fit-margin-left="0"
     fit-margin-right="0"
     fit-margin-bottom="0"
     inkscape:window-maximized="0"
     inkscape:current-layer="svg1" />
  <g
     id="g934"
     transform="translate(-24.408745,-13.127985)">
    <path
       style="fill:url(#linearGradient853);fill-opacity:1;fill-rule:evenodd;stroke:#000000;stroke-width:1pt;stroke-linecap:butt;stroke-linejoin:round;stroke-opacity:1"
       d="M 62.15311,31.451928 C 76.78927,52.371143 133.104,56.892597 149.93113,31.280211 136.48449,16.479781 81.193764,16.350578 62.15311,31.451928 z"
       id="path836"
       sodipodi:nodetypes="ccc"
       inkscape:connector-curvature="0" />
    <path
       style="fill:url(#linearGradient855);fill-opacity:1;fill-rule:evenodd;stroke:#000000;stroke-width:1.25;stroke-linejoin:round;stroke-dasharray:none"
       d="m 102.55188,134.43466 c 1.40762,8.30983 -3.360051,18.21099 -5.499998,22.34375 -2.975069,3.44016 -13.548437,1.63603 -17.15625,3.53125 -3.893686,1.60365 -8.948912,3.76131 -5.53125,6.53125 1.587186,2.7689 13.061603,6.79662 31.781248,6.88795 16.32112,-3.1e-4 30.19422,-4.1193 31.78125,-6.88795 3.41766,-2.76994 -1.63757,-4.92759 -5.53125,-6.53125 -3.60782,-1.89522 -14.14993,-0.0598 -17.125,-3.5 -2.13995,-4.13276 -6.93886,-14.29954 -5.53125,-22.60937 -2.64755,0.71634 -4.53099,0.79239 -7.1875,0.23437 z"
       id="path835"
       sodipodi:nodetypes="cccccccccc"
       inkscape:connector-curvature="0" />
    <path
       style="fill:url(#linearGradient851);fill-opacity:1;fill-rule:evenodd;stroke:#000000;stroke-width:1.25;stroke-linejoin:round;stroke-dasharray:none"
       d="m 149.96875,31.34375 c -7.24749,8.259834 -36.15738,10.823995 -44.21875,10.59375 -0.007,-0.0012 -0.0242,0.0012 -0.0312,0 -7.943661,0.302932 -36.285682,-2.384828 -43.40625,-10.5 -0.780639,9.341323 4.289307,25.915765 3.90625,34.6875 0.03503,10.342788 -3.191394,38.49363 1.40625,44.6875 8.252828,12.47845 27.397072,24.19188 38.21109,24.71751 11.87905,-0.8731 30.66676,-12.48316 38.82016,-24.81126 4.59764,-6.19387 1.37121,-34.34471 1.40625,-44.6875 -0.38306,-8.771738 4.68689,-25.34617 3.90625,-34.6875 z"
       id="path833"
       sodipodi:nodetypes="cccccccccc"
       inkscape:connector-curvature="0" />
    <path
       style="fill:url(#linearGradient854);fill-rule:evenodd;stroke:#000000;stroke-width:1pt"
       d="m 113.25797,20.03493 c 0,3.467633 -3.98024,6.281944 -8.88446,6.281944 -4.904227,0 -8.884467,-2.814311 -8.884467,-6.281944 0,-3.467634 3.98024,-6.281945 8.884467,-6.281945 4.90422,0 8.88446,2.814311 8.88446,6.281945 z"
       id="path839"
       inkscape:connector-curvature="0" />
    <path
       style="fill:url(#linearGradient856);fill-opacity:1;fill-rule:evenodd;stroke:#000000;stroke-width:1.25;stroke-linecap:butt;stroke-linejoin:round;stroke-opacity:1;stroke-dasharray:none"
       d="m 165.5,29.71875 c -8.1341,0.513991 -13.55356,4.550759 -15.40625,9.59375 -1.85269,5.042991 -0.19571,10.795902 4.21875,13.875 l 3.5625,-5.125 c -2.00956,-1.401669 -2.82591,-4.090455 -1.90625,-6.59375 0.91966,-2.503295 3.5271,-5.128153 9.90625,-5.53125 7.58865,-0.208248 11.27064,1.863539 13.3125,4.625 2.04186,2.761461 2.5329,6.879733 1.71875,11.375 -1.63713,8.858748 -13.58954,16.555921 -19.59375,20.03125 -3.68289,1.950369 -6.89788,5.383607 -9.5,9.34375 -2.60212,3.960143 -4.54844,8.30326 -4.15625,12.6875 -0.003,0.07289 -0.003,0.145856 0,0.21875 0.50738,3.2859 2.49394,6.62187 6.375,8.09375 1.94053,0.73594 4.42611,0.6568 6.5625,-0.5625 2.13639,-1.2193 3.94537,-3.30785 5.59375,-6.34375 l -5.5,-3 c -1.29612,2.38712 -2.49223,3.50944 -3.1875,3.90625 -0.69527,0.39681 -0.86651,0.31354 -1.28125,0.15625 -0.80638,-0.30582 -2.12944,-2.32001 -2.3125,-3.125 -0.11847,-1.86863 1.02752,-5.401612 3.125,-8.59375 2.13255,-3.245511 5.13515,-6.159429 7.3125,-7.3125 0.0316,-0.02027 0.0629,-0.04111 0.0937,-0.0625 6.08169,-3.520177 20.21239,-11.257527 22.625,-24.3125 1.00975,-5.575219 0.57254,-11.556216 -2.875,-16.21875 -3.44754,-4.662534 -9.72319,-7.368427 -18.59375,-7.125 -0.0312,-4.69e-4 -0.0625,-4.69e-4 -0.0937,0 z"
       id="path846"
       inkscape:connector-curvature="0" />
    <path
       style="fill:url(#linearGradient857);fill-opacity:1;fill-rule:evenodd;stroke:#000000;stroke-width:1.25;stroke-linecap:butt;stroke-linejoin:round;stroke-opacity:1;stroke-dasharray:none"
       d="m 47.07213,33.47475 c 8.1341,0.51399 13.55356,4.55076 15.40625,9.59375 1.85269,5.04299 0.19571,10.79591 -4.21875,13.875 l -3.5625,-5.125 c 2.00956,-1.40167 2.82591,-4.09045 1.90625,-6.59375 -0.91966,-2.50329 -3.5271,-5.12815 -9.90625,-5.53125 -7.58865,-0.20824 -11.27064,1.86354 -13.3125,4.625 -2.04186,2.76146 -2.5329,6.87974 -1.71875,11.375 1.63713,8.85875 13.58954,16.55592 19.59375,20.03125 3.68289,1.95037 6.89788,5.38361 9.5,9.34375 2.60212,3.96015 4.54844,8.30326 4.15625,12.6875 0.0025,0.0729 0.0025,0.14586 0,0.21875 -0.50738,3.2859 -2.49394,6.62187 -6.375,8.09375 -1.94053,0.73594 -4.42611,0.6568 -6.5625,-0.5625 -2.13639,-1.2193 -3.94537,-3.30785 -5.59375,-6.34375 l 5.5,-3 c 1.29612,2.38712 2.49223,3.50944 3.1875,3.90625 0.69527,0.39681 0.86651,0.31354 1.28125,0.15625 0.80638,-0.30582 2.12944,-2.32001 2.3125,-3.125 0.11847,-1.86863 -1.02752,-5.40161 -3.125,-8.59375 -2.13255,-3.24551 -5.13515,-6.15943 -7.3125,-7.3125 -0.03163,-0.02026 -0.06288,-0.0411 -0.09375,-0.0625 -6.08169,-3.52017 -20.21239,-11.25752 -22.625,-24.3125 -1.00975,-5.57522 -0.57254,-11.55621 2.875,-16.21875 3.44754,-4.66253 9.72319,-7.36842 18.59375,-7.125 0.03124,-4.7e-4 0.0625,-4.7e-4 0.09375,0 z"
       id="path847"
       inkscape:connector-curvature="0" />
    <path
       style="font-size:12px;font-weight:bold;fill:url(#linearGradient865);stroke:#000000;stroke-width:1pt;stroke-opacity:1;font-family:Courier New"
       d="m 110.47568,54.63375 0,28.41818 7.23461,0 c 1.7242,0 2.94745,0.342528 3.66975,1.027586 0.74559,0.661437 1.11839,1.535483 1.11839,2.622128 0,1.063022 -0.3728,1.937069 -1.11839,2.622128 -0.7223,0.661436 -1.94555,0.992152 -3.66975,0.992152 l -21.633961,0 c -1.724191,0 -2.959085,-0.330716 -3.704682,-0.992152 -0.722299,-0.685059 -1.083449,-1.570917 -1.083449,-2.657561 0,-1.063022 0.36115,-1.925258 1.083449,-2.586695 0.745597,-0.685058 1.980491,-1.027586 3.704682,-1.027586 l 7.234631,0 0,-28.41818 -7.234631,0 c -1.724191,0 -2.959085,-0.330722 -3.704682,-0.992159 -0.722299,-0.685059 -1.083449,-1.57091 -1.083449,-2.65756 0,-1.086644 0.36115,-1.960691 1.083449,-2.622127 0.745597,-0.685059 1.980491,-1.027585 3.704682,-1.027585 l 21.633961,0.03543 c 1.7242,0 2.94745,0.330715 3.66975,0.992153 0.74559,0.661436 1.11839,1.535483 1.11839,2.622127 0,1.08665 -0.3728,1.972501 -1.11839,2.65756 -0.7223,0.661437 -1.94555,0.992159 -3.66975,0.992159 l -7.23461,0 z"
       id="path864"
       inkscape:connector-curvature="0" />
    <path
       style="fill:none;stroke:#000000;stroke-width:1pt;stroke-linecap:butt;stroke-linejoin:miter;stroke-opacity:1"
       d="m 105.11821,127.51331 c -0.59493,-2.09679 -3.42085,-6.29561 0.20171,-9.27453 3.721,-3.39837 13.11223,-5.25216 20.72982,-8.82743 5.23847,-2.42492 10.84393,-10.617679 10.74492,-10.966639"
       id="path902"
       sodipodi:nodetypes="cccc"
       inkscape:connector-curvature="0" />
    <g
       id="g903"
       transform="matrix(0.982795,0.184697,-0.184697,0.982795,12.58031,-82.93649)">
      <path
         style="fill:url(#linearGradient3702);fill-opacity:1;fill-rule:evenodd;stroke:#000000;stroke-width:1pt;stroke-linecap:butt;stroke-linejoin:round;stroke-opacity:1"
         d="m 158.60343,143.68626 c -0.19237,4.9481 -6.23214,3.29997 -7.96904,7.34527 -1.34657,2.60619 1.59631,5.87235 4.6248,5.87235 2.10452,2.63285 7.80968,-0.19055 7.80968,-3.0722 -0.0829,-2.71977 -2.03342,-7.41571 -4.46544,-10.14542 z"
         id="path904"
         sodipodi:nodetypes="ccccc"
         inkscape:connector-curvature="0" />
      <path
         style="fill:none;stroke:#000000;stroke-width:1pt;stroke-linecap:butt;stroke-linejoin:miter;stroke-opacity:1"
         d="m 155.23962,156.90994 c 0,0 4.23206,-1.92366 3.65496,-8.46411"
         id="path905"
         sodipodi:nodetypes="cc"
         inkscape:connector-curvature="0" />
    </g>
    <g
       id="g906"
       transform="matrix(0.715585,-0.698525,0.698525,0.715585,-91.06265,101.9167)">
      <path
         style="fill:url(#linearGradient3704);fill-opacity:1;fill-rule:evenodd;stroke:#000000;stroke-width:1pt;stroke-linecap:butt;stroke-linejoin:round;stroke-opacity:1"
         d="m 158.60343,143.68626 c -0.19237,4.9481 -6.23214,3.29997 -7.96904,7.34527 -1.34657,2.60619 1.59631,5.87235 4.6248,5.87235 2.10452,2.63285 7.80968,-0.19055 7.80968,-3.0722 -0.0829,-2.71977 -2.03342,-7.41571 -4.46544,-10.14542 z"
         id="path907"
         sodipodi:nodetypes="ccccc"
         inkscape:connector-curvature="0" />
      <path
         style="fill:none;stroke:#000000;stroke-width:1pt;stroke-linecap:butt;stroke-linejoin:miter;stroke-opacity:1"
         d="m 155.23962,156.90994 c 0,0 4.23206,-1.92366 3.65496,-8.46411"
         id="path908"
         sodipodi:nodetypes="cc"
         inkscape:connector-curvature="0" />
    </g>
    <g
       id="g909"
       transform="matrix(0.752775,-0.658278,-0.658278,-0.752775,109.8276,330.8211)">
      <path
         style="fill:url(#linearGradient3706);fill-opacity:1;fill-rule:evenodd;stroke:#000000;stroke-width:1pt;stroke-linecap:butt;stroke-linejoin:round;stroke-opacity:1"
         d="m 158.60343,143.68626 c -0.19237,4.9481 -6.23214,3.29997 -7.96904,7.34527 -1.34657,2.60619 1.59631,5.87235 4.6248,5.87235 2.10452,2.63285 7.80968,-0.19055 7.80968,-3.0722 -0.0829,-2.71977 -2.03342,-7.41571 -4.46544,-10.14542 z"
         id="path910"
         sodipodi:nodetypes="ccccc"
         inkscape:connector-curvature="0" />
      <path
         style="fill:none;stroke:#000000;stroke-width:1pt;stroke-linecap:butt;stroke-linejoin:miter;stroke-opacity:1"
         d="m 155.23962,156.90994 c 0,0 4.23206,-1.92366 3.65496,-8.46411"
         id="path911"
         sodipodi:nodetypes="cc"
         inkscape:connector-curvature="0" />
    </g>
    <g
       id="g912"
       transform="matrix(0.893877,-0.448313,0.448313,0.893877,-94.54654,43.13621)">
      <path
         style="fill:url(#linearGradient3708);fill-opacity:1;fill-rule:evenodd;stroke:#000000;stroke-width:1pt;stroke-linecap:butt;stroke-linejoin:round;stroke-opacity:1"
         d="m 158.60343,143.68626 c -0.19237,4.9481 -6.23214,3.29997 -7.96904,7.34527 -1.34657,2.60619 1.59631,5.87235 4.6248,5.87235 2.10452,2.63285 7.80968,-0.19055 7.80968,-3.0722 -0.0829,-2.71977 -2.03342,-7.41571 -4.46544,-10.14542 z"
         id="path913"
         sodipodi:nodetypes="ccccc"
         inkscape:connector-curvature="0" />
      <path
         style="fill:none;stroke:#000000;stroke-width:1pt;stroke-linecap:butt;stroke-linejoin:miter;stroke-opacity:1"
         d="m 155.23962,156.90994 c 0,0 4.23206,-1.92366 3.65496,-8.46411"
         id="path914"
         sodipodi:nodetypes="cc"
         inkscape:connector-curvature="0" />
    </g>
    <g
       id="g915"
       transform="matrix(0.869798,-0.493408,-0.493408,-0.869798,52.16488,329.9728)">
      <path
         style="fill:url(#linearGradient3710);fill-opacity:1;fill-rule:evenodd;stroke:#000000;stroke-width:1pt;stroke-linecap:butt;stroke-linejoin:round;stroke-opacity:1"
         d="m 158.60343,143.68626 c -0.19237,4.9481 -6.23214,3.29997 -7.96904,7.34527 -1.34657,2.60619 1.59631,5.87235 4.6248,5.87235 2.10452,2.63285 7.80968,-0.19055 7.80968,-3.0722 -0.0829,-2.71977 -2.03342,-7.41571 -4.46544,-10.14542 z"
         id="path916"
         sodipodi:nodetypes="ccccc"
         inkscape:connector-curvature="0" />
      <path
         style="fill:none;stroke:#000000;stroke-width:1pt;stroke-linecap:butt;stroke-linejoin:miter;stroke-opacity:1"
         d="m 155.23962,156.90994 c 0,0 4.23206,-1.92366 3.65496,-8.46411"
         id="path917"
         sodipodi:nodetypes="cc"
         inkscape:connector-curvature="0" />
    </g>
    <path
       style="fill:none;stroke:#000000;stroke-width:1pt;stroke-linecap:butt;stroke-linejoin:miter;stroke-opacity:1"
       d="m 106.84613,130.59617 c -0.96758,-4.90929 2.17084,-9.42061 -1.45172,-12.39953 -3.721,-3.39837 -11.862229,-4.31466 -19.479819,-7.88993 -5.23847,-2.42492 -10.84393,-10.617676 -10.74492,-10.966636"
       id="path918"
       sodipodi:nodetypes="cccc"
       inkscape:connector-curvature="0" />
    <g
       id="g919"
       transform="matrix(-0.982795,0.184697,0.184697,0.982795,199.384,-82.04112)">
      <path
         style="fill:url(#linearGradient3712);fill-opacity:1;fill-rule:evenodd;stroke:#000000;stroke-width:1pt;stroke-linecap:butt;stroke-linejoin:round;stroke-opacity:1"
         d="m 158.60343,143.68626 c -0.19237,4.9481 -6.23214,3.29997 -7.96904,7.34527 -1.34657,2.60619 1.59631,5.87235 4.6248,5.87235 2.10452,2.63285 7.80968,-0.19055 7.80968,-3.0722 -0.0829,-2.71977 -2.03342,-7.41571 -4.46544,-10.14542 z"
         id="path920"
         sodipodi:nodetypes="ccccc"
         inkscape:connector-curvature="0" />
      <path
         style="fill:none;stroke:#000000;stroke-width:1pt;stroke-linecap:butt;stroke-linejoin:miter;stroke-opacity:1"
         d="m 155.23962,156.90994 c 0,0 4.23206,-1.92366 3.65496,-8.46411"
         id="path921"
         sodipodi:nodetypes="cc"
         inkscape:connector-curvature="0" />
    </g>
    <g
       id="g922"
       transform="matrix(-0.715585,-0.698525,-0.698525,0.715585,303.027,102.8121)">
      <path
         style="fill:url(#linearGradient3714);fill-opacity:1;fill-rule:evenodd;stroke:#000000;stroke-width:1pt;stroke-linecap:butt;stroke-linejoin:round;stroke-opacity:1"
         d="m 158.60343,143.68626 c -0.19237,4.9481 -6.23214,3.29997 -7.96904,7.34527 -1.34657,2.60619 1.59631,5.87235 4.6248,5.87235 2.10452,2.63285 7.80968,-0.19055 7.80968,-3.0722 -0.0829,-2.71977 -2.03342,-7.41571 -4.46544,-10.14542 z"
         id="path923"
         sodipodi:nodetypes="ccccc"
         inkscape:connector-curvature="0" />
      <path
         style="fill:none;stroke:#000000;stroke-width:1pt;stroke-linecap:butt;stroke-linejoin:miter;stroke-opacity:1"
         d="m 155.23962,156.90994 c 0,0 4.23206,-1.92366 3.65496,-8.46411"
         id="path924"
         sodipodi:nodetypes="cc"
         inkscape:connector-curvature="0" />
    </g>
    <g
       id="g925"
       transform="matrix(-0.752775,-0.658278,0.658278,-0.752775,102.1368,331.7165)">
      <path
         style="fill:url(#linearGradient3716);fill-opacity:1;fill-rule:evenodd;stroke:#000000;stroke-width:1pt;stroke-linecap:butt;stroke-linejoin:round;stroke-opacity:1"
         d="m 158.60343,143.68626 c -0.19237,4.9481 -6.23214,3.29997 -7.96904,7.34527 -1.34657,2.60619 1.59631,5.87235 4.6248,5.87235 2.10452,2.63285 7.80968,-0.19055 7.80968,-3.0722 -0.0829,-2.71977 -2.03342,-7.41571 -4.46544,-10.14542 z"
         id="path926"
         sodipodi:nodetypes="ccccc"
         inkscape:connector-curvature="0" />
      <path
         style="fill:none;stroke:#000000;stroke-width:1pt;stroke-linecap:butt;stroke-linejoin:miter;stroke-opacity:1"
         d="m 155.23962,156.90994 c 0,0 4.23206,-1.92366 3.65496,-8.46411"
         id="path927"
         sodipodi:nodetypes="cc"
         inkscape:connector-curvature="0" />
    </g>
    <g
       id="g928"
       transform="matrix(-0.893877,-0.448313,-0.448313,0.893877,306.5109,44.0316)">
      <path
         style="fill:url(#linearGradient3718);fill-opacity:1;fill-rule:evenodd;stroke:#000000;stroke-width:1pt;stroke-linecap:butt;stroke-linejoin:round;stroke-opacity:1"
         d="m 158.60343,143.68626 c -0.19237,4.9481 -6.23214,3.29997 -7.96904,7.34527 -1.34657,2.60619 1.59631,5.87235 4.6248,5.87235 2.10452,2.63285 7.80968,-0.19055 7.80968,-3.0722 -0.0829,-2.71977 -2.03342,-7.41571 -4.46544,-10.14542 z"
         id="path929"
         sodipodi:nodetypes="ccccc"
         inkscape:connector-curvature="0" />
      <path
         style="fill:none;stroke:#000000;stroke-width:1pt;stroke-linecap:butt;stroke-linejoin:miter;stroke-opacity:1"
         d="m 155.23962,156.90994 c 0,0 4.23206,-1.92366 3.65496,-8.46411"
         id="path930"
         sodipodi:nodetypes="cc"
         inkscape:connector-curvature="0" />
    </g>
    <g
       id="g931"
       transform="matrix(-0.869798,-0.493408,0.493408,-0.869798,159.7995,330.8682)">
      <path
         style="fill:url(#linearGradient869);fill-opacity:1;fill-rule:evenodd;stroke:#000000;stroke-width:1pt;stroke-linecap:butt;stroke-linejoin:round;stroke-opacity:1"
         d="m 158.60343,143.68626 c -0.19237,4.9481 -6.23214,3.29997 -7.96904,7.34527 -1.34657,2.60619 1.59631,5.87235 4.6248,5.87235 2.10452,2.63285 7.80968,-0.19055 7.80968,-3.0722 -0.0829,-2.71977 -2.03342,-7.41571 -4.46544,-10.14542 z"
         id="path932"
         sodipodi:nodetypes="ccccc"
         inkscape:connector-curvature="0" />
      <path
         style="fill:none;stroke:#000000;stroke-width:1pt;stroke-linecap:butt;stroke-linejoin:miter;stroke-opacity:1"
         d="m 155.23962,156.90994 c 0,0 4.23206,-1.92366 3.65496,-8.46411"
         id="path933"
         sodipodi:nodetypes="cc"
         inkscape:connector-curvature="0" />
    </g>
  </g>
  <metadata
     id="metadata3153">
    <rdf:RDF>
      <cc:Work
         rdf:about="">
        <dc:title>Clipart by Nicu Buculei - nosmoke</dc:title>
        <dc:rights>
          <cc:Agent>
            <dc:title>Nicu Buculei</dc:title>
          </cc:Agent>
        </dc:rights>
        <dc:type
           rdf:resource="http://purl.org/dc/dcmitype/StillImage" />
        <cc:license
           rdf:resource="http://web.resource.org/cc/PublicDomain" />
        <dc:format>image/svg+xml</dc:format>
      </cc:Work>
      <cc:License
         rdf:about="http://web.resource.org/cc/PublicDomain">
        <cc:permits
           rdf:resource="http://web.resource.org/cc/Reproduction" />
        <cc:permits
           rdf:resource="http://web.resource.org/cc/Distribution" />
        <cc:permits
           rdf:resource="http://web.resource.org/cc/DerivativeWorks" />
      </cc:License>
    </rdf:RDF>
  </metadata>
</svg>
