<?xml version="1.0" encoding="UTF-8" standalone="no"?>
<!-- Created with Inkscape (http://www.inkscape.org/) -->
<svg
   xmlns:dc="http://purl.org/dc/elements/1.1/"
   xmlns:cc="http://web.resource.org/cc/"
   xmlns:rdf="http://www.w3.org/1999/02/22-rdf-syntax-ns#"
   xmlns:svg="http://www.w3.org/2000/svg"
   xmlns="http://www.w3.org/2000/svg"
   xmlns:xlink="http://www.w3.org/1999/xlink"
   xmlns:sodipodi="http://sodipodi.sourceforge.net/DTD/sodipodi-0.dtd"
   xmlns:inkscape="http://www.inkscape.org/namespaces/inkscape"
   height="298.57785"
   id="svg2"
   version="1.0"
   width="409.63626"
   x="0.0000000"
   y="0.0000000"
   sodipodi:version="0.32"
   inkscape:version="0.45.1"
   sodipodi:docname="bypasspruner_benji_park_02r.svg"
   sodipodi:docbase="/Users/johnolsen/Desktop/openclipart-0.20-pre/recovered-zerobyte-files/plants/trees"
   inkscape:output_extension="org.inkscape.output.svg.inkscape">
  <sodipodi:namedview
     inkscape:window-height="480"
     inkscape:window-width="640"
     inkscape:pageshadow="2"
     inkscape:pageopacity="0.0"
     guidetolerance="10.0"
     gridtolerance="10.0"
     objecttolerance="10.0"
     borderopacity="1.0"
     bordercolor="#666666"
     pagecolor="#ffffff"
     id="base" />
  <metadata
     id="metadata3">
    <rdf:RDF>
      <cc:Work
         rdf:about="">
        <dc:title>bypasspruner</dc:title>
        <dc:description />
        <dc:subject>
          <rdf:Bag>
            <rdf:li>pruner</rdf:li>
            <rdf:li>bypasspruner</rdf:li>
            <rdf:li>tree</rdf:li>
            <rdf:li>tool</rdf:li>
            <rdf:li>trimmer</rdf:li>
          </rdf:Bag>
        </dc:subject>
        <dc:publisher>
          <cc:Agent
             rdf:about="http://www.openclipart.org/">
            <dc:title>Open Clip Art Library</dc:title>
          </cc:Agent>
        </dc:publisher>
        <dc:creator>
          <cc:Agent>
            <dc:title>Benji Park</dc:title>
          </cc:Agent>
        </dc:creator>
        <dc:rights>
          <cc:Agent>
            <dc:title>Benji Park</dc:title>
          </cc:Agent>
        </dc:rights>
        <dc:date />
        <dc:format>image/svg+xml</dc:format>
        <dc:type
           rdf:resource="http://purl.org/dc/dcmitype/StillImage" />
        <cc:license
           rdf:resource="http://web.resource.org/cc/PublicDomain" />
        <dc:language>en</dc:language>
      </cc:Work>
      <cc:License
         rdf:about="http://web.resource.org/cc/PublicDomain">
        <cc:permits
           rdf:resource="http://web.resource.org/cc/Reproduction" />
        <cc:permits
           rdf:resource="http://web.resource.org/cc/Distribution" />
        <cc:permits
           rdf:resource="http://web.resource.org/cc/DerivativeWorks" />
      </cc:License>
    </rdf:RDF>
  </metadata>
  <defs
     id="defs3">
    <linearGradient
       id="linearGradient2149">
      <stop
         id="stop2151"
         offset="0.0000000"
         style="stop-color:#236e3a;stop-opacity:1.0000000;" />
      <stop
         id="stop2153"
         offset="1.0000000"
         style="stop-color:#323976;stop-opacity:1.0000000;" />
    </linearGradient>
    <linearGradient
       id="linearGradient2129">
      <stop
         id="stop2131"
         offset="0.0000000"
         style="stop-color:#6e6e6e;stop-opacity:1.0000000;" />
      <stop
         id="stop2133"
         offset="1.0000000"
         style="stop-color:#e0e0e0;stop-opacity:1.0000000;" />
    </linearGradient>
    <linearGradient
       id="linearGradient2119">
      <stop
         id="stop2121"
         offset="0.0000000"
         style="stop-color:#323232;stop-opacity:1.0000000;" />
      <stop
         id="stop2123"
         offset="1.0000000"
         style="stop-color:#8e8e8e;stop-opacity:1.0000000;" />
    </linearGradient>
    <linearGradient
       gradientTransform="scale(0.9483,1.054518)"
       gradientUnits="userSpaceOnUse"
       id="linearGradient2125"
       x1="248.46132"
       x2="220.50041"
       xlink:href="#linearGradient2119"
       y1="173.53503"
       y2="268.78357" />
    <linearGradient
       gradientTransform="scale(1.365141,0.732525)"
       gradientUnits="userSpaceOnUse"
       id="linearGradient2135"
       x1="181.85478"
       x2="129.75833"
       xlink:href="#linearGradient2129"
       y1="376.13382"
       y2="297.47287" />
    <radialGradient
       cx="251.78572"
       cy="247.00504"
       fx="251.78572"
       fy="247.00504"
       gradientUnits="userSpaceOnUse"
       id="radialGradient2145"
       r="13.5"
       xlink:href="#linearGradient2119" />
    <linearGradient
       gradientTransform="scale(1.009127,0.990955)"
       gradientUnits="userSpaceOnUse"
       id="linearGradient2155"
       x1="357.72171"
       x2="270.98715"
       xlink:href="#linearGradient2149"
       y1="314.65308"
       y2="431.9736" />
    <linearGradient
       gradientTransform="scale(2.229972,0.448436)"
       gradientUnits="userSpaceOnUse"
       id="linearGradient2165"
       x1="180.83038"
       x2="182.25723"
       xlink:href="#linearGradient2149"
       y1="534.5744"
       y2="355.51175" />
    <linearGradient
       gradientTransform="matrix(1.600179,0.384335,-0.141911,0.590846,-12.07963,-116.2374)"
       gradientUnits="userSpaceOnUse"
       id="linearGradient2177"
       spreadMethod="reflect"
       x1="225.95399"
       x2="231.50644"
       xlink:href="#linearGradient2129"
       y1="511.98526"
       y2="514.64154" />
    <linearGradient
       gradientTransform="matrix(1.633866,0.196895,-7.270095e-2,0.603284,-52.11792,-85.94136)"
       gradientUnits="userSpaceOnUse"
       id="linearGradient2181"
       spreadMethod="reflect"
       x1="225.95399"
       x2="231.50644"
       xlink:href="#linearGradient2129"
       y1="511.98526"
       y2="514.64154" />
    <linearGradient
       gradientTransform="matrix(1.632841,0.205222,-7.577565e-2,0.602906,-46.71771,-95.87732)"
       gradientUnits="userSpaceOnUse"
       id="linearGradient2185"
       spreadMethod="reflect"
       x1="225.95399"
       x2="231.50644"
       xlink:href="#linearGradient2129"
       y1="511.98526"
       y2="514.64154" />
    <linearGradient
       gradientTransform="matrix(1.644653,-5.831804e-2,2.153319e-2,0.607267,-96.27346,-44.94299)"
       gradientUnits="userSpaceOnUse"
       id="linearGradient2189"
       spreadMethod="reflect"
       x1="225.95399"
       x2="231.50644"
       xlink:href="#linearGradient2129"
       y1="511.98526"
       y2="514.64154" />
    <linearGradient
       gradientTransform="matrix(1.631279,-0.217288,8.023094e-2,0.602329,-120.7421,-14.34535)"
       gradientUnits="userSpaceOnUse"
       id="linearGradient2193"
       spreadMethod="reflect"
       x1="225.95399"
       x2="231.50644"
       xlink:href="#linearGradient2129"
       y1="511.98526"
       y2="514.64154" />
    <linearGradient
       gradientTransform="matrix(1.61783,-0.301517,0.111331,0.597363,-130.5408,-0.23181)"
       gradientUnits="userSpaceOnUse"
       id="linearGradient2197"
       spreadMethod="reflect"
       x1="225.95399"
       x2="231.50644"
       xlink:href="#linearGradient2129"
       y1="511.98526"
       y2="514.64154" />
    <linearGradient
       gradientTransform="matrix(1.599622,-0.386644,0.142764,0.59064,-141.9154,16.06984)"
       gradientUnits="userSpaceOnUse"
       id="linearGradient2201"
       spreadMethod="reflect"
       x1="225.95399"
       x2="231.50644"
       xlink:href="#linearGradient2129"
       y1="511.98526"
       y2="514.64154" />
    <linearGradient
       gradientTransform="scale(0.9483,1.054518)"
       gradientUnits="userSpaceOnUse"
       id="linearGradient2218"
       x1="248.46132"
       x2="220.50041"
       xlink:href="#linearGradient2119"
       y1="173.53503"
       y2="268.78357" />
    <linearGradient
       gradientTransform="scale(2.229972,0.448436)"
       gradientUnits="userSpaceOnUse"
       id="linearGradient2220"
       x1="180.83038"
       x2="182.25723"
       xlink:href="#linearGradient2149"
       y1="534.5744"
       y2="355.51175" />
    <linearGradient
       gradientTransform="scale(1.365141,0.732525)"
       gradientUnits="userSpaceOnUse"
       id="linearGradient2222"
       x1="181.85478"
       x2="129.75833"
       xlink:href="#linearGradient2129"
       y1="376.13382"
       y2="297.47287" />
    <radialGradient
       cx="251.78572"
       cy="247.00504"
       fx="251.78572"
       fy="247.00504"
       gradientUnits="userSpaceOnUse"
       id="radialGradient2224"
       r="13.5"
       xlink:href="#linearGradient2119" />
    <linearGradient
       gradientTransform="scale(1.009127,0.990955)"
       gradientUnits="userSpaceOnUse"
       id="linearGradient2226"
       x1="357.72171"
       x2="270.98715"
       xlink:href="#linearGradient2149"
       y1="314.65308"
       y2="431.9736" />
    <linearGradient
       gradientTransform="matrix(1.600179,0.384335,-0.141911,0.590846,-12.07963,-116.2374)"
       gradientUnits="userSpaceOnUse"
       id="linearGradient2228"
       spreadMethod="reflect"
       x1="225.95399"
       x2="231.50644"
       xlink:href="#linearGradient2129"
       y1="511.98526"
       y2="514.64154" />
    <linearGradient
       gradientTransform="matrix(1.633866,0.196895,-7.270095e-2,0.603284,-52.11792,-85.94136)"
       gradientUnits="userSpaceOnUse"
       id="linearGradient2230"
       spreadMethod="reflect"
       x1="225.95399"
       x2="231.50644"
       xlink:href="#linearGradient2129"
       y1="511.98526"
       y2="514.64154" />
    <linearGradient
       gradientTransform="matrix(1.632841,0.205222,-7.577565e-2,0.602906,-46.71771,-95.87732)"
       gradientUnits="userSpaceOnUse"
       id="linearGradient2232"
       spreadMethod="reflect"
       x1="225.95399"
       x2="231.50644"
       xlink:href="#linearGradient2129"
       y1="511.98526"
       y2="514.64154" />
    <linearGradient
       gradientTransform="matrix(1.644653,-5.831804e-2,2.153319e-2,0.607267,-96.27346,-44.94299)"
       gradientUnits="userSpaceOnUse"
       id="linearGradient2234"
       spreadMethod="reflect"
       x1="225.95399"
       x2="231.50644"
       xlink:href="#linearGradient2129"
       y1="511.98526"
       y2="514.64154" />
    <linearGradient
       gradientTransform="matrix(1.631279,-0.217288,8.023094e-2,0.602329,-120.7421,-14.34535)"
       gradientUnits="userSpaceOnUse"
       id="linearGradient2236"
       spreadMethod="reflect"
       x1="225.95399"
       x2="231.50644"
       xlink:href="#linearGradient2129"
       y1="511.98526"
       y2="514.64154" />
    <linearGradient
       gradientTransform="matrix(1.61783,-0.301517,0.111331,0.597363,-130.5408,-0.23181)"
       gradientUnits="userSpaceOnUse"
       id="linearGradient2238"
       spreadMethod="reflect"
       x1="225.95399"
       x2="231.50644"
       xlink:href="#linearGradient2129"
       y1="511.98526"
       y2="514.64154" />
    <linearGradient
       gradientTransform="matrix(1.599622,-0.386644,0.142764,0.59064,-141.9154,16.06984)"
       gradientUnits="userSpaceOnUse"
       id="linearGradient2240"
       spreadMethod="reflect"
       x1="225.95399"
       x2="231.50644"
       xlink:href="#linearGradient2129"
       y1="511.98526"
       y2="514.64154" />
  </defs>
  <g
     id="layer1"
     transform="translate(-6.0613193,-3.63411)">
    <g
       id="g2203"
       transform="translate(-116.731,-161.2995)">
      <path
         d="M 249.28571,201.6479 C 249.28571,201.6479 217.85714,200.21932 192.14286,185.21932 C 166.42857,170.21932 162.14286,165.93361 162.14286,165.93361 C 162.14286,165.93361 158.57143,198.07647 179.28571,217.36218 C 200,236.6479 229.28571,242.36218 229.28571,242.36218 L 239.28571,257.36218 L 237.14286,290.93361 L 265.71429,283.79075 L 274.28571,242.36218 L 249.28571,201.6479 z "
         id="path1358"
         style="fill:url(#linearGradient2218);fill-opacity:1;fill-rule:evenodd;stroke:#000000;stroke-width:2;stroke-linecap:butt;stroke-linejoin:miter;stroke-miterlimit:4;stroke-opacity:1" />
      <path
         d="M 246.42857,198.79075 L 313.57143,177.36218 C 313.57143,177.36218 317.14286,185.21932 334.28571,187.36218 C 351.42857,189.50504 475,188.07647 475,188.07647 C 475,188.07647 531.42857,195.93361 531.42857,213.07647 C 531.42857,230.21932 510,230.93361 505.71429,232.36218 C 501.42857,233.79075 493.57143,215.21932 474.28571,214.50504 C 455,213.79075 357.85714,219.50504 347.85714,222.36218 C 337.85714,225.21932 330.71429,226.6479 330.71429,226.6479 L 330.71429,232.36218 L 314.28571,233.07647 L 314.28571,227.36218 L 277.14286,229.50504 L 246.42857,198.79075 z "
         id="path2157"
         style="fill:url(#linearGradient2220);fill-opacity:1;fill-rule:evenodd;stroke:#000000;stroke-width:2;stroke-linecap:butt;stroke-linejoin:miter;stroke-miterlimit:4;stroke-opacity:1" />
      <path
         d="M 256.42857,198.79075 C 227.85714,190.21932 218.57143,215.93361 212.85714,241.6479 C 207.14286,267.36218 158.57143,258.07647 137.14286,240.93361 C 115.71429,223.79075 123.57143,242.36218 136.42857,253.79075 C 149.28571,265.21932 179.28571,287.36218 217.85714,281.6479 C 256.42857,275.93361 274.28571,268.79075 282.14286,237.36218 C 290,205.93361 256.42857,198.79075 256.42857,198.79075 z "
         id="path2127"
         style="fill:url(#linearGradient2222);fill-opacity:1;fill-rule:evenodd;stroke:#000000;stroke-width:2;stroke-linecap:butt;stroke-linejoin:miter;stroke-miterlimit:4;stroke-opacity:1" />
      <path
         d="M 264.28572,247.00504 C 264.28572,253.9086 258.68928,259.50504 251.78572,259.50504 C 244.88216,259.50504 239.28572,253.9086 239.28572,247.00504 C 239.28572,240.10148 244.88216,234.50504 251.78572,234.50504 C 258.68928,234.50504 264.28572,240.10148 264.28572,247.00504 L 264.28572,247.00504 z "
         id="path2137"
         style="fill:url(#radialGradient2224);fill-opacity:1;fill-rule:nonzero;stroke:#000000;stroke-width:2;stroke-linecap:round;stroke-linejoin:round;stroke-miterlimit:4;stroke-dashoffset:0;stroke-opacity:1"
         transform="translate(-10,-12.14286)" />
      <path
         d="M 245,326.6479 L 229.28571,283.07647 L 270,277.36218 L 287.85714,295.93361 L 295,288.07647 L 305.71429,298.07647 C 305.71429,298.07647 299.28571,305.93361 302.85714,310.93361 C 306.42857,315.93361 380,385.21932 380,385.21932 C 380,385.21932 418.57143,426.6479 417.85714,445.93361 C 417.14286,465.21932 416.42857,462.36218 416.42857,462.36218 C 416.42857,462.36218 405,457.36218 401.42857,448.79075 C 397.85714,440.21932 388.57143,423.07647 362.85714,402.36218 C 337.14286,381.6479 325,370.93361 325,370.93361 C 325,370.93361 320.71429,365.21932 307.85714,365.93361 C 295,366.6479 295,345.93361 286.42857,339.50504 C 277.85714,333.07647 257.85714,322.36218 245,326.6479 z "
         id="path2147"
         style="fill:url(#linearGradient2226);fill-opacity:1;fill-rule:evenodd;stroke:#000000;stroke-width:2;stroke-linecap:butt;stroke-linejoin:miter;stroke-miterlimit:4;stroke-opacity:1" />
      <path
         d="M 270,174.50504 L 279.28571,172.36218 C 279.28571,172.36218 280,175.21932 287.85714,175.21932 C 295.71429,175.21932 299.28571,176.6479 299.28571,176.6479 L 307.14286,193.07647 L 268.57143,205.21932 L 260,186.6479 C 260,186.6479 267.85714,185.93361 270,174.50504 z "
         id="path2167"
         style="fill:#000000;fill-opacity:1;fill-rule:evenodd;stroke:#000000;stroke-width:0.25pt;stroke-linecap:butt;stroke-linejoin:miter;stroke-opacity:1" />
      <path
         d="M 275.08113,273.28284 C 283.64372,284.6072 290.94372,282.73401 290.94372,282.73401"
         id="path2169"
         style="fill:none;fill-opacity:0.75;fill-rule:evenodd;stroke:url(#linearGradient2228);stroke-width:3;stroke-linecap:round;stroke-linejoin:miter;stroke-miterlimit:4;stroke-opacity:1" />
      <path
         d="M 278.12102,267.79525 C 287.93456,278.05455 294.96928,275.35054 294.96928,275.35054"
         id="path2179"
         style="fill:none;fill-opacity:0.75;fill-rule:evenodd;stroke:url(#linearGradient2230);stroke-width:3;stroke-linecap:round;stroke-linejoin:miter;stroke-miterlimit:4;stroke-opacity:1" />
      <path
         d="M 281.71353,259.53827 C 291.47465,269.84747 298.52306,267.17936 298.52306,267.17936"
         id="path2183"
         style="fill:none;fill-opacity:0.75;fill-rule:evenodd;stroke:url(#linearGradient2232);stroke-width:3;stroke-linecap:round;stroke-linejoin:miter;stroke-miterlimit:4;stroke-opacity:1" />
      <path
         d="M 284.72806,253.42787 C 296.01102,262.04494 302.54255,258.28488 302.54255,258.28488"
         id="path2187"
         style="fill:none;fill-opacity:0.75;fill-rule:evenodd;stroke:url(#linearGradient2234);stroke-width:3;stroke-linecap:round;stroke-linejoin:miter;stroke-miterlimit:4;stroke-opacity:1" />
      <path
         d="M 287.35909,245.73306 C 299.42338,253.21717 305.56015,248.84236 305.56015,248.84236"
         id="path2191"
         style="fill:none;fill-opacity:0.75;fill-rule:evenodd;stroke:url(#linearGradient2236);stroke-width:3;stroke-linecap:round;stroke-linejoin:miter;stroke-miterlimit:4;stroke-opacity:1" />
      <path
         d="M 290.48766,238.35231 C 302.92352,245.20128 308.82538,240.51438 308.82538,240.51438"
         id="path2195"
         style="fill:none;fill-opacity:0.75;fill-rule:evenodd;stroke:url(#linearGradient2238);stroke-width:3;stroke-linecap:round;stroke-linejoin:miter;stroke-miterlimit:4;stroke-opacity:1" />
      <path
         d="M 291.14003,232.05671 C 303.92066,238.2385 309.56643,233.24608 309.56643,233.24608"
         id="path2199"
         style="fill:none;fill-opacity:0.75;fill-rule:evenodd;stroke:url(#linearGradient2240);stroke-width:3;stroke-linecap:round;stroke-linejoin:miter;stroke-miterlimit:4;stroke-opacity:1" />
    </g>
  </g>
</svg>
