<?xml version="1.0" encoding="UTF-8" standalone="no"?>
<!-- Created with Inkscape (http://www.inkscape.org/) -->
<svg
   xmlns:dc="http://purl.org/dc/elements/1.1/"
   xmlns:cc="http://creativecommons.org/ns#"
   xmlns:rdf="http://www.w3.org/1999/02/22-rdf-syntax-ns#"
   xmlns:svg="http://www.w3.org/2000/svg"
   xmlns="http://www.w3.org/2000/svg"
   xmlns:xlink="http://www.w3.org/1999/xlink"
   xmlns:sodipodi="http://sodipodi.sourceforge.net/DTD/sodipodi-0.dtd"
   xmlns:inkscape="http://www.inkscape.org/namespaces/inkscape"
   height="91.402733"
   id="svg58479"
   version="1.0"
   width="136.70102"
   x="0.0000000"
   y="0.0000000"
   sodipodi:version="0.32"
   inkscape:version="0.46"
   sodipodi:docname="blue_gun_alex_fernandez_02.svg"
   inkscape:output_extension="org.inkscape.output.svg.inkscape"
   inkscape:export-filename="C:\Documents and Settings\HP_Owner.WINXPMAIN\Desktop\Alex Fernandez\blue_gun_alex_fernandez_02.png"
   inkscape:export-xdpi="98.755661"
   inkscape:export-ydpi="98.755661">
  <sodipodi:namedview
     inkscape:window-height="675"
     inkscape:window-width="640"
     inkscape:pageshadow="2"
     inkscape:pageopacity="0.0"
     guidetolerance="10.0"
     gridtolerance="10.0"
     objecttolerance="10.0"
     borderopacity="1.0"
     bordercolor="#666666"
     pagecolor="#ffffff"
     id="base"
     showgrid="false"
     inkscape:zoom="2.8875"
     inkscape:cx="80"
     inkscape:cy="80"
     inkscape:window-x="110"
     inkscape:window-y="66"
     inkscape:current-layer="svg58479" />
  <metadata
     id="metadata3">
    <rdf:RDF>
      <cc:Work
         rdf:about="">
        <dc:title>Blue Gun</dc:title>
        <dc:description />
        <dc:subject>
          <rdf:Bag>
            <rdf:li>weapon</rdf:li>
            <rdf:li />
            <rdf:li>tools</rdf:li>
            <rdf:li>tool</rdf:li>
            <rdf:li>weapons</rdf:li>
            <rdf:li>gun</rdf:li>
          </rdf:Bag>
        </dc:subject>
        <dc:publisher>
          <cc:Agent
             rdf:about="http://www.openclipart.org">
            <dc:title>Alex Fernandez</dc:title>
          </cc:Agent>
        </dc:publisher>
        <dc:creator>
          <cc:Agent>
            <dc:title>Alex Fernandez</dc:title>
          </cc:Agent>
        </dc:creator>
        <dc:rights>
          <cc:Agent>
            <dc:title>Alex Fernandez</dc:title>
          </cc:Agent>
        </dc:rights>
        <dc:date />
        <dc:format>image/svg+xml</dc:format>
        <dc:type
           rdf:resource="http://purl.org/dc/dcmitype/StillImage" />
        <cc:license
           rdf:resource="http://web.resource.org/cc/PublicDomain" />
        <dc:language>en</dc:language>
      </cc:Work>
      <cc:License
         rdf:about="http://web.resource.org/cc/PublicDomain">
        <cc:permits
           rdf:resource="http://web.resource.org/cc/Reproduction" />
        <cc:permits
           rdf:resource="http://web.resource.org/cc/Distribution" />
        <cc:permits
           rdf:resource="http://web.resource.org/cc/DerivativeWorks" />
      </cc:License>
    </rdf:RDF>
  </metadata>
  <defs
     id="defs3">
    <inkscape:perspective
       sodipodi:type="inkscape:persp3d"
       inkscape:vp_x="0 : 80 : 1"
       inkscape:vp_y="0 : 1000 : 0"
       inkscape:vp_z="160 : 80 : 1"
       inkscape:persp3d-origin="80 : 53.333333 : 1"
       id="perspective58" />
    <linearGradient
       gradientTransform="scale(1.153583,0.866864)"
       gradientUnits="userSpaceOnUse"
       id="linearGradient41421"
       x1="-482.48001"
       x2="-486.68314"
       xlink:href="#linearGradient25382"
       y1="1250.859"
       y2="1251.0925" />
    <linearGradient
       gradientTransform="scale(0.900402,1.110615)"
       gradientUnits="userSpaceOnUse"
       id="linearGradient41419"
       x1="-602.61603"
       x2="-597.01825"
       xlink:href="#linearGradient10894"
       y1="1017.1805"
       y2="1016.095" />
    <linearGradient
       id="linearGradient32260">
      <stop
         id="stop32262"
         offset="0.0000000"
         style="stop-color:#00739a;stop-opacity:1.0000000;" />
      <stop
         id="stop32264"
         offset="1.0000000"
         style="stop-color:#025b72;stop-opacity:1.0000000;" />
    </linearGradient>
    <linearGradient
       gradientTransform="matrix(1.089853,0,0,0.917555,0,-0.403564)"
       gradientUnits="userSpaceOnUse"
       id="linearGradient41417"
       spreadMethod="pad"
       x1="-572.37915"
       x2="-571.65222"
       xlink:href="#linearGradient32260"
       y1="1163.3297"
       y2="1164.2794" />
    <linearGradient
       gradientTransform="matrix(1.153583,0,0,0.866864,0,-6)"
       gradientUnits="userSpaceOnUse"
       id="linearGradient41415"
       x1="-482.91605"
       x2="-478.11594"
       xlink:href="#linearGradient25382"
       y1="1276.035"
       y2="1276.0349" />
    <linearGradient
       gradientTransform="scale(1.089853,0.917555)"
       gradientUnits="userSpaceOnUse"
       id="linearGradient41413"
       spreadMethod="pad"
       x1="-576.17468"
       x2="-578.68933"
       xlink:href="#linearGradient20811"
       y1="1182.4661"
       y2="1185.4542" />
    <linearGradient
       id="linearGradient24616">
      <stop
         id="stop24618"
         offset="0.0000000"
         style="stop-color:#000102;stop-opacity:1.0000000;" />
      <stop
         id="stop24620"
         offset="1.0000000"
         style="stop-color:#bae3e7;stop-opacity:1.0000000;" />
    </linearGradient>
    <linearGradient
       gradientTransform="scale(1.089853,0.917555)"
       gradientUnits="userSpaceOnUse"
       id="linearGradient41411"
       spreadMethod="reflect"
       x1="-579.612"
       x2="-579.71954"
       xlink:href="#linearGradient24616"
       y1="1174.7557"
       y2="1170.9596" />
    <linearGradient
       id="linearGradient20811">
      <stop
         id="stop20813"
         offset="0.0000000"
         style="stop-color:#00739a;stop-opacity:1.0000000;" />
      <stop
         id="stop20815"
         offset="1.0000000"
         style="stop-color:#bae3e7;stop-opacity:1.0000000;" />
    </linearGradient>
    <linearGradient
       gradientTransform="scale(1.089853,0.917555)"
       gradientUnits="userSpaceOnUse"
       id="linearGradient41409"
       spreadMethod="reflect"
       x1="-578.3642"
       x2="-572.31775"
       xlink:href="#linearGradient20811"
       y1="1173.9907"
       y2="1173.8068" />
    <linearGradient
       id="linearGradient20043">
      <stop
         id="stop20045"
         offset="0.0000000"
         style="stop-color:#00739a;stop-opacity:1.0000000;" />
      <stop
         id="stop20047"
         offset="1.0000000"
         style="stop-color:#004b65;stop-opacity:1.0000000;" />
    </linearGradient>
    <linearGradient
       gradientTransform="scale(1.745505,0.5729)"
       gradientUnits="userSpaceOnUse"
       id="linearGradient41407"
       spreadMethod="reflect"
       x1="-316.83463"
       x2="-316.42471"
       xlink:href="#linearGradient20043"
       y1="1881.4431"
       y2="1881.4435" />
    <linearGradient
       id="linearGradient25382">
      <stop
         id="stop25384"
         offset="0.0000000"
         style="stop-color:#00739a;stop-opacity:1.0000000;" />
      <stop
         id="stop25386"
         offset="1.0000000"
         style="stop-color:#ffffff;stop-opacity:1.0000000;" />
    </linearGradient>
    <linearGradient
       gradientTransform="scale(1.861882,0.537091)"
       gradientUnits="userSpaceOnUse"
       id="linearGradient41405"
       x1="-304.07706"
       x2="-302.50769"
       xlink:href="#linearGradient25382"
       y1="2034.0258"
       y2="2034.0261" />
    <linearGradient
       id="linearGradient19275">
      <stop
         id="stop19277"
         offset="0.0000000"
         style="stop-color:#00a5dd;stop-opacity:1.0000000;" />
      <stop
         id="stop19279"
         offset="1.0000000"
         style="stop-color:#00739a;stop-opacity:1.0000000;" />
    </linearGradient>
    <radialGradient
       cx="-221.82408"
       cy="2840.011"
       fx="-221.82408"
       fy="2840.011"
       gradientTransform="scale(2.634184,0.379624)"
       gradientUnits="userSpaceOnUse"
       id="radialGradient41403"
       r="12.351559"
       xlink:href="#linearGradient19275" />
    <linearGradient
       id="linearGradient10894">
      <stop
         id="stop10896"
         offset="0.0000000"
         style="stop-color:#ffffff;stop-opacity:1.0000000;" />
      <stop
         id="stop10898"
         offset="1.0000000"
         style="stop-color:#0e4659;stop-opacity:1.0000000;" />
    </linearGradient>
    <linearGradient
       gradientTransform="scale(0.900402,1.110615)"
       gradientUnits="userSpaceOnUse"
       id="linearGradient41401"
       x1="-598.25848"
       x2="-589.17389"
       xlink:href="#linearGradient10894"
       y1="1013.8859"
       y2="1011.1404" />
  </defs>
  <g
     id="layer1"
     transform="translate(-14.506583,-35.2327)">
    <g
       id="g41382"
       transform="translate(648.6561,-1029.82)">
      <path
         d="M -521.09043,1155.861 C -525.44635,1155.3493 -534.47481,1159.1955 -533.81696,1152.1461 C -534.28955,1145.6385 -541.61965,1114.0879 -544.48612,1109.8975 C -547.98338,1109.1627 -551.54335,1110.7771 -558.71266,1110.1981 C -563.0802,1109.8454 -569.19471,1109.1578 -576.74238,1107.3012 C -575.62534,1103.6419 -575.79853,1102.7626 -577.16826,1098.0485 C -577.75672,1095.4546 -578.0718,1095.3252 -585.17139,1093.0696 L -623.22243,1093.5069 L -623.54686,1088.9745 L -630.91892,1088.9716 L -631.01683,1068.0664 L -617.25915,1068.0752 L -616.14787,1069.3755 L -563.63467,1069.3248 L -563.68429,1068.5598 L -525.32563,1068.5502 L -522.96238,1065.0527 L -520.31077,1068.9894 C -516.85112,1073.6641 -507.48617,1068.1258 -507.50002,1074.852 C -509.60305,1080.3817 -505.88339,1087.0494 -500.45791,1089.7364 C -497.41008,1090.6288 -495.98967,1094.6302 -500.61757,1094.6019 C -506.23187,1095.0037 -507.19527,1097.5979 -509.41918,1102.6756 C -511.66601,1107.8056 -498.7859,1134.2111 -497.44849,1143.3543 C -497.57718,1154.4122 -515.49434,1156.3263 -521.09043,1155.861 z M -547.04404,1096.5488 C -550.60521,1095.5991 -553.01043,1095.9592 -553.16252,1097.3398 C -553.48733,1100.2879 -559.27276,1103.7002 -561.71942,1105.059 C -567.45666,1105.4985 -554.07588,1099.7533 -559.43561,1095.728 C -563.73925,1093.9028 -572.71322,1094.8776 -574.5161,1097.1839 C -576.28248,1099.4435 -571.17323,1107.7891 -565.72727,1108.249 C -556.43358,1109.3943 -539.76172,1111.8621 -547.04404,1096.5488 z"
         id="path21056"
         style="fill:#000000;fill-opacity:1" />
      <path
         d="M -546.33492,1088.4604 L -530.47943,1151.3509 C -530.47943,1151.3509 -494.62131,1152.8113 -500.51531,1138.9777 L -516.34834,1095.4991 C -521.71058,1091.669 -519.72146,1090.4479 -526.26276,1089.912 C -532.78834,1089.3774 -547.135,1085.2868 -546.33492,1088.4604 z"
         id="path7845"
         style="fill:url(#linearGradient41401);fill-opacity:1;fill-rule:evenodd;stroke:none;stroke-width:0.25pt;stroke-linecap:butt;stroke-linejoin:miter;stroke-opacity:1" />
      <path
         d="M -542.14345,1094.9148 L -527.78164,1148.644 C -523.91669,1151.5008 -497.76725,1149.7503 -503.1506,1138.987 L -516.06596,1101.4924 C -520.7711,1098.1315 -530.51814,1091.3845 -533.03875,1092.7289 C -535.55935,1094.0731 -542.88498,1092.1407 -542.14345,1094.9148 z"
         id="path8605"
         style="fill:#082c3d;fill-opacity:1;fill-rule:evenodd;stroke:none;stroke-width:0.25pt;stroke-linecap:butt;stroke-linejoin:miter;stroke-opacity:1" />
      <path
         d="M -618.56668,1073.2057 L -562.8814,1073.26 L -560.52328,1082.4412 L -618.37679,1082.4501 L -618.56668,1073.2057 z"
         id="rect9365"
         style="fill:url(#radialGradient41403);fill-opacity:1;fill-rule:evenodd;stroke:none;stroke-width:5;stroke-linecap:round;stroke-linejoin:round;stroke-miterlimit:4;stroke-opacity:1" />
      <path
         d="M -507.04966,1090.7628 C -508.62626,1085.0439 -507.73751,1086.5589 -515.129,1085.3204 L -507.98899,1085.3596 C -506.72025,1086.9102 -504.85921,1091.1833 -502.90757,1092.5918 C -505.95533,1092.5565 -507.29295,1096.5633 -508.22009,1100.8557 C -508.08089,1097.7489 -506.68758,1092.1263 -507.04966,1090.7628 z"
         id="path39864"
         style="fill:#00739a;fill-opacity:1;fill-rule:evenodd;stroke:none;stroke-width:5;stroke-linecap:round;stroke-linejoin:round;stroke-miterlimit:4;stroke-opacity:1" />
      <path
         d="M -523.40236,1086.6644 L -511.75341,1086.3604 C -509.8163,1086.3604 -508.45945,1086.2086 -508.45945,1088.2854 C -508.45945,1090.3622 -511.33285,1092.5035 -512.25999,1096.7959 C -514.28631,1094.9723 -525.33947,1086.6644 -523.40236,1086.6644 z"
         id="rect13176"
         style="fill:#0e4659;fill-opacity:1;fill-rule:evenodd;stroke:none;stroke-width:5;stroke-linecap:round;stroke-linejoin:round;stroke-miterlimit:4;stroke-opacity:1" />
      <path
         d="M -617.98986,1083.3139 L -563.05796,1083.2945 L -563.05096,1093.2938 L -577.77854,1093.1481 C -578.66505,1090.2555 -579.10075,1088.8399 -583.56784,1088.6106 L -617.67721,1088.9551 L -617.98986,1083.3139 z"
         id="path14703"
         style="fill:url(#linearGradient41405);fill-opacity:1;fill-rule:evenodd;stroke:none;stroke-width:5;stroke-linecap:round;stroke-linejoin:round;stroke-miterlimit:4;stroke-opacity:1" />
      <path
         d="M -529.75149,1073.2308 L -562.75686,1073.2328 L -560.33346,1082.4484 L -526.18735,1082.4418 L -529.75149,1073.2308 z"
         id="path18515"
         style="fill:url(#linearGradient41407);fill-opacity:1;fill-rule:evenodd;stroke:none;stroke-width:5;stroke-linecap:round;stroke-linejoin:round;stroke-miterlimit:4;stroke-opacity:1" />
      <path
         d="M -631.06293,1071.3209 C -626.54143,1071.3561 -620.71596,1072.1046 -618.47938,1073.2809 L -618.33057,1082.4582 C -621.91056,1082.4213 -626.27038,1081.9128 -630.98436,1082.0251 L -631.06293,1071.3209 z"
         id="path20051"
         style="fill:url(#linearGradient41409);fill-opacity:1;fill-rule:evenodd;stroke:none;stroke-width:5;stroke-linecap:round;stroke-linejoin:round;stroke-miterlimit:4;stroke-opacity:1" />
      <path
         d="M -633.62411,1069.7756 L -630.97537,1069.7668 L -630.93851,1078.8395 L -633.61901,1078.7068 C -634.24728,1075.7047 -634.39935,1072.6274 -633.62411,1069.7756 z"
         id="path23856"
         style="fill:url(#linearGradient41411);fill-opacity:1;fill-rule:evenodd;stroke:none;stroke-width:5;stroke-linecap:round;stroke-linejoin:round;stroke-miterlimit:4;stroke-opacity:1" />
      <path
         d="M -630.94727,1083.1945 L -618.06258,1083.3217 L -617.8533,1087.4468 C -621.43329,1087.4099 -626.20124,1087.4305 -630.91522,1087.5428 L -630.94727,1083.1945 z"
         id="path27664"
         style="fill:url(#linearGradient41413);fill-opacity:1;fill-rule:evenodd;stroke:none;stroke-width:5;stroke-linecap:round;stroke-linejoin:round;stroke-miterlimit:4;stroke-opacity:1" />
      <path
         d="M -569.16745,1094.897 C -573.13719,1095.4174 -576.87445,1096.6655 -574.38829,1100.9545 C -571.96006,1105.1436 -571.38709,1108.3266 -558.88526,1109.7886 C -565.7363,1108.7876 -572.54511,1107.8288 -576.65123,1106.9968 C -576.31339,1104.306 -576.01907,1105.7404 -576.09808,1103.0265 C -576.17707,1100.3135 -577.48836,1098.4689 -577.65562,1094.9597 L -569.16745,1094.897 z"
         id="path28426"
         style="fill:#00739a;fill-opacity:1;fill-rule:evenodd;stroke:none;stroke-width:5;stroke-linecap:round;stroke-linejoin:round;stroke-miterlimit:4;stroke-opacity:1" />
      <path
         d="M -551.54668,1095.8006 C -553.05837,1096.4418 -551.75152,1095.7714 -553.03088,1096.6289 C -556.29559,1099.859 -551.62008,1098.0943 -563.38241,1104.5961 C -560.26416,1101.865 -558.61842,1099.2113 -558.78568,1095.7021 L -551.54668,1095.8006 z"
         id="path29972"
         style="fill:url(#linearGradient41415);fill-opacity:1;fill-rule:evenodd;stroke:none;stroke-width:5;stroke-linecap:round;stroke-linejoin:round;stroke-miterlimit:4;stroke-opacity:1" />
      <path
         d="M -630.84575,1068.1437 L -626.55078,1066.1112 C -623.15342,1064.6599 -620.51263,1065.5604 -620.22932,1068.1242 L -630.84575,1068.1437 z"
         id="path30740"
         style="fill:url(#linearGradient41417);fill-opacity:1;fill-rule:evenodd;stroke:none;stroke-width:5;stroke-linecap:round;stroke-linejoin:round;stroke-miterlimit:4;stroke-opacity:1" />
      <path
         d="M -533.25492,1152.6456 C -534.45922,1142.3777 -539.66953,1121.6232 -542.3549,1112.8363 C -546.90928,1105.2362 -539.24052,1124.537 -536.96886,1137.1073 C -534.69282,1149.7018 -535.84343,1156.381 -533.25492,1152.6456 z"
         id="path36064"
         style="fill:url(#linearGradient41419);fill-opacity:1;fill-rule:evenodd;stroke:none;stroke-width:0.25pt;stroke-linecap:butt;stroke-linejoin:miter;stroke-opacity:1" />
      <path
         d="M -526.80792,1073.4212 L -513.70869,1073.3092 C -511.77158,1073.3092 -509.91388,1080.2442 -509.91388,1082.3209 C -513.1963,1082.8827 -520.89425,1082.5032 -522.83136,1082.5032 C -524.85768,1080.6796 -528.74503,1073.4212 -526.80792,1073.4212 z"
         id="path36826"
         style="fill:#0e4659;fill-opacity:1;fill-rule:evenodd;stroke:none;stroke-width:5;stroke-linecap:round;stroke-linejoin:round;stroke-miterlimit:4;stroke-opacity:1" />
      <path
         d="M -546.24431,1081.9134 C -545.03267,1082.3669 -544.66719,1083.1117 -544.21225,1084.6386 L -561.12862,1088.0609 C -562.54925,1086.6445 -561.9906,1085.0005 -561.56311,1084.3399 L -546.24431,1081.9134 z"
         id="path39102"
         style="fill:url(#linearGradient41421);fill-opacity:1;fill-rule:evenodd;stroke:none;stroke-width:5;stroke-linecap:round;stroke-linejoin:round;stroke-miterlimit:4;stroke-opacity:1" />
    </g>
  </g>
</svg>
