<?xml version="1.0" encoding="UTF-8" standalone="no"?>
<svg
   xmlns:dc="http://purl.org/dc/elements/1.1/"
   xmlns:cc="http://creativecommons.org/ns#"
   xmlns:rdf="http://www.w3.org/1999/02/22-rdf-syntax-ns#"
   xmlns:svg="http://www.w3.org/2000/svg"
   xmlns="http://www.w3.org/2000/svg"
   xmlns:sodipodi="http://sodipodi.sourceforge.net/DTD/sodipodi-0.dtd"
   xmlns:inkscape="http://www.inkscape.org/namespaces/inkscape"
   height="488.19992"
   id="svg2552"
   inkscape:version="0.48.1 r9760"
   sodipodi:docname="Anonymous_aiga_barber_shop_-_beauty_salon_.svg"
   sodipodi:version="0.32"
   width="125.15672"
   version="1.1">
  <metadata
     id="metadata3">
    <rdf:RDF>
      <cc:Work
         rdf:about="">
        <dc:title>AIGA_Symbol_Signs</dc:title>
        <dc:description>EPS converted from  http://aiga.org</dc:description>
        <dc:subject>
          <rdf:Bag>
            <rdf:li>symbol</rdf:li>
            <rdf:li>mapsym</rdf:li>
          </rdf:Bag>
        </dc:subject>
        <dc:publisher>
          <cc:Agent
             rdf:about="http://www.openclipart.org/">
            <dc:title>Open Clip Art Library</dc:title>
          </cc:Agent>
        </dc:publisher>
        <dc:creator>
          <cc:Agent>
            <dc:title>Jean-Victor Balin</dc:title>
          </cc:Agent>
        </dc:creator>
        <dc:rights>
          <cc:Agent>
            <dc:title>Jean-Victor Balin</dc:title>
          </cc:Agent>
        </dc:rights>
        <dc:date />
        <dc:format>image/svg+xml</dc:format>
        <dc:type
           rdf:resource="http://purl.org/dc/dcmitype/StillImage" />
        <cc:license
           rdf:resource="http://web.resource.org/cc/PublicDomain" />
        <dc:language>en</dc:language>
      </cc:Work>
      <cc:License
         rdf:about="http://web.resource.org/cc/PublicDomain">
        <cc:permits
           rdf:resource="http://web.resource.org/cc/Reproduction" />
        <cc:permits
           rdf:resource="http://web.resource.org/cc/Distribution" />
        <cc:permits
           rdf:resource="http://web.resource.org/cc/DerivativeWorks" />
      </cc:License>
    </rdf:RDF>
  </metadata>
  <sodipodi:namedview
     bordercolor="#666666"
     borderopacity="1.0"
     id="base"
     inkscape:current-layer="svg2552"
     inkscape:cx="138.32894"
     inkscape:cy="416.745"
     inkscape:pageopacity="0.0"
     inkscape:pageshadow="2"
     inkscape:window-height="543"
     inkscape:window-width="640"
     inkscape:window-x="0"
     inkscape:window-y="26"
     inkscape:zoom="0.43415836"
     pagecolor="#ffffff"
     showgrid="false"
     fit-margin-top="0"
     fit-margin-left="0"
     fit-margin-right="0"
     fit-margin-bottom="0"
     inkscape:window-maximized="0" />
  <defs
     id="defs2554">
    <marker
       id="ArrowEnd"
       markerHeight="3"
       markerUnits="strokeWidth"
       markerWidth="4"
       orient="auto"
       refX="0"
       refY="5"
       viewBox="0 0 10 10">
      <path
         d="M 0,0 10,5 0,10 z"
         id="path2557"
         inkscape:connector-curvature="0" />
    </marker>
    <marker
       id="ArrowStart"
       markerHeight="3"
       markerUnits="strokeWidth"
       markerWidth="4"
       orient="auto"
       refX="10"
       refY="5"
       viewBox="0 0 10 10">
      <path
         d="M 10,0 0,5 10,10 z"
         id="path2560"
         inkscape:connector-curvature="0" />
    </marker>
  </defs>
  <path
     d="m 81.627716,58.111001 -72.0189998,0 c -13.031,0 -12.553,19.265 0,19.265 l 72.0189998,0 0,9.631 -71.9699998,0 c -13.022,0 -12.543,19.264999 0,19.264999 l 71.9699998,0 0,9.632 0,0.482 -71.9699998,0 c -13.022,0 -12.543,19.264 0,19.264 l 71.9699998,0 0,9.633 -71.9699998,0 c -12.75,0 -12.543,19.264 0,19.264 l 71.9699998,0 0,9.633 -71.9699998,0 c -12.75,0 -12.793,19.264 0,19.264 l 71.9699998,0 0,9.633 -71.9699998,0 c -12.75,0 -12.793,19.264 0,19.264 l 71.9699998,0 0,9.633 -71.9699998,0 c -12.75,0 -12.793,19.262 0,19.262 l 71.9699998,0 0,9.633 -71.9909998,-0.002 c -12.729,0 -12.522,19.266 0.021,19.266 l 71.9699998,0 0,186.876 c 0,28.504 43.529004,28.004 43.529004,0 l 0,-437.499999 c 0,-13 -10.749,-29.463995 -28.499004,-29.463995 L 9.5877162,0 c -13.022,0 -12.543,19.266001 0,19.266001 l 72.0399998,0.044 0,9.633 -72.0189998,0 c -13.024,0 -12.545,19.264 0,19.264 l 72.0189998,0 0,9.904 z"
     id="path2566"
     style="fill:#000000;stroke:none"
     inkscape:connector-curvature="0" />
</svg>
