<?xml version="1.0" encoding="UTF-8" standalone="no"?>
<!-- Created with Inkscape (http://www.inkscape.org/) -->

<svg
   xmlns:dc="http://purl.org/dc/elements/1.1/"
   xmlns:cc="http://creativecommons.org/ns#"
   xmlns:rdf="http://www.w3.org/1999/02/22-rdf-syntax-ns#"
   xmlns:svg="http://www.w3.org/2000/svg"
   xmlns="http://www.w3.org/2000/svg"
   xmlns:sodipodi="http://sodipodi.sourceforge.net/DTD/sodipodi-0.dtd"
   xmlns:inkscape="http://www.inkscape.org/namespaces/inkscape"
   width="599.3313"
   height="144.37885"
   id="svg2859"
   version="1.1"
   inkscape:version="0.48.1 r9760"
   sodipodi:docname="Couteau.svg">
  <defs
     id="defs2861">
    <inkscape:perspective
       sodipodi:type="inkscape:persp3d"
       inkscape:vp_x="0 : 240 : 1"
       inkscape:vp_y="0 : 1000 : 0"
       inkscape:vp_z="640 : 240 : 1"
       inkscape:persp3d-origin="320 : 160 : 1"
       id="perspective2867" />
    <inkscape:perspective
       id="perspective2877"
       inkscape:persp3d-origin="0.5 : 0.33333333 : 1"
       inkscape:vp_z="1 : 0.5 : 1"
       inkscape:vp_y="0 : 1000 : 0"
       inkscape:vp_x="0 : 0.5 : 1"
       sodipodi:type="inkscape:persp3d" />
  </defs>
  <sodipodi:namedview
     id="base"
     pagecolor="#ffffff"
     bordercolor="#666666"
     borderopacity="1.0"
     inkscape:pageopacity="0.0"
     inkscape:pageshadow="2"
     inkscape:zoom="0.77472527"
     inkscape:cx="274.28462"
     inkscape:cy="113.20765"
     inkscape:current-layer="layer1"
     inkscape:document-units="px"
     showgrid="false"
     inkscape:window-width="1680"
     inkscape:window-height="1026"
     inkscape:window-x="0"
     inkscape:window-y="0"
     inkscape:window-maximized="1"
     fit-margin-top="0"
     fit-margin-left="0"
     fit-margin-right="0"
     fit-margin-bottom="0" />
  <metadata
     id="metadata2864">
    <rdf:RDF>
      <cc:Work
         rdf:about="">
        <dc:format>image/svg+xml</dc:format>
        <dc:type
           rdf:resource="http://purl.org/dc/dcmitype/StillImage" />
        <dc:title />
      </cc:Work>
    </rdf:RDF>
  </metadata>
  <g
     id="layer1"
     inkscape:label="Layer 1"
     inkscape:groupmode="layer"
     transform="translate(-19.137704,-160.31283)">
    <g
       transform="matrix(-0.08998916,-0.69895943,0.69895943,-0.08998916,-19.822752,474.70665)"
       id="g3833"
       inkscape:export-filename="/home/achille/Bureau/couteau_sang.png"
       inkscape:export-xdpi="85"
       inkscape:export-ydpi="85">
      <path
         style="fill:#16502d;stroke:#000000;stroke-width:6.40281439;stroke-linecap:butt;stroke-linejoin:miter;stroke-miterlimit:4;stroke-opacity:1;stroke-dasharray:none"
         d="m 217.6713,544.84931 c -49.39314,303.67634 29.91679,384.65083 29.91679,384.65083 0,0 27.51319,37.67912 60.03649,-3.36392 63.39506,-80.0019 12.45367,-380.41819 12.45367,-380.41819 L 217.6713,544.84931 z"
         id="path2816"
         sodipodi:nodetypes="ccscc"
         inkscape:connector-curvature="0" />
      <path
         style="fill:#217844;stroke:none"
         d="m 230.57126,566.77 c -4.55883,3.47689 -2.27213,10.32873 -4.78973,15.02841 -20.21416,92.18564 -18.95666,189.73906 8.35591,280.34481 6.21572,18.2797 14.02165,37.52302 29.3683,49.97859 13.6369,6.66525 30.31767,-0.52651 38.25681,-12.60554 12.28725,-12.9349 18.97089,-35.019 7.00308,-50.30211 -23.06529,-22.19287 -41.88017,-50.4306 -46.36038,-82.69635 -7.7415,-45.37978 -2.66514,-92.53155 12.51601,-135.87517 6.23928,-19.64388 14.6084,-38.66943 20.77863,-58.25017 -2.14475,-4.25705 -8.56416,-1.77061 -12.43937,-2.99536 -17.52703,-1.18401 -35.24461,-1.68056 -52.68926,-2.62711 z"
         id="path2816-7"
         sodipodi:nodetypes="ccscc"
         inkscape:connector-curvature="0" />
      <g
         id="g3717"
         transform="matrix(0.64028146,0,0,0.64028146,69.748138,328.2552)">
        <path
           id="path3590"
           d="m 237.03769,351.84002 c 87.98599,91.51157 148.36853,0 148.36853,0"
           style="fill:none;stroke:#000000;stroke-width:7.41696835;stroke-linecap:butt;stroke-linejoin:miter;stroke-miterlimit:4;stroke-opacity:1;stroke-dasharray:none"
           inkscape:connector-curvature="0" />
        <path
           id="path3590-0-6"
           d="m 227.7452,454.66338 c 99.32172,90.51978 167.48369,0 167.48369,0"
           style="fill:none;stroke:#000000;stroke-width:7.83746338;stroke-linecap:butt;stroke-linejoin:miter;stroke-miterlimit:4;stroke-opacity:1;stroke-dasharray:none"
           inkscape:connector-curvature="0" />
        <path
           id="path3590-0-9"
           d="m 221.3723,560.96993 c 107.26606,89.86436 180.88003,0 180.88003,0"
           style="fill:none;stroke:#000000;stroke-width:8.11533737;stroke-linecap:butt;stroke-linejoin:miter;stroke-miterlimit:4;stroke-opacity:1;stroke-dasharray:none"
           inkscape:connector-curvature="0" />
        <path
           id="path3590-0-1"
           d="m 222.96765,662.80742 c 105.37392,90.01775 177.68935,0 177.68935,0"
           style="fill:none;stroke:#000000;stroke-width:8.05030441;stroke-linecap:butt;stroke-linejoin:miter;stroke-miterlimit:4;stroke-opacity:1;stroke-dasharray:none"
           inkscape:connector-curvature="0" />
        <path
           id="path3590-0-7"
           d="m 229.43226,754.98315 c 102.91471,90.2196 173.54246,0 173.54246,0"
           style="fill:none;stroke:#000000;stroke-width:7.96472645;stroke-linecap:butt;stroke-linejoin:miter;stroke-miterlimit:4;stroke-opacity:1;stroke-dasharray:none"
           inkscape:connector-curvature="0" />
        <path
           id="path3590-0-93"
           d="m 248.14315,835.38968 c 86.49633,58.69768 145.85657,0 145.85657,0"
           style="fill:none;stroke:#000000;stroke-width:5.88967085;stroke-linecap:butt;stroke-linejoin:miter;stroke-miterlimit:4;stroke-opacity:1;stroke-dasharray:none"
           inkscape:connector-curvature="0" />
        <path
           id="path3590-0-2"
           d="m 265.55612,892.80265 c 66.47912,55.0714 112.10204,0 112.10204,0"
           style="fill:none;stroke:#000000;stroke-width:5.00135136;stroke-linecap:butt;stroke-linejoin:miter;stroke-miterlimit:4;stroke-opacity:1;stroke-dasharray:none"
           inkscape:connector-curvature="0" />
      </g>
      <path
         sodipodi:type="arc"
         style="fill:#b3b3b3;fill-opacity:1;fill-rule:nonzero;stroke:#000000;stroke-width:7;stroke-miterlimit:4;stroke-opacity:1;stroke-dasharray:none"
         id="path3798"
         sodipodi:cx="527.14288"
         sodipodi:cy="606.64789"
         sodipodi:rx="155.71428"
         sodipodi:ry="60"
         d="m 495.90664,665.42829 c -84.25055,-6.6473 -138.56418,-38.35287 -121.31288,-70.81639 17.25131,-32.46351 99.53482,-53.3917 183.78537,-46.74441 84.25055,6.64729 138.56417,38.35287 121.31287,70.81638 -17.11114,32.19978 -98.27116,53.10143 -182.02853,46.87898"
         sodipodi:start="1.7727664"
         sodipodi:end="8.0444485"
         sodipodi:open="true"
         transform="matrix(0.64914954,0,0,0.54393405,-66.033962,216.52651)" />
      <path
         style="fill:#ececec;stroke:#000000;stroke-width:4.1369915;stroke-linecap:butt;stroke-linejoin:miter;stroke-miterlimit:4;stroke-opacity:1;stroke-dasharray:none"
         d="M 319.38019,98.94557 C 198.3541,269.82384 213.2072,329.25138 217.29136,542.44528 l 110.12539,6.85108 -8.03656,-450.35079 z"
         id="path3754"
         sodipodi:nodetypes="cccc"
         inkscape:connector-curvature="0" />
      <path
         style="fill:#ffffff;stroke:none"
         d="m 313.75,122.0625 c -56.9176,73.83124 -92.12109,165.4031 -94.00125,258.97495 1.41835,20.05384 4.97879,39.88211 6.72973,59.9087 3.21517,28.233 4.44576,56.77513 9.80277,84.7101 0.93005,3.39314 5.63132,4.58398 7.25,1 3.03952,-5.12812 -0.75247,-11.10685 0.77466,-16.58908 2.30097,-39.97464 2.60381,-80.29703 -3.62267,-119.95411 -2.76212,-43.71442 5.99326,-87.16797 16.51176,-129.37307 10.47441,-41.36434 26.64686,-81.51289 50.14076,-117.2456 3.57456,-6.6028 7.22135,-13.66419 7.13299,-21.36939 -0.22385,-0.10967 -0.48154,-0.1218 -0.71875,-0.0625 z"
         id="path3754-7"
         sodipodi:nodetypes="cccc"
         inkscape:connector-curvature="0" />
      <path
         style="fill:#cccccc;fill-opacity:1;fill-rule:nonzero;stroke:none"
         d="m 189.90625,542.0625 c -2.56273,0.35641 -4.78414,2.21912 -5.8125,4.5625 0.77259,6.30442 6.22148,10.95368 11.92342,12.98763 21.88451,8.80985 45.5005,12.33006 68.95229,13.42439 18.41544,0.86311 37.01833,0.84759 55.21528,-2.44593 14.23438,-2.78111 28.13537,-7.1056 41.67022,-12.28192 3.90332,-1.6329 7.50257,-4.02364 10.39504,-7.12167 0.68416,-1.38328 -1.02861,-2.9003 -2.3125,-2 -10.61008,5.24676 -22.11792,8.73396 -33.90814,9.9361 -11.06166,0.97461 -22.18142,1.18948 -33.28085,1.14927 -13.97361,-0.46412 -27.91044,-1.68102 -41.83293,-2.91419 -11.34156,-1.199 -22.6448,-2.97235 -33.66644,-5.94751 -10.96776,-2.63083 -21.66657,-6.26433 -32.59289,-9.03617 -1.55962,-0.31288 -3.1636,-0.38978 -4.75,-0.3125 z"
         id="path3800"
         inkscape:connector-curvature="0" />
    </g>
  </g>
</svg>
