<?xml version="1.0" encoding="UTF-8" standalone="no"?>
<!-- Created with Inkscape (http://www.inkscape.org/) -->

<svg
   xmlns:dc="http://purl.org/dc/elements/1.1/"
   xmlns:cc="http://creativecommons.org/ns#"
   xmlns:rdf="http://www.w3.org/1999/02/22-rdf-syntax-ns#"
   xmlns:svg="http://www.w3.org/2000/svg"
   xmlns="http://www.w3.org/2000/svg"
   xmlns:xlink="http://www.w3.org/1999/xlink"
   xmlns:sodipodi="http://sodipodi.sourceforge.net/DTD/sodipodi-0.dtd"
   xmlns:inkscape="http://www.inkscape.org/namespaces/inkscape"
   width="829.23907"
   height="897.1803"
   id="svg3650"
   version="1.1"
   inkscape:version="0.48.1 r9760"
   sodipodi:docname="funnel.svg">
  <defs
     id="defs3652">
    <inkscape:perspective
       sodipodi:type="inkscape:persp3d"
       inkscape:vp_x="0 : 526.18109 : 1"
       inkscape:vp_y="0 : 1000 : 0"
       inkscape:vp_z="744.09448 : 526.18109 : 1"
       inkscape:persp3d-origin="372.04724 : 350.78739 : 1"
       id="perspective3658" />
    <inkscape:perspective
       id="perspective3634"
       inkscape:persp3d-origin="0.5 : 0.33333333 : 1"
       inkscape:vp_z="1 : 0.5 : 1"
       inkscape:vp_y="0 : 1000 : 0"
       inkscape:vp_x="0 : 0.5 : 1"
       sodipodi:type="inkscape:persp3d" />
    <linearGradient
       inkscape:collect="always"
       xlink:href="#linearGradient3602"
       id="linearGradient3608"
       x1="166.85771"
       y1="299.50504"
       x2="435.99738"
       y2="299.50504"
       gradientUnits="userSpaceOnUse" />
    <linearGradient
       id="linearGradient3602">
      <stop
         style="stop-color:#3cef45;stop-opacity:1;"
         offset="0"
         id="stop3604" />
      <stop
         style="stop-color:#ffffff;stop-opacity:1;"
         offset="1"
         id="stop3606" />
    </linearGradient>
    <linearGradient
       inkscape:collect="always"
       xlink:href="#linearGradient3618"
       id="linearGradient3624"
       x1="164.5"
       y1="340.56509"
       x2="225.5"
       y2="340.56509"
       gradientUnits="userSpaceOnUse" />
    <linearGradient
       id="linearGradient3618">
      <stop
         style="stop-color:#ffffff;stop-opacity:1;"
         offset="0"
         id="stop3620" />
      <stop
         style="stop-color:#7ef484;stop-opacity:1;"
         offset="1"
         id="stop3622" />
    </linearGradient>
    <linearGradient
       gradientTransform="matrix(13.609425,0,0,13.594775,-2204.1997,-4187.6241)"
       y2="340.56509"
       x2="225.5"
       y1="340.56509"
       x1="164.5"
       gradientUnits="userSpaceOnUse"
       id="linearGradient3648"
       xlink:href="#linearGradient3618"
       inkscape:collect="always" />
  </defs>
  <sodipodi:namedview
     id="base"
     pagecolor="#ffffff"
     bordercolor="#666666"
     borderopacity="1.0"
     inkscape:pageopacity="0.0"
     inkscape:pageshadow="2"
     inkscape:zoom="0.49497476"
     inkscape:cx="495.43424"
     inkscape:cy="465.81882"
     inkscape:document-units="px"
     inkscape:current-layer="layer1"
     showgrid="false"
     inkscape:window-width="1680"
     inkscape:window-height="1026"
     inkscape:window-x="0"
     inkscape:window-y="0"
     inkscape:window-maximized="1"
     fit-margin-top="0"
     fit-margin-left="0"
     fit-margin-right="0"
     fit-margin-bottom="0" />
  <metadata
     id="metadata3655">
    <rdf:RDF>
      <cc:Work
         rdf:about="">
        <dc:format>image/svg+xml</dc:format>
        <dc:type
           rdf:resource="http://purl.org/dc/dcmitype/StillImage" />
        <dc:title />
      </cc:Work>
    </rdf:RDF>
  </metadata>
  <g
     inkscape:label="Layer 1"
     inkscape:groupmode="layer"
     id="layer1"
     transform="translate(-35.016427,67.486145)">
    <g
       id="g3596">
      <path
         sodipodi:nodetypes="ccccccccc"
         id="path2818"
         d="m 41.355453,58.868426 0,135.947754 340.235627,339.86937 c 0,0 0,203.92298 0,271.89685 51.43273,23.71609 81.65655,27.18955 136.09425,0 l 0,-271.89685 340.23566,-339.86937 0,-135.947754 -816.565537,0 z"
         style="fill:url(#linearGradient3648);fill-opacity:1;stroke:#0ea600;stroke-width:8;stroke-linecap:butt;stroke-linejoin:miter;stroke-miterlimit:4;stroke-opacity:1;stroke-dasharray:none"
         inkscape:connector-curvature="0" />
      <path
         sodipodi:open="true"
         sodipodi:end="6.2868445"
         sodipodi:start="0.040363112"
         transform="matrix(3.0555524,0,0,2.256522,-471.39166,-620.0507)"
         d="m 435.70277,301.63793 c -2.99486,29.16842 -65.53928,51.85917 -139.69688,50.6812 -74.1576,-1.17797 -131.8464,-25.77858 -128.85155,-54.94699 2.99486,-29.16842 65.53929,-51.85916 139.69689,-50.6812 72.24018,1.14751 129.22465,24.5703 128.9601,53.00751"
         sodipodi:ry="52.857143"
         sodipodi:rx="134.38367"
         sodipodi:cy="299.50504"
         sodipodi:cx="301.42856"
         id="path2816"
         style="fill:url(#linearGradient3608);fill-opacity:1;stroke:#0ea600;stroke-width:3.04666948;stroke-linecap:round;stroke-linejoin:round;stroke-miterlimit:4;stroke-opacity:1;stroke-dasharray:none"
         sodipodi:type="arc" />
    </g>
  </g>
</svg>
