<?xml version="1.0" encoding="UTF-8" standalone="no"?>
<!-- Created with Inkscape (http://www.inkscape.org/) -->
<svg
   xmlns:dc="http://purl.org/dc/elements/1.1/"
   xmlns:cc="http://web.resource.org/cc/"
   xmlns:rdf="http://www.w3.org/1999/02/22-rdf-syntax-ns#"
   xmlns:svg="http://www.w3.org/2000/svg"
   xmlns="http://www.w3.org/2000/svg"
   xmlns:xlink="http://www.w3.org/1999/xlink"
   xmlns:sodipodi="http://sodipodi.sourceforge.net/DTD/sodipodi-0.dtd"
   xmlns:inkscape="http://www.inkscape.org/namespaces/inkscape"
   width="851.57269"
   height="306.41165"
   id="svg2"
   sodipodi:version="0.32"
   inkscape:version="0.45+devel"
   sodipodi:docname="brille04.svg"
   inkscape:output_extension="org.inkscape.output.svg.inkscape"
   version="1.0"
   inkscape:export-filename="/home/home/geni/Documents/projekte/brille/brille04.png"
   inkscape:export-xdpi="126.88812"
   inkscape:export-ydpi="126.88812">
  <defs
     id="defs4">
    <linearGradient
       id="linearGradient3542">
      <stop
         id="stop3544"
         offset="0"
         style="stop-color:#5a8128;stop-opacity:1;" />
      <stop
         id="stop3546"
         offset="1"
         style="stop-color:#3d4c1e;stop-opacity:1;" />
    </linearGradient>
    <linearGradient
       id="linearGradient3463">
      <stop
         style="stop-color:#000000;stop-opacity:0.21161826;"
         offset="0"
         id="stop3465" />
      <stop
         style="stop-color:#000000;stop-opacity:0;"
         offset="1"
         id="stop3467" />
    </linearGradient>
    <filter
       inkscape:collect="always"
       id="filter3393">
      <feGaussianBlur
         inkscape:collect="always"
         stdDeviation="1.8779569"
         id="feGaussianBlur3395" />
    </filter>
    <filter
       inkscape:collect="always"
       x="-0.053279854"
       width="1.1065598"
       y="-0.15619101"
       height="1.312382"
       id="filter3526">
      <feGaussianBlur
         inkscape:collect="always"
         stdDeviation="4.6316836"
         id="feGaussianBlur3528" />
    </filter>
    <filter
       inkscape:collect="always"
       x="-0.064670146"
       width="1.1293403"
       y="-0.13918227"
       height="1.2783645"
       id="filter3530">
      <feGaussianBlur
         inkscape:collect="always"
         stdDeviation="4.6316836"
         id="feGaussianBlur3532" />
    </filter>
    <linearGradient
       inkscape:collect="always"
       xlink:href="#linearGradient3463"
       id="linearGradient3538"
       gradientUnits="userSpaceOnUse"
       x1="542.82843"
       y1="218.04846"
       x2="545.82843"
       y2="274.29108"
       gradientTransform="translate(-129.50929,418.04608)" />
    <linearGradient
       inkscape:collect="always"
       xlink:href="#linearGradient3542"
       id="linearGradient3548"
       gradientUnits="userSpaceOnUse"
       x1="397.18585"
       y1="436.14688"
       x2="972.31287"
       y2="85.838234"
       gradientTransform="translate(-129.50929,418.04608)" />
    <filter
       inkscape:collect="always"
       id="filter3562">
      <feGaussianBlur
         inkscape:collect="always"
         stdDeviation="13.76578"
         id="feGaussianBlur3564" />
    </filter>
    <linearGradient
       inkscape:collect="always"
       xlink:href="#linearGradient3463"
       id="linearGradient3595"
       x1="-410.63922"
       y1="473.01422"
       x2="-400.35498"
       y2="534.75916"
       gradientUnits="userSpaceOnUse"
       gradientTransform="translate(295.83844,32.713208)" />
    <linearGradient
       inkscape:collect="always"
       xlink:href="#linearGradient3463"
       id="linearGradient3599"
       gradientUnits="userSpaceOnUse"
       x1="191.24937"
       y1="420.51178"
       x2="221.12946"
       y2="493.06067"
       gradientTransform="translate(295.83844,32.713209)" />
    <filter
       inkscape:collect="always"
       id="filter3647">
      <feGaussianBlur
         inkscape:collect="always"
         stdDeviation="1.4956156"
         id="feGaussianBlur3649" />
    </filter>
    <filter
       inkscape:collect="always"
       id="filter3659">
      <feGaussianBlur
         inkscape:collect="always"
         stdDeviation="1.966882"
         id="feGaussianBlur3661" />
    </filter>
    <filter
       inkscape:collect="always"
       id="filter3671">
      <feGaussianBlur
         inkscape:collect="always"
         stdDeviation="0.7250032"
         id="feGaussianBlur3673" />
    </filter>
    <filter
       inkscape:collect="always"
       x="-0.021934049"
       width="1.0438681"
       y="-0.10035787"
       height="1.2007157"
       id="filter3697">
      <feGaussianBlur
         inkscape:collect="always"
         stdDeviation="7.8688405"
         id="feGaussianBlur3699" />
    </filter>
    <filter
       inkscape:collect="always"
       x="-0.09296371"
       width="1.1859274"
       y="-0.18743902"
       height="1.374878"
       id="filter3892">
      <feGaussianBlur
         inkscape:collect="always"
         stdDeviation="6.9833868"
         id="feGaussianBlur3894" />
    </filter>
    <filter
       inkscape:collect="always"
       x="-0.094692342"
       width="1.1893847"
       y="-0.20527209"
       height="1.4105442"
       id="filter3928">
      <feGaussianBlur
         inkscape:collect="always"
         stdDeviation="8.1267299"
         id="feGaussianBlur3930" />
    </filter>
  </defs>
  <sodipodi:namedview
     id="base"
     pagecolor="#ffffff"
     bordercolor="#666666"
     borderopacity="1.0"
     inkscape:pageopacity="0.0"
     inkscape:pageshadow="2"
     inkscape:zoom="0.35355339"
     inkscape:cx="1028.0604"
     inkscape:cy="350.14449"
     inkscape:document-units="px"
     inkscape:current-layer="layer2"
     inkscape:window-width="1272"
     inkscape:window-height="949"
     inkscape:window-x="1280"
     inkscape:window-y="25"
     showguides="true"
     inkscape:guide-bbox="true"
     showborder="true"
     width="1535px"
     height="390px">
    <sodipodi:guide
       orientation="horizontal"
       position="1214"
       id="guide3457" />
  </sodipodi:namedview>
  <metadata
     id="metadata7">
    <rdf:RDF>
      <cc:Work
         rdf:about="">
        <dc:format>image/svg+xml</dc:format>
        <dc:type
           rdf:resource="http://purl.org/dc/dcmitype/StillImage" />
      </cc:Work>
    </rdf:RDF>
  </metadata>
  <g
     inkscape:label="Hintergrund"
     inkscape:groupmode="layer"
     id="layer1"
     style="display:none"
     transform="translate(129.50929,-418.04608)">
    <path
       sodipodi:nodetypes="ccccccccc"
       id="path3550"
       d="M -341.75484,451.30773 L 504.09692,411.22675 C 558.94537,406.0065 623.35874,411.94391 648.5215,424.53933 L 1077.9594,639.49777 C 1103.1222,652.0932 1079.2235,666.43574 1024.3751,671.65598 L 205.84041,749.56062 C 150.99201,754.78086 86.578632,748.84348 61.415851,736.24806 L -395.33914,483.46595 C -420.5019,470.87054 -396.60322,456.52796 -341.75484,451.30773 z"
       style="color:#000000;fill:#000000;fill-opacity:1;fill-rule:evenodd;stroke:none;stroke-width:1;stroke-linecap:round;stroke-linejoin:round;marker:none;marker-start:none;marker-mid:none;marker-end:none;stroke-miterlimit:4;stroke-dashoffset:0;stroke-opacity:1;filter:url(#filter3562)" />
    <path
       style="color:#000000;fill:url(#linearGradient3548);fill-opacity:1;fill-rule:evenodd;stroke:none;stroke-width:1;stroke-linecap:round;stroke-linejoin:round;marker:none;marker-start:none;marker-mid:none;marker-end:none;stroke-miterlimit:4;stroke-dashoffset:0;stroke-opacity:1"
       d="M -341.75484,449.30773 L 504.09692,409.22675 C 558.94537,404.0065 623.35874,409.94391 648.5215,422.53933 L 1077.9594,637.49777 C 1103.1222,650.0932 1079.2235,664.43574 1024.3751,669.65598 L 205.84041,747.56062 C 150.99201,752.78086 86.578632,746.84348 61.415851,734.24806 L -395.33914,481.46595 C -420.5019,468.87054 -396.60322,454.52796 -341.75484,449.30773 z"
       id="rect2832"
       sodipodi:nodetypes="ccccccccc" />
  </g>
  <g
     inkscape:groupmode="layer"
     id="layer9"
     inkscape:label="Spiegeleffekt"
     transform="translate(129.50929,-418.04608)">
    <path
       style="opacity:0.76785714999999999;color:#000000;fill:url(#linearGradient3538);fill-opacity:1;fill-rule:evenodd;stroke:none;stroke-width:1;stroke-linecap:round;stroke-linejoin:round;marker:none;marker-start:none;marker-mid:none;marker-end:none;stroke-miterlimit:4;stroke-dashoffset:0;stroke-opacity:1;display:inline"
       d="M 214.72026,722.76656 C 193.95063,724.15114 172.10342,725.14451 148.24327,723.86772 C 133.16527,723.06089 123.18376,720.71952 115.80936,720.29104 C 105.85414,719.71261 103.46276,720.56941 92.979871,721.06199 C 91.97541,721.10917 91.650143,720.65603 91.864941,720.12196 L 95.418921,711.28537 C 95.643965,710.72581 96.247275,710.25703 97.157095,710.05706 C 103.56012,708.64967 116.37435,706.35436 116.72822,705.0137 C 120.52124,690.64348 134.7654,673.07582 143.48986,663.91764 C 150.01534,657.06776 157.14671,652.73998 168.90898,651.21687 C 218.30933,644.82 274.41733,642.92402 323.77311,641.7903 C 339.06117,641.43914 359.38919,639.51685 365.54897,645.34037 C 381.07483,660.01861 380.7625,670.42882 381.7292,682.13782 C 381.99376,685.34259 381.998,688.25648 384.70859,690.19733 C 387.41916,692.13817 394.69467,692.73804 400.21899,692.31171 L 400.22638,692.29335 C 406.77562,692.0397 413.3259,690.43612 419.23861,687.78892 C 424.17034,685.58091 426.12786,682.26433 429.05997,678.8366 C 439.77274,666.31296 448.05779,655.34668 476.62746,637.59285 C 487.96229,630.54913 507.87286,629.66484 523.75277,627.8421 C 575.01926,621.95762 632.79686,615.91029 679.75477,615.58636 C 690.9355,615.50924 694.89685,619.06334 696.13008,625.37206 C 697.77893,633.80672 698.3064,650.34409 690.42568,664.9994 C 689.69044,666.36668 701.34477,666.95535 706.95267,667.525 C 707.74953,667.60593 707.99968,668.01518 707.77463,668.57474 L 704.22065,677.41133 C 704.00582,677.94539 703.2868,678.47139 702.26341,678.56564 C 691.58307,679.54916 689.76272,678.98611 678.75418,681.02673 C 670.59949,682.53833 658.1041,686.44742 641.48803,689.46485 C 611.43762,694.92192 586.63871,696.85786 563.25259,698.4571 C 487.51625,703.63678 447.71958,702.73478 433.24032,700.38283 C 412.64206,698.71247 382.67279,701.56613 359.47602,705.52775 C 342.21451,710.09355 299.3742,716.75932 223.55278,722.1505 C 220.62621,722.35863 217.68735,722.56877 214.72026,722.76656 z M 216.52584,716.96244 C 273.50007,713.14003 337.58257,704.35079 352.79889,699.08323 C 357.59095,697.42432 360.78858,696.16355 363.59192,693.4379 C 375.97506,681.39791 365.44118,659.39363 358.76599,650.99169 C 357.05419,648.83708 354.3675,647.12112 349.97386,646.7124 C 336.05556,645.41759 181.74268,651.09871 163.51669,657.43187 C 158.72788,659.09587 155.50579,660.36047 152.72366,663.07718 C 135.23638,680.15318 121.65824,703.6916 126.98443,712.22638 C 128.38796,714.47544 129.65599,715.90241 133.72842,716.64853 C 150.70478,719.75878 182.34131,719.25589 216.52584,716.96244 z M 574.97875,691.96103 C 609.23847,689.48063 642.28498,685.472 662.81527,679.74574 C 667.74026,678.37207 670.26243,676.68075 673.6083,674.10043 C 686.30524,664.30857 691.42356,641.36021 687.05882,625.80833 C 686.36444,623.3341 684.00294,622.45895 680.31483,621.38618 C 666.27803,617.30331 507.75943,633.44157 491.96615,636.80871 C 486.98065,637.87161 482.71874,640.07223 479.125,642.59687 C 465.1111,652.44184 435.75859,677.22814 438.89231,688.18584 C 439.60175,690.66648 441.94056,691.5411 445.63632,692.608 C 457.3716,695.99573 517.87921,696.09505 574.97875,691.96103 z"
       id="path3461"
       sodipodi:nodetypes="csssccssssssszccssssssssccssscccsccssssssssccssssssssc" />
    <path
       sodipodi:nodetypes="cssszsscc"
       id="path3584"
       d="M 116.29253,711.12655 L -91.852474,551.99347 C -112.33675,536.33263 -121.82829,516.16303 -124.82581,507.0093 C -126.3898,502.23325 -132.05495,491.61765 -128.17645,489.83995 C -126.46944,489.05754 -125.87071,484.44499 -120.75328,489.50102 C -115.61786,494.57482 -114.11063,496.76402 -116.11829,500.15202 C -119.71617,506.22359 -103.89359,538.69149 -88.739078,549.93552 L 129.92496,712.1755 L 116.29253,711.12655 z"
       style="opacity:0.34999999999999998;fill:url(#linearGradient3595);fill-opacity:1;fill-rule:evenodd;stroke:none;stroke-width:0.25000000000000000pt;stroke-linecap:butt;stroke-linejoin:miter;stroke-opacity:1;display:inline" />
    <path
       style="opacity:0.61428570000000005;fill:url(#linearGradient3599);fill-opacity:1;fill-rule:evenodd;stroke:none;stroke-width:0.25000000000000000pt;stroke-linecap:butt;stroke-linejoin:miter;stroke-opacity:1;display:inline"
       d="M 709.71619,656.07112 L 521.19447,511.94062 C 502.64138,497.75624 494.04468,479.48817 491.32976,471.19743 C 489.91321,466.87165 484.78216,457.25685 488.295,455.64675 C 489.84108,454.9381 490.38337,450.76041 495.01834,455.33977 C 499.66961,459.93523 501.03474,461.91804 499.21636,464.98663 C 495.95767,470.48579 510.28855,499.89271 524.01435,510.07669 L 722.06339,657.02118 L 709.71619,656.07112 z"
       id="path3597"
       sodipodi:nodetypes="cssszsscc" />
  </g>
  <g
     inkscape:groupmode="layer"
     id="layer10"
     inkscape:label="Schatten"
     transform="translate(129.50929,-418.04608)"
     style="display:none">
    <path
       style="fill:#000000;fill-opacity:0.0722022;fill-rule:evenodd;stroke:none;stroke-width:0.25pt;stroke-linecap:butt;stroke-linejoin:miter;stroke-opacity:1;filter:url(#filter3697)"
       d="M -124,492.36219 C -120,486.36219 -81.28078,478.84916 -66,488.36219 C 2.000008,530.69551 96,575.02885 164,617.36218 C 164,617.36218 209.51193,587.0682 266,585.36218 C 341.5,583.11218 379,601.36218 379,601.36218 C 423.67648,562.0791 447.66667,574.69551 487,594.36218 C 487,594.36218 525.5,564.36219 579,560.36219 C 632.5,556.36219 678,567.36218 712.5,589.36218 C 701.73731,570.91185 549.84606,476.25181 541,468.36219 C 537.09826,464.88231 492.16667,465.69552 491,455.86219 C 496.83333,451.69552 537.98897,456.14877 543,459.86219 C 569.55453,479.54041 719.5514,564.72543 737,590.86218 C 727.4486,612.99893 665.33333,619.02885 628,614.36218 C 581.33333,614.36218 553.66667,617.36218 507,617.36218 C 481.66667,611.36218 449.12171,588.86522 427,590.36218 C 404.83334,591.86218 372,618.36218 358,628.36218 C 344,638.36218 226,640.36218 226,640.36218 C 200,641.02885 182,641.69551 156,642.36218 C 81.666667,594.02885 -0.666663,545.69551 -75,497.36219 C -87.82441,489.02345 -121,501.36219 -124,492.36219 z"
       id="path3476"
       sodipodi:nodetypes="cscsccscscsccczsccsc" />
  </g>
  <g
     inkscape:groupmode="layer"
     id="layer5"
     inkscape:label="Bügel_Links"
     style="display:inline"
     transform="translate(129.50929,-418.04608)">
    <path
       style="opacity:0.43214285;fill:#ffffff;fill-opacity:0.9783394;fill-rule:evenodd;stroke:none;stroke-width:0.25pt;stroke-linecap:butt;stroke-linejoin:miter;stroke-opacity:1;filter:url(#filter3659)"
       d="M 118.91635,536.65041 L -63.121176,450.95336 C -68.948218,448.21019 -84.06639,451.20074 -86.87008,453.92197 L -55.699643,459.8592 C -55.699643,459.8592 55.623361,515.27332 58.591975,518.24193 C 61.560588,521.21054 120.79199,556.90494 120.79199,556.90494 L 119.89615,537.79912 C 119.8679,537.19672 119.46197,536.90727 118.91635,536.65041 z"
       id="path3374"
       sodipodi:nodetypes="csccscss" />
    <path
       style="fill:#000000;fill-opacity:0.98039216;fill-rule:evenodd;stroke:none;stroke-width:0.25pt;stroke-linecap:butt;stroke-linejoin:miter;stroke-opacity:1;display:inline"
       d="M 119.35866,539.78458 L -60.548186,454.02359 C -78.253447,445.58355 -99.79796,458.99707 -109.47808,466.9682 C -114.52878,471.12722 -125.9179,477.2243 -127.46557,485.1855 C -128.14674,488.68942 -127.67746,493.15268 -122.07284,493.72692 C -116.44849,494.30319 -113.06581,488.06925 -109.71516,480.63739 C -103.71053,467.31894 -75.187576,454.55785 -62.442373,461.26077 L 121.45779,557.97701 L 119.35866,539.78458 z"
       id="path3369"
       sodipodi:nodetypes="cssszsscc" />
  </g>
  <g
     inkscape:groupmode="layer"
     id="layer8"
     inkscape:label="Bügel_Rechts"
     transform="translate(129.50929,-418.04608)">
    <path
       sodipodi:nodetypes="csccscss"
       id="path3448"
       d="M 714.85328,498.01917 L 547.10327,419.0482 C 541.73357,416.52033 527.80198,419.27616 525.21834,421.78381 L 553.94231,427.25505 C 553.94231,427.25505 656.52794,478.3199 659.26356,481.05551 C 661.99918,483.79113 716.58171,516.68399 716.58171,516.68399 L 715.75618,499.07773 C 715.73015,498.52261 715.35608,498.25587 714.85328,498.01917 z"
       style="opacity:0.4142857;fill:#ffffff;fill-opacity:0.9783394;fill-rule:evenodd;stroke:none;stroke-width:0.25pt;stroke-linecap:butt;stroke-linejoin:miter;stroke-opacity:1;filter:url(#filter3671)" />
    <path
       sodipodi:nodetypes="cssszsscc"
       id="path3450"
       d="M 715.26087,500.90735 L 549.47431,421.87746 C 533.15868,414.09985 513.30513,426.46059 504.38477,433.80609 C 499.73048,437.63868 489.23525,443.25722 487.80905,450.59357 C 487.18135,453.82248 487.61379,457.93544 492.77853,458.46461 C 497.96144,458.99565 501.07863,453.25099 504.16629,446.40243 C 509.69964,434.1293 535.98392,422.36978 547.72879,428.54662 L 717.19525,517.67192 L 715.26087,500.90735 z"
       style="fill:#000000;fill-opacity:0.98039216;fill-rule:evenodd;stroke:none;stroke-width:0.25pt;stroke-linecap:butt;stroke-linejoin:miter;stroke-opacity:1;display:inline" />
  </g>
  <g
     inkscape:groupmode="layer"
     id="layer3"
     inkscape:label="Glashalter"
     style="display:inline"
     transform="translate(129.50929,-418.04608)">
    <path
       sodipodi:nodetypes="csssccssssssszccssssssssccssscccsccssssssssccssssssssc"
       id="path3257"
       d="M 243.9375,512.96486 C 223.62996,514.4077 202.08169,516.74803 177.59375,523.49974 C 162.11903,527.76635 151.14462,533.80158 143.5625,535.94849 C 133.3269,538.84672 131.2705,537.7739 120.9375,538.86856 C 119.9474,538.97345 119.4375,539.83964 119.4375,540.7481 L 119.4375,555.77935 C 119.4375,556.73118 119.85422,557.45064 120.6875,557.63494 C 126.55186,558.93216 138.4987,560.60218 138.3125,562.91751 C 136.31667,587.73487 143.52898,616.26899 148.59375,630.90005 C 152.38196,641.84335 157.79802,648.19208 169,648.68787 C 216.04719,650.77007 271.65215,643.59562 320.78125,636.3357 C 335.9991,634.08691 355.64569,633.68235 364.1875,622.17887 C 385.71726,593.18419 389.60995,574.74815 395.3125,553.76431 C 396.87328,548.02103 398.05496,542.84344 401.5625,538.88601 C 405.07004,534.92858 412.62204,532.49576 418,532.21514 L 418,532.24639 C 424.47746,531.46639 430.41049,533.0845 435.28125,536.67649 C 439.34391,539.67253 439.97047,545.19695 441.53125,550.73569 C 447.23379,570.97217 451.12649,588.89805 472.65625,615.07113 C 481.19805,625.45515 500.84465,623.28491 516.0625,623.5393 C 565.19161,624.36056 620.79656,624.24765 667.84375,615.99963 C 679.04575,614.03576 684.46179,606.97723 688.25,595.53745 C 693.3148,580.24263 700.52708,550.76329 698.53125,526.20749 C 698.34505,523.91656 710.29189,520.68084 716.15625,518.61506 C 716.98955,518.32156 717.40625,517.54748 717.40625,516.59565 L 717.40625,501.5644 C 717.40622,500.65594 716.89635,499.85657 715.90625,499.88144 C 705.57325,500.14098 703.51685,501.48332 693.28125,499.92651 C 685.69913,498.7733 674.72472,494.17633 659.25,491.93776 C 631.26376,487.8893 607.13081,489.10971 584.28125,490.66282 C 510.28275,495.69168 469.93502,504.77206 454.4375,511.67122 C 433.0677,518.50928 404.11101,519.07074 382.40625,516.39128 C 366.90873,511.52316 326.561,507.7306 252.5625,512.39968 C 249.7063,512.57986 246.83858,512.75874 243.9375,512.96486 z M 243.40625,522.93717 C 299.10308,519.02246 359.93455,522.59613 373.09375,529.09526 C 377.23794,531.14202 379.94114,532.78105 381.65625,537.09668 C 389.2324,556.16006 369.75777,597.23213 359.65625,613.41329 C 357.06581,617.5628 353.67314,621.11622 349.09375,622.66793 C 334.58699,627.58357 181.84614,646.4863 166.09375,638.65956 C 161.95487,636.60311 159.22867,634.96186 157.53125,630.65814 C 146.86194,603.60687 142.73141,564.33997 151.53125,548.17631 C 153.85016,543.9169 155.70074,541.14349 160.09375,539.05273 C 178.40648,530.33717 209.98815,525.28601 243.40625,522.93717 z M 593.4375,500.00033 C 626.8556,497.96951 658.43727,498.88171 676.75,505.19727 C 681.14301,506.71231 682.99359,509.24318 685.3125,513.19869 C 694.11234,528.20907 689.98181,568.01731 679.3125,596.46686 C 677.61508,600.99304 674.88888,602.99157 670.75,605.59044 C 654.99761,615.48162 502.25676,616.59651 487.75,613.58207 C 483.17062,612.6305 479.77794,609.52172 477.1875,605.71171 C 467.08599,590.85441 447.61135,552.3346 455.1875,532.27832 C 456.90262,527.73791 459.60581,525.74462 463.75,523.15474 C 476.90921,514.93101 537.74067,503.38502 593.4375,500.00033 z"
       style="color:#000000;fill:#000000;fill-opacity:0.98039216;fill-rule:evenodd;stroke:none;stroke-width:1;stroke-linecap:round;stroke-linejoin:round;marker:none;marker-start:none;marker-mid:none;marker-end:none;stroke-miterlimit:4;stroke-dashoffset:0;stroke-opacity:1;display:inline" />
  </g>
  <g
     inkscape:groupmode="layer"
     id="layer6"
     inkscape:label="Glashalter_Lichteffekt1"
     style="display:none"
     transform="translate(129.50929,-418.04608)">
    <path
       style="color:#000000;fill:#ffffff;fill-opacity:1;fill-rule:evenodd;stroke:none;stroke-width:1;stroke-linecap:round;stroke-linejoin:round;marker:none;marker-start:none;marker-mid:none;marker-end:none;stroke-miterlimit:4;stroke-dashoffset:0;stroke-opacity:1;display:inline;filter:url(#filter3393)"
       d="M 601.74558,468.16535 C 599.92595,468.15983 598.10163,468.17057 596.2833,468.19665 C 564.21473,469.03096 532.16879,471.90928 500.38834,476.00661 C 477.83742,479.34125 454.96889,482.6734 433.74548,491.12568 C 410.69867,497.69088 386.24796,498.06387 362.54812,495.44541 C 344.43751,490.4783 325.42241,490.08968 306.72025,489.43534 C 272.71569,488.95153 238.68094,490.44853 204.83087,493.67682 C 179.73744,496.45078 154.675,501.55872 131.5519,512.00439 C 122.87837,516.00519 113.41384,517.5524 103.92751,517.68578 C 102.39659,518.00041 98.98701,517.13956 99.81124,519.8926 C 99.98708,524.7821 99.49829,529.89841 99.98341,534.683 C 100.29266,534.77868 100.60797,534.86366 100.92248,534.94907 C 100.55166,530.37639 100.97985,525.536 100.81292,520.89428 C 99.98869,518.14124 103.39827,519.00208 104.92919,518.68746 C 114.41552,518.55407 123.88005,517.00686 132.55358,513.00607 C 155.67667,502.56039 180.73912,497.45246 205.83255,494.6785 C 239.68262,491.45021 273.71737,489.95321 307.72193,490.43702 C 326.42408,491.09135 345.43919,491.47998 363.5498,496.44709 C 387.24964,499.06555 411.70035,498.69256 434.74716,492.12735 C 455.97056,483.67507 478.8391,480.34293 501.39001,477.00828 C 533.17047,472.91096 565.21641,470.03264 597.28498,469.19833 C 611.83161,468.98967 626.43273,469.76769 640.811,471.82773 C 653.10338,473.22232 664.68417,478.02151 676.80878,480.12287 C 683.67997,481.42287 690.82571,479.94853 697.6875,480.01332 C 697.67419,479.68599 697.6715,479.35248 697.6562,479.02729 C 690.49971,478.79656 683.00252,480.48254 675.80711,479.1212 C 663.68249,477.01984 652.1017,472.22064 639.80932,470.82605 C 627.22833,469.02352 614.48298,468.20399 601.74558,468.16535 z M 664.49128,486.41466 C 668.2906,490.55774 670.20148,496.53168 671.2213,501.92501 C 674.16824,520.97274 671.14923,540.45299 666.58854,558.98933 C 664.53855,565.73594 663.17053,572.94039 659.46724,578.99157 C 655.07739,584.82364 647.86072,587.23283 640.88926,588.16318 C 613.74489,592.28878 586.15558,592.89316 558.73605,593.84457 C 530.02068,594.43624 501.25356,595.06385 472.56048,593.48459 C 467.88544,593.57775 463.48076,591.65618 460.13342,588.52316 C 463.57324,592.24628 468.40604,594.58901 473.56216,594.48627 C 502.25524,596.06553 531.02235,595.43792 559.73773,594.84625 C 587.15726,593.89484 614.74657,593.29046 641.89093,589.16486 C 648.8624,588.23451 656.07906,585.82532 660.46892,579.99325 C 664.17221,573.94207 665.54022,566.73762 667.59022,559.991 C 672.15091,541.45467 675.16992,521.97442 672.22298,502.92669 C 671.11703,497.07785 668.96724,490.55262 664.49128,486.41466 z M 360.35695,510.8149 C 361.61767,512.21196 362.61046,513.86155 363.20547,515.82329 C 366.65652,527.36196 363.20687,539.59854 359.88742,550.75679 C 354.61796,566.25735 347.89154,581.42059 338.78958,595.06537 C 335.2417,600.20768 329.17987,602.80471 323.12272,603.56397 C 287.60608,609.74876 251.76277,613.64857 215.88062,617.03967 C 194.80268,618.67991 173.61726,620.87203 152.46192,619.59081 C 147.93054,619.40969 143.17431,617.73484 139.76878,614.69199 C 143.2018,618.35946 148.4631,620.39261 153.46359,620.59249 C 174.61893,621.87371 195.80436,619.68159 216.8823,618.04134 C 252.76445,614.65025 288.60775,610.75043 324.1244,604.56565 C 330.18155,603.80639 336.24337,601.20936 339.79126,596.06704 C 348.89322,582.42226 355.61964,567.25903 360.88909,551.75847 C 364.20855,540.60022 367.6582,528.36364 364.20715,516.82496 C 363.46207,514.36844 362.09827,512.40842 360.35695,510.8149 z M 417.81255,515.46331 C 419.23766,517.0108 420.32318,518.86622 420.91149,521.05079 C 425.92727,539.63426 430.5865,558.6675 441.1485,575.04747 C 445.76027,582.07953 450.34219,589.26306 456.37713,595.14362 C 450.82878,589.45886 446.50394,582.68781 442.15018,576.04915 C 431.58818,559.66917 426.92894,540.63594 421.91316,522.05247 C 421.19292,519.37799 419.7322,517.19095 417.81255,515.46331 z M 118.43618,540.28613 C 119.35108,542.27906 118.07352,544.90395 118.45184,547.0631 C 118.16746,569.00939 122.67704,590.89154 129.92417,611.45218 C 131.17643,615.09968 133.30567,618.65335 136.16901,621.34375 C 133.80781,618.80117 132.02745,615.66255 130.92585,612.45386 C 123.67871,591.89322 119.16914,570.01107 119.45351,548.06478 C 119.03342,545.66721 120.67154,542.68754 119.06223,540.64611 C 118.85537,540.51788 118.64735,540.40426 118.43618,540.28613 z"
       id="path3386" />
  </g>
  <g
     inkscape:groupmode="layer"
     id="layer7"
     inkscape:label="Glashalter_Lichteffekt2"
     style="display:inline"
     transform="translate(129.50929,-418.04608)">
    <path
       style="color:#000000;fill:#ffffff;fill-opacity:1;fill-rule:evenodd;stroke:none;stroke-width:1;stroke-linecap:round;stroke-linejoin:round;marker:none;marker-start:none;marker-mid:none;marker-end:none;stroke-miterlimit:4;stroke-dashoffset:0;stroke-opacity:1;display:inline;filter:url(#filter3647)"
       d="M 617.5625,490.21875 C 574.19856,491.44337 530.81601,495.20879 488.1875,503.25 C 474.30637,505.43391 461.12158,510.59178 447.71875,514.59375 C 425.71405,519.50679 402.54549,520.2847 380.28125,516.84375 C 348.75849,509.82479 316.00815,511.18151 283.875,511.84375 C 238.13141,513.76071 190.93639,515.67374 148.875,535.25 C 140.1929,539.05016 130.55455,539.07199 121.4375,539.9375 C 122.74224,544.42583 118.85433,553.11138 123.25,555.09375 C 123.33045,555.12285 123.41828,555.15975 123.5,555.1875 C 122.19841,551.80247 124.48151,545.52892 123.4375,541.9375 C 132.55455,541.07199 142.1929,541.05016 150.875,537.25 C 192.93639,517.67374 240.13141,515.76071 285.875,513.84375 C 318.00815,513.18151 350.75849,511.82479 382.28125,518.84375 C 404.54549,522.2847 427.71405,521.50679 449.71875,516.59375 C 463.12158,512.59178 476.30637,507.43391 490.1875,505.25 C 532.81601,497.20879 576.19856,493.44337 619.5625,492.21875 C 638.70545,492.24105 658.09646,493.28915 676.59375,498.15625 C 689.02723,502.17545 702.0207,505.0915 715.125,503 C 715.25325,503.00681 715.38324,503.04371 715.5,503.0625 C 715.18515,501.87566 714.50738,501.07337 713.125,501 C 700.0207,503.0915 687.02723,500.17545 674.59375,496.15625 C 656.09646,491.28915 636.70545,490.24105 617.5625,490.21875 z M 683.96875,506.90625 C 691.99973,515.95255 692.13907,529.78878 692.03125,541.40625 C 691.03552,561.24286 687.55471,581.38785 679.46875,599.59375 C 671.16124,611.10301 655.35225,609.95313 642.8125,611.96875 C 593.38743,615.99926 543.67946,616.9416 494.125,615.25 C 488.41479,615.6478 483.06814,613.57054 478.96875,609.9375 C 483.23504,614.78608 489.43314,617.71618 496.125,617.25 C 545.67946,618.9416 595.38743,617.99926 644.8125,613.96875 C 657.35225,611.95313 673.16124,613.10301 681.46875,601.59375 C 689.55471,583.38785 693.03552,563.24286 694.03125,543.40625 C 694.14738,530.89346 693.9794,515.80866 683.96875,506.90625 z M 380.78125,531.15625 C 383.5459,534.36582 385.23155,538.48043 385.21875,542.9375 C 385.93824,564.68474 376.13743,585.14728 366.6875,604.125 C 362.18415,613.0631 356.30799,623.5546 345.21875,624.71875 C 296.65685,633.02533 247.58618,638.39763 198.375,641.1875 C 186.90388,640.9272 174.43712,643.42873 163.625,638.65625 C 162.36724,638.06354 161.26288,637.35142 160.28125,636.53125 C 161.69258,638.2135 163.42393,639.619 165.625,640.65625 C 176.43712,645.42873 188.90388,642.9272 200.375,643.1875 C 249.58618,640.39763 298.65685,635.02533 347.21875,626.71875 C 358.30799,625.5546 364.18415,615.0631 368.6875,606.125 C 378.13743,587.14728 387.93824,566.68474 387.21875,544.9375 C 387.23439,539.49307 384.71923,534.54032 380.78125,531.15625 z M 438.46875,536.15625 C 439.43442,537.31757 440.23981,538.63944 440.875,540.125 C 446.83909,561.67043 452.27883,583.84647 466,602.0625 C 468.75932,606.01624 471.62915,610.34341 475.1875,613.6875 C 472.51156,610.72027 470.23084,607.259 468,604.0625 C 454.27883,585.84647 448.83909,563.67043 442.875,542.125 C 441.8393,539.70276 440.3237,537.73399 438.46875,536.15625 z M 139.96875,560.9375 C 140.05787,561.06544 140.16713,561.1764 140.25,561.3125 C 138.97822,586.29997 143.56375,611.53019 152.75,634.6875 C 153.80503,637.46638 155.46903,639.69481 157.53125,641.40625 C 156.38405,640.05677 155.43719,638.49752 154.75,636.6875 C 145.56375,613.53019 140.97822,588.29997 142.25,563.3125 C 141.6418,562.31365 140.87026,561.54955 139.96875,560.9375 z"
       id="path3398" />
  </g>
  <g
     inkscape:groupmode="layer"
     id="layer2"
     inkscape:label="Glas"
     style="display:inline"
     transform="translate(129.50929,-418.04608)">
    <path
       sodipodi:nodetypes="cssssssss"
       id="path2197"
       d="M 463.74574,523.47393 C 484.80045,510.24646 627.9006,488.27818 676.73444,505.05939 C 681.12744,506.56898 682.98695,509.10997 685.30585,513.06934 C 694.10565,528.09438 689.97515,567.98281 679.30587,596.514 C 677.60843,601.05318 674.87333,603.07088 670.73446,605.68346 C 654.9821,615.62673 502.25242,617.04412 487.74569,614.05183 C 483.16633,613.10724 479.76473,609.99018 477.17429,606.17715 C 467.0728,591.3081 447.59821,552.75733 455.17434,532.64339 C 456.88945,528.08992 459.60156,526.07751 463.74574,523.47393 z"
       style="opacity:1;color:#000000;fill:#f3efe6;fill-opacity:0.06859209;fill-rule:evenodd;stroke:#e5fff4;stroke-width:0.50053197;stroke-linecap:round;stroke-linejoin:round;marker:none;marker-start:none;marker-mid:none;marker-end:none;stroke-miterlimit:4;stroke-dasharray:none;stroke-dashoffset:0;stroke-opacity:1" />
    <path
       style="color:#000000;fill:#ffffff;fill-opacity:0.48014443;fill-rule:evenodd;stroke:none;stroke-width:1;stroke-linecap:round;stroke-linejoin:round;marker:none;marker-start:none;marker-mid:none;marker-end:none;stroke-miterlimit:4;stroke-dashoffset:0;stroke-opacity:1;display:inline"
       d="M 680.96235,507.47105 C 682.1906,508.74591 683.19575,510.30352 684.3061,512.18598 C 693.1059,527.10502 688.97541,566.92487 678.3061,595.48519 C 676.60864,600.02901 673.88248,602.08708 669.7436,604.72892 C 653.99123,614.78363 501.25036,617.48428 486.7436,614.62045 C 484.14158,614.10678 481.93363,612.87325 480.02485,611.22422 C 482.14251,613.3327 484.68348,614.90919 487.7436,615.51329 C 502.25036,618.37712 654.99121,615.67648 670.7436,605.62176 C 674.88248,602.97992 677.60868,600.95308 679.3061,596.40928 C 689.97541,567.84896 694.10594,527.99784 685.3061,513.07882 C 683.91028,510.71238 682.67799,508.8934 680.96235,507.47105 z"
       id="path2793" />
    <path
       style="opacity:1;color:#000000;fill:#f3efe6;fill-opacity:0.06859209;fill-rule:evenodd;stroke:#ffffff;stroke-width:0.50053197;stroke-linecap:round;stroke-linejoin:round;marker:none;marker-start:none;marker-mid:none;marker-end:none;stroke-miterlimit:4;stroke-dasharray:none;stroke-dashoffset:0;stroke-opacity:1"
       d="M 373.3073,529.37286 C 352.25259,518.94234 209.15244,515.98385 160.3186,539.25226 C 155.9256,541.34543 154.06609,544.13344 151.74719,548.40086 C 142.94739,564.59489 147.07789,603.93461 157.74717,631.04846 C 159.44461,635.36216 162.17971,637.01652 166.31858,639.07928 C 182.07094,646.92997 334.80062,628.05836 349.30735,623.13896 C 353.88671,621.58604 357.28831,618.0171 359.87875,613.85995 C 369.98024,597.64899 389.45483,556.51117 381.8787,537.40367 C 380.16359,533.07803 377.45148,531.42591 373.3073,529.37286 z"
       id="path3428"
       sodipodi:nodetypes="cssssssss" />
    <path
       style="opacity:1;color:#000000;fill:#ffffff;fill-opacity:0.47843137;fill-rule:evenodd;stroke:none;stroke-width:0.50053197;stroke-linecap:round;stroke-linejoin:round;marker:none;marker-start:none;marker-mid:none;marker-end:none;stroke-miterlimit:4;stroke-dasharray:none;stroke-dashoffset:0;stroke-opacity:1"
       d="M 380.0625,534.1875 C 380.35671,534.71457 380.62463,535.2748 380.875,535.90625 C 388.45113,555.01375 368.97649,596.16404 358.875,612.375 C 356.28456,616.53215 352.89187,620.07209 348.3125,621.625 C 333.80577,626.5444 181.06487,645.44444 165.3125,637.59375 C 162.38614,636.13529 160.1835,634.8532 158.53125,632.71875 C 160.24706,635.83854 162.75381,637.32014 166.3125,639.09375 C 182.06487,646.94444 334.80577,628.0444 349.3125,623.125 C 353.89187,621.57209 357.28456,618.03215 359.875,613.875 C 369.97649,597.66404 389.45113,556.51375 381.875,537.40625 C 381.36366,536.11661 380.76261,535.08334 380.0625,534.1875 z"
       id="path3439" />
    <path
       style="opacity:1;color:#000000;fill:#ababae;fill-opacity:0.22382672;fill-rule:evenodd;stroke:none;stroke-width:0.50053197000000005;stroke-linecap:round;stroke-linejoin:round;marker:none;marker-start:none;marker-mid:none;marker-end:none;stroke-miterlimit:4;stroke-dasharray:none;stroke-dashoffset:0;stroke-opacity:1;display:inline;filter:url(#filter3928)"
       d="M 378.84375,541.9375 C 366.2318,542.62692 367.1544,557.01715 364.125,567.5625 C 358.31539,580.96309 343.52483,594.92807 331.21875,602.1875 C 306.71265,614.67717 273.53023,616.14584 246.75971,617.44684 C 220.43462,620.06005 195.80685,622.16709 173.375,636.34375 C 197.60473,638.39143 221.88387,634.76891 246.03125,633.03125 C 280.31417,629.54487 314.7394,626.3405 348.4375,619.125 C 358.59712,613.87872 361.38238,601.58746 366.70682,592.31594 C 373.56813,576.5114 381.4325,559.27161 378.84375,541.9375 z"
       id="path3737"
       sodipodi:nodetypes="ccccccccc" />
    <path
       style="fill:#ababae;fill-opacity:0.22382672;fill-rule:evenodd;stroke:none;stroke-width:0.25000000000000000pt;stroke-linecap:butt;stroke-linejoin:miter;stroke-opacity:1;display:inline;filter:url(#filter3892)"
       d="M 684.28125,521.59375 C 678.37498,526.8446 680.64206,536.1222 676.90625,542.65625 C 672.56622,551.71412 670.01379,561.45848 666.5625,570.78125 C 657.65173,587.55049 636.96753,593.06259 619.20108,593.57931 C 597.23636,595.55719 575.14933,597.0922 553.21875,598.53125 C 536.88022,600.43524 521.15923,605.15479 505.78125,610.71875 C 557.22468,611.54711 609.03846,610.9332 660.0625,604.5625 C 667.682,603.54656 675.54165,599.18426 676.90625,590.9375 C 684.10473,569.98794 687.79209,547.15526 685.28125,525.03125 C 685.03631,523.87375 684.78019,522.5712 684.28125,521.59375 z"
       id="path3779" />
  </g>
  <g
     inkscape:groupmode="layer"
     id="layer4"
     inkscape:label="Kopieen"
     style="display:none"
     transform="translate(129.50929,-418.04608)">
    <path
       style="color:#000000;fill:#44aa00;fill-opacity:1;fill-rule:evenodd;stroke:none;stroke-width:1;stroke-linecap:round;stroke-linejoin:round;marker:none;marker-start:none;marker-mid:none;marker-end:none;stroke-miterlimit:4;stroke-dashoffset:0;stroke-opacity:1;display:inline"
       d="M 184.45979,211.98639 C 205.51454,200.20809 348.61502,187.94489 397.44897,207.98639 C 401.84198,209.78928 403.70149,212.45036 406.0204,216.55782 C 414.82022,232.14484 410.68971,271.66965 400.0204,299.42006 C 398.32296,303.83502 395.58785,305.66383 391.44897,307.99149 C 375.69658,316.85044 222.96655,307.95653 208.45979,303.99149 C 203.88042,302.73984 200.47881,299.39982 197.88837,295.42006 C 187.78685,279.90084 168.31222,240.11765 175.88837,220.55782 C 177.60348,216.1298 180.3156,214.30471 184.45979,211.98639 z"
       id="rect2176"
       sodipodi:nodetypes="cssssssss" />
    <path
       sodipodi:nodetypes="csccsssssssssssssccssssssssc"
       id="path3088"
       d="M 564.28125,190.95982 C 490.28275,191.13971 449.93502,197.57618 434.4375,203.45982 C 420.16589,208.87805 413.29167,206.05357 398,205.92857 L 398,221.64732 C 403.39114,221.33077 411.68164,223.3844 415.28125,227.20982 C 418.88085,231.03524 419.9794,236.02417 421.54018,241.66518 C 427.24273,262.27536 431.12203,280.48308 452.65179,308.06696 C 461.19359,319.01069 480.84465,318.11448 496.0625,319.36607 C 545.19161,323.40666 600.80549,326.92405 647.85268,321.75894 C 659.05466,320.52912 664.47518,313.84332 668.26339,302.65178 C 673.32817,287.68884 680.52708,256.67765 678.53125,231.99107 C 678.34505,229.68794 690.30528,227.24846 696.16964,225.56696 C 697.00292,225.32804 697.41964,224.56009 697.41964,223.60826 L 697.41965,210.57812 C 697.41965,209.66965 696.89189,208.84358 695.90179,208.80357 C 685.56879,208.38601 683.51239,209.60699 673.27679,207.37947 C 665.69467,205.72941 654.71579,200.39991 639.24107,197.14732 C 611.25485,191.26497 587.13081,190.904 564.28125,190.95982 z M 573.4375,200.89732 C 606.8556,201.05633 638.43727,204.03801 656.75,211.55357 C 661.14301,213.35647 662.99359,216.00861 665.3125,220.11607 C 674.11234,235.70309 669.98181,275.24066 659.3125,302.99107 C 657.61508,307.40602 654.88888,309.22591 650.75,311.55357 C 634.99761,320.41253 482.25676,311.51861 467.75,307.55357 C 463.17062,306.30193 459.77794,302.97083 457.1875,298.99107 C 447.08599,283.47184 427.61135,243.6759 435.1875,224.11607 C 436.90262,219.68805 439.60581,217.87189 443.75,215.55357 C 456.90921,208.19214 517.74067,200.63231 573.4375,200.89732 z"
       style="color:#000000;fill:#000000;fill-opacity:1;fill-rule:evenodd;stroke:none;stroke-width:1;stroke-linecap:round;stroke-linejoin:round;marker:none;marker-start:none;marker-mid:none;marker-end:none;stroke-miterlimit:4;stroke-dashoffset:0;stroke-opacity:1;display:inline" />
    <path
       style="color:#000000;fill:#000000;fill-opacity:1;fill-rule:evenodd;stroke:none;stroke-width:1;stroke-linecap:round;stroke-linejoin:round;marker:none;marker-start:none;marker-mid:none;marker-end:none;stroke-miterlimit:4;stroke-dashoffset:0;stroke-opacity:1;display:inline"
       d="M 223.9375,319.53125 C 203.62996,319.64337 182.08169,320.57169 157.59375,325.71875 C 142.11903,328.97134 131.14462,334.28744 123.5625,335.9375 C 113.3269,338.16502 111.2705,336.95744 100.9375,337.375 C 99.947401,337.41501 99.437497,338.24779 99.4375,339.15625 L 99.4375,352.1875 C 99.4375,353.13933 99.85422,353.8861 100.6875,354.125 C 106.55186,355.8065 118.4987,358.25937 118.3125,360.5625 C 116.31667,385.24908 123.52898,416.25581 128.59375,431.21875 C 132.38196,442.41029 137.79802,449.11392 149,450.34375 C 196.04719,455.50886 251.65215,451.97809 300.78125,447.9375 C 315.9991,446.68591 335.64569,447.56875 344.1875,436.625 C 365.71726,409.04112 369.60995,390.86016 375.3125,370.25 C 376.87328,364.60899 378.05496,359.50884 381.5625,355.78125 C 385.07004,352.05366 392.62204,350.11571 398,350.1875 L 398,350.21875 C 404.47746,349.8632 410.41049,351.87009 415.28125,355.78125 C 419.34391,359.04351 419.97047,364.60899 421.53125,370.25 C 427.23379,390.86016 431.12649,409.04112 452.65625,436.625 C 461.19805,447.56875 480.84465,446.68591 496.0625,447.9375 C 545.19161,451.97809 600.79656,455.50886 647.84375,450.34375 C 659.04575,449.11392 664.46179,442.41029 668.25,431.21875 C 673.3148,416.25581 680.52708,385.24908 678.53125,360.5625 C 678.34505,358.25937 690.29189,355.8065 696.15625,354.125 C 696.98955,353.8861 697.40625,353.13933 697.40625,352.1875 L 697.40625,339.15625 C 697.40622,338.24779 696.89635,337.41501 695.90625,337.375 C 685.57325,336.95744 683.51685,338.16502 673.28125,335.9375 C 665.69913,334.28744 654.72472,328.97134 639.25,325.71875 C 611.26376,319.8364 587.13081,319.47543 564.28125,319.53125 C 490.28275,319.71114 449.93502,326.14761 434.4375,332.03125 C 413.0677,337.46899 384.11101,336.13298 362.40625,332.03125 C 346.90873,326.14761 306.561,319.71114 232.5625,319.53125 C 229.7063,319.52427 226.83858,319.51523 223.9375,319.53125 z M 223.40625,329.46875 C 279.10308,329.20374 339.93455,336.76357 353.09375,344.125 C 357.23794,346.44332 359.94114,348.25948 361.65625,352.6875 C 369.2324,372.24733 349.75777,412.04327 339.65625,427.5625 C 337.06581,431.54226 333.67314,434.87336 329.09375,436.125 C 314.58699,440.09004 161.84614,448.98396 146.09375,440.125 C 141.95487,437.79734 139.22867,435.97745 137.53125,431.5625 C 126.86194,403.81209 122.73141,364.27452 131.53125,348.6875 C 133.85016,344.58004 135.70074,341.9279 140.09375,340.125 C 158.40648,332.60944 189.98815,329.62776 223.40625,329.46875 z M 573.4375,329.46875 C 606.8556,329.62776 638.43727,332.60944 656.75,340.125 C 661.14301,341.9279 662.99359,344.58004 665.3125,348.6875 C 674.11234,364.27452 669.98181,403.81209 659.3125,431.5625 C 657.61508,435.97745 654.88888,437.79734 650.75,440.125 C 634.99761,448.98396 482.25676,440.09004 467.75,436.125 C 463.17062,434.87336 459.77794,431.54226 457.1875,427.5625 C 447.08599,412.04327 427.61135,372.24733 435.1875,352.6875 C 436.90262,348.25948 439.60581,346.44332 443.75,344.125 C 456.90921,336.76357 517.74067,329.20374 573.4375,329.46875 z"
       id="path2201"
       sodipodi:nodetypes="csssccssssssszccssssssssccssscccsccssssssssccssssssssc" />
    <path
       style="fill:none;fill-opacity:0.75;fill-rule:evenodd;stroke:#000000;stroke-width:0.2431587pt;stroke-linecap:butt;stroke-linejoin:miter;stroke-opacity:1;display:inline"
       d="M 131.9375,621.3516 L 131.9375,471.39923 L 695.52075,486.58961 L 695.52075,596.94216 L 131.9375,621.3516 z"
       id="path3165"
       sodipodi:nodetypes="ccccc" />
  </g>
</svg>
