<?xml version="1.0" encoding="UTF-8" standalone="no"?>
<!-- Created with Inkscape (http://www.inkscape.org/) -->

<svg
   xmlns:dc="http://purl.org/dc/elements/1.1/"
   xmlns:cc="http://creativecommons.org/ns#"
   xmlns:rdf="http://www.w3.org/1999/02/22-rdf-syntax-ns#"
   xmlns:svg="http://www.w3.org/2000/svg"
   xmlns="http://www.w3.org/2000/svg"
   xmlns:sodipodi="http://sodipodi.sourceforge.net/DTD/sodipodi-0.dtd"
   xmlns:inkscape="http://www.inkscape.org/namespaces/inkscape"
   height="400.68112"
   id="svg2"
   inkscape:version="0.48.1 r9760"
   sodipodi:docname="hammer_peterm1.svg"
   sodipodi:version="0.32"
   width="485.34314"
   version="1.1">
  <metadata
     id="metadata3">
    <rdf:RDF>
      <cc:Work
         rdf:about="">
        <dc:title>hammer</dc:title>
        <dc:description />
        <dc:subject>
          <rdf:Bag>
            <rdf:li>hammer</rdf:li>
            <rdf:li>tools</rdf:li>
            <rdf:li>tool</rdf:li>
          </rdf:Bag>
        </dc:subject>
        <dc:publisher>
          <cc:Agent
             rdf:about="http://www.openclipart.org">
            <dc:title>Open Clip Art Library</dc:title>
          </cc:Agent>
        </dc:publisher>
        <dc:creator>
          <cc:Agent>
            <dc:title>peterm</dc:title>
          </cc:Agent>
        </dc:creator>
        <dc:rights>
          <cc:Agent>
            <dc:title>peterm</dc:title>
          </cc:Agent>
        </dc:rights>
        <dc:date />
        <dc:format>image/svg+xml</dc:format>
        <dc:type
           rdf:resource="http://purl.org/dc/dcmitype/StillImage" />
        <cc:license
           rdf:resource="http://web.resource.org/cc/PublicDomain" />
        <dc:language>en</dc:language>
      </cc:Work>
      <cc:License
         rdf:about="http://web.resource.org/cc/PublicDomain">
        <cc:permits
           rdf:resource="http://web.resource.org/cc/Reproduction" />
        <cc:permits
           rdf:resource="http://web.resource.org/cc/Distribution" />
        <cc:permits
           rdf:resource="http://web.resource.org/cc/DerivativeWorks" />
      </cc:License>
    </rdf:RDF>
  </metadata>
  <defs
     id="defs3" />
  <sodipodi:namedview
     bordercolor="#666666"
     borderopacity="1.0"
     id="base"
     inkscape:current-layer="layer1"
     inkscape:cx="468.37023"
     inkscape:cy="129.3802"
     inkscape:document-units="px"
     inkscape:pageopacity="0.0"
     inkscape:pageshadow="2"
     inkscape:window-height="705"
     inkscape:window-width="1014"
     inkscape:window-x="0"
     inkscape:window-y="0"
     inkscape:zoom="0.76193376"
     pagecolor="#ffffff"
     showgrid="false"
     fit-margin-top="0"
     fit-margin-left="0"
     fit-margin-right="0"
     fit-margin-bottom="0"
     inkscape:window-maximized="0" />
  <g
     id="layer1"
     inkscape:groupmode="layer"
     inkscape:label="Layer 1"
     transform="translate(-129.59075,-61.792904)">
    <g
       id="g1342">
      <g
         id="g5124"
         style="opacity:0.18041238;fill:#000000;fill-opacity:1"
         transform="matrix(0.541706,-0.840568,0.840568,0.541706,-46.93613,306.9812)">
        <path
           d="m 210.20159,128.19131 62.64286,0 0,480.40735 -62.64286,0 0,-480.40735 z"
           id="path5126"
           style="fill-rule:nonzero;stroke:#000000;stroke-width:5;stroke-linecap:round;stroke-linejoin:miter;stroke-miterlimit:4;stroke-opacity:1;stroke-dashoffset:0"
           inkscape:connector-curvature="0" />
        <path
           d="m 216.7392,153.14858 34.25495,0 0,447.19757 -34.25495,0 0,-447.19757 z"
           id="path5128"
           style="fill-rule:nonzero;stroke:none"
           inkscape:connector-curvature="0" />
        <path
           d="m 134.28572,132.36218 193.88889,0.46402 c 0.59471,41.60723 36.45503,52.58907 54.68254,52.43439 l 0,27.10159 -248.57143,0 0,-80 z"
           id="path5130"
           sodipodi:nodetypes="cccccc"
           style="fill-rule:nonzero;stroke:#000000;stroke-width:5;stroke-linecap:round;stroke-linejoin:miter;stroke-miterlimit:4;stroke-opacity:1;stroke-dashoffset:0"
           inkscape:connector-curvature="0" />
        <path
           d="m 140.08561,166.42895 188.9708,0.2382 c 0.52067,21.35881 33.1068,26.99627 49.06455,26.91686 l 0,13.91243 -238.03535,0 0,-41.06749 z"
           id="path5132"
           sodipodi:nodetypes="cccccc"
           style="fill-rule:nonzero;stroke:none"
           inkscape:connector-curvature="0" />
      </g>
      <g
         id="g5092"
         transform="matrix(0.541706,-0.840568,0.840568,0.541706,-51.91204,285.7536)">
        <path
           d="m 210.20159,128.19131 62.64286,0 0,480.40735 -62.64286,0 0,-480.40735 z"
           id="rect1294"
           style="fill:#893333;fill-opacity:1;fill-rule:nonzero;stroke:#000000;stroke-width:5;stroke-linecap:round;stroke-linejoin:miter;stroke-miterlimit:4;stroke-opacity:1;stroke-dashoffset:0"
           inkscape:connector-curvature="0" />
        <path
           d="m 216.7392,153.14858 34.25495,0 0,447.19757 -34.25495,0 0,-447.19757 z"
           id="path3574"
           style="fill:#ae6767;fill-opacity:1;fill-rule:nonzero;stroke:none"
           inkscape:connector-curvature="0" />
        <path
           d="m 134.28572,132.36218 193.88889,0.46402 c 0.59471,41.60723 36.45503,52.58907 54.68254,52.43439 l 0,27.10159 -248.57143,0 0,-80 z"
           id="rect1291"
           sodipodi:nodetypes="cccccc"
           style="fill:#aaaaaa;fill-opacity:1;fill-rule:nonzero;stroke:#000000;stroke-width:5;stroke-linecap:round;stroke-linejoin:miter;stroke-miterlimit:4;stroke-opacity:1;stroke-dashoffset:0"
           inkscape:connector-curvature="0" />
        <path
           d="m 140.08561,166.42895 188.9708,0.2382 c 0.52067,21.35881 33.1068,26.99627 49.06455,26.91686 l 0,13.91243 -238.03535,0 0,-41.06749 z"
           id="path2814"
           sodipodi:nodetypes="cccccc"
           style="fill:#eeeeee;fill-opacity:1;fill-rule:nonzero;stroke:none"
           inkscape:connector-curvature="0" />
      </g>
    </g>
  </g>
</svg>
