<?xml version="1.0" encoding="UTF-8" standalone="no"?>
<!-- Created with Inkscape (http://www.inkscape.org/) -->

<svg
   xmlns:dc="http://purl.org/dc/elements/1.1/"
   xmlns:cc="http://creativecommons.org/ns#"
   xmlns:rdf="http://www.w3.org/1999/02/22-rdf-syntax-ns#"
   xmlns:svg="http://www.w3.org/2000/svg"
   xmlns="http://www.w3.org/2000/svg"
   xmlns:xlink="http://www.w3.org/1999/xlink"
   xmlns:sodipodi="http://sodipodi.sourceforge.net/DTD/sodipodi-0.dtd"
   xmlns:inkscape="http://www.inkscape.org/namespaces/inkscape"
   height="693.63708"
   id="svg2"
   inkscape:export-filename="C:\DOCUME~1\bobu\Desktop\brush.png"
   inkscape:export-xdpi="9.0900002"
   inkscape:export-ydpi="9.0900002"
   inkscape:version="0.48.1 r9760"
   sodipodi:docname="paint_brush_costea_bogda_01.svg"
   sodipodi:version="0.32"
   width="557.2356"
   version="1.1">
  <metadata
     id="metadata3">
    <rdf:RDF>
      <cc:Work
         rdf:about="">
        <dc:title>Paint Brush</dc:title>
        <dc:description>Normal paint brush</dc:description>
        <dc:subject>
          <rdf:Bag>
            <rdf:li>paint</rdf:li>
            <rdf:li>symbol</rdf:li>
            <rdf:li>http://www.bcostea.ro</rdf:li>
            <rdf:li>tool</rdf:li>
            <rdf:li>brush</rdf:li>
          </rdf:Bag>
        </dc:subject>
        <dc:publisher>
          <cc:Agent
             rdf:about="http://www.openclipart.org">
            <dc:title>Open Clip Art Library</dc:title>
          </cc:Agent>
        </dc:publisher>
        <dc:creator>
          <cc:Agent>
            <dc:title>Costea Bogdan</dc:title>
          </cc:Agent>
        </dc:creator>
        <dc:rights>
          <cc:Agent>
            <dc:title>Costea Bogdan</dc:title>
          </cc:Agent>
        </dc:rights>
        <dc:date />
        <dc:format>image/svg+xml</dc:format>
        <dc:type
           rdf:resource="http://purl.org/dc/dcmitype/StillImage" />
        <cc:license
           rdf:resource="http://web.resource.org/cc/PublicDomain" />
        <dc:language>en</dc:language>
      </cc:Work>
      <cc:License
         rdf:about="http://web.resource.org/cc/PublicDomain">
        <cc:permits
           rdf:resource="http://web.resource.org/cc/Reproduction" />
        <cc:permits
           rdf:resource="http://web.resource.org/cc/Distribution" />
        <cc:permits
           rdf:resource="http://web.resource.org/cc/DerivativeWorks" />
      </cc:License>
    </rdf:RDF>
  </metadata>
  <defs
     id="defs3">
    <linearGradient
       id="linearGradient14318">
      <stop
         id="stop14320"
         offset="0.00000000"
         style="stop-color:#00398f;stop-opacity:1.0000000;" />
      <stop
         id="stop14322"
         offset="1.0000000"
         style="stop-color:#ffffff;stop-opacity:1.0000000;" />
    </linearGradient>
    <linearGradient
       id="linearGradient13552"
       inkscape:collect="always">
      <stop
         id="stop13554"
         offset="0"
         style="stop-color:#000000;stop-opacity:1;" />
      <stop
         id="stop13556"
         offset="1"
         style="stop-color:#000000;stop-opacity:0;" />
    </linearGradient>
    <linearGradient
       id="linearGradient11250"
       inkscape:collect="always">
      <stop
         id="stop11252"
         offset="0"
         style="stop-color:#ffffff;stop-opacity:1;" />
      <stop
         id="stop11254"
         offset="1"
         style="stop-color:#ffffff;stop-opacity:0;" />
    </linearGradient>
    <linearGradient
       id="linearGradient8962">
      <stop
         id="stop8964"
         offset="0.00000000"
         style="stop-color:#fffdff;stop-opacity:1.0000000;" />
      <stop
         id="stop8970"
         offset="0.50000000"
         style="stop-color:#000000;stop-opacity:0.49803922;" />
      <stop
         id="stop8972"
         offset="0.50000000"
         style="stop-color:#000000;stop-opacity:0.24705882;" />
      <stop
         id="stop8966"
         offset="1"
         style="stop-color:#000000;stop-opacity:0;" />
    </linearGradient>
    <linearGradient
       id="linearGradient8194"
       inkscape:collect="always">
      <stop
         id="stop8196"
         offset="0"
         style="stop-color:#000000;stop-opacity:1;" />
      <stop
         id="stop8198"
         offset="1"
         style="stop-color:#000000;stop-opacity:0;" />
    </linearGradient>
    <linearGradient
       id="linearGradient4388"
       inkscape:collect="always">
      <stop
         id="stop4390"
         offset="0"
         style="stop-color:#ffce63;stop-opacity:1;" />
      <stop
         id="stop4392"
         offset="1"
         style="stop-color:#ffce63;stop-opacity:0;" />
    </linearGradient>
    <linearGradient
       gradientTransform="scale(1.572461,0.635946)"
       gradientUnits="userSpaceOnUse"
       id="linearGradient4394"
       inkscape:collect="always"
       x1="302.90421"
       x2="270.20834"
       xlink:href="#linearGradient4388"
       y1="999.95508"
       y2="1138.5482" />
    <linearGradient
       gradientTransform="matrix(1.148733,0,0,0.905362,0,-20.98799)"
       gradientUnits="userSpaceOnUse"
       id="linearGradient8200"
       inkscape:collect="always"
       x1="532.68054"
       x2="284.75259"
       xlink:href="#linearGradient8194"
       y1="625.84399"
       y2="616.76953" />
    <linearGradient
       gradientTransform="matrix(1.063821,0.04046455,-0.03647746,0.97038,21.43936,-34.26626)"
       gradientUnits="userSpaceOnUse"
       id="linearGradient8968"
       inkscape:collect="always"
       x1="347.20044"
       x2="514.80957"
       xlink:href="#linearGradient8962"
       y1="574.46063"
       y2="622.51636" />
    <linearGradient
       gradientTransform="matrix(0.866025,0,0,1.154701,-16.31031,-3.262063)"
       gradientUnits="userSpaceOnUse"
       id="linearGradient11256"
       inkscape:collect="always"
       x1="364.79874"
       x2="533.11829"
       xlink:href="#linearGradient11250"
       y1="430.8544"
       y2="485.01993" />
    <linearGradient
       gradientTransform="scale(1.901203,0.525983)"
       gradientUnits="userSpaceOnUse"
       id="linearGradient13558"
       inkscape:collect="always"
       x1="102.90475"
       x2="188.49617"
       xlink:href="#linearGradient13552"
       y1="1453.4987"
       y2="1439.7363" />
    <linearGradient
       gradientTransform="scale(0.790682,1.264731)"
       gradientUnits="userSpaceOnUse"
       id="linearGradient14324"
       inkscape:collect="always"
       x1="738.6416"
       x2="891.12726"
       xlink:href="#linearGradient14318"
       y1="326.92914"
       y2="121.82977" />
    <linearGradient
       gradientTransform="scale(0.790682,1.264731)"
       gradientUnits="userSpaceOnUse"
       id="linearGradient17396"
       inkscape:collect="always"
       x1="738.6416"
       x2="891.12726"
       xlink:href="#linearGradient14318"
       y1="326.92914"
       y2="121.82977" />
    <linearGradient
       gradientTransform="scale(1.572461,0.635946)"
       gradientUnits="userSpaceOnUse"
       id="linearGradient17398"
       inkscape:collect="always"
       x1="302.90421"
       x2="270.20834"
       xlink:href="#linearGradient4388"
       y1="999.95508"
       y2="1138.5482" />
    <linearGradient
       gradientTransform="scale(1.901203,0.525983)"
       gradientUnits="userSpaceOnUse"
       id="linearGradient17400"
       inkscape:collect="always"
       x1="102.90475"
       x2="188.49617"
       xlink:href="#linearGradient13552"
       y1="1453.4987"
       y2="1439.7363" />
    <linearGradient
       gradientTransform="matrix(1.148733,0,0,0.905362,0,-20.98799)"
       gradientUnits="userSpaceOnUse"
       id="linearGradient17402"
       inkscape:collect="always"
       x1="532.68054"
       x2="284.75259"
       xlink:href="#linearGradient8194"
       y1="625.84399"
       y2="616.76953" />
    <linearGradient
       gradientTransform="matrix(1.063821,0.04046455,-0.03647746,0.97038,21.43936,-34.26626)"
       gradientUnits="userSpaceOnUse"
       id="linearGradient17404"
       inkscape:collect="always"
       x1="347.20044"
       x2="514.80957"
       xlink:href="#linearGradient8962"
       y1="574.46063"
       y2="622.51636" />
    <linearGradient
       gradientTransform="matrix(0.866025,0,0,1.154701,-16.31031,-3.262063)"
       gradientUnits="userSpaceOnUse"
       id="linearGradient17406"
       inkscape:collect="always"
       x1="364.79874"
       x2="533.11829"
       xlink:href="#linearGradient11250"
       y1="430.8544"
       y2="485.01993" />
  </defs>
  <sodipodi:namedview
     bordercolor="#666666"
     borderopacity="1.0"
     id="base"
     inkscape:current-layer="layer1"
     inkscape:cx="358.59784"
     inkscape:cy="450.13575"
     inkscape:document-units="px"
     inkscape:pageopacity="0.0"
     inkscape:pageshadow="2"
     inkscape:window-height="749"
     inkscape:window-width="1024"
     inkscape:window-x="-4"
     inkscape:window-y="-4"
     inkscape:zoom="0.55684251"
     pagecolor="#ffffff"
     showgrid="false"
     fit-margin-top="0"
     fit-margin-left="0"
     fit-margin-right="0"
     fit-margin-bottom="0"
     inkscape:window-maximized="0" />
  <g
     id="layer1"
     inkscape:groupmode="layer"
     inkscape:label="Layer 1"
     transform="translate(-17.041089,-15.268552)">
    <g
       id="g17376"
       transform="translate(-70.03776,-96.97535)">
      <path
         d="m 414.63983,465.72362 c 17.26128,-16.24591 17.84485,-31.3103 50.64025,-35.81621 35.06103,-8.48405 59.93036,-36.36184 63.00177,-120.82551 3.07141,-84.46366 56.82101,-176.60585 56.82101,-176.60585 0,0 44.53539,-49.142494 56.82102,7.67852 12.28562,56.82101 -38.39258,198.10569 -62.96383,241.10538 -15.59205,25.04128 4.56916,55.90684 21.96958,62.46879 12.83126,4.02353 15.95326,25.63721 8.24945,35.8162 -10.74993,3.07141 -194.53925,-13.82132 -194.53925,-13.82132 z"
         id="path1334"
         sodipodi:nodetypes="ccccccccc"
         style="fill:url(#linearGradient17396);fill-opacity:1;fill-rule:evenodd;stroke:#000000;stroke-width:1px;stroke-linecap:butt;stroke-linejoin:miter;stroke-opacity:1"
         inkscape:connector-curvature="0" />
      <path
         d="m 577.11876,639.30213 -7.06645,50.76716 c 0,0 -27.60358,3.40472 -36.61329,20.40742 -9.00971,17.00268 -46.29011,-17.87119 -55.42953,-11.61764 -9.13942,6.25355 -35.30007,1.96179 -42.92243,6.66122 -7.62237,4.69942 -41.44244,2.03591 -41.44244,2.03591 l -3.44179,-30.67476 c 0,0 -18.33445,7.90031 -45.8639,17.44741 -27.52947,9.5471 -6.58709,-36.78007 -6.58709,-36.78007 l 14.85559,-41.64626 224.51133,23.39961 z"
         id="path2096"
         style="fill:url(#linearGradient17398);fill-opacity:1;fill-rule:evenodd;stroke:#000000;stroke-width:1px;stroke-linecap:butt;stroke-linejoin:miter;stroke-opacity:1"
         inkscape:connector-curvature="0" />
      <path
         d="m 345.53319,660.75789 c -38.39258,0 -67.27742,117.2166 -226.99054,111.07379 -44.53539,18.42844 -27.93617,22.53238 -27.93617,22.53238 0,0 379.88021,19.96414 410.26774,6.14281 19.67889,-11.45498 78.08584,-105.9635 67.33592,-130.53475 l -41.46399,23.03553 -33.78547,-13.82131 -96.74929,13.82133 c -6.14281,-18.42844 -3.07141,-4.60712 -6.14281,-29.17837 -33.78547,-1.5357 -67.57094,33.78547 -44.53539,-3.07141 z"
         id="path2098"
         sodipodi:nodetypes="cccccccccc"
         style="fill:#df0000;fill-opacity:1;fill-rule:evenodd;stroke:#000000;stroke-width:1px;stroke-linecap:butt;stroke-linejoin:miter;stroke-opacity:1"
         inkscape:connector-curvature="0" />
      <path
         d="m 90.60648,788.22126 23.03555,-13.82133 c 0,0 285.64076,26.10695 342.46178,1.5357 56.82101,-24.57125 79.85656,-56.82101 79.85656,-56.82101 l 10.74992,-15.35703 c 0,0 15.35703,-15.35703 10.74992,-1.5357 -4.60711,13.82132 -46.07109,73.71374 -46.07109,73.71374 0,0 -19.96414,19.96414 -56.82102,21.49985 -36.85687,1.5357 -322.49764,-10.74993 -322.49764,-10.74993 l -41.46398,1.53571 z"
         id="path11258"
         style="opacity:0.50996016;fill:#fff9ff;fill-opacity:1;fill-rule:evenodd;stroke:none"
         inkscape:connector-curvature="0" />
      <path
         d="m 127.46335,771.32852 -23.03554,12.28563 44.53539,4.60711 12.28562,-15.35703 -33.78547,-1.53571 z"
         id="path12018"
         style="opacity:0.23505973;fill:#ffffff;fill-opacity:1;fill-rule:evenodd;stroke:none"
         inkscape:connector-curvature="0" />
      <path
         d="m 320.66562,678.20565 c -53.52374,34.04416 -47.38678,93.98262 -206.08016,94.83678 51.29668,5.8755 161.84109,16.71453 298.51866,9.03602 116.71344,-32.24976 76.78515,-72.17805 76.78515,-72.17805 0,0 -176.90217,22.05486 -169.22365,-31.69475 z"
         id="path12778"
         sodipodi:nodetypes="ccccc"
         style="fill:url(#linearGradient17400);fill-opacity:1;fill-rule:evenodd;stroke:none"
         inkscape:connector-curvature="0" />
      <path
         d="m 533.57662,298.45041 c 0,0 16.75359,-126.92118 63.46058,-169.05901 46.707,-42.137828 28.17272,166.27811 -61.23283,266.33746 -8.63064,17.76896 -2.73544,-58.69441 -2.22775,-97.27845 z"
         id="path15094"
         sodipodi:nodetypes="cccc"
         style="opacity:0.25498005;fill:#ffffff;fill-opacity:1;fill-rule:evenodd;stroke:none"
         inkscape:connector-curvature="0" />
      <path
         d="m 635.72733,158.03391 c 0,0 -21.55008,154.44223 -79.01696,219.09247 -57.46688,64.65024 14.36672,66.44608 19.75424,62.8544 5.38752,-3.59168 -35.9168,-21.55008 0,-75.42528 35.9168,-53.8752 59.26272,-143.66719 59.26272,-206.52159 z"
         id="path15854"
         style="opacity:0.27091633;fill:#000000;fill-opacity:1;fill-rule:evenodd;stroke:none"
         inkscape:connector-curvature="0" />
      <path
         d="m 365.8948,607.0905 -1.08735,35.33902 17.39767,-33.16431 -3.80574,40.23212 21.20341,-40.23212 -7.0678,42.9505 24.46548,-41.31947 -9.24252,44.58154 24.46548,-44.03786 -9.78619,44.58153 26.64018,-42.9505 -7.61148,39.68844 21.74709,-37.51373 -4.34941,38.60108 19.0287,-34.25166 -2.17471,34.25166 20.65974,-33.70799 -5.98045,33.16432 22.29077,-31.53329 -6.52413,32.07696 18.48503,-31.53328 -4.8931,31.53328 17.94135,-31.53328 -5.98045,30.98961 17.94135,-29.90225 -4.8931,30.9896 16.854,-30.44593 -3.80574,30.98961 14.13561,-29.35857 -3.26207,31.53328 9.7862,-35.8827 -217.47091,-25.55283 -11.41723,41.31947 16.31032,-29.90225 z"
         id="path16614"
         style="opacity:0.27490043;fill:#994a2c;fill-opacity:1;fill-rule:evenodd;stroke:none"
         inkscape:connector-curvature="0" />
      <path
         d="m 379.6049,611.36053 -1.04087,27.52065 16.65383,-25.82707 -3.64302,31.33121 20.29685,-31.33121 -6.76561,33.44817 23.41945,-32.17799 -8.84736,34.71837 23.41945,-34.29497 -9.36777,34.71836 25.50116,-33.44818 -7.28604,30.90781 20.81728,-29.21423 -4.16345,30.06102 18.21512,-26.67386 -2.08173,26.67386 19.77643,-26.25047 -5.72476,25.82708 21.33773,-24.5569 -6.24519,24.98029 17.69469,-24.55689 -4.68389,24.55689 17.17427,-24.55689 -5.72476,24.1335 17.17426,-23.28671 -4.68389,24.13349 16.1334,-23.7101 -3.64303,24.1335 13.53124,-22.86331 -3.1226,24.55689 9.36779,-27.94405 -208.17287,-19.89955 -10.92908,32.178 15.61297,-23.28671 z"
         id="path17374"
         style="opacity:0.27490043;fill:#994a2c;fill-opacity:1;fill-rule:evenodd;stroke:none"
         inkscape:connector-curvature="0" />
      <path
         d="m 347.05411,619.15925 c 0,0 56.86548,-164.03417 82.22681,-165.67887 25.36134,-1.6447 183.4967,16.44702 183.4967,16.44702 0,0 -0.82206,15.37333 -4.47553,37.82814 -7.45921,19.73641 -25.90501,132.64983 -31.87238,132.64983 -5.96737,0 -229.3756,-21.24612 -229.3756,-21.24612 z"
         id="path2094"
         sodipodi:nodetypes="cccccc"
         style="fill:#959595;fill-opacity:1;fill-rule:evenodd;stroke:#000000;stroke-width:1.01999462px;stroke-linecap:butt;stroke-linejoin:miter;stroke-opacity:1"
         inkscape:connector-curvature="0" />
      <path
         d="m 600.94819,468.51747 11.8025,3.55594 -34.42258,167.33782 -16.85315,-0.77096 39.47323,-170.1228 z"
         id="path5154"
         sodipodi:nodetypes="ccccc"
         style="opacity:0.34661357;fill:#000000;fill-opacity:1;fill-rule:evenodd;stroke:#000000;stroke-width:1.0169487px;stroke-linecap:butt;stroke-linejoin:miter;stroke-opacity:1"
         inkscape:connector-curvature="0" />
      <path
         d="m 589.30287,468.04967 19.05304,2.39225 -41.05788,167.48973 -31.87222,-1.38003 53.87706,-168.50195 z"
         id="path5914"
         style="opacity:0.10756968;fill:#fffdff;fill-opacity:1;fill-rule:evenodd;stroke:none"
         inkscape:connector-curvature="0" />
      <path
         d="m 590.22773,472.34079 -47.06319,163.0415 10.87483,-2.62977 36.18836,-160.41173 z"
         id="path6674"
         style="opacity:0.5458167;fill:#ffffff;fill-opacity:1;fill-rule:evenodd;stroke:none"
         inkscape:connector-curvature="0" />
      <path
         d="m 443.81819,453.79101 128.99905,11.18014 9.21422,6.38864 -46.07109,166.10488 -165.85593,-17.56879 73.71375,-166.10487 z"
         id="path7434"
         sodipodi:nodetypes="cccccc"
         style="opacity:0.14741037;fill:url(#linearGradient17402);fill-opacity:1;fill-rule:evenodd;stroke:none"
         inkscape:connector-curvature="0" />
      <path
         d="m 464.15317,453.25481 114.79729,12.31015 -57.202,172.58374 -142.36057,-14.94731 84.76528,-169.94658 z"
         id="path8202"
         sodipodi:nodetypes="ccccc"
         style="opacity:0.3824701;fill:url(#linearGradient17404);fill-opacity:1;fill-rule:evenodd;stroke:none"
         inkscape:connector-curvature="0" />
      <path
         d="m 390.651,448.64022 59.89242,3.07141 -73.71375,168.92734 -55.28531,-6.14281 69.10664,-165.85594 z"
         id="path9732"
         sodipodi:nodetypes="ccccc"
         style="opacity:0.23505973;fill:url(#linearGradient17406);fill-opacity:1;fill-rule:evenodd;stroke:none"
         inkscape:connector-curvature="0" />
      <path
         d="m 589.92962,441.10981 c 0,0 -7.10759,9.64601 -1.52305,12.69211 5.58453,3.04611 6.09221,0.50769 8.12295,7.10759 2.03074,6.5999 12.18443,5.58453 12.18443,5.58453 l -1.01537,-13.1998 -17.76896,-12.18443 z"
         id="path14334"
         style="opacity:0.3824701;fill:#ffffff;fill-opacity:1;fill-rule:evenodd;stroke:none"
         inkscape:connector-curvature="0" />
    </g>
  </g>
</svg>
