<?xml version="1.0" encoding="UTF-8" standalone="no"?>
<svg xmlns:dc="http://purl.org/dc/elements/1.1/" xmlns:cc="http://creativecommons.org/ns#" xmlns:rdf="http://www.w3.org/1999/02/22-rdf-syntax-ns#" xmlns:svg="http://www.w3.org/2000/svg" xmlns="http://www.w3.org/2000/svg" xmlns:sodipodi="http://sodipodi.sourceforge.net/DTD/sodipodi-0.dtd" xmlns:inkscape="http://www.inkscape.org/namespaces/inkscape" width="1.9433in" height="1.8420in" viewBox="0 0 998 946" id="svg2" version="1.1" inkscape:version="0.48.1 " sodipodi:docname="liftarn_Cleaning_tools.svg">
  <defs id="defs64"/>
  <sodipodi:namedview pagecolor="#ffffff" bordercolor="#666666" borderopacity="1" objecttolerance="10" gridtolerance="10" guidetolerance="10" inkscape:pageopacity="0" inkscape:pageshadow="2" inkscape:window-width="1920" inkscape:window-height="1033" id="namedview62" showgrid="false" inkscape:zoom="1.7493063" inkscape:cx="87.448502" inkscape:cy="82.889999" inkscape:window-x="-4" inkscape:window-y="-4" inkscape:window-maximized="1" inkscape:current-layer="svg2"/>
  <g id="g3059" transform="matrix(1.837467,0,0,1.837467,-334.69638,-464.99679)" inkscape:export-filename="D:\Adem\_Radovi\_DTP\Arapski Jezik I\slikice\waw_bucket2.png" inkscape:export-xdpi="399.72855" inkscape:export-ydpi="399.72855">
    <path id="path6" d="m 225,288 1,10 36,358 4,59 1,0 5,2 8,1 11,2 12,3 14,2 15,3 16,3 17,3 16,4 16,3 14,3 14,2 12,2 10,1 8,1 6,0 8,0 9,-1 11,-2 12,-2 13,-2 12,-2 13,-3 13,-2 11,-3 11,-2 9,-2 9,-2 6,-2 3,0 2,-1 9,-46 18,-104 35,-213 3,-65 -7,-5 -1,0 -5,-1 -5,-1 -8,-2 -10,-1 -12,-2 -13,-3 -14,-2 -16,-2 -16,-2 -17,-2 -18,-2 -17,-1 -19,-2 -18,-1 -18,0 -18,0 -18,0 -18,1 -17,1 -17,2 -16,2 -15,2 -14,3 -13,2 -12,3 -10,2 -9,2 -7,1 -5,2 -3,0 -1,1 -36,-3 z" style="fill:#000000" inkscape:connector-curvature="0"/>
    <path id="path8" d="m 271,302 1,0 4,0 5,-1 7,-1 8,-1 10,-2 11,-1 11,-1 13,-1 12,-1 13,-2 12,-1 12,-1 12,0 10,-1 10,0 9,0 9,0 8,0 8,-1 7,0 7,-1 8,0 7,-1 7,0 7,-1 6,0 7,0 7,0 7,0 8,1 7,1 8,1 8,1 9,1 8,2 9,1 9,2 8,1 9,2 7,1 8,1 6,2 5,1 5,1 3,1 3,0 0,0 1,3 2,7 0,8 -3,6 -6,6 -6,3 -5,3 -5,2 -6,0 -5,0 -5,0 -5,0 -6,1 -7,1 -9,1 -7,2 -8,2 -6,2 -4,1 -1,0 -3,1 -8,2 -10,2 -13,4 -14,3 -13,2 -12,1 -8,0 -8,-1 -10,0 -11,-1 -11,0 -10,0 -8,1 -6,0 -2,0 -3,-1 -6,-2 -9,-3 -11,-4 -12,-4 -11,-4 -10,-3 -8,-3 -11,-4 -13,-5 -12,-5 -12,-5 -9,-5 -7,-6 -4,-5 1,-5 z" style="fill:#910000" inkscape:connector-curvature="0"/>
    <path id="path10" d="m 241,307 2,1 5,2 6,4 10,5 11,6 12,6 13,7 14,8 15,7 14,8 13,7 13,6 12,6 10,4 8,3 5,2 6,1 9,0 10,0 11,-1 10,0 10,-1 6,0 2,0 192,-51 -63,373 -1,0 -4,1 -6,1 -9,1 -10,2 -11,2 -13,2 -12,2 -14,2 -13,2 -13,2 -12,2 -11,1 -10,1 -8,1 -6,0 -6,0 -9,0 -10,-1 -12,-1 -13,-1 -13,-2 -15,-1 -14,-2 -14,-2 -13,-3 -13,-2 -10,-3 -10,-3 -7,-3 -5,-3 -1,-4 -38,-394 z" style="fill:#ff3f3f" inkscape:connector-curvature="0"/>
    <path id="path12" d="m 282,366 22,303 -1,25 8,8 6,-17 51,-270 -86,-49 z" style="fill:#ff7f7f" inkscape:connector-curvature="0"/>
    <path id="path14" d="m 544,407 -27,313 59,-8 5,-57 33,-273 -70,25 z" style="fill:#ba0000" inkscape:connector-curvature="0"/>
    <path id="path16" d="m 234,317 0,1 -1,5 -2,7 -2,10 -1,11 -1,13 -1,14 1,15 2,15 3,16 5,16 8,15 10,14 13,13 16,12 19,10 13,4 14,3 15,0 16,-2 16,-3 15,-4 17,-6 16,-6 16,-7 15,-8 14,-8 14,-8 14,-9 12,-7 10,-8 10,-7 8,-6 10,-8 10,-8 11,-8 11,-9 11,-9 11,-9 11,-8 10,-8 9,-7 9,-7 7,-6 6,-4 4,-4 3,-2 1,-1 0,22 -2,2 -5,5 -9,8 -11,11 -14,13 -16,14 -18,16 -19,15 -21,16 -22,15 -21,15 -22,12 -22,11 -21,8 -20,6 -19,2 -11,0 -11,1 -11,1 -11,2 -11,1 -10,2 -11,1 -10,1 -10,0 -10,0 -9,-1 -10,-3 -9,-3 -9,-5 -8,-7 -8,-8 -12,-22 -8,-29 -3,-30 -1,-31 1,-29 2,-24 2,-16 1,-6 11,7 z" style="fill:#000000" inkscape:connector-curvature="0"/>
  </g>
  <metadata>
    <rdf:RDF>
      <cc:Work>
        <dc:format>image/svg+xml</dc:format>
        <dc:type rdf:resource="http://purl.org/dc/dcmitype/StillImage"/>
        <cc:license rdf:resource="http://creativecommons.org/licenses/publicdomain/"/>
        <dc:publisher>
          <cc:Agent rdf:about="http://openclipart.org/">
            <dc:title>Open Clip Art Library</dc:title>
          </cc:Agent>
        </dc:publisher>
        <dc:title>Red Bucket</dc:title>
        <dc:date>2012-04-08T13:34:41</dc:date>
        <dc:description>This is clean solo red bucket. It is bucket from "liftarn" drawing just removed other items from picture to have solo bucket.</dc:description>
        <dc:source>http://openclipart.org/detail/169424/red-bucket-by-ensarija</dc:source>
        <dc:creator>
          <cc:Agent>
            <dc:title>ensarija</dc:title>
          </cc:Agent>
        </dc:creator>
        <dc:subject>
          <rdf:Bag>
            <rdf:li>Bucket</rdf:li>
            <rdf:li>clip art</rdf:li>
            <rdf:li>clipart</rdf:li>
            <rdf:li>crven</rdf:li>
            <rdf:li>kanta</rdf:li>
            <rdf:li>red</rdf:li>
          </rdf:Bag>
        </dc:subject>
      </cc:Work>
      <cc:License rdf:about="http://creativecommons.org/licenses/publicdomain/">
        <cc:permits rdf:resource="http://creativecommons.org/ns#Reproduction"/>
        <cc:permits rdf:resource="http://creativecommons.org/ns#Distribution"/>
        <cc:permits rdf:resource="http://creativecommons.org/ns#DerivativeWorks"/>
      </cc:License>
    </rdf:RDF>
  </metadata>
</svg>
