<?xml version="1.0" encoding="UTF-8" standalone="no"?>
<!-- Created with Inkscape (http://www.inkscape.org/) -->

<svg
   xmlns:dc="http://purl.org/dc/elements/1.1/"
   xmlns:cc="http://creativecommons.org/ns#"
   xmlns:rdf="http://www.w3.org/1999/02/22-rdf-syntax-ns#"
   xmlns:svg="http://www.w3.org/2000/svg"
   xmlns="http://www.w3.org/2000/svg"
   xmlns:sodipodi="http://sodipodi.sourceforge.net/DTD/sodipodi-0.dtd"
   xmlns:inkscape="http://www.inkscape.org/namespaces/inkscape"
   version="1.0"
   width="584.09979"
   height="334.09781"
   id="svg5291"
   inkscape:version="0.48.1 r9760"
   sodipodi:docname="ryanlerch_sunglasses_outline.svg">
  <metadata
     id="metadata3089">
    <rdf:RDF>
      <cc:Work
         rdf:about="">
        <dc:format>image/svg+xml</dc:format>
        <dc:type
           rdf:resource="http://purl.org/dc/dcmitype/StillImage" />
      </cc:Work>
    </rdf:RDF>
  </metadata>
  <sodipodi:namedview
     pagecolor="#ffffff"
     bordercolor="#666666"
     borderopacity="1"
     objecttolerance="10"
     gridtolerance="10"
     guidetolerance="10"
     inkscape:pageopacity="0"
     inkscape:pageshadow="2"
     inkscape:window-width="640"
     inkscape:window-height="480"
     id="namedview3087"
     showgrid="false"
     fit-margin-top="0"
     fit-margin-left="0"
     fit-margin-right="0"
     fit-margin-bottom="0"
     inkscape:zoom="0.49745368"
     inkscape:cx="301.56528"
     inkscape:cy="158.47749"
     inkscape:window-x="0"
     inkscape:window-y="0"
     inkscape:window-maximized="0"
     inkscape:current-layer="svg5291" />
  <defs
     id="defs5293" />
  <g
     transform="translate(145.85098,246.11528)"
     id="layer1">
    <path
       d="M 195.27212,79.676065 C 183.00317,75.340151 164.54086,63.368459 154.2446,53.072191 138.39944,37.227035 134.77734,29.297573 130.66322,1.4480914 126.6526,-25.700319 124.11754,-31.455199 116.16768,-31.455199 c -6.82764,0 -11.40523,5.94098 -15.71361,20.39471 C 90.813491,21.281944 78.748501,40.901651 59.445931,55.624079 42.796201,68.323862 38.796291,69.125374 3.4130014,66.854424 -27.176509,64.891433 -39.458709,61.461044 -58.870899,49.459779 -86.964609,32.090628 -106.18713,6.2556314 -106.18713,-14.132949 c 0,-12.32554 -2.48203,-14.77648 -17.89329,-17.66743 -13.29531,-2.49427 -18.6943,-6.54976 -21.01165,-15.78448 -2.56973,-10.23865 0.80559,-15.70647 19.16746,-31.04757 12.25773,-10.2407 57.210211,-52.842181 99.894801,-94.669681 59.84265,-58.64141 79.68415,-75.24576 86.67749,-72.5353 4.98804,1.93342 21.60972,6.79654 36.93737,10.80665 33.912819,8.87271 45.845249,18.88855 37.635369,31.59088 -4.35784,6.743 -11.55921,8.50562 -30.50538,7.466 -13.640489,-0.74849 -30.082199,-2.54271 -36.537629,-3.98768 -9.60132,-2.14858 -22.02271,7.44407 -68.26872957,52.72389 l -56.53208043,55.350721 37.67667,-4.22783 c 43.48916,-4.879941 73.09207,-1.57906 91.21328,10.17135 16.23724,10.52877 64.692009,11.49089 80.607519,1.60048 6.47634,-4.0249 28.27318,-8.3501 48.43743,-9.61203 35.75447,-2.2373 44.40539,-0.30235 96.57148,21.60361 6.81285,2.86107 8.92268,1.27772 8.92268,-6.69508 0,-5.74315 1.95382,-11.64945 4.34204,-13.12552 2.38822,-1.47607 8.40517,-13.657311 13.37077,-27.068871 4.9656,-13.41207 16.77821,-41.22433 26.25002,-61.80514 9.4713,-20.58132 17.22129,-39.15426 17.22129,-41.27378 0,-2.12003 4.66019,-8.07172 10.35592,-13.22648 13.06434,-11.82281 16.69358,-8.33226 43.77928,42.10334 15.95988,29.71916 18.6999,38.61024 14.14118,45.88809 -8.13902,12.99346 -28.93244,11.54391 -35.06972,-2.44482 -7.1667,-16.33514 -10.91728,-14.39866 -19.7538,10.19736 -46.03391,128.129941 -45.59746,127.192291 -58.11624,124.985071 -5.14967,-0.90756 -9.98882,6.7017004 -14.95748,23.5191804 -14.91465,50.4804636 -43.59369,80.1873926 -76.51584,79.2594336 -7.85094,-0.221793 -24.31253,-3.949945 -36.58096,-8.28535 z m 72.3854,-26.854219 c 11.16049,-13.263187 24.67504,-55.4322946 23.41363,-73.055875 -0.47673,-6.6604 -8.67081,16.9174104 -12.82062,36.889434 -7.7403,37.256538 -31.15241,51.649592 -66.69222,41.001516 -37.92447,-11.3624 -52.61426,-32.349062 -52.61426,-75.16622 0,-34.52008 5.42805,-42.0187 30.33712,-41.90908 25.12322,0.11064 75.30898,12.4887 85.83724,21.17175 6.07864,5.01301 14.9585,6.20152 29.13792,3.90048 18.48678,-3.00057 18.90283,-3.37787 4.44808,-4.03356 -8.77074,-0.3977 -18.69837,-4.03917 -22.06197,-8.09211 -15.18845,-18.30119 -89.4058,-32.20548 -122.96223,-23.03633 -37.67514,10.29423 -84.387689,9.89347 -105.570139,-0.90624 -12.95726,-6.60584 -29.57436,-9.47844 -54.8286096,-9.47844 -34.2136504,0 -84.9383404,10.89251 -97.1914804,20.87113 -3.06227,2.49376 -6.904121,3.19738 -8.538251,1.56325 -4.16816,-4.16816 -24.13356,2.75992 -24.13356,8.37407 0,2.54526 6.72566,3.28253 14.94626,1.6382 14.001981,-2.80019 15.305201,-1.65911 20.611911,18.04932 7.20953,26.7741704 24.00253,55.348681 36.43871,62.004493 7.14885,3.826047 5.53206,-0.678124 -6.23874,-17.377309 -9.85116,-13.9759836 -16.86387,-31.190644 -18.45466,-45.302254 -2.55546,-22.67636 -2.48765,-22.79108 18.50768,-31.19166 28.45929,-11.38759 84.28571,-11.12806 107.48877,0.49916 24.311,12.18176 29.71254,29.68093 18.34759,59.4393504 C 55.048321,24.904554 34.072871,42.52252 6.4293814,47.925078 L -11.861609,51.50027 5.9837614,52.078459 C 43.912301,53.30826 77.756801,22.970626 84.332571,-18.151219 c 3.47321,-21.71934 18.085509,-36.30717 36.231189,-36.17001 17.92746,0.13562 22.37248,6.88882 28.08963,42.67796 3.06226,19.1700004 9.49832,40.282093 14.3023,46.915981 12.4581,17.203444 45.96303,32.687615 70.74056,32.692203 17.27024,0.0036 23.58648,-2.812939 33.96127,-15.143069 z m -9.71196,-16.719579 c 4.10341,-6.309612 9.03383,-23.464619 10.95603,-38.1222956 3.40286,-25.9430804 3.10612,-26.8006804 -11.16712,-32.2950104 -8.06406,-3.10459 -31.29669,-6.93013 -51.62767,-8.50154 l -36.9654,-2.8573 0,26.4086 c 0,42.066629 22.58612,66.208352 62.34101,66.635621 14.23448,0.15296 20.87449,-2.674256 26.46315,-11.268075 z M 26.545191,29.642754 c 27.45433,-14.197265 42.07682,-67.360143 21.50265,-78.176983 -24.86115,-13.07046 -100.44954,-10.70314 -114.74623,3.59354 -7.15344,7.15294 2.35763,40.1138404 16.91486,58.620506 16.92863,21.521004 51.5700504,28.765713 76.32872,15.962937 z M 365.34357,-142.22873 c 24.48792,-56.88951 30.59716,-62.38129 38.82999,-34.90299 3.4207,11.41746 9.29794,20.75875 13.06026,20.75875 3.76282,0 6.8414,-2.21283 6.8414,-4.91768 0,-5.09714 -23.98723,-50.66554 -30.38556,-57.72466 -1.99766,-2.20365 -16.91792,25.3292 -33.15567,61.18412 -16.23776,35.85542 -33.85521,73.593271 -39.15019,83.862521 -7.29009,14.13832 -8.06203,19.22833 -3.18004,20.968 6.63541,2.36425 12.45606,-8.65348 47.13981,-89.228061 z m -418.858819,32.45103 c 68.11628,-74.69663 105.82558,-108.76751 117.34808,-106.02596 6.0404,1.43732 22.45508,4.01521 36.476439,5.72888 l 25.49338,3.1158 -30.395249,-13.47427 c -37.05157,-16.42437 -35.19361,-17.28044 -100.8630396,46.44537 -25.9578704,25.18899 -60.2770604,57.54111 -76.2649804,71.89389 -15.98843,14.352771 -27.626671,27.538971 -25.862521,29.303111 7.1667,7.1669 24.811691,-4.90391 54.067891,-36.986821 z"
       style="fill:#000000"
       id="path5283"
       inkscape:connector-curvature="0" />
  </g>
</svg>
