<?xml version="1.0" encoding="UTF-8" standalone="no"?>
<!-- Created with Inkscape (http://www.inkscape.org/) -->

<svg
   xmlns:dc="http://purl.org/dc/elements/1.1/"
   xmlns:cc="http://creativecommons.org/ns#"
   xmlns:rdf="http://www.w3.org/1999/02/22-rdf-syntax-ns#"
   xmlns:svg="http://www.w3.org/2000/svg"
   xmlns="http://www.w3.org/2000/svg"
   xmlns:xlink="http://www.w3.org/1999/xlink"
   xmlns:sodipodi="http://sodipodi.sourceforge.net/DTD/sodipodi-0.dtd"
   xmlns:inkscape="http://www.inkscape.org/namespaces/inkscape"
   width="502"
   height="435"
   id="svg2"
   version="1.1"
   inkscape:version="0.47pre4 r22446"
   sodipodi:docname="Documento nuevo 1">
  <defs
     id="defs4">
    <linearGradient
       inkscape:collect="always"
       id="linearGradient3711">
      <stop
         style="stop-color:#323232;stop-opacity:1;"
         offset="0"
         id="stop3713" />
      <stop
         style="stop-color:#323232;stop-opacity:0;"
         offset="1"
         id="stop3715" />
    </linearGradient>
    <linearGradient
       inkscape:collect="always"
       id="linearGradient3703">
      <stop
         style="stop-color:#2e3436;stop-opacity:1;"
         offset="0"
         id="stop3705" />
      <stop
         style="stop-color:#2e3436;stop-opacity:0;"
         offset="1"
         id="stop3707" />
    </linearGradient>
    <linearGradient
       inkscape:collect="always"
       id="linearGradient3664">
      <stop
         style="stop-color:#f2ebd2;stop-opacity:1"
         offset="0"
         id="stop3666" />
      <stop
         style="stop-color:#e2d49c;stop-opacity:1"
         offset="1"
         id="stop3668" />
    </linearGradient>
    <linearGradient
       inkscape:collect="always"
       id="linearGradient3592">
      <stop
         style="stop-color:#ffffff;stop-opacity:1"
         offset="0"
         id="stop3594" />
      <stop
         style="stop-color:#b59100;stop-opacity:1"
         offset="1"
         id="stop3596" />
    </linearGradient>
    <inkscape:perspective
       sodipodi:type="inkscape:persp3d"
       inkscape:vp_x="0 : 526.18109 : 1"
       inkscape:vp_y="0 : 1000 : 0"
       inkscape:vp_z="744.09448 : 526.18109 : 1"
       inkscape:persp3d-origin="372.04724 : 350.78739 : 1"
       id="perspective10" />
    <linearGradient
       inkscape:collect="always"
       xlink:href="#linearGradient3592"
       id="linearGradient3598"
       x1="-157.14285"
       y1="255.21933"
       x2="-140"
       y2="1083.7908"
       gradientUnits="userSpaceOnUse" />
    <linearGradient
       inkscape:collect="always"
       xlink:href="#linearGradient3664"
       id="linearGradient3670"
       x1="218"
       y1="314.36218"
       x2="384"
       y2="604.06049"
       gradientUnits="userSpaceOnUse" />
    <linearGradient
       inkscape:collect="always"
       xlink:href="#linearGradient3703"
       id="linearGradient3709"
       x1="282.43954"
       y1="317.81381"
       x2="250.97491"
       y2="283.68015"
       gradientUnits="userSpaceOnUse" />
    <linearGradient
       inkscape:collect="always"
       xlink:href="#linearGradient3711"
       id="linearGradient3717"
       x1="284.94632"
       y1="314.86322"
       x2="250.97491"
       y2="285.66864"
       gradientUnits="userSpaceOnUse" />
    <filter
       inkscape:collect="always"
       id="filter3737"
       color-interpolation-filters="sRGB">
      <feGaussianBlur
         inkscape:collect="always"
         stdDeviation="1.586875"
         id="feGaussianBlur3739" />
    </filter>
    <filter
       inkscape:collect="always"
       id="filter3741"
       color-interpolation-filters="sRGB">
      <feGaussianBlur
         inkscape:collect="always"
         stdDeviation="1.586875"
         id="feGaussianBlur3743" />
    </filter>
    <linearGradient
       inkscape:collect="always"
       xlink:href="#linearGradient3664"
       id="linearGradient3783"
       gradientUnits="userSpaceOnUse"
       x1="218"
       y1="314.36218"
       x2="384"
       y2="604.06049" />
    <linearGradient
       inkscape:collect="always"
       xlink:href="#linearGradient3703"
       id="linearGradient3785"
       gradientUnits="userSpaceOnUse"
       x1="282.43954"
       y1="317.81381"
       x2="250.97491"
       y2="283.68015" />
    <linearGradient
       inkscape:collect="always"
       xlink:href="#linearGradient3711"
       id="linearGradient3787"
       gradientUnits="userSpaceOnUse"
       x1="284.94632"
       y1="314.86322"
       x2="250.97491"
       y2="285.66864" />
    <filter
       inkscape:collect="always"
       id="filter3789"
       color-interpolation-filters="sRGB">
      <feGaussianBlur
         inkscape:collect="always"
         stdDeviation="1.7571428"
         id="feGaussianBlur3791" />
    </filter>
  </defs>
  <sodipodi:namedview
     id="base"
     pagecolor="#ffffff"
     bordercolor="#666666"
     borderopacity="1.0"
     inkscape:pageopacity="0.0"
     inkscape:pageshadow="2"
     inkscape:zoom="0.5"
     inkscape:cx="354.53301"
     inkscape:cy="98.855667"
     inkscape:document-units="px"
     inkscape:current-layer="g3759"
     showgrid="false"
     showguides="true"
     inkscape:guide-bbox="true"
     inkscape:window-width="1280"
     inkscape:window-height="950"
     inkscape:window-x="0"
     inkscape:window-y="25"
     inkscape:window-maximized="1" />
  <metadata
     id="metadata7">
    <rdf:RDF>
      <cc:Work
         rdf:about="">
        <dc:format>image/svg+xml</dc:format>
        <dc:type
           rdf:resource="http://purl.org/dc/dcmitype/StillImage" />
        <dc:title></dc:title>
      </cc:Work>
    </rdf:RDF>
  </metadata>
  <g
     inkscape:label="Capa 1"
     inkscape:groupmode="layer"
     id="layer1"
     transform="translate(-50,-209.36218)">
    <rect
       style="opacity:0.2;fill:#638000;fill-opacity:1;stroke:none"
       id="rect3719"
       width="502"
       height="435"
       x="50"
       y="209.36218" />
    <g
       id="g3759"
       transform="translate(11.251136,0)">
      <rect
         style="opacity:0.2;fill:#2e3436;fill-opacity:1;stroke:none;filter:url(#filter3789)"
         id="rect3662"
         width="351.42856"
         height="351.42856"
         x="121.12767"
         y="260.41013"
         ry="59.537754" />
      <rect
         ry="59.537754"
         y="252.63194"
         x="108.39974"
         height="351.42856"
         width="351.42856"
         id="rect2816"
         style="fill:url(#linearGradient3783);fill-opacity:1;stroke:none" />
      <path
         id="path3605"
         d="m 166.75,256.1875 c -31.06924,0 -56,24.90176 -56,55.96875 l 0,232.34375 c 0,10.68397 3.04802,20.57328 8.1875,29.03125 -1.33417,-5.11261 -2.21875,-10.40451 -2.21875,-15.9375 l 0,-232.34375 c 0,-34.8986 28.19515,-63.09375 63.09375,-63.09375 l 232.375,0 c 5.54201,0 10.84772,0.88623 15.96875,2.21875 -8.46561,-5.14343 -18.36814,-8.1875 -29.0625,-8.1875 l -232.34375,0 z"
         style="fill:#f8f5e7;fill-opacity:1;stroke:none;filter:url(#filter3737)" />
      <path
         style="fill:#dbc981;fill-opacity:1;stroke:none;filter:url(#filter3741)"
         d="m 398.32426,600.88871 c 31.06924,0 56,-24.90176 56,-55.96875 l 0,-232.34375 c 0,-10.68397 -3.04802,-20.57328 -8.1875,-29.03125 1.33417,5.11261 2.21875,10.40451 2.21875,15.9375 l 0,232.34375 c 0,34.8986 -28.19515,63.09375 -63.09375,63.09375 l -232.375,0 c -5.54201,0 -10.84772,-0.88623 -15.96875,-2.21875 8.46561,5.14343 18.36814,8.1875 29.0625,8.1875 l 232.34375,0 z"
         id="path3608" />
      <rect
         ry="13.561591"
         y="361.6684"
         x="251.90524"
         height="133.35565"
         width="64.417557"
         id="rect3610"
         style="opacity:0.6;fill:#2e3436;fill-opacity:1;stroke:none" />
      <path
         transform="matrix(-0.86488558,0,0,-0.86488558,519.69597,557.90259)"
         d="m 293.79528,299.43741 c 0,11.82452 -9.58566,21.41018 -21.41018,21.41018 -11.82452,0 -21.41018,-9.58566 -21.41018,-21.41018 0,-11.82452 9.58566,-21.41018 21.41018,-21.41018 11.82452,0 21.41018,9.58566 21.41018,21.41018 z"
         sodipodi:ry="21.410183"
         sodipodi:rx="21.410183"
         sodipodi:cy="299.43741"
         sodipodi:cx="272.3851"
         id="path3612"
         style="opacity:0.2;fill:url(#linearGradient3785);fill-opacity:1;stroke:none"
         sodipodi:type="arc" />
      <g
         transform="matrix(0.83997379,0.29296101,-0.29296101,0.83997379,112.20076,31.730253)"
         id="g3636">
        <path
           transform="matrix(0.772911,0.22699855,-0.22699855,0.772911,138.74842,-73.525539)"
           d="m 293.79528,299.43741 c 0,11.82452 -9.58566,21.41018 -21.41018,21.41018 -11.82452,0 -21.41018,-9.58566 -21.41018,-21.41018 0,-11.82452 9.58566,-21.41018 21.41018,-21.41018 11.82452,0 21.41018,9.58566 21.41018,21.41018 z"
           sodipodi:ry="21.410183"
           sodipodi:rx="21.410183"
           sodipodi:cy="299.43741"
           sodipodi:cx="272.3851"
           id="path3614"
           style="fill:#babdb6;fill-opacity:1;stroke:none"
           sodipodi:type="arc" />
        <path
           style="fill:#888a85;fill-opacity:1;stroke:none"
           d="m 281.3125,202.5 c -1.53835,0 -3.01816,0.21587 -4.4375,0.59375 l 0,33.3125 c 1.41934,0.37788 2.89915,0.59375 4.4375,0.59375 0.0519,0 0.10445,4.9e-4 0.15625,0 l 0,-34.5 c -0.0518,-4.9e-4 -0.10432,0 -0.15625,0 z"
           id="rect3624" />
        <path
           id="path3634"
           d="m 281.4917,202.5 c 1.53835,0 3.01816,0.21587 4.4375,0.59375 l 0,33.3125 C 284.50986,236.78413 283.03005,237 281.4917,237 c -0.0519,0 -0.10445,4.9e-4 -0.15625,0 l 0,-34.5 c 0.0518,-4.9e-4 0.10432,0 0.15625,0 z"
           style="fill:#d3d7cf;fill-opacity:1;stroke:none" />
      </g>
      <g
         transform="translate(6.6491176,0)"
         id="g3653">
        <path
           transform="matrix(-0.86488558,0,0,-0.86488558,513.04685,804.68286)"
           d="m 293.79528,299.43741 c 0,11.82452 -9.58566,21.41018 -21.41018,21.41018 -11.82452,0 -21.41018,-9.58566 -21.41018,-21.41018 0,-11.82452 9.58566,-21.41018 21.41018,-21.41018 11.82452,0 21.41018,9.58566 21.41018,21.41018 z"
           sodipodi:ry="21.410183"
           sodipodi:rx="21.410183"
           sodipodi:cy="299.43741"
           sodipodi:cx="272.3851"
           id="path3641"
           style="opacity:0.2;fill:url(#linearGradient3787);fill-opacity:1;stroke:none"
           sodipodi:type="arc" />
        <g
           transform="matrix(0.83997379,0.29296101,-0.29296101,0.83997379,105.94326,278.51052)"
           id="g3643">
          <path
             transform="matrix(0.772911,0.22699855,-0.22699855,0.772911,138.74842,-73.525539)"
             d="m 293.79528,299.43741 c 0,11.82452 -9.58566,21.41018 -21.41018,21.41018 -11.82452,0 -21.41018,-9.58566 -21.41018,-21.41018 0,-11.82452 9.58566,-21.41018 21.41018,-21.41018 11.82452,0 21.41018,9.58566 21.41018,21.41018 z"
             sodipodi:ry="21.410183"
             sodipodi:rx="21.410183"
             sodipodi:cy="299.43741"
             sodipodi:cx="272.3851"
             id="path3645"
             style="fill:#babdb6;fill-opacity:1;stroke:none"
             sodipodi:type="arc" />
          <path
             style="fill:#888a85;fill-opacity:1;stroke:none"
             d="m 281.3125,202.5 c -1.53835,0 -3.01816,0.21587 -4.4375,0.59375 l 0,33.3125 c 1.41934,0.37788 2.89915,0.59375 4.4375,0.59375 0.0519,0 0.10445,4.9e-4 0.15625,0 l 0,-34.5 c -0.0518,-4.9e-4 -0.10432,0 -0.15625,0 z"
             id="path3647" />
          <path
             id="path3649"
             d="m 281.4917,202.5 c 1.53835,0 3.01816,0.21587 4.4375,0.59375 l 0,33.3125 C 284.50986,236.78413 283.03005,237 281.4917,237 c -0.0519,0 -0.10445,4.9e-4 -0.15625,0 l 0,-34.5 c 0.0518,-4.9e-4 0.10432,0 0.15625,0 z"
             style="fill:#d3d7cf;fill-opacity:1;stroke:none" />
        </g>
      </g>
      <path
         sodipodi:nodetypes="cccccccccccc"
         id="rect3700"
         d="m 272.89145,366.97171 37.29437,0 c 7.51312,0 13.56159,6.04847 13.56159,13.56159 l 0,3.61298 -4,46.66904 4,45.25484 0,10.69561 c 0,7.51312 -6.04847,13.56159 -13.56159,13.56159 l -37.29437,0 c -7.51312,0 -13.56159,-6.04847 -13.56159,-13.56159 l 0,-106.23247 c 0,-7.51312 6.04847,-13.56159 13.56159,-13.56159 z"
         style="opacity:0.2;fill:#2e3436;fill-opacity:1;stroke:none" />
      <g
         transform="translate(-56.853552,279.35355)"
         id="g3694">
        <path
           style="fill:#e8dcb0;fill-opacity:1;stroke:none"
           d="m 371.3125,194.03125 -60.40625,0 0,4.84375 c 0,7.28777 5.86848,13.15625 13.15625,13.15625 l 34.09375,0 c 7.28777,0 13.15625,-5.86848 13.15625,-13.15625 l 0,-4.84375 z"
           id="path3690" />
        <path
           style="fill:#f8f5e7;fill-opacity:1;stroke:none"
           d="m 371.3125,146.98097 -60.40625,0 0,46.6875 60.40625,0 0,-46.6875 z"
           id="path3688" />
        <path
           style="fill:#f8f5e7;fill-opacity:1;stroke:none"
           d="m 324.0625,82.65625 c -7.28777,0 -13.15625,5.868484 -13.15625,13.15625 l 0,4.84375 60.40625,0 0,-4.84375 c 0,-7.287766 -5.86848,-13.15625 -13.15625,-13.15625 l -34.09375,0 z"
           id="rect3674" />
        <path
           id="path3692"
           d="m 371.3125,100.66548 -60.40625,0 0,46.6875 60.40625,0 0,-46.6875 z"
           style="fill:#e8dcb0;fill-opacity:1;stroke:none" />
      </g>
    </g>
  </g>
</svg>
