<?xml version="1.0" encoding="UTF-8" standalone="no"?>
<svg
   xmlns:dc="http://purl.org/dc/elements/1.1/"
   xmlns:cc="http://creativecommons.org/ns#"
   xmlns:rdf="http://www.w3.org/1999/02/22-rdf-syntax-ns#"
   xmlns:svg="http://www.w3.org/2000/svg"
   xmlns="http://www.w3.org/2000/svg"
   xmlns:sodipodi="http://sodipodi.sourceforge.net/DTD/sodipodi-0.dtd"
   xmlns:inkscape="http://www.inkscape.org/namespaces/inkscape"
   version="1.0"
   width="61.349998mm"
   height="59.16mm"
   id="0"
   inkscape:version="0.47 r22583"
   sodipodi:docname="THERMO01.emf">
  <metadata
     id="metadata16">
    <rdf:RDF>
      <cc:Work
         rdf:about="">
        <dc:format>image/svg+xml</dc:format>
        <dc:type
           rdf:resource="http://purl.org/dc/dcmitype/StillImage" />
        <dc:title></dc:title>
      </cc:Work>
    </rdf:RDF>
  </metadata>
  <defs
     id="defs14">
    <inkscape:perspective
       sodipodi:type="inkscape:persp3d"
       inkscape:vp_x="0 : 104.81102 : 1"
       inkscape:vp_y="0 : 1000 : 0"
       inkscape:vp_z="217.38188 : 104.81102 : 1"
       inkscape:persp3d-origin="108.69094 : 69.874013 : 1"
       id="perspective18" />
  </defs>
  <sodipodi:namedview
     pagecolor="#ffffff"
     bordercolor="#666666"
     borderopacity="1"
     objecttolerance="10"
     gridtolerance="10"
     guidetolerance="10"
     inkscape:pageopacity="0"
     inkscape:pageshadow="2"
     inkscape:window-width="640"
     inkscape:window-height="483"
     id="namedview12"
     showgrid="false"
     inkscape:zoom="1.1258358"
     inkscape:cx="108.69094"
     inkscape:cy="104.81102"
     inkscape:window-x="312"
     inkscape:window-y="187"
     inkscape:window-maximized="0"
     inkscape:current-layer="0" />
  <g
     id="1">
    <path
       id="2"
       style="fill:#ffffff;fill-rule:evenodd;fill-opacity:1;stroke:#000000;stroke-width:1.265565px;stroke-linecap:round;stroke-linejoin:round;stroke-dasharray:none;stroke-opacity:1;"
       d="  M 194.85482 11.050498   L 172.74962 33.151494   L 168.23577 32.181412   L 164.73438 31.801814   L 161.06424 31.801814   L 157.35192 32.350122   L 153.72396 33.531091   L 150.56005 35.176012   L 147.48051 37.622306   L 145.20249 40.068599   L 5.821599 179.42297   L 5.1044455 182.03797   L 4.893518 183.76725   L 5.0200745 186.04483   L 5.568486 188.32242   L 6.8762365 191.06395   L 8.7323985 193.63678   L 12.19161 197.26404   L 17.042942 200.97566   L 20.797452 203.00018   L 23.750437 204.05461   L 26.99872 204.6451   L 28.812697 204.77163   L 32.482835 204.68728   L 36.363901 204.18115   L 41.468347 202.87364   L 45.813453 201.35526   L 47.205575 200.76477   L 185.23653 62.675725   L 185.86931 60.398141   L 186.12243 58.457977   L 186.03806 55.421199   L 185.48964 52.257889   L 184.26626 48.293206   L 182.45229 44.201991   L 209.99942 16.617924   L 194.85482 11.050498  z " />
    <path
       id="3"
       style="fill:none;stroke:#000000;stroke-width:2.4889445px;stroke-linecap:round;stroke-linejoin:round;stroke-dasharray:none;stroke-opacity:1;"
       d="  M 48.049285 146.81978   L 75.005819 161.87714  " />
    <path
       id="4"
       style="fill:none;stroke:#000000;stroke-width:2.4889445px;stroke-linecap:round;stroke-linejoin:round;stroke-dasharray:none;stroke-opacity:1;"
       d="  M 70.281043 124.21266   L 97.279763 139.31219  " />
    <path
       id="5"
       style="fill:none;stroke:#000000;stroke-width:2.4889445px;stroke-linecap:round;stroke-linejoin:round;stroke-dasharray:none;stroke-opacity:1;"
       d="  M 94.158036 101.68989   L 121.15676 116.74724  " />
    <path
       id="6"
       style="fill:none;stroke:#000000;stroke-width:2.4889445px;stroke-linecap:round;stroke-linejoin:round;stroke-dasharray:none;stroke-opacity:1;"
       d="  M 116.76946 78.450099   L 143.76818 93.507457  " />
    <path
       id="7"
       style="fill:none;stroke:#000000;stroke-width:2.4889445px;stroke-linecap:round;stroke-linejoin:round;stroke-dasharray:none;stroke-opacity:1;"
       d="  M 140.60427 55.210312   L 167.60299 70.26767  " />
    <path
       id="8"
       style="fill:#ff0000;fill-rule:evenodd;fill-opacity:1;stroke:#000000;stroke-width:0.0421855px;stroke-linecap:round;stroke-linejoin:round;stroke-dasharray:none;stroke-opacity:1;"
       d="  M 196.79536 13.538969   L 42.818283 167.48674   L 39.780927 166.47449   L 37.038869 165.96836   L 34.085884 165.96836   L 31.386012 166.47449   L 28.559584 167.65545   L 26.112825 169.2582   L 24.00355 171.57796   L 22.695799 173.81337   L 21.978646 175.66917   L 21.598976 177.65152   L 21.598976 179.67603   L 22.020831 182.24886   L 22.948912 184.82169   L 24.636332 187.2258   L 26.787793 189.25032   L 29.150181 190.68435   L 31.807867 191.69661   L 34.718667 192.16057   L 37.207611 192.07621   L 40.160596 191.31702   L 43.324509 189.84081   L 45.391598 188.40677   L 47.205575 186.25572   L 48.682067 183.42983   L 49.399221 180.47741   L 49.441406 178.70595   L 49.357035 177.06103   L 48.639882 174.36167   L 48.386769 173.72901   L 205.82305 16.280504   L 196.79536 13.538969  z " />
    <path
       id="9"
       style="fill:#e0e0e0;fill-rule:evenodd;fill-opacity:1;stroke:#000000;stroke-width:0.0421855px;stroke-linecap:round;stroke-linejoin:round;stroke-dasharray:none;stroke-opacity:1;"
       d="  M 212.48836 16.111795   L 201.81543 26.69834   L 185.44746 18.515911   L 195.02357 8.8572693   L 198.01874 6.6640407   L 200.67642 5.2300066   L 203.24974 4.4286346   L 205.23246 4.2177473   L 207.4261 4.5129896   L 209.28227 5.1878292   L 211.01187 6.2000885   L 212.19307 7.5075902   L 212.82585 8.8150918   L 213.20552 10.881788   L 213.07896 13.370259   L 212.48836 16.111795  z " />
  </g>
</svg>
