<?xml version="1.0" encoding="UTF-8" standalone="no"?>
<!-- Created with Inkscape (http://www.inkscape.org/) -->
<svg xmlns:dc="http://purl.org/dc/elements/1.1/" xmlns:cc="http://creativecommons.org/ns#" xmlns:rdf="http://www.w3.org/1999/02/22-rdf-syntax-ns#" xmlns:svg="http://www.w3.org/2000/svg" xmlns="http://www.w3.org/2000/svg" xmlns:xlink="http://www.w3.org/1999/xlink" version="1.1" width="333.33179" height="370.99597" id="svg2">
  <defs id="defs3">
    <linearGradient id="linearGradient3794">
      <stop id="stop3796" style="stop-color:#ff9999;stop-opacity:1" offset="0"/>
      <stop id="stop3798" style="stop-color:#ffcaca;stop-opacity:1" offset="1"/>
    </linearGradient>
    <linearGradient id="linearGradient3770">
      <stop id="stop3772" style="stop-color:#b2ac92;stop-opacity:1" offset="0"/>
      <stop id="stop3774" style="stop-color:#948c69;stop-opacity:1" offset="1"/>
    </linearGradient>
    <linearGradient id="linearGradient3762">
      <stop id="stop3764" style="stop-color:#ff6868;stop-opacity:1" offset="0"/>
      <stop id="stop3766" style="stop-color:#ffafaf;stop-opacity:1" offset="1"/>
    </linearGradient>
    <linearGradient id="linearGradient3701">
      <stop id="stop3703" style="stop-color:#ffffff;stop-opacity:1" offset="0"/>
      <stop id="stop3705" style="stop-color:#d9d9d9;stop-opacity:1" offset="1"/>
    </linearGradient>
    <linearGradient id="linearGradient3691">
      <stop id="stop3693" style="stop-color:#a2ffa2;stop-opacity:1" offset="0"/>
      <stop id="stop3695" style="stop-color:#008000;stop-opacity:1" offset="1"/>
    </linearGradient>
    <radialGradient cx="527.15515" cy="-40.729168" r="145.71428" fx="527.15515" fy="-40.729168" id="radialGradient3742" xlink:href="#linearGradient3701" gradientUnits="userSpaceOnUse" gradientTransform="matrix(1,0,0,0.91176478,0,-1.0520755)"/>
    <radialGradient cx="579.28571" cy="-17.747707" r="80" fx="579.28571" fy="-17.747707" id="radialGradient3744" xlink:href="#linearGradient3691" gradientUnits="userSpaceOnUse" gradientTransform="matrix(1,0,0,0.78571429,0,0.81230442)"/>
    <radialGradient cx="527.15515" cy="-40.729168" r="145.71428" fx="527.15515" fy="-40.729168" id="radialGradient3754" xlink:href="#linearGradient3701" gradientUnits="userSpaceOnUse" gradientTransform="matrix(1,0,0,0.91176478,0,-1.0520755)"/>
    <radialGradient cx="579.28571" cy="-17.747707" r="80" fx="579.28571" fy="-17.747707" id="radialGradient3756" xlink:href="#linearGradient3691" gradientUnits="userSpaceOnUse" gradientTransform="matrix(1,0,0,0.78571429,0,0.81230442)"/>
    <radialGradient cx="308.73874" cy="699.60822" r="50.504402" fx="308.73874" fy="699.60822" id="radialGradient3768" xlink:href="#linearGradient3762" gradientUnits="userSpaceOnUse" gradientTransform="matrix(1,0,0,0.9593485,0,28.440124)"/>
    <radialGradient cx="315.09076" cy="633.57025" r="135.71428" fx="368.17752" fy="672.2536" id="radialGradient3776" xlink:href="#linearGradient3770" gradientUnits="userSpaceOnUse" gradientTransform="matrix(1,0,0,0.64210532,0,231.94312)"/>
    <linearGradient x1="194.28571" y1="466.64789" x2="325.71429" y2="466.64789" id="linearGradient3784" xlink:href="#linearGradient3770" gradientUnits="userSpaceOnUse"/>
    <linearGradient x1="194.28571" y1="466.64789" x2="325.71429" y2="466.64789" id="linearGradient3792" xlink:href="#linearGradient3770" gradientUnits="userSpaceOnUse"/>
    <radialGradient cx="429.58896" cy="512.22504" r="43.023708" fx="429.58896" fy="512.22504" id="radialGradient3800" xlink:href="#linearGradient3794" gradientUnits="userSpaceOnUse" gradientTransform="matrix(0.90899809,0.41680029,-1.0000003,2.1808966,525.58437,-755.14018)"/>
    <radialGradient cx="254.60164" cy="535.24677" r="79.060593" fx="254.60164" fy="535.24677" id="radialGradient3802" xlink:href="#linearGradient3794" gradientUnits="userSpaceOnUse" gradientTransform="matrix(0.71986466,-0.69411445,1,1.037098,-421.38772,161.15491)"/>
    <linearGradient x1="194.28571" y1="466.64789" x2="325.71429" y2="466.64789" id="linearGradient3042" xlink:href="#linearGradient3770" gradientUnits="userSpaceOnUse"/>
    <linearGradient x1="194.28571" y1="466.64789" x2="325.71429" y2="466.64789" id="linearGradient3044" xlink:href="#linearGradient3770" gradientUnits="userSpaceOnUse"/>
    <radialGradient cx="254.60164" cy="535.24677" r="79.060593" fx="254.60164" fy="535.24677" id="radialGradient3046" xlink:href="#linearGradient3794" gradientUnits="userSpaceOnUse" gradientTransform="matrix(0.71986466,-0.69411445,1,1.037098,-421.38772,161.15491)"/>
    <radialGradient cx="429.58896" cy="512.22504" r="43.023708" fx="429.58896" fy="512.22504" id="radialGradient3048" xlink:href="#linearGradient3794" gradientUnits="userSpaceOnUse" gradientTransform="matrix(0.90899809,0.41680029,-1.0000003,2.1808966,525.58437,-755.14018)"/>
    <radialGradient cx="315.09076" cy="633.57025" r="135.71428" fx="368.17752" fy="672.2536" id="radialGradient3050" xlink:href="#linearGradient3770" gradientUnits="userSpaceOnUse" gradientTransform="matrix(1,0,0,0.64210532,0,231.94312)"/>
    <radialGradient cx="527.15515" cy="-40.729168" r="145.71428" fx="527.15515" fy="-40.729168" id="radialGradient3052" xlink:href="#linearGradient3701" gradientUnits="userSpaceOnUse" gradientTransform="matrix(1,0,0,0.91176478,0,-1.0520755)"/>
    <radialGradient cx="579.28571" cy="-17.747707" r="80" fx="579.28571" fy="-17.747707" id="radialGradient3054" xlink:href="#linearGradient3691" gradientUnits="userSpaceOnUse" gradientTransform="matrix(1,0,0,0.78571429,0,0.81230442)"/>
    <radialGradient cx="527.15515" cy="-40.729168" r="145.71428" fx="527.15515" fy="-40.729168" id="radialGradient3056" xlink:href="#linearGradient3701" gradientUnits="userSpaceOnUse" gradientTransform="matrix(1,0,0,0.91176478,0,-1.0520755)"/>
    <radialGradient cx="579.28571" cy="-17.747707" r="80" fx="579.28571" fy="-17.747707" id="radialGradient3058" xlink:href="#linearGradient3691" gradientUnits="userSpaceOnUse" gradientTransform="matrix(1,0,0,0.78571429,0,0.81230442)"/>
    <radialGradient cx="308.73874" cy="699.60822" r="50.504402" fx="308.73874" fy="699.60822" id="radialGradient3060" xlink:href="#linearGradient3762" gradientUnits="userSpaceOnUse" gradientTransform="matrix(1,0,0,0.9593485,0,28.440124)"/>
  </defs>
  <g transform="translate(-162.12047,-374.22333)" id="layer1">
    <g id="g3024">
      <path d="m 325.71429,466.64789 a 65.714287,165.71428 0 1 1 -131.42858,0 65.714287,165.71428 0 1 1 131.42858,0 z" transform="matrix(0.5128034,-0.52893556,0.54518313,0.56480209,-129.16601,367.75028)" id="path2831" style="fill:url(#linearGradient3042);fill-opacity:1;stroke:none"/>
      <path d="m 325.71429,466.64789 a 65.714287,165.71428 0 1 1 -131.42858,0 65.714287,165.71428 0 1 1 131.42858,0 z" transform="matrix(0.58336784,0.32265063,-0.28434527,0.66195581,415.7191,93.180499)" id="path2833" style="fill:url(#linearGradient3044);fill-opacity:1;stroke:none"/>
      <path d="m 181.22669,412.64917 c -4.91745,9.83797 1.98118,20.35489 4.8024,29.77339 20.23705,46.83038 57.44387,84.08641 98.15339,113.65742 15.10507,10.1313 32.0472,19.61212 50.67603,19.73488 5.40066,-4.61316 1.35261,-12.64434 0.6862,-18.44887 -7.52162,-26.21875 -24.43843,-48.56556 -41.03065,-69.70949 -25.22464,-29.97307 -55.89782,-56.49905 -91.93338,-72.35194 -6.70272,-2.50016 -14.298,-4.73583 -21.35399,-2.65539 z" id="path3647" style="fill:url(#radialGradient3046);fill-opacity:1;stroke:none"/>
      <path d="m 472.875,392.19643 c -18.48729,6.13429 -28.36116,24.71871 -39.28505,39.37607 -25.35731,40.15023 -42.80507,86.76366 -41.83995,134.81143 0.5065,4.69029 0.78862,10.46641 4.9375,13.46875 10.41364,-2.65017 17.28055,-12.21202 24.48789,-19.45241 23.17924,-27.65285 38.07889,-61.30754 48.63711,-95.42259 6.22525,-22.23303 10.68063,-45.97774 6,-68.90625 -0.53117,-1.32713 -1.11222,-3.99958 -2.9375,-3.875 z" id="path3667" style="fill:url(#radialGradient3048);fill-opacity:1;stroke:none"/>
      <path d="m 474.28572,648.07648 a 135.71428,87.14286 0 1 1 -271.42856,0 135.71428,87.14286 0 1 1 271.42856,0 z" transform="matrix(0.74210522,0,0,1.057377,105.17294,-32.184711)" id="path2829" style="fill:url(#radialGradient3050);fill-opacity:1;stroke:none"/>
      <g transform="translate(-37.142857,148.57143)" id="g3737">
        <path d="m 714.28569,-11.923532 a 145.71428,132.85715 0 1 1 -291.42856,0 145.71428,132.85715 0 1 1 291.42856,0 z" transform="matrix(0.16223587,0,0,0.19232951,256.24582,481.55639)" id="path3687" style="fill:url(#radialGradient3052);fill-opacity:1;stroke:#000000"/>
        <path d="m 682.85712,3.7907541 a 80,62.857143 0 1 1 -160,0 80,62.857143 0 1 1 160,0 z" transform="matrix(0.16225064,0,0,0.19573943,255.87575,490.10516)" id="path3689" style="fill:url(#radialGradient3054);fill-opacity:1;stroke:#000000"/>
        <path d="m 642.85714,26.647898 a 22.857143,25.714285 0 1 1 -45.71428,0 22.857143,25.714285 0 1 1 45.71428,0 z" transform="matrix(0.16230893,0,0,0.14869068,253.77616,487.82138)" id="path3699" style="fill:#000000;fill-opacity:1;stroke:#000000"/>
      </g>
      <g transform="translate(35.714286,150)" id="g3746">
        <path d="m 714.28569,-11.923532 a 145.71428,132.85715 0 1 1 -291.42856,0 145.71428,132.85715 0 1 1 291.42856,0 z" transform="matrix(0.16223587,0,0,0.19232951,256.24582,481.55639)" id="path3748" style="fill:url(#radialGradient3056);fill-opacity:1;stroke:#000000"/>
        <path d="m 682.85712,3.7907541 a 80,62.857143 0 1 1 -160,0 80,62.857143 0 1 1 160,0 z" transform="matrix(0.16225064,0,0,0.19573943,255.87575,490.10516)" id="path3750" style="fill:url(#radialGradient3058);fill-opacity:1;stroke:#000000"/>
        <path d="m 642.85714,26.647898 a 22.857143,25.714285 0 1 1 -45.71428,0 22.857143,25.714285 0 1 1 45.71428,0 z" transform="matrix(0.16230893,0,0,0.14869068,253.77616,487.82138)" id="path3752" style="fill:#000000;fill-opacity:1;stroke:#000000"/>
      </g>
      <path d="m 357.95529,732.87646 c -7.30232,14.96165 -88.39006,20.60971 -97.69607,6.80489 -9.30601,-13.80482 26.34649,-86.85289 42.95483,-88.00973 16.60833,-1.15683 62.04356,66.24318 54.74124,81.20484 z" transform="matrix(0.19614144,-0.30455355,0.29106303,0.20523243,84.837133,609.34531)" id="path3758" style="fill:url(#radialGradient3060);fill-opacity:1;stroke:#000000;stroke-width:1;stroke-linecap:round;stroke-linejoin:round;stroke-miterlimit:4;stroke-opacity:1;stroke-dasharray:none;stroke-dashoffset:0"/>
      <path d="m 333.37502,695.6478 15.28568,-1.47983 -0.39562,19.60012 -8.4727,0.99313 -6.41736,-19.11342 z" id="rect3807" style="fill:#ffffff;fill-opacity:1;stroke:#000000;stroke-width:1;stroke-linecap:round;stroke-linejoin:round;stroke-miterlimit:4;stroke-opacity:1;stroke-dashoffset:0"/>
      <path d="m 366.08077,695.66297 -16.50514,-1.58843 -0.5084,19.6598 10.23792,0.918 6.77562,-18.98937 z" id="path3810" style="fill:#ffffff;fill-opacity:1;stroke:#000000;stroke-width:1;stroke-linecap:round;stroke-linejoin:round;stroke-miterlimit:4;stroke-opacity:1;stroke-dashoffset:0"/>
    </g>
  </g>
  <metadata>
    <rdf:RDF>
      <cc:Work>
        <dc:format>image/svg+xml</dc:format>
        <dc:type rdf:resource="http://purl.org/dc/dcmitype/StillImage"/>
        <cc:license rdf:resource="http://creativecommons.org/licenses/publicdomain/"/>
        <dc:publisher>
          <cc:Agent rdf:about="http://openclipart.org/">
            <dc:title>Open Clip Art Library</dc:title>
          </cc:Agent>
        </dc:publisher>
        <dc:title>rabbit</dc:title>
        <dc:date>2013-01-10T17:37:18</dc:date>
        <dc:description/>
        <dc:source>http://openclipart.org/detail/174172/rabbit-by-jarda-174172</dc:source>
        <dc:creator>
          <cc:Agent>
            <dc:title>jarda</dc:title>
          </cc:Agent>
        </dc:creator>
        <dc:subject>
          <rdf:Bag>
            <rdf:li>clip art</rdf:li>
            <rdf:li>clipart</rdf:li>
            <rdf:li>easter</rdf:li>
            <rdf:li>rabbit</rdf:li>
          </rdf:Bag>
        </dc:subject>
      </cc:Work>
      <cc:License rdf:about="http://creativecommons.org/licenses/publicdomain/">
        <cc:permits rdf:resource="http://creativecommons.org/ns#Reproduction"/>
        <cc:permits rdf:resource="http://creativecommons.org/ns#Distribution"/>
        <cc:permits rdf:resource="http://creativecommons.org/ns#DerivativeWorks"/>
      </cc:License>
    </rdf:RDF>
  </metadata>
</svg>
