<?xml version="1.0" encoding="UTF-8" standalone="no"?>
<!-- Created with Inkscape (http://www.inkscape.org/) -->

<svg
   xmlns:dc="http://purl.org/dc/elements/1.1/"
   xmlns:cc="http://creativecommons.org/ns#"
   xmlns:rdf="http://www.w3.org/1999/02/22-rdf-syntax-ns#"
   xmlns:svg="http://www.w3.org/2000/svg"
   xmlns="http://www.w3.org/2000/svg"
   xmlns:sodipodi="http://sodipodi.sourceforge.net/DTD/sodipodi-0.dtd"
   xmlns:inkscape="http://www.inkscape.org/namespaces/inkscape"
   width="299.67758"
   height="126.01743"
   id="svg3936"
   version="1.1"
   inkscape:version="0.48.1 r9760"
   sodipodi:docname="Nouveau document 12">
  <defs
     id="defs3938" />
  <sodipodi:namedview
     id="base"
     pagecolor="#ffffff"
     bordercolor="#666666"
     borderopacity="1.0"
     inkscape:pageopacity="0.0"
     inkscape:pageshadow="2"
     inkscape:zoom="1.979899"
     inkscape:cx="67.025357"
     inkscape:cy="-3.2773293"
     inkscape:document-units="px"
     inkscape:current-layer="layer1"
     showgrid="false"
     fit-margin-top="0"
     fit-margin-left="0"
     fit-margin-right="0"
     fit-margin-bottom="0"
     inkscape:window-width="1680"
     inkscape:window-height="1026"
     inkscape:window-x="0"
     inkscape:window-y="0"
     inkscape:window-maximized="1" />
  <metadata
     id="metadata3941">
    <rdf:RDF>
      <cc:Work
         rdf:about="">
        <dc:format>image/svg+xml</dc:format>
        <dc:type
           rdf:resource="http://purl.org/dc/dcmitype/StillImage" />
        <dc:title></dc:title>
      </cc:Work>
    </rdf:RDF>
  </metadata>
  <g
     inkscape:label="Calque 1"
     inkscape:groupmode="layer"
     id="layer1"
     transform="translate(-273.59164,-282.24684)">
    <g
       id="g3965"
       transform="translate(143.44166,-24.243658)">
      <path
         style="fill:#f3aa86"
         d="m 262.17887,428.25507 c 2.43239,-10.6988 0.47051,-17.13823 -6.43441,-21.11948 -6.13613,-3.53798 -12.17695,-4.43452 -41.24443,-6.12123 -14.3,-0.82979 -30.275,-2.15971 -35.5,-2.95538 -24.81433,-3.77872 -39.20098,-11.92106 -45.62048,-25.8196 -2.4976,-5.40742 -2.87952,-7.42802 -2.87952,-15.23431 0,-8.32238 0.27975,-9.58587 3.71565,-16.78147 4.79423,-10.04025 11.21902,-16.35834 22.0688,-21.70227 16.83047,-8.28966 45.50492,-12.66987 76.71555,-11.7188 19.962,0.60829 25.10414,1.56542 47.69919,8.87847 15.69136,5.07861 15.90919,5.11731 31.44635,5.58587 15.14362,0.4567 15.66658,0.40552 16.30162,-1.59533 0.36086,-1.13694 2.22447,-3.03648 4.14137,-4.22119 4.27885,-2.64447 8.93469,-2.05878 13.38203,1.6834 1.66619,1.40201 3.02944,2.09125 3.02944,1.53164 0,-1.95165 3.16368,-4.16032 5.95922,-4.16032 1.61085,0 5.11158,1.57944 8.17857,3.68997 2.94921,2.02948 7.49743,4.50178 10.10714,5.49399 6.75779,2.56933 20.69397,4.81604 29.87352,4.81604 l 7.85646,0 2.52509,-4 c 1.80933,-2.86617 3.20993,-4 4.94112,-4 2.41953,0 5.55888,2.31008 5.55888,4.09048 0,0.52119 1.12081,0.66632 2.49068,0.3225 3.2204,-0.80827 4.15739,1.41681 2.20946,5.24676 -0.90413,1.77767 -1.14455,3.58849 -0.64264,4.84026 1.42004,3.54157 0.99895,5.4169 -1.59846,7.1188 -2.01967,1.32334 -3.03813,1.43838 -4.96429,0.56076 -1.52295,-0.6939 -2.6443,-0.74661 -3.01806,-0.14185 -0.91464,1.47993 -2.47669,1.1408 -2.47669,-0.53771 0,-0.825 -0.3375,-1.53443 -0.75,-1.57651 -0.4125,-0.0421 -1.50634,-0.22269 -2.43076,-0.40136 -1.10054,-0.2127 -1.49512,0.15893 -1.14301,1.07652 0.29576,0.77074 0.0877,1.40135 -0.46225,1.40135 -0.55,0 -1.25902,-0.675 -1.57561,-1.5 -0.78278,-2.0399 -4.63837,-1.9443 -4.63837,0.11501 0,1.48668 -0.19586,1.48668 -2.46482,0 -3.12738,-2.04914 -4.53518,-2.04864 -4.53518,0.002 0,1.10632 -0.61094,1.45687 -1.93542,1.11051 -1.13773,-0.29752 -2.16199,0.0843 -2.48516,0.92649 -0.41848,1.09055 -1.01513,1.18355 -2.49884,0.38949 -2.71707,-1.45413 -4.08058,-1.30146 -4.08058,0.45688 0,0.825 -0.47656,1.5 -1.05902,1.5 -0.58246,0 -0.80684,-0.40803 -0.49862,-0.90674 0.30822,-0.49871 -0.40017,-0.65555 -1.57421,-0.34853 -1.17404,0.30702 -2.35082,1.38499 -2.61507,2.39549 -0.2686,1.02713 -0.98152,1.54597 -1.61677,1.17664 -0.62497,-0.36336 -0.23631,0.37507 0.86369,1.64095 3.22964,3.71668 8.43235,6.54361 17.5,9.50876 11.25719,3.68114 17.90306,7.29901 18.61443,10.13332 0.87763,3.49676 -0.46213,6.26999 -3.88391,8.03946 -3.27385,1.69298 -3.72579,1.68244 -25.73052,-0.59984 -5.225,-0.54193 -13.33681,-0.99751 -18.02623,-1.01242 -17.79755,-0.0566 -36.59758,-3.70689 -47.0155,-9.12883 -4.84638,-2.52227 -8.12135,-3.30156 -19.47818,-4.63489 -14.48449,-1.70053 -15.86147,-1.43777 -14.74946,2.81457 0.92387,3.53287 3.12662,4.25434 13.24836,4.33925 8.36415,0.0702 10.30244,0.40187 12.69609,2.17275 3.62495,2.68181 5.67326,6.88601 4.88502,10.02661 -0.8908,3.54925 -3.35265,4.04527 -7.85027,1.58168 l -3.93138,-2.15343 0.55604,2.12629 c 0.79129,3.02589 -0.36669,7.90404 -2.02756,8.54137 -0.77478,0.29731 -2.49703,-0.48187 -3.82722,-1.73152 l -2.41852,-2.27208 -0.95399,2.50918 c -2.19147,5.764 -7.38901,3.6066 -15.6944,-6.51446 -3.25121,-3.96197 -8.68543,-10.12858 -12.07605,-13.70358 -4.18783,-4.41557 -6.2725,-7.46205 -6.50075,-9.5 -0.29632,-2.64569 -0.76027,-3.03555 -3.92843,-3.30097 -3.10451,-0.2601 -3.9603,0.18132 -6.30089,3.25 -1.48966,1.95303 -2.22551,3.55097 -1.63523,3.55097 0.59028,0 3.08818,1.85731 5.55089,4.12736 3.24688,2.99286 4.47766,4.89406 4.47766,6.91667 0,3.43127 -1.54046,4.08534 -5.67367,2.40899 l -3.17368,-1.28718 0.55452,3.41708 c 0.51564,3.17749 0.36657,3.41708 -2.12599,3.41708 -1.47427,0 -3.97742,-0.67067 -5.56255,-1.49037 -2.74768,-1.42088 -2.89689,-1.38591 -3.20034,0.75 -0.73577,5.17896 -10.41648,2.24816 -17.1339,-5.18721 -2.02355,-2.23983 -4.11998,-4.07242 -4.65873,-4.07242 -0.53876,0 -1.71453,-1.12172 -2.61284,-2.49271 -2.21913,-3.38682 -1.22081,-6.67541 3.62107,-11.92823 2.18136,-2.3665 3.96611,-4.51964 3.96611,-4.78476 0,-1.07453 -30.10699,-1.6923 -38.11709,-0.78213 -15.4636,1.7571 -21.88291,5.30233 -21.88291,12.08542 0,10.84501 16.35178,17.26598 51.90574,20.38221 41.59184,3.64544 55.45335,10.53121 55.39999,27.5202 -0.0204,6.50331 -1.86162,11.28566 -6.28423,16.32273 -4.46952,5.09051 -6.08672,4.89925 -4.84266,-0.57273 z"
         id="path3977"
         inkscape:connector-curvature="0" />
      <path
         style="fill:#9ea49e"
         d="m 262.17887,428.25507 c 2.43239,-10.6988 0.47051,-17.13823 -6.43441,-21.11948 -6.13613,-3.53798 -12.17695,-4.43452 -41.24443,-6.12123 -14.3,-0.82979 -30.275,-2.15971 -35.5,-2.95538 -24.81433,-3.77872 -39.20098,-11.92106 -45.62048,-25.8196 -2.4976,-5.40742 -2.87952,-7.42802 -2.87952,-15.23431 0,-8.32238 0.27975,-9.58587 3.71565,-16.78147 4.79423,-10.04025 11.21902,-16.35834 22.0688,-21.70227 16.83047,-8.28966 45.50492,-12.66987 76.71555,-11.7188 19.962,0.60829 25.10414,1.56542 47.69919,8.87847 15.69136,5.07861 15.90919,5.11731 31.44635,5.58587 15.14362,0.4567 15.66658,0.40552 16.30162,-1.59533 0.36086,-1.13694 2.22447,-3.03648 4.14137,-4.22119 4.27885,-2.64447 8.93469,-2.05878 13.38203,1.6834 1.66619,1.40201 3.02944,2.09125 3.02944,1.53164 0,-1.95165 3.16368,-4.16032 5.95922,-4.16032 1.61085,0 5.11158,1.57944 8.17857,3.68997 2.94921,2.02948 7.49743,4.50178 10.10714,5.49399 6.75779,2.56933 20.69397,4.81604 29.87352,4.81604 l 7.85646,0 2.52509,-4 c 1.80933,-2.86617 3.20993,-4 4.94112,-4 2.41953,0 5.55888,2.31008 5.55888,4.09048 0,0.52119 1.12081,0.66632 2.49068,0.3225 3.2204,-0.80827 4.15739,1.41681 2.20946,5.24676 -0.90413,1.77767 -1.14455,3.58849 -0.64264,4.84026 1.42004,3.54157 0.99895,5.4169 -1.59846,7.1188 -2.01967,1.32334 -3.03813,1.43838 -4.96429,0.56076 -1.52295,-0.6939 -2.6443,-0.74661 -3.01806,-0.14185 -0.91464,1.47993 -2.47669,1.1408 -2.47669,-0.53771 0,-0.825 -0.3375,-1.53443 -0.75,-1.57651 -0.4125,-0.0421 -1.50634,-0.22269 -2.43076,-0.40136 -1.10054,-0.2127 -1.49512,0.15893 -1.14301,1.07652 0.29576,0.77074 0.0877,1.40135 -0.46225,1.40135 -0.55,0 -1.25902,-0.675 -1.57561,-1.5 -0.78278,-2.0399 -4.63837,-1.9443 -4.63837,0.11501 0,1.48668 -0.19586,1.48668 -2.46482,0 -3.12738,-2.04914 -4.53518,-2.04864 -4.53518,0.002 0,1.10632 -0.61094,1.45687 -1.93542,1.11051 -1.13773,-0.29752 -2.16199,0.0843 -2.48516,0.92649 -0.41848,1.09055 -1.01513,1.18355 -2.49884,0.38949 -2.71707,-1.45413 -4.08058,-1.30146 -4.08058,0.45688 0,0.825 -0.47656,1.5 -1.05902,1.5 -0.58246,0 -0.80684,-0.40803 -0.49862,-0.90674 0.30822,-0.49871 -0.37777,-0.66141 -1.52442,-0.36155 -2.60185,0.6804 -4.09629,4.26262 -2.56745,6.1543 2.18768,2.70689 8.26433,5.83858 16.64951,8.58056 11.25719,3.68114 17.90306,7.29901 18.61443,10.13332 0.87763,3.49676 -0.46213,6.26999 -3.88391,8.03946 -3.27385,1.69298 -3.72579,1.68244 -25.73052,-0.59984 -5.225,-0.54193 -13.33681,-0.99751 -18.02623,-1.01242 -17.79755,-0.0566 -36.59758,-3.70689 -47.0155,-9.12883 -4.84638,-2.52227 -8.12135,-3.30156 -19.47818,-4.63489 -14.48449,-1.70053 -15.86147,-1.43777 -14.74946,2.81457 0.92387,3.53287 3.12662,4.25434 13.24836,4.33925 8.36415,0.0702 10.30244,0.40187 12.69609,2.17275 3.62495,2.68181 5.67326,6.88601 4.88502,10.02661 -0.8908,3.54925 -3.35265,4.04527 -7.85027,1.58168 l -3.93138,-2.15343 0.55604,2.12629 c 0.79129,3.02589 -0.36669,7.90404 -2.02756,8.54137 -0.77478,0.29731 -2.49703,-0.48187 -3.82722,-1.73152 l -2.41852,-2.27208 -0.95399,2.50918 c -2.19147,5.764 -7.38901,3.6066 -15.6944,-6.51446 -3.25121,-3.96197 -8.68543,-10.12858 -12.07605,-13.70358 -4.18783,-4.41557 -6.2725,-7.46205 -6.50075,-9.5 -0.29632,-2.64569 -0.76027,-3.03555 -3.92843,-3.30097 -3.10451,-0.2601 -3.9603,0.18132 -6.30089,3.25 -1.48966,1.95303 -2.22551,3.55097 -1.63523,3.55097 0.59028,0 3.08818,1.85731 5.55089,4.12736 3.24688,2.99286 4.47766,4.89406 4.47766,6.91667 0,3.43127 -1.54046,4.08534 -5.67367,2.40899 l -3.17368,-1.28718 0.55452,3.41708 c 0.51564,3.17749 0.36657,3.41708 -2.12599,3.41708 -1.47427,0 -3.97742,-0.67067 -5.56255,-1.49037 -2.74768,-1.42088 -2.89689,-1.38591 -3.20034,0.75 -0.73577,5.17896 -10.41648,2.24816 -17.1339,-5.18721 -2.02355,-2.23983 -4.11998,-4.07242 -4.65873,-4.07242 -0.53876,0 -1.71453,-1.12172 -2.61284,-2.49271 -2.21913,-3.38682 -1.22081,-6.67541 3.62107,-11.92823 2.18136,-2.3665 3.96611,-4.51964 3.96611,-4.78476 0,-1.07453 -30.10699,-1.6923 -38.11709,-0.78213 -15.4636,1.7571 -21.88291,5.30233 -21.88291,12.08542 0,10.84501 16.35178,17.26598 51.90574,20.38221 41.59184,3.64544 55.45335,10.53121 55.39999,27.5202 -0.0204,6.50331 -1.86162,11.28566 -6.28423,16.32273 -4.46952,5.09051 -6.08672,4.89925 -4.84266,-0.57273 z m 131.25518,-59.85676 c 0.92264,1.49287 5.56598,1.41509 5.56598,-0.0932 0,-0.93333 0.26667,-0.93333 1.2,0 1.42971,1.42971 6.68805,1.5585 8.8,0.21554 2.50954,-1.59578 -2.5799,-5.49172 -10.5,-8.03769 -3.85,-1.23761 -8.23143,-2.87234 -9.7365,-3.63273 -4.02118,-2.03156 -9.84592,-7.40274 -9.18592,-8.47064 0.89455,-1.44742 -1.94138,-0.53854 -3.16116,1.01312 -0.59995,0.76318 -1.72658,1.16242 -2.50362,0.88721 -2.01363,-0.7132 -6.9128,1.98691 -6.9128,3.80989 0,0.84333 -0.45734,1.25068 -1.01631,0.90522 -0.55897,-0.34547 -0.78335,-1.00506 -0.49862,-1.46576 0.69222,-1.12003 -3.61185,-0.0274 -5.39769,1.37027 -1.04861,0.82068 -1.52104,0.78346 -1.83333,-0.14443 -0.53576,-1.5918 -4.47968,-1.62437 -6.05405,-0.05 -0.78979,0.78979 -1.2,0.82966 -1.2,0.11663 0,-1.462 -3.83772,-2.38823 -4.624,-1.11599 -0.41802,0.67636 -0.84183,0.66367 -1.2756,-0.0382 -0.35729,-0.57809 -2.56997,-1.48256 -4.91708,-2.00991 -3.60298,-0.80954 -4.08756,-0.74207 -3.11208,0.4333 0.63545,0.76568 1.53181,1.1595 1.99189,0.87515 0.46009,-0.28435 1.33168,0.40821 1.93687,1.53902 0.60519,1.13081 1.53095,1.78989 2.05724,1.46463 0.52629,-0.32527 1.21595,0.0837 1.53258,0.90885 0.31663,0.82513 1.20966,1.25696 1.98451,0.95962 0.77485,-0.29733 1.69567,0.20694 2.04628,1.12062 0.37037,0.96516 1.26515,1.42036 2.13549,1.08638 0.82391,-0.31616 2.08843,0.22047 2.81005,1.19253 1.10796,1.49247 1.6326,1.57162 3.37295,0.5089 1.6995,-1.03779 2.0609,-1.01271 2.0609,0.14301 0,2.10184 2.81562,2.76734 3.85447,0.91103 0.78982,-1.41133 0.99628,-1.34118 1.59383,0.54154 0.71309,2.24673 4.8707,3.07379 6.02916,1.19936 0.33243,-0.53788 1.46289,-0.0961 2.55901,1 2.21774,2.21774 5.53281,2.59188 6.32216,0.71353 0.37268,-0.88686 0.85612,-0.72549 1.66405,0.55545 0.86052,1.36432 1.46379,1.5357 2.46901,0.70144 0.93468,-0.77571 1.52596,-0.78734 1.98838,-0.0391 0.36197,0.58568 1.07347,0.80818 1.58111,0.49444 0.50764,-0.31374 1.70885,-0.13064 2.66935,0.40688 1.15715,0.64757 1.96114,0.62981 2.38292,-0.0526 0.42787,-0.69231 0.86079,-0.66713 1.32057,0.0768 z"
         id="path3975"
         inkscape:connector-curvature="0" />
      <path
         style="fill:#e4b240"
         d="m 262.00003,431.08947 c 0,-0.81727 0.47845,-3.71688 1.06321,-6.44356 2.21262,-10.31706 -2.62022,-17.35006 -14.14429,-20.58355 -3.83337,-1.07559 -14.74422,-2.14094 -31.39754,-3.0657 -38.30936,-2.12731 -52.19939,-4.39988 -65.46019,-10.71006 -17.09956,-8.13685 -25.51492,-25.76927 -20.45088,-42.85003 2.27019,-7.65722 4.88791,-12.42712 9.71073,-17.69445 11.97238,-13.07583 31.02525,-19.42143 66.62885,-22.19085 31.39976,-2.44243 43.53066,-1.05286 72.05011,8.25321 l 15.5,5.05774 16.07009,0.42048 16.07009,0.42048 1.75769,-2.68258 c 2.12286,-3.2399 7.15237,-5.51533 10.69426,-4.83825 1.42539,0.27248 3.85003,1.49885 5.3881,2.72526 l 2.79648,2.22984 2.42794,-2.42793 c 3.09589,-3.0959 6.71655,-2.50927 13.15801,2.13187 8.77407,6.32181 21.94342,9.66368 38.08176,9.66368 l 10.02874,0 1.44752,-3.46441 c 1.92414,-4.60511 6.10476,-5.83987 8.74268,-2.58218 1.00425,1.24021 1.57677,2.65804 1.27226,3.15075 -0.77087,1.2473 0.23674,1.1174 2.55299,-0.32912 1.54975,-0.96784 2.22065,-0.96578 3.19624,0.01 0.9797,0.9797 0.86884,1.85426 -0.53666,4.23356 -1.52206,2.57665 -1.59705,3.48102 -0.53273,6.42436 1.7395,4.81048 0.0305,6.7087 -5.76953,6.40847 -2.39026,-0.12372 -4.34593,-0.61742 -4.34593,-1.09711 0,-0.47968 -0.41891,-0.61326 -0.9309,-0.29683 -0.512,0.31644 -1.19586,0.14663 -1.51969,-0.37735 -0.32384,-0.52397 -1.36743,-0.91856 -2.3191,-0.87687 -0.95167,0.0417 -2.96362,-0.25967 -4.47099,-0.6697 -2.06904,-0.56281 -2.89172,-0.35192 -3.35699,0.86056 -0.33897,0.88334 -1.04472,1.60607 -1.56834,1.60607 -0.52361,0 -0.6412,-0.50292 -0.26131,-1.1176 0.67824,-1.09741 -4.20114,-0.88071 -9.07268,0.40294 -1.1,0.28985 -3.2375,0.84301 -4.75,1.22924 -1.5125,0.38623 -2.75,1.17845 -2.75,1.76049 0,0.58205 -0.26326,0.79501 -0.58501,0.47325 -0.90722,-0.90722 -6.48433,1.33046 -5.85479,2.34909 0.30681,0.49642 -0.007,0.90259 -0.69735,0.90259 -0.69035,0 0.295,1.6875 2.18966,3.75 l 3.44485,3.75 -3.99868,-3.58136 c -2.50136,-2.24031 -4.70832,-3.41937 -5.89383,-3.14873 -1.53576,0.3506 -1.63057,0.61156 -0.5,1.37612 1.07609,0.7277 0.93776,0.88836 -0.60485,0.70249 -3.05912,-0.36858 -9.73992,2.37114 -8.23989,3.37909 0.71226,0.4786 0.0641,0.55992 -1.5231,0.1911 -1.58346,-0.36796 -3.35978,-0.14674 -4.16097,0.51818 -0.95722,0.79443 -1.6023,0.82963 -2.04603,0.11167 -0.82708,-1.33824 -5.21457,-1.36797 -6.03475,-0.0409 -0.3837,0.62083 -1.22363,0.40681 -2.18796,-0.55751 -0.86085,-0.86085 -2.13846,-1.34519 -2.83914,-1.07632 -0.70068,0.26888 -3.41685,-0.15605 -6.03594,-0.94428 -2.61908,-0.78823 -4.93869,-1.25643 -5.15467,-1.04044 -0.47183,0.47182 5.88682,5.10711 7.00892,5.10932 0.43257,8.6e-4 1.16975,0.62171 1.6382,1.37967 0.49675,0.80376 1.37948,1.05195 2.11804,0.59549 0.77935,-0.48167 1.01683,-0.37895 0.61754,0.2671 -0.75372,1.21956 2.05351,2.55424 3.49653,1.6624 0.53696,-0.33186 1.50885,0.0538 2.15975,0.85702 1.37035,1.69102 5.10972,3.23857 4.17639,1.72842 -0.94111,-1.52275 0.46789,-1.1706 2.18445,0.54597 1.13273,1.13273 1.8784,1.24913 2.84785,0.44455 0.9705,-0.80544 1.53019,-0.71302 2.14406,0.35402 1.20581,2.09598 4.61779,2.48539 6.16236,0.70332 1.18334,-1.36531 1.27193,-1.34562 0.79549,0.17682 -0.41736,1.33367 0.27359,1.86513 3.11874,2.39888 2.41503,0.45306 3.78479,0.29592 4.03784,-0.46322 0.21062,-0.63188 0.8436,-1.14888 1.40661,-1.14888 0.56301,0 0.78167,0.63061 0.48591,1.40135 -0.55542,1.4474 0.93457,1.59826 3.00467,0.30422 0.6495,-0.40601 1.46809,-0.27351 1.8191,0.29443 0.35101,0.56794 1.07681,0.76154 1.6129,0.43022 0.53609,-0.33132 1.70318,-10e-4 2.59353,0.73369 1.31106,1.08208 1.70144,1.09052 2.05344,0.0444 0.27474,-0.81655 0.85869,-0.96028 1.58738,-0.39071 0.63401,0.49556 2.67012,1.18907 4.52469,1.54112 3.0908,0.58673 3.26157,0.49425 2.04822,-1.10929 -1.12605,-1.48816 -1.11439,-1.56273 0.0781,-0.49938 1.67433,1.49305 6.89981,1.62056 9.00177,0.21966 1.25727,-0.83793 0.97152,-1.48274 -1.76578,-3.98468 -3.78896,-3.46319 -3.74503,-3.50698 1.39366,-1.38913 4.744,1.95518 8.37212,5.18092 8.37212,7.4436 0,2.85142 -3.91049,6.85313 -7.3224,7.49321 -1.77966,0.33386 -8.30063,-0.0994 -14.49105,-0.96282 -6.19046,-0.86341 -15.69219,-1.56984 -21.11501,-1.56984 -21.38898,0 -39.99535,-3.2915 -51.41375,-9.0952 -5.02919,-2.55621 -8.63215,-3.446 -19.65782,-4.85468 -11.18715,-1.42933 -13.74749,-1.49908 -14.9446,-0.40716 -1.25689,1.14645 -1.22831,1.77124 0.22,4.80837 l 1.6646,3.49069 8.00307,-0.61715 c 13.15052,-1.01409 20.05693,2.74921 20.05693,10.92902 0,4.85276 -1.78167,5.58307 -6.99335,2.8666 l -4.00665,-2.08839 0,4.36151 c 0,2.64552 -0.5867,4.84842 -1.49122,5.5991 -1.23173,1.02225 -2.0033,0.68942 -4.43402,-1.91268 l -2.9428,-3.15028 -0.31598,3.28512 c -0.26649,2.77055 -0.75899,3.33588 -3.14419,3.6091 -3.06572,0.35117 -3.7856,-0.30845 -21.92179,-20.08695 -6.92457,-7.55162 -8.75,-10.16661 -8.75,-12.53465 0,-2.75233 -0.31545,-3.02238 -3.93338,-3.36741 -3.47278,-0.33118 -4.24647,0.0173 -6.60712,2.97579 l -2.67374,3.35089 2.35712,1.61605 c 10.9773,7.52611 11.65703,15.39164 1.02129,11.81792 -2.15639,-0.72458 -2.2465,-0.61796 -1.17299,1.3879 1.39305,2.60296 0.67155,5.01649 -1.49963,5.01649 -0.86418,0 -3.25537,-0.85919 -5.31377,-1.9093 l -3.74254,-1.9093 0.0324,2.6593 c 0.0693,5.69208 -7.99893,3.27108 -16.47793,-4.94445 -2.77932,-2.69294 -5.50012,-4.89625 -6.04625,-4.89625 -0.54613,0 -1.42069,-1.125 -1.94346,-2.5 -1.28103,-3.36936 0.0355,-6.49828 5.00042,-11.88463 l 4.05576,-4.39998 -16.27809,-0.70696 c -27.79823,-1.20727 -42.01271,1.99814 -44.77777,10.09753 -1.37405,4.02484 -0.13763,7.25927 4.15608,10.87219 7.57833,6.37674 20.81885,9.8545 45.77397,12.02301 25.13829,2.18442 36.20249,4.47164 46.06963,9.52366 12.22983,6.26172 14.81474,20.59602 5.95725,33.03522 -2.64537,3.71508 -5.95725,5.67442 -5.95725,3.52436 z M 387.44116,355.9499 c -1.83031,-1.46637 -1.7984,-1.48719 0.55887,-0.36454 3.06103,1.45781 3.62834,1.91971 2.3578,1.91971 -0.53655,0 -1.84905,-0.69982 -2.91667,-1.55517 z"
         id="path3973"
         inkscape:connector-curvature="0" />
      <path
         style="fill:#576654"
         d="m 262.00003,431.08947 c 0,-0.81727 0.47845,-3.71688 1.06321,-6.44356 2.21262,-10.31706 -2.62022,-17.35006 -14.14429,-20.58355 -3.83337,-1.07559 -14.74422,-2.14094 -31.39754,-3.0657 -38.30936,-2.12731 -52.19939,-4.39988 -65.46019,-10.71006 -17.09956,-8.13685 -25.51492,-25.76927 -20.45088,-42.85003 2.27019,-7.65722 4.88791,-12.42712 9.71073,-17.69445 11.97238,-13.07583 31.02525,-19.42143 66.62885,-22.19085 31.39976,-2.44243 43.53066,-1.05286 72.05011,8.25321 l 15.5,5.05774 16.07009,0.42048 16.07009,0.42048 1.75769,-2.68258 c 2.12286,-3.2399 7.15237,-5.51533 10.69426,-4.83825 1.42539,0.27248 3.85003,1.49885 5.3881,2.72526 l 2.79648,2.22984 2.42794,-2.42793 c 3.09589,-3.0959 6.71655,-2.50927 13.15801,2.13187 8.77407,6.32181 21.94342,9.66368 38.08176,9.66368 l 10.02874,0 1.44752,-3.46441 c 1.92414,-4.60511 6.10476,-5.83987 8.74268,-2.58218 1.00425,1.24021 1.57677,2.65804 1.27226,3.15075 -0.77087,1.2473 0.23674,1.1174 2.55299,-0.32912 1.54975,-0.96784 2.22065,-0.96578 3.19624,0.01 0.9797,0.9797 0.86884,1.85426 -0.53666,4.23356 -1.52206,2.57665 -1.59705,3.48102 -0.53273,6.42436 1.7395,4.81048 0.0305,6.7087 -5.76953,6.40847 -2.39026,-0.12372 -4.34593,-0.61742 -4.34593,-1.09711 0,-0.47968 -0.41891,-0.61326 -0.9309,-0.29683 -0.512,0.31644 -1.19586,0.14663 -1.51969,-0.37735 -0.32384,-0.52397 -1.36743,-0.91856 -2.3191,-0.87687 -0.95167,0.0417 -2.96362,-0.25967 -4.47099,-0.6697 -2.06904,-0.56281 -2.89172,-0.35192 -3.35699,0.86056 -0.33897,0.88334 -1.04472,1.60607 -1.56834,1.60607 -0.52361,0 -0.6412,-0.50292 -0.26131,-1.1176 0.67824,-1.09741 -4.20114,-0.88071 -9.07268,0.40294 -1.1,0.28985 -3.2375,0.84301 -4.75,1.22924 -1.5125,0.38623 -2.75,1.17845 -2.75,1.76049 0,0.58205 -0.26326,0.79501 -0.58501,0.47325 -0.90722,-0.90722 -6.48433,1.33046 -5.85479,2.34909 0.30681,0.49642 -0.007,0.90259 -0.69735,0.90259 -0.69035,0 0.295,1.6875 2.18966,3.75 l 3.44485,3.75 -3.99868,-3.58136 c -2.50136,-2.24031 -4.70832,-3.41937 -5.89383,-3.14873 -1.53576,0.3506 -1.63057,0.61156 -0.5,1.37612 1.07609,0.7277 0.93776,0.88836 -0.60485,0.70249 -3.05912,-0.36858 -9.73992,2.37114 -8.23989,3.37909 0.71226,0.4786 0.0641,0.55992 -1.5231,0.1911 -1.58346,-0.36796 -3.35978,-0.14674 -4.16097,0.51818 -0.95722,0.79443 -1.6023,0.82963 -2.04603,0.11167 -0.82708,-1.33824 -5.21457,-1.36797 -6.03475,-0.0409 -0.3837,0.62083 -1.22363,0.40681 -2.18796,-0.55751 -0.86085,-0.86085 -2.13846,-1.34519 -2.83914,-1.07632 -0.70068,0.26888 -3.41685,-0.15605 -6.03594,-0.94428 -2.61908,-0.78823 -4.93869,-1.25643 -5.15467,-1.04044 -0.47183,0.47182 5.88682,5.10711 7.00892,5.10932 0.43257,8.6e-4 1.16975,0.62171 1.6382,1.37967 0.49675,0.80376 1.37948,1.05195 2.11804,0.59549 0.77935,-0.48167 1.01683,-0.37895 0.61754,0.2671 -0.75372,1.21956 2.05351,2.55424 3.49653,1.6624 0.53696,-0.33186 1.50885,0.0538 2.15975,0.85702 1.37035,1.69102 5.10972,3.23857 4.17639,1.72842 -0.94111,-1.52275 0.46789,-1.1706 2.18445,0.54597 1.13273,1.13273 1.8784,1.24913 2.84785,0.44455 0.9705,-0.80544 1.53019,-0.71302 2.14406,0.35402 1.20581,2.09598 4.61779,2.48539 6.16236,0.70332 1.18334,-1.36531 1.27193,-1.34562 0.79549,0.17682 -0.41736,1.33367 0.27359,1.86513 3.11874,2.39888 2.41503,0.45306 3.78479,0.29592 4.03784,-0.46322 0.21062,-0.63188 0.8436,-1.14888 1.40661,-1.14888 0.56301,0 0.78167,0.63061 0.48591,1.40135 -0.55542,1.4474 0.93457,1.59826 3.00467,0.30422 0.6495,-0.40601 1.46809,-0.27351 1.8191,0.29443 0.35101,0.56794 1.07681,0.76154 1.6129,0.43022 0.53609,-0.33132 1.70318,-10e-4 2.59353,0.73369 1.31106,1.08208 1.70144,1.09052 2.05344,0.0444 0.27474,-0.81655 0.85869,-0.96028 1.58738,-0.39071 0.63401,0.49556 2.67012,1.18907 4.52469,1.54112 3.0908,0.58673 3.26157,0.49425 2.04822,-1.10929 -1.12605,-1.48816 -1.11439,-1.56273 0.0781,-0.49938 1.67433,1.49305 6.89981,1.62056 9.00177,0.21966 1.25727,-0.83793 0.97152,-1.48274 -1.76578,-3.98468 -3.78896,-3.46319 -3.74503,-3.50698 1.39366,-1.38913 4.744,1.95518 8.37212,5.18092 8.37212,7.4436 0,2.85142 -3.91049,6.85313 -7.3224,7.49321 -1.77966,0.33386 -8.30063,-0.0994 -14.49105,-0.96282 -6.19046,-0.86341 -15.69219,-1.56984 -21.11501,-1.56984 -21.38898,0 -39.99535,-3.2915 -51.41375,-9.0952 -5.02919,-2.55621 -8.63215,-3.446 -19.65782,-4.85468 -11.18715,-1.42933 -13.74749,-1.49908 -14.9446,-0.40716 -1.25689,1.14645 -1.22831,1.77124 0.22,4.80837 l 1.6646,3.49069 8.00307,-0.61715 c 13.15052,-1.01409 20.05693,2.74921 20.05693,10.92902 0,4.85276 -1.78167,5.58307 -6.99335,2.8666 l -4.00665,-2.08839 0,4.36151 c 0,2.64552 -0.5867,4.84842 -1.49122,5.5991 -1.23173,1.02225 -2.0033,0.68942 -4.43402,-1.91268 l -2.9428,-3.15028 -0.31598,3.28512 c -0.26649,2.77055 -0.75899,3.33588 -3.14419,3.6091 -3.06572,0.35117 -3.7856,-0.30845 -21.92179,-20.08695 -6.92457,-7.55162 -8.75,-10.16661 -8.75,-12.53465 0,-2.75233 -0.31545,-3.02238 -3.93338,-3.36741 -3.47278,-0.33118 -4.24647,0.0173 -6.60712,2.97579 l -2.67374,3.35089 2.35712,1.61605 c 10.9773,7.52611 11.65703,15.39164 1.02129,11.81792 -2.15639,-0.72458 -2.2465,-0.61796 -1.17299,1.3879 1.39305,2.60296 0.67155,5.01649 -1.49963,5.01649 -0.86418,0 -3.25537,-0.85919 -5.31377,-1.9093 l -3.74254,-1.9093 0.0324,2.6593 c 0.0693,5.69208 -7.99893,3.27108 -16.47793,-4.94445 -2.77932,-2.69294 -5.50012,-4.89625 -6.04625,-4.89625 -0.54613,0 -1.42069,-1.125 -1.94346,-2.5 -1.28103,-3.36936 0.0355,-6.49828 5.00042,-11.88463 l 4.05576,-4.39998 -16.27809,-0.70696 c -27.79823,-1.20727 -42.01271,1.99814 -44.77777,10.09753 -1.37405,4.02484 -0.13763,7.25927 4.15608,10.87219 7.57833,6.37674 20.81885,9.8545 45.77397,12.02301 25.13829,2.18442 36.20249,4.47164 46.06963,9.52366 12.22983,6.26172 14.81474,20.59602 5.95725,33.03522 -2.64537,3.71508 -5.95725,5.67442 -5.95725,3.52436 z m 85.53212,-99.03337 c 6.27337,-2.62118 3.1305,-8.55103 -4.53212,-8.55103 -7.5084,0 -10.79236,5.88287 -4.75,8.50913 4.14302,1.80073 5.0627,1.80488 9.28212,0.0419 z m -5.11826,-0.91492 c -0.85623,-2.23128 -0.0844,-5.9233 1.33614,-6.39112 0.84142,-0.2771 1.25,0.74032 1.25,3.11266 0,3.73076 -1.62303,5.78828 -2.58614,3.27846 z m 45.02727,24.80872 c -1.83031,-1.46637 -1.7984,-1.48719 0.55887,-0.36454 3.06103,1.45781 3.62834,1.91971 2.3578,1.91971 -0.53655,0 -1.84905,-0.69982 -2.91667,-1.55517 z"
         id="path3971"
         inkscape:connector-curvature="0" />
      <path
         style="fill:#08aa0c"
         d="m 262.44024,429.80028 c 1.21599,-3.16882 1.8146,-10.12341 1.16802,-13.56996 -0.89453,-4.76827 -6.52334,-10.06962 -12.88003,-12.13071 -2.99228,-0.97021 -11.42936,-2.10242 -19.7282,-2.6474 -7.975,-0.52371 -21.475,-1.412 -30,-1.97396 -47.62872,-3.13967 -66.37908,-13.40867 -69.90173,-38.28308 -2.34388,-16.55079 8.13163,-33.91571 25.49916,-42.26916 15.13572,-7.27998 39.99087,-11.35686 70.32252,-11.53467 22.05168,-0.12928 33.98299,1.98104 57.58005,10.18431 7.33981,2.55161 11.39805,3.27796 22,3.93756 14.40537,0.89623 22.5,0.35931 22.5,-1.49244 0,-2.27365 3.92077,-4.75244 8.29731,-5.24574 3.83662,-0.43245 4.81708,-0.10842 7.9226,2.61826 4.22956,3.7136 4.54767,3.76887 4.96054,0.86178 0.25724,-1.81125 1.0568,-2.31088 4.10031,-2.5622 3.05149,-0.25198 4.95148,0.46958 9.85007,3.74073 8.13796,5.43432 16.89344,7.98414 31.73282,9.24142 13.80422,1.16957 16.14209,0.67681 18.31687,-3.86071 1.09487,-2.28437 1.99784,-2.80924 4.83295,-2.80924 3.05029,0 3.52575,0.34019 3.79995,2.71887 0.27048,2.34638 0.56058,2.56451 2.11753,1.59218 0.99227,-0.61968 2.58748,-0.82609 3.54492,-0.45868 1.62498,0.62356 1.63163,0.83462 0.0999,3.17227 -1.24133,1.89452 -1.48144,3.70608 -0.9861,7.44009 0.62343,4.69963 0.53174,4.96668 -1.91622,5.58108 -1.56985,0.39401 -4.92884,-0.17072 -8.62621,-1.45027 -11.15028,-3.85878 -22.3321,-2.03356 -39.89163,6.51156 -10.65116,5.18325 -12.302,5.69215 -19.15565,5.90505 -4.125,0.12814 -10.58844,-0.40873 -14.3632,-1.19305 -3.77476,-0.78432 -7.13218,-1.15706 -7.46092,-0.82831 -1.69197,1.69197 11.41542,9.18403 21.9619,12.55323 13.70562,4.37841 43.88257,8.1118 49.11222,6.076 3.32527,-1.29446 3.53059,-3.45987 0.52749,-5.56332 -3.49766,-2.44985 -0.89765,-1.81716 3.76749,0.91679 5.10857,2.99383 5.91081,4.74443 3.92975,8.57537 -1.80727,3.49488 -4.41275,4.28466 -12.15974,3.68589 -3.19821,-0.2472 -14.81495,-0.97154 -25.81495,-1.60966 -31.94012,-1.85286 -44.61425,-4.13835 -56.43306,-10.17639 -4.3978,-2.24677 -8.34388,-3.18602 -18.78953,-4.47234 -7.27243,-0.89555 -13.68493,-1.34253 -14.25,-0.9933 -1.77674,1.09809 -1.11994,5.29784 1.26152,8.06646 2.13907,2.48681 2.5483,2.58904 6.25,1.56134 2.17859,-0.60484 5.08607,-1.09971 6.46107,-1.09971 8.07544,0 16,5.34387 16,10.78948 0,4.56997 -1.95115,5.51851 -6.53959,3.17919 -2.13581,-1.0889 -4.01314,-1.97982 -4.17185,-1.97982 -0.15871,0 -0.28856,1.5382 -0.28856,3.41821 0,7.23391 -2.24207,8.45969 -6.41111,3.50506 -2.53524,-3.01296 -2.58889,-3.02728 -2.58889,-0.69113 0,1.31208 -0.61466,3.2262 -1.36591,4.25359 -2.2796,3.11754 -6.81123,0.31327 -14.32804,-8.86648 -3.65663,-4.46559 -9.33145,-10.89196 -12.61071,-14.28083 -4.85172,-5.01389 -5.87153,-6.63639 -5.47501,-8.71065 0.45117,-2.36019 0.1497,-2.59969 -4.06858,-3.23226 -3.19742,-0.47949 -4.67621,-0.32212 -4.95951,0.52778 -0.22202,0.66604 -1.42263,2.39559 -2.66803,3.84346 l -2.26437,2.63248 4.25338,2.81732 c 4.34843,2.88028 7.70608,8.04838 6.78626,10.44539 -0.65456,1.70575 -1.54143,1.68163 -5.95372,-0.16194 -4.36573,-1.82412 -4.87163,-1.85913 -3.61264,-0.25 1.74819,2.23436 2.1926,5.84127 0.78621,6.38096 -0.72899,0.27973 -3.15113,-0.42279 -5.38254,-1.56118 -5.08775,-2.59557 -5.13679,-2.59146 -5.13679,0.43022 0,2.1552 -0.44824,2.49909 -3.25,2.49341 -3.82807,-0.008 -6.31356,-1.55539 -14.59724,-9.0892 -4.42487,-4.02431 -6.15276,-6.30255 -6.15276,-8.11249 0,-2.59164 4.00433,-8.35514 8.12088,-11.68852 l 2.33397,-1.88994 -7.72676,-0.72405 c -4.24972,-0.39824 -15.03957,-0.5169 -23.97743,-0.26369 -13.68019,0.38755 -17.15657,0.81158 -21.9779,2.68075 -8.96745,3.47659 -11.69165,8.48232 -8.24427,15.14883 1.98273,3.83417 7.6445,7.34958 16.70298,10.37092 9.32496,3.11023 16.00178,4.22973 33.26853,5.57815 40.76307,3.18331 56.56274,10.80225 56.47804,27.23493 -0.0258,5.00731 -3.01866,12.13367 -6.72408,16.0109 -2.963,3.10038 -4.79507,3.60248 -3.81375,1.04521 z m 87.09901,-98.32776 c 2.08042,-1.72659 1.80827,-5.71111 -0.47348,-6.93227 -2.71808,-1.45467 -10.33609,-1.2892 -12.46958,0.27085 -2.45512,1.79523 -1.69592,5.82863 1.40384,7.45811 2.82328,1.48415 9.33248,1.03474 11.53922,-0.79669 z m -5.38133,-2.96745 c 0,-1.375 0.22698,-1.9375 0.50439,-1.25 0.27741,0.6875 0.27741,1.8125 0,2.5 -0.27741,0.6875 -0.50439,0.125 -0.50439,-1.25 z"
         id="path3969"
         inkscape:connector-curvature="0" />
      <path
         style="fill:#157610"
         d="m 262.44024,429.80028 c 1.21599,-3.16882 1.8146,-10.12341 1.16802,-13.56996 -0.89453,-4.76827 -6.52334,-10.06962 -12.88003,-12.13071 -2.99228,-0.97021 -11.42936,-2.10242 -19.7282,-2.6474 -7.975,-0.52371 -21.475,-1.412 -30,-1.97396 -47.62872,-3.13967 -66.37908,-13.40867 -69.90173,-38.28308 -2.34388,-16.55079 8.13163,-33.91571 25.49916,-42.26916 15.13572,-7.27998 39.99087,-11.35686 70.32252,-11.53467 22.27442,-0.13058 29.56757,1.12552 56.36525,9.70778 13.69978,4.38751 13.88413,4.4162 29.75,4.63075 l 15.9648,0.21588 0,4.62053 0,4.62053 -5.58604,1.2501 c -6.91948,1.54851 -11.20893,5.18183 -12.4043,10.50689 -1.54131,6.8661 0.57826,13.16715 6.23931,18.54822 3.03611,2.88595 3.08355,3.02866 0.71759,2.15873 -3.66749,-1.34848 -28.72379,-4.41376 -29.93915,-3.66262 -0.56508,0.34924 -1.02741,0.40239 -1.02741,0.11811 0,-0.28427 2.1375,-1.73447 4.75,-3.22265 6.63547,-3.77982 10.25,-7.34536 10.25,-10.11107 0,-5.22864 -9.27854,-10.19514 -15.63892,-8.371 -6.1776,1.77171 -16.595,10.33843 -20.025,16.46749 -0.82285,1.47035 -1.81318,1.64166 -6.1583,1.06525 -4.6102,-0.61156 -5.17778,-0.9503 -5.17778,-3.09014 0,-6.454 -6.61926,-14.30629 -13.72267,-16.27892 -14.65167,-4.0688 -30.70869,4.7358 -21.64247,11.86729 2.95784,2.32664 5.60603,2.58177 10.19467,0.98216 5.11323,-1.78248 5.70787,-0.53099 1.17346,2.46974 -2.32781,1.54047 -3.9531,2.34896 -3.61174,1.79665 0.98268,-1.59002 -12.67492,-2.45941 -30.64059,-1.95045 -13.68019,0.38755 -17.15657,0.81158 -21.9779,2.68075 -8.96745,3.47659 -11.69165,8.48232 -8.24427,15.14883 1.98273,3.83417 7.6445,7.34958 16.70298,10.37092 9.32496,3.11023 16.00178,4.22973 33.26853,5.57815 40.76307,3.18331 56.56274,10.80225 56.47804,27.23493 -0.0258,5.00731 -3.01866,12.13367 -6.72408,16.0109 -2.963,3.10038 -4.79507,3.60248 -3.81375,1.04521 z m 31.37229,-37.97832 c 0.72187,-0.28888 1.58437,-0.25335 1.91667,0.079 0.33229,0.33229 -0.25834,0.56864 -1.3125,0.52522 -1.16495,-0.048 -1.4019,-0.28495 -0.60417,-0.60417 z m -6.88819,-4.06689 -2.42431,-2.75 2.75,2.42431 c 2.57029,2.26589 3.20859,3.07569 2.42431,3.07569 -0.17912,0 -1.41662,-1.2375 -2.75,-2.75 z m 14,0 -2.42431,-2.75 2.75,2.42431 c 2.57029,2.26589 3.20859,3.07569 2.42431,3.07569 -0.17912,0 -1.41662,-1.2375 -2.75,-2.75 z m -3.92431,-1.80902 c 0,-1.95746 0.37497,-3.32727 0.83327,-3.04403 0.78822,0.48715 0.37441,6.60305 -0.44677,6.60305 -0.21257,0 -0.3865,-1.60156 -0.3865,-3.55902 z m 9,-2.44098 c 0,-2.93333 0.31917,-5.01416 0.70926,-4.62407 0.71452,0.71452 0.46133,8.76552 -0.30004,9.54074 -0.22507,0.22916 -0.40922,-1.98334 -0.40922,-4.91667 z m -56,-1.38337 c 0,-0.21085 0.90062,-0.61889 2.00138,-0.90674 1.10076,-0.28786 1.7492,-0.11534 1.44098,0.38337 -0.53825,0.87091 -3.44236,1.31244 -3.44236,0.52337 z m 30.87244,-1.36663 c -1.24387,-1.58606 -1.2085,-1.62143 0.37756,-0.37755 1.66575,1.30636 2.19548,2.12755 1.37244,2.12755 -0.20765,0 -0.99515,-0.7875 -1.75,-1.75 z m -54.73025,-4.60513 -4.27424,-4.35512 6.06451,-0.54991 c 7.04789,-0.63908 16.78412,-4.85477 22.61491,-9.79204 l 3.95263,-3.34692 -3.34522,3.59541 c -4.11618,4.42403 -15.84302,9.97125 -22.414,10.60264 l -4.8847,0.46936 3.77491,3.86585 c 2.0762,2.12622 3.55227,3.86586 3.28017,3.86586 -0.27211,0 -2.41815,-1.95981 -4.76897,-4.35513 z m 14.85781,1.29611 c 0,-0.58246 0.45,-0.7809 1,-0.44098 0.55,0.33992 1,0.81648 1,1.05902 0,0.24254 -0.45,0.44098 -1,0.44098 -0.55,0 -1,-0.47656 -1,-1.05902 z m 10.56429,-0.64785 c -0.54268,-1.4252 -0.42782,-1.54006 0.5598,-0.5598 0.68342,0.67834 0.99067,1.48524 0.68278,1.79313 -0.30789,0.30789 -0.86705,-0.24711 -1.24258,-1.23333 z m 7.24821,0.0238 c 0.72187,-0.28887 1.58437,-0.25335 1.91667,0.079 0.33229,0.33229 -0.25834,0.56864 -1.3125,0.52522 -1.16495,-0.048 -1.4019,-0.28494 -0.60417,-0.60417 z m 18.05994,-1.06689 c -1.24387,-1.58606 -1.2085,-1.62143 0.37756,-0.37755 1.66575,1.30636 2.19548,2.12755 1.37244,2.12755 -0.20765,0 -0.99515,-0.7875 -1.75,-1.75 z m 121.94006,1.06689 c 0.72187,-0.28888 1.58438,-0.25335 1.91667,0.079 0.33229,0.33229 -0.25834,0.56864 -1.3125,0.52522 -1.16495,-0.048 -1.4019,-0.28495 -0.60417,-0.60417 z m -8.0625,-0.97917 c 0.6875,-0.27741 1.8125,-0.27741 2.5,0 0.6875,0.27741 0.125,0.50438 -1.25,0.50438 -1.375,0 -1.9375,-0.22697 -1.25,-0.50438 z m -17,-1.06992 c 2.3375,-0.21054 6.1625,-0.21054 8.5,0 2.3375,0.21053 0.425,0.38279 -4.25,0.38279 -4.675,0 -6.5875,-0.17226 -4.25,-0.38279 z m -123.75,-1.32682 c 0,-0.58246 0.45,-0.7809 1,-0.44098 0.55,0.33992 1,0.81648 1,1.05902 0,0.24254 -0.45,0.44098 -1,0.44098 -0.55,0 -1,-0.47656 -1,-1.05902 z m 104.25,0.36969 c 0.9625,-0.25152 2.5375,-0.25152 3.5,0 0.9625,0.25153 0.175,0.45733 -1.75,0.45733 -1.925,0 -2.7125,-0.2058 -1.75,-0.45733 z m -7.4375,-0.99378 c 0.72187,-0.28887 1.58437,-0.25335 1.91667,0.079 0.33229,0.33229 -0.25834,0.56864 -1.3125,0.52522 -1.16495,-0.048 -1.4019,-0.28495 -0.60417,-0.60417 z m -6,-1 c 0.72187,-0.28887 1.58437,-0.25335 1.91667,0.079 0.33229,0.33229 -0.25834,0.56864 -1.3125,0.52522 -1.16495,-0.048 -1.4019,-0.28495 -0.60417,-0.60417 z m -70.37541,-3.56689 -2.93709,-3.25 3.25,2.93709 c 3.02946,2.73778 3.70965,3.56291 2.93709,3.56291 -0.1721,0 -1.6346,-1.4625 -3.25,-3.25 z m 18.9679,1 -1.90499,-2.25 2.25,1.90499 c 2.11444,1.79022 2.70524,2.59501 1.90499,2.59501 -0.18976,0 -1.20226,-1.0125 -2.25,-2.25 z m 100.84501,0.56067 c 0.9625,-0.25152 2.5375,-0.25152 3.5,0 0.9625,0.25153 0.175,0.45733 -1.75,0.45733 -1.925,0 -2.7125,-0.2058 -1.75,-0.45733 z m -90.5,-1.0164 c 1.2375,-0.23836 3.2625,-0.23836 4.5,0 1.2375,0.23835 0.225,0.43337 -2.25,0.43337 -2.475,0 -3.4875,-0.19502 -2.25,-0.43337 z m 82.0625,0.0226 c 0.72187,-0.28887 1.58437,-0.25335 1.91667,0.079 0.33229,0.33229 -0.25834,0.56864 -1.3125,0.52522 -1.16495,-0.048 -1.4019,-0.28494 -0.60417,-0.60417 z m 27.86716,-1.19992 c 0.31725,-1.21317 -0.32881,-2.45824 -1.81612,-3.5 -1.26971,-0.88933 -1.79057,-1.61697 -1.15747,-1.61697 0.63309,0 1.84214,0.69107 2.68679,1.53571 0.84464,0.84465 1.81428,1.48215 2.15476,1.41667 0.34048,-0.0655 0.91905,0.2156 1.28571,0.62461 0.36667,0.40901 0.10417,0.41996 -0.58333,0.0243 -0.82818,-0.4766 -1.25,-0.0245 -1.25,1.33967 0,1.13246 -0.40787,2.05902 -0.90638,2.05902 -0.49851,0 -0.68479,-0.84736 -0.41396,-1.88303 z m -34.41063,0.19004 c 0.97297,-0.25354 2.32297,-0.23687 3,0.0371 0.67703,0.27392 -0.11903,0.48137 -1.76903,0.46099 -1.65,-0.0204 -2.20394,-0.2445 -1.23097,-0.49804 z m -121.39659,-2.05701 c -1.24387,-1.58606 -1.2085,-1.62143 0.37756,-0.37755 1.66575,1.30636 2.19548,2.12755 1.37244,2.12755 -0.20765,0 -0.99515,-0.7875 -1.75,-1.75 z m 115.87756,1.08772 c 0.6875,-0.27741 1.8125,-0.27741 2.5,0 0.6875,0.27741 0.125,0.50438 -1.25,0.50438 -1.375,0 -1.9375,-0.22697 -1.25,-0.50438 z m -4.9375,-1.02083 c 0.72187,-0.28888 1.58437,-0.25335 1.91667,0.079 0.33229,0.33229 -0.25834,0.56864 -1.3125,0.52522 -1.16495,-0.048 -1.4019,-0.28495 -0.60417,-0.60417 z m -9.3125,-2.31689 c -1.31874,-0.56668 -1.48906,-0.87816 -0.5,-0.9144 0.825,-0.0302 2.175,0.38124 3,0.9144 1.82797,1.18132 0.24909,1.18132 -2.5,0 z m -136.5,-1.37755 c 0,-0.20766 0.7875,-0.99516 1.75,-1.75 1.58606,-1.24388 1.62143,-1.20851 0.37755,0.37755 -1.30636,1.66575 -2.12755,2.19548 -2.12755,1.37245 z m 45.19495,-2.12245 c 0.0204,-1.65 0.2445,-2.20394 0.49804,-1.23097 0.25354,0.97297 0.23687,2.32297 -0.0371,3 -0.27388,0.67703 -0.48132,-0.11903 -0.46094,-1.76903 z m 84.80505,1 c -1.375,-0.78602 -2.05,-1.42913 -1.5,-1.42913 0.55,0 2.125,0.64311 3.5,1.42913 1.375,0.78602 2.05,1.42913 1.5,1.42913 -0.55,0 -2.125,-0.64311 -3.5,-1.42913 z m -5.55887,-3.05517 c -1.86402,-1.49339 -1.85176,-1.51185 0.30887,-0.46481 1.2375,0.59969 2.25,1.29951 2.25,1.55516 0,0.76522 -0.51861,0.54424 -2.55887,-1.09035 z m -4.56869,-3.19483 c -1.24387,-1.58606 -1.2085,-1.62143 0.37756,-0.37755 1.66575,1.30636 2.19548,2.12755 1.37244,2.12755 -0.20765,0 -0.99515,-0.7875 -1.75,-1.75 z m 16.39131,-1.96758 c 1.52006,-0.22986 3.77006,-0.22371 5,0.0136 1.22994,0.23736 -0.0137,0.42542 -2.76375,0.41792 -2.75,-0.007 -3.75631,-0.20172 -2.23625,-0.43157 z m -9.99472,-0.97541 c 0.97297,-0.25354 2.32297,-0.23687 3,0.0371 0.67703,0.27392 -0.11903,0.48137 -1.76903,0.46099 -1.65,-0.0204 -2.20394,-0.2445 -1.23097,-0.49805 z m 20.23097,-0.30701 c 2.74909,-1.18132 4.32797,-1.18132 2.5,0 -0.825,0.53316 -2.175,0.94464 -3,0.9144 -0.98906,-0.0362 -0.81874,-0.34772 0.5,-0.9144 z m -31.02699,-1.04367 c -0.32508,-0.52598 0.33551,-0.95633 1.46797,-0.95633 2.41457,0 2.65816,0.55611 0.59105,1.34934 -0.80739,0.30982 -1.73395,0.13296 -2.05902,-0.39301 z m 6.33949,0.36056 c 0.72187,-0.28888 1.58437,-0.25335 1.91667,0.079 0.33229,0.33229 -0.25834,0.56864 -1.3125,0.52522 -1.16495,-0.048 -1.4019,-0.28495 -0.60417,-0.60417 z m 35.1875,-3.7099 c 0,-0.21616 0.69837,-0.661 1.55194,-0.98855 0.88992,-0.34149 1.29132,-0.17385 0.94098,0.39301 -0.58726,0.95021 -2.49292,1.40545 -2.49292,0.59554 z m 6,-3 c 0,-0.21616 0.69837,-0.661 1.55194,-0.98855 0.88992,-0.34149 1.29132,-0.17385 0.94098,0.39301 -0.58726,0.95021 -2.49292,1.40545 -2.49292,0.59554 z m 35,-3.60699 c -0.825,-0.53316 -1.05,-0.96937 -0.5,-0.96937 0.55,0 1.675,0.43621 2.5,0.96937 0.825,0.53316 1.05,0.96937 0.5,0.96937 -0.55,0 -1.675,-0.43621 -2.5,-0.96937 z m -24.1875,-0.68311 c 0.72187,-0.28888 1.58438,-0.25335 1.91667,0.079 0.33229,0.33229 -0.25834,0.56864 -1.3125,0.52522 -1.16495,-0.048 -1.4019,-0.28495 -0.60417,-0.60417 z m 4.9375,-0.97917 c 0.6875,-0.27741 1.8125,-0.27741 2.5,0 0.6875,0.27741 0.125,0.50438 -1.25,0.50438 -1.375,0 -1.9375,-0.22697 -1.25,-0.50438 z m 15.0625,-0.0208 c 0.72187,-0.28887 1.58438,-0.25334 1.91667,0.079 0.33229,0.33229 -0.25834,0.56864 -1.3125,0.52522 -1.16495,-0.048 -1.4019,-0.28494 -0.60417,-0.60417 z m -71.0625,-4.97917 c 0.6875,-0.27741 1.8125,-0.27741 2.5,0 0.6875,0.27741 0.125,0.50438 -1.25,0.50438 -1.375,0 -1.9375,-0.22697 -1.25,-0.50438 z m 84.32895,-0.92105 c 0.048,-1.16495 0.28494,-1.4019 0.60416,-0.60417 0.28887,0.72187 0.25335,1.58437 -0.0789,1.91667 -0.33229,0.33229 -0.56864,-0.25834 -0.52522,-1.3125 z m -90.87895,-1.61667 c -2.36746,-2.36746 -0.77766,-7.85727 2.25,-7.76959 0.5775,0.0167 0.2625,0.48908 -0.7,1.04969 -2.00885,1.17005 -2.31835,4.95155 -0.55,6.7199 0.66,0.66 0.975,1.2 0.7,1.2 -0.275,0 -1.04,-0.54 -1.7,-1.2 z m 14.55,0.20177 c 0.6875,-0.77097 1.25,-2.41021 1.25,-3.64275 0,-2.87546 -1.35564,-3.67988 -7.5,-4.45041 l -5,-0.62701 4.52749,-0.1408 c 5.34715,-0.16629 8.97251,1.97255 8.97251,5.29346 0,1.27647 -0.7875,2.91675 -1.75,3.64507 -1.48877,1.12655 -1.56341,1.11497 -0.5,-0.0776 z m -5.59211,-3.00177 c 0,-1.375 0.22698,-1.9375 0.50439,-1.25 0.27741,0.6875 0.27741,1.8125 0,2.5 -0.27741,0.6875 -0.50439,0.125 -0.50439,-1.25 z m 49.10586,0.28242 c 1.52006,-0.22986 3.77006,-0.22371 5,0.0136 1.22994,0.23736 -0.0138,0.42542 -2.76375,0.41792 -2.75,-0.007 -3.75631,-0.20172 -2.23625,-0.43157 z m 16.81958,0.43461 c 0.22917,-0.15563 1.31667,-0.94313 2.41667,-1.75 1.85001,-1.35701 1.89707,-1.33579 0.62756,0.28297 -0.75485,0.9625 -1.84235,1.75 -2.41667,1.75 -0.57432,0 -0.85672,-0.12734 -0.62756,-0.28297 z m 11.99562,-2.30036 c 0.048,-1.16495 0.28494,-1.4019 0.60416,-0.60417 0.28887,0.72187 0.25335,1.58437 -0.0789,1.91667 -0.33229,0.33229 -0.56864,-0.25834 -0.52522,-1.3125 z m -0.51466,-4.12354 c -0.54268,-1.4252 -0.42782,-1.54006 0.5598,-0.5598 0.68342,0.67834 0.99067,1.48524 0.68278,1.79313 -0.30789,0.30789 -0.86705,-0.24711 -1.24258,-1.23333 z m -91.06429,-5.29313 c 0.99549,-1.1 2.03498,-2 2.30998,-2 0.275,0 -0.31449,0.9 -1.30998,2 -0.99549,1.1 -2.03498,2 -2.30998,2 -0.275,0 0.31449,-0.9 1.30998,-2 z m 20.23333,-1.12409 c 0.67834,-0.68342 1.48524,-0.99067 1.79313,-0.68278 0.30789,0.30789 -0.24711,0.86705 -1.23333,1.24258 -1.4252,0.54268 -1.54006,0.42782 -0.5598,-0.5598 z"
         id="path3967"
         inkscape:connector-curvature="0" />
    </g>
  </g>
</svg>
