<?xml version="1.0" encoding="UTF-8" standalone="no"?>
<!-- Generator: Adobe Illustrator 12.0.0, SVG Export Plug-In . SVG Version: 6.00 Build 51448)  -->
<svg
   xmlns:dc="http://purl.org/dc/elements/1.1/"
   xmlns:cc="http://web.resource.org/cc/"
   xmlns:rdf="http://www.w3.org/1999/02/22-rdf-syntax-ns#"
   xmlns:svg="http://www.w3.org/2000/svg"
   xmlns="http://www.w3.org/2000/svg"
   xmlns:sodipodi="http://sodipodi.sourceforge.net/DTD/sodipodi-0.dtd"
   xmlns:inkscape="http://www.inkscape.org/namespaces/inkscape"
   height="278.496"
   id="Layer_1"
   inkscape:version="0.45.1"
   sodipodi:docbase="/Users/johnolsen/Desktop/openclipart-0.20-pre/recovered-zerobyte-files/animals/dinosaurs"
   sodipodi:docname="dino_architetto_frances_23r.svg"
   sodipodi:version="0.32"
   space="preserve"
   style="overflow:visible;enable-background:new 0 0 246.171 278.496;"
   version="1.1"
   viewBox="0 0 246.171 278.496"
   width="246.171"
   inkscape:output_extension="org.inkscape.output.svg.inkscape">
  <metadata
     id="metadata3">
    <rdf:RDF>
      <cc:Work
         rdf:about="">
        <dc:title>Dino</dc:title>
        <dc:description />
        <dc:subject>
          <rdf:Bag>
            <rdf:li>animal</rdf:li>
            <rdf:li>dinosaur</rdf:li>
          </rdf:Bag>
        </dc:subject>
        <dc:publisher>
          <cc:Agent
             rdf:about="http://www.openclipart.org/">
            <dc:title>Open Clip Art Library</dc:title>
          </cc:Agent>
        </dc:publisher>
        <dc:creator>
          <cc:Agent>
            <dc:title>Architetto Francesco Rollandin</dc:title>
          </cc:Agent>
        </dc:creator>
        <dc:rights>
          <cc:Agent>
            <dc:title>Architetto Francesco Rollandin</dc:title>
          </cc:Agent>
        </dc:rights>
        <dc:date />
        <dc:format>image/svg+xml</dc:format>
        <dc:type
           rdf:resource="http://purl.org/dc/dcmitype/StillImage" />
        <cc:license
           rdf:resource="http://web.resource.org/cc/PublicDomain" />
        <dc:language>en</dc:language>
      </cc:Work>
      <cc:License
         rdf:about="http://web.resource.org/cc/PublicDomain">
        <cc:permits
           rdf:resource="http://web.resource.org/cc/Reproduction" />
        <cc:permits
           rdf:resource="http://web.resource.org/cc/Distribution" />
        <cc:permits
           rdf:resource="http://web.resource.org/cc/DerivativeWorks" />
      </cc:License>
    </rdf:RDF>
  </metadata>
  <defs
     id="defs270" />
  <sodipodi:namedview
     bordercolor="#666666"
     borderopacity="1.0"
     id="base"
     inkscape:current-layer="Layer_1"
     inkscape:cx="123.08550"
     inkscape:cy="139.24800"
     inkscape:pageopacity="0.0"
     inkscape:pageshadow="2"
     inkscape:window-height="510"
     inkscape:window-width="787"
     inkscape:window-x="22"
     inkscape:window-y="29"
     inkscape:zoom="1.2926577"
     pagecolor="#ffffff" />
  <path
     d="M240.101,70.996c0.655,9.673-11.636,13.986-17.951,7.554  c-3.971-4.043-2.506-9.688-3.535-14.828c-1.597-7.972-2.33-14.887-6.858-21.997c-7.415-11.645-20.868-25.316-34.958-27.383  c-6.399-0.938-12.748,2.985-17.952,2.833c-3.876-0.113-5.985-2.89-9.448-3.778c-3.994-1.024-8.875,1.722-8.503-2.832  c0.25-3.06,9.676-6.723,12.283-8.026c11.902-5.952,24.792-0.082,36.323,3.759C216.979,15.452,240.131,41.586,240.101,70.996"
     id="path3"
     style="fill-rule:evenodd;clip-rule:evenodd;fill:#E4BC96;" />
  <path
     d="M0.116,0.179c79.978,0,159.955,0,239.933,0  c8.383,0,5.722,2.932,5.722,11.204c0,18.94,0,37.88,0,56.82c0,52.804,0,105.609,0,158.414c0,15.664,0,31.328,0,46.992  c0,7.436-7.458,4.175-14.08,4.175c-48.368,0-96.736,0-145.104,0c-7.378,0-86.47,2.199-86.47-1.887c0-38.943,0-77.887,0-116.83  C0.116,106.104,0.116,53.142,0.116,0.179"
     id="path5"
     style="fill-rule:evenodd;clip-rule:evenodd;fill:none;" />
  <path
     d="M219.315,70.996c4.561-14.216-2.277-27.58-10.603-38.679  c-4.365-5.82-10.453-10.479-16.324-14.67c-5.53-3.948-13.076-4.641-17.48-9.915c1.644,1.882,2.95,3.798,4.725,5.665  c-4.504-1.305-8.509-3.88-12.282-6.609c1.319,2.912,3.587,4.887,6.613,5.665c-10.042-3.34-22.865-0.848-33.068,0  c2.827,1.314,6.063,0.944,9.447,0.944c2.117,0,3.67,3.625,5.669,3.778c9.426,0.723,17.795-5.25,28.346-0.945  C204.393,24.404,220.373,49.731,219.315,70.996"
     id="path7"
     style="fill-rule:evenodd;clip-rule:evenodd;fill:#8B5C29;" />
  <path
     d="M0.116,0.179c79.978,0,159.955,0,239.933,0  c8.383,0,5.722,2.932,5.722,11.204c0,18.94,0,37.88,0,56.82c0,52.804,0,105.609,0,158.414c0,15.664,0,31.328,0,46.992  c0,7.436-7.458,4.175-14.08,4.175c-48.368,0-96.736,0-145.104,0c-7.378,0-86.47,2.199-86.47-1.887c0-38.943,0-77.887,0-116.83  C0.116,106.104,0.116,53.142,0.116,0.179"
     id="path9"
     style="fill-rule:evenodd;clip-rule:evenodd;fill:none;" />
  <path
     d="M155.068,4.9c1.123-0.771,1.33-2.3,3.778-1.888  C158.409,5.643,157.119,4.351,155.068,4.9"
     id="path11"
     style="fill-rule:evenodd;clip-rule:evenodd;fill:#FFFFFF;" />
  <path
     d="M0.116,0.179c79.978,0,159.955,0,239.933,0  c8.383,0,5.722,2.932,5.722,11.204c0,18.94,0,37.88,0,56.82c0,52.804,0,105.609,0,158.414c0,15.664,0,31.328,0,46.992  c0,7.436-7.458,4.175-14.08,4.175c-48.368,0-96.736,0-145.104,0c-7.378,0-86.47,2.199-86.47-1.887c0-38.943,0-77.887,0-116.83  C0.116,106.104,0.116,53.142,0.116,0.179"
     id="path13"
     style="fill-rule:evenodd;clip-rule:evenodd;fill:none;" />
  <path
     d="M156.957,4.9c0,0.321-1.302-0.675-0.945-1.888  c0.63,0,1.261,0,1.891,0C158.258,4.225,156.957,5.221,156.957,4.9"
     id="path15"
     style="fill-rule:evenodd;clip-rule:evenodd;fill:#FF4000;" />
  <path
     d="M0.116,0.179c79.978,0,159.955,0,239.933,0  c8.383,0,5.722,2.932,5.722,11.204c0,18.94,0,37.88,0,56.82c0,52.804,0,105.609,0,158.414c0,15.664,0,31.328,0,46.992  c0,7.436-7.458,4.175-14.08,4.175c-48.368,0-96.736,0-145.104,0c-7.378,0-86.47,2.199-86.47-1.887c0-38.943,0-77.887,0-116.83  C0.116,106.104,0.116,53.142,0.116,0.179"
     id="path17"
     style="fill-rule:evenodd;clip-rule:evenodd;fill:none;" />
  <path
     d="M149.398,7.732c-0.621,0.462-0.194-1.176,2.835-0.944  C151.483,7.344,149.936,7.332,149.398,7.732 M156.957,4.9C156.245,2.568,156.451,3.242,156.957,4.9"
     id="path19"
     style="fill-rule:evenodd;clip-rule:evenodd;" />
  <path
     d="M0.116,0.179c79.978,0,159.955,0,239.933,0  c8.383,0,5.722,2.932,5.722,11.204c0,18.94,0,37.88,0,56.82c0,52.804,0,105.609,0,158.414c0,15.664,0,31.328,0,46.992  c0,7.436-7.458,4.175-14.08,4.175c-48.368,0-96.736,0-145.104,0c-7.378,0-86.47,2.199-86.47-1.887c0-38.943,0-77.887,0-116.83  C0.116,106.104,0.116,53.142,0.116,0.179"
     id="path21"
     style="fill-rule:evenodd;clip-rule:evenodd;fill:none;" />
  <path
     d="M240.101,70.996  c0.655,9.673-11.636,13.986-17.951,7.554c-3.971-4.043-2.506-9.688-3.535-14.828c-1.597-7.972-2.33-14.887-6.858-21.997  c-7.415-11.645-20.868-25.316-34.958-27.383c-6.399-0.938-12.748,2.985-17.952,2.833c-3.876-0.113-5.985-2.89-9.448-3.778  c-3.994-1.024-8.875,1.722-8.503-2.832c0.25-3.06,9.676-6.723,12.283-8.026c11.902-5.952,24.792-0.082,36.323,3.759  C216.979,15.452,240.131,41.586,240.101,70.996"
     id="path23"
     style="fill:none;stroke:#808080;stroke-width:0;stroke-linecap:square;stroke-miterlimit:10;" />
  <path
     d="M154.123,11.509  c-4.221-1.893-8.678,0.566-13.228,0.944"
     id="path25"
     style="fill:none;stroke:#808080;stroke-width:0;stroke-linecap:square;stroke-miterlimit:10;" />
  <line
     id="line27"
     style="fill:none;stroke:#808080;stroke-width:0;stroke-linecap:square;stroke-miterlimit:10;"
     x1="151.288"
     x2="152.233"
     y1="4.9"
     y2="3.012" />
  <path
     d="M159.792,1.123  c0.842-0.133,1.456,0.208,1.89,0.944"
     id="path29"
     style="fill:none;stroke:#808080;stroke-width:0;stroke-linecap:square;stroke-miterlimit:10;" />
  <line
     id="line31"
     style="fill:none;stroke:#808080;stroke-width:0;stroke-linecap:square;stroke-miterlimit:10;"
     x1="156.957"
     x2="155.068"
     y1="4.9"
     y2="4.9" />
  <path
     d="M156.011,3.012  c0.945,0,1.89,0,2.835,0"
     id="path33"
     style="fill:none;stroke:#808080;stroke-width:0;stroke-linecap:square;stroke-miterlimit:10;" />
  <path
     d="M148.453,7.732  c0.531-1.129,2.013-1.331,3.78-0.944"
     id="path35"
     style="fill:none;stroke:#808080;stroke-width:0;stroke-linecap:square;stroke-miterlimit:10;" />
  <path
     d="M0.116,0.179c79.978,0,159.955,0,239.933,0  c8.383,0,5.722,2.932,5.722,11.204c0,18.94,0,37.88,0,56.82c0,52.804,0,105.609,0,158.414c0,15.664,0,31.328,0,46.992  c0,7.436-7.458,4.175-14.08,4.175c-48.368,0-96.736,0-145.104,0c-7.378,0-86.47,2.199-86.47-1.887c0-38.943,0-77.887,0-116.83  C0.116,106.104,0.116,53.142,0.116,0.179"
     id="path37"
     style="fill-rule:evenodd;clip-rule:evenodd;fill:none;" />
  <path
     d="M171.129,122.929c-9.955,1.291-18.705-6.134-22.187-14.828  c-4.652-11.615,2.071-16.713,6.597-25.774c5.305-10.62,26.959-2.344,33.541,0.944c7.803,3.898,25.185,5.716,28.817-5.193  c1.425-4.277,3.336-21.707,12.755-16.997c9.11,4.555,12.52,11.217,8.014,22.47C227.961,110.288,197.8,119.967,171.129,122.929"
     id="path39"
     style="fill-rule:evenodd;clip-rule:evenodd;fill:#E4BC96;" />
  <path
     d="M0.116,0.179c79.978,0,159.955,0,239.933,0  c8.383,0,5.722,2.932,5.722,11.204c0,18.94,0,37.88,0,56.82c0,52.804,0,105.609,0,158.414c0,15.664,0,31.328,0,46.992  c0,7.436-7.458,4.175-14.08,4.175c-48.368,0-96.736,0-145.104,0c-7.378,0-86.47,2.199-86.47-1.887c0-38.943,0-77.887,0-116.83  C0.116,106.104,0.116,53.142,0.116,0.179"
     id="path41"
     style="fill-rule:evenodd;clip-rule:evenodd;fill:none;" />
  <path
     d="M240.101,70.996c1.21,18.899-12.36,33.097-28.345,40.602  c-13.778,6.469-40.795,17.682-54.8,7.554c6.519-4.372,11.074-12.981,19.842-12.275c-2.54,5.09-9.999,4.569-12.282,11.331  c4.829-1.632,10.103-3.258,15.116-3.777c-1.046-0.654-1.943-2.208-3.779-2.833c12.604-3.172,24.127-0.014,37.128-5.21  C225.333,101.452,241.429,85.274,240.101,70.996"
     id="path43"
     style="fill-rule:evenodd;clip-rule:evenodd;fill:#8B5C29;" />
  <path
     d="M0.116,0.179c79.978,0,159.955,0,239.933,0  c8.383,0,5.722,2.932,5.722,11.204c0,18.94,0,37.88,0,56.82c0,52.804,0,105.609,0,158.414c0,15.664,0,31.328,0,46.992  c0,7.436-7.458,4.175-14.08,4.175c-48.368,0-96.736,0-145.104,0c-7.378,0-86.47,2.199-86.47-1.887c0-38.943,0-77.887,0-116.83  C0.116,106.104,0.116,53.142,0.116,0.179"
     id="path45"
     style="fill-rule:evenodd;clip-rule:evenodd;fill:none;" />
  <path
     d="M171.129,122.929  c-21.158,2.743-34.331-35.15-13.701-42.019c5.173-1.722,9.04-3.479,14.646-3.305c8.424,0.262,13.865,5.473,21.73,7.554  c11,2.911,26.078-0.158,25.51-14.164"
     id="path47"
     style="fill:none;stroke:#808080;stroke-width:0;stroke-linecap:square;stroke-miterlimit:10;" />
  <path
     d="M240.101,70.996  c2.259,35.286-41.155,48.844-68.972,51.933"
     id="path49"
     style="fill:none;stroke:#808080;stroke-width:0;stroke-linecap:square;stroke-miterlimit:10;" />
  <path
     d="M0.116,0.179c79.978,0,159.955,0,239.933,0  c8.383,0,5.722,2.932,5.722,11.204c0,18.94,0,37.88,0,56.82c0,52.804,0,105.609,0,158.414c0,15.664,0,31.328,0,46.992  c0,7.436-7.458,4.175-14.08,4.175c-48.368,0-96.736,0-145.104,0c-7.378,0-86.47,2.199-86.47-1.887c0-38.943,0-77.887,0-116.83  C0.116,106.104,0.116,53.142,0.116,0.179"
     id="path51"
     style="fill-rule:evenodd;clip-rule:evenodd;fill:none;" />
  <path
     d="M36.964,191.859c-5.238-1.208-15.416-2.223-17.007-6.609  c-2.018-5.564,6.148-17.507,7.313-23.326c1.179-5.889,7.042-12.99,12.056-16.332c4.448-2.965,4.291-10.823,11.81-11.331  c16.397-1.109,6.056,19.442,0.06,25.436c-4.562,4.559-15.225,13.421-14.232,20.832c0.53,3.953,5.92,6.673,7.559,10.386  C41.899,191.39,39.749,191.971,36.964,191.859"
     id="path53"
     style="fill-rule:evenodd;clip-rule:evenodd;fill:#E4BC96;" />
  <path
     d="M0.116,0.179c79.978,0,159.955,0,239.933,0  c8.383,0,5.722,2.932,5.722,11.204c0,18.94,0,37.88,0,56.82c0,52.804,0,105.609,0,158.414c0,15.664,0,31.328,0,46.992  c0,7.436-7.458,4.175-14.08,4.175c-48.368,0-96.736,0-145.104,0c-7.378,0-86.47,2.199-86.47-1.887c0-38.943,0-77.887,0-116.83  C0.116,106.104,0.116,53.142,0.116,0.179"
     id="path55"
     style="fill-rule:evenodd;clip-rule:evenodd;fill:none;" />
  <path
     d="M36.019,189.971c-26.706-1.957,0.051-25.965,6.615-35.883  c-1.495,0.881-4.138,1.051-5.669,1.89c1.784-5.086,6.941-6.322,8.976-10.387c2.012-4.021,3.552-8.392,7.086-11.331  c-5.777,0.279-10.013,3.584-11.81,8.971c-1.921,5.756-10.886,10.979-13.7,17.468c-2.569,5.923-7.559,17.221-7.559,23.606  c0,5.569,11.9,6.376,17.007,7.554C35.111,192.002,36.461,191.104,36.019,189.971"
     id="path57"
     style="fill-rule:evenodd;clip-rule:evenodd;fill:#8B5C29;" />
  <path
     d="M0.116,0.179c79.978,0,159.955,0,239.933,0  c8.383,0,5.722,2.932,5.722,11.204c0,18.94,0,37.88,0,56.82c0,52.804,0,105.609,0,158.414c0,15.664,0,31.328,0,46.992  c0,7.436-7.458,4.175-14.08,4.175c-48.368,0-96.736,0-145.104,0c-7.378,0-86.47,2.199-86.47-1.887c0-38.943,0-77.887,0-116.83  C0.116,106.104,0.116,53.142,0.116,0.179"
     id="path59"
     style="fill-rule:evenodd;clip-rule:evenodd;fill:none;" />
  <path
     d="M40.743,186.193c2.169,1.131,3.562,2.11,3.78,4.721  c-3.014,0.688-4.716,1.158-8.504,0.945c0.364-1.628,0.854-3.464,1.891-4.722C39.817,189.249,39.28,187.116,40.743,186.193"
     id="path61"
     style="fill-rule:evenodd;clip-rule:evenodd;fill:#5A3D1C;" />
  <path
     d="M0.116,0.179c79.978,0,159.955,0,239.933,0  c8.383,0,5.722,2.932,5.722,11.204c0,18.94,0,37.88,0,56.82c0,52.804,0,105.609,0,158.414c0,15.664,0,31.328,0,46.992  c0,7.436-7.458,4.175-14.08,4.175c-48.368,0-96.736,0-145.104,0c-7.378,0-86.47,2.199-86.47-1.887c0-38.943,0-77.887,0-116.83  C0.116,106.104,0.116,53.142,0.116,0.179"
     id="path63"
     style="fill-rule:evenodd;clip-rule:evenodd;fill:none;" />
  <path
     d="M36.964,191.859  c-5.238-1.208-15.416-2.223-17.007-6.609c-2.018-5.564,6.148-17.507,7.313-23.326c1.179-5.889,7.042-12.99,12.056-16.332  c4.448-2.965,4.291-10.823,11.81-11.331c16.397-1.109,6.056,19.442,0.06,25.436c-4.562,4.559-15.225,13.421-14.232,20.832  c0.53,3.953,5.92,6.673,7.559,10.386C41.899,191.39,39.749,191.971,36.964,191.859"
     id="path65"
     style="fill:none;stroke:#808080;stroke-width:0;stroke-linecap:square;stroke-miterlimit:10;" />
  <path
     d="M36.964,185.25  c0.868,0.772,1.501,1.726,1.889,2.832"
     id="path67"
     style="fill:none;stroke:#808080;stroke-width:0;stroke-linecap:square;stroke-miterlimit:10;" />
  <path
     d="M40.743,186.193  c-0.736,0.433-1.078,1.047-0.944,1.889"
     id="path69"
     style="fill:none;stroke:#808080;stroke-width:0;stroke-linecap:square;stroke-miterlimit:10;" />
  <path
     d="M38.854,188.082  c0.745,1.31,1.745,2.353,2.835,2.832"
     id="path71"
     style="fill:none;stroke:#808080;stroke-width:0;stroke-linecap:square;stroke-miterlimit:10;" />
  <path
     d="M36.964,191.859  c-0.895-2.136-0.041-3.675,1.889-3.777"
     id="path73"
     style="fill:none;stroke:#808080;stroke-width:0;stroke-linecap:square;stroke-miterlimit:10;" />
  <path
     d="M0.116,0.179c79.978,0,159.955,0,239.933,0  c8.383,0,5.722,2.932,5.722,11.204c0,18.94,0,37.88,0,56.82c0,52.804,0,105.609,0,158.414c0,15.664,0,31.328,0,46.992  c0,7.436-7.458,4.175-14.08,4.175c-48.368,0-96.736,0-145.104,0c-7.378,0-86.47,2.199-86.47-1.887c0-38.943,0-77.887,0-116.83  C0.116,106.104,0.116,53.142,0.116,0.179"
     id="path75"
     style="fill-rule:evenodd;clip-rule:evenodd;fill:none;" />
  <path
     d="M44.523,130.483c5.849-12.011,0.695-34.813,15.117-42.019  c10.489-5.24,24.565-5.125,24.565,11.332c0,17.313-8.437,34.428-24.565,42.49C49.821,147.194,40.832,141.732,44.523,130.483"
     id="path77"
     style="fill-rule:evenodd;clip-rule:evenodd;fill:#E4BC96;" />
  <path
     d="M0.116,0.179c79.978,0,159.955,0,239.933,0  c8.383,0,5.722,2.932,5.722,11.204c0,18.94,0,37.88,0,56.82c0,52.804,0,105.609,0,158.414c0,15.664,0,31.328,0,46.992  c0,7.436-7.458,4.175-14.08,4.175c-48.368,0-96.736,0-145.104,0c-7.378,0-86.47,2.199-86.47-1.887c0-38.943,0-77.887,0-116.83  C0.116,106.104,0.116,53.142,0.116,0.179"
     id="path79"
     style="fill-rule:evenodd;clip-rule:evenodd;fill:none;" />
  <path
     d="M47.358,143.703c-0.488-4.559,1.615-7.858,1.889-12.275  c0.25-4.03-1.303-8.43-0.945-13.22C45.628,125.28,40.056,137.944,47.358,143.703"
     id="path81"
     style="fill-rule:evenodd;clip-rule:evenodd;fill:#8B5C29;" />
  <path
     d="M0.116,0.179c79.978,0,159.955,0,239.933,0  c8.383,0,5.722,2.932,5.722,11.204c0,18.94,0,37.88,0,56.82c0,52.804,0,105.609,0,158.414c0,15.664,0,31.328,0,46.992  c0,7.436-7.458,4.175-14.08,4.175c-48.368,0-96.736,0-145.104,0c-7.378,0-86.47,2.199-86.47-1.887c0-38.943,0-77.887,0-116.83  C0.116,106.104,0.116,53.142,0.116,0.179"
     id="path83"
     style="fill-rule:evenodd;clip-rule:evenodd;fill:none;" />
  <path
     d="M44.523,130.483  c5.342-10.97,6.679-59.43,32.124-44.379c23.395,13.837-4.077,50.313-19.841,57.599"
     id="path85"
     style="fill:none;stroke:#808080;stroke-width:0;stroke-linecap:square;stroke-miterlimit:10;" />
  <path
     d="M43.578,134.26  c0.804-1.14,1.121-2.399,0.945-3.777"
     id="path87"
     style="fill:none;stroke:#808080;stroke-width:0;stroke-linecap:square;stroke-miterlimit:10;" />
  <path
     d="M0.116,0.179c79.978,0,159.955,0,239.933,0  c8.383,0,5.722,2.932,5.722,11.204c0,18.94,0,37.88,0,56.82c0,52.804,0,105.609,0,158.414c0,15.664,0,31.328,0,46.992  c0,7.436-7.458,4.175-14.08,4.175c-48.368,0-96.736,0-145.104,0c-7.378,0-86.47,2.199-86.47-1.887c0-38.943,0-77.887,0-116.83  C0.116,106.104,0.116,53.142,0.116,0.179"
     id="path89"
     style="fill-rule:evenodd;clip-rule:evenodd;fill:none;" />
  <path
     d="M171.129,122.929c-0.737,8.039,8.496,15.404-2.835,18.885  c-10.02,3.078-8.499-6.605-11.811-13.219c-3.689-7.369-9.471-21.152,2.362-23.606C167.108,103.276,173.998,115.515,171.129,122.929"
     id="path91"
     style="fill-rule:evenodd;clip-rule:evenodd;fill:#E4BC96;" />
  <path
     d="M0.116,0.179c79.978,0,159.955,0,239.933,0  c8.383,0,5.722,2.932,5.722,11.204c0,18.94,0,37.88,0,56.82c0,52.804,0,105.609,0,158.414c0,15.664,0,31.328,0,46.992  c0,7.436-7.458,4.175-14.08,4.175c-48.368,0-96.736,0-145.104,0c-7.378,0-86.47,2.199-86.47-1.887c0-38.943,0-77.887,0-116.83  C0.116,106.104,0.116,53.142,0.116,0.179"
     id="path93"
     style="fill-rule:evenodd;clip-rule:evenodd;fill:none;" />
  <path
     d="M167.35,142.758c-9.035,0.497-9.171-8.262-11.339-15.107  c-3.473-10.967-7.832-17.328,3.78-23.134c6.982-3.492,14.5,13.446,11.338,18.412c-3.875,6.087-6.613,0.341-6.613,7.554  c0,3.601,3.031,4.234,5.668,5.665c-2.442,0.583-3.802,1.144-6.613,0C164.042,138.467,165.394,140.958,167.35,142.758"
     id="path95"
     style="fill-rule:evenodd;clip-rule:evenodd;fill:#8B5C29;" />
  <path
     d="M0.116,0.179c79.978,0,159.955,0,239.933,0  c8.383,0,5.722,2.932,5.722,11.204c0,18.94,0,37.88,0,56.82c0,52.804,0,105.609,0,158.414c0,15.664,0,31.328,0,46.992  c0,7.436-7.458,4.175-14.08,4.175c-48.368,0-96.736,0-145.104,0c-7.378,0-86.47,2.199-86.47-1.887c0-38.943,0-77.887,0-116.83  C0.116,106.104,0.116,53.142,0.116,0.179"
     id="path97"
     style="fill-rule:evenodd;clip-rule:evenodd;fill:none;" />
  <path
     d="M171.129,122.929  c-0.737,8.039,8.496,15.404-2.835,18.885c-10.02,3.078-8.499-6.605-11.811-13.219c-3.689-7.369-9.471-21.152,2.362-23.606  C167.108,103.276,173.998,115.515,171.129,122.929"
     id="path99"
     style="fill:none;stroke:#808080;stroke-width:0;stroke-linecap:square;stroke-miterlimit:10;" />
  <path
     d="M0.116,0.179c79.978,0,159.955,0,239.933,0  c8.383,0,5.722,2.932,5.722,11.204c0,18.94,0,37.88,0,56.82c0,52.804,0,105.609,0,158.414c0,15.664,0,31.328,0,46.992  c0,7.436-7.458,4.175-14.08,4.175c-48.368,0-96.736,0-145.104,0c-7.378,0-86.47,2.199-86.47-1.887c0-38.943,0-77.887,0-116.83  C0.116,106.104,0.116,53.142,0.116,0.179"
     id="path101"
     style="fill-rule:evenodd;clip-rule:evenodd;fill:none;" />
  <path
     d="M177.743,139.925c1.261,3.778,2.772,18.822,5.196,21.246  c3.69,3.69,9.95,2.842,12.756,8.024c-3.149,1.928-20.394,4.863-24.565,1.89c-4.149-2.957-4.204-13.188-6.613-17.939  c-3.631-7.163-11.599-16.366-1.89-21.718C170.659,127,174.728,133.891,177.743,139.925"
     id="path103"
     style="fill-rule:evenodd;clip-rule:evenodd;fill:#E4BC96;" />
  <path
     d="M0.116,0.179c79.978,0,159.955,0,239.933,0  c8.383,0,5.722,2.932,5.722,11.204c0,18.94,0,37.88,0,56.82c0,52.804,0,105.609,0,158.414c0,15.664,0,31.328,0,46.992  c0,7.436-7.458,4.175-14.08,4.175c-48.368,0-96.736,0-145.104,0c-7.378,0-86.47,2.199-86.47-1.887c0-38.943,0-77.887,0-116.83  C0.116,106.104,0.116,53.142,0.116,0.179"
     id="path105"
     style="fill-rule:evenodd;clip-rule:evenodd;fill:none;" />
  <path
     d="M189.082,171.085c-17.008,0-18.385,2.042-22.204-13.219  c-2.099-8.386-17.609-22.581-2.361-27.383c0.362,3.657,2.798,4.107,5.668,5.665c-2.442,0.583-3.802,1.144-6.613,0  c1.062,4.768,5.019,7.888,5.669,13.219c-2.45-1.994-4.323-5.019-5.669-7.554c0.481,9.126,9.611,15.095,10.393,23.606  c-1.009-0.354-1.816-0.608-2.834-0.944C174.405,173.76,189.044,164.827,189.082,171.085"
     id="path107"
     style="fill-rule:evenodd;clip-rule:evenodd;fill:#8B5C29;" />
  <path
     d="M0.116,0.179c79.978,0,159.955,0,239.933,0  c8.383,0,5.722,2.932,5.722,11.204c0,18.94,0,37.88,0,56.82c0,52.804,0,105.609,0,158.414c0,15.664,0,31.328,0,46.992  c0,7.436-7.458,4.175-14.08,4.175c-48.368,0-96.736,0-145.104,0c-7.378,0-86.47,2.199-86.47-1.887c0-38.943,0-77.887,0-116.83  C0.116,106.104,0.116,53.142,0.116,0.179"
     id="path109"
     style="fill-rule:evenodd;clip-rule:evenodd;fill:none;" />
  <path
     d="M177.743,139.925  c1.261,3.778,2.772,18.822,5.196,21.246c3.69,3.69,9.95,2.842,12.756,8.024c-5.676,3.474-22.929,4.763-27.4-1.888  c-2.432-3.615-1.624-10.931-4.724-15.579c-3.055-4.582-7.612-11.276-4.725-16.524"
     id="path111"
     style="fill:none;stroke:#808080;stroke-width:0;stroke-linecap:square;stroke-miterlimit:10;" />
  <path
     d="M172.075,131.428  c2.585,2.348,4.152,5.376,5.668,8.498"
     id="path113"
     style="fill:none;stroke:#808080;stroke-width:0;stroke-linecap:square;stroke-miterlimit:10;" />
  <path
     d="M189.082,171.085  c-0.296-1.434,0-3.24,0-4.722c1.979,0.492,3.334,1.372,4.724,2.832"
     id="path115"
     style="fill:none;stroke:#808080;stroke-width:0;stroke-linecap:square;stroke-miterlimit:10;" />
  <path
     d="M189.082,166.364  c-0.319-0.962-1.376-1.56-2.835-1.888"
     id="path117"
     style="fill:none;stroke:#808080;stroke-width:0;stroke-linecap:square;stroke-miterlimit:10;" />
  <path
     d="M191.915,167.308  c0-0.629,0-1.259,0-1.888"
     id="path119"
     style="fill:none;stroke:#808080;stroke-width:0;stroke-linecap:square;stroke-miterlimit:10;" />
  <path
     d="M0.116,0.179c79.978,0,159.955,0,239.933,0  c8.383,0,5.722,2.932,5.722,11.204c0,18.94,0,37.88,0,56.82c0,52.804,0,105.609,0,158.414c0,15.664,0,31.328,0,46.992  c0,7.436-7.458,4.175-14.08,4.175c-48.368,0-96.736,0-145.104,0c-7.378,0-86.47,2.199-86.47-1.887c0-38.943,0-77.887,0-116.83  C0.116,106.104,0.116,53.142,0.116,0.179"
     id="path121"
     style="fill-rule:evenodd;clip-rule:evenodd;fill:none;" />
  <path
     d="M191.915,165.42c1.892,0.876,3.303,1.804,3.78,3.775  c-2.771,1.823-7.986,3.544-6.613-2.832C192.4,168.483,191.089,165.697,191.915,165.42"
     id="path123"
     style="fill-rule:evenodd;clip-rule:evenodd;fill:#5A3D1C;" />
  <path
     d="M0.116,0.179c79.978,0,159.955,0,239.933,0  c8.383,0,5.722,2.932,5.722,11.204c0,18.94,0,37.88,0,56.82c0,52.804,0,105.609,0,158.414c0,15.664,0,31.328,0,46.992  c0,7.436-7.458,4.175-14.08,4.175c-48.368,0-96.736,0-145.104,0c-7.378,0-86.47,2.199-86.47-1.887c0-38.943,0-77.887,0-116.83  C0.116,106.104,0.116,53.142,0.116,0.179"
     id="path125"
     style="fill-rule:evenodd;clip-rule:evenodd;fill:none;" />
  <path
     d="M39.799,171.085c14.28,39.06,54.21,49.113,89.795,59.782  c32.933,9.873,94.72,6.104,112.396,43.14c-52.158-41.683-119.294-20.989-177.863-42.934C36.202,220.611,7.453,196.389,1.306,165.7  c-2.745-13.704,3.764-31.947,21.486-27.662C38.761,141.899,36.675,158.599,39.799,171.085"
     id="path127"
     style="fill-rule:evenodd;clip-rule:evenodd;fill:#E4BC96;" />
  <path
     d="M0.116,0.179c79.978,0,159.955,0,239.933,0  c8.383,0,5.722,2.932,5.722,11.204c0,18.94,0,37.88,0,56.82c0,52.804,0,105.609,0,158.414c0,15.664,0,31.328,0,46.992  c0,7.436-7.458,4.175-14.08,4.175c-48.368,0-96.736,0-145.104,0c-7.378,0-86.47,2.199-86.47-1.887c0-38.943,0-77.887,0-116.83  C0.116,106.104,0.116,53.142,0.116,0.179"
     id="path129"
     style="fill-rule:evenodd;clip-rule:evenodd;fill:none;" />
  <path
     d="M241.991,274.007c-38.604-30.851-90.218-30.828-137.472-34.465  c-24.852-1.913-48.384-9.45-68.588-23.871C18.81,203.451-0.993,178.246,0.116,155.978c10.386,48.886,59.72,72.266,104.771,79.771  C151.196,243.462,206.327,238.378,241.991,274.007"
     id="path131"
     style="fill-rule:evenodd;clip-rule:evenodd;fill:#8B5C29;" />
  <path
     d="M0.116,0.179c79.978,0,159.955,0,239.933,0  c8.383,0,5.722,2.932,5.722,11.204c0,18.94,0,37.88,0,56.82c0,52.804,0,105.609,0,158.414c0,15.664,0,31.328,0,46.992  c0,7.436-7.458,4.175-14.08,4.175c-48.368,0-96.736,0-145.104,0c-7.378,0-86.47,2.199-86.47-1.887c0-38.943,0-77.887,0-116.83  C0.116,106.104,0.116,53.142,0.116,0.179"
     id="path133"
     style="fill-rule:evenodd;clip-rule:evenodd;fill:none;" />
  <path
     d="M39.799,171.085  c14.28,39.06,54.21,49.113,89.795,59.782c32.933,9.873,94.72,6.104,112.396,43.14c-52.158-41.683-119.294-20.989-177.863-42.934  C36.202,220.611,7.453,196.389,1.306,165.7c-2.745-13.704,3.764-31.947,21.486-27.662C38.761,141.899,36.675,158.599,39.799,171.085  "
     id="path135"
     style="fill:none;stroke:#808080;stroke-width:0;stroke-linecap:square;stroke-miterlimit:10;" />
  <path
     d="M0.116,0.179c79.978,0,159.955,0,239.933,0  c8.383,0,5.722,2.932,5.722,11.204c0,18.94,0,37.88,0,56.82c0,52.804,0,105.609,0,158.414c0,15.664,0,31.328,0,46.992  c0,7.436-7.458,4.175-14.08,4.175c-48.368,0-96.736,0-145.104,0c-7.378,0-86.47,2.199-86.47-1.887c0-38.943,0-77.887,0-116.83  C0.116,106.104,0.116,53.142,0.116,0.179"
     id="path137"
     style="fill-rule:evenodd;clip-rule:evenodd;fill:none;" />
  <path
     d="M36.964,155.978c1.542,12.932-13.121,20.089-23.62,17.468  c-15.254-3.809-13.777-22.229-12.756-34.464c1.859-22.288,6.525-67.368,33.541-74.123c25.838-6.46,52.881,13.513,44.408,42.019  C70.94,132.435,34.265,125.341,36.964,155.978"
     id="path139"
     style="fill-rule:evenodd;clip-rule:evenodd;fill:#E4BC96;" />
  <path
     d="M0.116,0.179c79.978,0,159.955,0,239.933,0  c8.383,0,5.722,2.932,5.722,11.204c0,18.94,0,37.88,0,56.82c0,52.804,0,105.609,0,158.414c0,15.664,0,31.328,0,46.992  c0,7.436-7.458,4.175-14.08,4.175c-48.368,0-96.736,0-145.104,0c-7.378,0-86.47,2.199-86.47-1.887c0-38.943,0-77.887,0-116.83  C0.116,106.104,0.116,53.142,0.116,0.179"
     id="path141"
     style="fill-rule:evenodd;clip-rule:evenodd;fill:none;" />
  <path
     d="M36.964,155.978c-5.435-15.646,6.111-25.246,17.951-31.16  c17.021-8.503,26.606-26.211,20.787-44.379c9,15.098,2.033,38.136-13.228,46.268C48.332,134.242,35.084,134.64,36.964,155.978"
     id="path143"
     style="fill-rule:evenodd;clip-rule:evenodd;fill:#8B5C29;" />
  <path
     d="M0.116,0.179c79.978,0,159.955,0,239.933,0  c8.383,0,5.722,2.932,5.722,11.204c0,18.94,0,37.88,0,56.82c0,52.804,0,105.609,0,158.414c0,15.664,0,31.328,0,46.992  c0,7.436-7.458,4.175-14.08,4.175c-48.368,0-96.736,0-145.104,0c-7.378,0-86.47,2.199-86.47-1.887c0-38.943,0-77.887,0-116.83  C0.116,106.104,0.116,53.142,0.116,0.179"
     id="path145"
     style="fill-rule:evenodd;clip-rule:evenodd;fill:none;" />
  <path
     d="M0.116,155.978  c0-23.208,2.263-46.762,12.283-67.985c9.405-19.92,30.561-33.979,51.966-19.829c16.62,10.987,22.41,40.327,4.688,53.611  c-14.284,10.707-34.223,9.984-32.089,34.203"
     id="path147"
     style="fill:none;stroke:#808080;stroke-width:0;stroke-linecap:square;stroke-miterlimit:10;" />
  <path
     d="M0.116,0.179c79.978,0,159.955,0,239.933,0  c8.383,0,5.722,2.932,5.722,11.204c0,18.94,0,37.88,0,56.82c0,52.804,0,105.609,0,158.414c0,15.664,0,31.328,0,46.992  c0,7.436-7.458,4.175-14.08,4.175c-48.368,0-96.736,0-145.104,0c-7.378,0-86.47,2.199-86.47-1.887c0-38.943,0-77.887,0-116.83  C0.116,106.104,0.116,53.142,0.116,0.179"
     id="path149"
     style="fill-rule:evenodd;clip-rule:evenodd;fill:none;" />
  <path
     d="M50.191,130.483c-14.984,0-28.235-4.57-34.958-18.885  c-6.487-13.812-2.221-23.773,3.336-36.736c11.864-27.676,47.386-39.651,75.084-35.025c16.63,2.777,32.121,9.912,47.136,17.416  c13.979,6.985,31.047,13.287,42.622,24.13c11.708,10.967,11.194,28.735-2.362,37.77c-10.502,6.999-27.763,10.327-40.154,11.331  c-15.754,1.277-31.598,4.721-47.521,4.721C78.743,135.205,64.861,130.483,50.191,130.483"
     id="path151"
     style="fill-rule:evenodd;clip-rule:evenodd;fill:#E4BC96;" />
  <path
     d="M0.116,0.179c79.978,0,159.955,0,239.933,0  c8.383,0,5.722,2.932,5.722,11.204c0,18.94,0,37.88,0,56.82c0,52.804,0,105.609,0,158.414c0,15.664,0,31.328,0,46.992  c0,7.436-7.458,4.175-14.08,4.175c-48.368,0-96.736,0-145.104,0c-7.378,0-86.47,2.199-86.47-1.887c0-38.943,0-77.887,0-116.83  C0.116,106.104,0.116,53.142,0.116,0.179"
     id="path153"
     style="fill-rule:evenodd;clip-rule:evenodd;fill:none;" />
  <path
     d="M50.191,130.483c-10.262,0-21.213-0.796-28.345-9.442  c20.921,7.84,35.298,4.198,53.855-5.666c7.478-3.975,15.657-3.219,20.786-10.386c4.626-6.465,5.399-19.192,11.338-23.606  c0.501,5.354-11.288,26.552-2.833,29.271c7.775,2.501,8.647-24.373,14.172-28.327c-1.847,4.35-10.648,33.174-0.945,34.937  c3.575,0.65,8.355-30.336,12.284-34.937c-2.716,7.556-10.125,26.039-0.945,32.104c9.623,6.358,1.614-19.192,5.669-24.55  c-1.518,6.34-1.538,13.159,1.89,18.885c1.089-5.564,7.929-8.697,13.228-8.499c-6.769-0.143-10.439,4.871-12.282,10.387  c3.534-3.617,8.554-4.96,13.227-2.833c-6.137-0.045-11.636,1.363-15.116,6.61c3.322-3.294,8.714-4.067,12.281-0.944  c-9.83-0.309-4.71,13.213,3.78,8.97c8.182-4.089,14.087-16.828,24.565-15.58c-2.689,5.389-10.919,4.15-12.282,11.331  c3.833-2.583,10.394-3.288,15.116-3.777c-0.965-0.547-2.024-2.236-3.779-2.833c4.127-1.412,8.938-1.373,13.229,0  c-13.07,18.444-44.258,16.91-63.968,20.603c-12.633,2.367-25.896,3.003-38.739,3.003C74.29,135.205,62.497,130.483,50.191,130.483"
     id="path155"
     style="fill-rule:evenodd;clip-rule:evenodd;fill:#8B5C29;" />
  <path
     d="M0.116,0.179c79.978,0,159.955,0,239.933,0  c8.383,0,5.722,2.932,5.722,11.204c0,18.94,0,37.88,0,56.82c0,52.804,0,105.609,0,158.414c0,15.664,0,31.328,0,46.992  c0,7.436-7.458,4.175-14.08,4.175c-48.368,0-96.736,0-145.104,0c-7.378,0-86.47,2.199-86.47-1.887c0-38.943,0-77.887,0-116.83  C0.116,106.104,0.116,53.142,0.116,0.179"
     id="path157"
     style="fill-rule:evenodd;clip-rule:evenodd;fill:none;" />
  <path
     d="M14.288,84.216  C20.68,71.843,31.053,53.34,44.802,47.845c16.45-6.575,27.005-8.008,44.652-8.008c16.668,0,33.968,8.737,48.605,16.051  c15.118,7.555,32.559,14.287,45.352,25.495"
     id="path159"
     style="fill:none;stroke:#808080;stroke-width:0;stroke-linecap:square;stroke-miterlimit:10;" />
  <path
     d="M177.743,121.041  c-9.86,2.553-19.271,6.86-29.29,8.498c-13.281,2.171-27.184,3.637-40.651,4.534c-21.683,1.445-41.685-3.59-63.279-3.59"
     id="path161"
     style="fill:none;stroke:#808080;stroke-width:0;stroke-linecap:square;stroke-miterlimit:10;" />
  <path
     d="M97.433,103.101  c2.063-6.891,6.354-12.82,8.503-19.829"
     id="path163"
     style="fill:none;stroke:#808080;stroke-width:0;stroke-linecap:square;stroke-miterlimit:10;" />
  <path
     d="M107.826,83.271  c-0.219,7.622-5.722,14.153-5.668,21.718"
     id="path165"
     style="fill:none;stroke:#808080;stroke-width:0;stroke-linecap:square;stroke-miterlimit:10;" />
  <path
     d="M118.219,84.216  c-2.07,9.149-6.196,18.96-2.834,28.327"
     id="path167"
     style="fill:none;stroke:#808080;stroke-width:0;stroke-linecap:square;stroke-miterlimit:10;" />
  <path
     d="M126.723,91.77  c-1.443,7.316-1.385,13.904,1.889,20.773"
     id="path169"
     style="fill:none;stroke:#808080;stroke-width:0;stroke-linecap:square;stroke-miterlimit:10;" />
  <path
     d="M150.343,100.268  c-5.983-0.404-11.087,5.268-12.282,10.387c3.606-3.091,8.634-4.963,13.227-2.833"
     id="path171"
     style="fill:none;stroke:#808080;stroke-width:0;stroke-linecap:square;stroke-miterlimit:10;" />
  <path
     d="M0.116,0.179c79.978,0,159.955,0,239.933,0  c8.383,0,5.722,2.932,5.722,11.204c0,18.94,0,37.88,0,56.82c0,52.804,0,105.609,0,158.414c0,15.664,0,31.328,0,46.992  c0,7.436-7.458,4.175-14.08,4.175c-48.368,0-96.736,0-145.104,0c-7.378,0-86.47,2.199-86.47-1.887c0-38.943,0-77.887,0-116.83  C0.116,106.104,0.116,53.142,0.116,0.179"
     id="path173"
     style="fill-rule:evenodd;clip-rule:evenodd;fill:none;" />
  <path
     d="M107.826,142.758c-1.214,6.329-0.549,12.435,0,18.886  c0.354,4.16-1.549,16.812,0,19.828c1.912,3.723,22.175,10.747,4.724,11.331c0.315,0.314,0.63,0.63,0.945,0.944  c-4.068,1.507-18.817,1.25-22.676-3.776c-2.606-3.395-0.425-10.203-1.417-14.164c-1.023-4.091-3.133-8.014-3.308-12.275  c-0.227-5.538-0.075-24.849,3.78-28.327C94.572,130.966,108.173,136.039,107.826,142.758"
     id="path175"
     style="fill-rule:evenodd;clip-rule:evenodd;fill:#E4BC96;" />
  <path
     d="M0.116,0.179c79.978,0,159.955,0,239.933,0  c8.383,0,5.722,2.932,5.722,11.204c0,18.94,0,37.88,0,56.82c0,52.804,0,105.609,0,158.414c0,15.664,0,31.328,0,46.992  c0,7.436-7.458,4.175-14.08,4.175c-48.368,0-96.736,0-145.104,0c-7.378,0-86.47,2.199-86.47-1.887c0-38.943,0-77.887,0-116.83  C0.116,106.104,0.116,53.142,0.116,0.179"
     id="path177"
     style="fill-rule:evenodd;clip-rule:evenodd;fill:none;" />
  <path
     d="M91.764,141.814c-0.441,5.21,2.759,9.887,6.614,13.22  c-0.945-0.315-1.89-0.63-2.835-0.945c0.456,1.441,0.482,3.112,0.945,4.722c-2.104-2.73-3.95-5.801-5.669-8.498  c-0.753,5.996,1.554,11.742,5.669,16.052c-0.823-0.729-1.962-1.133-2.834-1.888c0.755,1.752,1.063,3.679,1.889,5.665  c-0.314-0.629-0.629-1.259-0.944-1.888c-0.481,5.864,2.207,11.37,0,16.996c0.86-4.691-2.835-8.143-2.835-1.89  c0,5.399,6.989,7.682,11.338,8.499c-2.386,3.45-13.227,0.42-13.227-4.722c0-8.435-3.246-15.628-3.78-23.605  c-0.528-7.873,1.891-16.443,1.891-24.55c0-6.444,9.011-5.08,13.227-3.777C96.858,134.686,92.412,137.589,91.764,141.814"
     id="path179"
     style="fill-rule:evenodd;clip-rule:evenodd;fill:#8B5C29;" />
  <path
     d="M0.116,0.179c79.978,0,159.955,0,239.933,0  c8.383,0,5.722,2.932,5.722,11.204c0,18.94,0,37.88,0,56.82c0,52.804,0,105.609,0,158.414c0,15.664,0,31.328,0,46.992  c0,7.436-7.458,4.175-14.08,4.175c-48.368,0-96.736,0-145.104,0c-7.378,0-86.47,2.199-86.47-1.887c0-38.943,0-77.887,0-116.83  C0.116,106.104,0.116,53.142,0.116,0.179"
     id="path181"
     style="fill-rule:evenodd;clip-rule:evenodd;fill:none;" />
  <path
     d="M115.384,186.193c7.91,2.307,2.832,6.785-2.835,6.61  c0.315,0.314,0.63,0.63,0.945,0.944c-3.288,1.218-14.271,2.558-9.448-3.776c0.601,0.882,1.239,2.002,1.889,2.832  c1.952-2.718,2.694-2.608,5.669-3.777c0.192,1.015,0.563,1.896,0.944,2.833c-0.023-1.923,0.67-2.992,0.945-4.722  c0.315,0.314,0.63,0.63,0.945,0.944C114.755,187.452,115.069,186.823,115.384,186.193"
     id="path183"
     style="fill-rule:evenodd;clip-rule:evenodd;fill:#5A3D1C;" />
  <path
     d="M0.116,0.179c79.978,0,159.955,0,239.933,0  c8.383,0,5.722,2.932,5.722,11.204c0,18.94,0,37.88,0,56.82c0,52.804,0,105.609,0,158.414c0,15.664,0,31.328,0,46.992  c0,7.436-7.458,4.175-14.08,4.175c-48.368,0-96.736,0-145.104,0c-7.378,0-86.47,2.199-86.47-1.887c0-38.943,0-77.887,0-116.83  C0.116,106.104,0.116,53.142,0.116,0.179"
     id="path185"
     style="fill-rule:evenodd;clip-rule:evenodd;fill:none;" />
  <path
     d="M107.826,142.758  c-1.214,6.329-0.549,12.435,0,18.886c0.354,4.16-1.549,16.812,0,19.828c1.912,3.723,22.175,10.747,4.724,11.331  c0.315,0.314,0.63,0.63,0.945,0.944c-4.068,1.507-18.817,1.25-22.676-3.776c-2.606-3.395-0.425-10.203-1.417-14.164  c-1.023-4.091-3.133-8.014-3.308-12.275c-0.227-5.538-0.075-24.849,3.78-28.327C94.572,130.966,108.173,136.039,107.826,142.758"
     id="path187"
     style="fill:none;stroke:#808080;stroke-width:0;stroke-linecap:square;stroke-miterlimit:10;" />
  <path
     d="M102.157,193.748  c0.493-1.444,0.551-2.687,1.89-3.776c1.745,1.104,1.47,2.097,1.889,3.776"
     id="path189"
     style="fill:none;stroke:#808080;stroke-width:0;stroke-linecap:square;stroke-miterlimit:10;" />
  <path
     d="M102.157,188.082  c1.595,0.379,2.665,1.354,2.835,2.832"
     id="path191"
     style="fill:none;stroke:#808080;stroke-width:0;stroke-linecap:square;stroke-miterlimit:10;" />
  <path
     d="M105.936,187.137  c1.073,0.7,1.76,1.681,1.89,2.834"
     id="path193"
     style="fill:none;stroke:#808080;stroke-width:0;stroke-linecap:square;stroke-miterlimit:10;" />
  <path
     d="M105.936,192.803  c1.534-3.539,3.173-2.564,4.724,0.944"
     id="path195"
     style="fill:none;stroke:#808080;stroke-width:0;stroke-linecap:square;stroke-miterlimit:10;" />
  <path
     d="M109.716,190.914  c0.578-1.011,0.531-1.653,1.889-1.888c0.607,1.258,0.756,2.291,0.944,3.777"
     id="path197"
     style="fill:none;stroke:#808080;stroke-width:0;stroke-linecap:square;stroke-miterlimit:10;" />
  <path
     d="M108.771,187.137  c1.78,0.433,3.148,1.844,3.778,3.776"
     id="path199"
     style="fill:none;stroke:#808080;stroke-width:0;stroke-linecap:square;stroke-miterlimit:10;" />
  <path
     d="M112.549,191.859  c1.27-3.219,1.252-5.595-1.889-6.609"
     id="path201"
     style="fill:none;stroke:#808080;stroke-width:0;stroke-linecap:square;stroke-miterlimit:10;" />
  <path
     d="M113.495,187.137  c1.777,1.008,3.354,2.268,4.724,3.776"
     id="path203"
     style="fill:none;stroke:#808080;stroke-width:0;stroke-linecap:square;stroke-miterlimit:10;" />
  <line
     id="line205"
     style="fill:none;stroke:#808080;stroke-width:0;stroke-linecap:square;stroke-miterlimit:10;"
     x1="114.44"
     x2="115.384"
     y1="188.082"
     y2="186.193" />
  <path
     d="M0.116,0.179c79.978,0,159.955,0,239.933,0  c8.383,0,5.722,2.932,5.722,11.204c0,18.94,0,37.88,0,56.82c0,52.804,0,105.609,0,158.414c0,15.664,0,31.328,0,46.992  c0,7.436-7.458,4.175-14.08,4.175c-48.368,0-96.736,0-145.104,0c-7.378,0-86.47,2.199-86.47-1.887c0-38.943,0-77.887,0-116.83  C0.116,106.104,0.116,53.142,0.116,0.179"
     id="path207"
     style="fill-rule:evenodd;clip-rule:evenodd;fill:none;" />
  <path
     d="M92.709,89.881c3.971,9.922,7.882,19.808,11.415,29.895  c1.789,5.107,7.965,14.358,5.593,20.149c-6.366,15.539-27.876-6.199-34.959-10.386c-12.614-7.456-22.616-22.72-12.283-36.825  C68.712,84.199,86.584,77.745,92.709,89.881"
     id="path209"
     style="fill-rule:evenodd;clip-rule:evenodd;fill:#E4BC96;" />
  <path
     d="M0.116,0.179c79.978,0,159.955,0,239.933,0  c8.383,0,5.722,2.932,5.722,11.204c0,18.94,0,37.88,0,56.82c0,52.804,0,105.609,0,158.414c0,15.664,0,31.328,0,46.992  c0,7.436-7.458,4.175-14.08,4.175c-48.368,0-96.736,0-145.104,0c-7.378,0-86.47,2.199-86.47-1.887c0-38.943,0-77.887,0-116.83  C0.116,106.104,0.116,53.142,0.116,0.179"
     id="path211"
     style="fill-rule:evenodd;clip-rule:evenodd;fill:none;" />
  <path
     d="M62.474,120.097c7.959,1.729,22.999,5.815,29.29,10.387  c5.633,4.094,4.822,13.289,11.338,15.108c-7.553,1.266-12.558-5.636-17.917-9.652C77.698,130.327,69.75,125.934,62.474,120.097"
     id="path213"
     style="fill-rule:evenodd;clip-rule:evenodd;fill:#8B5C29;" />
  <path
     d="M0.116,0.179c79.978,0,159.955,0,239.933,0  c8.383,0,5.722,2.932,5.722,11.204c0,18.94,0,37.88,0,56.82c0,52.804,0,105.609,0,158.414c0,15.664,0,31.328,0,46.992  c0,7.436-7.458,4.175-14.08,4.175c-48.368,0-96.736,0-145.104,0c-7.378,0-86.47,2.199-86.47-1.887c0-38.943,0-77.887,0-116.83  C0.116,106.104,0.116,53.142,0.116,0.179"
     id="path215"
     style="fill-rule:evenodd;clip-rule:evenodd;fill:none;" />
  <path
     d="M92.709,89.881  c4.21,10.521,8.258,20.982,11.845,31.734c2.17,6.508,8.558,14.644,3.272,21.143"
     id="path217"
     style="fill:none;stroke:#808080;stroke-width:0;stroke-linecap:square;stroke-miterlimit:10;" />
  <path
     d="M90.818,140.87  c-9.173-10.161-22.893-12.706-30.234-24.55"
     id="path219"
     style="fill:none;stroke:#808080;stroke-width:0;stroke-linecap:square;stroke-miterlimit:10;" />
  <path
     d="M0.116,0.179c79.978,0,159.955,0,239.933,0  c8.383,0,5.722,2.932,5.722,11.204c0,18.94,0,37.88,0,56.82c0,52.804,0,105.609,0,158.414c0,15.664,0,31.328,0,46.992  c0,7.436-7.458,4.175-14.08,4.175c-48.368,0-96.736,0-145.104,0c-7.378,0-86.47,2.199-86.47-1.887c0-38.943,0-77.887,0-116.83  C0.116,106.104,0.116,53.142,0.116,0.179"
     id="path221"
     style="fill-rule:evenodd;clip-rule:evenodd;fill:none;" />
  <path
     d="M126.723,137.093c2.579-7.745,24.308-47.027,32.596-22.189  C165.978,134.86,124.139,153.299,126.723,137.093"
     id="path223"
     style="fill-rule:evenodd;clip-rule:evenodd;fill:#E4BC96;" />
  <path
     d="M0.116,0.179c79.978,0,159.955,0,239.933,0  c8.383,0,5.722,2.932,5.722,11.204c0,18.94,0,37.88,0,56.82c0,52.804,0,105.609,0,158.414c0,15.664,0,31.328,0,46.992  c0,7.436-7.458,4.175-14.08,4.175c-48.368,0-96.736,0-145.104,0c-7.378,0-86.47,2.199-86.47-1.887c0-38.943,0-77.887,0-116.83  C0.116,106.104,0.116,53.142,0.116,0.179"
     id="path225"
     style="fill-rule:evenodd;clip-rule:evenodd;fill:none;" />
  <path
     d="M131.448,144.647c-10.846-4.109-0.005-23.116,5.668-28.327  c-6.092,8.815-9.251,13.872-3.779,21.718C128.623,136.191,127.71,141.593,131.448,144.647 M146.563,139.925  c-1.517-1.553-2.691-3.778-3.778-5.665c12.441,1.142,23.264-19.223,9.448-25.494C168.204,111.408,154.683,135.349,146.563,139.925"
     id="path227"
     style="fill-rule:evenodd;clip-rule:evenodd;fill:#8B5C29;" />
  <path
     d="M0.116,0.179c79.978,0,159.955,0,239.933,0  c8.383,0,5.722,2.932,5.722,11.204c0,18.94,0,37.88,0,56.82c0,52.804,0,105.609,0,158.414c0,15.664,0,31.328,0,46.992  c0,7.436-7.458,4.175-14.08,4.175c-48.368,0-96.736,0-145.104,0c-7.378,0-86.47,2.199-86.47-1.887c0-38.943,0-77.887,0-116.83  C0.116,106.104,0.116,53.142,0.116,0.179"
     id="path229"
     style="fill-rule:evenodd;clip-rule:evenodd;fill:none;" />
  <path
     d="M126.723,137.093  c3.258-9.782,9.361-16.705,13.227-25.495"
     id="path231"
     style="fill:none;stroke:#808080;stroke-width:0;stroke-linecap:square;stroke-miterlimit:10;" />
  <path
     d="M159.792,116.32  c-0.698,11.651-8.325,19.224-16.972,25.704c-5.192,3.892-17.532,4.074-16.097-4.931"
     id="path233"
     style="fill:none;stroke:#808080;stroke-width:0;stroke-linecap:square;stroke-miterlimit:10;" />
  <path
     d="M0.116,0.179c79.978,0,159.955,0,239.933,0  c8.383,0,5.722,2.932,5.722,11.204c0,18.94,0,37.88,0,56.82c0,52.804,0,105.609,0,158.414c0,15.664,0,31.328,0,46.992  c0,7.436-7.458,4.175-14.08,4.175c-48.368,0-96.736,0-145.104,0c-7.378,0-86.47,2.199-86.47-1.887c0-38.943,0-77.887,0-116.83  C0.116,106.104,0.116,53.142,0.116,0.179"
     id="path235"
     style="fill-rule:evenodd;clip-rule:evenodd;fill:none;" />
  <path
     d="M145.62,139.925c2.165,8.504,4.724,20.624,4.724,29.272  c0,5.698,10.448,4.607,12.283,10.386c-5.8,2.665-11.62,4.231-19.842,3.777c-15.379-0.851-7.264-10.218-13.438-20.493  c-3.491-5.811-7.771-19.669-3.569-25.775C129.893,131.111,144.214,132.036,145.62,139.925"
     id="path237"
     style="fill-rule:evenodd;clip-rule:evenodd;fill:#E4BC96;" />
  <path
     d="M0.116,0.179c79.978,0,159.955,0,239.933,0  c8.383,0,5.722,2.932,5.722,11.204c0,18.94,0,37.88,0,56.82c0,52.804,0,105.609,0,158.414c0,15.664,0,31.328,0,46.992  c0,7.436-7.458,4.175-14.08,4.175c-48.368,0-96.736,0-145.104,0c-7.378,0-86.47,2.199-86.47-1.887c0-38.943,0-77.887,0-116.83  C0.116,106.104,0.116,53.142,0.116,0.179"
     id="path239"
     style="fill-rule:evenodd;clip-rule:evenodd;fill:none;" />
  <path
     d="M149.398,183.361c-4.336,0.219-17.007,1.562-17.007-4.722  c0-9.041-2.818-13.463-5.668-21.717c-1.194-3.459-4.471-15.365-1.418-18.413c2.488-2.484,5.069-7.32,8.031-1.417  c-8.516,1.022-0.285,8.311-0.945,14.164c1.531-2.147,2.556-6.766,2.835-10.387c1.688,3.839,0.179,6.346,0,10.387  c-0.25,5.665,0.379,10.316,1.89,16.052c-2.144-2.642-4.044-5.509-5.668-8.498c0.947,4.265,1.432,17.964,4.724,20.773  C139.754,182.641,147.657,178.551,149.398,183.361"
     id="path241"
     style="fill-rule:evenodd;clip-rule:evenodd;fill:#8B5C29;" />
  <path
     d="M0.116,0.179c79.978,0,159.955,0,239.933,0  c8.383,0,5.722,2.932,5.722,11.204c0,18.94,0,37.88,0,56.82c0,52.804,0,105.609,0,158.414c0,15.664,0,31.328,0,46.992  c0,7.436-7.458,4.175-14.08,4.175c-48.368,0-96.736,0-145.104,0c-7.378,0-86.47,2.199-86.47-1.887c0-38.943,0-77.887,0-116.83  C0.116,106.104,0.116,53.142,0.116,0.179"
     id="path243"
     style="fill-rule:evenodd;clip-rule:evenodd;fill:none;" />
  <path
     d="M157.902,174.863c2.528,0.887,4.205,2.096,4.725,4.721  c-2.429,1.116-13.271,7.283-13.229,0.944c0.488,0.148,2.542,0.921,2.835,0.944c0.54-2.528,2.189-3.772,4.724-2.833  C157.572,177.369,157.576,176.304,157.902,174.863"
     id="path245"
     style="fill-rule:evenodd;clip-rule:evenodd;fill:#5A3D1C;" />
  <path
     d="M0.116,0.179c79.978,0,159.955,0,239.933,0  c8.383,0,5.722,2.932,5.722,11.204c0,18.94,0,37.88,0,56.82c0,52.804,0,105.609,0,158.414c0,15.664,0,31.328,0,46.992  c0,7.436-7.458,4.175-14.08,4.175c-48.368,0-96.736,0-145.104,0c-7.378,0-86.47,2.199-86.47-1.887c0-38.943,0-77.887,0-116.83  C0.116,106.104,0.116,53.142,0.116,0.179"
     id="path247"
     style="fill-rule:evenodd;clip-rule:evenodd;fill:none;" />
  <path
     d="M143.729,136.148  c3.317,3.69,2.829,9.409,3.534,14.338c0.706,4.939,3.08,11.617,3.08,16.35c0,8.822,9.847,5.073,12.283,12.747  c-6.038,2.774-30.235,10.085-30.235-3.356c0-8.912-16.133-36.104-3.779-41.022"
     id="path249"
     style="fill:none;stroke:#808080;stroke-width:0;stroke-linecap:square;stroke-miterlimit:10;" />
  <path
     d="M149.398,183.361  c0.777-4.032,2.168-3.535,3.779,0"
     id="path251"
     style="fill:none;stroke:#808080;stroke-width:0;stroke-linecap:square;stroke-miterlimit:10;" />
  <path
     d="M148.453,178.639  c1.286-0.073,1.963,0.603,1.891,1.889"
     id="path253"
     style="fill:none;stroke:#808080;stroke-width:0;stroke-linecap:square;stroke-miterlimit:10;" />
  <path
     d="M151.288,177.696  c1.286-0.073,1.962,0.602,1.89,1.888"
     id="path255"
     style="fill:none;stroke:#808080;stroke-width:0;stroke-linecap:square;stroke-miterlimit:10;" />
  <path
     d="M152.233,181.472  c0.901-3.13,2.391-1.427,3.778,0.943"
     id="path257"
     style="fill:none;stroke:#808080;stroke-width:0;stroke-linecap:square;stroke-miterlimit:10;" />
  <path
     d="M154.123,179.583  c0.578-1.231,0.338-0.677,0.945-1.888c1.434,0.598,2.199,2.002,2.834,3.776"
     id="path259"
     style="fill:none;stroke:#808080;stroke-width:0;stroke-linecap:square;stroke-miterlimit:10;" />
  <path
     d="M153.177,176.751  c1.169-0.292,2.134,0.002,2.834,0.944"
     id="path261"
     style="fill:none;stroke:#808080;stroke-width:0;stroke-linecap:square;stroke-miterlimit:10;" />
  <path
     d="M154.123,175.806  c2.74-0.063,4.739,1.15,6.613,3.777"
     id="path263"
     style="fill:none;stroke:#808080;stroke-width:0;stroke-linecap:square;stroke-miterlimit:10;" />
  <path
     d="M156.957,178.639  c0.591-1.222,0.869-2.296,0.945-3.776"
     id="path265"
     style="fill:none;stroke:#808080;stroke-width:0;stroke-linecap:square;stroke-miterlimit:10;" />
  <path
     d="M0.116,0.179c79.978,0,159.955,0,239.933,0  c8.383,0,5.722,2.932,5.722,11.204c0,18.94,0,37.88,0,56.82c0,52.804,0,105.609,0,158.414c0,15.664,0,31.328,0,46.992  c0,7.436-7.458,4.175-14.08,4.175c-48.368,0-96.736,0-145.104,0c-7.378,0-86.47,2.199-86.47-1.887c0-38.943,0-77.887,0-116.83  C0.116,106.104,0.116,53.142,0.116,0.179"
     id="path267"
     style="fill-rule:evenodd;clip-rule:evenodd;fill:none;" />
</svg>
