<?xml version="1.0" encoding="UTF-8" standalone="no"?>
<!-- Created with Inkscape (http://www.inkscape.org/) -->
<svg
   xmlns:dc="http://purl.org/dc/elements/1.1/"
   xmlns:cc="http://creativecommons.org/ns#"
   xmlns:rdf="http://www.w3.org/1999/02/22-rdf-syntax-ns#"
   xmlns:svg="http://www.w3.org/2000/svg"
   xmlns="http://www.w3.org/2000/svg"
   xmlns:sodipodi="http://sodipodi.sourceforge.net/DTD/sodipodi-0.dtd"
   xmlns:inkscape="http://www.inkscape.org/namespaces/inkscape"
   height="378.85434"
   id="svg2359"
   inkscape:version="0.45+devel"
   sodipodi:docbase="D:\Gjano\Dokumentumok\Képek\csiga_svg"
   sodipodi:docname="bunny_01.svg"
   sodipodi:version="0.32"
   width="380.94992"
   inkscape:output_extension="org.inkscape.output.svg.inkscape"
   version="1.0">
  <metadata
     id="metadata3">
    <rdf:RDF>
      <cc:Work
         rdf:about="">
        <dc:title>Bunny</dc:title>
        <dc:description>Symbol of Easter (in Hungary at least)</dc:description>
        <dc:subject>
          <rdf:Bag>
            <rdf:li>pet</rdf:li>
            <rdf:li>holiday</rdf:li>
            <rdf:li>bunny</rdf:li>
            <rdf:li>mammal</rdf:li>
            <rdf:li>spring</rdf:li>
            <rdf:li>rabbit</rdf:li>
            <rdf:li>easter</rdf:li>
            <rdf:li>animal</rdf:li>
          </rdf:Bag>
        </dc:subject>
        <dc:publisher>
          <cc:Agent
             rdf:about="http://www.openclipart.org">
            <dc:title>gjano</dc:title>
          </cc:Agent>
        </dc:publisher>
        <dc:creator>
          <cc:Agent>
            <dc:title>gjano</dc:title>
          </cc:Agent>
        </dc:creator>
        <dc:rights>
          <cc:Agent>
            <dc:title>gjano</dc:title>
          </cc:Agent>
        </dc:rights>
        <dc:date />
        <dc:format>image/svg+xml</dc:format>
        <dc:type
           rdf:resource="http://purl.org/dc/dcmitype/StillImage" />
        <cc:license
           rdf:resource="http://web.resource.org/cc/PublicDomain" />
        <dc:language>en</dc:language>
      </cc:Work>
      <cc:License
         rdf:about="http://web.resource.org/cc/PublicDomain">
        <cc:permits
           rdf:resource="http://web.resource.org/cc/Reproduction" />
        <cc:permits
           rdf:resource="http://web.resource.org/cc/Distribution" />
        <cc:permits
           rdf:resource="http://web.resource.org/cc/DerivativeWorks" />
      </cc:License>
    </rdf:RDF>
  </metadata>
  <defs
     id="defs3" />
  <sodipodi:namedview
     bordercolor="#666666"
     borderopacity="1.0"
     id="base"
     inkscape:current-layer="svg2359"
     inkscape:cx="215.27414"
     inkscape:cy="149.77665"
     inkscape:pageopacity="0.0"
     inkscape:pageshadow="2"
     inkscape:window-height="721"
     inkscape:window-width="1024"
     inkscape:window-x="79"
     inkscape:window-y="87"
     inkscape:zoom="1.2279853"
     pagecolor="#ffffff"
     showgrid="false" />
  <g
     id="Layer 1"
     transform="matrix(6.697432e-2,0,0,6.659419e-2,-86.19595,-200.11554)">
    <g
       id="g1021">
      <path
         d="M 1287,8694 C 1287,6797 1287,4901 1287,3005 C 3183,3005 5079,3005 6975,3005 C 6975,4901 6975,6797 6975,8694 C 5079,8694 3183,8694 1287,8694 z"
         id="path1023"
         style="fill:#337c33" />
      <path
         d="M 3697,8312 C 3556,8277 3449,8147 3384,8020 C 3381,7964 3379,7909 3377,7854 C 3694,7696 4125,7768 4475,7722 C 4540,7697 4606,7672 4672,7648 C 4677,7520 4583,7455 4537,7340 C 4493,7131 4425,6818 4683,6770 C 4683,6760 4683,6751 4683,6742 C 4711,6734 4740,6726 4769,6718 C 4769,6706 4769,6694 4769,6683 C 4360,6669 4443,7150 4482,7368 C 4518,7462 4599,7521 4614,7618 C 4447,7652 4447,7652 4391,7680 C 4225,7694 4225,7694 3683,7708 C 3489,7753 3333,7787 3141,7819 C 3068,7878 3047,7912 2960,7972 C 2783,8057 2274,8411 2067,8204 C 2061,7929 2078,8015 2349,7798 C 2348,7768 2379,7769 2419,7743 C 2419,7713 2416,7715 2446,7715 C 2474,7659 2544,7564 2533,7502 C 2518,7501 2503,7500 2488,7499 C 2455,7561 2423,7624 2391,7687 C 2142,7894 2091,7899 2026,7933 C 2009,7979 2009,7979 2002,8132 C 1896,8114 1854,8096 1766,8034 C 1836,7721 1998,7599 1998,7590 C 2116,7520 2132,7514 2194,7393 C 2203,7393 2270,7312 2280,7312 C 2280,7286 2357,7208 2377,7201 C 2373,7148 2369,7096 2366,7044 C 2569,6997 2975,6927 3082,6725 C 3217,6608 3367,6501 3467,6353 C 3491,6296 3515,6239 3540,6183 C 3550,6179 3561,6176 3572,6173 C 3581,6091 3636,6053 3690,5992 C 3692,5936 3694,5881 3697,5826 C 3724,5816 3752,5807 3780,5798 C 3822,5656 4244,5560 4364,5513 C 4805,5371 5231,5388 5683,5430 C 5797,5494 5893,5588 5961,5701 C 6040,5724 6072,5839 6156,5867 C 6156,5876 6156,5885 6156,5895 C 6404,6019 6529,6537 6510,6701 C 6603,7048 6566,7343 6510,7631 C 6364,7937 6053,8121 5836,8222 C 5688,8249 5540,8277 5392,8305 C 4827,8307 4262,8309 3697,8312 z"
         id="path1025"
         style="fill:#f7beef" />
      <path
         d="M 1960,6979 C 1840,6933 1728,6841 1648,6742 C 1634,6672 1620,6603 1606,6534 C 1606,6318 1663,6111 1762,5919 C 1852,5842 1988,5638 2169,5575 C 2304,5346 2576,5333 2794,5221 C 3018,5167 3215,5184 3422,5280 C 3512,5422 3632,5342 3725,5249 C 3886,5170 3848,5175 4005,5089 C 4030,5038 4250,4881 4308,4867 C 4308,4857 4308,4848 4308,4839 C 4572,4679 4572,4679 4739,4596 C 5027,4363 5375,4283 5728,4217 C 5736,4414 5424,4631 5280,4735 C 5139,4816 4908,4864 4783,4968 C 4459,5112 4168,5259 3877,5388 C 3725,5443 3725,5443 3586,5478 C 3591,5624 3634,5725 3634,5874 C 3624,5918 3615,5962 3606,6006 C 3321,6363 3172,6685 2780,6854 C 2780,6863 2780,6872 2780,6881 C 2655,6911 2530,6941 2405,6972 C 2256,6974 2108,6976 1960,6979 z"
         id="path1027"
         style="fill:#f7beef" />
      <path
         d="M 1863,6812 C 1860,6756 1858,6700 1856,6645 C 1787,6534 1787,6534 1780,6492 C 1769,6488 1758,6484 1748,6481 C 1748,6465 1748,6449 1748,6433 C 1768,6433 1789,6433 1810,6433 C 1870,6548 1870,6548 1901,6579 C 1991,6580 2046,6582 2130,6551 C 2131,6568 2132,6585 2134,6603 C 2058,6643 2006,6640 1919,6645 C 1915,6697 1911,6749 1908,6801 C 1893,6804 1878,6808 1863,6812 z"
         id="path1029"
         style="fill:#337c33" />
      <path
         d="M 2905,5881 C 2866,5848 2871,5827 2884,5784 C 2905,5765 2928,5770 2960,5763 C 2992,5795 2983,5826 2977,5856 C 2947,5874 2947,5874 2905,5881 z"
         id="path1031"
         style="fill:#337c33" />
      <path
         d="M 6239,5881 C 6208,5841 6161,5787 6114,5770 C 6106,5734 6089,5732 6058,5714 C 6010,5645 5954,5589 5912,5520 C 5912,5473 5912,5427 5912,5381 C 5947,5355 5982,5330 6017,5305 C 6132,5258 6248,5256 6364,5298 C 6364,5307 6364,5316 6364,5325 C 6559,5352 6538,5664 6538,5798 C 6486,5867 6470,5874 6239,5881 z"
         id="path1033"
         style="fill:#f7beef" />
      <path
         d="M 2516,5714 C 2451,5630 2507,5599 2585,5610 C 2606,5627 2609,5627 2606,5687 C 2582,5708 2569,5715 2516,5714 z"
         id="path1035"
         style="fill:#337c33" />
      <path
         d="M 3474,5242 C 3440,5224 3406,5206 3373,5189 C 3372,5179 3371,5169 3370,5159 C 3500,5006 3638,4922 3730,4745 C 3764,4707 4297,4151 4433,4103 C 4816,3827 5169,3824 5447,3804 C 5289,4039 5115,4183 4850,4290 C 4659,4462 4410,4588 4197,4735 C 3934,4863 3719,5087 3474,5242 z"
         id="path1037"
         style="fill:#f7beef" />
    </g>
  </g>
</svg>
