<?xml version="1.0" encoding="UTF-8" standalone="no"?>
<!-- Created with Inkscape (http://www.inkscape.org/) -->

<svg
   xmlns:dc="http://purl.org/dc/elements/1.1/"
   xmlns:cc="http://creativecommons.org/ns#"
   xmlns:rdf="http://www.w3.org/1999/02/22-rdf-syntax-ns#"
   xmlns:svg="http://www.w3.org/2000/svg"
   xmlns="http://www.w3.org/2000/svg"
   xmlns:xlink="http://www.w3.org/1999/xlink"
   xmlns:sodipodi="http://sodipodi.sourceforge.net/DTD/sodipodi-0.dtd"
   xmlns:inkscape="http://www.inkscape.org/namespaces/inkscape"
   height="143.31151"
   id="svg1"
   inkscape:version="0.48.1 r9760"
   sodipodi:docname="Anonymous_Seahorse.svg"
   sodipodi:version="0.32"
   width="82.546928"
   inkscape:output_extension="org.inkscape.output.svg.inkscape"
   inkscape:export-filename="C:\Documents and Settings\All Users\Documents\Ubuntu Brig\Andy Fitzsimon\seahorse.png"
   inkscape:export-xdpi="90"
   inkscape:export-ydpi="90"
   version="1.1">
  <metadata
     id="metadata3">
    <rdf:RDF>
      <cc:Work
         rdf:about="">
        <dc:title>Etiquette Icons</dc:title>
        <dc:description />
        <dc:subject>
          <rdf:Bag>
            <rdf:li />
            <rdf:li>animal</rdf:li>
            <rdf:li>fish</rdf:li>
          </rdf:Bag>
        </dc:subject>
        <dc:publisher>
          <cc:Agent
             rdf:about="http://www.openclipart.org">
            <dc:title>Andy Fitzsimon</dc:title>
          </cc:Agent>
        </dc:publisher>
        <dc:creator>
          <cc:Agent>
            <dc:title>Andy Fitzsimon</dc:title>
          </cc:Agent>
        </dc:creator>
        <dc:rights>
          <cc:Agent>
            <dc:title>Andy Fitzsimon</dc:title>
          </cc:Agent>
        </dc:rights>
        <dc:date />
        <dc:format>image/svg+xml</dc:format>
        <dc:type
           rdf:resource="http://purl.org/dc/dcmitype/StillImage" />
        <cc:license
           rdf:resource="http://web.resource.org/cc/PublicDomain" />
        <dc:language>en</dc:language>
      </cc:Work>
      <cc:License
         rdf:about="http://web.resource.org/cc/PublicDomain">
        <cc:permits
           rdf:resource="http://web.resource.org/cc/Reproduction" />
        <cc:permits
           rdf:resource="http://web.resource.org/cc/Distribution" />
        <cc:permits
           rdf:resource="http://web.resource.org/cc/DerivativeWorks" />
      </cc:License>
    </rdf:RDF>
  </metadata>
  <defs
     id="defs3">
    <inkscape:perspective
       sodipodi:type="inkscape:persp3d"
       inkscape:vp_x="0 : 80 : 1"
       inkscape:vp_y="0 : 1000 : 0"
       inkscape:vp_z="160 : 80 : 1"
       inkscape:persp3d-origin="80 : 53.333333 : 1"
       id="perspective97" />
    <linearGradient
       id="linearGradient1109">
      <stop
         id="stop1110"
         offset="0.00000000"
         style="stop-color:#000000;stop-opacity:0.00000000;" />
      <stop
         id="stop1112"
         offset="1.0000000"
         style="stop-color:#000000;stop-opacity:0.22314049;" />
    </linearGradient>
    <linearGradient
       id="linearGradient1038">
      <stop
         id="stop1039"
         offset="0.00000000"
         style="stop-color:#e5d4c1;stop-opacity:1.0000000;" />
      <stop
         id="stop1042"
         offset="0.25000000"
         style="stop-color:#e5d1ba;stop-opacity:0.70980394;" />
      <stop
         id="stop1040"
         offset="0.50000000"
         style="stop-color:#c7bbac;stop-opacity:1.0000000;" />
      <stop
         id="stop1041"
         offset="1.0000000"
         style="stop-color:#d7c2a8;stop-opacity:0.015686275;" />
    </linearGradient>
    <linearGradient
       id="linearGradient1034">
      <stop
         id="stop1035"
         offset="0.00000000"
         style="stop-color:#ffffff;stop-opacity:0.43529412;" />
      <stop
         id="stop1036"
         offset="1.0000000"
         style="stop-color:#ffffff;stop-opacity:0.00000000;" />
    </linearGradient>
    <linearGradient
       id="linearGradient985">
      <stop
         id="stop986"
         offset="0.00000000"
         style="stop-color:#000000;stop-opacity:0.00000000;" />
      <stop
         id="stop988"
         offset="0.50000000"
         style="stop-color:#000000;stop-opacity:0.11570248;" />
      <stop
         id="stop987"
         offset="1.0000000"
         style="stop-color:#000000;stop-opacity:0.00000000;" />
    </linearGradient>
    <linearGradient
       id="linearGradient904">
      <stop
         id="stop905"
         offset="0.00000000"
         style="stop-color:#ffffff;stop-opacity:1.0000000;" />
      <stop
         id="stop906"
         offset="1.0000000"
         style="stop-color:#ffffff;stop-opacity:0.00000000;" />
    </linearGradient>
    <linearGradient
       id="linearGradient845">
      <stop
         id="stop846"
         offset="0.00000000"
         style="stop-color:#ffffff;stop-opacity:0.43529412;" />
      <stop
         id="stop1037"
         offset="0.50000000"
         style="stop-color:#ffffff;stop-opacity:0.21568628;" />
      <stop
         id="stop847"
         offset="1.0000000"
         style="stop-color:#ffffff;stop-opacity:0.00000000;" />
    </linearGradient>
    <linearGradient
       id="linearGradient841">
      <stop
         id="stop842"
         offset="0.00000000"
         style="stop-color:#000000;stop-opacity:0.43750000;" />
      <stop
         id="stop843"
         offset="1.0000000"
         style="stop-color:#000000;stop-opacity:0.00000000;" />
    </linearGradient>
    <linearGradient
       id="linearGradient865">
      <stop
         id="stop866"
         offset="0.00000000"
         style="stop-color:#d5a30e;stop-opacity:1.0000000;" />
      <stop
         id="stop1345"
         offset="0.18488371"
         style="stop-color:#e5c77b;stop-opacity:1.0000000;" />
      <stop
         id="stop907"
         offset="0.50000000"
         style="stop-color:#b78522;stop-opacity:1.0000000;" />
      <stop
         id="stop867"
         offset="1.0000000"
         style="stop-color:#ffffed;stop-opacity:1.0000000;" />
    </linearGradient>
    <linearGradient
       id="linearGradient868"
       x1="201.20227"
       x2="226.51887"
       xlink:href="#linearGradient841"
       y1="84.799869"
       y2="69.553569"
       gradientTransform="matrix(0.5777856,0,0,0.88506534,-68.278057,-6.3304434)"
       gradientUnits="userSpaceOnUse" />
    <linearGradient
       id="linearGradient844"
       x1="137.55039"
       x2="164.88938"
       xlink:href="#linearGradient845"
       y1="86.815769"
       y2="93.650518"
       gradientTransform="matrix(0.56113479,0,0,0.91132828,-42.355427,-26.889769)"
       gradientUnits="userSpaceOnUse" />
    <linearGradient
       id="linearGradient848"
       x1="69.429573"
       x2="110.32308"
       xlink:href="#linearGradient845"
       y1="155.24215"
       y2="78.7347"
       gradientTransform="matrix(0.81579281,0,0,1.2258014,-31.786847,-12.492759)"
       gradientUnits="userSpaceOnUse" />
    <linearGradient
       id="linearGradient849"
       x1="273.24247"
       x2="270.32848"
       xlink:href="#linearGradient845"
       y1="52.592457"
       y2="58.93825"
       gradientTransform="matrix(0.50261385,0,0,1.0174371,-68.278057,-6.3304434)"
       gradientUnits="userSpaceOnUse" />
    <linearGradient
       id="linearGradient850"
       x1="174.25225"
       x2="156.36822"
       xlink:href="#linearGradient1038"
       y1="46.583689"
       y2="53.145395"
       gradientTransform="matrix(0.55562595,0,0,0.9203638,-42.355427,-26.889769)"
       gradientUnits="userSpaceOnUse" />
    <linearGradient
       id="linearGradient851"
       x1="136.5173"
       x2="136.69164"
       xlink:href="#linearGradient845"
       y1="32.017982"
       y2="36.430623"
       gradientUnits="userSpaceOnUse" />
    <linearGradient
       id="linearGradient859"
       x1="124.09941"
       x2="117.28889"
       xlink:href="#linearGradient845"
       y1="59.830589"
       y2="51.92855"
       gradientTransform="matrix(0.79148987,0,0,0.64609547,-68.278057,-6.3304434)"
       gradientUnits="userSpaceOnUse" />
    <linearGradient
       id="linearGradient861"
       x1="170.63927"
       x2="159.62235"
       xlink:href="#linearGradient904"
       y1="18.666587"
       y2="33.02367"
       gradientTransform="matrix(0.74031045,0,0,0.69076161,-68.278057,-6.3304434)"
       gradientUnits="userSpaceOnUse" />
    <linearGradient
       id="linearGradient881"
       x1="217.03998"
       x2="176.0386"
       xlink:href="#linearGradient865"
       y1="31.602524"
       y2="142.24817"
       gradientTransform="matrix(0.52733366,0,0,0.9697428,-68.278057,-6.3304434)"
       gradientUnits="userSpaceOnUse" />
    <linearGradient
       id="linearGradient882"
       x1="129.28268"
       x2="124.69602"
       xlink:href="#linearGradient904"
       y1="31.825925"
       y2="39.302636"
       gradientTransform="matrix(0.77504076,0,0,0.65980788,-68.278057,-6.3304434)"
       gradientUnits="userSpaceOnUse" />
    <linearGradient
       id="linearGradient883"
       x1="144.19479"
       x2="170.67795"
       xlink:href="#linearGradient904"
       y1="100.57082"
       y2="76.411145"
       gradientTransform="matrix(0.62884818,0,0,0.81319787,-68.278057,-6.3304434)"
       gradientUnits="userSpaceOnUse" />
    <linearGradient
       id="linearGradient884"
       x1="138.94482"
       x2="139.20738"
       xlink:href="#linearGradient841"
       y1="29.697555"
       y2="38.474668"
       gradientUnits="userSpaceOnUse" />
    <linearGradient
       id="linearGradient908"
       x1="227.90766"
       x2="242.70115"
       xlink:href="#linearGradient985"
       y1="82.451439"
       y2="81.512844"
       gradientTransform="scale(0.82279322,1.2153722)"
       gradientUnits="userSpaceOnUse" />
    <linearGradient
       id="linearGradient909"
       x1="0"
       x2="1"
       xlink:href="#linearGradient865"
       y1="0.5"
       y2="0.5" />
    <linearGradient
       id="linearGradient1011"
       x1="-2.25"
       x2="0.67307693"
       xlink:href="#linearGradient841"
       y1="1.7352942"
       y2="0.18014707" />
    <linearGradient
       id="linearGradient1019"
       x1="-0.065842137"
       x2="0.49632049"
       xlink:href="#linearGradient841"
       y1="2.1948531"
       y2="0.044117652" />
    <linearGradient
       inkscape:collect="always"
       xlink:href="#linearGradient985"
       id="linearGradient3178"
       x1="239.04769"
       y1="79.003445"
       x2="260.55111"
       y2="77.63913"
       gradientTransform="scale(0.77698293,1.2870296)"
       gradientUnits="userSpaceOnUse" />
    <linearGradient
       inkscape:collect="always"
       xlink:href="#linearGradient985"
       id="linearGradient3180"
       x1="232.27028"
       y1="81.042671"
       x2="250.51733"
       y2="79.884961"
       gradientTransform="scale(0.80296153,1.2453897)"
       gradientUnits="userSpaceOnUse" />
    <linearGradient
       inkscape:collect="always"
       xlink:href="#linearGradient985"
       id="linearGradient3182"
       x1="237.6213"
       y1="79.690928"
       x2="261.85322"
       y2="78.153499"
       gradientTransform="scale(0.77802203,1.2853107)"
       gradientUnits="userSpaceOnUse" />
  </defs>
  <sodipodi:namedview
     bordercolor="#666666"
     borderopacity="1.0"
     id="base"
     inkscape:cx="72.641373"
     inkscape:cy="83.412329"
     inkscape:pageopacity="0.0"
     inkscape:pageshadow="2"
     inkscape:window-height="667"
     inkscape:window-width="640"
     inkscape:window-x="44"
     inkscape:window-y="58"
     inkscape:zoom="2"
     pagecolor="#ffffff"
     showborder="true"
     showgrid="false"
     inkscape:current-layer="svg1"
     fit-margin-top="0"
     fit-margin-left="0"
     fit-margin-right="0"
     fit-margin-bottom="0"
     inkscape:window-maximized="0" />
  <g
     id="g908"
     style="fill:#000000;fill-opacity:0.02999998"
     transform="matrix(0.715107,0,0,0.706665,21.147003,20.934951)">
    <path
       d="M -9.3603763,29.267654 5.0352841,19.910468 C 13.196574,19.245369 18.940294,15.144765 23.029874,8.7538238 l 1.43957,0.719784 -25.9122099,28.7913362 c -5.2317704,5.81307 -1.65902,21.567191 -1.79946,23.392961 -0.14044,1.82578 3.59892005,0.77977 4.6786,2.87914 1.07968,2.09937 0.23993,7.617698 1.79946,9.717068 1.55953,2.09937 5.6382998,0.71979 7.5577199,2.87914 1.91942,2.15935 1.19964,7.19783 3.95881,10.07696 2.75917,2.87913 7.76865,6.91387 12.59621,7.19784 l 12.23632,0.71978 3.23902,4.6786 c 1.39412,8.206147 8.03251,15.217647 10.45336,22.536477 2.42084,7.31882 4.0344,12.27375 2.03585,19.08614 -1.99855,6.5579 -9.99094,7.25781 -15.77788,6.10756 -5.53246,-0.89577 -9.75513,-4.75033 -11.70616,-7.12549 -1.95103,-2.37516 -1.69655,-5.93791 0,-7.12549 1.69654,-1.18758 9.07652,-1.10276 10.17927,0 1.10275,1.10275 -3.47792,5.17447 -3.56275,6.61653 -0.08483,1.44206 1.18759,3.30826 3.05379,2.03585 1.8662,-1.27241 8.56756,-6.10756 8.14342,-9.67031 -0.42414,-3.56275 -6.10757,-11.11238 -10.68824,-11.70617 -4.58067,-0.59379 -13.84865,3.92491 -16.79581,8.14342 -2.94716,4.21851 -3.49847,11.78711 -0.88716,17.16762 2.61131,5.38051 11.96469,14.60908 19.43415,14.39567 7.46946,-0.21341 15.9552,2.9991 22.31329,0 6.35809,-2.9991 11.06222,-10.3306 12.9561,-17.27481 l 2.15935,-7.91762 c 0.64995,-2.38317 3.95881,-4.91852 3.59892,-6.47805 -0.35989,-1.55953 -5.87823,-0.59982 -5.75827,-2.87913 0.11996,-2.27931 6.71799,-8.51743 6.47806,-10.79675 -0.23993,-2.27932 -6.47805,-1.43957 -7.91762,-2.87914 -1.43957,-1.43957 -1.43957,-3.9588 -0.71979,-5.75826 0.71978,-1.79946 5.63831,-3.59892 5.03849,-5.03849 -0.59982,-1.439567 -7.67769,-0.95971 -8.6374,-3.598907 -0.95971,-2.63921 4.10787,-6.33605 2.37017,-9.43702 -1.73771,-2.84649 -5.71285,1.93244 -6.43439,-0.77094 -0.72154,-2.70338 -1.12937,-4.23137 -1.69405,-6.34706 l -7.19784,-3.59892 -5.75826,-4.3187 c 4.37442,-0.41333 9.13056,-6.043528 13.12326,6.01276 11.93655,-8.102168 11.93817,-16.958578 11.93817,-24.516309 0,-7.55773 -6.31411,-18.23434 -13.5923,-21.84799 -4.17816,5.7063 -6.82942,7.84985 -11.3893,9.48443 l 11.4367,-14.479248 c 1.05158,-1.331332 -3.47895,-1.439567 -3.59891,-3.598917 -0.11996,-2.15935 3.41897,-4.738575 3.41897,-6.657997 0,-1.919423 -3.89882,-3.418971 -3.41897,-4.858538 0.47985,-1.439567 5.75826,-4.7985562 5.75826,-6.4780512 0,-1.679495 -5.51833,-2.159351 -5.75826,-3.598918 -0.23993,-1.439567 4.43866,-4.078773 4.3187,-5.038484 -0.11997,-0.959711 -4.55863,0.59982 -5.03849,-0.719783 -0.47986,-1.319603 2.9991,-6.238124 2.15935,-7.1978348 -0.83975,-0.959711 -5.6383,2.5192418 -7.19783,1.4395668 -1.55953,-1.079675 -0.95971,-7.0778708 -2.15935,-7.9176178 -1.19964,-0.839747 -3.71889,3.239026 -5.03849,2.879134 -1.3196,-0.359892 -1.3196,-4.678593 -2.87913,-5.038485 -1.55953,-0.359892 -4.14779,1.959341 -5.58736,1.479485 -1.43957,-0.479856 -1.55953,-4.238655 -3.05004,-4.358619 -1.36327,-0.119964 -2.18052,4.255867 -3.85715,3.766076 l -5.50004,-1.606725 c -1.47465,-0.430788 -1.91942,2.399278 -3.59891,2.879134 -1.67949,0.479855 -4.91852,-1.199639 -6.47805,0 -1.5595301,1.199639 -1.5595401,5.758268 -2.8791401,7.1978348 -1.3196,1.439567 -4.5709898,-0.243409 -5.0384798,1.439567 l -3.59891995,12.956102 c -0.48905,1.760574 3.48251995,3.778321 2.15934995,5.038484 l -15.1154501,14.3956692 -7.91762,1.439567 4.3187,0.719783 4.57318,4.907495 2.6246597,-2.02836 z"
       id="path885"
       sodipodi:nodetypes="cccczzzzzzzccczzzzzzzzzzzzzzzzzzzzzzzzccccccczzzzzzzzzzzzzzzzzzzzzzzccccc"
       style="fill:#000000;fill-opacity:0.02999998;fill-rule:evenodd;stroke:none"
       inkscape:connector-curvature="0" />
    <path
       d="m 30.21875,-22.71875 c -1.853558,3.167759 -4.843587,3.985984 -7.873475,1.940896 -3.01543,-0.373414 -4.029116,4.090066 -7.347046,2.567478 -2.885235,-0.659644 -6.0027121,1.037835 -5.9373334,4.240459 -0.0036,4.4054142 -4.4987875,3.016334 -6.4671456,5.532417 -1.4246439,4.3274083 -3.01181978,8.93855098 -3.4402544,13.4626027 0.48400939,2.6108952 2.8666748,5.1936203 -0.8271411,6.9842003 -5.0650883,3.579621 -8.3554775,10.176696 -14.6547725,11.653021 -1.555732,0.418439 -8.052709,0.602966 -5.285389,2.852739 3.365901,0.146443 6.060558,2.110418 8.061965,4.800458 3.289481,2.398621 5.7552356,-2.784426 8.708092,-3.596771 5.15317605,-3.4379 10.2910605,-7.337209 16.584534,-8.118016 4.938133,-2.800034 3.217083,-1.128556 0.306723,1.923591 C 6.7453952,27.503804 1.0714078,33.370214 -3.5765126,39.800079 -6.5613349,47.062617 -4.9955057,55.077309 -4.125,62.59375 c 1.6099521,2.014832 6.033286,1.711752 5.02865076,5.368845 -0.17530624,3.795577 1.28445704,9.236449 6.04590064,8.794458 5.1219816,0.603638 3.7270736,7.243738 6.5488286,10.282732 2.634675,3.719708 6.915891,6.315947 11.096848,7.887202 4.825003,1.583269 10.576561,-0.102214 14.970909,2.210546 3.634594,5.354137 4.709001,11.960947 8.46808,17.299187 4.46543,8.08858 8.624348,17.77162 5.92118,27.07536 -2.866387,6.51212 -11.682982,5.79636 -17.292488,3.84422 -3.978524,-1.71441 -9.206529,-5.028 -8.850409,-9.88755 1.854692,-2.42842 6.116537,-2.33216 8.375101,-1.27884 -0.02808,2.68874 -4.372709,4.70976 -2.218851,7.87259 2.961613,3.65981 6.250434,-1.2225 8.72398,-2.9133 3.128809,-2.39053 5.420776,-6.90861 2.665044,-10.44981 -2.156754,-4.32958 -6.180459,-8.61136 -11.114198,-9.173 -7.628834,0.71058 -15.870754,4.85009 -18.774826,12.28611 -2.964401,8.64948 1.156419,18.13522 8.254251,23.40941 4.66374,4.5204 11.058546,6.59955 17.497782,6.49256 7.582241,0.63086 16.782655,2.61166 22.706486,-3.53755 7.167578,-5.8996 9.067283,-15.46827 11.868991,-23.79569 1.343404,-2.16003 4.934089,-5.92226 1.23499,-7.66248 -5.673017,0.17161 -2.461987,-4.01909 -0.172349,-6.41074 1.982957,-2.08064 4.193332,-7.10845 2.72e-4,-7.89988 -2.770885,-0.35744 -7.666408,-1.02263 -6.136485,-5.00165 1.580788,-2.48261 4.67434,-3.64095 5.652312,-6.62523 -2.631482,-2.10423 -6.34979,-1.457252 -8.90625,-3.5625 0.501452,-3.452847 4.98187,-8.507704 0.46875,-10.875 -2.902761,0.502721 -6.024244,0.784257 -5.629425,-3.129822 -1.635996,-3.203297 -1.478436,-3.411075 2.012773,-5.450627 C 72.102167,71.958095 74.469756,61.394285 73.321135,52.188992 71.902177,43.763808 66.556066,36.000681 59.1875,31.59375 c -2.305086,0.664246 -3.812731,4.65601 -6.251003,6.28259 -2.879513,2.64842 2.141811,-3.038594 2.850336,-4.139841 1.04671,-2.6198 6.405123,-5.294978 3.056917,-7.861499 -3.010144,-1.542715 -1.367476,-4.138231 0.375,-5.96875 1.402239,-2.476623 -0.0375,-5.028067 -2.15625,-6.46875 0.40856,-3.053686 5.8077,-4.272946 4.96875,-7.8125 -0.953788,-2.4703317 -7.286744,-2.5429947 -3.375,-5.1875 1.770741,-1.27339236 4.20721,-4.1616071 0.4375,-4.28125 -3.996684,1.2794279 -2.864902,-1.894452 -1.34375,-4.28125 1.430167,-2.658418 -1.473104,-4.177469 -3.65625,-2.90625 -3.923303,2.8571341 -4.885114,-1.25485 -4.84375,-4.5 -0.328411,-3.01588 -3.966754,-2.849733 -5.15625,-0.46875 -3.043728,1.09915 -1.73905,-4.816585 -5.125,-4.0625 -2.735797,1.204177 -5.52266,1.734939 -6.254817,-1.771901 -0.395869,-0.879486 -1.721177,-1.398139 -2.495183,-0.884349 z m 25.40625,96 c 1.951433,0.59309 5.500084,7.994518 1.541267,4.923504 -1.996561,-1.318263 -6.729589,-2.952802 -6.457024,-4.70905 1.698359,-0.538922 3.202872,-1.02417 4.915757,-0.214454 z"
       id="path889"
       style="fill:#000000;fill-opacity:0.02999998;fill-rule:evenodd;stroke:none"
       inkscape:connector-curvature="0" />
    <path
       d="m 31.75,-23.875 c -3.113051,0.178254 -5.077514,5.186796 -8.3125,2.125 -3.397214,-0.508124 -5.701777,3.535996 -9.245404,2.46875 -3.594309,-0.404496 -5.9674048,3.051366 -6.3603982,6.215048 -1.6294372,2.719001 -6.91823421,2.565655 -6.7379478,6.597452 -1.14838853,4.3440029 -3.1303408,9.0987181 -2.1677567,13.5506389 1.46498995,4.3861121 -4.524196,6.1561731 -6.4559909,9.3067321 -3.5267264,3.798495 -8.1052154,6.581049 -13.3137524,7.080129 -3.885422,0.956755 -1.232261,4.9685 1.659856,4.916748 3.443221,0.755448 5.857602,6.715669 9.871394,3.989502 6.6155475,-4.240245 12.9075588,-9.624035 20.75,-11.34375 -5.684184,6.239893 -11.67191325,12.523425 -16.096635,19.655196 -2.3655117,7.447462 -1.032043,15.551876 0.190385,22.938554 2.9767076,1.258083 5.25479492,3.359756 4.76230271,6.781738 0.13091886,3.834626 3.08516569,7.740055 7.17519729,7.655762 4.283642,2.392244 2.990631,8.76605 7.129619,11.49758 4.97314,5.4687 12.392292,7.722544 19.625909,7.482559 4.702184,-0.415605 6.791809,3.892901 8.10262,7.639701 4.239666,10.72919 12.587402,20.83564 11.299089,32.98557 0.379931,5.57838 -5.495189,8.9412 -10.481827,7.71179 -2.525619,-0.27879 -7.986289,-0.88179 -3.184084,-2.26575 4.158552,-2.88132 9.498426,-7.42827 7.3599,-13.08039 -2.102449,-6.74922 -9.666907,-13.45235 -17.007476,-10.75231 -7.485751,1.96782 -15.12584,7.25763 -16.355835,15.38669 -1.573835,9.73598 4.886949,18.74535 12.640487,23.90229 7.772545,5.17297 17.644725,4.51271 26.582959,4.97462 9.792027,0.23165 17.055437,-8.25399 19.922046,-16.87717 1.981746,-5.27834 3.526863,-10.9026 6.434695,-15.69725 1.301781,-2.62378 -0.61297,-5.83122 -3.630602,-5.47043 -0.282456,-3.2493 4.350859,-5.43918 4.503273,-9.05061 0.990982,-3.31534 -2.143168,-5.72736 -5.253273,-5.38689 -4.8378,-0.85639 -2.220556,-4.87338 0.524285,-6.6448 2.132342,-1.49633 2.729069,-5.102068 -0.501808,-5.637835 C 73.421297,97.51102 68.107228,98.253179 69.742089,95.082712 71.16195,92.044458 72.559172,86.573358 68.3125,85.25 c -3.438684,1.495539 -4.711931,-1.400968 -5.375,-4.125 2.548403,-3.401183 6.917957,-5.559111 8.558488,-9.815538 3.360804,-6.633429 4.122006,-14.385011 2.589279,-21.593428 C 72.181158,41.780677 66.753691,35.077667 60.03125,30.625 c 1.797568,-1.747383 1.905422,-4.535804 -0.5,-5.78125 -1.930564,-2.947552 2.961113,-4.932327 1.458602,-8.156948 -0.952569,-2.481453 -3.198454,-4.232466 0.10632,-6.095353 C 63.89564,8.8204923 64.587918,4.1543705 60.883864,3.0011241 57.393732,1.8015873 62.051616,0.30858369 62.154413,-1.8216945 63.567365,-5.2048893 58.522226,-4.1210794 58.25,-5.78125 c 1.677475,-2.2844778 1.805078,-6.598983 -1.899559,-6.617586 -1.904221,-0.493555 -5.078332,2.6416334 -5.332856,-0.760633 -0.215272,-2.485152 -1.247119,-6.761879 -4.601472,-5.408631 -3.632662,3.218178 -3.584005,-3.124421 -6.916113,-2.52565 -2.979898,1.449448 -5.027938,0.216693 -6.580605,-2.276237 C 32.528871,-23.405099 32.193267,-24.132096 31.75,-23.875 z m 23.625,98.28125 c 4.29409,3.638654 -0.691198,1.758936 -2.3125,-0.21875 0.770833,0.07292 1.541667,0.145833 2.3125,0.21875 z M 34.5625,134.9375 c -0.122496,1.91617 -2.818701,4.38633 -1.46875,6.875 -1.998848,-1.2735 -5.652454,-5.88795 -1.873777,-6.77369 1.127846,-0.34688 2.194126,-0.39609 3.342527,-0.10131 z"
       id="path892"
       style="fill:#000000;fill-opacity:0.02999998;fill-rule:evenodd;stroke:none"
       inkscape:connector-curvature="0" />
    <path
       d="m 31,-25.40625 c -2.680021,0.845321 -5.075018,3.621156 -8,2.03125 -4.186863,1.420452 -8.470182,2.423421 -12.75,3.34375 -3.3250997,2.098904 -3.5281101,7.174329 -7.5774672,8.468651 -4.4246139,2.9289604 -4.2861016,9.1254243 -5.4741834,13.8046953 -0.2819359,3.6363863 0.6450006,8.0659857 -3.1753277,10.2551767 -4.3006637,4.699058 -9.7264267,8.3586 -15.9513317,9.76507 -3.90041,0.970433 -2.428449,6.881198 1.069705,7.52843 4.041725,1.523621 8.362809,7.247682 12.8338023,3.667213 4.4009876,-2.758065 8.45875409,-5.896121 13.1810527,-8.051736 -5.56324397,6.568677 -12.8862926,13.260967 -12.7406128,22.5445 -0.2288737,5.731053 1.0274098,11.349441 1.6468628,17.018 6.4974917,1.735547 3.1159691,11.139082 9.21875,13.5625 5.5313492,1.190607 6.0546262,7.282739 8.845526,11.246088 4.864317,4.856911 11.179479,8.152383 18.096137,8.748602 3.807394,0.158877 8.28024,0.774245 9.576764,5.02231 3.997896,9.86821 10.49585,19.03212 11.950323,29.858 0.383628,4.10834 -0.276453,9.48654 -5.28125,10.15625 -4.226902,0.72028 -4.900599,-0.27611 -1.303231,-2.64242 3.847124,-3.57074 5.630088,-9.76316 2.125756,-14.17504 -3.188952,-6.40506 -10.93098,-11.92855 -18.166275,-8.65129 -8.085821,2.30002 -15.968702,8.38524 -17.030002,17.20004 -1.087624,9.33636 4.872247,18.04517 12.071308,23.37351 8.427813,6.90367 20.037757,6.0276 30.279847,6.33994 9.863923,-0.0852 16.536822,-9.09301 19.901427,-17.4368 2.448527,-6.31741 5.738922,-12.43791 7.15242,-19.07044 0.510825,-2.83435 -5.03725,-3.52533 -2.309074,-6.05883 2.652913,-3.27341 4.67709,-9.81944 -0.182595,-12.03277 -2.545218,-0.71557 -6.499071,-1.76148 -2.702508,-4.47453 2.710434,-1.94707 3.973422,-6.731232 0.221802,-8.300954 C 73.946377,96.575315 69.822306,96.096887 72.375,92.375 73.095421,88.945843 71.789189,83.243659 67.385958,83.759213 63.17355,83.299803 66.239564,79.376524 68.300844,78.042718 78.839215,67.187542 78.75764,48.504344 69.29473,36.964561 67.564996,34.060661 63.696706,32.34838 62.428341,29.52417 64.179845,26.539948 60.584373,24.59738 61.375,22.03125 62.705673,19.619165 63.360558,16.859053 61.652871,14.45673 60.981839,11.075739 66.790348,8.8169201 64.528101,5.0816499 63.209111,2.555341 61.453584,0.89739241 63.84375,-1.8125 64.722598,-5.2040174 59.90722,-5.496923 60.671496,-8.0280414 62.049237,-11.929581 57.517063,-15.161322 54,-13.625 c -2.923594,0.07172 -1.372428,-4.677073 -4.127789,-5.780623 -2.546217,-1.890975 -5.468118,0.777299 -7.604725,-2.223877 -2.360532,-2.322829 -6.087593,0.720079 -7.970698,-2.418572 C 33.540229,-25.123287 32.210555,-25.411658 31,-25.40625 z m 0.75,163.125 c -0.314392,-1.08621 0.828248,-1.02441 0,0 z"
       id="path896"
       style="fill:#000000;fill-opacity:0.02999998;fill-rule:evenodd;stroke:none"
       inkscape:connector-curvature="0" />
    <path
       d="m 29.96875,-27.46875 c -5.547804,2.761521 -12.122891,2.127583 -17.790152,4.703629 C 6.3353714,-21.155562 3.9387787,-15.089651 -0.375,-11.375 -6.1986305,-5.1188594 -3.0482644,4.7742638 -8.0281199,11.348682 -12.320729,16.329021 -18.755947,18.365599 -24.4375,21.09375 c -3.39024,3.347887 -1.410965,9.09192 2.65625,10.8125 4.418363,3.030375 10.605001,6.921406 15.6660341,3.071247 2.1721925,-0.926898 -2.2283682,4.167605 -2.125201,5.981834 -2.7818561,7.148212 -1.3186467,14.970806 -0.016355,22.27593 -0.1417011,3.178494 2.2949903,4.490419 3.9130222,6.702239 1.8546686,4.100781 2.729061,9.523274 7.5305419,11.21043 5.5840466,3.7944 6.2577723,12.33391 13.0961458,14.759711 5.5941,4.049197 12.932115,4.114359 19.057184,6.535279 4.95004,4.57485 6.099431,11.63077 9.34432,17.33926 0.133242,0.62935 -4.381304,-3.36114 -6.496942,-3.87593 -4.444839,-1.56452 -9.086443,-0.73757 -13.09025,1.62794 -8.136168,3.19381 -15.7132758,10.72259 -15.219686,20.04064 -0.023068,10.53522 7.679301,19.33291 16.020098,24.82976 9.260943,5.00373 20.266164,4.83365 30.510919,4.63967 10.499559,-1.30689 16.659839,-11.34023 20.539703,-20.13633 2.790852,-6.14797 5.206624,-12.5487 6.676716,-19.09543 -0.690415,-2.4164 -3.474982,-4.32844 -1.137892,-6.83884 2.516636,-4.29572 1.776304,-11.45567 -3.674608,-13.00491 -1.449253,-1.66117 2.631808,-3.43453 1.90625,-5.6875 C 81.382255,98.393839 78.013906,95.385925 74.5625,94.4375 75.041967,89.455277 74.275711,82.609288 68.375,81.46875 71.779184,77.282128 75.312913,72.848914 76.708764,67.455446 80.642546,55.194045 77.029368,40.746184 67.5,32 63.901847,28.369405 63.896676,22.677466 64.572867,18.020288 63.909179,15.069197 64.448979,12.372422 66.198243,10.032909 68.53289,5.851387 64.261894,1.7759134 65.84375,-2.46875 66.081879,-5.821133 62.602204,-7.8535778 62.386889,-11.264493 61.69599,-14.456761 58.818882,-16.174913 55.6875,-16 53.09881,-17.572682 52.561683,-21.492957 49.033946,-21.853643 44.555835,-22.759672 40.448919,-24.679964 35.9375,-25.5 c -1.69819,-1.373496 -3.767528,-2.330621 -5.96875,-1.96875 z"
       id="path902"
       style="fill:#000000;fill-opacity:0.02999998;fill-rule:evenodd;stroke:none"
       inkscape:connector-curvature="0" />
    <path
       d="M 29.25,-29.625 C 20.172115,-26.501155 8.9811138,-26.318073 2.6190206,-18.130723 -2.3158809,-13.072479 -6.4199802,-6.9376891 -6.9672256,0.29300936 -7.7018041,6.5913299 -11.033836,13.267811 -17.434145,15.181312 c -4.615036,2.070168 -11.505588,4.803623 -10.72119,10.98043 1.406751,7.154772 9.094708,10.968968 15.612087,12.374866 4.5612784,-0.889689 1.898367,2.816273 1.168248,5.775892 -0.87945,7.276563 -0.270166,14.797676 1.5742827,21.82538 2.0198271,4.082438 4.9185237,7.55265 6.4923788,11.85221 3.24353802,4.511506 8.2979597,7.427897 10.7901392,12.555219 C 11.916621,98.19558 20.798374,101.09824 28.90625,103 c 4.418568,1.14235 7.940792,4.10636 9.444977,8.46497 3.012456,4.13548 -1.313014,1.67775 -4.054598,1.73164 -8.475722,0.27799 -16.55648,4.90113 -21.945398,11.31742 -5.137226,5.90192 -5.9106593,14.45023 -3.1111869,21.5734 3.0276329,7.66029 9.1256289,13.87688 16.0433679,18.19198 9.908152,4.93846 21.277242,5.458 32.12212,4.78169 10.794075,-1.65349 17.089136,-11.97514 21.278589,-21.0653 3.04546,-6.82007 5.572677,-14.04612 6.847129,-21.3083 -3.06878,-4.58967 2.3243,-10.06351 -0.539657,-14.90038 0.205074,-2.96071 -4.446526,-3.99865 -2.926421,-6.49028 1.742381,-4.1022 0.0076,-9.790584 -4.221422,-11.70309 -2.119237,-3.475649 -0.85382,-8.251408 -4.238516,-11.200103 -3.242018,-2.600082 1.193859,-4.848787 1.840981,-7.529099 3.919996,-6.530024 5.430909,-14.551466 4.41306,-22.040723 C 79.257854,44.270637 74.614626,36.941054 69.415287,30.40145 64.609072,24.030171 67.013674,15.421731 68.78125,8.40625 68.696286,4.0766026 67.915108,-0.2423718 67.544714,-4.5067408 65.515705,-9.8049163 63.694451,-17.077979 57.15625,-18.1875 53.822234,-21.002546 50.898112,-24.756135 46.171878,-25.08496 40.411117,-26.091288 35.077699,-29.402486 29.25,-29.625 z"
       id="path907"
       style="fill:#000000;fill-opacity:0.02999998;fill-rule:evenodd;stroke:none"
       inkscape:connector-curvature="0" />
  </g>
  <path
     d="m 16.136385,37.448677 10.294437,-6.691388 c 5.836195,-0.475617 9.94357,-3.407988 12.868057,-7.978194 l 1.029447,0.514722 -18.530003,20.588887 c -3.741275,4.156968 -1.186377,15.422844 -1.286807,16.728471 -0.100429,1.305626 2.573613,0.557616 3.3457,2.058889 0.772087,1.501272 0.171576,5.447473 1.286806,6.948747 1.115231,1.501275 4.031988,0.514727 5.404579,2.058894 1.372591,1.544166 0.857871,5.147218 2.830973,7.206104 1.973101,2.058886 5.555416,4.944157 9.007638,5.147226 l 8.750278,0.51472 2.316246,3.345699 c 0.996945,5.868276 5.744104,10.882248 7.47527,16.115996 1.73116,5.23374 2.885028,8.77704 1.455851,13.64863 -1.429177,4.6896 -7.144591,5.19011 -11.282872,4.36756 -3.956301,-0.64057 -6.975962,-3.39699 -8.371157,-5.09549 -1.395196,-1.69849 -1.213215,-4.24624 0,-5.09549 1.213207,-0.84924 6.490683,-0.78859 7.279267,0 0.788584,0.78859 -2.487085,3.7003 -2.547748,4.73153 -0.06064,1.03123 0.849254,2.36576 2.183787,1.45585 1.334533,-0.90991 6.126722,-4.36756 5.823417,-6.9153 -0.303306,-2.54775 -4.367566,-7.94655 -7.643236,-8.37117 -3.275669,-0.42462 -9.903266,2.80673 -12.010801,5.82342 -2.107535,3.01668 -2.50178,8.42904 -0.634414,12.27668 1.867366,3.84764 7.306034,7.94706 13.897497,10.29445 6.278961,2.34739 11.409675,2.14468 15.956389,0 4.546715,-2.14468 7.910671,-7.38749 9.264998,-12.35334 l 1.544167,-5.66195 c 0.464783,-1.70422 2.830972,-3.51726 2.573612,-4.63249 -0.257359,-1.11523 -4.203563,-0.42894 -4.117779,-2.05889 0.08578,-1.62995 4.804082,-6.09087 4.632506,-7.720832 -0.171575,-1.629957 -4.632499,-1.029446 -5.661945,-2.058893 -1.029447,-1.029446 -1.029447,-2.830965 -0.514727,-4.117772 0.51472,-1.286806 4.031995,-2.573613 3.603059,-3.603059 -0.428935,-1.029447 -5.490369,-0.686296 -6.176665,-2.573606 -0.686295,-1.887318 2.937567,-4.530954 1.694925,-6.748479 -1.242648,-2.035545 -4.085299,1.381901 -4.601277,-0.551305 -0.515978,-1.933206 -0.80762,-3.025882 -1.211427,-4.538827 l -5.147226,-2.573613 -4.117772,-3.088332 c 3.128179,-0.295575 6.529328,-4.321771 9.384535,4.299767 8.535911,-5.793919 8.537069,-12.127203 8.537069,-17.531787 0,-5.404583 -4.515264,-13.039504 -9.719949,-15.623647 -2.987831,4.080611 -4.883766,5.613477 -8.144568,6.782379 l 8.178464,-10.354211 c 0.751993,-0.952045 -2.487821,-1.029444 -2.573605,-2.573611 -0.08579,-1.544166 2.444929,-3.388588 2.444929,-4.76118 0,-1.372593 -2.788073,-2.44493 -2.444929,-3.474374 0.343144,-1.029445 4.117772,-3.431481 4.117772,-4.6325 0,-1.201019 -3.946197,-1.544167 -4.117772,-2.573612 -0.171576,-1.029444 3.174117,-2.916759 3.088332,-3.603055 -0.08579,-0.686296 -3.259908,0.428936 -3.603059,-0.514722 C 61.603503,13.342522 64.091331,9.8252533 63.49082,9.1389572 62.890309,8.4526611 59.458832,10.940485 58.343601,10.168402 57.228371,9.3963185 57.657306,5.1069665 56.799435,4.5064576 55.941564,3.9059486 54.140031,6.8227077 53.196376,6.5653465 52.252721,6.3079852 52.252721,3.2196526 51.13749,2.9622913 50.022259,2.70493 48.171376,4.363429 47.141929,4.0202806 46.112483,3.6771323 46.026699,0.9891895 44.960825,0.90340241 43.985941,0.81761531 43.401519,3.946802 42.20255,3.596549 L 38.269432,2.4475694 c -1.054532,-0.3080595 -1.37259,1.7157398 -2.573605,2.0588882 -1.201015,0.3431477 -3.517268,-0.8578703 -4.632499,0 -1.115231,0.8578702 -1.115238,4.1177777 -2.058893,5.1472222 -0.943656,1.0294442 -3.268747,-0.1740635 -3.603053,1.0294442 l -2.573613,9.264999 c -0.349723,1.258999 2.490375,2.701904 1.544167,3.603056 l -10.809164,10.294443 -5.6619459,1.029445 3.0883329,0.514722 3.270313,3.509386 1.876913,-1.450498 z"
     id="path826"
     sodipodi:nodetypes="cccczzzzzzzccczzzzzzzzzzzzzzzzzzzzzzzzccccccczzzzzzzzzzzzzzzzzzzzzzzccccc"
     style="fill:url(#linearGradient881);fill-opacity:1;fill-rule:evenodd;stroke:#000000;stroke-width:1.5250001;stroke-opacity:0.16000001;stroke-dasharray:none"
     inkscape:connector-curvature="0" />
  <g
     id="g1182"
     style="fill:#000000;fill-opacity:0.02000002"
     transform="matrix(0.715107,0,0,0.706665,20.178073,23.673461)">
    <path
       d="M -9.3603763,29.267654 5.0352841,19.910468 C 13.196574,19.245369 18.940294,15.144765 23.029874,8.7538238 l 1.43957,0.719784 -25.9122099,28.7913362 c -5.2317704,5.81307 -1.65902,21.567191 -1.79946,23.392961 -0.14044,1.82578 3.59892005,0.77977 4.6786,2.87914 1.07968,2.09937 0.23993,7.617698 1.79946,9.717068 1.55953,2.09937 5.6382998,0.71979 7.5577199,2.87914 1.91942,2.15935 1.19964,7.19783 3.95881,10.07696 2.75917,2.87913 7.76865,6.91387 12.59621,7.19784 l 12.23632,0.71978 3.23902,4.6786 c 1.39412,8.206147 8.03251,15.217647 10.45336,22.536477 2.42084,7.31882 4.0344,12.27375 2.03585,19.08614 -1.99855,6.5579 -9.99094,7.25781 -15.77788,6.10756 -5.53246,-0.89577 -9.75513,-4.75033 -11.70616,-7.12549 -1.95103,-2.37516 -1.69655,-5.93791 0,-7.12549 1.69654,-1.18758 9.07652,-1.10276 10.17927,0 1.10275,1.10275 -3.47792,5.17447 -3.56275,6.61653 -0.08483,1.44206 1.18759,3.30826 3.05379,2.03585 1.8662,-1.27241 8.56756,-6.10756 8.14342,-9.67031 -0.42414,-3.56275 -6.10757,-11.11238 -10.68824,-11.70617 -4.58067,-0.59379 -13.84865,3.92491 -16.79581,8.14342 -2.94716,4.21851 -3.49847,11.78711 -0.88716,17.16762 2.61131,5.38051 11.96469,14.60908 19.43415,14.39567 7.46946,-0.21341 15.9552,2.9991 22.31329,0 6.35809,-2.9991 11.06222,-10.3306 12.9561,-17.27481 l 2.15935,-7.91762 c 0.64995,-2.38317 3.95881,-4.91852 3.59892,-6.47805 -0.35989,-1.55953 -5.87823,-0.59982 -5.75827,-2.87913 0.11996,-2.27931 6.71799,-8.51743 6.47806,-10.79675 -0.23993,-2.27932 -6.47805,-1.43957 -7.91762,-2.87914 -1.43957,-1.43957 -1.43957,-3.9588 -0.71979,-5.75826 0.71978,-1.79946 5.63831,-3.59892 5.03849,-5.03849 -0.59982,-1.439567 -7.67769,-0.95971 -8.6374,-3.598907 -0.95971,-2.63921 4.10787,-6.33605 2.37017,-9.43702 -1.73771,-2.84649 -5.71285,1.93244 -6.43439,-0.77094 -0.72154,-2.70338 -1.12937,-4.23137 -1.69405,-6.34706 l -7.19784,-3.59892 -5.75826,-4.3187 c 4.37442,-0.41333 9.13056,-6.043528 13.12326,6.01276 11.93655,-8.102168 11.93817,-16.958578 11.93817,-24.516309 0,-7.55773 -6.31411,-18.23434 -13.5923,-21.84799 -4.17816,5.7063 -6.82942,7.84985 -11.3893,9.48443 l 11.4367,-14.479248 c 1.05158,-1.331332 -3.47895,-1.439567 -3.59891,-3.598917 -0.11996,-2.15935 3.41897,-4.738575 3.41897,-6.657997 0,-1.919423 -3.89882,-3.418971 -3.41897,-4.858538 0.47985,-1.439567 5.75826,-4.7985562 5.75826,-6.4780512 0,-1.679495 -5.51833,-2.159351 -5.75826,-3.598918 -0.23993,-1.439567 4.43866,-4.078773 4.3187,-5.038484 -0.11997,-0.959711 -4.55863,0.59982 -5.03849,-0.719783 -0.47986,-1.319603 2.9991,-6.238124 2.15935,-7.1978348 -0.83975,-0.959711 -5.6383,2.5192418 -7.19783,1.4395668 -1.55953,-1.079675 -0.95971,-7.0778708 -2.15935,-7.9176178 -1.19964,-0.839747 -3.71889,3.239026 -5.03849,2.879134 -1.3196,-0.359892 -1.3196,-4.678593 -2.87913,-5.038485 -1.55953,-0.359892 -4.14779,1.959341 -5.58736,1.479485 -1.43957,-0.479856 -1.55953,-4.238655 -3.05004,-4.358619 -1.36327,-0.119964 -2.18052,4.255867 -3.85715,3.766076 l -5.50004,-1.606725 c -1.47465,-0.430788 -1.91942,2.399278 -3.59891,2.879134 -1.67949,0.479855 -4.91852,-1.199639 -6.47805,0 -1.5595301,1.199639 -1.5595401,5.758268 -2.8791401,7.1978348 -1.3196,1.439567 -4.5709898,-0.243409 -5.0384798,1.439567 l -3.59891995,12.956102 c -0.48905,1.760574 3.48251995,3.778321 2.15934995,5.038484 l -15.1154501,14.3956692 -7.91762,1.439567 4.3187,0.719783 4.57318,4.907495 2.6246597,-2.02836 z"
       id="path1183"
       sodipodi:nodetypes="cccczzzzzzzccczzzzzzzzzzzzzzzzzzzzzzzzccccccczzzzzzzzzzzzzzzzzzzzzzzccccc"
       style="fill:#000000;fill-opacity:0.02000002;fill-rule:evenodd;stroke:none"
       inkscape:connector-curvature="0" />
    <path
       d="m 30.21875,-22.71875 c -1.853558,3.167759 -4.843587,3.985984 -7.873475,1.940896 -3.01543,-0.373414 -4.029116,4.090066 -7.347046,2.567478 -2.885235,-0.659644 -6.0027121,1.037835 -5.9373334,4.240459 -0.0036,4.4054142 -4.4987875,3.016334 -6.4671456,5.532417 -1.4246439,4.3274083 -3.01181978,8.93855098 -3.4402544,13.4626027 0.48400939,2.6108952 2.8666748,5.1936203 -0.8271411,6.9842003 -5.0650883,3.579621 -8.3554775,10.176696 -14.6547725,11.653021 -1.555732,0.418439 -8.052709,0.602966 -5.285389,2.852739 3.365901,0.146443 6.060558,2.110418 8.061965,4.800458 3.289481,2.398621 5.7552356,-2.784426 8.708092,-3.596771 5.15317605,-3.4379 10.2910605,-7.337209 16.584534,-8.118016 4.938133,-2.800034 3.217083,-1.128556 0.306723,1.923591 C 6.7453952,27.503804 1.0714078,33.370214 -3.5765126,39.800079 -6.5613349,47.062617 -4.9955057,55.077309 -4.125,62.59375 c 1.6099521,2.014832 6.033286,1.711752 5.02865076,5.368845 -0.17530624,3.795577 1.28445704,9.236449 6.04590064,8.794458 5.1219816,0.603638 3.7270736,7.243738 6.5488286,10.282732 2.634675,3.719708 6.915891,6.315947 11.096848,7.887202 4.825003,1.583269 10.576561,-0.102214 14.970909,2.210546 3.634594,5.354137 4.709001,11.960947 8.46808,17.299187 4.46543,8.08858 8.624348,17.77162 5.92118,27.07536 -2.866387,6.51212 -11.682982,5.79636 -17.292488,3.84422 -3.978524,-1.71441 -9.206529,-5.028 -8.850409,-9.88755 1.854692,-2.42842 6.116537,-2.33216 8.375101,-1.27884 -0.02808,2.68874 -4.372709,4.70976 -2.218851,7.87259 2.961613,3.65981 6.250434,-1.2225 8.72398,-2.9133 3.128809,-2.39053 5.420776,-6.90861 2.665044,-10.44981 -2.156754,-4.32958 -6.180459,-8.61136 -11.114198,-9.173 -7.628834,0.71058 -15.870754,4.85009 -18.774826,12.28611 -2.964401,8.64948 1.156419,18.13522 8.254251,23.40941 4.66374,4.5204 11.058546,6.59955 17.497782,6.49256 7.582241,0.63086 16.782655,2.61166 22.706486,-3.53755 7.167578,-5.8996 9.067283,-15.46827 11.868991,-23.79569 1.343404,-2.16003 4.934089,-5.92226 1.23499,-7.66248 -5.673017,0.17161 -2.461987,-4.01909 -0.172349,-6.41074 1.982957,-2.08064 4.193332,-7.10845 2.72e-4,-7.89988 -2.770885,-0.35744 -7.666408,-1.02263 -6.136485,-5.00165 1.580788,-2.48261 4.67434,-3.64095 5.652312,-6.62523 -2.631482,-2.10423 -6.34979,-1.457252 -8.90625,-3.5625 0.501452,-3.452847 4.98187,-8.507704 0.46875,-10.875 -2.902761,0.502721 -6.024244,0.784257 -5.629425,-3.129822 -1.635996,-3.203297 -1.478436,-3.411075 2.012773,-5.450627 C 72.102167,71.958095 74.469756,61.394285 73.321135,52.188992 71.902177,43.763808 66.556066,36.000681 59.1875,31.59375 c -2.305086,0.664246 -3.812731,4.65601 -6.251003,6.28259 -2.879513,2.64842 2.141811,-3.038594 2.850336,-4.139841 1.04671,-2.6198 6.405123,-5.294978 3.056917,-7.861499 -3.010144,-1.542715 -1.367476,-4.138231 0.375,-5.96875 1.402239,-2.476623 -0.0375,-5.028067 -2.15625,-6.46875 0.40856,-3.053686 5.8077,-4.272946 4.96875,-7.8125 -0.953788,-2.4703317 -7.286744,-2.5429947 -3.375,-5.1875 1.770741,-1.27339236 4.20721,-4.1616071 0.4375,-4.28125 -3.996684,1.2794279 -2.864902,-1.894452 -1.34375,-4.28125 1.430167,-2.658418 -1.473104,-4.177469 -3.65625,-2.90625 -3.923303,2.8571341 -4.885114,-1.25485 -4.84375,-4.5 -0.328411,-3.01588 -3.966754,-2.849733 -5.15625,-0.46875 -3.043728,1.09915 -1.73905,-4.816585 -5.125,-4.0625 -2.735797,1.204177 -5.52266,1.734939 -6.254817,-1.771901 -0.395869,-0.879486 -1.721177,-1.398139 -2.495183,-0.884349 z m 25.40625,96 c 1.951433,0.59309 5.500084,7.994518 1.541267,4.923504 -1.996561,-1.318263 -6.729589,-2.952802 -6.457024,-4.70905 1.698359,-0.538922 3.202872,-1.02417 4.915757,-0.214454 z"
       id="path1184"
       style="fill:#000000;fill-opacity:0.02000002;fill-rule:evenodd;stroke:none"
       inkscape:connector-curvature="0" />
    <path
       d="m 31.75,-23.875 c -3.113051,0.178254 -5.077514,5.186796 -8.3125,2.125 -3.397214,-0.508124 -5.701777,3.535996 -9.245404,2.46875 -3.594309,-0.404496 -5.9674048,3.051366 -6.3603982,6.215048 -1.6294372,2.719001 -6.91823421,2.565655 -6.7379478,6.597452 -1.14838853,4.3440029 -3.1303408,9.0987181 -2.1677567,13.5506389 1.46498995,4.3861121 -4.524196,6.1561731 -6.4559909,9.3067321 -3.5267264,3.798495 -8.1052154,6.581049 -13.3137524,7.080129 -3.885422,0.956755 -1.232261,4.9685 1.659856,4.916748 3.443221,0.755448 5.857602,6.715669 9.871394,3.989502 6.6155475,-4.240245 12.9075588,-9.624035 20.75,-11.34375 -5.684184,6.239893 -11.67191325,12.523425 -16.096635,19.655196 -2.3655117,7.447462 -1.032043,15.551876 0.190385,22.938554 2.9767076,1.258083 5.25479492,3.359756 4.76230271,6.781738 0.13091886,3.834626 3.08516569,7.740055 7.17519729,7.655762 4.283642,2.392244 2.990631,8.76605 7.129619,11.49758 4.97314,5.4687 12.392292,7.722544 19.625909,7.482559 4.702184,-0.415605 6.791809,3.892901 8.10262,7.639701 4.239666,10.72919 12.587402,20.83564 11.299089,32.98557 0.379931,5.57838 -5.495189,8.9412 -10.481827,7.71179 -2.525619,-0.27879 -7.986289,-0.88179 -3.184084,-2.26575 4.158552,-2.88132 9.498426,-7.42827 7.3599,-13.08039 -2.102449,-6.74922 -9.666907,-13.45235 -17.007476,-10.75231 -7.485751,1.96782 -15.12584,7.25763 -16.355835,15.38669 -1.573835,9.73598 4.886949,18.74535 12.640487,23.90229 7.772545,5.17297 17.644725,4.51271 26.582959,4.97462 9.792027,0.23165 17.055437,-8.25399 19.922046,-16.87717 1.981746,-5.27834 3.526863,-10.9026 6.434695,-15.69725 1.301781,-2.62378 -0.61297,-5.83122 -3.630602,-5.47043 -0.282456,-3.2493 4.350859,-5.43918 4.503273,-9.05061 0.990982,-3.31534 -2.143168,-5.72736 -5.253273,-5.38689 -4.8378,-0.85639 -2.220556,-4.87338 0.524285,-6.6448 2.132342,-1.49633 2.729069,-5.102068 -0.501808,-5.637835 C 73.421297,97.51102 68.107228,98.253179 69.742089,95.082712 71.16195,92.044458 72.559172,86.573358 68.3125,85.25 c -3.438684,1.495539 -4.711931,-1.400968 -5.375,-4.125 2.548403,-3.401183 6.917957,-5.559111 8.558488,-9.815538 3.360804,-6.633429 4.122006,-14.385011 2.589279,-21.593428 C 72.181158,41.780677 66.753691,35.077667 60.03125,30.625 c 1.797568,-1.747383 1.905422,-4.535804 -0.5,-5.78125 -1.930564,-2.947552 2.961113,-4.932327 1.458602,-8.156948 -0.952569,-2.481453 -3.198454,-4.232466 0.10632,-6.095353 C 63.89564,8.8204923 64.587918,4.1543705 60.883864,3.0011241 57.393732,1.8015873 62.051616,0.30858369 62.154413,-1.8216945 63.567365,-5.2048893 58.522226,-4.1210794 58.25,-5.78125 c 1.677475,-2.2844778 1.805078,-6.598983 -1.899559,-6.617586 -1.904221,-0.493555 -5.078332,2.6416334 -5.332856,-0.760633 -0.215272,-2.485152 -1.247119,-6.761879 -4.601472,-5.408631 -3.632662,3.218178 -3.584005,-3.124421 -6.916113,-2.52565 -2.979898,1.449448 -5.027938,0.216693 -6.580605,-2.276237 C 32.528871,-23.405099 32.193267,-24.132096 31.75,-23.875 z m 23.625,98.28125 c 4.29409,3.638654 -0.691198,1.758936 -2.3125,-0.21875 0.770833,0.07292 1.541667,0.145833 2.3125,0.21875 z M 34.5625,134.9375 c -0.122496,1.91617 -2.818701,4.38633 -1.46875,6.875 -1.998848,-1.2735 -5.652454,-5.88795 -1.873777,-6.77369 1.127846,-0.34688 2.194126,-0.39609 3.342527,-0.10131 z"
       id="path1185"
       style="fill:#000000;fill-opacity:0.02000002;fill-rule:evenodd;stroke:none"
       inkscape:connector-curvature="0" />
    <path
       d="m 31,-25.40625 c -2.680021,0.845321 -5.075018,3.621156 -8,2.03125 -4.186863,1.420452 -8.470182,2.423421 -12.75,3.34375 -3.3250997,2.098904 -3.5281101,7.174329 -7.5774672,8.468651 -4.4246139,2.9289604 -4.2861016,9.1254243 -5.4741834,13.8046953 -0.2819359,3.6363863 0.6450006,8.0659857 -3.1753277,10.2551767 -4.3006637,4.699058 -9.7264267,8.3586 -15.9513317,9.76507 -3.90041,0.970433 -2.428449,6.881198 1.069705,7.52843 4.041725,1.523621 8.362809,7.247682 12.8338023,3.667213 4.4009876,-2.758065 8.45875409,-5.896121 13.1810527,-8.051736 -5.56324397,6.568677 -12.8862926,13.260967 -12.7406128,22.5445 -0.2288737,5.731053 1.0274098,11.349441 1.6468628,17.018 6.4974917,1.735547 3.1159691,11.139082 9.21875,13.5625 5.5313492,1.190607 6.0546262,7.282739 8.845526,11.246088 4.864317,4.856911 11.179479,8.152383 18.096137,8.748602 3.807394,0.158877 8.28024,0.774245 9.576764,5.02231 3.997896,9.86821 10.49585,19.03212 11.950323,29.858 0.383628,4.10834 -0.276453,9.48654 -5.28125,10.15625 -4.226902,0.72028 -4.900599,-0.27611 -1.303231,-2.64242 3.847124,-3.57074 5.630088,-9.76316 2.125756,-14.17504 -3.188952,-6.40506 -10.93098,-11.92855 -18.166275,-8.65129 -8.085821,2.30002 -15.968702,8.38524 -17.030002,17.20004 -1.087624,9.33636 4.872247,18.04517 12.071308,23.37351 8.427813,6.90367 20.037757,6.0276 30.279847,6.33994 9.863923,-0.0852 16.536822,-9.09301 19.901427,-17.4368 2.448527,-6.31741 5.738922,-12.43791 7.15242,-19.07044 0.510825,-2.83435 -5.03725,-3.52533 -2.309074,-6.05883 2.652913,-3.27341 4.67709,-9.81944 -0.182595,-12.03277 -2.545218,-0.71557 -6.499071,-1.76148 -2.702508,-4.47453 2.710434,-1.94707 3.973422,-6.731232 0.221802,-8.300954 C 73.946377,96.575315 69.822306,96.096887 72.375,92.375 73.095421,88.945843 71.789189,83.243659 67.385958,83.759213 63.17355,83.299803 66.239564,79.376524 68.300844,78.042718 78.839215,67.187542 78.75764,48.504344 69.29473,36.964561 67.564996,34.060661 63.696706,32.34838 62.428341,29.52417 64.179845,26.539948 60.584373,24.59738 61.375,22.03125 62.705673,19.619165 63.360558,16.859053 61.652871,14.45673 60.981839,11.075739 66.790348,8.8169201 64.528101,5.0816499 63.209111,2.555341 61.453584,0.89739241 63.84375,-1.8125 64.722598,-5.2040174 59.90722,-5.496923 60.671496,-8.0280414 62.049237,-11.929581 57.517063,-15.161322 54,-13.625 c -2.923594,0.07172 -1.372428,-4.677073 -4.127789,-5.780623 -2.546217,-1.890975 -5.468118,0.777299 -7.604725,-2.223877 -2.360532,-2.322829 -6.087593,0.720079 -7.970698,-2.418572 C 33.540229,-25.123287 32.210555,-25.411658 31,-25.40625 z m 0.75,163.125 c -0.314392,-1.08621 0.828248,-1.02441 0,0 z"
       id="path1186"
       style="fill:#000000;fill-opacity:0.02000002;fill-rule:evenodd;stroke:none"
       inkscape:connector-curvature="0" />
    <path
       d="m 29.96875,-27.46875 c -5.547804,2.761521 -12.122891,2.127583 -17.790152,4.703629 C 6.3353714,-21.155562 3.9387787,-15.089651 -0.375,-11.375 -6.1986305,-5.1188594 -3.0482644,4.7742638 -8.0281199,11.348682 -12.320729,16.329021 -18.755947,18.365599 -24.4375,21.09375 c -3.39024,3.347887 -1.410965,9.09192 2.65625,10.8125 4.418363,3.030375 10.605001,6.921406 15.6660341,3.071247 2.1721925,-0.926898 -2.2283682,4.167605 -2.125201,5.981834 -2.7818561,7.148212 -1.3186467,14.970806 -0.016355,22.27593 -0.1417011,3.178494 2.2949903,4.490419 3.9130222,6.702239 1.8546686,4.100781 2.729061,9.523274 7.5305419,11.21043 5.5840466,3.7944 6.2577723,12.33391 13.0961458,14.759711 5.5941,4.049197 12.932115,4.114359 19.057184,6.535279 4.95004,4.57485 6.099431,11.63077 9.34432,17.33926 0.133242,0.62935 -4.381304,-3.36114 -6.496942,-3.87593 -4.444839,-1.56452 -9.086443,-0.73757 -13.09025,1.62794 -8.136168,3.19381 -15.7132758,10.72259 -15.219686,20.04064 -0.023068,10.53522 7.679301,19.33291 16.020098,24.82976 9.260943,5.00373 20.266164,4.83365 30.510919,4.63967 10.499559,-1.30689 16.659839,-11.34023 20.539703,-20.13633 2.790852,-6.14797 5.206624,-12.5487 6.676716,-19.09543 -0.690415,-2.4164 -3.474982,-4.32844 -1.137892,-6.83884 2.516636,-4.29572 1.776304,-11.45567 -3.674608,-13.00491 -1.449253,-1.66117 2.631808,-3.43453 1.90625,-5.6875 C 81.382255,98.393839 78.013906,95.385925 74.5625,94.4375 75.041967,89.455277 74.275711,82.609288 68.375,81.46875 71.779184,77.282128 75.312913,72.848914 76.708764,67.455446 80.642546,55.194045 77.029368,40.746184 67.5,32 63.901847,28.369405 63.896676,22.677466 64.572867,18.020288 63.909179,15.069197 64.448979,12.372422 66.198243,10.032909 68.53289,5.851387 64.261894,1.7759134 65.84375,-2.46875 66.081879,-5.821133 62.602204,-7.8535778 62.386889,-11.264493 61.69599,-14.456761 58.818882,-16.174913 55.6875,-16 53.09881,-17.572682 52.561683,-21.492957 49.033946,-21.853643 44.555835,-22.759672 40.448919,-24.679964 35.9375,-25.5 c -1.69819,-1.373496 -3.767528,-2.330621 -5.96875,-1.96875 z"
       id="path1187"
       style="fill:#000000;fill-opacity:0.02000002;fill-rule:evenodd;stroke:none"
       inkscape:connector-curvature="0" />
    <path
       d="M 29.25,-29.625 C 20.172115,-26.501155 8.9811138,-26.318073 2.6190206,-18.130723 -2.3158809,-13.072479 -6.4199802,-6.9376891 -6.9672256,0.29300936 -7.7018041,6.5913299 -11.033836,13.267811 -17.434145,15.181312 c -4.615036,2.070168 -11.505588,4.803623 -10.72119,10.98043 1.406751,7.154772 9.094708,10.968968 15.612087,12.374866 4.5612784,-0.889689 1.898367,2.816273 1.168248,5.775892 -0.87945,7.276563 -0.270166,14.797676 1.5742827,21.82538 2.0198271,4.082438 4.9185237,7.55265 6.4923788,11.85221 3.24353802,4.511506 8.2979597,7.427897 10.7901392,12.555219 C 11.916621,98.19558 20.798374,101.09824 28.90625,103 c 4.418568,1.14235 7.940792,4.10636 9.444977,8.46497 3.012456,4.13548 -1.313014,1.67775 -4.054598,1.73164 -8.475722,0.27799 -16.55648,4.90113 -21.945398,11.31742 -5.137226,5.90192 -5.9106593,14.45023 -3.1111869,21.5734 3.0276329,7.66029 9.1256289,13.87688 16.0433679,18.19198 9.908152,4.93846 21.277242,5.458 32.12212,4.78169 10.794075,-1.65349 17.089136,-11.97514 21.278589,-21.0653 3.04546,-6.82007 5.572677,-14.04612 6.847129,-21.3083 -3.06878,-4.58967 2.3243,-10.06351 -0.539657,-14.90038 0.205074,-2.96071 -4.446526,-3.99865 -2.926421,-6.49028 1.742381,-4.1022 0.0076,-9.790584 -4.221422,-11.70309 -2.119237,-3.475649 -0.85382,-8.251408 -4.238516,-11.200103 -3.242018,-2.600082 1.193859,-4.848787 1.840981,-7.529099 3.919996,-6.530024 5.430909,-14.551466 4.41306,-22.040723 C 79.257854,44.270637 74.614626,36.941054 69.415287,30.40145 64.609072,24.030171 67.013674,15.421731 68.78125,8.40625 68.696286,4.0766026 67.915108,-0.2423718 67.544714,-4.5067408 65.515705,-9.8049163 63.694451,-17.077979 57.15625,-18.1875 53.822234,-21.002546 50.898112,-24.756135 46.171878,-25.08496 40.411117,-26.091288 35.077699,-29.402486 29.25,-29.625 z"
       id="path1188"
       style="fill:#000000;fill-opacity:0.02000002;fill-rule:evenodd;stroke:none"
       inkscape:connector-curvature="0" />
  </g>
  <path
     d="m 70.771703,82.743821 c -1.124856,1.051272 -3.791254,7.865397 -1.408481,7.859569 2.382779,-0.0057 1.200314,4.109878 1.825282,5.973275 0.496284,1.60603 0.599924,2.986809 3.352006,3.41696 2.752083,0.430155 -1.539575,3.260985 -2.613759,5.124075 -1.074176,1.8631 2.575787,3.73215 1.80591,6.10102 -0.769877,2.36887 -1.199156,7.67378 -3.05666,11.11099 -1.857505,3.4372 -6.710879,7.93949 -10.846214,7.58494 -3.27617,-0.0749 -7.11141,-1.00133 -10.395482,-0.89545 -4.270612,-0.8008 -8.046563,-4.13674 -11.175499,-9.43786 -3.128944,-5.5246 0.238788,-9.24497 1.969305,-12.09763 2.126277,-2.31659 5.302046,-3.6128 7.988496,-3.14742 2.686442,0.46538 6.056441,5.35687 4.816374,7.95905 -0.513182,1.29961 -3.779498,2.93202 -2.911608,3.4034 1.327653,1.39315 -4.190377,-1.18694 -2.420959,1.8836 1.61745,3.60373 4.130386,-0.0527 5.843125,-2.55116 2.172952,-1.80634 2.704542,-3.62849 1.334511,-6.47724 -1.237843,-3.12708 -3.294341,-4.44743 -6.339667,-5.93733 -4.154385,-1.42559 -6.501474,1.01513 -9.836175,3.25568 -5.308211,4.2958 -5.943648,12.05583 -2.063241,17.38046 2.378131,3.39685 6.449443,6.183 10.319967,7.73147 3.065878,0.80037 6.295609,0.35218 9.381882,1.08936 3.995238,0.60848 8.522959,0.22228 11.532351,-2.78086 4.51475,-3.83697 6.116182,-9.7782 7.443513,-15.30585 0.521027,-2.27285 3.60449,-3.93061 2.046107,-6.47728 -2.286039,-0.14175 -3.774663,-1.14973 -1.507416,-3.04968 1.357752,-2.19137 5.220488,-6.1272 0.404085,-7.334815 -1.547563,-0.351561 -5.160305,-4.216543 -2.591684,-6.135197 2.66524,-1.290997 3.256662,-2.176084 -0.154227,-2.748406 -1.032292,-0.289547 -3.665488,-1.509276 -2.741842,-5.497671 z"
     id="path854"
     sodipodi:nodetypes="czzzzzzcczczcccccccccccccccccc"
     style="fill-opacity:0.05785122;fill-rule:evenodd;stroke-width:5.84179211"
     inkscape:connector-curvature="0" />
  <path
     d="m 38.740102,35.821607 c 0,0 -15.668402,6.871655 -17.009228,11.580761 -1.117355,4.709104 -1.834342,11.813607 2.581515,12.956551 4.415857,1.366416 -2.386019,9.08078 4.369289,8.356805 6.308367,-0.277032 5.032709,9.683643 9.171534,12.048681 4.138824,2.365044 16.812358,3.761412 19.473028,0.80511 C 59.986917,78.613213 38.740102,35.821607 38.740102,35.821607 z"
     id="path915"
     sodipodi:nodetypes="czzzzcc"
     style="fill:url(#linearGradient883);fill-opacity:1;fill-rule:evenodd;stroke-width:1pt"
     inkscape:connector-curvature="0" />
  <path
     d="m 13.431757,36.674195 0.727929,1.091891 11.100885,-7.643234 c 0,0 9.099085,0.181981 12.192774,-6.733326 1.455858,-4.185581 -3.275669,-5.459453 -3.275669,-5.459453 L 13.431757,36.674195 z"
     id="path858"
     sodipodi:nodetypes="cccccc"
     style="fill:url(#linearGradient859);fill-opacity:1;fill-rule:evenodd;stroke-width:1pt"
     inkscape:connector-curvature="0" />
  <path
     d="m 42.332442,5.0773783 c -1.558683,0.040289 -3.806522,0.2798793 -6.09721,0.9959231 -2.290688,0.7160437 -4.584716,2.1798706 -4.97633,3.8411729 -0.391614,1.6613027 -3.816347,2.3024547 0.110763,1.9015667 3.927103,-0.400888 11.450387,0.675959 16.576367,3.414825 5.125972,2.738867 9.624796,9.491858 11.162734,12.908134 1.537938,3.416275 0.830239,5.37325 2.171072,5.000702 1.340826,-0.372548 1.655609,-3.539655 0.0036,-5.625123 -1.652184,-2.085468 3.720265,-5.040567 1.900289,-6.512944 -1.819976,-1.472378 -2.641147,-2.295855 -1.211734,-3.738708 1.429413,-1.442854 -2.377409,-0.988054 -1.634327,-2.471777 0.743089,-1.483723 1.93475,-4.002229 -0.5411,-2.803519 C 57.320691,13.186341 56.514916,9.9808169 55.902276,8.0497091 55.289637,6.1186012 52.809295,9.3410057 51.790783,7.340029 50.772263,5.3390524 49.229262,5.5980627 47.667748,6.1219515 46.106226,6.6458403 44.975298,3.7661423 44.556196,4.2234318 44.1371,4.680722 43.891268,5.0370863 42.332585,5.0773783 z M 61.893764,35.86087 c -0.28999,0.333789 0.289984,-0.333789 0,0 z"
     id="path880"
     sodipodi:nodetypes="czzzzzzzzzzzzzzzzcz"
     style="fill:url(#linearGradient861);fill-opacity:1;fill-rule:evenodd;stroke-width:1pt"
     inkscape:connector-curvature="0" />
  <g
     id="g1006"
     transform="matrix(0.787227,0,0,0.627796,-99.051247,-43.832119)">
    <path
       d="m 185.56295,96.531898 c 0,0 8.24883,-0.938094 7.88894,-6.616529 -1.07968,-3.878976 5.73738,3.187266 5.5986,8.906866 -0.13878,5.899545 -3.39309,10.603415 -4.07171,12.724095 0.22111,-5.2571 -4.07171,-9.41583 -7.37997,-9.67031 -3.30827,-0.25449 -2.03586,-5.344122 -2.03586,-5.344122 z"
       id="path984"
       sodipodi:nodetypes="cccccc"
       style="fill:url(#linearGradient3178);fill-opacity:1;fill-rule:evenodd;stroke-width:1pt"
       inkscape:connector-curvature="0" />
    <path
       d="m 193.6875,92.28125 c -0.78317,1.959438 -2.92275,2.932685 -4.61384,3.980117 -1.4801,0.466122 -3.48082,0.548319 -2.79241,2.613633 -0.29394,2.42846 2.78193,2.41205 4.23052,3.43221 2.39027,1.51306 4.23997,3.93823 4.83198,6.72404 1.36304,-3.50951 2.65527,-7.16512 2.83817,-10.928052 -0.57348,-2.81426 -1.93155,-5.449594 -3.76293,-7.61983 -0.57201,-0.671014 -0.49356,1.525276 -0.73149,1.797882 z"
       id="path993"
       style="fill:url(#linearGradient3180);fill-opacity:1;fill-rule:evenodd;stroke-width:1pt"
       inkscape:connector-curvature="0" />
    <path
       d="m 193.125,88.0625 c -1.33325,1.464683 -0.51134,4.000695 -2.39156,5.135861 -1.50836,1.47257 -3.89905,1.528072 -5.50954,2.688312 -1.20124,1.202629 -0.82947,3.202983 -0.43369,4.636907 0.90527,2.51268 3.96949,2.37223 5.68864,3.99286 1.43318,1.30721 2.70476,2.87021 2.94344,4.8681 0.55666,1.36215 0.35011,3.03342 1.42146,4.14671 1.28236,-2.72101 2.78494,-5.44423 3.67666,-8.28348 0.77276,-3.3849 2.35137,-7.122398 0.55262,-10.450929 -1.24671,-2.468523 -2.27932,-5.321115 -4.90006,-6.641272 -0.23512,-0.271927 -0.78663,-0.276276 -1.04797,-0.09307 z"
       id="path998"
       style="fill:url(#linearGradient3182);fill-opacity:1;fill-rule:evenodd;stroke-width:1pt"
       inkscape:connector-curvature="0" />
    <path
       d="m 193.71875,93.4375 c -1.4979,2.201665 -4.13323,3.07337 -6.40625,4.25 -0.4328,1.606418 0.71554,2.69888 2.01394,3.424 1.81683,0.95903 3.45872,2.12499 4.59659,3.87086 0.98336,0.91872 1.37006,2.90258 1.77633,0.47172 0.63023,-2.53236 1.26784,-5.19773 1.52295,-7.749746 -0.70291,-2.071423 -1.59673,-4.039872 -2.81606,-5.860584 -0.22917,0.53125 -0.45833,1.0625 -0.6875,1.59375 z"
       id="path1005"
       style="fill:url(#linearGradient908);fill-opacity:1;fill-rule:evenodd;stroke-width:1pt"
       inkscape:connector-curvature="0" />
  </g>
  <path
     d="m 47.242174,16.488447 c 0,0 5.898796,-0.670837 5.641437,-4.731526 -0.772087,-2.7738826 4.10284,2.279236 4.003598,6.369362 -0.09924,4.218806 -2.426423,7.582575 -2.911709,9.099089 0.158118,-3.759387 -2.911708,-6.733326 -5.277468,-6.915308 -2.365767,-0.181981 -1.455858,-3.821617 -1.455858,-3.821617 z"
     id="path827"
     sodipodi:nodetypes="cccccc"
     style="fill:url(#linearGradient850);fill-opacity:1;fill-rule:evenodd;stroke-width:1pt"
     inkscape:connector-curvature="0" />
  <path
     d="m 140.98296,35.961563 a 4.3261919,4.3261919 0 1 1 -8.65238,0 4.3261919,4.3261919 0 1 1 8.65238,0 z"
     id="path869"
     sodipodi:cx="136.65677"
     sodipodi:cy="35.961563"
     sodipodi:rx="4.3261919"
     sodipodi:ry="4.3261919"
     sodipodi:type="arc"
     style="fill:url(#linearGradient884);fill-opacity:1;fill-rule:evenodd;stroke:url(#linearGradient851);stroke-width:1pt;stroke-opacity:0.38016525"
     transform="matrix(0.715107,0,0,0.715107,-68.278057,-6.3304434)" />
  <path
     d="m 63.74818,46.198954 2.573613,-3.345694 c 1.672843,1.544166 8.750278,8.750277 5.919305,18.529998 C 70.439572,49.029926 63.74818,46.198954 63.74818,46.198954 z"
     id="path871"
     sodipodi:nodetypes="cccc"
     style="fill:url(#linearGradient849);fill-opacity:1;fill-rule:evenodd;stroke-width:1pt"
     inkscape:connector-curvature="0" />
  <path
     d="M 54.302676,36.961478 C 50.342199,38.546912 35.380351,51.547471 48.141922,62.645503 60.903486,73.743542 63.543825,69.304329 63.543825,69.304329 52.835827,58.629069 51.809048,46.685473 54.302676,36.961478 z"
     id="path872"
     sodipodi:nodetypes="cccc"
     style="fill:url(#linearGradient844);fill-opacity:1;fill-rule:evenodd;stroke-width:1pt"
     inkscape:connector-curvature="0" />
  <path
     d="m 54.225822,50.316732 c 3.688844,6.434028 3.259909,11.58125 2.573613,16.985833 3.002549,-1.801526 8.921854,-0.514726 8.492918,-7.206112 -0.428935,-6.94875 -5.919305,-9.264999 -11.066531,-9.779721 z"
     id="path873"
     sodipodi:nodetypes="cczc"
     style="fill:url(#linearGradient868);fill-opacity:1;fill-rule:evenodd;stroke-width:1pt"
     inkscape:connector-curvature="0" />
  <g
     id="g897"
     style="fill:#ffffff;fill-opacity:0.03999999"
     transform="matrix(0.715107,0,0,0.715107,-70.381857,-10.984988)">
    <path
       d="m 152.40095,52.699906 c -2.70306,1.1923 -5.1261,3.3707 -6.90924,5.74586 -1.62873,3.2557 2.6015,5.12842 4.58169,6.91967 2.73069,1.73599 8.60456,5.28627 10.46817,1.2876 -1.4435,-2.87811 -4.61085,-0.95808 -6.87858,-3.63654 -2.08795,-1.25769 -6.11322,-3.72084 -2.72284,-5.234 1.7628,-1.059 5.67717,-4.09934 1.4608,-5.08259 z m -12.84375,20 c 1.48856,2.62922 4.80943,3.49283 7.47112,4.554 1.33778,0.53257 4.65269,0.4479 1.61739,1.32126 -3.62341,1.13677 -8.47546,0.57775 -9.62525,-0.45493 -1.14978,-1.03268 2.10021,-4.56672 -1.51212,-3.59712 -1.92122,1.79955 -4.65232,4.90898 -2.91989,7.30179 2.90659,1.60714 6.81746,1.07702 10.14322,1.11439 2.77309,-0.15549 10.4532,-1.25336 7.91019,-5.27465 0.17015,-1.11944 -0.25286,-3.79508 -2.7023,-3.25723 -2.09242,-0.94563 -6.20469,-1.29937 -4.65394,-4.52063 1.20571,-1.92263 4.48586,-0.95467 1.05193,-3.57693 0,0 -7.66134,2.18749 -6.78035,6.39005 z m -6.1875,12.75 c -3.12391,1.66844 -0.23637,7.78249 2.5625,8.625 2.3576,0.40975 5.26127,-0.88622 7.8125,-1.15625 3.2822,-1.14349 8.43461,-0.79992 9.9193,-4.531 -1.37431,-4.15084 -5.70235,1.14341 -8.64012,0.68121 -2.82725,-0.25208 -4.80787,0.80083 -7.0999,-1.04154 -2.29202,-2.02232 -2.4664,-2.80594 -4.55428,-2.57742 z m 4.21875,9.90625 c -2.89195,1.58288 -1.74439,7.604184 0.98873,9.153344 1.92926,0.42487 2.22726,-0.68735 2.88333,-0.41506 4.81489,-1.11415 10.30196,-1.65468 13.97168,-5.300774 2.02058,-3.07414 -2.69328,-3.76944 -4.01924,-1.33981 -3.59938,1.81384 -7.49265,2.11379 -9.89249,1.60285 -2.39984,-0.51093 -0.89854,-3.69053 -3.93201,-3.70055 z m 9.65625,9.718754 c -2.51852,1.20746 -3.56154,6.61924 -0.59375,8.03125 1.81379,1.05194 5.92096,-2.71496 4.73716,0.41582 -0.38998,3.07593 2.52812,7.9532 5.73158,4.86543 1.24781,-0.41883 3.89555,-2.8952 2.28584,-0.41737 0.0105,3.01901 2.72004,6.95027 6.07656,5.23605 2.66428,-1.58747 6.41649,-5.67043 4.62198,-8.67805 -3.58994,-1.87932 -4.05967,7.80692 -6.87282,4.53618 0.066,-1.57596 -1.62317,-3.26692 -2.83031,-2.52056 2.08779,-1.43945 8.04893,-3.47779 4.92738,-6.45328 -3.13635,0.28237 -5.59785,3.38771 -8.63391,4.5536 -2.84263,2.59888 -0.63756,-3.35947 -3.35596,-3.25657 2.44492,-0.47204 7.80587,-4.43566 3.46015,-6.12551 -2.41728,1.54602 -4.50389,3.94981 -7.04428,3.17083 -2.36044,-0.77897 0.30981,-3.44214 -2.50962,-3.35782 z"
       id="path878"
       sodipodi:nodetypes="cccccccccczccccccccccccczcccccczcccccccccccccczc"
       style="fill:#ffffff;fill-opacity:0.03999999;fill-rule:evenodd;stroke-width:3.49057627;stroke-linecap:round;stroke-linejoin:round;stroke-opacity:0.19791667"
       inkscape:connector-curvature="0" />
    <path
       d="m 152.26742,51.672096 c -3.24413,2.27905 -8.05896,4.63452 -7.375,9.34375 3.34748,4.50703 8.71362,8.19405 14.46875,8.03125 3.03243,-0.78821 2.78264,-5.17046 -0.46788,-5.22015 -2.98601,-0.45852 -5.18161,-2.62044 -7.40712,-4.46735 0.84319,-2.37801 5.46683,-3.60805 3.65625,-6.6875 -0.83855,-0.55505 -1.83755,-1.14715 -2.875,-1 z m -7.1875,13.96875 c -3.08511,1.02772 -7.19161,4.0689 -5.56757,7.67557 1.59438,2.3784 4.51515,3.45973 7.13007,4.35568 -2.059,0.54036 -7.16422,0.75775 -5.9375,-2.5 -1.011,-3.16641 -4.44836,-1.40464 -5.41882,0.80164 -2.70913,2.27952 -1.76247,7.93224 2.41683,7.35523 5.53909,0.45749 12.29814,1.17631 16.50199,-3.18812 0.58137,-3.10966 -0.7696,-7.24107 -4.46042,-7.34229 -3.06233,-0.14204 -3.68257,-2.96949 -1.10874,-4.45056 1.61524,-1.66848 -2.14858,-4.10684 -3.55584,-2.70715 z m -12,18.90625 c -3.4091,3.3245 -0.26766,9.41747 3.9375,10.28125 -2.82318,3.15094 -1.46858,8.568014 2.125,10.468754 6.18523,-1.30598 13.58527,-1.74334 17.85732,-6.907784 1.3554,-3.32374 -4.10423,-4.6641 -5.66982,-1.99847 -3.17638,0.71026 -7.86911,3.1432 -10.28039,0.05371 -3.6093,-3.09102 1.59495,-2.02348 4.03039,-2.83496 3.29617,-1.17428 7.88014,-1.21713 9.65625,-4.6875 0.46173,-3.47369 -3.58759,-3.80296 -5.79012,-2.26504 -3.96801,2.00215 -9.53297,1.83857 -12.45988,-1.82871 -1.07654,-0.31181 -2.33122,-0.76509 -3.40625,-0.28125 z m 14.25,19.468754 c -3.75237,1.97609 -4.12611,9.43111 0.84375,9.90625 3.57904,-1.95409 2.5248,2.29416 4,4.15625 1.64478,2.27404 4.68067,2.31761 6.6875,0.5625 1.05198,2.17006 1.56289,5.46175 4.66119,5.44663 4.31429,0.39999 8.01834,-4.27331 8.34081,-8.22605 0.2685,-3.13663 -4.49269,-3.27601 -5.1895,-0.43933 -0.43106,4.22943 -5.28651,1.02382 -1.50584,-0.61915 2.6182,-0.87847 3.54381,-5.08175 0.34959,-5.75585 -3.50693,0.17668 -6.04301,3.81989 -9.28125,4.125 -1.17319,-3.16102 5.10559,-3.95815 3.28318,-7.43412 -1.92103,-3.30008 -5.33256,0.49264 -7.58803,1.43998 -2.25841,0.9211 -1.79782,-4.2073 -4.6014,-3.16211 z"
       id="path882"
       style="fill:#ffffff;fill-opacity:0.03999999;fill-rule:evenodd;stroke-width:3.49057627;stroke-linecap:round;stroke-linejoin:round;stroke-opacity:0.19791667"
       inkscape:connector-curvature="0" />
    <path
       d="m 150.2809,55.000146 c -2.61873,1.30693 -7.00123,5.15287 -3.3736,7.72702 3.28261,2.23516 6.64371,5.60351 10.96735,4.64798 -1.37791,-1.95767 -5.13731,-1.59011 -6.80336,-3.9183 -2.36405,-0.97838 -4.80859,-4.49403 -1.58414,-6.0567 0.90113,-0.52259 3.5801,-3.40197 0.79375,-2.4 z m -7.03125,13.53125 c -2.46618,0.82319 -5.25949,4.32033 -1.84375,5.90625 2.56275,1.56185 5.5938,2.21774 8.21875,3.46875 -1.23977,3.55893 -6.10513,2.42604 -9.09375,2.53125 -3.77903,0.99614 -2.7732,-5.52189 -4.57481,-3.41143 -2.57982,1.72859 -1.99397,5.63222 1.55934,5.1888 4.1923,0.10464 9.17363,0.6666 12.72448,-1.86278 2.07599,-2.22163 -0.97796,-5.41199 -3.52151,-5.35209 -3.20983,-0.20179 -4.9139,-4.76189 -1.875,-6.5 1.05271,-0.78807 -1.46847,0.12824 -1.59375,0.03125 z m -10.625,18.46875 c -1.52662,3.31149 2.1829,7.85312 5.80357,6.09342 4.29922,-1.13924 9.49938,-0.87832 12.79018,-4.18717 -2.30269,-1.19125 -4.80029,1.85653 -7.44702,1.56134 -3.51136,0.42169 -7.29899,-0.43163 -9.64673,-3.24884 -0.49911,-0.04339 -0.99281,-0.33191 -1.5,-0.21875 z m 3.5,10.96875 c -0.81594,2.735304 1.30571,7.252444 4.55001,5.388924 4.4515,-1.12251 9.56231,-1.48191 12.82499,-5.107674 -1.57164,-1.45648 -4.04321,1.74154 -6.1875,1.59375 -3.50109,1.018284 -8.63744,1.490504 -10.125,-2.78125 -0.6319,-0.25614 -0.69324,0.63433 -1.0625,0.90625 z m 10.03125,8.906254 c -2.42626,1.77366 -0.89769,7.23515 2.39179,5.25561 3.724,-1.45758 2.27458,3.9111 4.1401,5.51732 2.43441,2.21631 5.26317,-1.78376 7.76808,-2.47218 2.24888,-0.86773 5.15869,-4.83537 0.93305,-2.47202 -2.57455,0.99166 -5.56998,5.27844 -8.26427,2.45252 -1.0784,-2.4956 -2.17453,-4.6882 1.4375,-5.59375 3.39803,-3.201 -1.08978,-1.66903 -2.8125,-0.125 -2.75861,1.70545 -4.32914,-1.00036 -5.59375,-2.5625 z m 21.53125,9.125 c -1.25141,2.00368 -3.38305,6.7682 -6.21875,4.03125 -2.03093,-4.90572 -2.65711,2.50216 0.81482,2.56289 3.16405,0.421 5.48733,-3.17936 6.09143,-5.90664 -0.27385,0.0632 -0.35757,-1.11771 -0.6875,-0.6875 z"
       id="path886"
       style="fill:#ffffff;fill-opacity:0.03999999;fill-rule:evenodd;stroke-width:3.49057627;stroke-linecap:round;stroke-linejoin:round;stroke-opacity:0.19791667"
       inkscape:connector-curvature="0" />
    <path
       d="m 152.62191,52.699906 c -2.70306,1.1923 -5.1261,3.3707 -6.90924,5.74586 -1.62873,3.2557 2.6015,5.12842 4.58169,6.91967 2.73069,1.73599 8.60456,5.28627 10.46817,1.2876 -1.4435,-2.87811 -4.61085,-0.95808 -6.87858,-3.63654 -2.08795,-1.25769 -6.11322,-3.72084 -2.72284,-5.234 1.7628,-1.059 5.67717,-4.09934 1.4608,-5.08259 z m -12.84375,20 c 1.48856,2.62922 4.80943,3.49283 7.47112,4.554 1.33778,0.53257 4.65269,0.4479 1.61739,1.32126 -3.62341,1.13677 -8.47546,0.57775 -9.62525,-0.45493 -1.14978,-1.03268 2.10021,-4.56672 -1.51212,-3.59712 -1.92122,1.79955 -4.65232,4.90898 -2.91989,7.30179 2.90659,1.60714 6.81746,1.07702 10.14322,1.11439 2.77309,-0.15549 10.4532,-1.25336 7.91019,-5.27465 0.17015,-1.11944 -0.25286,-3.79508 -2.7023,-3.25723 -2.09242,-0.94563 -6.20469,-1.29937 -4.65394,-4.52063 1.20571,-1.92263 4.48586,-0.95467 1.05193,-3.57693 0,0 -7.66134,2.18749 -6.78035,6.39005 z m -6.1875,12.75 c -3.12391,1.66844 -0.23637,7.78249 2.5625,8.625 2.3576,0.40975 5.26127,-0.88622 7.8125,-1.15625 3.2822,-1.14349 8.43461,-0.79992 9.9193,-4.531 -1.37431,-4.15084 -5.70235,1.14341 -8.64012,0.68121 -2.82725,-0.25208 -4.80787,0.80083 -7.0999,-1.04154 -2.29202,-2.02232 -2.4664,-2.80594 -4.55428,-2.57742 z m 4.21875,9.90625 c -2.89195,1.58288 -1.74439,7.604184 0.98873,9.153344 1.92926,0.42487 2.22726,-0.68735 2.88333,-0.41506 4.81489,-1.11415 10.30196,-1.65468 13.97168,-5.300774 2.02058,-3.07414 -2.69328,-3.76944 -4.01924,-1.33981 -3.59938,1.81384 -7.49265,2.11379 -9.89249,1.60285 -2.39984,-0.51093 -0.89854,-3.69053 -3.93201,-3.70055 z m 9.65625,9.718754 c -2.51852,1.20746 -3.56154,6.61924 -0.59375,8.03125 1.81379,1.05194 5.92096,-2.71496 4.73716,0.41582 -0.38998,3.07593 2.52812,7.9532 5.73158,4.86543 1.24781,-0.41883 3.89555,-2.8952 2.28584,-0.41737 0.0105,3.01901 2.72004,6.95027 6.07656,5.23605 2.66428,-1.58747 6.41649,-5.67043 4.62198,-8.67805 -3.58994,-1.87932 -4.05967,7.80692 -6.87282,4.53618 0.066,-1.57596 -1.62317,-3.26692 -2.83031,-2.52056 2.08779,-1.43945 8.04893,-3.47779 4.92738,-6.45328 -3.13635,0.28237 -5.59785,3.38771 -8.63391,4.5536 -2.84263,2.59888 -0.63756,-3.35947 -3.35596,-3.25657 2.44492,-0.47204 7.80587,-4.43566 3.46015,-6.12551 -2.41728,1.54602 -4.50389,3.94981 -7.04428,3.17083 -2.36044,-0.77897 0.30981,-3.44214 -2.50962,-3.35782 z"
       id="path887"
       sodipodi:nodetypes="cccccccccczccccccccccccczcccccczcccccccccccccczc"
       style="fill:#ffffff;fill-opacity:0.03999999;fill-rule:evenodd;stroke-width:3.49057627;stroke-linecap:round;stroke-linejoin:round;stroke-opacity:0.19791667"
       inkscape:connector-curvature="0" />
  </g>
  <path
     d="m 27.434725,18.220026 c 0.670413,-0.782148 1.200929,-1.569749 2.770682,-0.893884 1.569745,0.75399 1.307215,2.54721 1.19548,2.994152 -0.111736,0.446942 -4.413104,0.469648 -3.966162,-2.100268 z"
     id="path903"
     sodipodi:nodetypes="czcc"
     style="fill:url(#linearGradient882);fill-opacity:1;fill-rule:evenodd;stroke-width:1pt"
     inkscape:connector-curvature="0" />
  <g
     id="g1030"
     style="fill:#ffffff;fill-opacity:0.0413223"
     transform="matrix(0.715107,0,0,0.715107,-146.04685,-53.784569)">
    <path
       d="m 271.16487,96.037131 c -2.4942,-0.440724 -8.2959,1.2588 -10.25,3.09375 -1.9541,1.834949 -2.82292,3.744789 -2.625,3.812499 0.19792,0.0677 0.98958,0.33854 1.1875,0.40625 0.19792,0.0677 2.45271,-0.74599 4.1875,-2.375 1.73479,-1.629007 5.04191,-3.696639 7.40625,-3.687499 2.36434,0.0091 2.58794,-0.809276 0.0937,-1.25 z m -1.25,11.812499 -1.1875,0.3125 c 0,0 0.30991,1.26362 1.1875,2.53125 0.28233,0.40781 0.74102,0.78036 1.15625,1.15625 -0.17214,0.1458 -1.02602,0.85855 -1.875,1.96875 -0.46588,0.60923 -0.88116,1.29225 -1.09375,2.03125 -0.21259,0.739 -0.17486,1.60919 0.375,2.28125 l 0.96875,-0.8125 c -0.25989,-0.31764 -0.29793,-0.6325 -0.15625,-1.125 0.14168,-0.4925 0.49489,-1.08707 0.90625,-1.625 0.82271,-1.07585 1.875,-1.9375 1.875,-1.9375 l -0.0625,-0.0625 c 0.71759,0.41349 7.79682,1.37661 5.35099,1.21996 l 2.66308,-0.46674 c -7.37266,-0.15666 -8.33465,-2.24405 -9.07657,-3.31572 -0.74192,-1.07167 -1.03125,-2.15625 -1.03125,-2.15625 z"
       id="path927"
       sodipodi:nodetypes="czzzzzzcccccccccccccccz"
       style="fill:#ffffff;fill-opacity:0.0413223;fill-rule:evenodd;stroke-width:1pt"
       inkscape:connector-curvature="0" />
    <path
       d="m 265.28125,96.15625 c -3.27739,1.107097 -6.38938,3.186402 -7.62939,6.56815 -0.68808,1.56188 3.27026,1.31892 4.25439,0.3381 3.20529,-2.24215 6.3126,-4.994378 10.41097,-5.360259 2.93863,-0.369424 3.12432,-0.910513 0.20904,-1.761436 -2.27982,-1.086212 -4.92185,-0.37711 -7.24501,0.215445 z m 4.4375,11 c -2.81042,0.0319 -0.99211,2.92751 -0.125,4.21875 0.51262,1.84332 -2.51995,2.67549 -2.12768,4.69615 -0.47051,1.75503 1.13961,3.99797 2.37768,1.74135 0.46888,-1.66585 1.3976,-4.84639 3.5354,-4.23866 2.95833,0.98397 6.13787,1.0502 8.9646,-0.38634 -3.80537,-1.04432 -9.03811,-0.24587 -11.17052,-4.29372 -0.2215,-0.64542 -0.78814,-1.71558 -1.45448,-1.73753 z"
       id="path1023"
       style="fill:#ffffff;fill-opacity:0.0413223;fill-rule:evenodd;stroke-width:1pt"
       inkscape:connector-curvature="0" />
    <path
       d="m 265.09375,95.125 c -3.27212,1.781227 -7.32498,3.543043 -8.375,7.46875 -0.0306,2.67352 2.98735,2.14414 4.75,1.78125 4.13936,-2.60965 8.25121,-5.57288 13.25,-6.15625 2.0268,-1.442092 -0.45308,-2.881866 -1.946,-3.193529 -2.39474,-1.271156 -5.18092,-0.206819 -7.679,0.09978 z m 4.1875,11.0625 c -2.3499,0.34628 -1.97696,2.86323 -1.12831,4.42204 0.67139,2.45673 -2.4914,4.02733 -1.62738,6.58317 -0.17198,2.11049 2.90061,3.45719 3.97444,1.36979 0.82182,-1.85299 1.7816,-4.49544 4.32153,-3.78914 3.30694,0.46821 6.70551,0.38572 9.67847,-1.30461 -3.38019,-3.15405 -9.424,-0.699 -12.02897,-5.05297 -0.78757,-1.05683 -1.74395,-2.32561 -3.18978,-2.22828 z"
       id="path1029"
       style="fill:#ffffff;fill-opacity:0.0413223;fill-rule:evenodd;stroke-width:1pt"
       inkscape:connector-curvature="0" />
  </g>
  <path
     d="m 49.713491,109.31719 c 0,0 -9.059805,-2.43068 -8.838835,1.10486 0.220971,3.53553 0.662913,10.82757 4.198447,11.49048 3.535534,0.66291 15.909902,4.86136 18.119611,-0.66291 2.209709,-5.52427 2.651651,-21.434179 -1.767767,-26.074559 -4.419417,-4.64039 -13.037281,-14.805052 -10.827572,-16.793789 2.209708,-1.988738 14.363106,-2.209709 14.363106,-2.209709 0,0 8.396892,19.224468 8.175922,24.969707 -0.22097,5.74524 1.76777,23.86485 -8.838834,28.72621 -10.606602,4.86136 -26.737475,-8.61786 -26.958446,-12.37436 -0.220971,-3.75651 -2.651651,-9.28078 3.977475,-11.04855 6.629126,-1.76777 8.396893,2.87262 8.396893,2.87262 z"
     id="path1231"
     sodipodi:nodetypes="cccccccccccc"
     style="fill:url(#linearGradient848);fill-opacity:1;fill-rule:evenodd;stroke:none"
     inkscape:connector-curvature="0" />
</svg>
