<?xml version="1.0" encoding="UTF-8" standalone="no"?>
<!-- Created with Inkscape (http://www.inkscape.org/) -->

<svg
   xmlns:dc="http://purl.org/dc/elements/1.1/"
   xmlns:cc="http://creativecommons.org/ns#"
   xmlns:rdf="http://www.w3.org/1999/02/22-rdf-syntax-ns#"
   xmlns:svg="http://www.w3.org/2000/svg"
   xmlns="http://www.w3.org/2000/svg"
   xmlns:xlink="http://www.w3.org/1999/xlink"
   xmlns:sodipodi="http://sodipodi.sourceforge.net/DTD/sodipodi-0.dtd"
   xmlns:inkscape="http://www.inkscape.org/namespaces/inkscape"
   height="390.84796"
   id="svg1"
   version="1.0"
   width="404.15631"
   x="0.0000000"
   y="0.0000000"
   inkscape:version="0.48.1 r9760"
   sodipodi:docname="Anonymous_Scorpion.svg">
  <sodipodi:namedview
     pagecolor="#ffffff"
     bordercolor="#666666"
     borderopacity="1"
     objecttolerance="10"
     gridtolerance="10"
     guidetolerance="10"
     inkscape:pageopacity="0"
     inkscape:pageshadow="2"
     inkscape:window-width="640"
     inkscape:window-height="480"
     id="namedview108"
     showgrid="false"
     fit-margin-top="0"
     fit-margin-left="0"
     fit-margin-right="0"
     fit-margin-bottom="0"
     inkscape:zoom="0.70171429"
     inkscape:cx="213.85046"
     inkscape:cy="206.13024"
     inkscape:window-x="0"
     inkscape:window-y="0"
     inkscape:window-maximized="0"
     inkscape:current-layer="svg1" />
  <metadata
     id="metadata3">
    <rdf:RDF>
      <cc:Work
         rdf:about="">
        <dc:title />
        <dc:description />
        <dc:subject>
          <rdf:Bag>
            <rdf:li />
            <rdf:li>animal</rdf:li>
          </rdf:Bag>
        </dc:subject>
        <dc:publisher>
          <cc:Agent
             rdf:about="http://www.openclipart.org">
            <dc:title />
          </cc:Agent>
        </dc:publisher>
        <dc:creator>
          <cc:Agent>
            <dc:title />
          </cc:Agent>
        </dc:creator>
        <dc:rights>
          <cc:Agent>
            <dc:title />
          </cc:Agent>
        </dc:rights>
        <dc:date />
        <dc:format>image/svg+xml</dc:format>
        <dc:type
           rdf:resource="http://purl.org/dc/dcmitype/StillImage" />
        <cc:license
           rdf:resource="" />
        <dc:language>en</dc:language>
      </cc:Work>
    </rdf:RDF>
  </metadata>
  <title
     id="title5">Scorpion</title>
  <desc
     id="desc7">A scorpion exploring the inside of an overturned glass.</desc>
  <defs
     id="defs3">
    <linearGradient
       id="linearGradient1595">
      <stop
         id="stop1596"
         offset="0.0000000"
         style="stop-color:#97442f;stop-opacity:1.0000000;" />
      <stop
         id="stop1597"
         offset="1.0000000"
         style="stop-color:#000000;stop-opacity:1.0000000;" />
    </linearGradient>
    <linearGradient
       id="linearGradient1586">
      <stop
         id="stop1587"
         offset="0.0000000"
         style="stop-color:#b27161;stop-opacity:1.0000000;" />
      <stop
         id="stop1588"
         offset="1.0000000"
         style="stop-color:#000000;stop-opacity:1.0000000;" />
    </linearGradient>
    <linearGradient
       id="linearGradient1501"
       x1="252.30091"
       x2="225.22535"
       xlink:href="#linearGradient1595"
       y1="702.6822"
       y2="500.13369"
       gradientTransform="scale(1.3640884,0.73309034)"
       gradientUnits="userSpaceOnUse" />
    <radialGradient
       cx="144.78571"
       cy="212.18392"
       fx="144.78571"
       fy="212.18392"
       id="radialGradient1502"
       r="27.220107"
       xlink:href="#linearGradient1586"
       gradientTransform="scale(0.72457989,1.3801101)"
       gradientUnits="userSpaceOnUse" />
    <linearGradient
       id="linearGradient1584"
       xlink:href="#linearGradient1586"
       gradientTransform="scale(0.86460805,1.1565934)"
       x1="33.728259"
       y1="240.69684"
       x2="96.957071"
       y2="240.69684"
       gradientUnits="userSpaceOnUse" />
    <radialGradient
       cx="801.25039"
       cy="366.65747"
       fx="801.25039"
       fy="366.65747"
       id="radialGradient1585"
       r="32.374318"
       xlink:href="#linearGradient1586"
       gradientTransform="scale(0.79426111,1.2590318)"
       gradientUnits="userSpaceOnUse" />
    <radialGradient
       cx="272.0913"
       cy="385.5761"
       fx="272.0913"
       fy="385.5761"
       id="radialGradient1591"
       r="33.942247"
       xlink:href="#linearGradient1586"
       gradientTransform="scale(1.1108644,0.90019989)"
       gradientUnits="userSpaceOnUse" />
    <linearGradient
       id="linearGradient1593"
       x1="345.71"
       x2="306.71221"
       xlink:href="#linearGradient1586"
       y1="322.66779"
       y2="321.37778"
       gradientTransform="scale(0.87346435,1.1448664)"
       gradientUnits="userSpaceOnUse" />
    <radialGradient
       cx="347.74689"
       cy="465.7785"
       fx="347.74689"
       fy="465.7785"
       id="radialGradient1594"
       r="36.865714"
       xlink:href="#linearGradient1595"
       gradientTransform="scale(0.9833761,1.0169049)"
       gradientUnits="userSpaceOnUse" />
    <radialGradient
       cx="310.74627"
       cy="440.4126"
       fx="310.74627"
       fy="440.4126"
       id="radialGradient1598"
       r="32.261637"
       xlink:href="#linearGradient1595"
       gradientTransform="scale(0.95293309,1.0493916)"
       gradientUnits="userSpaceOnUse" />
    <radialGradient
       cx="356.32459"
       cy="476.57924"
       fx="356.32459"
       fy="476.57924"
       id="radialGradient1599"
       r="39.49501"
       xlink:href="#linearGradient1595"
       gradientTransform="scale(1.1256303,0.88839119)"
       gradientUnits="userSpaceOnUse" />
    <radialGradient
       cx="305.14682"
       cy="433.04583"
       fx="305.14682"
       fy="433.04583"
       id="radialGradient1600"
       r="29.098925"
       xlink:href="#linearGradient1595"
       gradientTransform="scale(1.066205,0.93790593)"
       gradientUnits="userSpaceOnUse" />
    <radialGradient
       cx="286.64066"
       cy="546.91507"
       fx="286.64066"
       fy="546.91507"
       id="radialGradient1601"
       r="69.712252"
       xlink:href="#linearGradient1595"
       gradientTransform="scale(1.3640884,0.73309034)"
       gradientUnits="userSpaceOnUse" />
    <radialGradient
       cx="117.92837"
       cy="312.83056"
       fx="117.92837"
       fy="312.83056"
       id="radialGradient2024"
       r="20.933744"
       xlink:href="#linearGradient1586"
       gradientTransform="scale(1.3695006,0.73019317)"
       gradientUnits="userSpaceOnUse" />
    <radialGradient
       cx="124.91289"
       cy="240.58558"
       fx="124.91289"
       fy="240.58558"
       id="radialGradient2025"
       r="22.478358"
       xlink:href="#linearGradient1586"
       gradientTransform="scale(0.998187,1.0018163)"
       gradientUnits="userSpaceOnUse" />
    <radialGradient
       inkscape:collect="always"
       xlink:href="#linearGradient1586"
       id="radialGradient3184"
       cx="504.4227"
       cy="59.695379"
       fx="504.4227"
       fy="59.695379"
       r="13.40467"
       gradientTransform="scale(0.68884306,1.4517095)"
       gradientUnits="userSpaceOnUse" />
    <radialGradient
       inkscape:collect="always"
       xlink:href="#linearGradient1586"
       id="radialGradient3186"
       cx="357.35106"
       cy="501.42037"
       fx="357.35106"
       fy="501.42037"
       r="15.797568"
       gradientTransform="scale(1.9883023,0.50294162)"
       gradientUnits="userSpaceOnUse" />
    <radialGradient
       inkscape:collect="always"
       xlink:href="#linearGradient1586"
       id="radialGradient3188"
       cx="682.83456"
       cy="190.86898"
       fx="682.83456"
       fy="190.86898"
       r="31.426563"
       gradientTransform="scale(0.95525691,1.0468388)"
       gradientUnits="userSpaceOnUse" />
    <radialGradient
       inkscape:collect="always"
       xlink:href="#linearGradient1586"
       id="radialGradient3190"
       cx="567.07041"
       cy="203.51541"
       fx="567.07041"
       fy="203.51541"
       r="29.864297"
       gradientTransform="scale(1.0361226,0.96513673)"
       gradientUnits="userSpaceOnUse" />
    <radialGradient
       inkscape:collect="always"
       xlink:href="#linearGradient1586"
       id="radialGradient3192"
       cx="1324.6562"
       cy="133.0774"
       fx="1324.6562"
       fy="133.0774"
       r="15.797568"
       gradientTransform="scale(0.50294162,1.9883023)"
       gradientUnits="userSpaceOnUse" />
    <radialGradient
       inkscape:collect="always"
       xlink:href="#linearGradient1586"
       id="radialGradient3194"
       cx="682.83456"
       cy="190.86898"
       fx="682.83456"
       fy="190.86898"
       r="31.426563"
       gradientTransform="scale(0.95525691,1.0468388)"
       gradientUnits="userSpaceOnUse" />
    <radialGradient
       inkscape:collect="always"
       xlink:href="#linearGradient1586"
       id="radialGradient3196"
       cx="567.07041"
       cy="203.51541"
       fx="567.07041"
       fy="203.51541"
       r="29.864297"
       gradientTransform="scale(1.0361226,0.96513673)"
       gradientUnits="userSpaceOnUse" />
    <radialGradient
       inkscape:collect="always"
       xlink:href="#linearGradient1586"
       id="radialGradient3198"
       cx="888.11334"
       cy="205.09503"
       fx="888.11334"
       fy="205.09503"
       r="22.305509"
       gradientTransform="scale(0.76884645,1.3006498)"
       gradientUnits="userSpaceOnUse" />
    <radialGradient
       inkscape:collect="always"
       xlink:href="#linearGradient1586"
       id="radialGradient3200"
       cx="682.83456"
       cy="190.86898"
       fx="682.83456"
       fy="190.86898"
       r="31.426563"
       gradientTransform="scale(0.95525691,1.0468388)"
       gradientUnits="userSpaceOnUse" />
    <radialGradient
       inkscape:collect="always"
       xlink:href="#linearGradient1586"
       id="radialGradient3202"
       cx="567.07041"
       cy="203.51541"
       fx="567.07041"
       fy="203.51541"
       r="29.864297"
       gradientTransform="scale(1.0361226,0.96513673)"
       gradientUnits="userSpaceOnUse" />
    <radialGradient
       inkscape:collect="always"
       xlink:href="#linearGradient1586"
       id="radialGradient3204"
       cx="1319.7714"
       cy="128.69588"
       fx="1319.7714"
       fy="128.69588"
       r="16.039174"
       gradientTransform="scale(0.51126034,1.9559507)"
       gradientUnits="userSpaceOnUse" />
    <radialGradient
       inkscape:collect="always"
       xlink:href="#linearGradient1586"
       id="radialGradient3206"
       cx="532.04812"
       cy="239.04285"
       fx="532.04812"
       fy="239.04285"
       r="29.88979"
       gradientTransform="scale(1.2415611,0.80543758)"
       gradientUnits="userSpaceOnUse" />
    <radialGradient
       inkscape:collect="always"
       xlink:href="#linearGradient1586"
       id="radialGradient3208"
       cx="567.07041"
       cy="203.51541"
       fx="567.07041"
       fy="203.51541"
       r="29.864297"
       gradientTransform="scale(1.0361226,0.96513673)"
       gradientUnits="userSpaceOnUse" />
    <radialGradient
       inkscape:collect="always"
       xlink:href="#linearGradient1586"
       id="radialGradient3210"
       cx="1361.8938"
       cy="132.5487"
       fx="1361.8938"
       fy="132.5487"
       r="15.476329"
       gradientTransform="scale(0.4881028,2.0487488)"
       gradientUnits="userSpaceOnUse" />
    <radialGradient
       inkscape:collect="always"
       xlink:href="#linearGradient1586"
       id="radialGradient3212"
       cx="682.83456"
       cy="190.86898"
       fx="682.83456"
       fy="190.86898"
       r="31.426563"
       gradientTransform="scale(0.95525691,1.0468388)"
       gradientUnits="userSpaceOnUse" />
    <radialGradient
       inkscape:collect="always"
       xlink:href="#linearGradient1586"
       id="radialGradient3214"
       cx="567.07041"
       cy="203.51541"
       fx="567.07041"
       fy="203.51541"
       r="29.864297"
       gradientTransform="scale(1.0361226,0.96513673)"
       gradientUnits="userSpaceOnUse" />
    <radialGradient
       inkscape:collect="always"
       xlink:href="#linearGradient1586"
       id="radialGradient3216"
       cx="434.24634"
       cy="282.30746"
       fx="434.24634"
       fy="282.30746"
       r="16.983463"
       gradientTransform="scale(1.2261209,0.81558028)"
       gradientUnits="userSpaceOnUse" />
    <radialGradient
       inkscape:collect="always"
       xlink:href="#linearGradient1586"
       id="radialGradient3218"
       cx="627.53167"
       cy="358.80363"
       fx="627.53167"
       fy="358.80363"
       r="34.62573"
       gradientTransform="scale(1.0624191,0.94124816)"
       gradientUnits="userSpaceOnUse" />
    <radialGradient
       inkscape:collect="always"
       xlink:href="#linearGradient1586"
       id="radialGradient3220"
       cx="832.83902"
       cy="357.16783"
       fx="832.83902"
       fy="357.16783"
       r="23.076875"
       gradientTransform="scale(0.84031857,1.1900249)"
       gradientUnits="userSpaceOnUse" />
    <radialGradient
       inkscape:collect="always"
       xlink:href="#linearGradient1586"
       id="radialGradient3222"
       cx="716.164"
       cy="390.72099"
       fx="716.164"
       fy="390.72099"
       r="34.167902"
       gradientTransform="scale(0.96704242,1.0340808)"
       gradientUnits="userSpaceOnUse" />
    <radialGradient
       inkscape:collect="always"
       xlink:href="#linearGradient1586"
       id="radialGradient3224"
       cx="1056.411"
       cy="230.07644"
       fx="1056.411"
       fy="230.07644"
       r="29.23258"
       gradientTransform="scale(0.67115741,1.4899634)"
       gradientUnits="userSpaceOnUse" />
    <radialGradient
       inkscape:collect="always"
       xlink:href="#linearGradient1586"
       id="radialGradient3226"
       cx="473.66882"
       cy="478.10951"
       fx="473.66882"
       fy="478.10951"
       r="22.89436"
       gradientTransform="scale(1.2594,0.79402889)"
       gradientUnits="userSpaceOnUse" />
    <radialGradient
       inkscape:collect="always"
       xlink:href="#linearGradient1586"
       id="radialGradient3228"
       cx="825.7787"
       cy="400.29131"
       fx="825.7787"
       fy="400.29131"
       r="23.076875"
       gradientTransform="scale(0.84031857,1.1900249)"
       gradientUnits="userSpaceOnUse" />
    <radialGradient
       inkscape:collect="always"
       xlink:href="#linearGradient1586"
       id="radialGradient3230"
       cx="440.12587"
       cy="538.36247"
       fx="440.12587"
       fy="538.36247"
       r="22.89436"
       gradientTransform="scale(1.2594,0.79402889)"
       gradientUnits="userSpaceOnUse" />
    <radialGradient
       inkscape:collect="always"
       xlink:href="#linearGradient1586"
       id="radialGradient3232"
       cx="585.53867"
       cy="425.221"
       fx="585.53867"
       fy="425.221"
       r="34.62573"
       gradientTransform="scale(1.0624191,0.94124816)"
       gradientUnits="userSpaceOnUse" />
    <radialGradient
       inkscape:collect="always"
       xlink:href="#linearGradient1586"
       id="radialGradient3234"
       cx="757.26128"
       cy="455.62595"
       fx="757.26128"
       fy="455.62595"
       r="23.076875"
       gradientTransform="scale(0.84031857,1.1900249)"
       gradientUnits="userSpaceOnUse" />
    <radialGradient
       inkscape:collect="always"
       xlink:href="#linearGradient1586"
       id="radialGradient3236"
       cx="402.9765"
       cy="613.60158"
       fx="402.9765"
       fy="613.60158"
       r="22.89436"
       gradientTransform="scale(1.2594,0.79402889)"
       gradientUnits="userSpaceOnUse" />
    <radialGradient
       inkscape:collect="always"
       xlink:href="#linearGradient1586"
       id="radialGradient3238"
       cx="484.77107"
       cy="45.633399"
       fx="484.77107"
       fy="45.633399"
       r="11.012783"
       gradientTransform="scale(0.71830995,1.3921567)"
       gradientUnits="userSpaceOnUse" />
    <radialGradient
       inkscape:collect="always"
       xlink:href="#linearGradient1586"
       id="radialGradient3240"
       cx="420.57848"
       cy="91.910356"
       fx="420.57848"
       fy="91.910356"
       r="17.413437"
       gradientTransform="scale(0.81050137,1.2338042)"
       gradientUnits="userSpaceOnUse" />
    <radialGradient
       inkscape:collect="always"
       xlink:href="#linearGradient1595"
       id="radialGradient3242"
       cx="409.14673"
       cy="360.96496"
       fx="409.14673"
       fy="360.96496"
       r="46.737099"
       gradientTransform="scale(1.2853359,0.77800673)"
       gradientUnits="userSpaceOnUse" />
    <linearGradient
       inkscape:collect="always"
       xlink:href="#linearGradient1595"
       id="linearGradient3244"
       x1="386.12438"
       y1="465.39572"
       x2="367.97214"
       y2="329.60137"
       gradientTransform="scale(1.2853359,0.77800673)"
       gradientUnits="userSpaceOnUse" />
    <radialGradient
       inkscape:collect="always"
       xlink:href="#linearGradient1595"
       id="radialGradient3246"
       cx="394.11399"
       cy="387.09833"
       fx="394.11399"
       fy="387.09833"
       r="52.454453"
       gradientTransform="scale(1.2846328,0.77843255)"
       gradientUnits="userSpaceOnUse" />
    <linearGradient
       inkscape:collect="always"
       xlink:href="#linearGradient1595"
       id="linearGradient3248"
       x1="368.27531"
       y1="504.30412"
       x2="347.9025"
       y2="351.89803"
       gradientTransform="scale(1.2846328,0.77843255)"
       gradientUnits="userSpaceOnUse" />
    <radialGradient
       inkscape:collect="always"
       xlink:href="#linearGradient1595"
       id="radialGradient3250"
       cx="394.50342"
       cy="398.29185"
       fx="394.50342"
       fy="398.29185"
       r="57.849344"
       gradientTransform="scale(1.2397693,0.80660166)"
       gradientUnits="userSpaceOnUse" />
    <linearGradient
       inkscape:collect="always"
       xlink:href="#linearGradient1595"
       id="linearGradient3252"
       x1="366.00726"
       y1="527.55214"
       x2="343.53913"
       y2="359.47123"
       gradientTransform="scale(1.2397693,0.80660166)"
       gradientUnits="userSpaceOnUse" />
    <radialGradient
       inkscape:collect="always"
       xlink:href="#linearGradient1595"
       id="radialGradient3254"
       cx="347.29481"
       cy="456.09492"
       fx="347.29481"
       fy="456.09492"
       r="65.134346"
       gradientTransform="scale(1.3125402,0.76188145)"
       gradientUnits="userSpaceOnUse" />
    <linearGradient
       inkscape:collect="always"
       xlink:href="#linearGradient1595"
       id="linearGradient3256"
       x1="315.21011"
       y1="601.63304"
       x2="289.91256"
       y2="412.3856"
       gradientTransform="scale(1.3125402,0.76188145)"
       gradientUnits="userSpaceOnUse" />
    <radialGradient
       inkscape:collect="always"
       xlink:href="#linearGradient1595"
       id="radialGradient3258"
       cx="312.4387"
       cy="500.80875"
       fx="312.4387"
       fy="500.80875"
       r="67.271529"
       gradientTransform="scale(1.3575579,0.73661685)"
       gradientUnits="userSpaceOnUse" />
    <linearGradient
       inkscape:collect="always"
       xlink:href="#linearGradient1595"
       id="linearGradient3260"
       x1="279.30124"
       y1="651.12225"
       x2="253.17363"
       y2="455.66525"
       gradientTransform="scale(1.3575579,0.73661685)"
       gradientUnits="userSpaceOnUse" />
    <radialGradient
       inkscape:collect="always"
       xlink:href="#linearGradient1586"
       id="radialGradient3262"
       cx="422.32005"
       cy="658.99758"
       fx="422.32005"
       fy="658.99758"
       r="75.506135"
       gradientTransform="scale(1.2825203,0.77971476)"
       gradientUnits="userSpaceOnUse" />
    <radialGradient
       inkscape:collect="always"
       xlink:href="#linearGradient1586"
       id="radialGradient3264"
       cx="659.96632"
       cy="529.49655"
       fx="659.96632"
       fy="529.49655"
       r="43.889406"
       gradientTransform="scale(0.87047876,1.1487931)"
       gradientUnits="userSpaceOnUse" />
    <radialGradient
       inkscape:collect="always"
       xlink:href="#linearGradient1586"
       id="radialGradient3266"
       cx="413.69318"
       cy="36.02974"
       fx="413.69318"
       fy="36.02974"
       r="9.569103"
       gradientTransform="scale(0.82668059,1.2096571)"
       gradientUnits="userSpaceOnUse" />
    <radialGradient
       inkscape:collect="always"
       xlink:href="#linearGradient1586"
       id="radialGradient3268"
       cx="230.68333"
       cy="45.090229"
       fx="230.68333"
       fy="45.090229"
       r="10.135938"
       gradientTransform="scale(1.4223921,0.70304102)"
       gradientUnits="userSpaceOnUse" />
    <radialGradient
       inkscape:collect="always"
       xlink:href="#linearGradient1586"
       id="radialGradient3270"
       cx="264.66837"
       cy="53.042036"
       fx="264.66837"
       fy="53.042036"
       r="23.859802"
       gradientTransform="scale(1.1269112,0.88738139)"
       gradientUnits="userSpaceOnUse" />
    <radialGradient
       inkscape:collect="always"
       xlink:href="#linearGradient1586"
       id="radialGradient3272"
       cx="542.45963"
       cy="489.77354"
       fx="542.45963"
       fy="489.77354"
       r="34.62573"
       gradientTransform="scale(1.0624191,0.94124816)"
       gradientUnits="userSpaceOnUse" />
  </defs>
  <g
     id="g2244"
     transform="translate(-8.25,-26.214537)">
    <path
       d="m 308.27792,29.589539 c -2.85271,0.06454 -5.09219,0.224155 -5.98318,0.06232 -3.48563,-0.633097 -5.43261,2.011659 -6.60438,6.076482 -7.04105,-3.496535 -16.31615,-0.851902 -24.75007,5.889513 -11.7161,9.364968 3.19518,31.346862 -6.24473,27.546717 -9.43992,-3.800154 -6.59592,-4.935092 -23.37688,-24.118958 10.03358,19.049834 14.82271,27.587961 22.36334,34.589203 25.98735,13.967063 51.32664,-21.214654 39.03776,-36.957473 -0.0944,-0.171057 -0.22983,-0.270695 -0.32696,-0.43626 5.81376,2.985376 13.8678,4.341275 20.00931,3.365436 -1.03095,6.394844 1.62869,14.336588 6.70246,17.606216 -1.12854,5.73194 -0.26863,12.720032 1.9617,18.229445 -3.69452,5.817328 -5.7674,14.110302 -5.65623,21.75069 -6.77623,4.60923 -12.15216,13.56124 -14.54925,22.59205 -7.02437,0 -14.27493,3.68886 -20.0093,8.41359 -7.56288,-9.23036 -17.59569,-19.45972 -19.51888,-18.41641 -0.88241,0.47869 -1.55406,1.2811 -2.09248,2.18129 -0.3679,-0.74756 -0.87598,-1.43973 -1.56935,-2.05665 -1.69322,-0.74426 -7.4437,5.02668 -13.27415,11.74786 -3.41895,-3.51602 -6.23,-5.93191 -7.12749,-5.39093 -0.89921,0.54202 -1.57589,1.44308 -2.12517,2.46175 -0.37527,-0.84238 -0.89822,-1.61011 -1.60205,-2.30593 -2.31834,-1.13227 -11.63655,10.03694 -19.15924,20.81584 -2.52777,-2.05594 -4.58946,-3.41035 -5.36198,-2.9915 -1.07711,0.58402 -1.89302,1.5193 -2.5502,2.61756 -0.44832,-0.90213 -1.05789,-1.74733 -1.8963,-2.49291 -2.08614,-0.91648 -9.12809,5.8713 -16.31477,14.17845 -1.61833,-1.13765 -2.9559,-1.8076 -3.53106,-1.49574 -0.14651,0.0794 -0.22135,0.25084 -0.35965,0.34277 -0.0398,-0.0743 -0.0559,-0.14388 -0.0981,-0.21814 -3.99074,-3.78368 -46.26174,22.35536 -45.02093,27.26627 0.58294,2.30718 1.87061,3.54905 3.33489,4.26912 -0.75359,0.20144 -1.4921,0.50288 -2.19057,0.99717 -2.99615,2.1203 4.39085,32.91401 9.51423,41.50704 -3.33484,-15.15809 -0.0101,-39.71405 -1.3078,-41.25775 -0.16649,-0.19804 -0.4741,-0.32858 -0.71929,-0.49859 2.06819,-0.28194 16.68209,-5.97786 27.16949,-13.77336 -3.44725,5.15889 -5.68538,9.33969 -4.93693,10.53258 0.128,0.204 0.28966,0.25741 0.42503,0.43625 -4.40639,5.17382 -12.94592,29.3911 -13.43761,38.48439 5.55962,-14.35399 21.58614,-31.9108 21.38248,-33.99714 -0.0681,-0.69743 -0.5153,-1.50784 -1.07893,-2.30595 0.7496,-0.18566 1.44866,-0.42454 2.02709,-0.65438 0.83348,-0.33119 5.73976,-4.46708 11.18167,-10.06515 5.48894,4.84285 11.80275,10.05458 17.49179,13.77336 0.28515,1.02376 0.55865,1.76329 0.85007,2.71104 -11.90906,9.01708 -19.38609,20.23402 -15.66088,25.70819 -0.43947,0.72682 -0.85932,1.52802 -1.2751,2.33712 -3.18806,-1.63083 -7.09855,-0.69016 -10.20082,5.67137 -6.98017,14.3135 -11.26104,12.99524 -5.62353,16.07931 -3.18597,-0.28402 -4.40219,-5.43804 -11.50861,-3.49008 -7.10641,1.94798 -20.29924,-21.76557 -41.32642,-18.57222 4.45693,-0.226 6.181,2.349 6.11396,5.48441 -0.21216,-1.05197 -0.59297,-1.96331 -1.3078,-2.61756 -12.11928,-12.45926 -53.361932,30.81052 -57.935425,36.45889 -1.308489,1.61601 -1.328577,3.34753 -0.588509,5.14165 -9.16945,0.70675 -19.170325,6.43403 -27.104105,19.10196 -5.208352,7.33426 -6.524477,14.849 -4.446512,21.2521 -16.546841,15.04641 -35.287926,30.34247 -36.651028,50.79316 5.146864,-11.34669 14.816604,-30.61768 40.149386,-34.71385 1.958139,-0.31662 3.52757,-2.48059 4.936936,-5.48442 2.686698,1.81948 5.787423,3.39369 9.579617,4.42493 12.120103,1.13346 20.693323,-2.07702 19.12654,-1.18413 1.164798,12.10727 0.480956,28.03326 -11.214365,51.79032 27.175525,-31.86641 7.002169,-20.74986 26.352125,-60.92063 6.25188,-12.97904 5.91041,-24.21832 1.86361,-32.28325 9.4252,-5.07981 23.84821,-21.51005 31.74678,-35.33708 9.1067,9.56732 20.65055,10.71891 28.01956,8.35126 3.73826,3.19133 8.43547,-0.6552 27.92148,9.3796 5.14402,-8.02344 5.75687,-8.53123 6.73516,-15.08215 0.10414,-0.69729 0.30242,-1.17546 0.52311,-1.62039 0.71757,2.55832 1.74231,5.06067 3.13872,7.6034 1.5284,2.78303 3.66893,1.97196 6.04856,0.21813 -0.20584,0.32114 -0.74582,0.95708 -0.81737,1.15297 3.1085,4.08491 11.79925,8.06142 20.14008,8.5694 1.64352,2.26281 3.41345,3.80293 5.36198,3.5524 4.45259,-0.57249 11.92991,-2.98967 17.49179,-6.41925 0.88597,1.58604 2.30993,3.31623 3.79262,7.1048 16.501,-0.16902 31.46379,7.86765 41.35909,16.7337 6.86869,6.15424 12.51696,11.20957 19.19193,14.1473 -6.84504,11.11803 -11.3538,25.05126 -12.19521,27.95181 -0.76564,2.63934 2.37493,5.2599 6.66977,7.60339 -14.6609,-2.27106 -26.521,9.97947 -30.70055,27.60904 -14.91733,12.68027 -30.64594,25.47315 -38.25308,44.31158 -3.79723,-0.0275 -7.58852,0.0317 -11.34514,-0.18697 4.93726,1.32595 7.23246,1.83939 10.49507,2.64872 -1.32246,3.7097 -2.41674,7.60187 -3.04063,11.81019 1.32391,-2.79485 3.58012,-6.78266 6.17934,-11.03115 16.71401,3.93156 14.72604,1.15039 51.33106,2.27479 38.52126,1.18323 42.75179,-55.64902 26.58098,-72.51269 1.31876,0.48803 2.7736,1.04573 3.85801,1.43343 7.79748,2.78773 23.27565,-49.34151 14.48386,-54.3144 -0.76771,-0.46589 -1.53586,-0.67274 -2.28865,-0.966 1.27065,0.0772 2.44792,0.0699 3.85801,0.28045 1.35484,-16.57794 -60.10642,-25.68202 -66.40343,-28.63737 -4.51791,-2.12037 -5.56998,-1.63491 -8.46798,-0.0623 -0.84626,1.05205 -2.13469,1.71498 -4.11957,2.0255 2.54159,-1.1133 2.97837,-1.40622 4.11957,-2.0255 0.85272,-1.06007 1.05447,-2.79609 0.98084,-4.9235 5.15039,-1.77161 9.90203,-3.60292 13.96074,-5.45326 0.24396,0.7284 0.76274,1.51469 1.79822,2.4306 4.18627,3.70284 21.9489,13.79125 25.95978,6.5439 9.18972,-3.1453 30.34636,-21.15738 32.69495,-24.46174 3.6023,12.6528 15.08186,28.66537 16.34746,29.57222 0.24984,0.17902 0.58261,0.37094 0.88277,0.5609 -0.0174,0.008 -0.0485,-0.008 -0.0654,0 -1.43901,0.68822 -6.36015,20.28196 -13.43761,30.44474 6.43581,-4.59114 21.28822,-24.99656 19.68235,-27.67137 -0.37705,-0.62803 -0.86484,-1.13259 -1.37319,-1.55807 0.8975,-0.17188 1.77606,-0.54562 2.64829,-1.43343 3.01524,-3.06905 -17.56988,-44.72914 -22.16717,-43.93764 -1.97728,1.07254 -2.98425,2.81395 -3.43296,4.95468 -0.40115,-0.59035 -0.99249,-0.96693 -1.53667,-1.40227 9.15904,-6.27614 18.86307,-14.73042 21.74213,-17.94899 3.31895,7.84015 11.82826,16.82818 17.81875,22.28043 -1.60383,3.66973 -3.36448,7.21267 -5.32928,10.03399 2.01513,-1.43754 4.84876,-4.56139 7.7487,-8.07081 1.20074,0.99318 2.58536,2.22312 3.04063,2.49291 -1.46312,0.85011 -6.35857,20.29545 -13.40492,30.41357 6.43581,-4.59113 21.28822,-25.02771 19.68235,-27.70253 -0.37265,-0.62069 -0.87179,-1.10411 -1.37319,-1.52691 1.42265,-0.15636 2.82651,-0.79305 3.8907,-2.5864 0.66509,-1.12076 -1.76888,-5.21094 -5.1658,-10.03398 3.3651,-4.98458 5.94819,-9.5174 5.26389,-10.65722 -0.0981,-0.16345 -0.25046,-0.25563 -0.35965,-0.4051 1.21919,0.32669 2.54807,0.30062 3.98878,-0.68554 3.49073,-2.38941 -9.53858,-47.53355 -14.1896,-47.70818 -1.48756,0.4503 -2.51648,1.36855 -3.33488,2.52408 -0.31845,-0.26596 -0.5434,-0.64938 -0.91546,-0.84136 -3.42657,-1.768 -29.50034,25.452 -32.82572,33.81016 -1.87715,0.22042 -3.93453,0.87004 -5.787,1.43344 1.17046,-2.68926 1.44611,-6.0256 0.88275,-9.72238 3.52822,-2.00189 5.21369,-5.6386 5.10042,-10.12746 4.53303,1.91276 9.11103,2.64659 10.10274,-1.40227 0.43638,-1.48469 0.60549,-2.59072 0.6212,-3.49008 8.22959,-4.03879 23.17278,-17.43785 25.56744,-20.59772 4.26219,11.13981 20.33364,25.19753 21.77483,25.77052 0.31277,0.12434 0.73171,0.22425 1.11163,0.34277 -0.21709,0.18126 -0.48751,0.36012 -0.62121,0.56091 -0.92511,1.38949 3.87824,21.03155 2.45213,33.71669 3.44003,-7.52054 6.83675,-33.35459 4.21764,-34.77618 -0.25425,-0.138 -0.52351,-0.15643 -0.78467,-0.24929 0.42757,-0.34832 0.87789,-0.63402 1.2424,-1.2153 2.15884,-3.44263 -24.20188,-36.07306 -28.21573,-34.30875 -0.67698,0.60235 -1.20306,1.29834 -1.56936,2.0255 -0.53563,-0.88553 -1.18846,-1.64629 -2.05978,-2.11898 -2.69583,-1.46247 -21.9876,19.39717 -26.77715,28.16995 -1.37164,0.27216 -2.85069,0.81333 -4.08687,1.18412 2.86875,-5.96046 -1.2892,-16.68522 -10.16812,-25.42773 4.09642,-8.17559 5.28711,-17.76624 6.24473,-22.65438 8.45366,-8.23196 4.25218,-29.071102 4.80616,-32.688349 0.0232,-0.151322 -0.0461,-0.258083 -0.0327,-0.405099 2.72947,-8.638257 -4.42228,-21.438501 -4.83885,-24.118958 -0.15142,-0.974441 -0.53546,-1.703605 -1.07893,-2.305947 0.48028,-6.261967 -5.02893,-13.928571 -5.39466,-15.705368 -0.43351,-2.106129 -2.64364,-2.965279 -5.78701,-3.084983 -2.1827,-8.135889 -13.95177,-8.58467 -21.51326,-8.41359 z m -39.4301,96.444671 c 1.60107,2.11467 8.42593,8.3855 15.75896,14.02265 -4.88265,3.02113 -9.08463,6.67543 -12.12982,10.40792 -2.57564,-4.11088 -6.28444,-9.04353 -10.13543,-13.77336 2.80688,-3.52334 5.18769,-7.21086 6.50629,-10.65721 z m -24.12887,7.88385 c 0.40958,0.60148 1.304,1.61117 2.38673,2.80453 -4.68879,6.31152 -8.47793,12.14243 -7.65061,13.46174 0.12675,0.20213 0.28956,0.26411 0.42503,0.43626 -1.74775,0.19774 -4.10908,0.76896 -6.40821,1.30878 4.58333,-5.47331 9.20102,-12.07798 11.24706,-18.01131 z m 10.39699,10.78185 c 4.16659,3.91814 8.42306,7.67693 12.32599,10.43908 -7.64524,2.85349 -14.67268,7.57261 -20.23816,12.65156 -0.0655,0.0308 -0.13079,0.0624 -0.19617,0.0935 -2.18787,-2.93472 -4.60617,-6.02026 -7.38906,-9.22378 2.42749,0.12102 4.22325,0.13098 4.5446,-0.18698 0.98499,-0.97458 1.49648,-3.61351 0.71929,-6.04531 0.82091,-0.15072 1.5818,-0.3812 2.19056,-0.62323 0.62256,-0.24752 4.07446,-3.1402 8.04295,-7.10482 z m -39.13584,8.03966 c 0.22646,0.29968 0.89339,0.95088 1.30779,1.40226 -0.88061,1.59832 -1.67943,3.14552 -2.12517,4.30029 -0.53955,0.30222 -1.48266,0.61389 -1.8963,0.90367 0.56188,-0.14229 1.20523,-0.19755 1.79822,-0.31161 -0.025,0.0798 -0.0109,0.11067 -0.0327,0.18697 -0.31011,0.15521 -0.62106,0.24038 -0.91545,0.46742 -0.90463,0.69768 -0.48282,5.26103 0.32695,10.65721 -1.91918,-2.17623 -3.6398,-3.77098 -5.55815,-5.76486 3.03908,-3.94535 5.62856,-8.01725 7.09481,-11.84135 z m 8.69685,8.38243 c 4.3718,3.86758 9.21539,8.0076 14.09153,11.52973 -5.37099,3.53683 -9.84489,7.56866 -13.30685,11.62322 -1.20139,-1.79258 -3.06045,-3.94152 -4.70807,-6.04532 0.13277,-6.1203 0.33995,-11.27084 0.39234,-14.58355 0.48545,-0.15471 0.98516,-0.32718 1.37319,-0.49859 0.19273,-0.0851 1.51085,-1.45624 2.15786,-2.02549 z m 150.72368,9.16146 c 2.27399,12.69367 9.59889,28.01867 10.59315,29.07363 0.072,0.0764 0.18404,0.16944 0.26156,0.24929 -0.7662,-0.12569 -1.50321,-0.14141 -1.99439,0.0935 -0.55068,0.26337 -1.74094,3.70092 -3.23679,7.91501 -8.329,-10.63281 -19.31943,-22.34621 -21.87292,-21.15862 -0.4103,0.38276 -0.61916,0.85054 -0.91546,1.27762 -0.57632,-0.81973 -1.29258,-1.51975 -2.15787,-1.99433 7.17957,-4.89404 14.68074,-11.16638 19.32272,-15.45608 z m -26.84255,19.84984 c -0.48684,0.41771 -1.12154,1.12864 -1.63474,1.58923 -0.0515,-0.29734 -0.13258,-0.54276 -0.22887,-0.77903 0.58026,-0.21566 1.19892,-0.48883 1.86361,-0.8102 z m -16.02052,9.22379 c 1.69418,0.66144 3.33754,1.23806 4.93694,1.55808 -3.88168,4.14014 -7.42294,8.33749 -10.16814,11.99715 -1.23797,-0.95501 -3.24261,-0.71789 -5.42735,-0.12465 0.0923,-0.34214 0.12882,-0.7049 0.19617,-1.05949 6.76192,-1.52326 10.15221,-6.17844 10.46238,-12.37109 z m -19.32271,22.84134 c 3.84508,1.57742 7.63455,2.54674 10.46238,1.90084 -5.91324,5.67059 -12.26786,12.45983 -16.57633,18.19829 -2.65638,-3.72724 -12.98841,3.26428 -13.47032,0.28045 -0.14265,-0.88319 -0.52832,-2.0783 -1.04623,-3.27195 2.01705,0.19104 4.22002,0.23177 6.83323,-0.0935 8.06463,-2.61165 11.40573,-8.82103 10.72395,-16.35976 1.11441,0.001 2.13404,-0.22629 3.07332,-0.65439 z m 9.90657,59.8923 c -1.57449,1.05684 -3.06627,2.45304 -4.51191,4.01982 0.77832,-1.62831 2.26037,-3.00378 4.51191,-4.01982 z m -50.61177,91.20954 c 0.64147,-0.013 1.25124,0.17951 1.86361,0.31162 -0.0891,8.33953 2.92978,12.79242 11.18167,17.98015 -6.91811,6.92169 -24.35957,9.6634 -42.92845,9.90934 8.36888,-13.00065 20.53185,-28.01091 29.88317,-28.20111 z"
       id="path2094"
       style="fill:#a0a1a3;fill-rule:evenodd;stroke:#c2c2c5;stroke-width:6.38827372"
       inkscape:connector-curvature="0" />
    <g
       id="g2026"
       transform="matrix(0.994159,0,0,1,0.170322,0)">
      <path
         d="m 337.33507,116.58574 c -11.09128,-6.88936 -6.77491,-39.666552 5.72391,-44.905907 5.62282,1.531003 9.33551,4.133913 8.6566,8.757975 -0.67891,4.624043 6.15975,37.412592 -14.38051,36.147932 z"
         id="path1522"
         style="fill:url(#radialGradient3184);fill-opacity:1;fill-rule:evenodd;stroke-width:8.07505608"
         inkscape:connector-curvature="0" />
      <path
         d="m 291.12727,508.7889 c 10.17928,12.21513 46.82467,24.43026 69.21908,14.25098 22.3944,-10.17927 116.04373,-30.53782 118.07958,-46.82466 2.03586,-16.28684 -42.75295,-65.14736 -61.07565,-69.21907 -18.32269,-4.07171 -122.1513,91.61347 -126.22301,101.79275 z"
         id="path1511"
         style="fill-rule:evenodd;stroke-width:15"
         transform="matrix(0.424818,0,0,0.485258,92.11164,0.624979)"
         inkscape:connector-curvature="0" />
      <g
         id="g1626"
         transform="matrix(0.424818,0,0,0.485258,102.5081,-2.867828)">
        <path
           d="m 726.90223,264.41805 c -25.73407,-5.95117 -67.23648,0.58016 -69.87331,-1.80229 -2.63685,-2.38245 -4.11899,-9.6292 -0.57739,-15.21684 3.54161,-5.58765 55.80797,7.6513 70.4507,17.01913 z"
           id="path1564"
           style="fill:url(#radialGradient3186);fill-opacity:1;fill-rule:evenodd;stroke-width:8.07505608"
           transform="matrix(-1,0,0,1,1011.036,63.75383)"
           inkscape:connector-curvature="0" />
        <path
           d="m 603.77282,174.62563 c -23.81506,19.3496 42.18195,72.6113 46.61721,74.22152 4.43526,1.61022 12.37825,3.76779 17.26401,-3.34679 4.88574,-7.11459 -54.79735,-74.52087 -63.88122,-70.87473 z"
           id="path1565"
           style="fill:url(#radialGradient3188);fill-opacity:1;fill-rule:evenodd;stroke-width:8.07505608"
           transform="matrix(-1,0,0,1,1011.036,63.75383)"
           inkscape:connector-curvature="0" />
        <path
           d="m 532.4397,239.87226 c 7.8119,8.33519 69.70624,-42.27129 70.90806,-46.43888 1.20184,-4.16759 -0.60091,-15.47963 -7.81191,-19.05185 -7.21098,-3.57222 -67.30256,57.75092 -63.09615,65.49073 z"
           id="path1566"
           style="fill:url(#radialGradient3190);fill-opacity:1;fill-rule:evenodd;stroke-width:8.07505608"
           transform="matrix(-1,0,0,1,1011.036,63.75383)"
           inkscape:connector-curvature="0" />
      </g>
      <g
         id="g1619"
         transform="matrix(0.424818,0,0,0.485258,96.39252,-1.470705)">
        <path
           d="m 652.01883,312.95891 c 5.95117,-25.73407 -0.58016,-67.23648 1.80229,-69.87331 2.38245,-2.63685 9.6292,-4.11899 15.21684,-0.57739 5.58765,3.54161 -7.6513,55.80797 -17.01913,70.4507 z"
           id="path1569"
           style="fill:url(#radialGradient3192);fill-opacity:1;fill-rule:evenodd;stroke-width:8.07505608"
           transform="matrix(-1.020994,0,0,1.134443,983.4884,50.85006)"
           inkscape:connector-curvature="0" />
        <path
           d="m 603.77282,174.62563 c -23.81506,19.3496 42.18195,72.6113 46.61721,74.22152 4.43526,1.61022 12.37825,3.76779 17.26401,-3.34679 4.88574,-7.11459 -54.79735,-74.52087 -63.88122,-70.87473 z"
           id="path1570"
           style="fill:url(#radialGradient3194);fill-opacity:1;fill-rule:evenodd;stroke-width:8.07505608"
           transform="matrix(-1.020994,0,0,1.134443,983.4884,50.85006)"
           inkscape:connector-curvature="0" />
        <path
           d="m 532.4397,239.87226 c 7.8119,8.33519 69.70624,-42.27129 70.90806,-46.43888 1.20184,-4.16759 -0.60091,-15.47963 -7.81191,-19.05185 -7.21098,-3.57222 -67.30256,57.75092 -63.09615,65.49073 z"
           id="path1571"
           style="fill:url(#radialGradient3196);fill-opacity:1;fill-rule:evenodd;stroke-width:8.07505608"
           transform="matrix(-1.020994,0,0,1.134443,983.4884,50.85006)"
           inkscape:connector-curvature="0" />
      </g>
      <g
         id="g1612"
         transform="matrix(0.424818,0,0,0.485258,92.11164,0.624979)">
        <path
           d="m 691.76614,311.42449 c -10.3086,-24.31698 -39.98032,-54.04568 -39.60269,-57.58013 0.37762,-3.53446 5.36848,-8.99643 11.96946,-9.41873 6.60101,-0.4223 26.60609,49.64363 27.63323,66.99886 z"
           id="path1573"
           style="fill:url(#radialGradient3198);fill-opacity:1;fill-rule:evenodd;stroke-width:8.07505608"
           transform="matrix(-1.220552,0,0,1.219896,1048.468,68.73301)"
           inkscape:connector-curvature="0" />
        <path
           d="m 603.77282,174.62563 c -23.81506,19.3496 42.18195,72.6113 46.61721,74.22152 4.43526,1.61022 12.37825,3.76779 17.26401,-3.34679 4.88574,-7.11459 -54.79735,-74.52087 -63.88122,-70.87473 z"
           id="path1574"
           style="fill:url(#radialGradient3200);fill-opacity:1;fill-rule:evenodd;stroke-width:8.07505608"
           transform="matrix(-1.220552,0,0,1.219896,1048.468,68.73301)"
           inkscape:connector-curvature="0" />
        <path
           d="m 532.4397,239.87226 c 7.8119,8.33519 69.70624,-42.27129 70.90806,-46.43888 1.20184,-4.16759 -0.60091,-15.47963 -7.81191,-19.05185 -7.21098,-3.57222 -67.30256,57.75092 -63.09615,65.49073 z"
           id="path1575"
           style="fill:url(#radialGradient3202);fill-opacity:1;fill-rule:evenodd;stroke-width:8.07505608"
           transform="matrix(-1.220552,0,0,1.219896,1048.468,68.73301)"
           inkscape:connector-curvature="0" />
      </g>
      <g
         id="g1605"
         transform="matrix(0.424818,0,0,0.485258,92.11164,0.624979)">
        <path
           d="m 660.08501,300.0243 c 6.18342,-25.6792 0.0273,-67.23899 2.43352,-69.85416 2.40618,-2.61519 9.66603,-4.03172 15.22143,-0.43973 5.55544,3.592 -8.15521,55.73649 -17.65495,70.29389 z"
           id="path1577"
           style="fill:url(#radialGradient3204);fill-opacity:1;fill-rule:evenodd;stroke-width:8.07505608"
           transform="matrix(-1.220552,0,0,1.219896,993.5001,95.19912)"
           inkscape:connector-curvature="0" />
        <path
           d="m 596.38892,174.63322 c -16.20935,26.06048 63.53633,54.88554 68.25394,54.9611 4.71761,0.0756 12.92966,-0.47558 15.23037,-8.79511 2.30069,-8.31954 -76.08473,-52.57591 -83.48431,-46.16599 z"
           id="path1578"
           style="fill:url(#radialGradient3206);fill-opacity:1;fill-rule:evenodd;stroke-width:8.07505608"
           transform="matrix(-1.220552,0,0,1.219896,993.5001,95.19912)"
           inkscape:connector-curvature="0" />
        <path
           d="m 532.4397,239.87226 c 7.8119,8.33519 69.70624,-42.27129 70.90806,-46.43888 1.20184,-4.16759 -0.60091,-15.47963 -7.81191,-19.05185 -7.21098,-3.57222 -67.30256,57.75092 -63.09615,65.49073 z"
           id="path1579"
           style="fill:url(#radialGradient3208);fill-opacity:1;fill-rule:evenodd;stroke-width:8.07505608"
           transform="matrix(-1.220552,0,0,1.219896,993.5001,95.19912)"
           inkscape:connector-curvature="0" />
      </g>
      <g
         id="g1634"
         transform="matrix(0.424818,0,0,0.485258,92.11164,0.624979)">
        <path
           d="m 657.02286,320.3767 c 3.22749,-26.2153 -7.60801,-66.80718 -5.51435,-69.67869 2.09364,-2.87152 9.14567,-5.10334 15.07303,-2.16547 5.92737,2.93788 -1.77342,56.3021 -9.55868,71.84416 z"
           id="path1554"
           style="fill:url(#radialGradient3210);fill-opacity:1;fill-rule:evenodd;stroke-width:8.07505608"
           transform="translate(83.36412,96.32749)"
           inkscape:connector-curvature="0" />
        <path
           d="m 603.77282,174.62563 c -23.81506,19.3496 42.18195,72.6113 46.61721,74.22152 4.43526,1.61022 12.37825,3.76779 17.26401,-3.34679 4.88574,-7.11459 -54.79735,-74.52087 -63.88122,-70.87473 z"
           id="path1555"
           style="fill:url(#radialGradient3212);fill-opacity:1;fill-rule:evenodd;stroke-width:8.07505608"
           transform="translate(83.36412,96.32749)"
           inkscape:connector-curvature="0" />
        <path
           d="m 532.4397,239.87226 c 7.8119,8.33519 69.70624,-42.27129 70.90806,-46.43888 1.20184,-4.16759 -0.60091,-15.47963 -7.81191,-19.05185 -7.21098,-3.57222 -67.30256,57.75092 -63.09615,65.49073 z"
           id="path1556"
           style="fill:url(#radialGradient3214);fill-opacity:1;fill-rule:evenodd;stroke-width:8.07505608"
           transform="translate(83.36412,96.32749)"
           inkscape:connector-curvature="0" />
        <path
           d="m 503.11993,221.79346 c -5.67551,6.66838 -11.86698,9.23315 -4.6436,15.38858 7.22338,6.15543 39.21262,23.59582 43.34026,8.20724 8.25531,-25.64763 -20.6382,-4.61658 -21.67012,-10.77201 -1.03191,-6.15543 -8.77124,-20.5181 -17.02654,-12.82381 z"
           id="path1557"
           style="fill:url(#radialGradient3216);fill-opacity:1;fill-rule:evenodd;stroke-width:8.07505608"
           transform="translate(83.36412,96.32749)"
           inkscape:connector-curvature="0" />
      </g>
      <path
         d="m 601.17776,386.85616 c 9.28727,9.42491 82.87108,-47.79775 84.29988,-52.5102 1.42882,-4.71246 -0.7144,-17.50341 -9.28728,-21.54265 -8.57286,-4.03925 -80.01344,65.30115 -75.0126,74.05285 z"
         id="path1534"
         style="fill:url(#radialGradient3218);fill-opacity:1;fill-rule:evenodd;stroke-width:8.07505608"
         transform="matrix(0.424818,0,0,0.485258,92.11164,0.624979)"
         inkscape:connector-curvature="0" />
      <path
         d="m 665.1778,467.32044 c 16.01722,-21.00255 27.14987,-61.51395 30.40657,-62.93622 3.25669,-1.4223 10.47107,0.21017 14.10536,5.73797 3.6343,5.52781 -29.94684,47.71015 -44.51193,57.19825 z"
         id="path1532"
         style="fill:url(#radialGradient3220);fill-opacity:1;fill-rule:evenodd;stroke-width:8.07505608"
         transform="matrix(0.424818,0,0,0.485258,92.11164,0.624979)"
         inkscape:connector-curvature="0" />
      <path
         d="m 638.76689,377.00689 c -25.15349,21.42742 47.40474,78.13672 52.22841,79.80903 4.82366,1.67232 13.44283,3.87856 18.51924,-3.93318 5.07641,-7.81173 -61.05361,-79.99289 -70.74765,-75.87585 z"
         id="path1539"
         style="fill:url(#radialGradient3222);fill-opacity:1;fill-rule:evenodd;stroke-width:8.07505608"
         transform="matrix(0.424818,0,0,0.485258,92.11164,0.624979)"
         inkscape:connector-curvature="0" />
      <path
         d="m 685.82453,309.27548 c -31.84851,8.80368 9.98171,90.8456 13.64826,94.39816 3.66655,3.55257 10.54829,9.19165 18.44827,4.25369 7.89997,-4.93797 -21.57065,-98.29096 -32.09653,-98.65185 z"
         id="path1535"
         style="fill:url(#radialGradient3224);fill-opacity:1;fill-rule:evenodd;stroke-width:8.07505608"
         transform="matrix(0.424818,0,0,0.485258,92.11164,0.624979)"
         inkscape:connector-curvature="0" />
      <path
         d="m 555.94323,368.54161 c -7.85846,8.7517 -16.43133,12.11774 -6.42965,20.19623 10.00168,8.0785 54.29484,30.96756 60.01008,10.77132 11.43052,-33.66038 -28.57621,-6.05887 -30.00503,-14.13736 -1.42881,-8.0785 -12.14489,-26.92831 -23.5754,-16.83019 z"
         id="path1533"
         style="fill:url(#radialGradient3226);fill-opacity:1;fill-rule:evenodd;stroke-width:8.07505608"
         transform="matrix(0.424818,0,0,0.485258,92.11164,0.624979)"
         inkscape:connector-curvature="0" />
      <path
         d="m 659.24488,518.63846 c 16.01722,-21.00255 27.14987,-61.51395 30.40657,-62.93622 3.25669,-1.4223 10.47107,0.21017 14.10536,5.73797 3.6343,5.52781 -29.94684,47.71015 -44.51193,57.19825 z"
         id="path1536"
         style="fill:url(#radialGradient3228);fill-opacity:1;fill-rule:evenodd;stroke-width:8.07505608"
         transform="matrix(0.424818,0,0,0.485258,92.11164,0.624979)"
         inkscape:connector-curvature="0" />
      <path
         d="m 513.69924,416.3842 c -7.85846,8.7517 -16.43133,12.11774 -6.42965,20.19623 10.00168,8.0785 54.29484,30.96756 60.01008,10.77132 11.43052,-33.66038 -28.57621,-6.05887 -30.00503,-14.13736 -1.42881,-8.0785 -12.14489,-26.92831 -23.5754,-16.83019 z"
         id="path1537"
         style="fill:url(#radialGradient3230);fill-opacity:1;fill-rule:evenodd;stroke-width:8.07505608"
         transform="matrix(0.424818,0,0,0.485258,92.11164,0.624979)"
         inkscape:connector-curvature="0" />
      <path
         d="m 556.5636,449.37138 c 9.28727,9.42491 82.87108,-47.79775 84.29988,-52.5102 1.42882,-4.71246 -0.7144,-17.50341 -9.28728,-21.54265 -8.57286,-4.03925 -80.01344,65.30115 -75.0126,74.05285 z"
         id="path1538"
         style="fill:url(#radialGradient3232);fill-opacity:1;fill-rule:evenodd;stroke-width:8.07505608"
         transform="matrix(0.424818,0,0,0.485258,92.11164,0.624979)"
         inkscape:connector-curvature="0" />
      <path
         d="m 601.66842,584.48805 c 16.01722,-21.00255 27.14987,-61.51395 30.40657,-62.93622 3.25669,-1.4223 10.47107,0.21017 14.10536,5.73797 3.6343,5.52781 -29.94684,47.71015 -44.51193,57.19825 z"
         id="path1531"
         style="fill:url(#radialGradient3234);fill-opacity:1;fill-rule:evenodd;stroke-width:8.07505608"
         transform="matrix(0.424818,0,0,0.485258,92.11164,0.624979)"
         inkscape:connector-curvature="0" />
      <path
         d="m 466.91332,476.12623 c -7.85846,8.7517 -16.43133,12.11774 -6.42965,20.19623 10.00168,8.0785 54.29484,30.96756 60.01008,10.77132 11.43052,-33.66038 -28.57621,-6.05887 -30.00503,-14.13736 -1.42881,-8.0785 -12.14489,-26.92831 -23.5754,-16.83019 z"
         id="path1528"
         style="fill:url(#radialGradient3236);fill-opacity:1;fill-rule:evenodd;stroke-width:8.07505608"
         transform="matrix(0.424818,0,0,0.485258,92.11164,0.624979)"
         inkscape:connector-curvature="0" />
      <path
         d="m 344.40593,87.133952 c -9.97852,-1.878808 -14.21767,-27.664049 -5.95143,-35.270716 4.60935,-0.514456 8.01753,0.336381 8.56257,3.994702 0.54504,3.658307 13.23545,26.16004 -2.61114,31.276014 z"
         id="path1524"
         style="fill:url(#radialGradient3238);fill-opacity:1;fill-rule:evenodd;stroke-width:8.07505608"
         inkscape:connector-curvature="0" />
      <path
         d="m 320.10798,145.04681 c -11.98809,-12.02173 2.13951,-47.140207 19.11887,-48.186897 6.60094,3.892887 10.53463,8.250117 8.45434,13.177407 -2.08029,4.92729 -2.30489,44.37257 -27.57321,35.00949 z"
         id="path1523"
         style="fill:url(#radialGradient3240);fill-opacity:1;fill-rule:evenodd;stroke-width:8.07505608"
         inkscape:connector-curvature="0" />
      <path
         d="m 463.78399,310.36465 c -18.64738,-10.31745 25.36046,-58.73011 65.63884,-58.73011 68.62241,11.11112 106.06103,84.11416 64.14704,88.88882 -43.3892,4.9427 -14.91792,-61.90472 -83.54034,-61.90472 -20.93829,0 -27.59814,42.06347 -46.24554,31.74601 z"
         id="path900"
         style="fill:url(#radialGradient3242);fill-opacity:1;fill-rule:evenodd;stroke:url(#linearGradient3244);stroke-width:6.95232964"
         transform="matrix(0.424818,0,0,0.485258,92.11164,0.624979)"
         inkscape:connector-curvature="0" />
      <path
         d="m 328.94102,137.83231 c 0,-3.27491 3.1449,-5.14633 5.94036,-4.21062 9.08525,1.87139 17.82108,17.77823 15.37505,27.60303 -2.0966,6.08202 -4.54264,5.61418 -10.83241,-1.40354 -8.73583,-8.88911 -1.78457,-17.83126 -10.483,-21.98887 z"
         id="path2017"
         style="fill:#ffffff;fill-opacity:0.22905022;fill-rule:evenodd;stroke-width:1pt"
         inkscape:connector-curvature="0" />
      <path
         d="m 436.41208,331.955 c -21.80402,-11.21529 29.6535,-63.84087 76.75023,-63.84087 80.23885,12.078 115.87169,95.50558 66.86247,100.69572 -50.73415,5.37284 -9.29982,-71.36344 -89.53868,-71.36344 -24.48274,0 -32.26997,45.72387 -54.07402,34.50859 z"
         id="path1513"
         style="fill:url(#radialGradient3246);fill-opacity:1;fill-rule:evenodd;stroke:url(#linearGradient3248);stroke-width:6.95232964"
         transform="matrix(0.424818,0,0,0.485258,92.11164,0.624979)"
         inkscape:connector-curvature="0" />
      <path
         d="m 317.42449,145.20928 c 0,-3.93624 4.08235,-6.18556 7.7111,-5.0609 11.79344,2.24929 23.13329,21.36831 19.95814,33.1771 -2.72157,7.3102 -5.89673,6.74789 -14.06141,-1.68697 -11.33985,-10.68415 -2.31652,-21.43205 -13.60783,-26.42923 z"
         id="path2016"
         style="fill:#ffffff;fill-opacity:0.22905022;fill-rule:evenodd;stroke-width:1pt"
         inkscape:connector-curvature="0" />
      <path
         d="m 414.44981,358.13563 c -23.01878,-13.23306 31.30555,-75.32664 81.02613,-75.32664 84.70913,14.25099 124.81668,109.91982 73.07705,116.04374 -53.56064,6.33946 -12.30746,-81.4342 -97.01659,-81.4342 -25.84673,0 -34.0678,53.95015 -57.08659,40.7171 z"
         id="path1512"
         style="fill:url(#radialGradient3250);fill-opacity:1;fill-rule:evenodd;stroke:url(#linearGradient3252);stroke-width:6.95232964"
         transform="matrix(0.424818,0,0,0.485258,92.11164,0.624979)"
         inkscape:connector-curvature="0" />
      <path
         d="m 305.90796,154.44596 c 0,-4.37713 5.0198,-6.87838 9.48184,-5.62775 14.50163,2.50122 28.44551,23.76169 24.54122,36.89314 -3.34653,8.12899 -7.25081,7.5037 -17.2904,-1.87592 -13.94387,-11.88084 -2.84847,-23.83258 -16.73266,-29.38947 z"
         id="path2015"
         style="fill:#ffffff;fill-opacity:0.22905022;fill-rule:evenodd;stroke-width:1pt"
         inkscape:connector-curvature="0" />
      <path
         d="m 366.29841,385.52315 c -27.87814,-13.90466 37.9143,-79.14957 98.13113,-79.14957 102.59163,14.97425 148.38372,117.43093 85.7216,123.86564 -64.86754,6.6612 -12.12325,-87.49962 -114.71489,-87.49962 -31.30309,0 -41.25968,56.68819 -69.13784,42.78355 z"
         id="path1503"
         style="fill:url(#radialGradient3254);fill-opacity:1;fill-rule:evenodd;stroke:url(#linearGradient3256);stroke-width:6.95232964"
         transform="matrix(0.424818,0,0,0.485258,92.11164,0.624979)"
         inkscape:connector-curvature="0" />
      <path
         d="m 295.11121,167.18168 c 0,-4.74454 5.74893,-7.45573 10.85908,-6.10013 16.608,2.71117 32.57724,25.75618 28.10585,39.98984 -3.83262,8.81132 -8.304,8.13355 -19.80184,-2.03337 -15.96923,-12.87809 -3.26222,-25.83303 -19.16309,-31.85634 z"
         id="path2014"
         style="fill:#ffffff;fill-opacity:0.22905022;fill-rule:evenodd;stroke-width:1pt"
         inkscape:connector-curvature="0" />
      <path
         d="m 328.21913,409.54975 c -29.57959,-14.35239 40.22825,-81.69819 104.12019,-81.69819 108.8529,15.45642 160.09685,114.97353 93.61038,123.65131 -68.82647,6.87568 -15.52026,-86.1143 -124.37317,-86.1143 -33.21355,0 -43.7778,58.51356 -73.3574,44.16118 z"
         id="path1504"
         style="fill:url(#radialGradient3258);fill-opacity:1;fill-rule:evenodd;stroke:url(#linearGradient3260);stroke-width:6.95232964"
         transform="matrix(0.424818,0,0,0.485258,92.11164,0.624979)"
         inkscape:connector-curvature="0" />
      <path
         d="m 274.95728,177.03827 c 0,-5.11195 7.31135,-8.03308 13.81031,-6.57252 21.12165,2.92112 41.43093,27.75067 35.74433,43.08656 -4.87423,9.49364 -10.56083,8.76338 -25.1835,-2.19084 -20.30927,-13.87534 -4.14881,-27.83346 -24.37114,-34.3232 z"
         id="path2013"
         style="fill:#ffffff;fill-opacity:0.22905022;fill-rule:evenodd;stroke-width:1pt"
         inkscape:connector-curvature="0" />
      <path
         d="m 290.90712,442.7377 c -30.54992,-14.80011 41.54792,-84.24681 107.53578,-84.24681 112.42373,15.93859 163.83161,110.13815 105.09176,127.50868 -80.83745,9.18737 -24.43995,-88.80068 -136.8637,-88.80068 -34.30311,0 -45.2139,60.33892 -75.76384,45.53881 z"
         id="path1505"
         style="fill:url(#radialGradient1601);fill-opacity:1;fill-rule:evenodd;stroke:url(#linearGradient1501);stroke-width:6.95232964"
         transform="matrix(0.424818,0,0,0.485258,92.11164,0.624979)"
         inkscape:connector-curvature="0" />
      <path
         d="m 376.63319,384.60174 c -6.10757,26.46612 -28.50197,38.68125 -34.60954,67.18322 -16.28684,4.07171 -42.75295,12.21513 -48.86052,-10.17928 -6.10756,-22.3944 42.75295,-63.11151 83.47006,-57.00394 z"
         id="path1506"
         style="fill:url(#radialGradient1600);fill-rule:evenodd;stroke:#000000;stroke-width:10.25"
         transform="matrix(0.424818,0,0,0.485258,92.11164,0.624979)"
         inkscape:connector-curvature="0" />
      <path
         d="m 256.96269,188.43431 c 0,-5.55285 7.72799,-8.72591 14.5973,-7.13938 22.32529,3.17305 47.74048,30.14405 41.72982,46.8026 -9.89026,11.10215 -19.84948,5.57063 -26.61861,-4.74892 -21.46662,-15.07203 1.20343,-30.94798 -29.70851,-34.9143 z"
         id="path1894"
         style="fill:#ffffff;fill-opacity:0.22905022;fill-rule:evenodd;stroke-width:1pt"
         inkscape:connector-curvature="0" />
      <path
         d="m 382.34938,382.56589 c -14.25098,12.21513 -38.68126,46.82466 -42.75296,77.36249 16.28684,4.07171 105.86446,20.35855 111.97203,-2.03586 6.10756,-22.3944 -20.35854,-71.25492 -69.21907,-75.32663 z"
         id="path1507"
         style="fill:url(#radialGradient1599);fill-rule:evenodd;stroke:#000000;stroke-width:10.25"
         transform="matrix(0.424818,0,0,0.485258,92.11164,0.624979)"
         inkscape:connector-curvature="0" />
      <path
         d="m 217.36936,229.64265 c -2.82446,10.09266 -9.18782,3.95346 -10.12839,10.52297 -0.94055,6.56953 -1.52944,7.06952 -6.47501,15.11576 -18.73427,-10.0633 -23.26915,-6.19479 -26.86318,-9.39519 -8.42241,2.82267 -22.55151,0.81025 -31.62582,-14.65036 8.72983,2.08235 15.25127,-16.29539 4.11712,-15.70647 20.21596,-3.20242 32.88801,20.57511 39.72026,18.6216 6.83226,-1.9535 7.99033,3.22136 11.05339,3.50619 -5.42002,-3.09284 -1.29639,-1.7848 5.41449,-16.13897 6.71085,-14.35418 17.61159,-1.96819 14.78714,8.12447 z"
         id="path1518"
         style="fill:url(#radialGradient2024);fill-opacity:1;fill-rule:evenodd;stroke-width:6.25"
         inkscape:connector-curvature="0" />
      <path
         d="m 340.59245,420.05722 c 13.55214,4.76351 11.76744,39.87581 3.81206,52.03441 -7.95538,12.1586 -16.11604,21.91534 -28.70466,21.2926 -12.58863,-0.62275 -28.29407,26.09632 -36.41276,12.59681 -8.11868,-13.49953 -12.75194,-26.28087 -5.76008,-42.58024 6.99187,-16.29936 13.59412,-30.70788 23.86612,-36.47581 10.272,-5.76793 43.19932,-6.86777 43.19932,-6.86777 z"
         id="path1508"
         style="fill:url(#radialGradient1598);fill-opacity:1;fill-rule:evenodd;stroke:#000000;stroke-width:11.03834915"
         transform="matrix(0.424818,0,0,0.485258,92.11164,0.624979)"
         inkscape:connector-curvature="0" />
      <path
         d="m 255.82025,198.99392 c 9.66885,-6.49208 29.99799,20.38796 21.37395,31.20736 -8.08392,2.94156 -2.24877,4.118 -15.65265,-10.97463 -16.81712,-15.38767 -7.51437,-14.85615 -5.7213,-20.23273 z"
         id="path2018"
         style="fill:#ffffff;fill-opacity:0.22905022;fill-rule:evenodd;stroke-width:1pt"
         inkscape:connector-curvature="0" />
      <path
         d="m 364.13485,428.29854 c -11.61056,-6.39399 -36.70119,13.17448 -41.02428,24.76377 -4.32308,11.5893 -15.83317,28.4551 -7.87997,36.38669 7.95321,7.93158 18.70916,46.1922 33.59395,44.44457 14.8848,-1.74763 45.4838,-11.51289 53.46423,-24.63977 7.98044,-13.12688 14.78433,-25.00744 12.96928,-34.76788 -1.81507,-9.76044 -51.12321,-46.18738 -51.12321,-46.18738 z"
         id="path1510"
         style="fill:url(#radialGradient1594);fill-opacity:1;fill-rule:evenodd;stroke:#000000;stroke-width:9.87493515"
         transform="matrix(0.424818,0,0,0.485258,92.11164,0.624979)"
         inkscape:connector-curvature="0" />
      <path
         d="m 368.48976,486.39449 c 0,16.28684 20.35855,14.25099 18.3227,24.43026 -2.03586,10.17928 4.07171,10.17927 10.17927,24.43026 37.34399,-0.3493 71.25492,16.28684 93.64933,34.60954 22.3944,18.32269 38.68124,32.57368 65.14736,34.60954 -22.39441,-16.28685 -8.49271,-38.53657 36.2961,-32.429 3.06619,-34.26025 -136.05299,-53.07691 -150.30397,-59.18448 -14.25099,-6.10756 -8.14342,-4.07171 -28.50197,4.07171 14.25098,-2.03586 14.25098,-10.17928 8.14341,-34.60954 -6.10756,-24.43026 -52.93223,-12.21513 -52.93223,4.07171 z"
         id="path1514"
         style="fill:url(#radialGradient3262);fill-opacity:1;fill-rule:evenodd;stroke-width:8.07505608"
         transform="matrix(0.424818,0,0,0.485258,92.11164,0.624979)"
         inkscape:connector-curvature="0" />
      <path
         d="m 588.46857,573.48807 c 19.897,10.27708 -15.10065,117.9608 -32.74741,112.19961 -17.64675,-5.76119 -52.94027,-17.28355 -49.27954,-28.80719 3.66073,-11.52363 37.49016,-108.07309 82.02695,-83.39242 z"
         id="path1515"
         style="fill:url(#radialGradient3264);fill-opacity:1;fill-rule:evenodd;stroke-width:8.07505608"
         transform="matrix(0.424818,0,0,0.485258,92.11164,0.624979)"
         inkscape:connector-curvature="0" />
      <path
         d="m 315.43112,327.17246 c 25.12511,1.38001 26.58121,78.86408 -16.49042,77.48408 -43.07163,-1.38001 -28.77234,3.71718 -62.47424,-5.72376 22.73225,1.38001 47.72753,-0.78419 56.2324,-9.66004 -10.52222,-6.90003 -12.16607,-12.43543 -9.77321,-27.60013 2.39287,-22.08009 15.75539,-38.64017 32.50547,-34.50015 z"
         id="path1516"
         style="fill:url(#radialGradient1591);fill-opacity:1;fill-rule:evenodd;stroke-width:7.64562416"
         inkscape:connector-curvature="0" />
      <path
         d="m 309.44894,327.17246 c -17.34829,28.98013 -59.82171,44.16019 -65.80387,86.25039 6.58038,-14.49007 32.90193,-57.27026 44.26805,-37.26017 7.77683,-4.83003 12.56256,-33.12015 21.53582,-48.99022 z"
         id="path1517"
         style="fill:url(#linearGradient1593);fill-opacity:1;fill-rule:evenodd;stroke-width:6.7750001"
         inkscape:connector-curvature="0" />
      <path
         d="m 150.99197,218.39299 c 9.71805,9.27763 -31.83561,62.06535 -41.10687,55.67982 -9.27125,-6.38554 -18.987382,-13.43368 -14.590332,-19.09811 4.39705,-5.66442 44.045462,-49.07637 55.697202,-36.58171 z"
         id="path1519"
         style="fill:url(#radialGradient2025);fill-opacity:1;fill-rule:evenodd;stroke-width:6.25"
         inkscape:connector-curvature="0" />
      <path
         d="m 68.673912,279.27908 c 23.093596,-38.46232 64.599678,-14.25401 45.996258,26.03094 -18.603442,40.28494 0.7822,29.1365 -25.344925,61.09346 11.244135,-23.82457 11.911015,-39.80685 10.791155,-51.94853 1.50634,-0.89542 -6.750922,2.34214 -18.403446,1.20546 -18.093669,-5.13234 -23.384357,-21.18567 -13.039042,-36.38133 z"
         id="path1520"
         style="fill:url(#radialGradient1502);fill-opacity:1;fill-rule:evenodd;stroke-width:8.07505608"
         inkscape:connector-curvature="0" />
      <path
         d="M 338.18217,61.405542 C 328.20365,59.98704 323.9645,40.51912 332.23074,34.776069 c 4.60934,-0.388415 8.01753,0.253969 8.56257,3.01601 0.54504,2.762029 13.23545,19.750892 -2.61114,23.613463 z"
         id="path1525"
         style="fill:url(#radialGradient3266);fill-opacity:1;fill-rule:evenodd;stroke-width:8.07505608"
         inkscape:connector-curvature="0" />
      <path
         d="m 335.61768,38.287452 c -5.06763,8.241223 -29.3545,4.017032 -33.27327,-5.642992 1.11638,-4.234219 3.03248,-6.984376 6.45899,-6.335205 3.42649,0.64917 27.68721,-3.613637 26.81428,11.978197 z"
         id="path1526"
         style="fill:url(#radialGradient3268);fill-opacity:1;fill-rule:evenodd;stroke-width:8.07505608"
         inkscape:connector-curvature="0" />
      <path
         d="m 309.20872,39.3647 c 11.8148,15.787555 -12.54928,51.090962 -37.53406,37.084208 -7.24972,-7.021139 -11.8453,-15.601263 -21.49179,-34.705233 16.13357,19.238382 13.40143,20.379733 22.47716,24.190687 9.07572,3.810945 -5.27889,-18.243973 5.98522,-27.635555 11.26413,-9.391581 24.15677,-11.03861 30.56347,1.065893 z"
         id="path1527"
         style="fill:url(#radialGradient3270);fill-opacity:1;fill-rule:evenodd;stroke-width:8.07505608"
         inkscape:connector-curvature="0" />
      <path
         d="m 510.79561,510.13134 c 9.28727,9.42491 82.87108,-47.79775 84.29988,-52.5102 1.42882,-4.71246 -0.7144,-17.50341 -9.28728,-21.54265 -8.57286,-4.03925 -80.01344,65.30115 -75.0126,74.05285 z"
         id="path1529"
         style="fill:url(#radialGradient3272);fill-opacity:1;fill-rule:evenodd;stroke-width:8.07505608"
         transform="matrix(0.424818,0,0,0.485258,92.11164,0.624979)"
         inkscape:connector-curvature="0" />
      <path
         d="m 598.96265,430.27822 c -29.60959,14.66644 26.97769,87.31988 31.24979,90.11514 4.2721,2.79527 12.09589,7.03153 18.91977,0.68899 6.82388,-6.34254 -39.76529,-92.43986 -50.16956,-90.80413 z"
         id="path1530"
         style="fill:url(#radialGradient1585);fill-opacity:1;fill-rule:evenodd;stroke-width:8.07505608"
         transform="matrix(0.424818,0,0,0.485258,92.11164,0.624979)"
         inkscape:connector-curvature="0" />
      <path
         d="m 255.76727,230.14991 c 7.18085,10.83991 -10.20878,23.97085 -20.71327,14.54672 -3.41351,-6.36716 -2.14897,-11.43261 1.68411,-17.30711 7.21996,-4.43777 13.05433,-2.37564 19.02916,2.76039 z"
         id="path2019"
         style="fill:#ffffff;fill-opacity:0.13966477;fill-rule:evenodd;stroke-width:1pt"
         inkscape:connector-curvature="0" />
      <path
         d="m 83.829864,278.38839 c -13.860751,23.60659 -52.726122,42.73858 -54.66814,73.13003 4.948299,-11.37893 14.256805,-30.69493 38.612271,-34.80274 6.970899,-1.17572 8.964329,-25.50669 16.055869,-38.32729 z"
         id="path1521"
         style="fill:url(#linearGradient1584);fill-opacity:1;fill-rule:evenodd;stroke-width:8.07505608"
         inkscape:connector-curvature="0" />
    </g>
  </g>
</svg>
