<?xml version="1.0" encoding="UTF-8" standalone="no"?>
<!-- Generator: Adobe Illustrator 12.0.0, SVG Export Plug-In . SVG Version: 6.00 Build 51448)  -->
<svg
   xmlns:dc="http://purl.org/dc/elements/1.1/"
   xmlns:cc="http://web.resource.org/cc/"
   xmlns:rdf="http://www.w3.org/1999/02/22-rdf-syntax-ns#"
   xmlns:svg="http://www.w3.org/2000/svg"
   xmlns="http://www.w3.org/2000/svg"
   xmlns:sodipodi="http://sodipodi.sourceforge.net/DTD/sodipodi-0.dtd"
   xmlns:inkscape="http://www.inkscape.org/namespaces/inkscape"
   height="169.601"
   id="Layer_1"
   inkscape:version="0.45.1"
   sodipodi:docbase="/Users/johnolsen/Desktop/openclipart-0.20-pre/recovered-zerobyte-files/animals/dinosaurs"
   sodipodi:docname="dinosauro_architetto_fr_07r.svg"
   sodipodi:version="0.32"
   space="preserve"
   style="overflow:visible;enable-background:new 0 0 278.164 169.601;"
   version="1.1"
   viewBox="0 0 278.164 169.601"
   width="278.164"
   inkscape:output_extension="org.inkscape.output.svg.inkscape">
  <metadata
     id="metadata3">
    <rdf:RDF>
      <cc:Work
         rdf:about="">
        <dc:title>Dinosauro</dc:title>
        <dc:description />
        <dc:subject>
          <rdf:Bag>
            <rdf:li>animal</rdf:li>
            <rdf:li>dinosaur</rdf:li>
          </rdf:Bag>
        </dc:subject>
        <dc:publisher>
          <cc:Agent
             rdf:about="http://www.openclipart.org/">
            <dc:title>Open Clip Art Library</dc:title>
          </cc:Agent>
        </dc:publisher>
        <dc:creator>
          <cc:Agent>
            <dc:title>Architetto Francesco Rollandin</dc:title>
          </cc:Agent>
        </dc:creator>
        <dc:rights>
          <cc:Agent>
            <dc:title>Architetto Francesco Rollandin</dc:title>
          </cc:Agent>
        </dc:rights>
        <dc:date />
        <dc:format>image/svg+xml</dc:format>
        <dc:type
           rdf:resource="http://purl.org/dc/dcmitype/StillImage" />
        <cc:license
           rdf:resource="http://web.resource.org/cc/PublicDomain" />
        <dc:language>en</dc:language>
      </cc:Work>
      <cc:License
         rdf:about="http://web.resource.org/cc/PublicDomain">
        <cc:permits
           rdf:resource="http://web.resource.org/cc/Reproduction" />
        <cc:permits
           rdf:resource="http://web.resource.org/cc/Distribution" />
        <cc:permits
           rdf:resource="http://web.resource.org/cc/DerivativeWorks" />
      </cc:License>
    </rdf:RDF>
  </metadata>
  <defs
     id="defs104" />
  <sodipodi:namedview
     bordercolor="#666666"
     borderopacity="1.0"
     id="base"
     inkscape:current-layer="Layer_1"
     inkscape:cx="139.08200"
     inkscape:cy="84.800499"
     inkscape:pageopacity="0.0"
     inkscape:pageshadow="2"
     inkscape:window-height="712"
     inkscape:window-width="1024"
     inkscape:window-x="-4"
     inkscape:window-y="-4"
     inkscape:zoom="2.1226290"
     pagecolor="#ffffff" />
  <path
     d="M147.632,6.431c-2.394-1.793,0.332-3.004-3.186-3.196  c-2.201-0.12-3.734,2.131-5.841,2.131c-4.358,0-6.942-3.205-10.839-3.986c-1.691-0.339-4.409,0.527-5.624,1.855  c-0.625,0.684-0.95,2.385-1.287,3.23c-0.783,1.964-1.092,1.196-1.898,2.097c-0.137,0.152,0.138,2.114,0,2.131  c-1.051,0.133-2.124-0.46-2.124-1.598c0-0.958-3.273-0.533-4.249-0.533c0.889,0.675,0.463,4.508-1.063,5.329  c-1.445,0.777-7.211-2.132-8.994-2.132c-3.341,0-5.237,0.208-6.405,3.73c-0.483,1.459-0.231,7.99-2.125,7.99  c-2.89,0-2.655,3.953-2.655,5.879c0,3.769-4.271,0.084-6.372,1.579c-2.725,1.939,0.506,6.583-1.061,8.524  c-0.53,0.658-2.813-0.374-3.718,0.533c-1.264,1.266-0.568,3.493-1.595,4.794c-0.575,0.729-2.828,1.419-3.696,1.854  c-1.141,0.572-1.161,2.34-1.613,3.474c-0.386,0.969,0.58,1.84-0.551,2.407c-2.251,1.129-0.889,1.55-1.848,3.473  c-1.236,2.477-7.161,1.532-7.161,4.104c0,1.645-0.003,3.289,0,4.934c0.002,0.989-1.416,0.352-0.785,1.617  c0.356,0.717,0.785,1.284,0.785,2.078c0,2.307,1.224,7.421-2.183,5.144c-2.734-1.829-4.191-2.217-4.191,1.282  c0,2.099,0,4.196,0,6.295c0,4.158,2.646,3.958,6.374,4.893c-12.473,5.008-28.596,6.394-41.934,6.394  c-1.909,0-5.968,2.184-7.986,3.195c-3.405,1.709-6.778,2.54-9.499,5.269C1.323,104.192,0,106.239,0,110.404  c0,1.418,2.12,3.28,2.95,4.392c1.255,1.679,2.303,0.513,3.422,1.382c0.996,0.774,1.589,3.194,2.675,3.194c1.443,0,2.886,0,4.328,0  c3.907,0,7.814,0,11.722,0c7.59,0,15.305-1.518,22.784-0.444c7.529,1.08,15.016,2.408,22.473,3.905  c5.524,1.108,2.973,1.979,4.525,6.661c0.735,2.218,3.358,6.925-0.021,6.925c-5.414,0-10.069,2.245-10.069,8.025  c0,2.493,9.515,1.564,11.118,1.564c5.253,0,9.354,0.774,13.31-3.196c3.185-3.196,4.248-3.517,4.248-8.523  c1.827,1.608,2.627,3.134,3.699,5.289c0.801,1.607-0.783,3.804-1.572,4.3c-1.275,0.802-3.341,0.812-4.982,1.909  c-1.393,0.932-5.349,0.479-7.266,1.121c-2.025,0.679-11.246,7.626-5.299,7.626c1.077,0,4.035,1.405,5.43,1.756  c2.389,0.6,4.845,0.375,7.302,0.375c4.421,0,7.104-0.952,11.151-3.39c2.611-1.573,11.104-5.858,11.829-8.774  c0.607-2.441,2.013-3.693,2.013-5.396c0-3.262,2.188-2.686,4.927-2.686c2.916,0,5.645,0.525,8.526,1.008  c2.117,0.354,4.525-1.005,6.727-1.008c-2.426,2.154,0.051,5.328-4.798,5.328c-3.08,0-4.762,4.256-4.762,6.926  c0,6.652,13.053,6.926,17.546,6.926c3.642,0,6.973,0.298,10.13-1.815c3.767-2.521,2.064-4.591,2.064-8.34  c0-4.34-2.308-6.158-1.174-10.711c1.043-4.188,4.418-2.354,6.483-4.705c1.384,2.774,2.593,5.905,4.249,8.524  c1.106,1.751,2.125,1.515,2.125,3.709c0,1.352-0.326,3.095,0.275,4.301c0.941,1.891,4.229,4.623,3.972,5.84  c-0.767,3.627-7.027,3.72-9.027,6.395c-1.722,2.302-1.911,5.17,1.082,6.669c1.567,0.785,5.883,3.985,6.353,3.985  c2.206,0,4.733,0.339,6.904,0c1.169-0.183,1.842-1.066,3.504-1.066c2.293,0,4.854,0.342,7.117,0  c6.645-1.004,12.41-7.424,8.183-13.791c-2.685-4.042-6.423-13.541-2.342-17.641c1.077-1.081,0.7-1.863,1.594-2.663  c1.035-0.926,2.994-1.648,4.188-2.446c3.316-2.218,3.273-1.538,6.253-0.418c7.575,2.85,15.122,5.729,22.797,8.298  c10.611,3.55,22.937,4.155,34.03,4.155c6.125,0,10.332-3.296,13.411-7.931c1.373-2.066,2.394-1.346,1.953-3.991  c-0.543-3.268-1.184-6.293-2.09-9.474c-0.846-2.97-1.832-4.297-3.789-6.752c-1.979-2.48,0.688-3.546,1.676-6.514  c1.416-4.259-0.358-9.812-2.707-13.345c-3.93-5.913-3.068,5.843-3.5,8.584c-1.297,8.239-6.02-0.037-10.62-1.066  c-0.184,1.846-0.084,3.791,1.062,5.328c-0.368-2.201-1.793-1.908-3.245-2.88c-2.334-1.562-2.066-2.449-3.285-4.895  c-3.158-6.337-4.092-2.643-4.092,2.446c-0.465-1.929-1.314-0.258-2.654-1.599c-0.893-0.893,0.842-3.201,0.531-4.794  c-0.292-1.501-4.399-6.059-1.063-6.393c-1.633-1.225-1.193-3.33-2.854-4.994c-1.033-1.035-5.081-0.899-2.987-2.996  c2.553-2.559-1.404-2.235-1.594-3.73c-0.326-2.581,2.206-3.115-0.53-5.861c-2.617-2.625-0.531-6.044-0.531-9.569  c0-5.878-4.923-5.978-9.559-4.815c0-1.167,0.48-6.393-0.531-6.393c-2.714,0-1.429-4.938-2.655-7.459  c-1.112-2.286-3.17-4.261-5.861-4.261c-3.375,0-1.371-5.328-4.248-5.328c-4.368,0-1.408-1.803-2.911-4.815  c-1.382-2.77-2.591-3.632-6.098-3.709c-1.117-0.024-2.344,1.066-3.697,1.066c-0.985,0-0.401-1.832-0.825-2.684  c-1.823-3.658-4.542-0.375-7.16,0.553c0-4.895-0.293-9.881-3.916-13.519c-2.101-2.109-4.719-0.997-7.203-0.167  c-2.969,0.993-2.806,3.009-5.874,4.096c-1.2-2.409-2.126-4.633-4.249-6.394c-0.87,0.976-1.94,1.689-3.186,2.131  c-0.499-1.188,0.039-1.065-1.594-1.065c-1.354,0,0.047-1.448-0.531-2.131c-1.653-1.953-3.656-3.072-5.035-5.84  C157.026-4.559,152.014,4.903,147.632,6.431"
     id="path3"
     style="fill-rule:evenodd;clip-rule:evenodd;" />
  <path
     d="M150.819,7.497c-0.482,5.047,5.171,10.375,7.435,14.917  c1.848-1.695,3.088-3.583,4.469-5.66c2.512-3.777,1.217-3.887-1.283-7.126c-1.126-1.459-1.807-5.817-3.186-6.393  C156.32,2.428,151.882,6.207,150.819,7.497"
     id="path5"
     style="fill-rule:evenodd;clip-rule:evenodd;fill:#007F00;" />
  <path
     d="M125.329,4.3c-1.313,1.975-4.292,5.237-2.911,8.011  c0.837,1.684,2.384,2.698,3.972,3.71c0.997,0.636,1.649,1.432,3.187,2.131c0.729-1.46,6.618-8.37,6.373-9.59  C135.322,5.437,127.505,4.3,125.329,4.3"
     id="path7"
     style="fill-rule:evenodd;clip-rule:evenodd;fill:#007F00;" />
  <path
     d="M133.825,23.479c-0.39,1.739,3.914,8.787,5.547,10.971  c2.457,3.285,2.684,3.946,6.647,3.946c2.785,0,3.957-0.722,5.432-3.187c3.047-5.096,5.457-10.949,0.762-15.659  c-0.911-0.914-0.754-2.45-1.394-3.529c-0.561-0.945-1.781-1.443-2.281-2.447c-1.503-3.014-2.768-4.749-5.153-7.144  c-2.511,2.684-5.71,4.33-7.749,7.399C133.622,16.86,133.825,19.996,133.825,23.479"
     id="path9"
     style="fill-rule:evenodd;clip-rule:evenodd;fill:#3F9F3F;" />
  <path
     d="M122.143,40.527c5.871,1.359,7.673-11.826,6.746-15.548  c-0.788-3.167-2.659-5.32-4.622-6.827c-2.177-1.671-5.831-4.395-8.497-5.328c-2.293,5.754-4.427,9.588-3.396,15.781  C113.158,33.326,118.907,37.277,122.143,40.527"
     id="path11"
     style="fill-rule:evenodd;clip-rule:evenodd;fill:#3F9F3F;" />
  <path
     d="M160.378,27.741c-0.461,4.251,2.902,7.381,3.875,11.286  c0.761,3.056,1.91,1.737,4.11,2.842c2.652,1.332,4.483-1.545,6.656-3.29c2.987-2.397,6.348-8.333,3.649-11.943  c-3.118-4.172-6.058-8.273-8.732-12.746C165.849,17.991,162.957,22.565,160.378,27.741"
     id="path13"
     style="fill-rule:evenodd;clip-rule:evenodd;fill:#3F9F3F;" />
  <path
     d="M178.434,18.152c-2.124,1.615,4.881,7.412,4.249,11.72  c2.446-0.711,4.619-1.784,6.884-2.921c0.226-0.113-0.252-5.683-0.512-6.669C187.459,14.225,182.212,13.56,178.434,18.152"
     id="path15"
     style="fill-rule:evenodd;clip-rule:evenodd;fill:#007F00;" />
  <path
     d="M97.715,23.479c1.86,0.659,7.727,3.384,9.56,2.131  c1.547-1.057,2.753-7.855,3.186-9.589c-3.5,0.204-6.642-1.066-10.124-1.066C98.525,14.955,98.78,22.038,97.715,23.479"
     id="path17"
     style="fill-rule:evenodd;clip-rule:evenodd;fill:#007F00;" />
  <path
     d="M94.527,29.872c-0.694,1.115-1.164,2.312,0,3.196  c-3.626,0.261,2.124,9.444,2.124,10.122c0,1.93,11.146,7.487,11.958,3.414c0.688-3.444,0.788-6.46,0.788-9.985  c0-1.416-0.512-2.919-0.788-4.301c-0.296-1.484-1.335-1.122-1.335-1.934c0-2.375-4.65-2.085-7.043-2.564  C97.333,27.238,95.617,27.464,94.527,29.872"
     id="path19"
     style="fill-rule:evenodd;clip-rule:evenodd;fill:#3F9F3F;" />
  <path
     d="M182.683,36.265c0.354,0.355,0.707,0.71,1.062,1.065  c-0.354,0-0.708,0-1.062,0c1.165,3.508,2.34,6.914,2.124,10.655c3.183-1.065,8.001-1.636,10.4-4.042  c4.116-4.127,3.188-5.39,2.538-11.256C196.595,22.309,186.466,32.469,182.683,36.265"
     id="path21"
     style="fill-rule:evenodd;clip-rule:evenodd;fill:#3F9F3F;" />
  <path
     d="M200.738,32.003c0.906,2.729,1.062,4.594,1.062,7.458  c2.296-1.724,5.311-1.09,5.311-4.814C207.11,29.322,204.297,30.216,200.738,32.003"
     id="path23"
     style="fill-rule:evenodd;clip-rule:evenodd;fill:#007F00;" />
  <path
     d="M128.516,38.396c1.318,0,8.496,0.481,8.496-0.552  c0-2.886-2.67-5.596-4.248-7.971C131.714,33.033,129.821,35.377,128.516,38.396"
     id="path25"
     style="fill-rule:evenodd;clip-rule:evenodd;fill:#007F00;" />
  <path
     d="M151.881,38.396c2.527,1.881,6.706-0.283,8.497,2.131  c0.424-3.661-2.062-6.205-3.187-9.59C155.966,33.766,154.146,36.316,151.881,38.396"
     id="path27"
     style="fill-rule:evenodd;clip-rule:evenodd;fill:#007F00;" />
  <path
     d="M86.031,34.134c1.326,1.801,1.061,3.742,1.061,5.84  c0,1.036,3.222,0.553,4.249,0.553c-1.581-2.143-0.012-4.494-1.063-6.393C89.51,32.745,87.542,32.413,86.031,34.134"
     id="path29"
     style="fill-rule:evenodd;clip-rule:evenodd;fill:#007F00;" />
  <path
     d="M112.584,42.658c-1.149,4.397,4.679,0.85,6.373,0  c-1.038-1.282-0.951-3.042-2.124-4.262c-0.936-0.973-2.91-0.168-4.249-2.131C112.584,38.396,112.584,40.527,112.584,42.658"
     id="path31"
     style="fill-rule:evenodd;clip-rule:evenodd;fill:#007F00;" />
  <path
     d="M199.677,54.378c2.526,1.196,11.793,0.725,12.909-2.63  c1.64-4.928,1.024-8.827-1.228-13.352c-3.565,2.05-6.036,2.862-9.027,5.86C199.108,47.485,199.677,49.943,199.677,54.378"
     id="path33"
     style="fill-rule:evenodd;clip-rule:evenodd;fill:#3F9F3F;" />
  <path
     d="M178.434,39.461c-1.249,1.255-2.42,3.211-4.248,3.197  c0.475,2.204,6.371,4.432,6.371,2.663c0-2.775,0.119-4.913-2.123-6.925C178.434,38.75,178.434,39.106,178.434,39.461"
     id="path35"
     style="fill-rule:evenodd;clip-rule:evenodd;fill:#007F00;" />
  <path
     d="M86.031,70.36c-2.81,0.766-4.333,4.346-6.314,6.333  c-2.716,2.724-3.938,5.203-7.453,6.966c-5.301,2.658-9.232,8.012-15.538,8.012c-3.236,0-6.292,1.064-9.559,1.064  c-2.116,0-6.089,0.824-8.399,1.598c-6.35,2.123-13.537,0.263-20.214,2.497c-4.232,1.417-15.042,4.779-16.428,9.758  c-0.113,0.406,1.061,2.864,1.061,3.708c0,1.726,1.655,1.617,2.897,1.617c3.981,0,7.078-0.104,10.91-1.064  c3.464-0.869,6.087-1.065,9.678-1.065c1.423,0,3.604-0.525,4.661,0.532c1.335,1.335,0.265,1.598-1.03,1.598  c-5.775,0-14.634,1.359-19.681,4.265c12.963,0,26.429-1.079,39.297,0.532c3.836,0.479,7.49,0.531,11.365,0.531  c3.418,0,6.425,2.131,9.347,2.131c1.903,0,2.242,0.571,3.718,1.064c0.549,0.184,2.657,0.776,3.187,1.066  c0.72,0.395,2.08,2.999,3.188,2.132c1.118-0.875-1.221-4.493-1.064-5.329c0.76-4.06,3.191-1.053,3.859,0.959  c1.227,3.692,2.671,7.009,5.7,9.697c3.731,3.312,15.729,7.561,10.62,14.916c-1.325,1.907-6.145,4.789-8.497,5.328  c-2.388,0.547-6.733-1.217-7.433,1.064c-1.938,6.325,14.622,1.59,16.982,0.644c4.582-1.839,6.851-4.112,9.804-8.063  c2.399-3.208,1.89-5.836,1.89-9.943c0-8.116-5.941-14.729-10.62-20.995c1.581,2.382,5.711,6.886,3.184,9.59  c-1.31-2.628-2.881-6.703-5.31-8.523c-1.229-0.921-8.497-2.085-8.497-3.729c0-1.452,2.124,0.395,2.124-1.085  c0-1.99,1.097-2.064,3.187-1.578c2.805,0.653,6.442,3.397,8.496,5.325c4.161,3.905,9.56,10.429,9.56,16.417  c0,4.592,1.103,4.747,5.226,5.338c4.289,0.614,7.808,0.234,12.147-0.25c3.245-0.361,6.445-1.259,9.711-1.259  c3.237,0,5.999-1.825,9.028-3.197c2.2-0.997,8.07,0.116,9.559-1.066c1.172-0.931,0-6.893,0-9.057c0-7.25-3.103-13.384-2.124-20.776  c0.447-3.383,1.981-6.74,2.655-10.122c0.467-2.341,3.443-6.664,5.842-7.991c0.687-0.38,5.708-1.338,6.371-1.065  c0.155,0.063-3.469,2.535-4.247,3.197c-5.021,4.268-6.529,7.325-7.646,14.052c-0.878,5.285-0.515,11.086,2.335,15.78  c1.362,2.242,2.802,4.557,3.974,6.906c0.794,1.593-4.139,2.894-3.974-0.514c0,3.825,0.797,6.262,2.241,9.885  c1.382,3.465,5.193,9.379,5.193,12.992c0,2.204-0.531,4.292,1.062,5.893c1.722,1.728,3.456,3.452,2.656,5.859  c-1.721,5.182-5.786,4.027-9.028,7.991c0.943-0.631,9.56-5.807,9.56-2.663c0,3.611-6.29,2.543-5.312,6.927  c3.044-1.331,4.578-3.198,7.999-3.198c2.713,0-2.246,3.968-2.688,4.262c3.104-1.569,4.765,0,7.867,0  c3.071,0,4.534-1.063,6.451-1.063c1.564,0,4.799-3.035,4.799-3.731c0-3.386-0.603-4.938-2.124-7.99  c-2.587-5.19-4.309-9.439-2.007-15.211c1.482-3.718,3.158-5.063,5.193-8.229c0.78-1.214,1.169-2.932,1.702-4.271  c0.61-1.53,2.152-1.33,2.822-2.674c1.148-2.307,1.848-3.811,1.848-6.372c0-0.624,1.505-0.92,2.124-0.532  c1.954,1.225,0.3,2.939,0,4.259c-0.278,1.229-2.372,5.328-1.593,5.328c0.615,0,4.214-3.356,4.779-4.262  c1.265-2.025,1.646-6.568,2.36-8.958c0.991-3.313,0.249-5.079-0.607-8.517c-1.79-7.183-4.598-10.701-9.187-16.621  c5.126-4.842,12.256,12.961,13.118,16.417c2.325,9.325-2.072,16.101-7.81,23.006c1.583,0.56,2.855,1.584,4.249,2.132  c1.515,0.596,3.458,0.669,4.8,1.342c1.285,0.645,3.02,2.92,4.248,2.92c1.498,0,4.279,0.584,5.291,1.598  c2.633,2.637,8.884,2.948,12.41,3.454c4.167,0.598,8.199,1.997,12.37,2.519c7.201,0.901,20.253,2.162,25.139-4.373  c5.263-7.041-2.918-18.377-7.966-23.441c4.537,4.553,5.477,7.124,2.399,13.299c-3.628,7.279-14.175,3.943-20.063,2.763  c-2.403-0.482-6.155-4.035-8.575-5.248c-1.125-0.564-4.913-7.395-5.625-8.682c-2.998-5.421-5.579-10.574-8.261-16.852  c-1.551-3.629-3.162-6.931-5.113-10.357c-0.805-1.412-1.422-2.551-2.558-3.69c-1.46-1.465-0.219-3.417-1.394-4.596  c-5.271-5.288-8.609-11.831-13.928-17.168c-2.337-2.345-5.205-3.805-8.035-5.508c-2.664-1.603-5.234-4.693-7.976-4.693  c-1.846,0-4.612-2.648-6.551-3.513c-3.411-1.521-6.831-3.542-10.509-4.279c-7.644-1.533-15.713-3.928-23.518-3.928  c-8.508,0-16.273,2.138-24.504,4.202c-7.668,1.922-13.274,6.647-19.686,10.936C95.32,59.886,91.348,65.026,86.031,70.36"
     id="path37"
     style="fill-rule:evenodd;clip-rule:evenodd;fill:#7FDE4F;" />
  <path
     d="M81.781,50.116c1.659,0.053,1.353,1.155,1.753,2.762  c0.52,2.084,1.579,1.983,3.594,2.792c2.699,1.083,7.399,2.228,7.399-1.806c0-1.843,0.187-7.384-1.377-8.168  c-3.546-1.779-6.361-2.379-10.305-3.038C82.846,45.171,83.372,47.969,81.781,50.116"
     id="path39"
     style="fill-rule:evenodd;clip-rule:evenodd;fill:#3F9F3F;" />
  <path
     d="M216.67,45.854c0,2.244,0.355,4.472-1.063,6.394  c3.271,0,5.311,1.062,5.311-2.63C220.918,47.189,219.563,42.162,216.67,45.854"
     id="path41"
     style="fill-rule:evenodd;clip-rule:evenodd;fill:#007F00;" />
  <path
     d="M187.993,50.116c2.447-0.113,1.416,2.131,3.717,2.131  c1.6,0,3.13,1.892,3.718,3.196c1.002-3.016,1.062-5.36,1.062-8.524C193.842,48.56,190.641,48.475,187.993,50.116"
     id="path43"
     style="fill-rule:evenodd;clip-rule:evenodd;fill:#007F00;" />
  <path
     d="M97.715,47.985c0,2.486,0,4.972,0,7.458  c1.414-1.72,3.311-2.252,4.779-3.729C103.835,50.366,98.852,48.556,97.715,47.985"
     id="path45"
     style="fill-rule:evenodd;clip-rule:evenodd;fill:#007F00;" />
  <path
     d="M76.472,49.05c0,2.19-0.933,4.262,1.594,4.262  c1.005,0,0.53-4.19,0.53-5.327C77.924,48.322,77.045,48.572,76.472,49.05"
     id="path47"
     style="fill-rule:evenodd;clip-rule:evenodd;fill:#007F00;" />
  <path
     d="M213.483,59.705c0.151,1.521-1.441,6.267-0.565,6.56  c4.278,1.431,7.442,0.672,9.903-3.03c0.837-1.261,2.736-7.792-0.222-7.792C219.399,55.443,214.388,55.763,213.483,59.705"
     id="path49"
     style="fill-rule:evenodd;clip-rule:evenodd;fill:#3F9F3F;" />
  <path
     d="M81.781,68.229c1.669-8.349-0.846-9.528-8.495-11.72  C73.286,62.926,73.329,69.046,81.781,68.229"
     id="path51"
     style="fill-rule:evenodd;clip-rule:evenodd;fill:#3F9F3F;" />
  <path
     d="M201.8,57.574c-0.622,2.813,1.607,2.074,3.186,3.196  c1.178,0.837,2.687,5.045,4.249,4.263c0.071-0.036,1.483-6.989,1.063-7.459C209.644,56.843,202.909,57.574,201.8,57.574"
     id="path53"
     style="fill-rule:evenodd;clip-rule:evenodd;fill:#007F00;" />
  <path
     d="M84.969,59.705c2.04,2.362-0.325,4.741,0,7.459  c3.326-2.224,5.094-3.612,6.372-7.459C89.217,59.705,87.093,59.705,84.969,59.705"
     id="path55"
     style="fill-rule:evenodd;clip-rule:evenodd;fill:#007F00;" />
  <path
     d="M65.85,62.902c0.766,0.605,0.895,3.107,1.063,3.196  c2.417,1.283,2.124-1.253,2.124-2.664c0-1.957,0.576-2.664-1.573-2.664C65.905,60.771,65.395,61.13,65.85,62.902"
     id="path57"
     style="fill-rule:evenodd;clip-rule:evenodd;fill:#007F00;" />
  <path
     d="M226.229,61.836c0,1.022-0.582,4.262,0.551,4.262  c0.845,0,3.435,0.394,3.918-0.333C233.514,61.531,230.479,58.672,226.229,61.836"
     id="path59"
     style="fill-rule:evenodd;clip-rule:evenodd;fill:#007F00;" />
  <path
     d="M220.918,76.753c-0.524,0.556,0.489,1.444-1.063,1.065  c6.669,2.232,11.684-2.32,11.684-9.089c0-1.27-5.479-0.388-6.433,0.25C222.089,70.997,221.779,73.297,220.918,76.753"
     id="path61"
     style="fill-rule:evenodd;clip-rule:evenodd;fill:#3F9F3F;" />
  <path
     d="M66.912,69.294c0,3.976,0.989,8.523,5.876,8.523  c0.684,0,0.879-4.475,0.498-5.327C72.338,70.371,69.069,68.946,66.912,69.294"
     id="path63"
     style="fill-rule:evenodd;clip-rule:evenodd;fill:#3F9F3F;" />
  <path
     d="M213.483,70.36c-0.354,0-0.709,0-1.063,0  c1.439,1.065,2.125,2.018,2.125,3.729c0,0.885,2.218,0.725,2.125,2.664c2.787-1.918,2.123-4.437,2.123-7.458  C217.244,70.445,215.34,70.551,213.483,70.36"
     id="path65"
     style="fill-rule:evenodd;clip-rule:evenodd;fill:#007F00;" />
  <path
     d="M75.409,70.36c1.418,1.922,1.063,4.149,1.063,6.393  c0.45-0.451,4.339-3.673,4.251-4.262C80.543,71.281,76.316,70.756,75.409,70.36"
     id="path67"
     style="fill-rule:evenodd;clip-rule:evenodd;fill:#007F00;" />
  <path
     d="M231.539,77.818c1.321,0.328,2.4-0.007,3.187-1.065  c-0.596-0.54-0.523-0.467-1.063-1.066C232.973,76.381,232.146,77.051,231.539,77.818"
     id="path69"
     style="fill-rule:evenodd;clip-rule:evenodd;fill:#007F00;" />
  <path
     d="M60.54,77.818c0,4.865,0.55,4.134,5.31,5.329  C66.48,80.32,63.154,77.771,60.54,77.818"
     id="path71"
     style="fill-rule:evenodd;clip-rule:evenodd;fill:#3F9F3F;" />
  <path
     d="M225.167,90.604c3.225,1.364,5.674,1.768,8.164-0.732  c0.819-0.822,2.363-7.791,0.863-7.791c-2.565,0-5.048-2.792-7.124,0.332C225.063,85.433,225.167,86.996,225.167,90.604"
     id="path73"
     style="fill-rule:evenodd;clip-rule:evenodd;fill:#3F9F3F;" />
  <path
     d="M219.855,82.081c0.801,1.202,1.326,1.992,2.124,3.196  C222.317,83.303,222.262,81.462,219.855,82.081"
     id="path75"
     style="fill-rule:evenodd;clip-rule:evenodd;fill:#007F00;" />
  <path
     d="M235.787,91.671c1.195,0.896,4.261,1.86,5.311,0  c1.271-2.253-2.09-3.032-3.188-4.264C237.928,89.365,235.77,89.713,235.787,91.671"
     id="path77"
     style="fill-rule:evenodd;clip-rule:evenodd;fill:#007F00;" />
  <path
     d="M227.291,94.865c0.938,0.479,1.51,0.444,1.062,2.132  c0.727-0.557,1.569-1.403,2.123-2.132C229.433,94.865,228.328,94.76,227.291,94.865"
     id="path79"
     style="fill-rule:evenodd;clip-rule:evenodd;fill:#007F00;" />
  <path
     d="M233.663,106.588c2.388,0,7.435-0.038,7.435-3.751  c0-2.737,0.998-6.405-1.573-7.695c-3.21-1.61-5.123,1.114-7.143,3.142C230.018,100.656,232.465,104.183,233.663,106.588"
     id="path81"
     style="fill-rule:evenodd;clip-rule:evenodd;fill:#3F9F3F;" />
  <path
     d="M15.932,102.323c-3.816,0.318,2.844,6.518,5.311,4.265  C23.98,104.087,18.8,98.675,15.932,102.323"
     id="path83"
     style="fill-rule:evenodd;clip-rule:evenodd;" />
  <path
     d="M267.65,109.783c1.229,2.726,1.741,2.398,3.187,0  c1.637-2.717,0.945-4.613,0-7.46C271.062,105.024,270.88,109.077,267.65,109.783"
     id="path85"
     style="fill-rule:evenodd;clip-rule:evenodd;fill:#007F00;" />
  <path
     d="M253.843,108.718c0.808,1.029,1.881,1.357,3.188,1.065  c-3.453-1.204-3.961-4.226-6.373-6.394C251.378,105.444,253.121,106.663,253.843,108.718"
     id="path87"
     style="fill-rule:evenodd;clip-rule:evenodd;fill:#007F00;" />
  <path
     d="M243.222,104.456c-2.178,3.277-4.195,5.828-8.496,5.327  c0.321,1.846,1.448,2.49,3.185,2.13c1.905-0.396,1.517-2.117,3.188-3.195c1.203-0.776,4.249,1.078,4.249-1.598  C245.347,105.554,245.063,104.371,243.222,104.456"
     id="path89"
     style="fill-rule:evenodd;clip-rule:evenodd;fill:#007F00;" />
  <path
     d="M248.532,105.521c-1.579,1.414,2.006,6.156,3.05,8.249  c1.651,3.313-1.906,6.192-4.146,7.54c-4.234,2.55-0.172,3.094,2.927,4.336c3.026,1.214,6.039,1.184,9.224,1.184  c3.902,0,4.052-0.329,5.939-3.195c1.064-1.616,3.379-6.487-0.255-7.53C257.636,113.914,253.512,111.763,248.532,105.521"
     id="path91"
     style="fill-rule:evenodd;clip-rule:evenodd;fill:#FFFFFF;" />
  <path
     d="M243.222,119.372c0,0.354,0,0.71,0,1.064  c2.262-1.678,4.363-0.105,5.311-3.195c0.203-0.664-0.775-6.201-1.063-6.394c-1.013-0.679-6.372,0.869-6.372,1.565  C241.098,115.294,241.925,116.771,243.222,119.372"
     id="path93"
     style="fill-rule:evenodd;clip-rule:evenodd;fill:#3F9F3F;" />
  <path
     d="M262.339,112.979c0,0.355,0,0.71,0,1.065  C262.339,113.689,262.339,113.335,262.339,112.979"
     id="path95"
     style="fill-rule:evenodd;clip-rule:evenodd;fill:#007F00;" />
  <path
     d="M76.472,124.7c0.354,0.354,0.709,0.71,1.063,1.064  c-0.354,0-0.709,0-1.063,0c1.596,2.401,1.469,5.738,3.188,7.459c2.482,2.486-0.822,5.264-3.188,6.394  c-1.07,0.511-2.229,0.655-3.186,1.066c0.006-0.002-4.049,1.063-1.572,1.063c2.819,0,5.638,0,8.457,0  c2.277,0,4.918,0.473,6.962-0.552c2.013-1.01,3.146-0.914,3.146-3.177c0-0.932,0.462-3.729-0.53-3.729  c0.415,0-3.88-4.73-4.779-5.327C82.268,127.169,79.651,125.621,76.472,124.7"
     id="path97"
     style="fill-rule:evenodd;clip-rule:evenodd;fill:#3F9F3F;" />
  <path
     d="M139.136,135.354c0,4.02-0.773,5.038-3.187,7.459  c-1.387,1.392-2.522,0.844-2.124,3.196c0.102,0.599,2.856-0.712,2.124,2.132c1.601-0.802,4.063-3.021,5.312-1.065  c1.593,2.494-1.915,1.693-2.125,2.131c-2.226,4.637,2.912,2.13,5.808,2.13c5.21,0,8.654,0.742,7.581-5.712  c-0.931-5.599-0.613-9.284,1.479-14.531C149.074,133.071,144.346,134.31,139.136,135.354"
     id="path99"
     style="fill-rule:evenodd;clip-rule:evenodd;fill:#3F9F3F;" />
  <path
     d="M133.825,151.336  C136.396,150.652,133.468,147.355,133.825,151.336"
     id="path101"
     style="fill-rule:evenodd;clip-rule:evenodd;fill:#007F00;" />
</svg>
