<?xml version="1.0" encoding="UTF-8" standalone="no"?>
<!-- Generator: Adobe Illustrator 12.0.0, SVG Export Plug-In . SVG Version: 6.00 Build 51448)  -->
<svg
   xmlns:dc="http://purl.org/dc/elements/1.1/"
   xmlns:cc="http://web.resource.org/cc/"
   xmlns:rdf="http://www.w3.org/1999/02/22-rdf-syntax-ns#"
   xmlns:svg="http://www.w3.org/2000/svg"
   xmlns="http://www.w3.org/2000/svg"
   xmlns:sodipodi="http://sodipodi.sourceforge.net/DTD/sodipodi-0.dtd"
   xmlns:inkscape="http://www.inkscape.org/namespaces/inkscape"
   height="198.343"
   id="Layer_1"
   space="preserve"
   style="overflow:visible;enable-background:new 0 0 275.366 198.343;"
   version="1.1"
   viewBox="0 0 275.366 198.343"
   width="275.366"
   sodipodi:version="0.32"
   inkscape:version="0.45.1"
   sodipodi:docname="gallo_di_profilo_archit_03r.svg"
   sodipodi:docbase="/Users/johnolsen/Desktop/openclipart-0.20-pre/recovered-zerobyte-files/animals/birds"
   inkscape:output_extension="org.inkscape.output.svg.inkscape">
  <defs
     id="defs50" />
  <sodipodi:namedview
     inkscape:window-height="480"
     inkscape:window-width="640"
     inkscape:pageshadow="2"
     inkscape:pageopacity="0.0"
     guidetolerance="10.0"
     gridtolerance="10.0"
     objecttolerance="10.0"
     borderopacity="1.0"
     bordercolor="#666666"
     pagecolor="#ffffff"
     id="base" />
  <metadata
     id="metadata3">
    <rdf:RDF>
      <cc:Work
         rdf:about="">
        <dc:title>Gallo di profilo</dc:title>
        <dc:description />
        <dc:subject>
          <rdf:Bag>
            <rdf:li>animal bird rooster</rdf:li>
          </rdf:Bag>
        </dc:subject>
        <dc:publisher>
          <cc:Agent
             rdf:about="http://www.openclipart.org/">
            <dc:title>Open Clip Art Library</dc:title>
          </cc:Agent>
        </dc:publisher>
        <dc:creator>
          <cc:Agent>
            <dc:title>Architetto Francesco Rollandin</dc:title>
          </cc:Agent>
        </dc:creator>
        <dc:rights>
          <cc:Agent>
            <dc:title>Architetto Francesco Rollandin</dc:title>
          </cc:Agent>
        </dc:rights>
        <dc:date />
        <dc:format>image/svg+xml</dc:format>
        <dc:type
           rdf:resource="http://purl.org/dc/dcmitype/StillImage" />
        <cc:license
           rdf:resource="http://web.resource.org/cc/PublicDomain" />
        <dc:language>en</dc:language>
      </cc:Work>
      <cc:License
         rdf:about="http://web.resource.org/cc/PublicDomain">
        <cc:permits
           rdf:resource="http://web.resource.org/cc/Reproduction" />
        <cc:permits
           rdf:resource="http://web.resource.org/cc/Distribution" />
        <cc:permits
           rdf:resource="http://web.resource.org/cc/DerivativeWorks" />
      </cc:License>
    </rdf:RDF>
  </metadata>
  <path
     d="M224.526,1.256c22.99,2.918,44.719,14.281,50.109,38.523  c2.754,12.382-1.899,40.738-20.518,37.341c28.804-9.512,18.9-43.198-5.392-55.616c-13.346-6.823-29.192-8.693-43.401-7.494  c-15.055,1.271-29.577,4.702-42.613,12.622c18.601-5.772,37.186-9.924,56.725-4.426c16.76,4.716,43.611,17.824,38.761,39.794  c-1.144,5.18-10.953,14.829-10.26,7.363c0.229-2.472,2.819-4.485,2.762-8.152c-0.094-5.95-2.631-11.157-6.708-15.514  c-12.644-13.51-30.283-14.076-46.164-16.041c-9.758,2.688-21.477,1.361-31.696,6.311c19.091-1.75,36.341-3.533,54.385,5.851  c12.326,6.41,23.601,21.327,21.767,35.96c-0.959,7.655-4.08,14.129-6.643,21.3c-1.549,4.336,0.036,10.997-0.395,15.711  c-0.331,3.641-2.802,13.007,4.144,10.452c-1.655,1.72-5.264,0.31-7.103-1.84c-4.263-4.983-0.873-13.239,0.594-18.604  c2.799-10.243-2.263-23.146-7.302-32.016c2.008,10.361,2.104,19.908-3.155,29.583c-0.824,1.516-12.413,19.205-12.626,19.195  c-3.618-0.169-3.434-16.646-4.078-19.327c-2.142-8.914-6.892-20.114-15.256-24.455c14.004,17.421,8.859,40.832-9.602,52.197  c-1.639,1.009-8.986,6.304-9.995,5.39c-0.905-0.82,3.507-12.664,3.881-14.527c1.146-5.721,1.396-11.281,0.197-17.027  c0.196,9.623-3.719,19.316-10.785,25.902c-3.578,3.335-9.958,4.661-11.443,9.598c-0.016-0.019-0.52-0.012-0.526,0  c-1.949-10.169,5.95-21.154,4.866-31.423c-0.889-8.423-5.946-16.435-14.203-19.854c-0.559,3.979,4.199,5.458,6.049,8.941  c3.271,6.158,1.314,12.427-1.708,18.145c-2.184,4.131-12.407,23.437,0,22.745c-9.289,4.13-8.047-6.236-9.207-11.965  c-3.829,6.741-7.762-15.119-7.498-18.406c-2.079,0.023-6.581,2.702-6.313,4.733c0.138,1.046,2.759,0.894,2.763,0.92  c-0.353-2.652,3.052,4.812,1.446,2.76c-2.27-2.9,2.132,5.61,1.58,3.288c0.629,2.642,2.856,8.81,3.418,12.622  c-8.915-12,0.117,4.892-1.71,8.809c-1.155-2.357-2.357-4.692-3.683-6.968c-0.475,1.401,2.918,12.63,1.447,13.279  c-0.253,0.111-4.606-10.558-5.392-11.438c0.433,5.129,3.313,11.459,2.366,16.829c-0.088,0-0.175,0-0.263,0  c-0.916-2.894-1.868-5.786-2.762-8.678c0.346,2.048,0.157,4.464,0,6.179c-0.822-2.354-1.569-4.735-2.498-7.099  c0.077,3.988,0.737,8.215-0.92,11.964c-1.101-2.522-1.17-6.229-1.71-9.335c-0.122,3.038-0.468,6.231-1.578,9.072  c0-0.002-0.387-0.012-0.395,0c-0.114-2.536-0.163-5.322-0.525-7.889c-2.599,1.901-2.127,5.975-4.341,8.808  c0.064-2.787,0.447-5.496,0.527-8.281c-1.4,2.113-2.553,5.629-4.472,7.362c1.457-10.173,0.176-7.125-6.183-2.893  c-0.13-0.132-0.261-0.264-0.393-0.396c1.141-1.749,1.683-3.582,2.629-5.391c-1.356,1.865-3.365,3.295-5.26,3.683  c1.125-1.512,1.692-3.431,2.499-4.865c-1.294,1.075-2.692,1.453-3.946,2.234c3.664-3.542-0.568-6.185-4.866-7.1  c-2.11-0.449-6.166-1.057-8.287,1.447c-3.099,3.659-0.65,3.335-0.131,6.705c0.887,5.765,2.042,3.723-1.71,8.284  c-3.286,3.995-6.2,6.628-8.155,11.701c15.329,2.387,35.293-1.29,49.453-7.363c2.813-1.207,16.305-6.881,7.233-1.445  c-5.545,3.321-11.181,6.873-17.492,8.546c7.965-0.483,16.429-5.499,23.672-5.655c-5.13,5.143-17.67,8.065-24.593,9.797  c-9.922,2.481-20.05,3.479-30.25,3.943c-3.921,0.179-10.137-1.886-12.626,0.593c-6.946,6.915,11.133,4.739,14.795,5.784  c3.501,0.998,14.661-1.805,12.562,5.916c-1.701-3.845-6.755-2.229-10.391-1.972c2.763,7.022-1.299,0.559-4.208,0.656  c-0.843,0.028-2.597,2.424-4.472,2.762c-3.03,0.546-6.681-0.227-9.996,0c-8.693,0.593-14.2,1.766-22.358,4.207  c-5.407,1.618-12.282-0.299-15.256,4.733c-0.388-2.507,0.487-4.839,2.368-6.573c-3.733-1.068-10.601-3.316-12.626-0.658  c-2.709-9.453,10.386-3.847,13.546-4.863c-1.271-1.257-5.7-3.52,0.132-4.603c4.391-0.815,8.231,2.087,13.152,1.316  c6.172-0.967,6.844-2.797,10.785-8.22c8.251-11.354,19.548-28.656,2.434-36.419c-17.092-7.753-30.196-21.895-43.731-34.578  C1.478,90.321-7.25,73.594,8.043,58.318c1.052-1.051,2.943-1.067,3.683-1.972c0.706-0.861-0.612-2.119,0-2.893  c2.119-2.682,3.933-5.595,7.233-7.099c4.257-1.94,8.836-0.312,12.495-4.076c-3.525-1.132-2.439-3.077,0.526-4.47  c-5.409,0.04-10.713-3.604-9.47-8.152c0.113-0.415,3.247,1.795,3.419,1.183c0.593-2.1-0.876-1.863-0.921-3.944  c-0.255-11.927-1.551-3.924,6.181-2.104c0.615-3.412-3.185-14.645,2.762-12.885c7.456,2.206,0.926,10.182,7.103,1.447  c1.804-2.552,7.319-11.341,11.047-9.204c2.782,1.595-2.661,3.688-2.762,5.785c-0.328,6.793,7.986-1.444,12.758-3.024  c9.647-3.194,6.918-0.676,2.367,4.732c0.132-0.044,0.176,0,0.132,0.132c3.793-0.565,21.748-11.152,25.121-5.127  c1.012,1.807-11.11,6.719-13.811,7.888c10.699,3.179,22.677-3.323,32.683-6.179c4.57-1.304,15.538-5.107,9.404,1.315  c-2.953,3.091-8.677,4.985-12.232,7.494c-4.666,3.293-8.942,7.09-13.808,10.124c-7.132,4.447-14.642,7.012-23.017,7.757  c14.605,5.407,24.278,25.93,11.047,37.603c4.647,1.875,10.285,1.04,15.257,2.367c3.285,0.877,9.721,4.894,11.047,1.249  c6.376-17.52,11.642-33.635,25.844-47.003c18.969-17.854,43.156-27.3,68.983-28.925C208.82-0.148,216.901-0.308,224.526,1.256   M123.65,124.059c-0.396-0.465-1.065-0.066-0.79-1.184C123.523,123.214,123.256,123.595,123.65,124.059 M122.204,131.29  c-0.213-0.469-0.562-0.92-0.658-1.578C121.761,130.126,122.007,130.857,122.204,131.29 M124.834,118.536  C124.16,117.775,124.05,117.65,124.834,118.536 M120.889,118.141C120.771,118.175,120.139,118.356,120.889,118.141 M115.233,144.568  c-0.003-0.028-0.354-1.347-0.264-1.84C115.169,143.341,115.148,143.89,115.233,144.568 M61.572,179.937  c0.394-0.976,0.533-1.838,1.184-2.761C62.395,178.073,61.959,178.98,61.572,179.937 M68.412,168.628  c0.293-2.854,2.776-7.599,5.524-9.597C72.272,162.331,70.45,165.541,68.412,168.628 M77.091,145.095  c0.371,1.86,0.187,3.883-0.394,5.653C74.853,148.924,74.625,141.814,77.091,145.095"
     style="fill-rule:evenodd;clip-rule:evenodd;"
     id="path5" />
  <path
     d="M60.783,32.943c2.545,2.882,7.492,2.049,10.717,4.626  c7.033,5.622,14.307,12.501,13.615,22.327c-0.675,9.595-7.578,13.646-15.586,17.289c-6.336,2.883-13.204,0.987-19.399,4.536  c-0.251-0.289-0.721-1.676-0.921-2.104c-0.274,0.59-0.436,1.308-0.789,1.972c-1.845-1.816-3.586-2.589-5.656-5.127  c-0.088,0.087-0.176,0.175-0.263,0.263c0.771,0.986,1.406,2.057,2.104,3.024c-1.368-2.278-3.432-4.032-6.05-4.338  c2.366,0.899,3.995,2.698,4.603,5.127c-5.911-3.618-15.833-3.9-13.415-13.148c-3.048,3.763,0.174,8.836,3.946,10.913  c-7.144-0.186-9.773-5.285-8.023-11.833c-1.866,2.111-1.789,5.241-0.92,8.021c-5.166-3.305-3.986-11.007,0.263-14.594  c-2.394,0.585-4.582,3.02-6.05,5.39C21.516,58.423,31.91,54.023,36.32,47.8c2.803-3.955,3.577-5.45,8.417-7.889  c-0.502-1.064-0.608-0.642-1.447-1.052c0.32-0.207,1.48-1.222,1.579-1.577c0.556,2.051-1.472,5.649,1.183,6.179  c2.098,0.419,5.354-0.365,6.97-0.526c5.252-0.521,15.155-4.995,4.866-9.993C59.273,32.247,59.877,32.703,60.783,32.943"
     style="fill-rule:evenodd;clip-rule:evenodd;fill:#702900;"
     id="path7" />
  <path
     d="M49.472,35.179c-1.274,1.291-1.122,3.614-3.156,0.788  c2.831,0.573,3.146,0.351,1.184-1.84C48.735,33.879,49.012,34.39,49.472,35.179 M34.742,39.123c1.52-0.217,2.958-0.547,4.472-0.527  c0,0.088,0,0.175,0,0.263c-2.744,0.125-5.439,0.648-8.154,0.921C33.204,37.897,33.679,38.909,34.742,39.123 M36.979,40.438  c-1.765,0.467-2.969,1.056-4.867,0.525C33.767,40.381,35.292,40.417,36.979,40.438 M47.763,39.517  C53.767,44.17,40.798,41.462,47.763,39.517"
     style="fill-rule:evenodd;clip-rule:evenodd;fill:#FFB800;"
     id="path9" />
  <path
     d="M35.663,43.33c-1.93,5.121-9.509,9.719-14.599,7.494  C28.107,50.583,31.233,46.987,35.663,43.33"
     style="fill-rule:evenodd;clip-rule:evenodd;"
     id="path11" />
  <path
     d="M22.116,46.748c-4.407,1.55-7.841,4.291-8.681,8.81  C11.507,51.641,18.217,46.971,22.116,46.748 M60.783,36.756c2.042,7.364-8.668,6.522-11.837,2.235  C52.222,36.275,56.302,29.177,60.783,36.756 M40.397,41.095c-5.924,2.191-6.31,9.627-10.814,13.765  c-2.382,2.188-14.151,11.228-16.411,5.957c-1.899-4.43,5.368-11.237,8.349-12.573c3.029-1.357,6.58-1.164,9.538-2.416  C34.576,44.34,36.144,41.262,40.397,41.095 M51.972,5.727c-4.944,3.537-5.825,8.019,0.526,7.1  c5.106-0.739,10.245-5.556,15.915-6.442c-4.67,3.648-7.166,9.466,1.285,4.679c6.311-3.574,11.503-3.872,18.574-3.627  c-5.488,3.858-23.178,8.744-4.993,7.93c12.417-0.556,23.576-8.196,35.637-8.324c-7.448,7.644-22.034,16.602-31.729,21.447  c-4.923,2.461-11.122,5.891-16.827,5.272c-6.955-0.755-12.021-5.864-19.178-6.734c-5.257-0.64-16.446,1.152-14.993,9.072  c-5.202,1.679-12.333,0.393-13.678-5.391c8.205,4.578,1.832-6.731,2.368-10.124c0.281,2.001,4.146,6.397,6.444,5.259  c2.327-1.153-1.275-10.422,1.578-13.805C42.903,31.412,40.563,0.849,51.972,5.727"
     style="fill-rule:evenodd;clip-rule:evenodd;fill:#E05200;"
     id="path13" />
  <path
     d="M107.473,75.805C108.436,74.175,107.69,75.437,107.473,75.805"
     style="fill-rule:evenodd;clip-rule:evenodd;fill:#4F0800;"
     id="path15" />
  <path
     d="M151.27,75.542c15.421,4.033,26.5,19.184,21.636,35.696  c-3.707,12.584-10.016,17.499-19.663,24.521c-0.071-7.441,3.896-17.242,5.524-24.718c1.6-7.34,4.982-14.467,7.496-21.563  c3.231,5.855,4.766,13.734,3.288,20.378c-1.619,7.283-7.693,10.879-11.572,16.698c10.807-10.593,17.723-21.042,9.862-36.945  c-6.612-13.377-18.793-12.833-31.302-12.358C141.536,75.636,146.426,74.914,151.27,75.542 M136.539,106.966  c-1.337,1.435-3.071,2.564-4.733,3.549C130.393,106.63,134.463,103.682,136.539,106.966 M137.459,108.938  c-0.181,5.282-3.29,9.872-2.893,15.251C128.695,117.968,133.511,113.519,137.459,108.938 M147.193,95.659  c7.485,10.614-4.331,22.221-8.024,31.817c0.652-4.923,3.411-8.897,4.341-13.675c0.949-4.879-0.689-7.197-1.71-11.438  c-0.815-3.386-1.919-2.263-0.657-6.048c0.493-1.48,1.044-2.602,1.315-4.076C144.309,92.888,145.987,94.057,147.193,95.659   M164.159,85.666c-1.127,6.368-3.963,12.06-6.313,18.014c-2.248-5.559-5.759-9.647-10.127-13.676  c-2.345-2.163-3.732-3.238-5.524-5.521c-1.504-1.916-1.977-4.173-3.946-5.917C147.981,76.429,157.357,78.166,164.159,85.666   M157.714,65.945c15.71-3.072,34.287,10.634,38.405,25.375c5.104,18.271-5.146,32.777-21.175,40.495  c5.739-10.318,15.413-27.371,10.783-39.51c-7.121-18.672-21.278-24.369-40.771-21.497c-2.993,0.441-17.208,5.253-17.622,2.629  C126.514,68.249,154.286,65.633,157.714,65.945 M201.905,48.326c12.869,7.075,22.563,17.503,23.937,32.738  c1.374,15.236-7.938,23.494-14.862,34.711c2.003-9.869,6.238-20.853,4.868-31.029c-1.625-12.073-13.076-27.495-26.043-28.991  c-17.957-2.071-35.705-0.759-52.542,6.442c-4.136,1.769-9.19,5.979-13.217,6.245c-0.178,0.371,0.218,0.638,0.131,0.789  c-0.131-0.043-0.175,0-0.131,0.131c-0.088,0-0.176,0-0.264,0c0.013-0.039-0.415-0.258-0.395-0.263  C140.791,45.284,175.96,43.336,201.905,48.326 M238.336,30.708c9.663,6.968,20.731,16.108,18.808,29.451  c-0.658,4.563-3.25,9.711-8.022,10.255c7.828-5.945,0.401-21.302-5.262-26.558c-16.795-15.588-42.688-16.811-63.918-12.622  c-9.72,1.918-18.748,5.255-27.487,9.861c-9.179,4.836-18.063,10.87-25.12,18.539c-3.716,4.038-5.42,9.514-11.575,8.677  C141.135,25.809,193.777,10.268,238.336,30.708 M233.077,122.218c0.154,0.707,0.307,1.35,0.657,1.972  c-5.377-5.804-1.744-15.451,0.787-21.825C234.905,109.085,233.975,115.58,233.077,122.218"
     style="fill-rule:evenodd;clip-rule:evenodd;fill:#BF0000;"
     id="path17" />
  <path
     d="M136.539,78.435c7.298,4.162,5.938,13.694,2.368,19.984  c-4.679,8.243-11.697,8.294-19.728,9.993c-0.03,0.018,0.188-0.264,0.132-0.264c4.706-2.266,5.561-6.687-0.789-4.207  c2.979-3.643-0.097-1.837-0.79-2.76c-0.954-1.27-3.765-2.936-4.865-6.181c1.687,1.758,3.127,4.02,4.208,6.048  c0.157-4.853-4.211-12.425-7.891-16.172c1.18,1.141,2.783,1.978,3.946,2.893c-0.043-0.131,0-0.175,0.132-0.131  c-0.044-0.131,0-0.175,0.13-0.131c-1.058-2.146-3.105-4.538-4.998-6.575C117.559,76.854,127.207,72.197,136.539,78.435   M124.966,72.781c0.701,0.783,1.052,1.467,1.315,2.498c-6.519,0.121-14.788,5.812-19.991,4.733  C109.734,73.885,117.59,63.651,124.966,72.781"
     style="fill-rule:evenodd;clip-rule:evenodd;fill:#FF4000;"
     id="path19" />
  <path
     d="M107.342,76.068C107.053,77.079,107.053,77.079,107.342,76.068"
     style="fill-rule:evenodd;clip-rule:evenodd;fill:#4F0800;"
     id="path21" />
  <path
     d="M103.659,86.192c9.359,8.587-0.683,9.768-7.76,9.334  c6.976,0.903,7.833,8.093,3.42,12.755c-7.624,8.055-27.789,7.102-36.168,1.051c0.656,1.022,1.17,2.98,1.973,4.208  c-6.6-3.293-12.743-10.702-15.783-17.356c-5.679-12.427,3.398-14.716,13.678-15.645C78.685,79.123,89.564,74.853,103.659,86.192   M142.853,137.6c-4.152-0.702-3.511-5.344-2.631-8.677C140.169,132.05,140.883,135.135,142.853,137.6 M139.433,100.787  c7.344,8.079,1.977,16.868-3.024,24.718c-1.201-7.442,4.867-13.292-0.132-19.723C134.712,103.771,138.195,101.229,139.433,100.787   M174.812,75.937c14.77,17.728,10.185,36.194-1.314,54.695c3.953-14.341,5.135-29.758-3.025-43.125  c-4.54-7.437-12.818-12.584-21.57-13.148c-5.762-0.372-12.113,3.783-17.36,1.052C144.978,71.189,162.037,67.801,174.812,75.937   M199.012,60.816c21.123,17.092,13.174,34.152,10.128,57.456c-3.124-10.987-2.102-21.837-9.31-31.744  c-8.923-12.264-25.311-21.549-40.669-22.03c-6.735-0.211-13.065,0.875-19.334,2.366c-3.866,0.92-11.683,5.359-14.598,3.549  C145.218,56.623,176.363,50.022,199.012,60.816 M229.788,48.852c12.409,17.335,13.775,30.002,5.392,49.699  c-6.502-27.18-19.864-52.575-50.636-54.563c-22.721-1.468-46.532,8.517-62.472,24.455c4.076-12.534,23.925-23.695,35.511-28.399  C182.056,30.105,208.427,33.707,229.788,48.852 M215.32,0.731c16.613,3.229,33.395,4.547,46.164,17.223  c10.108,10.034,16.772,26.796,12.101,40.759c0.183-15.083-7.599-26.616-19.4-35.039c-8.071-5.76-29.054-14.3-38.602-10.584  c-14.956-5.443-43.372,7.106-55.896,14.2c-11.479,6.502-22.329,14.429-31.762,23.864c-5.097,5.098-9.022,10.422-12.823,16.5  c-1.736,2.775-5.345,3.81-7.102,6.968c2.283-27.582,29.29-53.835,53.266-64.292C178.621,2.76,196.665,2.946,215.32,0.731"
     style="fill-rule:evenodd;clip-rule:evenodd;fill:#8F0000;"
     id="path23" />
  <path
     d="M165.342,87.901c-1.58,6.464-4.065,12.665-6.838,18.146  C159.707,100.755,163.075,91.907,165.342,87.901 M131.805,112.355c1.129-1.166,1.97-2.288,3.551-2.892  C134.292,110.392,133.021,111.482,131.805,112.355"
     style="fill-rule:evenodd;clip-rule:evenodd;fill:#FF4000;"
     id="path25" />
  <path
     d="M118.652,101.969c-0.548,0.372-0.596,1.023-1.315,1.315  c-0.057-0.119-0.144-0.163-0.263-0.132c0.017-0.176,0.049-0.488,0-0.656C117.55,102.371,118.235,102.252,118.652,101.969   M125.886,108.675c-1.512,1.792-3.633,2.767-6.051,2.893C119.693,108.656,122.871,108.443,125.886,108.675 M128.385,119.982  c-2.707,2.727-7.652,1.87-11.311,1.842C119.005,118.156,124.619,119.869,128.385,119.982 M91.296,125.24  c11.608,0.571,23.38,5.095,34.457,8.416c-10.336,6.445-33.576-4.55-43.006-10.388C85.543,124.142,88.398,124.82,91.296,125.24   M65.649,114.986c13.826,14.172,29.185,24.361,48.005,30.634c-16.485,3.727-40.742-18.846-49.846-31.425  C64.413,114.518,65.014,114.72,65.649,114.986"
     style="fill-rule:evenodd;clip-rule:evenodd;fill:#FF0000;"
     id="path27" />
  <path
     d="M71.7,124.847c4.767,4.479,9.929,8.529,15.446,12.037  c3.239,2.06-9.078,4.691-10.974,5.318c-2.69,0.89-4.448,5.052-7.3,1.381c-3.022-3.891-7.004-4.903-11.182-7.351  c-9.536-5.586-16.999-20.565-9.073-30.318C54.26,98.971,67.677,120.379,71.7,124.847 M114.97,121.691  c-5.611,0.069-11.02-0.425-16.572-1.184c1.578-0.687,4.916-3.428,5.987-3.316c4.724,0.488,9.401,0.999,14.004-0.496  C118.007,118.982,116.789,120.394,114.97,121.691 M88.139,123.269c4.596,0.412,8.216-1.412,12.759-1.315  c3.405,0.072,6.869,0.584,10.258,0.922c-11.764,3.994-38.248,1.996-45.112-10.388C72.797,117.55,79.762,121.672,88.139,123.269   M118.915,114.592c-3.617,3.339-11.461,2.858-15.914,1.184c2.671-0.928,3.966-2.557,2.631-4.733  c3.958-2.042,8.61-0.401,12.362-3.024C118.482,110.134,118.933,112.417,118.915,114.592 M114.97,101.049  c5.564,7-1.571,7.808-7.365,8.151C105.794,102.885,111.067,103.686,114.97,101.049 M113.787,100.392  c-9.763,4.702-7.071,0.195-3.289-5.522C111.923,96.459,113.154,98.357,113.787,100.392 M12.91,62.395  c2.269,0.921,3.479,1.97,6.049,0.394c-1.485,2.208-2.085,4.857-1.183,7.363c0.936-1.974,2.052-4.16,3.157-6.179  C16.949,76.204,30.76,78.943,38.95,81.328c-0.488-0.765-0.939-1.517-1.446-2.235c5.377,0.694,5.578,5.119,9.996,4.601  c-2.318,4.625-0.927,8.75,1.13,13.104c3.285,6.953,1.668,4.573-2.051,10.563c-5.432,8.748-0.307,19.036,5.655,25.902  c-15.588-9.773-78.636-59.897-39.587-75.996C11.792,59.37,12.981,60.641,12.91,62.395 M50.13,28.604  c3.91,0.517,10.767,0.277,13.152,5.391c-3.901-7.004-17.524,0.437-21.702,3.682c-4.546-3.789-2.589-4.858,0.526-7.757  c0.066,0.058-0.127,0.863,0.263,1.184C44.715,29.512,47.251,29.317,50.13,28.604"
     style="fill-rule:evenodd;clip-rule:evenodd;fill:#A84700;"
     id="path29" />
  <path
     d="M84.062,118.667c3.649,0.937,7.483,1.633,11.311,1.315  c-6.356,6.563-20.388-1.987-25.777-6.442C74.782,114.284,79.072,117.226,84.062,118.667 M95.505,118.8  c-6.874,0.599-13.568-1.253-19.729-4.208C83.347,114.602,88.646,115.282,95.505,118.8 M102.212,117.483  c-4.593,4.556-5.571-0.475-10.127-1.578C95.387,116.693,98.824,116.892,102.212,117.483 M101.818,116.169  c-5.023-0.198-10.157-0.765-14.993-2.104C91.903,111.719,97.241,113.816,101.818,116.169 M105.237,112.751  c-1.896,4.122-6.111,0.803-9.865,0.13C98.693,112.938,101.924,112.745,105.237,112.751 M104.45,111.567  c-3.051,0.119-6.041,0.451-9.077,0.263C98.362,109.549,101.883,109.55,104.45,111.567 M106.684,108.544  c-1.214,1.719-2.478,2.271-4.603,0.92c0.025-0.004,0.45,0.05,0.262-0.132C103.828,109.197,105.282,108.668,106.684,108.544   M106.422,107.36c-1.654,0.756-3.49,1.091-5.524,0.921C102.351,105.366,104.554,105.474,106.422,107.36 M106.29,105.65  c-0.669-0.322-1.363-0.491-2.236-0.788c0.833-0.395,1.666-0.788,2.499-1.183C106.839,104.448,106.195,105.067,106.29,105.65   M105.895,102.627c-0.763,0.61-1.843,1.233-2.894,1.446C103.115,101.196,104.093,102.153,105.895,102.627 M104.974,100.655  c0.451,0.082-1.37,0.371-1.71,0.262C104.212,99.847,104.462,100.563,104.974,100.655 M103.922,99.077  c-0.711-0.07-1.12,1.08-1.183-0.526C103.09,98.589,103.783,99.063,103.922,99.077 M109.446,93.424  c-0.66,3.813-4.081,5.498-7.365,4.207c0.043,0.132,0,0.175-0.133,0.131C104.315,96.87,108.065,94.72,109.446,93.424 M105.369,85.404  c-2.921-1.401-5.137-3.477-7.761-5.26C100.697,81.076,103.244,83.157,105.369,85.404 M104.45,81.459  c-2.659-0.91-5.205-2.158-7.629-3.682C99.634,78.566,102.345,79.502,104.45,81.459 M103.264,78.829  c-1.581-0.496-2.93-0.991-4.603-1.577C100.463,77.424,101.718,78.137,103.264,78.829 M109.051,83.168  c-1.899-0.654-3.601-2.003-4.209-3.55C106.257,80.441,107.912,81.791,109.051,83.168 M110.104,87.639  c-2.578-2.201-5.246-4.324-8.022-6.18C105.469,82.446,108.206,84.75,110.104,87.639 M108.656,90.268  c-0.864-1.062-1.753-2.104-2.629-3.155C107.268,87.991,107.752,89.074,108.656,90.268 M114.182,95.001  c-2.389-2.653-4.778-5.319-6.577-8.415C110.344,88.961,112.599,91.786,114.182,95.001 M75.908,78.172  c-1.096,0.467-1.896,1.068-3.419,1.052C73.502,78.167,74.525,78.424,75.908,78.172 M77.881,77.252  C77.527,77.401,76.682,77.757,77.881,77.252 M79.723,75.937c-0.984,0.039-1.827,0.353-2.894,0.132  c-0.057,0.118-0.144,0.162-0.262,0.131C77.677,75.681,78.515,75.984,79.723,75.937 M78.013,74.359  c0.875-0.199,1.145-0.76,2.236-0.263C79.504,74.184,78.758,74.271,78.013,74.359 M88.533,76.068  c-2.56-0.149-5.112,0.167-7.496-0.789C83.487,74.398,86.172,74.881,88.533,76.068 M93.927,75.673  c-2.23,0.316-4.515-0.057-6.444-1.052C89.709,74.742,91.914,75.102,93.927,75.673 M96.426,78.698  c-1.883-0.226-3.512-0.736-5.129-1.578c0-0.088,0-0.175,0-0.263C93.084,76.637,94.589,77.587,96.426,78.698 M73.015,77.515  c-1.156,0.392-1.477,1.168-2.894,0.789C71.003,77.715,71.856,77.862,73.015,77.515"
     style="fill-rule:evenodd;clip-rule:evenodd;fill:#4F0800;"
     id="path31" />
  <path
     d="M83.273,124.584c12.196,6.107,24.855,11.928,37.878,16.04  c-17.882,6.439-39.544-11.266-51.556-22.878C73.792,120.84,78.969,121.593,83.273,124.584 M116.811,124.584  c3.974,0.515,7.893,1.046,11.574,1.577c-4.448,5.034-18.937,0.762-24.593-0.394C108.567,125.298,112.262,123.619,116.811,124.584   M128.122,114.46c-2.182,1.998-5.254,2.17-8.153,2.235C120.764,113.686,124.841,114.36,128.122,114.46 M122.599,104.336  c-0.89,1.205-2.304,2.132-3.684,2.762c-0.243-0.642-0.488-1.381-0.657-1.842C119.512,104.892,121.247,104.271,122.599,104.336"
     style="fill-rule:evenodd;clip-rule:evenodd;fill:#FF7F00;"
     id="path33" />
  <path
     d="M128.385,124.452  C126.412,122.832,126.404,122.228,128.385,124.452"
     style="fill-rule:evenodd;clip-rule:evenodd;fill:#FFFFFF;"
     id="path35" />
  <path
     d="M156.662,128.265C157.591,127.319,156.915,128.008,156.662,128.265"
     style="fill-rule:evenodd;clip-rule:evenodd;"
     id="path37" />
  <path
     d="M127.201,132.472c-0.37-0.582-1.814-1.812-2.104-3.154  C126.083,130.11,126.571,131.245,127.201,132.472"
     style="fill-rule:evenodd;clip-rule:evenodd;fill:#FFFFFF;"
     id="path39" />
  <path
     d="M102.606,144.831c-0.654,0.803-0.994,1.747-1.84,2.498  C101.071,146.007,102.292,145.216,102.606,144.831 M105.105,145.751c-0.458,0.597-0.81,1.313-1.183,1.973  C103.861,146.339,104.732,146.237,105.105,145.751 M110.235,146.936c-0.348,1.035-0.58,2.128-1.052,3.154  C109.031,148.581,109.96,147.526,110.235,146.936 M113.261,147.199c-0.171,1.319-0.243,2.52-0.658,3.811  C112.585,149.721,113.084,148.083,113.261,147.199 M117.074,143.517c-0.027,2.063-0.146,4.107-0.132,6.18  C116.861,146.886,115.604,143.123,117.074,143.517 M114.049,142.991c-0.375,0.734,0.528,1.353-0.658,1.314  C113.27,143.024,114.192,142.712,114.049,142.991 M111.156,143.517c-0.554-0.549-1.369,0.088-0.921-1.183  C111.523,142.363,110.791,143.155,111.156,143.517 M109.051,142.202c-0.655-0.031-2.798,0.069-4.339-0.921  C106.159,141.757,107.563,141.864,109.051,142.202 M116.548,137.47c-0.438-0.441-1.789-0.193-1.973-2.235  C116.648,135.142,115.593,136.293,116.548,137.47 M114.049,136.812c-0.102-0.297-0.477-0.888-0.395-1.577  C113.748,135.771,113.865,136.271,114.049,136.812 M112.603,135.76c-0.412-0.117-1.125,0.894-1.317-0.92  C112.406,134.645,112.258,135.661,112.603,135.76 M110.104,134.84C109.524,134.779,108.972,134.721,110.104,134.84 M108,134.182  c0.004,0.001-1.027,0.075-1.71-0.395C107.016,133.728,107.355,134.077,108,134.182 M110.104,128.003  c-0.539-0.096-2.265-0.237-3.289-0.658C107.937,127.478,109,127.76,110.104,128.003 M112.472,128.791  C110.865,128.167,111.133,128.271,112.472,128.791 M115.892,129.58c-1.087-0.477-1.73,0.186-2.368-1.053  C115.021,128.207,115.075,129.222,115.892,129.58 M119.31,138.389c-1.072-0.484-2.075-0.251-2.236-2.76  C119.155,135.636,118.6,136.773,119.31,138.389 M119.573,142.334c0.271,2.58,0.386,5.155,0.395,7.756  C119.605,147.45,118.91,143.95,119.573,142.334 M122.599,144.437c-0.257-1.174-0.836-1.76-0.395-2.893  C122.296,142.506,122.392,143.493,122.599,144.437 M121.809,139.047c-0.863-0.599-2.155-0.477-2.236-3.156  C121.355,136.348,121.191,137.389,121.809,139.047 M118.39,130.105c-0.295-0.212-1.15,0.228-1.315-1.183  C118.124,128.951,117.785,129.672,118.39,130.105 M120.757,130.764c-0.52-0.531-1.56,0.063-1.579-1.579  C120.862,128.861,119.926,129.915,120.757,130.764 M122.729,135.891c1.375,3.249,1.911,6.774,2.368,10.255  C124.137,143.049,121.848,137.879,122.729,135.891 M128.122,141.938c-0.773-2.335-1.827-4.761-2.5-6.967  C127.103,136.576,127.529,139.379,128.122,141.938 M125.097,132.209c-0.914-0.948-2.192-0.736-2.498-2.76  C124.514,129.306,124.262,130.614,125.097,132.209 M127.334,128.923c1.058,2.071,1.935,4.22,2.63,6.441  C128.65,133.113,126.568,130.227,127.334,128.923 M116.154,123.006C116.063,123.059,115.14,123.599,116.154,123.006 M118.39,123.138  C117.602,123.344,116.948,123.515,118.39,123.138 M125.622,124.189C124.679,122.997,124.498,122.769,125.622,124.189   M121.809,123.664c-0.541-0.092-1.529,0.284-2.368-0.396C120.705,122.57,120.913,123.513,121.809,123.664 M129.174,123.532  c-0.288-0.543-0.647-1.021-0.921-1.579C128.599,122.291,128.857,122.935,129.174,123.532 M123.124,118.403  C122.044,117.848,122.147,117.901,123.124,118.403 M123.65,113.014c-0.126-0.081-0.732,0.44-1.052-0.658  C123.282,111.663,123.06,112.632,123.65,113.014 M126.412,118.403C126.3,118.268,125.127,116.847,126.412,118.403 M121.678,112.881  C120.854,113.021,120.517,113.079,121.678,112.881"
     style="fill-rule:evenodd;clip-rule:evenodd;fill:#FF7F00;"
     id="path41" />
  <path
     d="M74.33,149.434c5.788,4.189-7.132,16.383-9.076,21.825  c3.879-3.822,22.863,0.058,29.33-0.394c11.766-0.82,23.388-2.723,34.721-6.048c-14.593,5.831-29.312,9.156-45.045,9.729  c-8.768,0.318-17.366-3.313-23.082,3.288c-11.069,12.781,12.533,10.603,18.939,8.281c-0.382,4.06-8.904,2.13-12.363,2.367  c-1.628,0.112-4.308,0.957-6.05,0.79c-2.008-0.192-3.588-2.175-4.472-2.236c-2.317-0.161-7.817,2.831-10.126,3.682  c-4.438,1.634-7.684,3.023-12.495,2.762c3.733-2.44,10.724-1.07,14.73-4.406c4.999-4.16,8.138-8.003,11.706-13.344  c3.38-5.06,5.177-11.692,9.075-16.436c3.099-3.771,4.931-3.243,5.261-7.888c0.087-1.225-3.147-3.486-1.316-6.18  C74.125,146.635,74.239,148.031,74.33,149.434 M81.827,147.199c10.227,7.745-13.603,13.836-9.075,21.561  c1.458,2.486,17.777-0.001,20.911-0.394c10.587-1.327,20.98-4.271,31.171-7.362c-15.969,9.291-37.338,11.685-55.37,8.15  c2.929-5.216,6.807-11.179,8.417-16.434C78.579,150.442,77.999,142.646,81.827,147.199 M83.537,152.063  c-1.357,2.853-4.896,3.96-4.998,0C78.422,147.505,83.448,147.14,83.537,152.063 M28.035,189.009c1.782,0.229,3.485,0.89,5.523,0.526  c-3.113,1.598-6.203-0.248-9.469-0.79c0.042-0.017,0.34-0.56,0.263-0.657C25.616,188.946,26.625,188.738,28.035,189.009   M39.214,186.248c0.625,0.144,1.46,0,2.104,0c-2.582,0.789-5.423,0.092-6.838-2.104C35.945,185.287,37.469,185.444,39.214,186.248   M68.807,174.414c-6.239,8.999-1.819,7.261,7.365,7.627c6.181,0.246,15.471-0.81,19.596,3.417  c-6.503-3.992-19.312-1.14-27.093-0.395c-6.604,0.632-10.083,1.527-7.365-4.074C62.658,178.209,66.099,175.206,68.807,174.414"
     style="fill-rule:evenodd;clip-rule:evenodd;fill:#FFD336;"
     id="path43" />
  <path
     d="M63.545,168.76c-0.828,1.421-0.688,2.396-3.025,2.234  C60.997,168.679,62.023,169.052,63.545,168.76 M79.723,184.538C76.618,187.612,74.645,183.703,79.723,184.538 M75.119,185.196  c-1.124,0.627-1.157,1.718-2.893,1.184C72.882,184.819,73.701,185.536,75.119,185.196 M71.173,185.722  c-0.818,0.348-0.997,1.415-2.63,1.183C69.172,185.568,69.923,186.184,71.173,185.722 M67.492,185.854  c-0.827,0.542-0.238,1.494-2.368,1.051c0.043-0.438,0.086-0.876,0.13-1.314C66,185.678,66.746,185.766,67.492,185.854   M63.677,185.984c-0.967,0.984-1.535,1.783-3.551,0.526c0-0.088,0-0.175,0-0.263C61.208,185.598,62.216,185.855,63.677,185.984   M35.531,189.665c-0.708,1.594,0.181,3.009-2.236,1.972C33.736,190.409,34.574,190.438,35.531,189.665 M38.03,191.375  c-1.073-0.564-2.365,0.622-1.578-1.578C37.311,190.125,37.495,191.094,38.03,191.375 M41.581,189.535  c-0.862,0.841-0.726,1.897-2.631,1.052C39.629,189.288,40.355,189.728,41.581,189.535 M44.738,189.402  c-0.629,0.649-0.139,1.527-1.973,0.92C42.899,188.143,43.809,190.361,44.738,189.402 M47.763,188.879  c-0.417,0.018-0.883,0.688-1.841,0.523C46.894,187.686,47.233,188.901,47.763,188.879 M43.949,188.614  c0.035-0.437-1.599-0.931,1.052-1.578C44.955,187.852,44.006,188.194,43.949,188.614 M42.239,187.43  c-0.955,0.735-1.688,1.563-3.289,1.709c0.032,0.119-0.012,0.207-0.131,0.264C39.66,187.805,40.739,187.89,42.239,187.43   M38.293,188.351c-0.763,0.17-1.092,0.931-2.499,0.658c0.043-0.131,0-0.174-0.132-0.13c0.119-0.058,0.163-0.146,0.132-0.265  C36.643,188.129,37.3,188.571,38.293,188.351 M35.005,187.694c-0.836,0.072-1.62,0.74-2.631,0.526c0.013-0.028,0.02-0.376,0-0.396  C33.394,186.986,33.846,187.794,35.005,187.694 M31.454,187.43c-1.112,0.352-1.204,1.529-2.631,0.791  c0.041-0.074,0.037-0.58,0-0.658C29.593,187.555,30.647,187.629,31.454,187.43 M28.035,186.511  C25.121,188.521,24.141,185.409,28.035,186.511 M37.636,183.091c-1.078,0.553-0.759,2.262-2.236,0.396  C36.115,183.112,36.933,183.451,37.636,183.091 M40.792,185.458c-1.405-0.539-2.433,0.216-2.368-1.444  c0.132,0.044,0.176,0,0.132-0.133C39.636,184.046,40.127,185.057,40.792,185.458 M45.132,184.67c-0.57,0.087-1.14,0.175-1.71,0.262  C44.074,184.74,44.36,184.775,45.132,184.67 M48.552,184.407c-0.908,0.087-1.456,0.555-2.236-0.264  C47.061,184.231,47.807,184.319,48.552,184.407 M50.13,185.722c-1.271,0.727-2.962,1.184-4.209,2.104  C47.083,185.845,48.754,185.471,50.13,185.722 M50.262,186.773c-0.823,0.544-0.273,1.367-1.579,1.052  c0.031-0.118-0.013-0.206-0.131-0.263C49.011,186.4,49.494,187.281,50.262,186.773 M53.155,184.275  c-0.766,0.063-1.306,0.314-2.104,0.132c1.15-1.878,2.254-2.537,4.34-2.762C55.085,182.897,54.278,183.487,53.155,184.275   M57.101,178.753c-0.881,1.335-1.439,2.218-3.288,2.104C54.262,178.533,55.242,178.69,57.101,178.753 M59.6,175.598  c-1.017,1.246-1.25,2.293-3.42,1.709c0.482-0.745,0.964-1.489,1.446-2.234C58.169,175.521,58.924,175.559,59.6,175.598   M62.099,171.785c-0.784,1.643-1.247,2.655-3.683,2.498C58.873,172.051,60.014,171.893,62.099,171.785 M65.649,165.605  c-0.905,1.054-1.029,2.012-2.893,2.104C62.97,165.421,64.071,166.12,65.649,165.605 M67.622,161.923  c-0.838,1.609-0.916,2.614-3.156,2.498c0.395-0.876,0.789-1.752,1.183-2.628C66.233,162.153,66.869,162.003,67.622,161.923   M67.492,161.004c-1.627-1.524-0.208-2.719,2.104-3.156C69.443,159.57,68.573,160.08,67.492,161.004 M70.516,154.297  c-0.646,1.696-0.875,2.637-2.499,3.288c0.204-1.297,0.87-2.79,1.447-3.944C69.544,153.758,69.999,154.2,70.516,154.297   M72.489,146.146c0.646,2.574,0.078,4.778-1.842,6.443c-0.125-2.342-0.429-4.697-1.184-6.838  C70.369,146.231,71.591,145.885,72.489,146.146 M75.25,152.852c-0.979,1.921-2.636,3.394-4.734,4.338  C71.091,154.55,72.208,149.679,75.25,152.852 M81.827,141.938c-0.688,1.646-1.745,2.746-3.551,3.552  C77.224,142.814,79.078,141.95,81.827,141.938 M82.616,150.354c-0.09,2.013-0.59,3.324-3.026,3.55  C79.215,150.711,80.398,148.081,82.616,150.354"
     style="fill-rule:evenodd;clip-rule:evenodd;fill:#D9B400;"
     id="path45" />
  <path
     d="M33.427,192.69c-0.947,1.646-2.204,3.171-3.289,4.732  C30.228,195.065,31.426,193.257,33.427,192.69 M24.483,185.458c-1.247,1.42-2.758,2.663-4.34,3.681  C20.755,186.758,22.25,185.953,24.483,185.458 M34.216,182.434c-1.016,0.387-1.936,0.946-3.025,1.185  C31.958,182.29,32.792,182.762,34.216,182.434 M85.378,187.036c-1.86-0.533-3.271-1.127-4.21-2.498  C83.032,184.745,84.189,185.676,85.378,187.036"
     style="fill-rule:evenodd;clip-rule:evenodd;fill:#FFFFB8;"
     id="path47" />
</svg>
