<?xml version="1.0" encoding="UTF-8" standalone="no"?>
<!-- Created with Inkscape (http://www.inkscape.org/) -->
<svg
   xmlns:dc="http://purl.org/dc/elements/1.1/"
   xmlns:cc="http://creativecommons.org/ns#"
   xmlns:rdf="http://www.w3.org/1999/02/22-rdf-syntax-ns#"
   xmlns:svg="http://www.w3.org/2000/svg"
   xmlns="http://www.w3.org/2000/svg"
   xmlns:sodipodi="http://sodipodi.sourceforge.net/DTD/sodipodi-0.dtd"
   xmlns:inkscape="http://www.inkscape.org/namespaces/inkscape"
   height="594.57208"
   id="svg1"
   inkscape:version="0.45+devel"
   sodipodi:docbase="/home/moi/Desktop/img"
   sodipodi:docname="porcinet_01.svg"
   sodipodi:version="0.32"
   width="837.55377"
   inkscape:output_extension="org.inkscape.output.svg.inkscape"
   version="1.0"
   inkscape:export-filename="/Users/johnolsen/Pictures/by author build/assorted authors/porcinet_01.png"
   inkscape:export-xdpi="480"
   inkscape:export-ydpi="480">
  <metadata
     id="metadata3">
    <rdf:RDF>
      <cc:Work
         rdf:about="">
        <dc:title>porcinet</dc:title>
        <dc:description />
        <dc:subject>
          <rdf:Bag>
            <rdf:li>mammal</rdf:li>
            <rdf:li />
            <rdf:li>cochon</rdf:li>
            <rdf:li>kawai</rdf:li>
            <rdf:li>animal</rdf:li>
            <rdf:li>pig</rdf:li>
          </rdf:Bag>
        </dc:subject>
        <dc:publisher>
          <cc:Agent
             rdf:about="http://www.openclipart.org">
            <dc:title>grp21@free.fr</dc:title>
          </cc:Agent>
        </dc:publisher>
        <dc:creator>
          <cc:Agent>
            <dc:title>grp21@free.fr</dc:title>
          </cc:Agent>
        </dc:creator>
        <dc:rights>
          <cc:Agent>
            <dc:title>grp21@free.fr</dc:title>
          </cc:Agent>
        </dc:rights>
        <dc:date />
        <dc:format>image/svg+xml</dc:format>
        <dc:type
           rdf:resource="http://purl.org/dc/dcmitype/StillImage" />
        <cc:license
           rdf:resource="http://web.resource.org/cc/PublicDomain" />
        <dc:language>en</dc:language>
      </cc:Work>
      <cc:License
         rdf:about="http://web.resource.org/cc/PublicDomain">
        <cc:permits
           rdf:resource="http://web.resource.org/cc/Reproduction" />
        <cc:permits
           rdf:resource="http://web.resource.org/cc/Distribution" />
        <cc:permits
           rdf:resource="http://web.resource.org/cc/DerivativeWorks" />
      </cc:License>
    </rdf:RDF>
  </metadata>
  <defs
     id="defs3" />
  <sodipodi:namedview
     bordercolor="#666666"
     borderopacity="1.0"
     id="base"
     inkscape:cx="774.53513"
     inkscape:cy="544.32137"
     inkscape:pageopacity="0.0"
     inkscape:pageshadow="2"
     inkscape:window-height="729"
     inkscape:window-width="1014"
     inkscape:window-x="0"
     inkscape:window-y="6"
     inkscape:zoom="0.44147721"
     pagecolor="#ffffff"
     showgrid="false" />
  <path
     d="M 326.71589,344.51096 C 326.71589,344.51096 256.21441,408.40146 192.25079,384.52915 C 128.28714,360.65694 61.079608,306.42476 19.317549,234.49513 C 88.075168,233.14018 148.95282,184.32057 195.04964,174.15274 C 241.14637,163.98492 295.9585,193.32865 295.9585,193.32865"
     id="path1598"
     sodipodi:nodetypes="ccccc"
     style="fill:#ffdddd;fill-opacity:1;fill-rule:evenodd;stroke:#000000;stroke-width:19.49028397;stroke-linecap:butt;stroke-linejoin:miter;stroke-miterlimit:4;stroke-opacity:1" />
  <path
     d="M 722.66257,584.50293 A 391.56219,352.69388 0 1 1 -60.461823,584.50293 A 391.56219,352.69388 0 1 1 722.66257,584.50293 z"
     id="path908"
     sodipodi:cx="331.10037"
     sodipodi:cy="584.50293"
     sodipodi:rx="391.56219"
     sodipodi:ry="352.69388"
     sodipodi:type="arc"
     style="fill:#ffdddd;fill-opacity:1;fill-rule:evenodd;stroke:#000000;stroke-width:32.23557663;stroke-linecap:butt;stroke-linejoin:miter;stroke-miterlimit:4;stroke-opacity:1"
     transform="matrix(-0.6213654,0,0,0.5883259,625.75508,26.65446)" />
  <path
     d="M 471.37574,422.44557 C 471.37574,436.962 461.55145,446.05453 449.62693,455.57436 C 437.70225,465.09422 421.23171,470.98493 403.04826,470.98493 C 384.86485,470.98493 368.39431,465.09422 356.46967,455.57436 C 344.545,446.05453 339.61166,436.962 339.61166,422.44557 C 339.61166,407.92908 346.99055,394.78015 358.91512,385.26029 C 370.83978,375.74047 387.31028,394.18826 405.49371,394.18826 C 423.6772,394.18826 440.14762,375.74047 452.07242,385.26029 C 463.99693,394.78015 471.37574,407.92908 471.37574,422.44557 z"
     id="path1558"
     sodipodi:nodetypes="cscscscsc"
     style="fill:#c4aaaa;fill-opacity:0.6066946;fill-rule:evenodd;stroke:none;stroke-width:0.1932595pt;stroke-linecap:butt;stroke-linejoin:miter;stroke-opacity:1" />
  <path
     d="M 384.15236,328.26216 C 384.15236,378.84292 344.84732,419.894 296.41797,419.894 C 247.98848,419.894 208.68353,378.84292 208.68353,328.26216 C 208.68353,277.68137 247.98848,236.63034 296.41797,236.63034 C 344.84732,236.63034 384.15236,277.68137 384.15236,328.26216 z"
     id="path1530"
     style="fill:#ffffff;fill-opacity:1;fill-rule:evenodd;stroke:#000000;stroke-width:18.28216362;stroke-linecap:butt;stroke-linejoin:miter;stroke-miterlimit:4;stroke-opacity:1" />
  <path
     d="M 326.78168,579.10455 A 136.39896,156.5529 0 1 1 53.983765,579.10455 A 136.39896,156.5529 0 1 1 326.78168,579.10455 z"
     id="path1531"
     sodipodi:cx="190.38272"
     sodipodi:cy="579.10455"
     sodipodi:rx="136.39896"
     sodipodi:ry="156.5529"
     sodipodi:type="arc"
     style="fill:#ffffff;fill-opacity:1;fill-rule:evenodd;stroke:none;stroke-width:17.81684685;stroke-linecap:butt;stroke-linejoin:miter;stroke-miterlimit:4;stroke-dasharray:none;stroke-opacity:1"
     transform="matrix(0.4562799,0,0,0.4562799,429.38368,69.447789)" />
  <path
     d="M 267.75945,594.5799 A 71.978348,86.374016 0 1 1 123.80275,594.5799 A 71.978348,86.374016 0 1 1 267.75945,594.5799 z"
     id="path1538"
     sodipodi:cx="195.7811"
     sodipodi:cy="594.5799"
     sodipodi:rx="71.978348"
     sodipodi:ry="86.374016"
     sodipodi:type="arc"
     style="fill:#70e1ff;fill-opacity:1;fill-rule:evenodd;stroke:none;stroke-width:1pt;stroke-linecap:butt;stroke-linejoin:miter;stroke-opacity:1"
     transform="matrix(0.6873674,0,0,0.6873674,179.57122,-64.374531)" />
  <path
     d="M 341.08079,310.71154 C 343.08601,315.10406 344.32432,320.10133 344.32432,325.51141 C 344.32432,342.17079 333.45535,355.69097 320.07327,355.69097 C 306.69106,355.69097 295.8436,342.17079 295.8436,325.51141 C 295.8436,324.42237 296.01085,323.39164 296.10134,322.33237 C 290.99783,330.66598 287.91744,341.35372 287.91744,352.98453 C 287.91744,379.61215 303.98923,401.20742 323.78924,401.20746 C 336.43204,401.20746 347.53675,392.38021 353.92595,379.08289 C 351.07265,383.5319 346.29105,386.47203 340.866,386.47203 C 332.12664,386.47203 325.03508,378.8841 325.03508,369.5457 C 325.03508,360.20731 332.12664,352.64081 340.866,352.64081 C 349.60533,352.64081 356.69687,360.20731 356.69687,369.5457 C 356.69687,370.90235 356.50699,372.21201 356.22426,373.47653 C 358.40606,367.25065 359.66108,360.32071 359.66108,352.98453 C 359.66108,334.78437 352.15546,318.92539 341.08079,310.71154 z"
     id="path1532"
     style="fill:#000000;fill-opacity:1;fill-rule:evenodd;stroke:#000000;stroke-width:0.68736472pt;stroke-linecap:butt;stroke-linejoin:miter;stroke-opacity:1" />
  <path
     d="M 246.88572,572.98639 A 37.428738,40.307873 0 1 1 172.02825,572.98639 A 37.428738,40.307873 0 1 1 246.88572,572.98639 z"
     id="path1539"
     sodipodi:cx="209.45699"
     sodipodi:cy="572.98639"
     sodipodi:rx="37.428738"
     sodipodi:ry="40.307873"
     sodipodi:type="arc"
     style="fill:#ffffff;fill-opacity:1;fill-rule:evenodd;stroke:none;stroke-width:1pt;stroke-linecap:butt;stroke-linejoin:miter;stroke-opacity:1"
     transform="matrix(0.6212776,0,0,0.6873674,189.9512,-66.353978)" />
  <path
     d="M 246.88572,572.98639 A 37.428738,40.307873 0 1 1 172.02825,572.98639 A 37.428738,40.307873 0 1 1 246.88572,572.98639 z"
     id="path1540"
     sodipodi:cx="209.45699"
     sodipodi:cy="572.98639"
     sodipodi:rx="37.428738"
     sodipodi:ry="40.307873"
     sodipodi:type="arc"
     style="fill:#ffffff;fill-opacity:1;fill-rule:evenodd;stroke:none;stroke-width:1pt;stroke-linecap:butt;stroke-linejoin:miter;stroke-opacity:1"
     transform="matrix(0.4229947,0,0,0.4111927,252.75672,133.69638)" />
  <path
     d="M 267.75945,594.5799 A 71.978348,86.374016 0 1 1 123.80275,594.5799 A 71.978348,86.374016 0 1 1 267.75945,594.5799 z"
     id="path1548"
     sodipodi:cx="195.7811"
     sodipodi:cy="594.5799"
     sodipodi:rx="71.978348"
     sodipodi:ry="86.374016"
     sodipodi:type="arc"
     style="fill:#70e1ff;fill-opacity:1;fill-rule:evenodd;stroke:none;stroke-width:1pt;stroke-linecap:butt;stroke-linejoin:miter;stroke-opacity:1"
     transform="matrix(-0.6873674,0,0,0.6873674,642.16613,-67.837904)" />
  <g
     id="g1544"
     transform="matrix(0.6873674,0,0,0.6873674,265.16373,-64.869271)">
    <path
       d="M 366.68912,542.08858 C 369.60631,548.47892 371.40787,555.74907 371.40787,563.61983 C 371.40787,587.85638 355.59532,607.52608 336.12662,607.52608 C 316.65792,607.52607 300.87662,587.85638 300.87662,563.61983 C 300.87662,562.03549 301.11997,560.53593 301.25162,558.99483 C 293.82685,571.11885 289.34537,586.66772 289.34537,603.58858 C 289.34537,642.32733 312.72714,673.74482 341.53287,673.74483 C 359.92591,673.74483 376.08132,660.9027 385.37662,641.55733 C 381.22558,648.0299 374.2692,652.30733 366.37662,652.30733 C 353.66236,652.30731 343.34537,641.26812 343.34537,627.68233 C 343.34536,614.09651 353.66237,603.08858 366.37662,603.08858 C 379.09087,603.0886 389.40787,614.09654 389.40787,627.68233 C 389.40787,629.65602 389.13164,631.56139 388.72037,633.40108 C 391.89449,624.34348 393.72037,614.26158 393.72037,603.58858 C 393.72037,577.11042 382.80088,554.03832 366.68912,542.08858 z"
       id="path1541"
       style="fill:#000000;fill-opacity:1;fill-rule:evenodd;stroke:#000000;stroke-width:1pt;stroke-linecap:butt;stroke-linejoin:miter;stroke-opacity:1" />
    <path
       d="M 246.88572,572.98639 A 37.428738,40.307873 0 1 1 172.02825,572.98639 A 37.428738,40.307873 0 1 1 246.88572,572.98639 z"
       id="path1542"
       sodipodi:cx="209.45699"
       sodipodi:cy="572.98639"
       sodipodi:rx="37.428738"
       sodipodi:ry="40.307873"
       sodipodi:type="arc"
       style="fill:#ffffff;fill-opacity:1;fill-rule:evenodd;stroke:none;stroke-width:1pt;stroke-linecap:butt;stroke-linejoin:miter;stroke-opacity:1"
       transform="matrix(0.903846,0,0,1,146.822,-6.478051)" />
    <path
       d="M 246.88572,572.98639 A 37.428738,40.307873 0 1 1 172.02825,572.98639 A 37.428738,40.307873 0 1 1 246.88572,572.98639 z"
       id="path1543"
       sodipodi:cx="209.45699"
       sodipodi:cy="572.98639"
       sodipodi:rx="37.428738"
       sodipodi:ry="40.307873"
       sodipodi:type="arc"
       style="fill:#ffffff;fill-opacity:1;fill-rule:evenodd;stroke:none;stroke-width:1pt;stroke-linecap:butt;stroke-linejoin:miter;stroke-opacity:1"
       transform="matrix(0.615384,0,0,0.598214,238.193,284.5614)" />
  </g>
  <path
     d="M 415.65185,474.62818 C 415.65185,474.62818 418.31912,454.56958 414.05146,445.13026 C 409.78383,435.69097 393.42463,439.23071 389.86822,448.67004 C 386.31193,458.10936 394.13585,484.06747 400.89289,493.50679 C 407.65,502.94612 420.63069,514.15531 432.72235,499.40638 C 444.81393,484.65744 445.34736,462.53406 443.56916,451.32482 C 441.79095,440.11567 435.92305,428.90643 424.1871,435.39598 C 412.4511,441.88549 413.69579,443.36042 413.69579,443.36042 L 416.18529,451.61977 C 416.18529,451.61977 415.47395,442.18048 416.18529,452.20974 C 416.89657,462.23904 415.65185,474.62818 415.65185,474.62818 z"
     id="path1562"
     style="fill:#ff8383;fill-opacity:1;fill-rule:evenodd;stroke:#000000;stroke-width:2.66919589;stroke-linecap:butt;stroke-linejoin:miter;stroke-miterlimit:4;stroke-dasharray:none;stroke-opacity:1" />
  <path
     d="M 485.53475,408.28659 C 485.53475,422.80299 475.7105,431.89552 463.78586,441.41539 C 451.86118,450.93522 435.39064,456.82596 417.20727,456.82596 C 399.02385,456.82596 382.55332,450.93522 370.62868,441.41539 C 358.704,431.89552 353.77068,422.80299 353.77068,408.28659 C 353.77068,393.77011 361.14949,380.62118 373.07416,371.10133 C 384.9988,361.58149 401.46933,380.02929 419.65275,380.02929 C 437.83614,380.02929 454.30667,361.58149 466.23134,371.10133 C 478.15594,380.62118 485.53475,393.77011 485.53475,408.28659 z"
     id="path1556"
     sodipodi:nodetypes="cscscscsc"
     style="fill:#ffdddd;fill-opacity:1;fill-rule:evenodd;stroke:#000000;stroke-width:4.32677841;stroke-linecap:round;stroke-linejoin:miter;stroke-miterlimit:4;stroke-dasharray:none;stroke-opacity:1" />
  <path
     d="M 325.34212,691.03088 A 18.714369,18.714369 0 1 1 287.91338,691.03088 A 18.714369,18.714369 0 1 1 325.34212,691.03088 z"
     id="path1559"
     sodipodi:cx="306.62775"
     sodipodi:cy="691.03088"
     sodipodi:rx="18.714369"
     sodipodi:ry="18.714369"
     sodipodi:type="arc"
     style="fill:#000000;fill-opacity:1;fill-rule:evenodd;stroke:#000000;stroke-width:1pt;stroke-linecap:butt;stroke-linejoin:miter;stroke-opacity:1"
     transform="matrix(1.1856963,0,0,1.1856963,22.457282,-417.2317)" />
  <path
     d="M 325.34212,691.03088 A 18.714369,18.714369 0 1 1 287.91338,691.03088 A 18.714369,18.714369 0 1 1 325.34212,691.03088 z"
     id="path1560"
     sodipodi:cx="306.62775"
     sodipodi:cy="691.03088"
     sodipodi:rx="18.714369"
     sodipodi:ry="18.714369"
     sodipodi:type="arc"
     style="fill:#000000;fill-opacity:1;fill-rule:evenodd;stroke:#000000;stroke-width:1pt;stroke-linecap:butt;stroke-linejoin:miter;stroke-opacity:1"
     transform="matrix(0.8196367,0,0,0.8196367,203.13776,-166.6277)" />
  <path
     d="M 435.63848,467.01499 C 439.79488,473.26124 437.35131,484.54164 434.01012,490.16898 C 430.82723,496.65638 424.59764,502.52574 420.43343,495.64074 C 416.66815,486.51279 423.51325,478.8749 428.00512,480.55713 C 431.38606,477.77858 432.66358,470.70101 435.63848,467.01499 z"
     id="path1564"
     style="fill:#ffaeae;fill-opacity:1;fill-rule:evenodd;stroke:none;stroke-width:0.88749999;stroke-linecap:butt;stroke-linejoin:miter;stroke-miterlimit:4;stroke-opacity:1" />
  <path
     d="M 624.3009,353.97297 C 624.3009,353.97297 735.98262,355.08749 773.51111,284.27309 C 811.03961,213.45877 827.74799,113.47016 808.32813,17.785095 C 746.92636,70.195778 655.43954,74.806102 607.05614,101.81693 C 558.67272,128.82771 533.44139,197.31002 533.44139,197.31002"
     id="path1594"
     sodipodi:nodetypes="ccccc"
     style="fill:#ffdddd;fill-opacity:1;fill-rule:evenodd;stroke:#000000;stroke-width:19.49028397;stroke-linecap:butt;stroke-linejoin:miter;stroke-miterlimit:4;stroke-opacity:1" />
  <path
     d="M 594.08511,273.55672 C 602.68741,297.24501 660.4156,358.98754 697.70161,324.90281 C 734.98761,290.81805 766.33302,234.73919 775.5395,173.31319 C 728.20038,191.16979 673.49267,173.8729 639.26774,179.40687 C 605.04276,184.94088 572.34825,217.64193 580.929,238.28854"
     id="path1595"
     sodipodi:nodetypes="ccccs"
     style="fill:#e5c6c6;fill-opacity:1;fill-rule:evenodd;stroke:none;stroke-width:0.62538857pt;stroke-linecap:butt;stroke-linejoin:miter;stroke-opacity:1" />
  <path
     d="M 614.82853,292.36786 C 623.97031,304.95571 674.40359,332.08192 698.67351,305.97474 C 722.94335,279.86758 740.26736,241.7434 740.30806,204.02907 C 706.64071,222.18227 663.47378,220.78634 638.30498,229.55996 C 613.13612,238.33363 592.1708,262.88551 600.95494,273.68262"
     id="path1597"
     sodipodi:nodetypes="ccccs"
     style="fill:#c4a9a9;fill-opacity:1;fill-rule:evenodd;stroke:none;stroke-width:0.62538857pt;stroke-linecap:butt;stroke-linejoin:miter;stroke-opacity:1" />
</svg>
