<?xml version="1.0" encoding="iso-8859-1"?>
<!-- Generator: Adobe Illustrator 13.0.2, SVG Export Plug-In . SVG Version: 6.00 Build 14948)  -->
<!DOCTYPE svg PUBLIC "-//W3C//DTD SVG 1.1//EN" "http://www.w3.org/Graphics/SVG/1.1/DTD/svg11.dtd">
<svg version="1.1"
	 id="svg2" xmlns:svg="http://www.w3.org/2000/svg" xmlns:inkscape="http://www.inkscape.org/namespaces/inkscape" xmlns:cc="http://web.resource.org/cc/" inkscape:version="0.42" sodipodi:version="0.32" sodipodi:docname="emule.svg" xmlns:rdf="http://www.w3.org/1999/02/22-rdf-syntax-ns#" sodipodi:docbase="/mnt/trabalho/logos/meus/emule" xmlns:sodipodi="http://inkscape.sourceforge.net/DTD/sodipodi-0.dtd" xmlns:dc="http://purl.org/dc/elements/1.1/"
	 xmlns="http://www.w3.org/2000/svg" xmlns:xlink="http://www.w3.org/1999/xlink" x="0px" y="0px" width="489.105px"
	 height="495.538px" viewBox="45.43 159.724 489.105 495.538" style="enable-background:new 45.43 159.724 489.105 495.538;"
	 xml:space="preserve">
<sodipodi:namedview  inkscape:window-width="1276" borderopacity="1.0" inkscape:current-layer="svg2" inkscape:cy="537.82686" bordercolor="#666666" inkscape:window-y="27" pagecolor="#ffffff" inkscape:pageopacity="0.0" inkscape:pageshadow="2" inkscape:window-height="946" inkscape:cx="372.04724" inkscape:window-x="0" inkscape:zoom="0.73643847" id="base">
	</sodipodi:namedview>
<g id="g7216" transform="matrix(19.71408,0.000000,0.000000,19.71408,-6671.917,-9724.248)" inkscape:export-xdpi="300.86514" inkscape:export-ydpi="300.86514" inkscape:export-filename="/mnt/trabalho/logos/meus/emule/emule.png">
	<path id="path2088" style="fill:#FFCA88;" d="M350.08,509.701c-0.427-0.005-1.106,0.595-1.491,0.932
		c-0.433,0.379-0.507,0.734-0.745,1.211c-0.22,0.44-0.186,0.892-0.186,1.398c0,0.559,0.167,0.929,0.28,1.305
		c0.171,0.57,0.482,0.724,0.745,1.025c0.124,0.142,0.933,0.224,1.118,0.28c0.439,0.132,0.751,0.319,1.118,0.466
		c0.463,0.185,0.571,0.382,0.932,0.652c0.492,0.369,0.435,0.23,1.025,0.466c0.815,0.326,1-0.695,1.211-1.118
		c0.267-0.533,0.093-1.464,0.093-2.05c0-0.602-0.125-0.976-0.28-1.491c-0.139-0.464-0.661-0.992-0.932-1.398
		c-0.268-0.402-0.759-0.814-1.025-1.118c-0.301-0.344-0.907-0.375-1.211-0.466C350.522,509.731,350.298,509.732,350.08,509.701z"/>
	<path id="path7212" style="fill-opacity:0.0776;" d="M350.08,509.701c-0.427-0.005-1.106,0.595-1.491,0.932
		c-0.433,0.379-0.507,0.734-0.745,1.211c-0.22,0.44-0.186,0.892-0.186,1.398c0,0.559,0.167,0.929,0.28,1.305
		c0.171,0.57,0.482,0.724,0.745,1.025c0.124,0.142,0.933,0.224,1.118,0.28c0.439,0.132,0.751,0.319,1.118,0.466
		c0.463,0.185,0.571,0.382,0.932,0.652c0.492,0.369,0.435,0.23,1.025,0.466c0.815,0.326,1-0.695,1.211-1.118
		c0.267-0.533,0.093-1.464,0.093-2.05c0-0.602-0.125-0.976-0.28-1.491c-0.139-0.464-0.661-0.992-0.932-1.398
		c-0.268-0.402-0.759-0.814-1.025-1.118c-0.301-0.344-0.907-0.375-1.211-0.466C350.522,509.731,350.298,509.732,350.08,509.701z"/>
	<path id="path2826" style="fill:#FFCA88;" d="M347.366,515.58c-0.427-0.005-1.106,0.595-1.491,0.932
		c-0.433,0.379-0.507,0.734-0.745,1.211c-0.22,0.44-0.186,0.891-0.186,1.398c0,0.559,0.167,0.929,0.28,1.305
		c0.171,0.57,0.482,0.724,0.745,1.025c0.124,0.142,0.933,0.224,1.118,0.28c0.439,0.132,0.751,0.319,1.118,0.466
		c0.463,0.185,0.571,0.382,0.932,0.652c0.492,0.369,0.435,0.23,1.025,0.466c0.815,0.326,1-0.695,1.211-1.118
		c0.267-0.533,0.093-1.464,0.093-2.05c0-0.602-0.125-0.976-0.28-1.491c-0.139-0.464-0.661-0.992-0.932-1.398
		c-0.268-0.402-0.759-0.814-1.025-1.118c-0.301-0.344-0.907-0.375-1.211-0.466C347.808,515.611,347.584,515.612,347.366,515.58z"/>
	<path id="path2834" style="fill:#FFCA88;" d="M364.884,517.824c-0.062-0.231-0.279-0.76-0.43-1.1
		c-0.149-0.336-0.325-0.666-0.484-0.99c-0.148-0.303-0.294-0.387-0.538-0.605c-0.263-0.236-0.472-0.391-0.753-0.55
		c-0.254-0.144-0.55-0.27-0.753-0.385c-0.2-0.114-0.585-0.152-0.806-0.22c-0.236-0.072-0.612,0-0.86,0c-0.269,0-0.538,0-0.806,0
		c-0.287,0-0.573,0-0.86,0c-0.3,0-0.535,0.054-0.806,0.11c-0.298,0.061-0.543,0.167-0.806,0.275
		c-0.287,0.117-0.513,0.314-0.699,0.44c-0.263,0.179-0.432,0.366-0.699,0.605c-0.247,0.221-0.41,0.492-0.591,0.77
		c-0.188,0.288-0.253,0.565-0.376,0.88c-0.159,0.406-0.176,0.829-0.215,1.265c-0.038,0.431,0,0.887,0,1.32
		c0,0.44,0.038,0.821,0.108,1.21c0.099,0.555,0.278,1.042,0.376,1.595c0.068,0.384,0.273,0.701,0.43,0.99
		c0.169,0.312,0.67,0.607,0.914,0.825c0.349,0.312,0.733,0.49,1.129,0.715c0.436,0.248,1.027,0.296,1.505,0.385
		c0.556,0.103,1.083,0.053,1.613-0.055c0.512-0.105,1.079-0.524,1.559-0.77c0.589-0.301,1.091-0.706,1.613-1.045
		c0.447-0.291,0.601-0.749,0.806-1.21c0.281-0.633,0.364-1.32,0.591-1.925c0.148-0.395,0.084-0.979,0.161-1.375
		c0.052-0.265,0.054-0.534,0.054-0.825c0-0.035-0.154-0.263-0.161-0.275"/>
	<path id="path6484" style="fill-opacity:0.0776;" d="M364.884,517.824c-0.062-0.231-0.279-0.76-0.43-1.1
		c-0.149-0.336-0.325-0.666-0.484-0.99c-0.148-0.303-0.294-0.387-0.538-0.605c-0.263-0.236-0.472-0.391-0.753-0.55
		c-0.254-0.144-0.55-0.27-0.753-0.385c-0.2-0.114-0.585-0.152-0.806-0.22c-0.236-0.072-0.612,0-0.86,0c-0.269,0-0.538,0-0.806,0
		c-0.287,0-0.573,0-0.86,0c-0.3,0-0.535,0.054-0.806,0.11c-0.298,0.061-0.543,0.167-0.806,0.275
		c-0.287,0.117-0.513,0.314-0.699,0.44c-0.263,0.179-0.432,0.366-0.699,0.605c-0.247,0.221-0.41,0.492-0.591,0.77
		c-0.188,0.288-0.253,0.565-0.376,0.88c-0.159,0.406-0.176,0.829-0.215,1.265c-0.038,0.431,0,0.887,0,1.32
		c0,0.44,0.038,0.821,0.108,1.21c0.099,0.555,0.278,1.042,0.376,1.595c0.068,0.384,0.273,0.701,0.43,0.99
		c0.169,0.312,0.67,0.607,0.914,0.825c0.349,0.312,0.733,0.49,1.129,0.715c0.436,0.248,1.027,0.296,1.505,0.385
		c0.556,0.103,1.083,0.053,1.613-0.055c0.512-0.105,1.079-0.524,1.559-0.77c0.589-0.301,1.091-0.706,1.613-1.045
		c0.447-0.291,0.601-0.749,0.806-1.21c0.281-0.633,0.364-1.32,0.591-1.925c0.148-0.395,0.084-0.979,0.161-1.375
		c0.052-0.265,0.054-0.534,0.054-0.825c0-0.035-0.154-0.263-0.161-0.275"/>
	<path id="path7214" style="fill-opacity:0.0776;" d="M347.366,515.58c-0.427-0.005-1.106,0.595-1.491,0.932
		c-0.433,0.379-0.507,0.734-0.745,1.211c-0.22,0.44-0.186,0.891-0.186,1.398c0,0.559,0.167,0.929,0.28,1.305
		c0.171,0.57,0.482,0.724,0.745,1.025c0.124,0.142,0.933,0.224,1.118,0.28c0.439,0.132,0.751,0.319,1.118,0.466
		c0.463,0.185,0.571,0.382,0.932,0.652c0.492,0.369,0.435,0.23,1.025,0.466c0.815,0.326,1-0.695,1.211-1.118
		c0.267-0.533,0.093-1.464,0.093-2.05c0-0.602-0.125-0.976-0.28-1.491c-0.139-0.464-0.661-0.992-0.932-1.398
		c-0.268-0.402-0.759-0.814-1.025-1.118c-0.301-0.344-0.907-0.375-1.211-0.466C347.808,515.611,347.584,515.612,347.366,515.58z"/>
	<path id="path1321" style="fill:#D28C4C;" d="M340.848,522.746c0.06-2.044,0.301-4.069,0.536-4.499
		c0.235-0.43,0.389-2.603,0.342-4.829c-0.047-2.225,0.189-3.877,0.523-3.67c0.335,0.207,0.608-0.654,0.608-1.912
		c0-2.97,2.721-6.411,5.069-6.411c1.441,0,1.74,0.33,1.417,1.565c-0.49,1.875-0.403,1.886,3.174,0.391
		c2.992-1.25,10.684-1.619,10.684-0.512c0,1.153-2.673,3.137-6.517,4.837l-3.721,1.646l2.807,1.905
		c1.544,1.048,3.511,1.905,4.372,1.905c2.717,0,5.407,3.457,5.407,6.95c0,5.252-5.192,7.874-10.66,5.383
		c-1.69-0.77-2.193-0.77-2.449,0c-0.217,0.652-2.185,0.969-6.012,0.969h-5.689L340.848,522.746z M364.135,522.139
		c0.724-1.588,0.646-2.511-0.395-4.695c-1.342-2.815-3.554-3.527-6.016-1.935c-0.915,0.591-0.699,0.761,0.978,0.77
		c2.52,0.014,2.761,0.82,0.643,2.143c-1.179,0.736-1.603,0.735-1.936-0.007c-0.235-0.522-0.357-0.246-0.271,0.615
		c0.086,0.861-0.105,1.981-0.424,2.489c-0.883,1.407,0.906,2.089,2.368,0.904c0.742-0.602,1.058-0.659,0.743-0.134
		c-0.54,0.9,0.48,1.645,2.414,1.766C362.787,524.088,363.64,523.226,364.135,522.139z M347.552,517.856
		c0-0.43-0.352-0.782-0.782-0.782s-0.782,0.352-0.782,0.782c0,0.43,0.352,0.782,0.782,0.782S347.552,518.287,347.552,517.856z
		 M352.76,514.33c0.593-1.278,0.634-2.116,0.121-2.434c-1.161-0.718-3.27,1.732-2.721,3.161
		C350.836,516.821,351.719,516.575,352.76,514.33z"/>
	<path id="path1319" style="fill:#C77732;" d="M340.85,522.672c0.059-2.003,0.299-3.995,0.534-4.425
		c0.235-0.43,0.389-2.603,0.342-4.829c-0.047-2.225,0.189-3.877,0.523-3.67c0.335,0.207,0.608-0.654,0.608-1.912
		c0-2.97,2.721-6.411,5.069-6.411c1.441,0,1.74,0.33,1.417,1.565c-0.49,1.875-0.403,1.886,3.174,0.391
		c2.992-1.25,10.684-1.619,10.684-0.512c0,1.153-2.673,3.137-6.517,4.837l-3.721,1.646l2.807,1.905
		c1.544,1.048,3.511,1.905,4.372,1.905c2.717,0,5.407,3.457,5.407,6.95c0,5.216-5.191,7.874-10.582,5.418
		c-1.36-0.619-2.228-0.667-2.58-0.141c-0.292,0.436-3.031,0.823-6.087,0.86l-5.556,0.067L340.85,522.672z M359.189,523.529
		c-0.966-1.231-0.94-1.265,0.252-0.331c0.729,0.571,2.138,0.923,3.13,0.782c1.458-0.207,1.85-0.811,2.044-3.157
		c0.319-3.842-0.869-5.853-3.842-6.506c-3.246-0.713-4.603,0.741-5.061,5.422c-0.435,4.437-0.079,5.158,2.545,5.158
		C360.055,524.898,360.152,524.756,359.189,523.529z M358.115,517.074c-0.266-0.43,0.045-0.782,0.69-0.782
		c0.646,0,1.391,0.352,1.657,0.782c0.266,0.43-0.045,0.782-0.69,0.782C359.127,517.856,358.381,517.504,358.115,517.074z
		 M350.107,519.893c-0.388-2.028-2.899-5.167-4.135-5.167c-1.113,0-1.865,3.909-0.932,4.843c1.161,1.161,4.379,2.775,4.95,2.483
		C350.255,521.917,350.308,520.945,350.107,519.893z M353.199,516.412c-1.385-0.879-0.295-3.467,1.216-2.887
		c0.979,0.376,1.013,0.249,0.194-0.737c-1.23-1.482-3.448-1.538-4.627-0.117c-1.108,1.336-0.382,3.417,1.354,3.876
		C353.54,517.131,354.25,517.08,353.199,516.412z M348.335,509.119c0-0.502,0.221-0.692,0.49-0.422
		c0.526,0.526,4.618-1.337,6.552-2.982c0.646-0.549,1.878-1.166,2.739-1.371c0.861-0.205,0.156-0.368-1.565-0.361
		c-1.721,0.006-4.186,0.532-5.477,1.169c-4.331,2.136-6.532,4.881-3.912,4.881C347.807,510.032,348.335,509.621,348.335,509.119z
		 M346.087,503.968c0.973-1.241,0.946-1.269-0.295-0.295c-0.753,0.591-1.369,1.207-1.369,1.369
		C344.423,505.686,345.065,505.271,346.087,503.968z"/>
	<path id="path1317" style="fill:#B4682A;" d="M340.848,522.746c-0.024-3.344,1.292-6.597,0.831-9.955
		c-0.012-1.442,0.337-2.904,1.104-4.133c0.07-2.124,0.682-4.343,2.309-5.811c0.91-0.876,2.13-1.498,3.414-1.481
		c1.392,0.361,0.298,3.589,2.289,2.691c2.867-1.311,6.036-1.861,9.175-1.821c1.143-0.334,3.516,0.193,2.593,1.784
		c-0.931,1.426-2.657,1.946-4.049,2.791c-1.816,0.921-3.684,1.731-5.551,2.541c2.438,1.624,4.865,3.67,7.91,3.905
		c4.482,1.357,6.267,7.847,3.001,11.247c-2.311,2.436-6.281,2.462-9.081,0.893c-1.508-0.946-2.723,0.593-3.985,0.964
		c-1.654,0.033-2.992-1.396-4.683-1.141c-1.482,0.206-2.72,1.829-4.321,1.09C340.359,525.609,340.883,523.986,340.848,522.746z
		 M359.189,523.529c0.315-1.06,1.683,0.828,2.514,0.523c1.579,0.177,2.922-1.156,2.868-2.71c0.174-1.554,0.06-3.176-0.431-4.658
		c-1.085-1.923-3.501-2.746-5.606-2.58c-1.801,0.337-3.023,2.148-4.902,2.189c-1.679-0.164-1.485-2.756,0.179-2.705
		c0.915,0.046,1.357-0.775,0.388-1.217c-1.109-0.963-3.006-0.985-3.971,0.197c-0.946,0.91-1.956-0.499-1.128-1.281
		c-0.43-1.553-2.907,0.371-1.428,1.293c0.699,1.47-1.277,2.167-2.253,1.271c-1.318,0.156-1.444,1.835-1.766,2.861
		c-0.348,1.653,0.24,3.601,1.827,4.397c1.268,0.708,2.716,1.227,4.177,1.257c1.551-0.122,3.029-1.897,2.257-3.409
		c-0.84-1.369,0.683-2.834,1.941-1.765c1.392,0.6,2.394,2.278,1.756,3.759c-0.353,1.283-0.237,3.048,1.14,3.674
		C357.544,525.375,360.25,525.04,359.189,523.529z M358.115,517.074c-0.054-2.124,3.467,0.561,1.206,0.741
		C358.833,517.759,358.446,517.408,358.115,517.074z M352.777,508.139c2.386-0.979,4.894-1.85,6.883-3.553
		c-0.706-1.55-2.579-0.6-3.839-0.632c-4.126,0.238-8.356,2.39-10.258,6.185c-0.901,0.413-0.558,2.453,0.429,1.162
		C348.096,509.937,350.459,509.059,352.777,508.139z M346.745,503.481c-1.343-0.548-3.168,2.229-1.372,2.429
		C346.257,505.46,346.211,504.218,346.745,503.481z"/>
	<path id="path1315" style="fill:#914B19;" d="M340.848,522.746c0.06-2.044,0.301-4.069,0.536-4.499
		c0.235-0.43,0.389-2.603,0.342-4.829c-0.047-2.225,0.189-3.877,0.523-3.67c0.335,0.207,0.608-0.654,0.608-1.912
		c0-2.97,2.721-6.411,5.069-6.411c1.441,0,1.74,0.33,1.417,1.565c-0.49,1.875-0.403,1.886,3.174,0.391
		c2.992-1.25,10.684-1.619,10.684-0.512c0,1.153-2.673,3.137-6.517,4.837l-3.721,1.646l2.807,1.905
		c1.544,1.048,3.511,1.905,4.372,1.905c2.717,0,5.407,3.457,5.407,6.95c0,5.216-5.191,7.874-10.582,5.418
		c-1.626-0.741-2.178-0.724-2.676,0.081c-0.477,0.771-1.013,0.808-2.24,0.151c-2.013-1.077-6.41-1.133-6.41-0.081
		c0,0.43-0.653,0.782-1.451,0.782C340.965,526.463,340.756,525.883,340.848,522.746z M359.652,524.085
		c-1.438-1.589-1.434-1.591,0.816-0.424c1.645,0.853,2.537,0.942,3.279,0.326c1.307-1.085,1.32-6.203,0.02-7.981
		c-1.237-1.692-6.611-3.043-7.35-1.847c-0.302,0.489-0.776,0.131-1.144-0.864c-0.765-2.069-3.452-2.236-6.177-0.383l-1.935,1.315
		l1.491-1.706c1.479-1.693,1.476-1.707-0.391-1.774l-1.882-0.067l1.956-0.628c4.434-1.424,12.882-5.413,13.147-6.208
		c0.424-1.271-4.473-1.048-8.71,0.395c-4.569,1.557-7.927,5.465-9.179,10.681c-0.836,3.483-0.774,4.078,0.614,5.946
		c2.059,2.77,5.926,3.166,8.967,0.919l2.253-1.666l-0.5,1.993c-0.404,1.61-0.146,2.135,1.344,2.731
		c1.014,0.406,2.515,0.761,3.334,0.788C361.057,525.679,361.058,525.638,359.652,524.085z M358.898,517.074
		c-0.266-0.43-0.131-0.782,0.299-0.782c0.43,0,1,0.352,1.266,0.782c0.266,0.43,0.131,0.782-0.299,0.782
		C359.733,517.856,359.164,517.504,358.898,517.074z M352.823,515.824c-0.627-0.627,0.194-2.662,1.073-2.662
		c0.384,0,0.699,0.704,0.699,1.565C354.594,516.252,353.764,516.766,352.823,515.824z M346.77,504.754
		c0-1.65-0.184-1.804-1.174-0.982c-0.646,0.536-1.174,1.854-1.174,2.93c0,1.65,0.184,1.804,1.174,0.982
		C346.242,507.149,346.77,505.83,346.77,504.754z"/>
	<path id="path1313" style="fill:#6D2F0A;" d="M340.848,522.746c0.06-2.044,0.301-4.069,0.536-4.499
		c0.235-0.43,0.389-2.603,0.342-4.829c-0.047-2.225,0.189-3.877,0.523-3.67c0.335,0.207,0.608-0.654,0.608-1.912
		c0-2.97,2.721-6.411,5.069-6.411c1.441,0,1.74,0.33,1.417,1.565c-0.49,1.875-0.403,1.886,3.174,0.391
		c2.992-1.25,10.684-1.619,10.684-0.512c0,1.765-10.629,7.663-12.616,7c-0.52-0.173,1.197-1.096,3.816-2.051
		c2.619-0.955,5.582-2.42,6.585-3.256l1.824-1.52l-3.912-0.009c-7.845-0.018-13.678,4.474-15.274,11.761
		c-1.468,6.703,1.065,9.692,7.821,9.225c1.517-0.105,3.528,0.226,4.468,0.735c0.94,0.509,2.651,0.926,3.803,0.926h2.094
		l-1.847-1.611l-1.847-1.611l2.156,1.313c2.886,1.758,4.495,0.447,4.495-3.663c0-3.477-2.127-6.161-4.89-6.169
		c-0.968-0.003-2.792-0.685-4.053-1.516c-2.113-1.393-2.512-1.42-5.086-0.349c-2.332,0.97-2.599,0.978-1.62,0.049
		c2.103-1.995,5.115-2.209,7.267-0.516c1.088,0.856,2.731,1.556,3.651,1.556c2.813,0,5.514,3.404,5.514,6.95
		c0,5.252-5.192,7.874-10.66,5.383c-1.708-0.778-2.192-0.772-2.46,0.033c-0.213,0.64-0.659,0.743-1.236,0.285
		c-0.496-0.394-1.958-0.887-3.249-1.096c-1.291-0.208-2.932-0.63-3.646-0.937c-0.917-0.395-1.45-0.082-1.813,1.063
		C341.584,527.678,340.735,526.591,340.848,522.746z M348.28,503.564c-0.052-1.662-0.086-1.671-0.677-0.183
		c-0.622,1.565-0.622,1.565-0.962,0c-0.296-1.36-0.514-1.238-1.67,0.939c-0.731,1.377-1.32,3.314-1.307,4.303
		c0.022,1.712,0.135,1.676,2.347-0.756C347.289,506.462,348.31,504.526,348.28,503.564z M359.289,517.074
		c-0.705-0.456-0.802-0.763-0.242-0.77c0.513-0.007,1.149,0.34,1.415,0.77C361.063,518.045,360.792,518.045,359.289,517.074z
		 M352.823,515.824c-0.627-0.627,0.194-2.662,1.073-2.662c0.384,0,0.699,0.704,0.699,1.565
		C354.594,516.252,353.764,516.766,352.823,515.824z"/>
	<path id="path1311" style="fill:#1D2026;" d="M355.457,525.747c-0.601-0.381-2.297-0.692-3.769-0.692
		c-1.471,0-2.916-0.248-3.21-0.55c-0.541-0.557,4.686-0.134,10.419,0.844l3.13,0.534l-1.956-1.712l-1.956-1.712l2.156,1.313
		c2.886,1.758,4.495,0.447,4.495-3.663c0-3.545-2.141-6.164-5.04-6.164c-1.05,0-2.13-0.355-2.398-0.79
		c-0.268-0.434-1.777-1.451-3.353-2.259l-2.865-1.47l5.156-2.338c2.836-1.286,5.401-2.734,5.7-3.218
		c0.808-1.308-6.063-1.121-9.354,0.254c-1.492,0.624-2.713,0.958-2.713,0.742s1.221-0.901,2.713-1.525
		c2.918-1.219,10.588-1.562,10.588-0.473c0,1.153-2.673,3.137-6.517,4.837l-3.721,1.646l2.807,1.905
		c1.544,1.048,3.511,1.905,4.372,1.905c2.717,0,5.407,3.457,5.407,6.95c0,2.426-0.452,3.464-2.062,4.73
		C361.36,526.514,357.378,526.963,355.457,525.747z M345.55,523.681c-1.458-1.168-1.449-1.183,0.242-0.364
		c0.968,0.469,1.76,1.017,1.76,1.217C347.552,525.133,347.147,524.96,345.55,523.681z M341.355,523.007
		c-0.034-0.825,0.151-1.287,0.411-1.027c0.26,0.26,0.288,0.935,0.062,1.5C341.578,524.104,341.392,523.919,341.355,523.007z
		 M341.572,517.063c0.053-1.285,0.363-2.337,0.691-2.337c0.832,0,0.748,3.726-0.096,4.247
		C341.787,519.208,341.52,518.348,341.572,517.063z M359.289,517.074c-0.705-0.456-0.802-0.763-0.242-0.77
		c0.513-0.007,1.149,0.34,1.415,0.77C361.063,518.045,360.792,518.045,359.289,517.074z M353.03,514.773
		c0-0.886,0.352-1.611,0.782-1.611c0.43,0,0.782,0.507,0.782,1.127s-0.352,1.345-0.782,1.611
		C353.382,516.166,353.03,515.659,353.03,514.773z M341.65,511.652c-0.017-1.261,0.248-2.12,0.589-1.91
		c0.34,0.21,0.619-0.655,0.619-1.924s0.725-3.138,1.611-4.154l1.611-1.847l-1.321,2.168c-0.935,1.534-1.193,3.124-0.883,5.436
		c0.285,2.129,0.188,2.873-0.278,2.135c-0.558-0.882-0.719-0.743-0.729,0.628C342.852,514.818,341.686,514.309,341.65,511.652z
		 M346.506,507.685c0.931-1.076,1.851-2.836,2.045-3.912l0.353-1.956l0.107,2.015c0.069,1.307-0.649,2.682-2.045,3.912l-2.152,1.897
		L346.506,507.685z"/>
	<path id="path1309" style="fill:#501200;" d="M349.9,524.898c-1.821-0.583-1.838-0.632-0.242-0.704
		c0.943-0.043,1.932,0.274,2.198,0.704c0.266,0.43,0.375,0.747,0.242,0.704C351.965,525.56,350.976,525.243,349.9,524.898z
		 M345.55,523.681c-1.458-1.168-1.449-1.183,0.242-0.364c0.968,0.469,1.76,1.017,1.76,1.217
		C347.552,525.133,347.147,524.96,345.55,523.681z M341.355,523.007c-0.034-0.825,0.151-1.287,0.411-1.027
		c0.26,0.26,0.288,0.935,0.062,1.5C341.578,524.104,341.392,523.919,341.355,523.007z M341.606,516.733
		c0-1.048,0.282-1.731,0.626-1.519c0.815,0.504,0.815,3.424,0,3.424C341.888,518.639,341.606,517.781,341.606,516.733z
		 M341.649,511.578c-0.016-1.221,0.249-2.047,0.59-1.837c0.34,0.21,0.619-0.655,0.619-1.924s0.725-3.138,1.611-4.154l1.611-1.847
		l-1.321,2.168c-0.935,1.534-1.193,3.124-0.883,5.436c0.285,2.129,0.188,2.873-0.278,2.135c-0.599-0.946-0.719-0.915-0.729,0.19
		C342.849,514.057,341.68,513.896,341.649,511.578z M357.328,513.154c-0.268-0.434-1.777-1.451-3.353-2.259l-2.865-1.47l5.156-2.338
		c2.836-1.286,5.401-2.734,5.7-3.218c0.808-1.308-6.063-1.121-9.354,0.254c-1.492,0.624-2.713,0.958-2.713,0.742
		s1.221-0.901,2.713-1.525c2.918-1.219,10.588-1.562,10.588-0.473c0,1.158-2.678,3.139-6.569,4.86l-3.773,1.669l2.347,1.427
		c2.178,1.324,3.905,3.119,3.001,3.119C357.992,513.944,357.597,513.589,357.328,513.154z M346.506,507.685
		c0.931-1.076,1.851-2.836,2.045-3.912l0.353-1.956l0.107,2.015c0.069,1.307-0.649,2.682-2.045,3.912l-2.152,1.897L346.506,507.685z
		"/>
</g>
</svg>
