<?xml version="1.0" encoding="UTF-8" standalone="no"?>
<!-- Generator: Adobe Illustrator 12.0.0, SVG Export Plug-In . SVG Version: 6.00 Build 51448)  -->
<svg
   xmlns:dc="http://purl.org/dc/elements/1.1/"
   xmlns:cc="http://web.resource.org/cc/"
   xmlns:rdf="http://www.w3.org/1999/02/22-rdf-syntax-ns#"
   xmlns:svg="http://www.w3.org/2000/svg"
   xmlns="http://www.w3.org/2000/svg"
   xmlns:sodipodi="http://sodipodi.sourceforge.net/DTD/sodipodi-0.dtd"
   xmlns:inkscape="http://www.inkscape.org/namespaces/inkscape"
   height="253.408"
   id="Layer_1"
   inkscape:version="0.45.1"
   sodipodi:docbase="/Users/johnolsen/Desktop/openclipart-0.20-pre/recovered-zerobyte-files/animals/dinosaurs"
   sodipodi:docname="dinosauro_architetto_fr_08r.svg"
   sodipodi:version="0.32"
   space="preserve"
   style="overflow:visible;enable-background:new 0 0 249.741 253.408;"
   version="1.1"
   viewBox="0 0 249.741 253.408"
   width="249.741"
   inkscape:output_extension="org.inkscape.output.svg.inkscape">
  <metadata
     id="metadata3">
    <rdf:RDF>
      <cc:Work
         rdf:about="">
        <dc:title>Dinosauro</dc:title>
        <dc:description />
        <dc:subject>
          <rdf:Bag>
            <rdf:li>animal</rdf:li>
            <rdf:li>dinosaur</rdf:li>
            <rdf:li>cartoon</rdf:li>
          </rdf:Bag>
        </dc:subject>
        <dc:publisher>
          <cc:Agent
             rdf:about="http://www.openclipart.org/">
            <dc:title>Open Clip Art Library</dc:title>
          </cc:Agent>
        </dc:publisher>
        <dc:creator>
          <cc:Agent>
            <dc:title>Architetto Francesco Rollandin</dc:title>
          </cc:Agent>
        </dc:creator>
        <dc:rights>
          <cc:Agent>
            <dc:title>Architetto Francesco Rollandin</dc:title>
          </cc:Agent>
        </dc:rights>
        <dc:date />
        <dc:format>image/svg+xml</dc:format>
        <dc:type
           rdf:resource="http://purl.org/dc/dcmitype/StillImage" />
        <cc:license
           rdf:resource="http://web.resource.org/cc/PublicDomain" />
        <dc:language>en</dc:language>
      </cc:Work>
      <cc:License
         rdf:about="http://web.resource.org/cc/PublicDomain">
        <cc:permits
           rdf:resource="http://web.resource.org/cc/Reproduction" />
        <cc:permits
           rdf:resource="http://web.resource.org/cc/Distribution" />
        <cc:permits
           rdf:resource="http://web.resource.org/cc/DerivativeWorks" />
      </cc:License>
    </rdf:RDF>
  </metadata>
  <defs
     id="defs46" />
  <sodipodi:namedview
     bordercolor="#666666"
     borderopacity="1.0"
     id="base"
     inkscape:current-layer="Layer_1"
     inkscape:cx="124.87050"
     inkscape:cy="126.70400"
     inkscape:pageopacity="0.0"
     inkscape:pageshadow="2"
     inkscape:window-height="712"
     inkscape:window-width="1024"
     inkscape:window-x="-4"
     inkscape:window-y="-4"
     inkscape:zoom="1.4206339"
     pagecolor="#ffffff" />
  <path
     d="M66.857,253.408c8.364-1.819,16.3-4.184,24.627-4.997  c5.221-0.51,10.808-0.356,16.061-0.356c8.547,0,7.377,0.683,10.351-6.782c2.171-5.45,2.833-10.206,6.781-14.813  c2.72-3.172,11.688-5.769,15.348-2.675c4.978,4.206,0.456,17.659,0.714,22.843c15.545-2.509,31.926-2.038,47.47,0.533  c8.427,1.395-1.09-11.904-7.327-10.828c-10.758,1.855-21.469,3.497-32.29,4.939c-0.011-7.373,9.529-11.139,5.71-18.56  c23.745,5.938,49.289,7.714,68.293-10.171c12.93-12.168,34.754-42.752,24.479-60.722c-5.83-10.197-16.936-18.906-20.676-30.113  c-3.666-10.985,4.498-20.553,9.637-29.98c4.444-8.154,10.35-17.472,10.35-26.947c0-5.347-1.108-23.402-7.853-22.307  c4.349,9.227-3.998,22.299-9.636,27.839c-2.397-8.16-8.972,8.702-11.063,12.134c-0.348-0.713-1.417-1.762-1.784-2.855  c-1.666,5.354-3.333,10.708-4.999,16.062c-0.237,0-0.474,0-0.711,0c-1.238-2.441-1.538-1.385-2.499-2.498  c-0.3,4.293,0.965,23.101-4.999,12.135c-1.779,6.223,0.439,11.965,1.786,18.024c0.405,1.825,2.32,7.033,1.429,8.744  c-0.721,1.383-3.341-1.32-3.215-1.785c0.108-0.402-3.041-0.42-1.896,2.385c3.413,8.362,6.759,16.366,9.035,25.098  c-10.863-4.697-11.252,5.886-15.347,14.634c-2.684-1.97-3.352-5.308-4.997-8.208c-3.568,4.401-7.138,8.804-10.706,13.205  c0-4.307,1.415-16.328-6.782-10.172c-9.277,6.965-7.564,2.629-3.927-6.959c-17.892-1.922-3.912-2.075-4.997-9.281  c-1.179-7.828-8.045-1.975-3.213-10.707c0.953-1.722,7.707-7.971,8.915-6.826c2.188,2.071,4.557,5.755,7.683,5.755  c3.859,0,1.194,5.549,4.461,6.424c3.07,0.822,5.789-0.955,7.854-2.854c3.771-3.468,5.547-10.789,0-12.85  c3.398-5.958-1.506-8.237-1.786-11.777c-0.288-3.635,4.189-7.614,1.072-11.778c-0.519-0.692-11.56-1.956-11.951-1.428  c-6.643,8.966-16.453,15.983-22.314,25.34c-2.473-3.056-0.001-4.048,0-3.926c-0.051-4.743,0.338-14.304,0-20.701  c3.584,1.433,4.713,5.606,7.497,7.496c-1.022-9.529-2.365-19.042-3.569-28.553c16.287,12.039,7.215-4.267,4.282-16.417  c2.86,1.634,5.989,4.002,8.566,3.926c-2.38-7.495-4.759-14.991-7.139-22.486c23.789,8.531-4.817-16.297,1.917-19.92  c12.879-6.93-12.272-6.463-10.304-12.38c1.358-4.078,6.659-4.277,8.029-8.387c-9.637,0.833-19.273,1.666-28.91,2.498  c2.021-4.092,6.174-6.61,6.068-11.421c-8.68,3.004-19.902,8.714-29.269,12.849c0.119-2.974,0.239-5.949,0.358-8.923  C100.19,8.554,92.873,18.513,83.633,26.055c-10.304,8.41-19.422,15.495-28.428,24.5c-11.761,11.762-18.997,35.265-9.762,49.737  c0.648-4.024,1.386-8.358,2.498-12.135c2.966,3.39,3.951,8.429,7.852,11.778c0.833-4.402,1.666-8.804,2.499-13.206  c1.596,1.277,3.764,9.079,5.354,9.28c4.219,0.533,8.262-14.789,9.637-17.489c1.309,4.045,2.617,8.09,3.926,12.135  c5.148-4.52,6.42-11.758,10.351-17.132c2.934,5.78,2.542,13.3,7.138,10.351c3.877-2.487,5.534-12.702,6.423-16.774  c9.005,7.46-1.003,20.608-8.922,24.983c-2.979,1.646-14.805-0.163-14.99,0c-2.016,1.77,1.949,7.047,4.284,8.566  c11.924,7.759,26.755-16.636,37.832-1.071c3.232,4.541,3.041,15.03-2.855,13.92c-1.976-0.372-5.888-8.542-7.852-10.351  c-1.116,4.54-2.588,9.06-3.926,13.563c-4.905-2.592-6.474-9.401-10.708-12.135c0.12,4.539,0.682,9.651,0,13.92  c-10.9-8.323-11.953-15.425-11.42,2.141c-2.13-0.571-22.067-6.375-14.098,0c5.72,4.576,8.441,9.652,11.956,15.704  c8.076,13.907,16.351,15.309,30.338,15.348c-4.474,15.05-17.785,23.197-27.337,34.659c-4.929,5.915-12.599,2.044-15.85,6.921  c-2.542,3.813-0.367,8.941-1.428,12.669c-0.884,3.104-4.549,4.385-3.748,8.39c0.872,4.354,4.504,4.192,7.317,1.962  c0.842,6.426,4.97,3.755,9.28,0c1.119,3.892,5.328,5.031,8.209,1.784c2.549-2.873,0.045-4.597,0.357-7.494  c0.178-1.654-1.566-0.938-0.423-3.716c2.468-5.994-2.68-6.373-1.719-10.918c1.037-4.9,10.75-10.511,14.633-13.92  c-2.049,10.538-3.925,22.062-3.925,32.836c0,1.546-0.817,6.508,0.355,7.852c5.178,5.933,8.691-3.642,10.184,8.298  c0.691,5.527,3.539,9.955-2.728,10.791c-5.532,0.739-11.123,0.46-16.683,0.807C83.043,242.872,58.193,247.112,66.857,253.408"
     id="path3"
     style="fill-rule:evenodd;clip-rule:evenodd;" />
  <path
     d="M68.642,250.195c4.721-0.809,12.02-2.663,14.633-1.784  c4.805-4.355,18.323-3.405,25.698-3.213C98.63,242.87,75.594,242.985,68.642,250.195"
     id="path5"
     style="fill-rule:evenodd;clip-rule:evenodd;fill:#006B33;" />
  <path
     d="M112.185,245.198c9.279-3.712,4.748-28.097,21.236-24.805  c4.228,0.845,8.536-0.558,9.28,4.641c0.825,5.763,0.178,11.553,0.893,17.311c2.666-4.316,7.537-9.522,8.564-14.636  c0.376-1.872-1.771-7.88-1.068-8.92c1.953-2.891,13.905,3.679,18.611,4.56c7.694,1.439,16.185,1.61,23.915,0.158  c14.858-2.79,23.816-6.07,32.325-19.229c7.459-11.536,18.366-23.032,21.022-36.985c2.777-14.588-11.913-29.856-21.253-40.129  c-5.677-6.244-2.027-14.161-1.099-19.732c0.844-5.063,5.777-10.184,8.565-14.633c8.198-13.083,14.4-29.117,8.566-44.257  c-1.46,4.94-2.196,11.604-4.64,16.062c-0.315,0.576-2.915,1.138-3.979,3.133c-1.651,3.098-5.534,12.619-6.373,5.433  c-0.119-0.358,0.001-0.477,0.359-0.357c-2.149,3.184-8.519,16.659-11.422,13.206c-1.365,4.966-2.646,10.248-4.281,14.99  c-0.81-1.104-1.459-1.291-2.143-2.855c-0.563,3.54-0.371,18.445-4.997,14.634c0.52,2.215,8.857,30.972,0.714,23.914  c0.16,8.585,8.216,14.57,7.317,23.556c-0.604,6.05-4.399-1.065-5.533-0.714c-1.358,0.421-2.395-2.552-3.518-0.023  c-1.688,3.797-3.806,13.356-7.189,15.728c-4.864,3.409-4.29-0.383-6.424-6.781c-2.77,3.115-12.849,19.269-12.849,8.849  c0-13.761-5.429-5.756-15.347-2.781c0.119-0.356,0-0.476-0.356-0.356c1.847-4.222,6.269-9.606,3.21-12.492  c-2.696-2.545-8.967,2.658-11.063-1.071c-2.253-4.009,12.794-6.946,2.143-13.205c-2.435,2.384-6.687,12.69-7.498,12.135  c-3.081-2.108,3.288-11.406,4.998-13.921c2.05-3.014,5.047-6.582,7.854-9.637c6.559-7.138,7.875-9.719,13.104-2.048  c2.883,4.229,9.183,2.286,6.525-1.698c-2.138-3.206-6.349-1.962-5.956-6.458c1.247-14.313,2.406-3.013,2.03-3  c0.988-0.032-0.752,4.748,2.141,3.926c3.22-0.916,3.108-13.546,2.143-15.704c-3.755-8.388-6.976-0.309-9.993,5.71  c-2.73,5.445-11.507,10.711-15.527,15.882c-2.662,3.424-5.186,10.88-8.744,13.385c-0.951,0.67-1.572,0.98-2.497,1.428  c0.119-0.356,0-0.476-0.357-0.356c2.066-3.662,7.474-9.813,7.853-13.92c0.374-4.054-4.327-9.022-3.927-12.85  c0.276-2.639,2.863-4.762,1.784-1.07c1.422,1.437,1.665,1.3,2.854,4.283c3.948-4.388-3.415-17.836,0.358-22.128  c2.379,2.379,4.759,4.759,7.138,7.138c-1.52-8.89-3.04-17.779-4.56-26.668c-0.809-4.731,9.024,4.869,9.915,5.611  c0.502-10.95-14.938-29.963,3.211-18.917c-2.396-13.487-17.954-24.653,3.569-19.63c-4.328-6.747-20.394-22.372-4.996-21.771  c-3.144-1.913-16.659-7.943-16.063-11.064c0.266-1.392,6.481-3.464,7.854-4.64c-13.462-2.075-37.556,12.57-20.701-7.495  c-8.362,0.695-21.832,6.03-27.482,12.492c12.669-1.909,27.149-2.317,38.057,5.234c4.386,3.036,8.314,6.317,4.059,9.755  c-13.66-24.463-52.761-10.426-70.246,0.257c-15.178,9.274-26.871,20.69-35.2,36.517c-4.604,8.747-3.091,15.562-1.985,24.615  c0-24.764,5.357-0.729,10.707,2.855c0.917-31.109,6.033,5.789,11.421-7.673c5.226-13.057,6.144-22.5,10.707-1.963  c10.717-9.189,4.635-26.781,15.705-4.64c6.478-10.434,4.754-30.848,13.206-8.566c3.335-4.565,6.424-11.24,6.424-16.953  c0-1.958-3.065-9.628-1.071-10.172c6.696-1.828,10.708,45.199,10.708,50.146c0,3.57,0.454,4.626,0.356,6.246  c-0.347,5.772-0.331,26.175-3.926,31.052c-3.112,4.221-1.076-9.592-0.921-10.979c0.748-6.725-4.292-8.073-9.072-14.362  c-4.837,14.951-3.921,13.894-13.205,1.785c-0.482,16.83-0.371,14.192-12.136,3.212c1.567,13.571,1.639,11.403-11.778,7.852  c11.216,13.46,19.143,37.034,42.115,26.412c9.094-4.205,10.721-15.819,18.56-19.631c-0.079,4.438-2.854,8.612-5.354,12.135  c1.572-0.811,6.837-3.258,7.853-1.427c1.711,3.083-8.258,4.877-8.923,7.852c-0.442,1.981,4.137,13.03,5.354,14.633  c3.685,4.853,10.615,8.089,14.633,13.563c6.63,9.034,8.957,17.367,8.568,28.553c-0.365,10.504-1.932,11.779-12.673,11.779  c-7.106,0-15.462,2.348-22.308,4.283c-7.53,2.129-11.994,2.55-11.242,11.063C109.278,235.334,112.302,241.687,112.185,245.198"
     id="path7"
     style="fill-rule:evenodd;clip-rule:evenodd;fill:#00A33D;" />
  <path
     d="M187.494,244.128c-2.121-9.63-23.374-3.32-30.692-1.783  C166.854,242.829,177.78,242.415,187.494,244.128"
     id="path9"
     style="fill-rule:evenodd;clip-rule:evenodd;fill:#006B33;" />
  <path
     d="M100.05,222.356c8.653-2.633,16.414-5.928,25.341-7.851  c13.488-2.904,27.482-0.062,27.482-17.313c0-7.744-3.686-14.97-8.03-21.057c-4.485-6.283-14.436-9.584-17.668-15.169  c-3.279-5.666-0.742-24.673-14.275-9.636c0.278-0.309-1.896,5.639-2.006,5.928c-1.928,5.035-4.02,14.057-5.132,17.271  C103.485,181.112,90.625,218.107,100.05,222.356"
     id="path11"
     style="fill-rule:evenodd;clip-rule:evenodd;fill:#7DFF00;" />
  <path
     d="M73.996,217.716c3.817-2.141,4.252-6.12,1.785-9.993  C73.538,210.286,69.231,217.533,73.996,217.716"
     id="path13"
     style="fill-rule:evenodd;clip-rule:evenodd;fill:#006B33;" />
  <path
     d="M83.633,217.359c3.307-1.152,3.607-5.312,0.356-8.207  C79.986,205.587,79.097,216.847,83.633,217.359"
     id="path15"
     style="fill-rule:evenodd;clip-rule:evenodd;fill:#006B33;" />
  <path
     d="M65.787,215.219c3.543-0.796,6.718-9.092,3.569-8.923  C65.438,206.507,64.974,213.664,65.787,215.219"
     id="path17"
     style="fill-rule:evenodd;clip-rule:evenodd;fill:#006B33;" />
  <path
     d="M79.707,206.296c5.406-0.237,6.915-3.203,4.639-8.209  c-4.152-9.137,17.557-18.604,19.631-29.624c-9.055,8.146-15.755,18.466-26.108,25.05c-2.711,1.724-6.006-1.673-8.512,1.718  c-2.316,3.134,1.28,10.774,5.175,9.103c5.462-2.345-3.673-5.399-0.536-6.604C78.142,196.139,79.235,204.641,79.707,206.296"
     id="path19"
     style="fill-rule:evenodd;clip-rule:evenodd;fill:#006B33;" />
  <path
     d="M121.822,206.296c2.501-1.377,3.081-3.938,1.785-6.782  c-0.238,0-0.476,0-0.714,0c0.181,1.088-1.065,7.611-2.142,3.926c-1.101-3.772,2.353-7.821,1.427-10.35  C119.268,196.385,117.539,204.087,121.822,206.296"
     id="path21"
     style="fill-rule:evenodd;clip-rule:evenodd;" />
  <path
     d="M23.314,160.61c9.161-8.565,18.321-17.132,27.482-25.697  C43.499,119.32,27.633,163.202,23.314,160.61"
     id="path23"
     style="fill-rule:evenodd;clip-rule:evenodd;" />
  <path
     d="M182.14,143.479c5.059-0.037,12.613-9.829,4.997-10.35  C183.442,132.876,179.555,140.357,182.14,143.479"
     id="path25"
     style="fill-rule:evenodd;clip-rule:evenodd;fill:#006B33;" />
  <path
     d="M182.856,130.63c3.574-0.334,6.521-4.931,5.354-8.209  C185.588,115.063,180.043,128.022,182.856,130.63"
     id="path27"
     style="fill-rule:evenodd;clip-rule:evenodd;fill:#006B33;" />
  <path
     d="M1.542,123.136c8.287-2.79,36.112-6.638,37.119-16.062  c-5.5-0.584-12.854,5.405-18.916,7.495C14.54,116.363-2.082,118.535,1.542,123.136"
     id="path29"
     style="fill-rule:evenodd;clip-rule:evenodd;" />
  <path
     d="M184.997,116.354  C194.617,105.763,175.958,109.406,184.997,116.354"
     id="path31"
     style="fill-rule:evenodd;clip-rule:evenodd;fill:#006B33;" />
  <path
     d="M85.774,99.936c8.887,0.912,13.725-8.813,22.485-8.209  c3.842,0.265,7.584,2.994,11.064,4.283c0-7.761-5.671-20.807-16.061-14.276c-3.681,2.314-4.682,8.966-8.922,11.778  c-3.132,2.077-10.155,3.686-13.563,2.141C81.807,98.102,83.396,98.907,85.774,99.936"
     id="path33"
     style="fill-rule:evenodd;clip-rule:evenodd;fill:#FF7F00;" />
  <path
     d="M29.382,91.727c6.83-7.549-6.828-5.157-13.811-5.873  C-20.745,82.129,16.066,91.413,29.382,91.727"
     id="path35"
     style="fill-rule:evenodd;clip-rule:evenodd;" />
  <path
     d="M118.967,81.733c-1.189-7.019-2.379-14.039-3.569-21.058  c-2.498,5.591-4.997,11.183-7.495,16.774C111.84,78.309,116.789,79.409,118.967,81.733"
     id="path37"
     style="fill-rule:evenodd;clip-rule:evenodd;fill:#FFFFFF;" />
  <path
     d="M60.076,69.242c3.429,0.092,5.725-1.412,6.067-4.64  c-2.079-0.393-5.788-0.126-7.852,0.357C58.528,66.754,59.353,68.396,60.076,69.242"
     id="path39"
     style="fill-rule:evenodd;clip-rule:evenodd;" />
  <path
     d="M95.768,47.113c1.216-1.56,2.152-4.583,2.142-6.782  c3.397,2.589,7.458,1.128,9.994-3.569c0.417,0.919,0.849,0.72,1.07,1.428c3.572-4.306,5.596,0.479,6.424,0  c0.538-0.311,9.664-9.075,10.35-10.351c-0.037,0.069,3.094,0.416,2.143-1.785c-1.277-2.955-14.783,6.24-16.776,7.852  c1.967-17.694-1.89-6.653-6.423,3.212c-0.357-4.045-0.713-8.09-1.07-12.135c-0.238,0-0.476,0-0.714,0  c-5.086,13.805,3.381,17.186-14.635,7.177c-2.468-1.371-0.864,1.908,1.107,3.022C96.228,39.055,91.954,44.241,95.768,47.113"
     id="path41"
     style="fill-rule:evenodd;clip-rule:evenodd;" />
  <path
     d="M91.485,22.486c9.555-3.64,17.035-4.085,17.489-15.347  C102.837,11.47,96.873,16.779,91.485,22.486"
     id="path43"
     style="fill-rule:evenodd;clip-rule:evenodd;fill:#006B33;" />
</svg>
