<?xml version="1.0" encoding="UTF-8" standalone="no"?>
<!-- Generator: Adobe Illustrator 12.0.0, SVG Export Plug-In . SVG Version: 6.00 Build 51448)  -->
<svg
   xmlns:dc="http://purl.org/dc/elements/1.1/"
   xmlns:cc="http://web.resource.org/cc/"
   xmlns:rdf="http://www.w3.org/1999/02/22-rdf-syntax-ns#"
   xmlns:svg="http://www.w3.org/2000/svg"
   xmlns="http://www.w3.org/2000/svg"
   xmlns:sodipodi="http://sodipodi.sourceforge.net/DTD/sodipodi-0.dtd"
   xmlns:inkscape="http://www.inkscape.org/namespaces/inkscape"
   height="164.134"
   id="Layer_1"
   inkscape:version="0.45.1"
   sodipodi:docbase="/Users/johnolsen/Desktop/openclipart-0.20-pre/recovered-zerobyte-files/animals/mammals"
   sodipodi:docname="antilope_architetto_fra_03r.svg"
   sodipodi:version="0.32"
   space="preserve"
   style="overflow:visible;enable-background:new 0 0 268.606 164.134;"
   version="1.1"
   viewBox="0 0 268.606 164.134"
   width="268.606"
   inkscape:output_extension="org.inkscape.output.svg.inkscape">
  <metadata
     id="metadata3">
    <rdf:RDF>
      <cc:Work
         rdf:about="">
        <dc:title>Antilope</dc:title>
        <dc:description />
        <dc:subject>
          <rdf:Bag>
            <rdf:li>animal</rdf:li>
            <rdf:li>antelope</rdf:li>
            <rdf:li>mammal</rdf:li>
          </rdf:Bag>
        </dc:subject>
        <dc:publisher>
          <cc:Agent
             rdf:about="http://www.openclipart.org/">
            <dc:title>Open Clip Art Library</dc:title>
          </cc:Agent>
        </dc:publisher>
        <dc:creator>
          <cc:Agent>
            <dc:title>Architetto Francesco Rollandin</dc:title>
          </cc:Agent>
        </dc:creator>
        <dc:rights>
          <cc:Agent>
            <dc:title>Architetto Francesco Rollandin</dc:title>
          </cc:Agent>
        </dc:rights>
        <dc:date />
        <dc:format>image/svg+xml</dc:format>
        <dc:type
           rdf:resource="http://purl.org/dc/dcmitype/StillImage" />
        <cc:license
           rdf:resource="http://web.resource.org/cc/PublicDomain" />
        <dc:language>en</dc:language>
      </cc:Work>
      <cc:License
         rdf:about="http://web.resource.org/cc/PublicDomain">
        <cc:permits
           rdf:resource="http://web.resource.org/cc/Reproduction" />
        <cc:permits
           rdf:resource="http://web.resource.org/cc/Distribution" />
        <cc:permits
           rdf:resource="http://web.resource.org/cc/DerivativeWorks" />
      </cc:License>
    </rdf:RDF>
  </metadata>
  <defs
     id="defs92" />
  <sodipodi:namedview
     bordercolor="#666666"
     borderopacity="1.0"
     id="base"
     inkscape:current-layer="Layer_1"
     inkscape:cx="134.30299"
     inkscape:cy="82.067001"
     inkscape:pageopacity="0.0"
     inkscape:pageshadow="2"
     inkscape:window-height="510"
     inkscape:window-width="787"
     inkscape:window-x="138"
     inkscape:window-y="129"
     inkscape:zoom="2.1933298"
     pagecolor="#ffffff" />
  <path
     d="M0.099,142.222c-0.838,2.769,3.818,8.555,7.157,8.264  c5.825-0.509,0.92-6.431,3.579-9.09c2.111-2.111,2.619-5.363,4.956-7.713c2.213-2.226,4.443-4.405,6.882-6.336  c5.238-4.147,10.252-8.815,17.068-8.815c3.453,0,7.426-2.305,11.012-0.551c2.55,1.247,5.386,5.529,8.259,7.161  c-3.754,1.385-7.356,1.765-11.563,2.205c-4.697,0.491-8.9,0.514-6.607,6.612c1.283,3.413,5.492,7.146,7.983,9.641  c2.451,2.455,5.137,4.59,7.708,7.161c1.304,1.304,4.213,3.197,4.955,4.684c0.797,1.598,2.718,4.646,3.854,5.785  c3.042,3.051,6.8-0.364,8.534-3.581c2.516-4.667-1.75-4.583-6.057-6.061c-2.741-0.94-5.585-3.642-8.259-6.061  c-3.012-2.725-5.685-5.944-6.607-9.917c9.624-0.471,18.418-2.816,27.729-5.146c3.392-0.849,7.775-2.291,9.986-4.496  c4.761-4.748,18.7-1.27,24.501-0.274c4.213,0.723,8.349,1.28,12.664,2.203c4.246,0.908,8.122-0.319,12.664,0  c7.902,0.556,16.217-1.959,23.124,2.204c6.521,3.93,11.451,8.626,17.619,14.323c-6.592,3.298-13.051,6.598-19.271,8.816  c-2.788,0.994-4.968,0.583-7.708,0.55c-6.565-0.08-5.84,3.635-6.057,9.917c7.321,2.158,13.447-4.474,19.822-6.611  c6.598-2.212,14.841-3.284,20.097-8.54c0.974-0.974,4.679-2.233,4.679-3.58c0-2.443-1.306-3.256-2.753-4.958  c-1.251-1.472-15.702-10.422-12.113-12.121c2.693-1.275,9.496,2.379,12.113,3.306c3.588,1.271,8.481,2.428,11.287,5.234  c2.7,2.699,6.967,3.688,9.636,5.233c4.512,2.611,8.608,6.03,13.179,9.231c2.256,1.581,4.789,3.283,6.643,4.542  c1.264,0.858,3.471,3.393,4.403,3.856c3.44,1.712,8.033-0.867,10.462-2.755c1.596-1.24,2.753-1.901,2.753-4.407  c0-2.965-4.456-1.611-6.056-1.653c-4.416-0.116-7.412-1.638-11.012-3.306c-6.084-2.818-13.958-8.156-20.372-12.121  c-5.251-3.246-12.577-7.243-16.518-11.569c4.478-5.845,14.274-9.094,20.921-10.469c6.231-1.289,14.996-1.063,21.473,0  c6.817,1.12,12.245,5.919,18.723,7.163c3.16,0.606,9.996,0.227,12.111-2.203c3.49-4.011-3.791-9.339-7.708-11.293  c-2.616-1.306-8.198-4.322-9.36-6.888c-1.738-3.839,2.021-6.145,4.405-8.815c1.329-1.489,3.913-2.051,0-2.755  c-2.16-0.389-4.377,1.395-6.057,2.755c2.726-6.364,6.354-12.818,6.057-20.385c-0.343-8.699-6.312-15.1-8.811-22.588  c-2.748-8.231-1.957-15.719,1.102-23.69c1.315-3.427,2.754-5.569,4.955-8.264c2.285-2.797,5.87-5.133,7.709-7.713  c-3.974-0.468-10.068,4.308-12.664,7.162c-2.695,2.964-4.875,6.933-6.056,10.468c-4.975,14.892,3.533,31.884,5.506,46.83  c-2.77-1.818-3.823-6.582-6.332-9.09c-2.524-2.524-4.47-6.023-6.33-9.091c-3.364-5.548-5.956-11.667-7.158-18.181  c-1.146-6.212-1.446-15.626,1.65-21.486c1.601-3.029,4.036-5.588,6.058-7.714c2.147-2.258,5.804-4.595,7.157-7.162  c-5.06-0.896-12.335,5.958-14.59,10.468c-3.164,6.331-5.504,11.211-6.333,18.181c-2.792,23.46,24.2,39.787,17.618,62.807  c-2.547-3.278-5.184-7.393-9.91-5.509c1.07,2.044,5.159,6.242,3.305,8.815c-0.391,0.542-4.709,1.485-5.506,1.653  c-3.435,0.726-8.134,2.204-11.563,2.204c-6.506-0.001-14.947-4.744-20.371-7.714c-3.354-1.837-5.443-3.551-8.81-5.234  c-3.295-1.647-6.314-3.38-9.911-4.132c-6.517-1.362-14.258-0.581-20.472,2.53c-3.987,1.995-7.828,5.016-12.013,6.285  c-8.427,2.557-17.407,1.346-24.776-2.204c-4.024-1.938-7.828-2.87-11.287-6.335c-2.641-2.646-8.3-2.245-10.462-4.408  c-2.09-2.092-9.877-1.997-12.938-1.927c-5.898,0.133-11.999,2.335-17.068,4.407c-3.954,1.616-5.803,3.509-9.359,6.06  c-4.912,3.523-12.833,3.478-17.344,7.989c-3.736,3.736-8.487,5.152-8.534,11.295c7.239-4.017,12.616-13.594,22.023-11.57  c-1.374,4.468-3.354,13.223-9.36,13.223c-3.602,0-8.502,0.795-10.737,3.029c-4.429,4.43-9.733,9.712-14.59,14.602  C13.474,129.975,3.259,135.558,0.099,142.222"
     id="path3"
     style="fill-rule:evenodd;clip-rule:evenodd;" />
  <path
     d="M2.302,142.773c-1.043,3.892,4.908,7.61,6.607,5.509  c1.649-2.039,0.751-8.245,2.202-11.02c2.669-5.104,9.131-9.01,13.47-12.732c2.034-1.745,3.849-3.411,6.076-4.897  c2.875-1.918,5.959-1.775,9.084-2.203c3.281-0.449,6.478-1.101,9.911-1.101c1.861,0,13.202,9.187,12.664,10.467  c-0.106,0.253-10.313,1.653-10.461,1.653c-3.732,0-7.318,0.353-10.461,1.652c2.831,8.498,10.996,14.749,17.397,20.899  c3.202,3.075,5.33,5.55,7.715,9.303c2.791,4.389,7.826-4.406,7.097-5.135c-2.465-2.463-7.333-1.831-9.911-4.408  c-2.626-2.626-4.92-4.274-7.433-6.885c-1.988-2.065-6.332-6.759-4.405-9.367c1.86-2.519,9.089-1.435,12.114-1.653  c4.3-0.311,7.853-1.54,12.113-2.203c3.928-0.611,8.521-4.408,12.112-4.408c1.307,0,3.402-2.3,4.13-3.03  c1.765-1.769,6.303-0.308,8.568-0.069c6.115,0.645,12.229,1.289,18.344,1.934c3.555,0.375,6.881,1.888,10.252,2.269  c9.889,1.116,21.345-3.741,31.383-0.551c6.238,1.982,12.985,8.909,17.621,12.672c1.16,0.942,2.967,2.297,3.302,3.856  c0.799,3.72-2.774,3.661-6.057,4.958c-3.306,1.306-6.566,3.006-9.909,4.683c-1.883,0.944-9.868,4.178-11.838,2.204  c-3.231-3.237-3.854,3.306-4.405,3.856c-2.17,2.167,1.353,4.075,3.028,4.132c3.19,0.107,6.563-3.564,9.359-4.958  c7.48-3.728,16.555-4.967,23.676-9.367c4.731-2.924,6.624-4.577,2.753-8.813c-2.489-2.724-16.465-8.69-13.214-13.223  c2.646-3.689,18.387,4.074,21.472,5.509c3.042,1.415,5.744,3.98,8.811,5.509c3.196,1.593,6.851,2.446,9.634,5.235  c5.186,5.193,13.683,9.218,19.965,13.409c3.113,2.077,6.075,2.066,9.492-0.463c4.984-3.69,1.458-4.407-3.303-4.407  c-4.266,0-7.005-1.509-10.461-3.306c-7.103-3.692-14.151-7.936-20.923-12.121c-3.377-2.087-7.37-4.07-10.187-6.886  c-3.932-3.933-10.264-5.282-3.028-10.191c5.626-3.817,13.965-7.163,20.923-7.163c8.637,0,16.57-1.653,24.777,1.1  c6.658,2.233,14.293,8.827,22.022,4.96c5.589-2.797,0.274-6.082-3.303-8.814c-3.511-2.682-8.436-6.29-12.487-9.237  c-3.087-2.247,1.874-6.732,4.229-8.944c-6.919,2.77-7.038,2.139-4.405-3.306c0.991-2.049,2.733-8.245,4.13-9.642  c1.407-1.407,1.508-9.927,0.551-11.845c-1.754-3.514-1.976-6.323-4.13-9.917c-3.809-6.353-7.047-13.419-6.056-20.936  c0.812-6.151,2.479-17.131,8.258-20.385c-10.699,7.646-10.542,20.393-8.809,33.057c1.343,9.811,10.068,23.479,3.853,33.607  c-1.28-2.094-1.651-5.78-1.651-8.264c0-3.102-4.228-7.845-6.118-10.366c-5.597-7.467-10.454-15.19-12.603-23.792  C222.89,27.392,224.37,15.434,233,6.69c-15.436,14.937-11.554,36.676,0,53.992c4.17,6.25,7.175,12.797,7.707,20.385  c0.216,3.072,1.029,9.99-1.102,12.121c-1.691,1.69-1.961,0.486-3.029-1.653c-0.801-1.606-4.118-4.659-5.779-4.958  c1.043,1.827,6.717,8.73,2.824,9.596c-3.646,0.811-7.674,1.878-11.083,2.525c-4.04,0.767-7.964,1.433-12.113,0.551  c-13.587-2.886-25.936-15.981-40.709-16.905c-13.181-0.824-22.745,11.05-35.823,10.845c-9.243-0.146-17.794-3.504-25.328-8.264  c-5.448-3.442-10.474-5.758-17.067-7.163c-7.951-1.695-14.078-0.429-20.922,2.205c-2.844,1.094-5.344,2.671-8.26,4.132  c-2.694,1.35-4.274,5.202-6.056,6.336c-2.595,1.65-11.085,0.627-14.59,4.132c-2.122,2.122-5.051,3.106-6.332,5.785  c3.392-4.464,14.021-9.655,19.821-7.713c-1.852,5.561-2.368,12.409-7.708,14.874c-3.543,1.636-8.078,1.189-11.562,2.755  c-4.32,1.94-8.376,7.279-12.209,11.115C16.553,128.513,9.427,135.643,2.302,142.773"
     id="path5"
     style="fill-rule:evenodd;clip-rule:evenodd;fill:#A65758;" />
  <path
     d="M58.461,94.841c0.815,3.713,7.856,0.627,7.157-2.755  C64.766,87.959,58.613,91.771,58.461,94.841"
     id="path7"
     style="fill-rule:evenodd;clip-rule:evenodd;" />
  <path
     d="M59.012,104.758c-0.739,4.788,8.809,2.314,8.809-2.754  C67.821,97.544,59.031,102.106,59.012,104.758"
     id="path9"
     style="fill-rule:evenodd;clip-rule:evenodd;" />
  <path
     d="M60.113,94.29c0,0.367,0,0.735,0,1.103  C67.145,94.137,61.882,89.903,60.113,94.29"
     id="path11"
     style="fill-rule:evenodd;clip-rule:evenodd;fill:#500900;" />
  <path
     d="M60.664,104.758c0.702,3.293,4.937-0.885,6.606-1.653  C66.077,100.509,62.851,103.391,60.664,104.758"
     id="path13"
     style="fill-rule:evenodd;clip-rule:evenodd;fill:#500900;" />
  <path
     d="M69.474,86.577c0.834,4.642,9.36-1.113,9.36-3.581  C78.833,80.475,69.664,83.35,69.474,86.577"
     id="path15"
     style="fill-rule:evenodd;clip-rule:evenodd;" />
  <path
     d="M71.125,86.577c2.178-0.727,4.455-1.065,6.056-2.755  C74.505,84.157,71.674,84.077,71.125,86.577"
     id="path17"
     style="fill-rule:evenodd;clip-rule:evenodd;fill:#500900;" />
  <path
     d="M73.327,114.124c-0.565,4.169,4.517,1.396,6.092,0.345  c0.659-0.44,1.208-4.722-0.035-5.303C77.077,108.088,72.788,111.685,73.327,114.124"
     id="path19"
     style="fill-rule:evenodd;clip-rule:evenodd;" />
  <path
     d="M74.429,96.494c1.69,4.486,6.022,2.22,8.809,0.826  c1.602-0.801,1.59-4.166-0.551-5.234C80.029,90.76,75.562,94.465,74.429,96.494"
     id="path21"
     style="fill-rule:evenodd;clip-rule:evenodd;" />
  <path
     d="M74.429,114.124c2.798,1.504,4.081-0.435,4.405-2.755  C76.82,111.466,74.83,112.006,74.429,114.124"
     id="path23"
     style="fill-rule:evenodd;clip-rule:evenodd;fill:#500900;" />
  <path
     d="M76.081,97.045c2.143,2.15,8.289-0.519,6.332-2.479  C80.392,92.541,77.295,94.391,76.081,97.045"
     id="path25"
     style="fill-rule:evenodd;clip-rule:evenodd;fill:#500900;" />
  <path
     d="M85.44,83.271c-0.4,5.455,8.752,4.702,9.768-0.387  C95.882,79.505,86.904,81.755,85.44,83.271"
     id="path27"
     style="fill-rule:evenodd;clip-rule:evenodd;" />
  <path
     d="M86.541,108.614c-0.085,2.787,1.682,2.203,3.804,2.203  c2.914,0,2.942-2.065,3.269-4.355C94.227,102.164,87.33,106.768,86.541,108.614"
     id="path29"
     style="fill-rule:evenodd;clip-rule:evenodd;" />
  <path
     d="M87.642,83.822c-0.37,4.485,7.053,1.523,6.057-0.551  C92.892,81.588,88.567,83.088,87.642,83.822"
     id="path31"
     style="fill-rule:evenodd;clip-rule:evenodd;fill:#500900;" />
  <path
     d="M87.642,109.166c0.648,0.709,4.611,1.826,4.956-1.103  C92.972,104.882,87.777,106.94,87.642,109.166"
     id="path33"
     style="fill-rule:evenodd;clip-rule:evenodd;fill:#500900;" />
  <path
     d="M92.598,97.045c-0.015,3.367,5.998,4.466,7.708,2.204  C104.835,93.26,94.635,95.88,92.598,97.045"
     id="path35"
     style="fill-rule:evenodd;clip-rule:evenodd;" />
  <path
     d="M94.249,97.596c1.025,1.941,5.751,1.535,5.507-1.102  C97.92,96.861,96.084,97.229,94.249,97.596"
     id="path37"
     style="fill-rule:evenodd;clip-rule:evenodd;fill:#500900;" />
  <path
     d="M100.857,88.229c0.287,3.707,7.248,4.316,7.158,0.551  C107.941,85.673,100.354,85.058,100.857,88.229"
     id="path39"
     style="fill-rule:evenodd;clip-rule:evenodd;" />
  <path
     d="M101.958,88.229c0.953,0.639,2.184,1.242,2.753,1.653  c0.53-0.204,1.104-0.341,1.652-0.552C105.557,88.363,103.609,88.436,101.958,88.229"
     id="path41"
     style="fill-rule:evenodd;clip-rule:evenodd;fill:#500900;" />
  <path
     d="M110.216,98.698c-1.808,4.875,7.634,5.438,9.36,2.754  C122.606,96.737,111.905,95.396,110.216,98.698"
     id="path43"
     style="fill-rule:evenodd;clip-rule:evenodd;" />
  <path
     d="M111.318,99.8c-0.271,4.022,7.89,2.74,6.882-0.275  C117.341,96.953,112.083,97.854,111.318,99.8"
     id="path45"
     style="fill-rule:evenodd;clip-rule:evenodd;fill:#500900;" />
  <path
     d="M126.734,100.351c0.388,3.226,8.887,2.228,9.911-0.551  C137.936,96.294,127.326,96.717,126.734,100.351"
     id="path47"
     style="fill-rule:evenodd;clip-rule:evenodd;" />
  <path
     d="M127.836,100.351c1.524,1.061,6.727,1.477,8.258-1.102  C133.595,97.824,129.455,98.989,127.836,100.351"
     id="path49"
     style="fill-rule:evenodd;clip-rule:evenodd;fill:#500900;" />
  <path
     d="M144.905,99.8c0.154,5.245,11.022,1.835,8.81-2.204c0.367,0,0.733,0,1.101,0  C152.708,96.646,144.669,96.949,144.905,99.8"
     id="path51"
     style="fill-rule:evenodd;clip-rule:evenodd;" />
  <path
     d="M146.556,99.8c0.245,2.692,6.448,1.068,6.057-2.204  C150.643,98.279,147.639,98.529,146.556,99.8"
     id="path53"
     style="fill-rule:evenodd;clip-rule:evenodd;fill:#500900;" />
  <path
     d="M152.062,90.984c0.77,7.281,10.293-2.755,6.607-2.755  C156.458,88.229,153.236,88.241,152.062,90.984"
     id="path55"
     style="fill-rule:evenodd;clip-rule:evenodd;" />
  <path
     d="M154.264,91.535c1.873,0.826,3.437-0.032,3.304-2.204  C156.498,90.045,155.22,90.678,154.264,91.535"
     id="path57"
     style="fill-rule:evenodd;clip-rule:evenodd;fill:#500900;" />
  <path
     d="M161.972,99.8c0.53,3.828,7.528,4.735,9.359,2.203  C175.008,96.92,164.894,95.108,161.972,99.8"
     id="path59"
     style="fill-rule:evenodd;clip-rule:evenodd;" />
  <path
     d="M164.175,99.8c-0.674,4.124,7.177,2.671,7.156-1.102  C169.309,98.102,164.973,97.05,164.175,99.8"
     id="path61"
     style="fill-rule:evenodd;clip-rule:evenodd;fill:#500900;" />
  <path
     d="M166.378,88.229c0.39,3.413,10.459,4.14,10.459,0.827  C176.837,85.588,167.559,85.226,166.378,88.229"
     id="path63"
     style="fill-rule:evenodd;clip-rule:evenodd;" />
  <path
     d="M166.928,111.369c-0.471,5.11,6.163,2.096,7.983,0.275  C177.898,108.658,169.083,107.794,166.928,111.369"
     id="path65"
     style="fill-rule:evenodd;clip-rule:evenodd;" />
  <path
     d="M168.03,88.78c2.652,0.595,5.715,2.08,7.707,0  C173.875,87.528,169.856,87.233,168.03,88.78"
     id="path67"
     style="fill-rule:evenodd;clip-rule:evenodd;fill:#500900;" />
  <path
     d="M168.58,111.921c0.546,0.99,5.12,1.563,4.954-1.104  C173.372,108.225,169.143,110.885,168.58,111.921"
     id="path69"
     style="fill-rule:evenodd;clip-rule:evenodd;fill:#500900;" />
  <path
     d="M177.39,103.656c0.416,4.066,6.35,1.908,7.982,0.275  C185.594,103.71,177.574,96.461,177.39,103.656"
     id="path71"
     style="fill-rule:evenodd;clip-rule:evenodd;" />
  <path
     d="M179.042,103.104c0.198,2.403,3.175,1.626,4.954,1.103  C183.216,102.683,180.181,101.896,179.042,103.104"
     id="path73"
     style="fill-rule:evenodd;clip-rule:evenodd;fill:#500900;" />
  <path
     d="M181.793,92.638c0.56,2.263,7.709,5.904,7.709,3.856  c0-2.301,0.309-3.074-1.632-4.53C186.369,90.837,182.465,90.92,181.793,92.638"
     id="path75"
     style="fill-rule:evenodd;clip-rule:evenodd;" />
  <path
     d="M183.445,92.638c0.929,2.044,2.704,3.368,4.956,2.755  C187.72,92.839,185.845,92.387,183.445,92.638"
     id="path77"
     style="fill-rule:evenodd;clip-rule:evenodd;fill:#500900;" />
  <path
     d="M183.445,113.021c-0.3,4.674,6.683,1.573,8.534-0.274  c3.046-3.041-1.943-4.214-4.128-3.58C185.796,109.763,184.212,110.897,183.445,113.021"
     id="path79"
     style="fill-rule:evenodd;clip-rule:evenodd;" />
  <path
     d="M185.097,114.124c2.572-0.157,6.368-0.376,5.505-3.857  C188.363,111.263,185.416,111.591,185.097,114.124"
     id="path81"
     style="fill-rule:evenodd;clip-rule:evenodd;fill:#500900;" />
  <path
     d="M197.76,102.003c-0.52,3.907,6.385,6.286,8.259,2.755  C208.597,99.9,198.724,99.691,197.76,102.003"
     id="path83"
     style="fill-rule:evenodd;clip-rule:evenodd;" />
  <path
     d="M198.862,103.104c1.246,1.52,4.637,2.843,5.781,0.552  C205.919,101.101,199.695,102.077,198.862,103.104"
     id="path85"
     style="fill-rule:evenodd;clip-rule:evenodd;fill:#500900;" />
  <path
     d="M246.211,104.758c-0.809,4.434,6.44,6.455,7.158,2.754  C253.991,104.308,247.97,103.603,246.211,104.758"
     id="path87"
     style="fill-rule:evenodd;clip-rule:evenodd;" />
  <path
     d="M247.313,106.412C250.01,112.187,254.38,103.45,247.313,106.412"
     id="path89"
     style="fill-rule:evenodd;clip-rule:evenodd;" />
</svg>
