<?xml version="1.0" encoding="UTF-8" standalone="no"?>
<!-- Created with Inkscape (http://www.inkscape.org/) -->

<svg
   xmlns:dc="http://purl.org/dc/elements/1.1/"
   xmlns:cc="http://creativecommons.org/ns#"
   xmlns:rdf="http://www.w3.org/1999/02/22-rdf-syntax-ns#"
   xmlns:svg="http://www.w3.org/2000/svg"
   xmlns="http://www.w3.org/2000/svg"
   xmlns:xlink="http://www.w3.org/1999/xlink"
   xmlns:sodipodi="http://sodipodi.sourceforge.net/DTD/sodipodi-0.dtd"
   xmlns:inkscape="http://www.inkscape.org/namespaces/inkscape"
   version="1.0"
   width="813.09375"
   height="923.75"
   id="svg4108"
   inkscape:version="0.48.1 r9760"
   sodipodi:docname="baronchon_giant_panda_2.svg">
  <metadata
     id="metadata41">
    <rdf:RDF>
      <cc:Work
         rdf:about="">
        <dc:format>image/svg+xml</dc:format>
        <dc:type
           rdf:resource="http://purl.org/dc/dcmitype/StillImage" />
      </cc:Work>
    </rdf:RDF>
  </metadata>
  <sodipodi:namedview
     pagecolor="#ffffff"
     bordercolor="#666666"
     borderopacity="1"
     objecttolerance="10"
     gridtolerance="10"
     guidetolerance="10"
     inkscape:pageopacity="0"
     inkscape:pageshadow="2"
     inkscape:window-width="640"
     inkscape:window-height="480"
     id="namedview39"
     showgrid="false"
     fit-margin-top="0"
     fit-margin-left="0"
     fit-margin-right="0"
     fit-margin-bottom="0"
     inkscape:zoom="0.29172466"
     inkscape:cx="406.05372"
     inkscape:cy="461.88593"
     inkscape:window-x="0"
     inkscape:window-y="0"
     inkscape:window-maximized="0"
     inkscape:current-layer="svg4108" />
  <defs
     id="defs4110">
    <linearGradient
       id="linearGradient2323">
      <stop
         style="stop-color:#472000;stop-opacity:1"
         offset="0"
         id="stop2325" />
      <stop
         style="stop-color:#472000;stop-opacity:0"
         offset="1"
         id="stop2327" />
    </linearGradient>
    <linearGradient
       id="linearGradient2315">
      <stop
         style="stop-color:#472000;stop-opacity:1"
         offset="0"
         id="stop2317" />
      <stop
         style="stop-color:#472000;stop-opacity:0"
         offset="1"
         id="stop2319" />
    </linearGradient>
    <linearGradient
       x1="154"
       y1="396.36218"
       x2="84"
       y2="370.36218"
       id="linearGradient2321"
       xlink:href="#linearGradient2315"
       gradientUnits="userSpaceOnUse" />
    <linearGradient
       x1="133.64319"
       y1="380.61075"
       x2="83.792152"
       y2="363.64017"
       id="linearGradient2329"
       xlink:href="#linearGradient2323"
       gradientUnits="userSpaceOnUse" />
    <linearGradient
       x1="395.07141"
       y1="363.35672"
       x2="411.35327"
       y2="348.15393"
       id="linearGradient4118"
       xlink:href="#linearGradient2315"
       gradientUnits="userSpaceOnUse" />
    <linearGradient
       x1="398.63144"
       y1="358.1601"
       x2="408.70773"
       y2="347.90704"
       id="linearGradient4120"
       xlink:href="#linearGradient2323"
       gradientUnits="userSpaceOnUse" />
  </defs>
  <g
     style="display:inline"
     id="layer3"
     transform="translate(34.00648,-64.317021)">
    <g
       transform="translate(-199.81898,5.8170213)"
       id="g2192">
      <path
         d="m 378.95442,360.89754 16.01523,11.1269 c -7.91286,5.38748 -24.7861,22.53842 -26.26397,24.24366 -0.71079,0.82014 -3.82367,0.94822 -4.79061,1.74493 -3.81445,3.14289 -6.98776,9.83014 -5.31092,13.96295 4.99017,12.299 16.21926,20.55545 26.06194,33.08249 9.41756,11.98599 16.45834,27.11728 27.47615,36.56752 5.54869,4.75924 15.20789,3.11616 22.22335,6.06092 6.6216,2.77944 12.45855,7.40779 18.68783,11.11168 l -39.90103,77.78174 c -18.01439,-24.00796 -34.77945,-49.07605 -54.04316,-72.02387 -16.1253,-19.20921 -33.80456,-37.46773 -52.12387,-54.44723 -5.62131,-5.21019 -12.24821,-10.4756 -19.69797,-12.12182 -39.4634,-8.72047 -81.28252,-10.12236 -121.04153,-18.97825 l 10.80863,-44.09315 c 32.97641,6.0625 68.24744,10.94015 100.28289,11.42735 3.94281,0.06 4.02539,-8.66854 7.65191,-9.78586 7.60301,-2.34246 17.88029,-2.63944 26.03668,-0.59346 9.31083,2.33556 17.98141,14.20448 26.36498,13.73807 7.75417,-0.43139 15.70605,-10.13373 22.04824,-16.43148 2.5931,-2.57493 1.96208,-8.41412 4.75761,-10.18655 3.70955,-2.35194 10.86374,0.52998 14.75762,-2.18654 z"
         style="fill:#ffffff;fill-opacity:1;fill-rule:evenodd;stroke:none"
         id="path1435"
         inkscape:connector-curvature="0" />
      <path
         d="m 177.05449,374.91601 c 32.97641,6.0625 68.24744,10.94015 100.28289,11.42735 3.94281,0.06 4.02539,-8.66854 7.65191,-9.78586 7.60301,-2.34246 17.88029,-2.63944 26.03668,-0.59346 9.31083,2.33556 17.98141,14.20448 26.36498,13.73807 7.75417,-0.43139 15.70605,-10.13373 22.04824,-16.43148 2.5931,-2.57493 1.96208,-8.41412 4.75761,-10.18655 3.70955,-2.35194 10.86374,0.52998 14.75762,-2.18654 m 16.01523,11.1269 c -7.91286,5.38748 -24.7861,22.53842 -26.26397,24.24366 -0.71079,0.82014 -3.82367,0.94822 -4.79061,1.74493 -3.81445,3.14289 -6.98776,9.83014 -5.31092,13.96295 4.99017,12.299 16.21926,20.55545 26.06194,33.08249 9.41756,11.98599 16.45834,27.11728 27.47615,36.56752 5.54869,4.75924 15.20789,3.11616 22.22335,6.06092 6.6216,2.77944 12.45855,7.40779 18.68783,11.11168 l -39.90103,77.78174 c -18.01439,-24.00796 -34.77945,-49.07605 -54.04316,-72.02387 -16.1253,-19.20921 -33.80456,-37.46773 -52.12387,-54.44723 -5.62131,-5.21019 -12.24821,-10.4756 -19.69797,-12.12182 -39.4634,-8.72047 -81.28252,-10.12236 -121.04153,-18.97825"
         style="fill:none;stroke:#472000;stroke-width:4;stroke-linecap:butt;stroke-linejoin:miter;stroke-miterlimit:4;stroke-opacity:1;stroke-dasharray:none;display:inline"
         id="path6585"
         inkscape:connector-curvature="0" />
      <path
         d="m 761.65501,683.65651 c 2.36937,-1.43619 8.96963,-3.26087 13.64324,-2.54185 4.08105,0.62785 10.77465,6.8571 15.39865,8.09769 9.18142,2.4633 27.13203,0.40514 33.33503,1.01015 14.30233,1.39497 26.60069,3.19881 41.6688,0.50507 l -41.08705,72.43331 -65.8858,10.17873 2.92713,-89.6831 z"
         style="fill:#000000;fill-opacity:1;fill-rule:evenodd;stroke:none"
         id="path4059"
         inkscape:connector-curvature="0" />
      <path
         d="m 643.97225,538.19454 -111.11678,-13.13199 -89.90358,29.7995 9.09137,83.84267 c 20.20305,27.77919 39.39595,56.316 60.60916,83.33758 l 82.32743,-11.61675 61.11423,-21.71828 -12.12183,-150.51273 z"
         style="fill:#e6e6e6;fill-opacity:1;fill-rule:evenodd;stroke:none"
         id="path4179"
         inkscape:connector-curvature="0" />
      <path
         d="m 551,548.36218 c -11.09698,8.61258 -33.60047,16.72884 -42,27.5 -5.76714,7.3955 -6.72135,18.12017 -10.5,27 -2.88802,6.78684 -7.85571,12.99014 -9.5,20 -1.52238,6.49014 -0.26001,13.67478 0,20.5 0.40666,10.67478 1.05198,21.3611 2,32 0.55198,6.19443 -0.15094,13.07482 2.5,18.5 4.51573,9.24149 12.66667,17 19,25.5 l 138.5,-18.5 17,-158.5 -92,-18.5 c -11.66667,8.16667 -13.76365,15.77925 -25,24.5 z"
         style="fill:#cfc5b9;fill-opacity:1;fill-rule:evenodd;stroke:none"
         id="path13680"
         inkscape:connector-curvature="0" />
      <path
         d="m 553,570.36218 c -7.33333,3.5 -17.06307,5.16811 -22,10.5 -3.3964,3.66811 -1.22476,11.24256 -3,16.5 -2.5581,7.5759 -8.25121,14.63012 -10,22 -0.58455,2.46345 3.5602,4.93599 3,7.5 -3.77313,17.26932 -13.78297,34.47492 -16,52 -1.28297,10.14158 3.66667,20.66667 5.5,31 l 137.5,-20 13,-125 -108,5.5 z"
         style="fill:#d1c4b3;fill-opacity:1;fill-rule:evenodd;stroke:none"
         id="path13678"
         inkscape:connector-curvature="0" />
      <path
         d="m 567.71875,527.09375 -72.75,2.5 -43.4375,39.40625 0.21875,5.625 1.25,48.5 30.75,56.25 c -1.83333,-7 -4.39988,-13.89506 -5.5,-21 -0.89988,-5.81173 0.63791,-12.18021 -0.5,-17.75 -0.44542,-2.18021 -3.99527,-3.32325 -4.25,-5.5 -0.66194,-5.65658 2.70167,-12.47232 1.5,-18 -0.88166,-4.05565 -7.42057,-6.83347 -7.75,-10.75 -0.42057,-5.00013 5.1672,-10.78611 5.5,-16 0.1672,-2.61944 -3.19633,-5.07152 -4,-7.5 -0.15466,-0.46735 0.63531,-0.95703 1.125,-1.1875 4.51556,-2.12524 9.04666,-4.00263 11.96875,-6.625 0.0226,-0.0203 0.0431,-0.0409 0.0625,-0.0625 0.0186,-0.0219 0.0471,-0.0707 0.0625,-0.0937 0.004,-0.006 0.0278,-0.0253 0.0312,-0.0312 0.0131,-0.0239 0.0211,-0.0687 0.0312,-0.0937 0.002,-0.006 0.0291,-0.0248 0.0312,-0.0312 0.004,-0.013 -0.003,-0.0493 0,-0.0625 0.003,-0.0133 0.029,-0.0489 0.0312,-0.0625 0.002,-0.0137 -10e-4,-0.0485 0,-0.0625 0.0993,-1.43984 -3.1828,-4.19211 -3,-5.625 0.005,-0.0348 0.0216,-0.0918 0.0312,-0.125 0.004,-0.0131 0.0263,-0.0496 0.0312,-0.0625 0.003,-0.006 -0.003,-0.0249 0,-0.0312 0.006,-0.0125 0.0245,-0.0503 0.0312,-0.0625 0.004,-0.006 0.0275,-0.0253 0.0312,-0.0312 0.0237,-0.0352 0.0629,-0.0924 0.0937,-0.125 4.35482,-4.35483 12.78077,-8.03922 19.6875,-10.59375 5.38346,-1.99114 12.73533,-4.96333 17.1875,-3.03125 4.47083,1.94017 5.1766,11.35304 9.59375,14.625 4.67424,3.4624 12.32942,2.82879 17.6875,5.5625 2.89153,1.47527 4.00556,7.20146 7.0625,7.0625 11.75864,-0.53448 24.75429,-8.29999 37.375,-9.09375 14.14831,-0.88983 28.627,2.71565 42.9375,4.0625 l 13.625,-25.78125 -76.75,-24.21875 z"
         style="fill:#af9f8b;fill-opacity:1;fill-rule:evenodd;stroke:none"
         id="path1335"
         inkscape:connector-curvature="0" />
      <path
         d="m 633.56768,570.11536 c -14.84924,-0.70711 -30.02589,0.22565 -44.54773,-2.12132 -8.81268,-1.42427 -16.78199,-6.78879 -25.45584,-9.19239 -10.88944,-3.01755 -22.61872,-3.78998 -33.23402,-7.07107 -2.34833,-0.72585 -3.34666,-5.32236 -5.65686,-4.94975 -12.30334,1.98441 -25.9517,6.99394 -38.18376,12.02082 -4.9742,2.04419 -9.07267,5.46266 -11.66726,9.19239 -1.17664,1.69142 2.03258,6.37629 0.35355,7.07106 -5.15633,2.13366 -15.08495,0.94281 -22.62742,1.41422 l 2.12132,-38.89088 106.06602,-12.72792 77.78175,38.18377 -4.94975,7.07107 z"
         style="fill:#675f49;fill-opacity:1;fill-rule:evenodd;stroke:none"
         id="path3081"
         inkscape:connector-curvature="0" />
      <path
         d="m 483.35799,438.69451 c -6.73435,9.09137 -11.42817,19.17995 -18.06019,28.34555 -8.35191,11.54253 -19.17594,21.81044 -26.8916,33.77883 -13.6659,21.19829 -29.50849,41.52882 -37.96737,64.64977 -6.6934,18.29531 -11.70653,40.7339 -7.48949,59.599 3.92621,17.56405 10.40666,33.2072 18.14685,49.79333 2.86641,6.1423 10.4449,12.42495 13.67296,18.39196 2.32778,4.30287 3.00031,10.40083 6.56599,13.13199 4.34718,3.32976 10.1462,3.77913 15.29759,4.51505 0.74117,0.10588 1.14329,-3.35225 1.84437,-3.6861 2.83446,-1.34974 8.18072,0.80872 10.63723,-0.82895 1.07902,-0.71935 -1.58882,-3.29604 -0.74492,-4.4564 1.84984,-2.54353 7.58904,-3.61443 9.27257,-6.47671 2.21382,-3.76388 6.16845,-7.12277 7.63479,-11.29025 1.73248,-4.92389 1.51523,-10.7644 1.51523,-16.16244 0,-9.75425 -0.0921,-19.90189 -1.51523,-29.29442 -0.26048,-1.71915 -4.56922,-1.36408 -4.78553,-3.05848 -0.79384,-6.21846 2.51298,-14.74654 0.95151,-20.68011 -0.96392,-3.66288 -7.07655,-5.60547 -7.27766,-9.09137 -0.30397,-5.26876 6.79119,-12.21842 6.566,-17.1726 -0.11153,-2.45361 -7.81023,-2.82703 -7.57615,-5.05076 0.43936,-4.1739 8.65445,-9.32748 9.59645,-14.14213 0.57323,-2.92985 -7.33216,-7.63958 -5.05076,-9.09138 8.83028,-5.61927 25.85365,-7.38941 38.3858,-12.12183 11.54315,-4.35895 22.6708,-16.87522 33.84011,-15.15229 20.48213,3.15948 40.07193,21.90864 61.11422,29.7995 11.28259,4.23097 23.90695,4.37733 35.86042,6.566 l 7.07107,-115.15739 -160.61426,-15.65737 z"
         style="fill:#000000;fill-opacity:1;fill-rule:evenodd;stroke:none"
         id="path4173"
         inkscape:connector-curvature="0" />
      <path
         d="m 624.77935,364.4483 c -14.32072,-4.24318 -28.20162,-17.01832 -42.42641,-14.64721 -18.58196,3.0974 -52.56356,8.75892 -56.56854,12.12183 -0.63522,0.53339 -9.41864,16.0013 -14.42018,22.58315 -4.23876,5.57804 -14.04992,18.41975 -18.75058,26.84543 -4.70067,8.42567 2.01744,4.60026 -2.26083,12.18036 -4.27826,7.58009 -5.66329,10.40324 -7.88241,13.94328 -6.33748,10.10985 4.7224,41.43252 18.06019,53.7473 12.83238,11.84813 27.57181,30.01114 45.96194,30.30458 16.51294,0.26349 35.95359,-5.57974 52.52793,-11.61675 8.84783,-3.22272 15.37171,-12.35101 23.38144,-17.59102 10.00466,-6.54511 20.56019,-11.36669 30.66172,-17.76432 l -2.52538,-104.55079 c -8.5863,-1.85195 -17.35118,-3.06467 -25.75889,-5.55584 z"
         style="fill:#ffffff;fill-opacity:1;fill-rule:evenodd;stroke:none"
         id="path4157"
         inkscape:connector-curvature="0" />
      <path
         d="m 526.28948,475.06 c 9.04008,-1.58109 31.17921,-1.86072 34.34518,-0.50507 2.58573,1.10719 -9.84898,10.9854 -18.18274,15.15228 -0.16836,2.8621 -0.33672,5.7242 -0.50508,8.5863 8.08122,0.84179 16.82656,4.02884 24.24366,2.52538 5.04145,-1.02192 9.25974,-6.48181 13.13199,-10.10152 -2.82001,3.6618 -7.65257,9.93174 -12.2481,11.11168 -7.86302,2.01888 -16.37289,-1.17851 -25.12755,-1.51523 -4.37733,1.01015 -7.91275,2.25382 -12.12183,2.52537 -1.01004,0.0652 -2.69374,-0.84179 -3.53553,-1.51522 1.34687,0 2.72472,0.1617 4.04061,0 3.995,-0.49092 6.9448,-1.51523 10.48033,-3.03046 0,-2.18866 0.12627,-5.89256 0.12627,-8.08122 -4.37733,-2.69374 -9.80835,-4.64298 -13.13198,-8.08122 -1.55877,-1.61252 -3.43928,-6.73456 -1.51523,-7.07107 z"
         style="fill:#000000;fill-opacity:1;fill-rule:evenodd;stroke:none"
         id="path4159"
         inkscape:connector-curvature="0" />
      <path
         d="m 531.84532,480.61584 c -0.56415,0.56415 -0.32269,2.63762 0.12627,3.53553 0.22448,0.44896 1.50267,0.89644 1.89403,0.50508 0.61879,-0.61879 0.84179,-2.35702 0.50507,-3.03046 -0.33671,-0.67343 -2.07937,-1.45615 -2.52537,-1.01015 z"
         style="fill:#ffefef;fill-opacity:1;fill-rule:evenodd;stroke:none"
         id="path4161"
         inkscape:connector-curvature="0" />
      <path
         d="m 567.70573,422.027 c 1.63347,-3.26694 6.9132,-5.88266 10.6066,-5.3033 4.8929,0.76751 9.82405,4.67819 13.00572,8.83883 1.19566,1.56356 -0.89029,4.83784 0.12627,6.56599 2.35061,3.99604 9.28246,6.24626 10.35406,10.35406 0.9487,3.6367 -1.32869,10.18449 -4.29315,12.87945 -2.59138,2.3558 -8.84685,4.56636 -11.61675,2.52538 -6.82655,-5.03009 -13.47644,-14.79478 -17.1726,-23.73859 -1.5906,-3.84887 -2.5755,-8.99113 -1.01015,-12.12182 z"
         style="fill:#000000;fill-opacity:1;fill-rule:evenodd;stroke:none"
         id="path4163"
         inkscape:connector-curvature="0" />
      <path
         d="m 530.96143,420.00669 c 3.03046,0.25254 3.40927,2.52538 3.53554,5.68211 0.12627,3.15673 -1.25895,3.3719 -1.6415,6.56599 -0.60361,5.03993 -0.63135,5.3033 -4.67196,11.61675 -4.05777,6.34027 -3.40926,13.88959 -7.95495,15.02602 -4.32926,1.08231 -5.68211,-1.548 -6.81853,-8.33375 -1.05297,-6.28747 0.99666,-9.73766 3.66181,-14.26841 1.26269,-2.14658 2.14657,-1.26269 3.78807,-4.04061 1.6415,-2.77792 1.08641,-5.36706 3.6618,-8.5863 2.02031,-2.52538 3.40927,-3.91434 6.43972,-3.6618 z"
         style="fill:#000000;fill-opacity:1;fill-rule:evenodd;stroke:none"
         id="path4165"
         inkscape:connector-curvature="0" />
      <path
         d="m 639.93164,384.65135 c -6.56599,-3.03046 -13.86044,-5.09727 -19.69798,-9.09137 -3.75891,-2.57189 -7.85253,-6.4083 -9.09137,-10.6066 -1.79162,-6.07159 -1.86382,-13.20907 0.35714,-19.13163 2.32473,-6.19927 6.8038,-13.36535 13.63706,-16.16244 3.14388,-1.2869 11.09125,3.09173 16.81545,1.95903 l -2.0203,53.03301 z"
         style="fill:#000000;fill-opacity:1;fill-rule:evenodd;stroke:none"
         id="path4167"
         inkscape:connector-curvature="0" />
      <path
         d="m 527.80471,366.4686 c -3.36718,7.7445 -5.73086,16.61128 -10.10153,23.23351 -1.18517,1.79571 -5.05102,0.50534 -6.56599,2.02031 -2.694,2.694 -2.90466,7.36942 -5.43592,10.42803 -1.50935,1.8238 -3.23704,3.05088 -5.25734,4.39775 -11.11242,-12.24093 -18.92997,-23.42218 -19.58068,-36.80929 -0.2606,-5.2899 1.37638,-13.45585 4.72426,-17.41244 4.0599,-4.79807 12.00462,-8.39431 17.85624,-8.67296 4.75498,-0.22643 8.69937,4.21497 12.17785,7.69344 1.06721,1.06721 1.44846,4.84893 2.35206,6.12219 2.80029,3.94586 5.9588,5.46393 9.83105,8.99946 z"
         style="fill:#000000;fill-opacity:1;fill-rule:evenodd;stroke:none"
         id="path4169"
         inkscape:connector-curvature="0" />
      <path
         d="m 665.38748,633.45192 c -11.78511,1.68359 -43.7888,-9.40318 -49.54799,-8.58629 -2.05287,0.29118 -8.61202,2.34939 -9.74797,4.24264 -2.90466,4.8411 -9.92594,11.30666 -16.16244,13.13198 -7.56892,2.21529 -17.50461,-3.15355 -25.25381,-1.01015 -8.07652,2.23393 -14.81557,9.42809 -22.22336,14.14213 l 39.39595,54.54824 87.88327,2.02031 -4.34365,-78.48886 z"
         style="fill:#b6a896;fill-opacity:1;fill-rule:evenodd;stroke:none"
         id="path10182"
         inkscape:connector-curvature="0" />
      <path
         d="m 634.95663,652.4933 c -8.98194,-2.0624 -16.43805,-6.93892 -20.75864,-3.88909 -1.4036,0.99078 -0.16248,6.3521 -1.71725,6.81853 -5.17958,1.55387 -2.66411,1.30056 -11.41473,1.71726 -5.39152,0.25674 -23.50288,-4.45309 -29.59747,-5.70736 l 3.30825,31.21371 44.44672,20.20305 15.73312,-50.3561 z"
         style="fill:#877864;fill-opacity:1;fill-rule:evenodd;stroke:none"
         id="path10184"
         inkscape:connector-curvature="0" />
      <path
         d="m 629.67859,583.19683 c 3.0947,1.70209 -21.92641,6.11279 -27.93072,11.31371 -10.73055,9.29477 -16.05571,22.87037 -27.93071,29.69849 -11.69523,6.72476 -31.54556,17.02828 -35.7089,11.66726 -4.43979,-5.71699 5.31182,-26.59852 13.78858,-37.83022 5.66538,-7.50663 19.00878,-17.08597 28.63783,-18.38477 15.70894,-2.11888 42.81053,0.0522 49.14392,3.53553 z"
         style="fill:#dad3ca;fill-opacity:1;fill-rule:evenodd;stroke:none"
         id="path2206"
         inkscape:connector-curvature="0" />
      <path
         d="m 503.56104,77.261926 c 41.75297,69.801544 96.92585,135.564284 125.25892,209.404624 15.44021,40.23956 5.87566,88.55752 6.06092,132.83506 0.15146,36.19794 -3.20929,72.40227 -5.05077,108.5914 -2.03077,39.90903 -3.83517,79.85151 -6.56599,119.70308 -0.6339,9.25064 -2.1893,18.43395 -3.52817,27.60357 -9.03258,61.86214 -37.71321,119.0072 -47.48453,178.97262 -3.03994,18.65575 8.13941,37.80479 9.05076,56.89088 1.12249,23.50783 -1.96616,47.26058 -2.94924,70.89087 l 197.44421,-7.51523 c 2.35702,-32.68105 -6.26987,-69.64572 7.07107,-98.04316 20.78581,-44.24456 61.51554,-81.72262 95.30918,-119.88286 31.07915,-35.095 66.20612,-66.58857 99.30918,-99.88285 l -10.31567,-68.94047 c -58.04601,51.91495 -114.36588,108.98803 -174.13803,155.74485 -5.78687,4.52678 -18.98861,2.87319 -22.53903,-1.89404 -5.41469,-7.27043 -4.75814,-22.7621 -4.35628,-34.21892 1.74472,-49.74159 6.57974,-99.64957 10.79601,-149.3763 0.96865,-11.42432 3.96727,-22.64154 4.75876,-34.07687 3.39117,-48.99494 0.88205,-98.97366 7.78923,-147.21395 3.3364,-23.30166 9.93943,-47.95484 22.94151,-67.4119 31.11528,-46.56272 72.94037,-87.09829 109.41056,-130.64744 l -1.30215,-65.3916 c -29.59378,32.27964 -57.03151,69.3861 -88.78135,96.83891 -5.68578,4.91626 -17.64313,3.72086 -23.52551,0.26832 -6.43412,-3.77637 -12.81427,-13.58757 -13.42398,-21.95503 -3.06104,-42.00864 1.60783,-86.11551 2.41174,-129.173263 L 654.47783,58.57411 c -1.48156,46.73639 3.21929,99.04438 -4.44467,140.20917 -1.22538,6.58175 -17.43507,7.56892 -22.22335,3.03046 -14.57297,-13.81264 -27.13679,-38.18299 -35.86042,-58.08377 -2.05133,-4.6796 5.85113,-12.44542 3.53554,-15.65737 -2.90353,-4.02748 -15.00308,-1.23029 -19.1929,-6.06091 C 563.30925,107.04332 554.7421,86.454321 543.96714,68.675636 l -40.4061,8.58629 z"
         style="fill:#ffffff;fill-opacity:1;fill-rule:evenodd;stroke:none"
         id="path4171"
         inkscape:connector-curvature="0" />
      <path
         d="m 654.47783,58.57411 c -1.48156,46.73639 3.21929,99.04438 -4.44467,140.20917 -1.22538,6.58175 -17.43507,7.56892 -22.22335,3.03046 -14.57297,-13.81264 -27.13679,-38.18299 -35.86042,-58.08377 -2.05133,-4.6796 5.85113,-12.44542 3.53554,-15.65737 -2.90353,-4.02748 -15.00308,-1.23029 -19.1929,-6.06091 C 563.30925,107.04332 554.7421,86.454321 543.96714,68.675636 m -40.4061,8.58629 c 41.75297,69.801544 96.92585,135.564284 125.25892,209.404624 15.44021,40.23956 5.87566,88.55752 6.06092,132.83506 0.15146,36.19794 -3.20929,72.40227 -5.05077,108.5914 -2.03077,39.90903 -3.83517,79.85151 -6.56599,119.70308 -0.6339,9.25064 -2.1893,18.43395 -3.52817,27.60357 -9.03258,61.86214 -37.71321,119.0072 -47.48453,178.97262 -3.03994,18.65575 8.13941,37.80479 9.05076,56.89088 1.12249,23.50783 -1.96616,47.26058 -2.94924,70.89087 M 920.53149,113.40329 c -29.59378,32.27964 -57.03151,69.3861 -88.78135,96.83891 -5.68578,4.91626 -17.64313,3.72086 -23.52551,0.26832 -6.43412,-3.77637 -12.81427,-13.58757 -13.42398,-21.95503 -3.06104,-42.00864 1.60783,-86.11551 2.41174,-129.173263 M 967.17091,587.88946 c -58.04601,51.91495 -114.36588,108.98803 -174.13803,155.74485 -5.78687,4.52678 -18.98861,2.87319 -22.53903,-1.89404 -5.41469,-7.27043 -4.75814,-22.7621 -4.35628,-34.21892 1.74472,-49.74159 6.57974,-99.64957 10.79601,-149.3763 0.96865,-11.42432 3.96727,-22.64154 4.75876,-34.07687 3.39117,-48.99494 0.88205,-98.97366 7.78923,-147.21395 3.3364,-23.30166 9.93943,-47.95484 22.94151,-67.4119 31.11528,-46.56272 72.94037,-87.09829 109.41056,-130.64744 M 775.79715,974.6388 c 2.35702,-32.68105 -6.26987,-69.64572 7.07107,-98.04316 20.78581,-44.24456 61.51554,-81.72262 95.30918,-119.88286 31.07915,-35.095 66.20612,-66.58857 99.30918,-99.88285"
         style="fill:none;stroke:#472000;stroke-width:4;stroke-linecap:butt;stroke-linejoin:miter;stroke-miterlimit:4;stroke-opacity:1;stroke-dasharray:none;display:inline"
         id="path3964"
         inkscape:connector-curvature="0" />
      <path
         d="m 470.22601,666.98899 c 11.95347,16.16244 22.64426,30.68338 35.35534,45.83567 -1.01015,-4.37733 -1.40176,-7.75493 -3.59681,-11.55176 -4.03423,-6.97813 -10.89316,-10.86108 -14.58594,-18.12147 -6.24038,-12.26923 -12.07974,-24.4962 -14.14213,-39.39595 l -3.03046,23.23351 z"
         style="fill:#000000;fill-opacity:1;fill-rule:evenodd;stroke:none"
         id="path4175"
         inkscape:connector-curvature="0" />
      <path
         d="m 619.36679,675.27874 c -17.40558,-3.65572 -19.20221,-9.40071 -33.98339,-17.8862 -12.49294,-7.17187 -28.90331,-11.59562 -41.44164,-8.16788 -10.86353,2.96989 -20.41287,16.62705 -26.26396,27.71792 -5.42895,10.29069 -8.68372,22.38681 -8.29044,35.17676 0.34172,11.11275 -2.24208,22.05834 -3.23966,33.15647 -1.69616,18.86973 -8.0645,37.96906 -6.62727,56.56854 1.42487,18.43945 3.99857,37.59115 16.10643,51.6911 6.9782,8.12632 17.53142,18.32942 27.71792,19.93782 9.0064,1.42206 19.92509,-2.74498 27.89648,-7.98931 4.82388,-3.1736 20.15387,-18.77359 25.58033,-23.3867 5.1703,-4.39534 14.04108,-10.34027 19.7316,-16.04596 5.69052,-5.70569 5.49238,-8.39564 5.70078,-10.56989 0.45432,-4.74003 -2.57546,-7.69097 -1.51523,-10.6066 0.96008,-2.64021 7.46838,-3.48659 7.57614,-6.06092 0.30229,-7.22189 -6.56485,-7.13943 -6.7752,-11.34627 -0.12637,-2.52751 6.29111,-7.22799 4.7549,-10.87709 -1.20517,-2.86275 -10.82418,-1.95293 -16.16244,0 -4.95709,1.81348 -7.80052,4.55591 -12.68292,5.73442 4.62986,-14.56303 8.85794,-23.72428 12.79584,-38.66678 3.9379,-14.94249 6.55198,-52.24497 9.12173,-68.37943 z"
         style="fill:#000000;fill-opacity:1;fill-rule:evenodd;stroke:none"
         id="path4177"
         inkscape:connector-curvature="0" />
    </g>
  </g>
</svg>
