<?xml version="1.0" encoding="UTF-8" standalone="no"?>
<!-- Created with Inkscape (http://www.inkscape.org/) -->

<svg
   xmlns:dc="http://purl.org/dc/elements/1.1/"
   xmlns:cc="http://creativecommons.org/ns#"
   xmlns:rdf="http://www.w3.org/1999/02/22-rdf-syntax-ns#"
   xmlns:svg="http://www.w3.org/2000/svg"
   xmlns="http://www.w3.org/2000/svg"
   xmlns:sodipodi="http://sodipodi.sourceforge.net/DTD/sodipodi-0.dtd"
   xmlns:inkscape="http://www.inkscape.org/namespaces/inkscape"
   width="507.8056"
   height="165.71605"
   id="svg2579"
   sodipodi:version="0.32"
   inkscape:version="0.48.1 r9760"
   version="1.0"
   sodipodi:docname="bat.svg"
   inkscape:output_extension="org.inkscape.output.svg.inkscape">
  <defs
     id="defs2581">
    <inkscape:perspective
       sodipodi:type="inkscape:persp3d"
       inkscape:vp_x="0 : 526.18109 : 1"
       inkscape:vp_y="0 : 1000 : 0"
       inkscape:vp_z="744.09448 : 526.18109 : 1"
       inkscape:persp3d-origin="372.04724 : 350.78739 : 1"
       id="perspective2587" />
  </defs>
  <sodipodi:namedview
     id="base"
     pagecolor="#ffffff"
     bordercolor="#666666"
     borderopacity="1.0"
     gridtolerance="10000"
     guidetolerance="10"
     objecttolerance="10"
     inkscape:pageopacity="0.0"
     inkscape:pageshadow="2"
     inkscape:zoom="0.35"
     inkscape:cx="371.75993"
     inkscape:cy="-24.06929"
     inkscape:document-units="in"
     inkscape:current-layer="layer1"
     showgrid="false"
     units="in"
     inkscape:window-width="1680"
     inkscape:window-height="1026"
     inkscape:window-x="0"
     inkscape:window-y="0"
     fit-margin-top="0"
     fit-margin-left="0"
     fit-margin-right="0"
     fit-margin-bottom="0"
     inkscape:window-maximized="1" />
  <metadata
     id="metadata2584">
    <rdf:RDF>
      <cc:Work
         rdf:about="">
        <dc:format>image/svg+xml</dc:format>
        <dc:type
           rdf:resource="http://purl.org/dc/dcmitype/StillImage" />
      </cc:Work>
    </rdf:RDF>
  </metadata>
  <g
     inkscape:label="Layer 1"
     inkscape:groupmode="layer"
     id="layer1"
     transform="translate(-20.382923,-32.357522)">
    <g
       id="g7691"
       transform="matrix(2.6997473,0,0,2.6997473,-48.882469,-10.893072)">
      <path
         id="path1732"
         d="m 191.03125,17.46875 c -15.31606,1.159395 -63.18132,25.853595 -62.28125,32.9375 1.32638,11.474748 -0.29421,22.38798 -0.3125,22.78125 0.76189,-3.495646 11.37963,-17.682908 18.0625,-17.3125 6.82603,-0.52395 9.59335,3.761512 10.0625,6.625 0.23739,-3.640119 2.6459,-15.926809 9.21875,-15.5625 6.5035,-0.499194 16.06863,2.270212 18.53125,4.8125 l 0.71875,-0.28125 c 0.32107,-3.909287 2.74519,-15.638324 9.1875,-15.28125 6.33841,-0.486523 15.64212,2.136361 18.40625,4.625 l 0.96875,-0.375 c 0,-2.755795 -14.02975,-22.682985 -19.9375,-22.875 -0.70747,-0.144011 -1.60393,-0.171043 -2.625,-0.09375 z"
         style="fill:#000000;fill-opacity:1;fill-rule:evenodd;stroke:#000000;stroke-width:0.26263874pt"
         inkscape:connector-curvature="0" />
      <path
         id="path1754"
         d="M 48.375,16.21875 C 47.35393,16.14146 46.457472,16.16849 45.75,16.3125 39.842245,16.504515 25.812501,36.400454 25.8125,39.15625 l 1,0.375 c 2.789187,-2.476315 12.051821,-5.079103 18.375,-4.59375 6.438323,-0.356854 8.863916,11.336883 9.1875,15.25 l 0.71875,0.28125 C 57.556367,47.931263 67.1215,45.188306 73.625,45.6875 c 6.572854,-0.36431 8.981354,11.891248 9.21875,15.53125 0.469148,-2.863304 3.236465,-7.1177 10.0625,-6.59375 6.682854,-0.370406 17.30061,13.787666 18.0625,17.28125 -0.0183,-0.39327 -1.63888,-11.306503 -0.3125,-22.78125 C 111.55632,42.041095 63.691056,17.378146 48.375,16.21875 z"
         style="fill:#000000;fill-opacity:1;fill-rule:evenodd;stroke:#000000;stroke-width:0.26263874pt"
         inkscape:connector-curvature="0" />
      <path
         transform="matrix(0.227639,0,0,0.188633,59.12828,26.62465)"
         style="fill:#000000;fill-opacity:1;fill-rule:evenodd;stroke:#000000;stroke-width:1pt"
         sodipodi:type="arc"
         sodipodi:ry="74.308708"
         sodipodi:rx="55.986012"
         sodipodi:cy="194.2493"
         sodipodi:cx="267.71494"
         id="path1758"
         d="m 323.70095,194.2493 c 0,41.03956 -25.06579,74.30871 -55.98601,74.30871 -30.92023,0 -55.98602,-33.26915 -55.98602,-74.30871 0,-41.03957 25.06579,-74.30871 55.98602,-74.30871 30.92022,0 55.98601,33.26914 55.98601,74.30871 z" />
      <path
         style="fill:#000000;fill-opacity:1;fill-rule:evenodd;stroke:#000000;stroke-width:0.188633pt;stroke-linecap:butt;stroke-linejoin:miter;stroke-opacity:1"
         sodipodi:nodetypes="ccc"
         id="path1760"
         d="m 110.3739,53.665754 c 0.38403,-1.344103 3.07223,-12.096927 3.07223,-12.096927 l 4.03231,9.024691"
         inkscape:connector-curvature="0" />
      <path
         style="fill:#000000;fill-opacity:1;fill-rule:evenodd;stroke:#000000;stroke-width:0.188633pt;stroke-linecap:butt;stroke-linejoin:miter;stroke-opacity:1"
         sodipodi:nodetypes="ccc"
         id="path1761"
         d="m 129.28735,53.569749 c -0.38403,-1.344103 -3.07224,-12.096927 -3.07224,-12.096927 l -4.03231,9.024692"
         inkscape:connector-curvature="0" />
      <path
         transform="matrix(0.188633,0,0,0.188633,77.53939,24.03246)"
         style="fill:#ff312d;fill-opacity:1;fill-rule:evenodd;stroke:#000000;stroke-width:1pt"
         sodipodi:type="arc"
         sodipodi:ry="5.5986013"
         sodipodi:rx="12.724093"
         sodipodi:cy="179.48935"
         sodipodi:cx="199.00482"
         id="path1762"
         d="m 211.72892,179.48935 c 0,3.09202 -5.69678,5.5986 -12.7241,5.5986 -7.02732,0 -12.72409,-2.50658 -12.72409,-5.5986 0,-3.09202 5.69677,-5.5986 12.72409,-5.5986 7.02732,0 12.7241,2.50658 12.7241,5.5986 z" />
      <path
         transform="matrix(0.188633,0,0,0.188633,87.23613,24.03246)"
         style="fill:#ff312d;fill-opacity:1;fill-rule:evenodd;stroke:#000000;stroke-width:1pt"
         sodipodi:type="arc"
         sodipodi:ry="5.5986013"
         sodipodi:rx="12.724093"
         sodipodi:cy="179.48935"
         sodipodi:cx="199.00482"
         id="path1763"
         d="m 211.72892,179.48935 c 0,3.09202 -5.69678,5.5986 -12.7241,5.5986 -7.02732,0 -12.72409,-2.50658 -12.72409,-5.5986 0,-3.09202 5.69677,-5.5986 12.72409,-5.5986 7.02732,0 12.7241,2.50658 12.7241,5.5986 z" />
    </g>
  </g>
</svg>
