<?xml version="1.0" encoding="UTF-8" standalone="no"?>
<!-- Created with Inkscape (http://www.inkscape.org/) -->

<svg
   xmlns:dc="http://purl.org/dc/elements/1.1/"
   xmlns:cc="http://creativecommons.org/ns#"
   xmlns:rdf="http://www.w3.org/1999/02/22-rdf-syntax-ns#"
   xmlns:svg="http://www.w3.org/2000/svg"
   xmlns="http://www.w3.org/2000/svg"
   xmlns:xlink="http://www.w3.org/1999/xlink"
   xmlns:sodipodi="http://sodipodi.sourceforge.net/DTD/sodipodi-0.dtd"
   xmlns:inkscape="http://www.inkscape.org/namespaces/inkscape"
   height="554.03094"
   id="svg10587"
   inkscape:version="0.48.1 r9760"
   sodipodi:docname="bee2_mimooh_01.svg"
   sodipodi:version="0.32"
   width="582.38275"
   version="1.1">
  <metadata
     id="metadata3054">
    <rdf:RDF>
      <cc:Work
         rdf:about="">
        <dc:title>bee2</dc:title>
        <dc:description />
        <dc:subject>
          <rdf:Bag>
            <rdf:li>insect</rdf:li>
            <rdf:li>animal</rdf:li>
            <rdf:li>bee</rdf:li>
          </rdf:Bag>
        </dc:subject>
        <dc:publisher>
          <cc:Agent
             rdf:about="http://www.openclipart.org/">
            <dc:title>Open Clip Art Library</dc:title>
          </cc:Agent>
        </dc:publisher>
        <dc:creator>
          <cc:Agent>
            <dc:title>mimooh</dc:title>
          </cc:Agent>
        </dc:creator>
        <dc:rights>
          <cc:Agent>
            <dc:title>mimooh</dc:title>
          </cc:Agent>
        </dc:rights>
        <dc:date />
        <dc:format>image/svg+xml</dc:format>
        <dc:type
           rdf:resource="http://purl.org/dc/dcmitype/StillImage" />
        <cc:license
           rdf:resource="http://web.resource.org/cc/PublicDomain" />
        <dc:language>en</dc:language>
      </cc:Work>
      <cc:License
         rdf:about="http://web.resource.org/cc/PublicDomain">
        <cc:permits
           rdf:resource="http://web.resource.org/cc/Reproduction" />
        <cc:permits
           rdf:resource="http://web.resource.org/cc/Distribution" />
        <cc:permits
           rdf:resource="http://web.resource.org/cc/DerivativeWorks" />
      </cc:License>
    </rdf:RDF>
  </metadata>
  <defs
     id="defs10589">
    <radialGradient
       cx="427.14285"
       cy="825.2193"
       fx="427.14285"
       fy="825.2193"
       gradientTransform="matrix(1,0,0,0.114583,0,730.6629)"
       gradientUnits="userSpaceOnUse"
       id="radialGradient2487"
       inkscape:collect="always"
       r="137.14285"
       xlink:href="#linearGradient12513" />
    <radialGradient
       cx="439.28571"
       cy="492.00504"
       fx="439.28571"
       fy="492.00504"
       gradientTransform="matrix(1,0,0,0.477273,0,257.1845)"
       gradientUnits="userSpaceOnUse"
       id="radialGradient2485"
       inkscape:collect="always"
       r="15.714286"
       xlink:href="#linearGradient11759" />
    <radialGradient
       cx="439.28571"
       cy="492.00504"
       fx="439.28571"
       fy="492.00504"
       gradientTransform="matrix(1,0,0,0.477273,0,257.1845)"
       gradientUnits="userSpaceOnUse"
       id="radialGradient2483"
       inkscape:collect="always"
       r="15.714286"
       xlink:href="#linearGradient11759" />
    <radialGradient
       cx="439.28571"
       cy="492.00504"
       fx="439.28571"
       fy="492.00504"
       gradientTransform="matrix(1,0,0,0.477273,0,257.1845)"
       gradientUnits="userSpaceOnUse"
       id="radialGradient2481"
       inkscape:collect="always"
       r="15.714286"
       xlink:href="#linearGradient8091" />
    <radialGradient
       cx="439.28571"
       cy="492.00504"
       fx="439.28571"
       fy="492.00504"
       gradientTransform="matrix(1,0,0,0.477273,0,257.1845)"
       gradientUnits="userSpaceOnUse"
       id="radialGradient2479"
       inkscape:collect="always"
       r="15.714286"
       xlink:href="#linearGradient11767" />
    <radialGradient
       cx="439.28571"
       cy="492.00504"
       fx="439.28571"
       fy="492.00504"
       gradientTransform="matrix(1,0,0,0.477273,0,257.1845)"
       gradientUnits="userSpaceOnUse"
       id="radialGradient2477"
       inkscape:collect="always"
       r="15.714286"
       xlink:href="#linearGradient11759" />
    <radialGradient
       cx="439.28571"
       cy="492.00504"
       fx="439.28571"
       fy="492.00504"
       gradientTransform="matrix(1,0,0,0.477273,0,257.1845)"
       gradientUnits="userSpaceOnUse"
       id="radialGradient2475"
       inkscape:collect="always"
       r="15.714286"
       xlink:href="#linearGradient11019" />
    <linearGradient
       id="linearGradient12513">
      <stop
         id="stop12515"
         offset="0.0000000"
         style="stop-color:#000000;stop-opacity:0.16494845;" />
      <stop
         id="stop12517"
         offset="1"
         style="stop-color:#000000;stop-opacity:0;" />
    </linearGradient>
    <radialGradient
       cx="427.14285"
       cy="825.2193"
       fx="427.14285"
       fy="825.2193"
       gradientTransform="matrix(1,0,0,0.114583,0,730.6629)"
       gradientUnits="userSpaceOnUse"
       id="radialGradient12519"
       inkscape:collect="always"
       r="137.14285"
       xlink:href="#linearGradient12513" />
    <radialGradient
       cx="439.28571"
       cy="492.00504"
       fx="439.28571"
       fy="492.00504"
       gradientTransform="matrix(1,0,0,0.477273,0,257.1845)"
       gradientUnits="userSpaceOnUse"
       id="radialGradient11781"
       inkscape:collect="always"
       r="15.714286"
       xlink:href="#linearGradient11759" />
    <radialGradient
       cx="439.28571"
       cy="492.00504"
       fx="439.28571"
       fy="492.00504"
       gradientTransform="matrix(1,0,0,0.477273,0,257.1845)"
       gradientUnits="userSpaceOnUse"
       id="radialGradient11777"
       inkscape:collect="always"
       r="15.714286"
       xlink:href="#linearGradient11759" />
    <linearGradient
       id="linearGradient8091"
       inkscape:collect="always">
      <stop
         id="stop8093"
         offset="0"
         style="stop-color:#ffffff;stop-opacity:1;" />
      <stop
         id="stop8095"
         offset="1"
         style="stop-color:#ffffff;stop-opacity:0;" />
    </linearGradient>
    <radialGradient
       cx="439.28571"
       cy="492.00504"
       fx="439.28571"
       fy="492.00504"
       gradientTransform="matrix(1,0,0,0.477273,0,257.1845)"
       gradientUnits="userSpaceOnUse"
       id="radialGradient8097"
       inkscape:collect="always"
       r="15.714286"
       xlink:href="#linearGradient8091" />
    <linearGradient
       id="linearGradient11767"
       inkscape:collect="always">
      <stop
         id="stop11769"
         offset="0"
         style="stop-color:#ffffff;stop-opacity:1;" />
      <stop
         id="stop11771"
         offset="1"
         style="stop-color:#ffffff;stop-opacity:0;" />
    </linearGradient>
    <radialGradient
       cx="439.28571"
       cy="492.00504"
       fx="439.28571"
       fy="492.00504"
       gradientTransform="matrix(1,0,0,0.477273,0,257.1845)"
       gradientUnits="userSpaceOnUse"
       id="radialGradient11773"
       inkscape:collect="always"
       r="15.714286"
       xlink:href="#linearGradient11767" />
    <linearGradient
       id="linearGradient11759"
       inkscape:collect="always">
      <stop
         id="stop11761"
         offset="0"
         style="stop-color:#ffffff;stop-opacity:1;" />
      <stop
         id="stop11763"
         offset="1"
         style="stop-color:#ffffff;stop-opacity:0;" />
    </linearGradient>
    <radialGradient
       cx="439.28571"
       cy="492.00504"
       fx="439.28571"
       fy="492.00504"
       gradientTransform="matrix(1,0,0,0.477273,0,257.1845)"
       gradientUnits="userSpaceOnUse"
       id="radialGradient11765"
       inkscape:collect="always"
       r="15.714286"
       xlink:href="#linearGradient11759" />
    <linearGradient
       id="linearGradient11019">
      <stop
         id="stop11021"
         offset="0.0000000"
         style="stop-color:#f15959;stop-opacity:0.28865978;" />
      <stop
         id="stop11023"
         offset="1"
         style="stop-color:#f15959;stop-opacity:0;" />
    </linearGradient>
    <radialGradient
       cx="439.28571"
       cy="492.00504"
       fx="439.28571"
       fy="492.00504"
       gradientTransform="matrix(1,0,0,0.477273,0,257.1845)"
       gradientUnits="userSpaceOnUse"
       id="radialGradient11754"
       inkscape:collect="always"
       r="15.714286"
       xlink:href="#linearGradient11019" />
  </defs>
  <sodipodi:namedview
     bordercolor="#666666"
     borderopacity="1.0"
     id="base"
     inkscape:current-layer="layer1"
     inkscape:cx="27.620067"
     inkscape:cy="220.54747"
     inkscape:document-units="px"
     inkscape:pageopacity="0.0"
     inkscape:pageshadow="2"
     inkscape:window-height="742"
     inkscape:window-width="1014"
     inkscape:window-x="0"
     inkscape:window-y="0"
     inkscape:zoom="0.35"
     pagecolor="#ffffff"
     showgrid="false"
     fit-margin-top="0"
     fit-margin-left="0"
     fit-margin-right="0"
     fit-margin-bottom="0"
     inkscape:window-maximized="0" />
  <g
     id="layer1"
     inkscape:groupmode="layer"
     inkscape:label="Layer 1"
     transform="translate(-87.379933,-238.87868)">
    <g
       id="g2392"
       transform="matrix(1.080654,0,0,1.080654,-29.79423,-96.46421)">
      <g
         id="g2394"
         inkscape:label="kolor"
         style="display:inline">
        <path
           d="m 233.36331,492.75951 c -14.72994,-14.222 -115.50557,-27.48493 -121.39494,68.57034 11.3802,90.46806 122.91871,82.28443 151.36272,31.9995 15.74579,3.5555 24.8885,37.07879 75.68135,-7.61894 -2.53965,14.72994 15.253,83.45881 141.71207,80.25272 86.4126,-2.1908 97.01435,-37.58672 103.1095,-68.06243 2.22044,-63.50303 -91.42713,-98.03021 -208.25071,-62.98313 -5.70336,-22.38529 31.9995,-139.17242 -48.25321,-153.39442 -93.45886,-24.38058 -93.82714,89.49523 -93.96678,111.23636 z"
           id="path2396"
           sodipodi:nodetypes="ccccscccc"
           style="color:#000000;fill:#ffee73;fill-opacity:1;fill-rule:nonzero;stroke:none;stroke-width:5.76070213;marker:none;visibility:visible;display:inline;overflow:visible"
           inkscape:connector-curvature="0" />
        <path
           d="m 454.99999,492.00504 c 0,4.14213 -7.03552,7.5 -15.71428,7.5 -8.67876,0 -15.71429,-3.35787 -15.71429,-7.5 0,-4.14214 7.03553,-7.5 15.71429,-7.5 8.67876,0 15.71428,3.35786 15.71428,7.5 z"
           id="path2398"
           sodipodi:cx="439.28571"
           sodipodi:cy="492.00504"
           sodipodi:rx="15.714286"
           sodipodi:ry="7.5"
           sodipodi:type="arc"
           style="color:#000000;fill:url(#radialGradient2475);fill-opacity:1;fill-rule:nonzero;stroke:none;stroke-width:7.18500042;marker:none;visibility:visible;display:inline;overflow:visible"
           transform="matrix(2.668235,-0.682515,0.408726,4.455576,-1060.71,-1371.886)" />
        <path
           d="m 228.79194,487.17228 c -18.28542,-29.96779 10.6665,-118.34735 39.61843,-73.14171 5.07929,1.01586 37.0788,-38.09465 55.36422,5.07929 11.68235,20.31713 13.1995,107.20244 -61.45936,91.42713 -7.64435,-3.96961 -21.85499,-13.94032 -33.52329,-23.36471 z"
           id="path2400"
           sodipodi:nodetypes="ccccc"
           style="color:#000000;fill:#ffffff;fill-opacity:1;fill-rule:nonzero;stroke:none;stroke-width:7.18500042;marker:none;visibility:visible;display:inline;overflow:visible"
           inkscape:connector-curvature="0" />
        <path
           d="M 412.95343,521.92182 C 337.52988,401.24415 380.88421,361.60235 395.67148,360.01584 c 11.91398,10.62493 16.81878,20.98113 27.29613,64.64876 8.3224,-37.50249 22.94776,-65.39032 35.91598,-67.52203 36.84688,-6.05688 6.09514,163.553 6.09514,163.553 0,0 43.68186,-114.28392 79.23686,-83.80821 35.555,30.47571 -43.68186,80.76063 -65.01486,81.7765 -21.333,1.01584 -55.85668,9.49233 -66.2473,3.25796 z"
           id="path2402"
           sodipodi:nodetypes="cccscssc"
           style="color:#000000;fill:#fdffab;fill-opacity:0.77327935;fill-rule:nonzero;stroke:none;stroke-width:7.18500042;marker:none;visibility:visible;display:inline;overflow:visible"
           inkscape:connector-curvature="0" />
        <path
           d="m 454.99999,492.00504 c 0,4.14213 -7.03552,7.5 -15.71428,7.5 -8.67876,0 -15.71429,-3.35787 -15.71429,-7.5 0,-4.14214 7.03553,-7.5 15.71429,-7.5 8.67876,0 15.71428,3.35786 15.71428,7.5 z"
           id="path2404"
           sodipodi:cx="439.28571"
           sodipodi:cy="492.00504"
           sodipodi:rx="15.714286"
           sodipodi:ry="7.5"
           sodipodi:type="arc"
           style="color:#000000;fill:url(#radialGradient2477);fill-opacity:1;fill-rule:nonzero;stroke:none;stroke-width:7.18500042;marker:none;visibility:visible;display:inline;overflow:visible"
           transform="matrix(0.466246,-1.139659,0.56094,0.457047,-36.13898,667.4489)" />
        <path
           d="m 454.99999,492.00504 c 0,4.14213 -7.03552,7.5 -15.71428,7.5 -8.67876,0 -15.71429,-3.35787 -15.71429,-7.5 0,-4.14214 7.03553,-7.5 15.71429,-7.5 8.67876,0 15.71428,3.35786 15.71428,7.5 z"
           id="path2406"
           sodipodi:cx="439.28571"
           sodipodi:cy="492.00504"
           sodipodi:rx="15.714286"
           sodipodi:ry="7.5"
           sodipodi:type="arc"
           style="color:#000000;fill:url(#radialGradient2479);fill-opacity:1;fill-rule:nonzero;stroke:none;stroke-width:7.18500042;marker:none;visibility:visible;display:inline;overflow:visible"
           transform="matrix(0.1116,-0.904875,0.670294,0.201071,57.72186,725.8083)" />
        <path
           d="m 454.99999,492.00504 c 0,4.14213 -7.03552,7.5 -15.71428,7.5 -8.67876,0 -15.71429,-3.35787 -15.71429,-7.5 0,-4.14214 7.03553,-7.5 15.71429,-7.5 8.67876,0 15.71428,3.35786 15.71428,7.5 z"
           id="path2408"
           sodipodi:cx="439.28571"
           sodipodi:cy="492.00504"
           sodipodi:rx="15.714286"
           sodipodi:ry="7.5"
           sodipodi:type="arc"
           style="color:#000000;fill:url(#radialGradient2481);fill-opacity:1;fill-rule:nonzero;stroke:none;stroke-width:7.18500042;marker:none;visibility:visible;display:inline;overflow:visible"
           transform="matrix(1.90723,-3.582645,6.038982,1.131471,-3641.551,1570.514)" />
        <path
           d="m 454.99999,492.00504 c 0,4.14213 -7.03552,7.5 -15.71428,7.5 -8.67876,0 -15.71429,-3.35787 -15.71429,-7.5 0,-4.14214 7.03553,-7.5 15.71429,-7.5 8.67876,0 15.71428,3.35786 15.71428,7.5 z"
           id="path2410"
           sodipodi:cx="439.28571"
           sodipodi:cy="492.00504"
           sodipodi:rx="15.714286"
           sodipodi:ry="7.5"
           sodipodi:type="arc"
           style="color:#000000;fill:url(#radialGradient2483);fill-opacity:1;fill-rule:nonzero;stroke:none;stroke-width:7.18500042;marker:none;visibility:visible;display:inline;overflow:visible"
           transform="matrix(0.937143,-0.798729,0.288732,0.663461,-39.48385,482.158)" />
        <path
           d="m 454.99999,492.00504 c 0,4.14213 -7.03552,7.5 -15.71428,7.5 -8.67876,0 -15.71429,-3.35787 -15.71429,-7.5 0,-4.14214 7.03553,-7.5 15.71429,-7.5 8.67876,0 15.71428,3.35786 15.71428,7.5 z"
           id="path2412"
           sodipodi:cx="439.28571"
           sodipodi:cy="492.00504"
           sodipodi:rx="15.714286"
           sodipodi:ry="7.5"
           sodipodi:type="arc"
           style="color:#000000;fill:url(#radialGradient2485);fill-opacity:1;fill-rule:nonzero;stroke:none;stroke-width:7.18500042;marker:none;visibility:visible;display:inline;overflow:visible"
           transform="matrix(0.28497,-1.197915,0.624696,0.365103,-41.71614,743.8641)" />
        <path
           d="m 564.28571,825.2193 c 0,8.67876 -61.40095,15.71429 -137.14286,15.71429 C 351.40095,840.93359 290,833.89806 290,825.2193 c 0,-8.67876 61.40095,-15.71429 137.14285,-15.71429 75.74191,0 137.14286,7.03553 137.14286,15.71429 z"
           id="path2414"
           sodipodi:cx="427.14285"
           sodipodi:cy="825.2193"
           sodipodi:rx="137.14285"
           sodipodi:ry="15.714286"
           sodipodi:type="arc"
           style="color:#000000;fill:url(#radialGradient2487);fill-opacity:1;fill-rule:nonzero;stroke:none;stroke-width:7.18500042;marker:none;visibility:visible;display:inline;overflow:visible"
           transform="translate(83.06019,-17.93764)" />
        <path
           d="m 461.78064,339.71392 c 6.1479,-0.82064 34.44109,-0.29556 30.05356,44.96897 11.42579,-29.08462 -12.38137,-59.80345 -30.05356,-44.96897 z"
           id="path2416"
           sodipodi:nodetypes="ccc"
           style="color:#000000;fill:#000000;fill-opacity:0.49797567;fill-rule:nonzero;stroke:none;stroke-width:7.18500042;marker:none;visibility:visible;display:inline;overflow:visible"
           inkscape:connector-curvature="0" />
        <path
           d="m 549.9281,410.47267 c 0,0 18.59913,-3.85637 17.5823,16.76609 4.77329,-9.29833 -0.28945,-27.04801 -17.5823,-16.76609 z"
           id="path2418"
           sodipodi:nodetypes="ccc"
           style="color:#000000;fill:#000000;fill-opacity:0.49797567;fill-rule:nonzero;stroke:none;stroke-width:7.18500042;marker:none;visibility:visible;display:inline;overflow:visible"
           inkscape:connector-curvature="0" />
        <path
           d="m 547.4739,420.90154 c 5.35068,-0.52274 21.18337,5.60293 15.60646,31.86257 9.065,-14.6661 -0.22588,-41.31213 -15.60646,-31.86257 z"
           id="path2420"
           sodipodi:nodetypes="ccc"
           style="color:#000000;fill:#000000;fill-opacity:0.49797567;fill-rule:nonzero;stroke:none;stroke-width:7.18500042;marker:none;visibility:visible;display:inline;overflow:visible"
           inkscape:connector-curvature="0" />
        <path
           d="m 365.04728,369.64618 c -1.57924,-5.13898 1.26617,-21.87521 28.11051,-21.64681 -16.17921,-5.95833 -40.43735,8.4595 -28.11051,21.64681 z"
           id="path2422"
           sodipodi:nodetypes="ccc"
           style="color:#000000;fill:#000000;fill-opacity:0.49797567;fill-rule:nonzero;stroke:none;stroke-width:7.18500042;marker:none;visibility:visible;display:inline;overflow:visible"
           inkscape:connector-curvature="0" />
        <path
           d="m 360.11025,358.21761 c -0.89353,-2.90759 0.71638,-12.37681 15.90469,-12.24759 -9.15406,-3.37117 -22.87912,4.78632 -15.90469,12.24759 z"
           id="path2424"
           sodipodi:nodetypes="ccc"
           style="color:#000000;fill:#000000;fill-opacity:0.49797567;fill-rule:nonzero;stroke:none;stroke-width:7.18500042;marker:none;visibility:visible;display:inline;overflow:visible"
           inkscape:connector-curvature="0" />
      </g>
      <g
         id="g2426"
         inkscape:label="Layer 1">
        <path
           d="m 253.41631,505.61581 c -25.20758,-17.85763 -70.5948,-27.20987 -99.07188,-9.97938 -22.98459,13.90717 -45.48637,40.58565 -38.54378,71.65544 6.0916,35.8626 47.61532,63.06317 77.93398,61.03128 30.31864,-2.03187 49.06116,-21.51958 70.03942,-35.42164 -21.37191,53.03358 -103.46578,59.43192 -136.31104,14.1261 -22.87084,-26.96967 -27.32027,-72.43438 -1.21097,-98.66853 28.76162,-27.85908 65.36909,-39.59431 98.2651,-23.2848 3.61258,1.63899 23.26807,12.94139 28.89917,20.54153 z"
           id="path2428"
           sodipodi:nodetypes="csczccccc"
           style="color:#000000;fill:#000000;fill-opacity:1;fill-rule:nonzero;stroke:none;stroke-width:4.05299997;marker:none;visibility:visible;display:inline;overflow:visible"
           inkscape:connector-curvature="0" />
        <path
           d="m 254.81782,502.08678 c 24.54864,21.20319 70.24657,-2.89077 71.9124,-35.03431 5.36689,-22.79047 2.75257,-47.85638 -18.64221,-62.3714 -13.46138,-9.66237 -40.02062,7.21277 -43.86924,21.41185 6.36635,-32.43423 48.24731,-35.63925 59.43906,-15.2778 18.69402,34.23389 10.06531,85.77818 -27.64074,103.10102 -13.45118,5.55486 -37.3906,6.38639 -41.19927,-11.82936 z"
           id="path2430"
           sodipodi:nodetypes="ccccccc"
           style="color:#000000;fill:#000000;fill-opacity:1;fill-rule:nonzero;stroke:none;stroke-width:4.05299997;marker:none;visibility:visible;display:inline;overflow:visible"
           inkscape:connector-curvature="0" />
        <path
           d="m 267.88306,414.13513 c -11.79146,-12.80821 -14.24176,-14.20145 -27.04956,-2.32018 -12.23041,8.21594 -17.83379,43.74211 -12.70314,71.13371 2.90179,7.54897 7.31348,17.27276 -3.6276,0.21829 -4.16419,-17.9291 -5.33992,-37.36061 -0.20952,-55.02174 7.06614,-19.60506 33.71412,-42.82099 43.58982,-14.01008 z"
           id="path2432"
           sodipodi:nodetypes="cccccc"
           style="color:#000000;fill:#000000;fill-opacity:1;fill-rule:nonzero;stroke:none;stroke-width:4.05299997;marker:none;visibility:visible;display:inline;overflow:visible"
           inkscape:connector-curvature="0" />
        <path
           d="m 365.08809,403.74484 c -0.99188,-16.06774 6.8021,-31.6118 18.38177,-44.48464 7.46281,-7.14528 19.55771,-1.21605 23.42623,6.97801 18.81258,26.55887 15.76296,62.18423 19.12054,97.54087 -0.16016,2.20042 4.01876,27.46251 1.62902,15.24243 -15.84346,-52.36326 -3.94093,-73.49481 -21.74591,-102.4904 -3.58871,-8.9469 -14.61684,-16.68882 -22.18953,-8.10017 -10.57217,13.7894 -14.50718,23.81778 -13.3474,40.17616 2.3232,32.0469 10.01464,17.9268 10.15857,61.20538 2.83113,6.65048 16.37887,31.99636 33.12984,53.52046 -0.37461,-7.05033 -46.71876,-87.04689 -31.9995,-62.98315 -0.3746,0.56861 -4.2632,-22.28214 -16.56363,-56.60495 z"
           id="path2434"
           sodipodi:nodetypes="cccccccccccc"
           style="color:#000000;fill:#000000;fill-opacity:1;fill-rule:nonzero;stroke:none;stroke-width:4.05299997;marker:none;visibility:visible;display:inline;overflow:visible"
           inkscape:connector-curvature="0" />
        <path
           d="m 255.78578,398.79616 c 32.81879,-43.19134 116.05634,-22.33525 124.24318,34.03133 5.51789,24.64662 -1.61683,99.63745 -4.90921,98.05352 3.01791,-74.01584 14.49467,-111.92286 -35.87249,-140.23761 -53.80389,-19.43622 -68.74688,-0.91971 -83.46148,8.15276 z"
           id="path2436"
           sodipodi:nodetypes="ccccc"
           style="color:#000000;fill:#000000;fill-opacity:1;fill-rule:nonzero;stroke:none;stroke-width:4.05299997;marker:none;visibility:visible;display:inline;overflow:visible"
           inkscape:connector-curvature="0" />
        <path
           d="m 265.04079,588.22211 c 10.33083,12.05744 19.4736,17.18183 36.48658,15.45279 13.40363,-4.54513 15.18207,-13.13231 28.99997,-16.21114 13.81789,-3.07885 32.86209,-17.20124 28.65049,-36.31652 -1.87183,-8.59708 6.89852,-13.44609 5.88954,-2.23712 -0.76174,15.95807 6.45883,29.29323 -6.80736,30.03337 -10.60193,0.5915 -32.18067,17.25039 -41.23199,25.03917 -13.65867,10.61129 -35.53017,7.14827 -46.63997,-3.92657 -4.67867,-5.14815 -6.72976,-4.20027 -5.34726,-11.83398 z"
           id="path1338"
           sodipodi:nodetypes="cczccsccc"
           style="color:#000000;fill:#000000;fill-opacity:1;fill-rule:nonzero;stroke:none;stroke-width:4.05299997;marker:none;visibility:visible;display:inline;overflow:visible"
           inkscape:connector-curvature="0" />
        <path
           d="m 375.32833,532.66504 c 47.84398,-19.59072 100.87517,-26.39583 151.46852,-7.79911 29.12949,10.40567 60.06834,34.58925 57.90957,68.71094 0.85039,28.71172 -17.96034,55.85354 -45.49646,64.458 -45.11847,19.56134 -97.6217,13.52198 -142.72279,-2.66032 -24.61773,-10.80716 -56.64837,-26.97355 -57.17213,-57.81946 7.32955,6.53793 10.50665,26.61217 1.27738,4.63295 11.52491,17.14243 30.19244,33.34871 50.9029,41.73084 45.60301,18.92954 99.56479,23.76122 146.21968,5.71189 28.15011,-10.25431 53.76056,-40.83391 41.69092,-71.94966 -13.61572,-29.15491 -46.84897,-44.41568 -77.14377,-50.01207 -40.16322,-6.58877 -83.56023,-6.02971 -120.19225,10.49743 -6.76292,2.01031 -9.73682,4.31783 -6.74157,-5.50143 z"
           id="path2439"
           sodipodi:nodetypes="ccccccccccccc"
           style="color:#000000;fill:#000000;fill-opacity:1;fill-rule:nonzero;stroke:none;stroke-width:4.05299997;marker:none;visibility:visible;display:inline;overflow:visible"
           inkscape:connector-curvature="0" />
        <path
           d="m 427.32898,396.08164 c 3.69314,-15.66898 10.64553,-34.58227 25.45083,-43.56014 9.20907,-4.68414 19.07484,4.48694 20.41071,13.44929 9.74901,32.80688 6.99474,66.53545 3.64435,99.8034 -2.42125,18.01502 -9.14424,36.67545 -10.41743,54.82545 8.3774,-34.40535 26.53129,-66.71605 52.75272,-90.651 9.16802,-6.67097 23.17238,-3.39 28.98208,6.19873 7.50833,10.08425 7.85152,24.24833 2.30871,35.29401 -5.35991,18.11691 -22.41543,29.13166 -38.61152,36.7171 -9.21782,3.21552 -17.15968,10.96494 -27.42294,10.41771 -10.17459,-4.65426 5.88682,-6.34502 10.47717,-8.31347 18.55107,-8.18647 38.75315,-19.36699 50.05393,-37.40407 5.46313,-8.30534 9.40074,-20.47436 2.39317,-29.07354 -10.40453,-11.62571 -31.27863,-7.89248 -38.76696,5.19245 -15.14533,17.80926 -26.21335,38.5981 -34.82071,60.23285 -0.67967,4.90373 -7.9984,15.12788 -9.30426,5.11353 0.166,-12.4648 3.52634,-24.65691 4.76949,-37.04625 3.4777,-32.95486 12.29819,-66.69082 3.63083,-99.59428 -0.85046,-9.60223 -11.26301,-20.30126 -20.99434,-14.26705 -14.10561,10.14643 -18.15316,28.24527 -21.76955,44.24099 -7.03571,31.35123 1.81087,75.8983 6.84192,109.19247 1.89955,6.47286 -25.01492,-58.79373 -9.6082,-120.76818 z"
           id="path2441"
           sodipodi:nodetypes="cccccccccccccccccccccc"
           style="color:#000000;fill:#000000;fill-opacity:1;fill-rule:nonzero;stroke:none;stroke-width:4.05299997;marker:none;visibility:visible;display:inline;overflow:visible"
           inkscape:connector-curvature="0" />
        <path
           d="m 269.3829,472.72089 c -2.72771,0 -4.95977,4.43016 -4.95977,9.88556 0,5.4554 2.23206,9.88557 4.95977,9.88557 2.7277,0 4.92579,-4.43017 4.92579,-9.88557 0,-5.4554 -2.19809,-9.88556 -4.92579,-9.88556 z m -1.39282,6.59038 c 1.66693,1e-5 3.02343,1.11603 3.02343,2.47988 0,1.36386 -1.3565,2.47989 -3.02343,2.47989 -1.66692,-2e-5 -3.02341,-1.11603 -3.02341,-2.47989 0,-1.36385 1.35649,-2.47988 3.02341,-2.47988 z"
           id="path2443"
           style="color:#000000;fill:#000000;fill-opacity:1;fill-rule:nonzero;stroke:none;stroke-width:7.18500042;marker:none;visibility:visible;display:inline;overflow:visible"
           inkscape:connector-curvature="0" />
        <path
           d="m 451.28406,652.59666 c 0.29265,7.95842 5.50335,14.43639 7.43554,22.08822 4.41863,14.58593 12.07526,41.52284 20.69521,54.32255 3.0223,3.6536 0.91556,7.35435 -1.77515,8.4596 -1.84522,-8.21909 -9.43005,-18.54537 -12.11566,-26.43971 -5.28973,-11.88947 -8.26594,-24.62562 -12.12778,-37.01328 -1.62683,-6.59024 -5.53816,-14.05583 -3.37269,-20.89086 l 1.26053,-0.52652 0,0 z"
           id="path2445"
           sodipodi:nodetypes="ccccccccc"
           style="color:#000000;fill:#000000;fill-opacity:1;fill-rule:nonzero;stroke:none;stroke-width:4.05299997;marker:none;visibility:visible;display:inline;overflow:visible"
           inkscape:connector-curvature="0" />
        <path
           d="m 431.20812,659.82564 c 0.87367,8.34315 5.48739,15.84315 7.563,23.89704 3.39273,9.70893 11.84728,27.76963 16.49872,36.91806 3.01963,5.17149 7.55371,9.2888 5.8497,13.64591 -2.86938,-1.14558 -12.79446,-15.40069 -14.39597,-18.17896 -4.39806,-9.54046 -9.17036,-18.95433 -12.16183,-29.06884 -1.69204,-6.3906 -5.0236,-16.78702 -5.83539,-23.38095 -0.1567,-2.43842 2.20792,-1.42182 2.48177,-3.83226 z"
           id="path2447"
           sodipodi:nodetypes="cccccccc"
           style="color:#000000;fill:#000000;fill-opacity:1;fill-rule:nonzero;stroke:none;stroke-width:4.05299997;marker:none;visibility:visible;display:inline;overflow:visible"
           inkscape:connector-curvature="0" />
        <path
           d="m 297.92345,374.80684 c 2.38942,11.18877 -13.21988,-15.37692 -15.51033,-18.3979 -13.48937,-16.56085 -29.57276,-32.91026 -50.8864,-38.13542 -18.08444,-2.6079 -45.18634,-2.52084 -57.37207,14.10925 l -0.4599,-4.61887 c 13.0737,-15.94902 39.51549,-16.12789 57.93175,-13.67805 21.40334,5.14929 37.55247,21.4414 51.18983,37.96953 6.171,8.1884 15.55255,16.77052 15.85288,27.45996 l -0.74576,-4.7085 z"
           id="path2449"
           style="color:#000000;fill:#000000;fill-opacity:1;fill-rule:nonzero;stroke:none;stroke-width:4.05299997;marker:none;visibility:visible;display:inline;overflow:visible"
           inkscape:connector-curvature="0" />
        <path
           d="m 349.51279,355.35693 c 0,4.74208 -3.50502,8.5863 -7.82868,8.5863 -4.32366,0 -7.82868,-3.84422 -7.82868,-8.5863 0,-4.74208 3.50502,-8.58629 7.82868,-8.58629 4.32366,0 7.82868,3.84421 7.82868,8.58629 z"
           id="path2451"
           sodipodi:cx="341.68411"
           sodipodi:cy="355.35693"
           sodipodi:rx="7.8286824"
           sodipodi:ry="8.586297"
           sodipodi:type="arc"
           style="color:#000000;fill:#000000;fill-opacity:1;fill-rule:nonzero;stroke:none;stroke-width:7.18500042;marker:none;visibility:visible;display:inline;overflow:visible"
           transform="matrix(1.4222,0,0,1.4222,-312.9934,-169.8042)" />
        <path
           d="m 334.55774,381.99003 c 2.38943,11.18877 -13.21987,-15.37692 -15.51033,-18.3979 -13.48936,-16.56085 -1.5583,-38.65681 -22.87194,-43.88198 -18.08444,-2.6079 -68.89087,15.43716 -81.07661,32.06724 l -0.4599,-4.61886 c 13.0737,-15.94902 65.37498,-39.11411 83.79125,-36.66427 21.40334,5.14928 7.38305,32.21618 21.02041,48.74431 6.171,8.1884 15.55255,16.77052 15.85288,27.45996 l -0.74576,-4.7085 z"
           id="path2453"
           sodipodi:nodetypes="ccccccccc"
           style="color:#000000;fill:#000000;fill-opacity:1;fill-rule:nonzero;stroke:none;stroke-width:4.05299997;marker:none;visibility:visible;display:inline;overflow:visible"
           inkscape:connector-curvature="0" />
        <path
           d="m 349.51279,355.35693 c 0,4.74208 -3.50502,8.5863 -7.82868,8.5863 -4.32366,0 -7.82868,-3.84422 -7.82868,-8.5863 0,-4.74208 3.50502,-8.58629 7.82868,-8.58629 4.32366,0 7.82868,3.84421 7.82868,8.58629 z"
           id="path2455"
           sodipodi:cx="341.68411"
           sodipodi:cy="355.35693"
           sodipodi:rx="7.8286824"
           sodipodi:ry="8.586297"
           sodipodi:type="arc"
           style="color:#000000;fill:#000000;fill-opacity:1;fill-rule:nonzero;stroke:none;stroke-width:7.18500042;marker:none;visibility:visible;display:inline;overflow:visible"
           transform="matrix(1.4222,0,0,1.4222,-271.3309,-147.5362)" />
        <path
           d="m 369.48815,634.47155 c 22.53688,-17.07816 44.18979,-50.79283 34.53915,-107.17291 1.52379,-3.04757 26.41229,-5.07928 26.41229,-5.07928 6.42857,18.57143 25.44421,58.99863 -31.49157,126.4742 -7.111,-2.53965 -22.88588,-10.19141 -29.45987,-14.22201 z"
           id="path2457"
           sodipodi:nodetypes="ccccc"
           style="color:#000000;fill:#000000;fill-opacity:0.55060724;fill-rule:nonzero;stroke:none;stroke-width:7.18500042;marker:none;visibility:visible;display:inline;overflow:visible"
           inkscape:connector-curvature="0" />
        <path
           d="m 423.32858,657.32834 c 33.01295,-52.33194 40.63428,-78.72891 30.98365,-135.10898 1.52378,-3.04758 27.42815,-1.52379 27.42815,-1.52379 4.28571,20 27.19028,66.82356 -24.8885,142.72792 -7.111,-2.53965 -26.94931,-2.06455 -33.5233,-6.09515 z"
           id="path2459"
           sodipodi:nodetypes="ccccc"
           style="color:#000000;fill:#000000;fill-opacity:0.55060724;fill-rule:nonzero;stroke:none;stroke-width:7.18500042;marker:none;visibility:visible;display:inline;overflow:visible"
           inkscape:connector-curvature="0" />
        <path
           d="m 478.18488,663.42347 c 38.39379,-42.12557 41.77721,-99.33205 26.41228,-137.14069 1.52379,-3.04758 28.44402,8.12686 28.44402,8.12686 6.42857,17.14286 18.61884,78.47477 -24.38059,127.99799 -7.111,-2.53966 -23.90172,5.04644 -30.47571,1.01584 z"
           id="path2461"
           sodipodi:nodetypes="ccccc"
           style="color:#000000;fill:#000000;fill-opacity:0.55060724;fill-rule:nonzero;stroke:none;stroke-width:7.18500042;marker:none;visibility:visible;display:inline;overflow:visible"
           inkscape:connector-curvature="0" />
        <path
           d="m 534.05701,654.28075 c 16.79074,-17.74465 29.9678,-52.82455 20.31717,-109.20462 1.52379,-3.04758 32.09596,25.63548 28.95192,55.36421 -3.04757,29.45986 -42.6951,57.87101 -49.26909,53.84041 z"
           id="path2463"
           sodipodi:nodetypes="cccc"
           style="color:#000000;fill:#000000;fill-opacity:0.55060724;fill-rule:nonzero;stroke:none;stroke-width:7.18500042;marker:none;visibility:visible;display:inline;overflow:visible"
           inkscape:connector-curvature="0" />
        <path
           d="m 490.79163,655.46995 c 0.29264,7.95842 5.50334,14.43638 7.43553,22.08822 4.41863,14.58592 12.07526,41.52283 20.69521,54.32254 3.02231,3.65361 0.91556,7.35436 -1.77514,8.45961 -1.84522,-8.2191 -9.43006,-18.54538 -12.11567,-26.43971 -5.28973,-11.88948 -8.26594,-24.62562 -12.12778,-37.01328 -1.62683,-6.59025 -5.53816,-14.05583 -3.37269,-20.89087 l 1.26054,-0.52651 0,0 z"
           id="path2465"
           sodipodi:nodetypes="ccccccccc"
           style="color:#000000;fill:#000000;fill-opacity:1;fill-rule:nonzero;stroke:none;stroke-width:4.05299997;marker:none;visibility:visible;display:inline;overflow:visible"
           inkscape:connector-curvature="0" />
        <path
           d="m 473.58897,664.13556 c 0.87367,8.34315 5.48738,15.84315 7.563,23.89704 3.39273,9.70893 11.84728,27.76963 16.49871,36.91806 3.01963,5.17149 7.55372,9.2888 5.84971,13.64591 -2.86939,-1.14558 -12.79446,-15.40069 -14.39598,-18.17896 -4.39805,-9.54046 -9.17035,-18.95433 -12.16182,-29.06884 -1.69204,-6.3906 -5.0236,-16.78702 -5.83539,-23.38095 -0.1567,-2.43842 2.20792,-1.42182 2.48177,-3.83226 z"
           id="path2467"
           sodipodi:nodetypes="cccccccc"
           style="color:#000000;fill:#000000;fill-opacity:1;fill-rule:nonzero;stroke:none;stroke-width:4.05299997;marker:none;visibility:visible;display:inline;overflow:visible"
           inkscape:connector-curvature="0" />
        <path
           d="m 526.7076,649.72339 c 0.29264,7.95842 5.50334,14.43639 7.43553,22.08822 4.41863,14.58593 12.07526,41.52283 20.69521,54.32255 3.0223,3.6536 0.91556,7.35435 -1.77515,8.4596 -1.84522,-8.21909 -9.43005,-18.54537 -12.11566,-26.43971 -5.28973,-11.88948 -8.26594,-24.62562 -12.12778,-37.01328 -1.62683,-6.59024 -5.53816,-14.05583 -3.37269,-20.89086 l 1.26054,-0.52652 0,0 z"
           id="path2469"
           sodipodi:nodetypes="ccccccccc"
           style="color:#000000;fill:#000000;fill-opacity:1;fill-rule:nonzero;stroke:none;stroke-width:4.05299997;marker:none;visibility:visible;display:inline;overflow:visible"
           inkscape:connector-curvature="0" />
        <path
           d="m 509.50493,658.389 c 0.87368,8.34315 5.48739,15.84315 7.56301,23.89704 3.39273,9.70893 11.84728,27.76964 16.49871,36.91807 3.01963,5.17148 7.55372,9.2888 5.84971,13.6459 -2.86939,-1.14558 -12.79447,-15.40069 -14.39598,-18.17895 -4.39805,-9.54046 -9.17036,-18.95433 -12.16183,-29.06885 -1.69203,-6.39059 -5.02359,-16.78702 -5.83538,-23.38095 -0.1567,-2.43842 2.20792,-1.42182 2.48176,-3.83226 z"
           id="path2471"
           sodipodi:nodetypes="cccccccc"
           style="color:#000000;fill:#000000;fill-opacity:1;fill-rule:nonzero;stroke:none;stroke-width:4.05299997;marker:none;visibility:visible;display:inline;overflow:visible"
           inkscape:connector-curvature="0" />
        <path
           d="m 256.35104,472.12582 c -2.72771,0 -4.95977,4.43015 -4.95977,9.88555 0,5.45541 2.23206,9.88557 4.95977,9.88557 2.7277,0 4.92579,-4.43016 4.92579,-9.88557 0,-5.4554 -2.19809,-9.88555 -4.92579,-9.88555 z m -1.39282,6.59037 c 1.66693,2e-5 3.02343,1.11603 3.02343,2.47988 0,1.36386 -1.3565,2.47989 -3.02343,2.47989 -1.66692,-2e-5 -3.02341,-1.11603 -3.02341,-2.47989 0,-1.36385 1.35649,-2.47988 3.02341,-2.47988 z"
           id="path2473"
           style="color:#000000;fill:#000000;fill-opacity:1;fill-rule:nonzero;stroke:none;stroke-width:7.18500042;marker:none;visibility:visible;display:inline;overflow:visible"
           inkscape:connector-curvature="0" />
      </g>
    </g>
  </g>
</svg>
