<?xml version="1.0" encoding="UTF-8" standalone="no"?>
<!-- Created with Inkscape (http://www.inkscape.org/) -->

<svg
   xmlns:dc="http://purl.org/dc/elements/1.1/"
   xmlns:cc="http://creativecommons.org/ns#"
   xmlns:rdf="http://www.w3.org/1999/02/22-rdf-syntax-ns#"
   xmlns:svg="http://www.w3.org/2000/svg"
   xmlns="http://www.w3.org/2000/svg"
   xmlns:xlink="http://www.w3.org/1999/xlink"
   xmlns:sodipodi="http://sodipodi.sourceforge.net/DTD/sodipodi-0.dtd"
   xmlns:inkscape="http://www.inkscape.org/namespaces/inkscape"
   height="399.45297"
   id="svg1"
   inkscape:version="0.48.1 r9760"
   sodipodi:docname="fly_01.svg"
   sodipodi:version="0.32"
   width="377.65683"
   version="1.1">
  <metadata
     id="metadata3040">
    <rdf:RDF>
      <cc:Work
         rdf:about="">
        <dc:title>Fly</dc:title>
        <dc:description />
        <dc:subject>
          <rdf:Bag>
            <rdf:li>insect</rdf:li>
          </rdf:Bag>
        </dc:subject>
        <dc:publisher>
          <cc:Agent
             rdf:about="http://www.openclipart.org">
            <dc:title>Chris Goerner</dc:title>
          </cc:Agent>
        </dc:publisher>
        <dc:creator>
          <cc:Agent>
            <dc:title>Chris Goerner</dc:title>
          </cc:Agent>
        </dc:creator>
        <dc:rights>
          <cc:Agent>
            <dc:title>Chris Goerner</dc:title>
          </cc:Agent>
        </dc:rights>
        <dc:date />
        <dc:format>image/svg+xml</dc:format>
        <dc:type
           rdf:resource="http://purl.org/dc/dcmitype/StillImage" />
        <cc:license
           rdf:resource="http://web.resource.org/cc/PublicDomain" />
        <dc:language>en</dc:language>
      </cc:Work>
      <cc:License
         rdf:about="http://web.resource.org/cc/PublicDomain">
        <cc:permits
           rdf:resource="http://web.resource.org/cc/Reproduction" />
        <cc:permits
           rdf:resource="http://web.resource.org/cc/Distribution" />
        <cc:permits
           rdf:resource="http://web.resource.org/cc/DerivativeWorks" />
      </cc:License>
    </rdf:RDF>
  </metadata>
  <defs
     id="defs3">
    <linearGradient
       id="linearGradient2246">
      <stop
         id="stop2247"
         offset="0.0000000"
         style="stop-color:#000000;stop-opacity:1.0000000;" />
      <stop
         id="stop2248"
         offset="1.0000000"
         style="stop-color:#b3b3b3;stop-opacity:1.0000000;" />
    </linearGradient>
    <linearGradient
       id="linearGradient2249"
       inkscape:collect="always"
       x1="473.11684"
       x2="326.18666"
       xlink:href="#linearGradient2246"
       y1="491.16577"
       y2="403.03284"
       gradientTransform="matrix(0.95916286,0,0,1.0425758,-195.83023,-321.56209)"
       gradientUnits="userSpaceOnUse" />
    <linearGradient
       id="linearGradient2250"
       inkscape:collect="always"
       x1="406.86303"
       x2="313.49336"
       xlink:href="#linearGradient2246"
       y1="465.81739"
       y2="393.93049"
       gradientTransform="matrix(1.066421,0,0,0.937716,-195.83023,-321.56209)"
       gradientUnits="userSpaceOnUse" />
    <linearGradient
       id="linearGradient2251"
       inkscape:collect="always"
       x1="641.28507"
       x2="347.98814"
       xlink:href="#linearGradient2246"
       y1="510.12933"
       y2="395.14465"
       gradientTransform="matrix(0.77641866,0,0,1.2879649,-195.83023,-321.56209)"
       gradientUnits="userSpaceOnUse" />
  </defs>
  <sodipodi:namedview
     bordercolor="#666666"
     borderopacity="1.0"
     id="base"
     inkscape:cx="20.908313"
     inkscape:cy="247.9515"
     inkscape:guide-bbox="true"
     inkscape:pageopacity="0.0"
     inkscape:pageshadow="2"
     inkscape:window-height="696"
     inkscape:window-width="1024"
     inkscape:window-x="0"
     inkscape:window-y="25"
     inkscape:zoom="0.5233341"
     pagecolor="#ffffff"
     showguides="true"
     showgrid="false"
     fit-margin-top="0"
     fit-margin-left="0"
     fit-margin-right="0"
     fit-margin-bottom="0"
     inkscape:window-maximized="0"
     inkscape:current-layer="svg1" />
  <path
     d="m 227.88523,158.51929 c 24.14656,8.10774 51.34775,10.75676 71.40299,27.91175 16.8288,11.87204 29.77201,30.05337 50.22944,36.15799 8.78766,3.97416 17.51229,8.51193 24.56576,15.20679"
     id="path2258"
     style="fill:none;stroke:#000000;stroke-width:7.1500001;stroke-linecap:round;stroke-linejoin:miter;stroke-miterlimit:4;stroke-opacity:1"
     inkscape:connector-curvature="0" />
  <path
     d="m 224.04812,149.80474 c 27.44276,-20.08461 22.77198,-55.942668 28.50226,-84.914758 8.66127,-22.78622 21.08481,-49.88593 43.5673,-61.2834597"
     id="path2173"
     style="fill:none;stroke:#000000;stroke-width:7.14474773;stroke-linecap:round;stroke-linejoin:miter;stroke-miterlimit:4;stroke-opacity:1"
     inkscape:connector-curvature="0" />
  <path
     d="M 150.06697,143.52773 C 143.3481,115.73579 116.71012,98.866002 107.89471,72.046502 104.7866,65.112022 106.01667,57.217322 103.2367,50.315762 98.873023,40.078432 92.214893,30.980432 85.537063,22.176952 80.674383,17.384482 74.197863,14.128222 70.676593,8.0667723"
     id="path2174"
     style="fill:none;stroke:#000000;stroke-width:7.1500001;stroke-linecap:round;stroke-linejoin:miter;stroke-miterlimit:4;stroke-opacity:1"
     inkscape:connector-curvature="0" />
  <path
     d="m 149.91946,157.01165 c -24.14656,8.10774 -51.347747,10.75675 -71.402987,27.91175 -16.8288,11.87204 -29.77202,30.05337 -50.22945,36.15798 -8.78765,3.97416 -17.51228,8.51193 -24.5657495,15.20679"
     id="path2175"
     style="fill:none;stroke:#000000;stroke-width:7.1500001;stroke-linecap:round;stroke-linejoin:miter;stroke-miterlimit:4;stroke-opacity:1"
     inkscape:connector-curvature="0" />
  <path
     d="m 309.09652,513.82092 a 8.3218288,8.9162455 0 1 1 -16.64366,0 8.3218288,8.9162455 0 1 1 16.64366,0 z"
     id="path2171"
     sodipodi:cx="300.77469"
     sodipodi:cy="513.82092"
     sodipodi:rx="8.3218288"
     sodipodi:ry="8.9162455"
     sodipodi:type="arc"
     style="fill:#820000;fill-opacity:0.75;fill-rule:evenodd;stroke:#000000;stroke-width:1pt;stroke-linecap:butt;stroke-linejoin:miter;stroke-opacity:1"
     transform="matrix(1.73206,0,0,1.73206,-352.03393,-815.37429)" />
  <path
     d="m 158.156,174.51429 c -7.57707,12.65005 -23.97225,11.79765 -36.22229,16.52506 -7.72179,2.68632 -12.90952,9.25651 -19.66542,13.56087 -14.349577,11.14628 -27.469217,25.69303 -31.489847,43.90694 -6.80584,17.29556 -17.39584,33.02194 -29.69962,46.84474 -3.97249,3.53046 -8.65287,6.42122 -11.61843,10.94668"
     id="path2177"
     style="fill:none;stroke:#000000;stroke-width:7.1500001;stroke-linecap:round;stroke-linejoin:miter;stroke-miterlimit:4;stroke-opacity:1"
     inkscape:connector-curvature="0" />
  <path
     d="m 236.40292,232.16994 c 0,40.91902 -21.00312,108.10431 -49.4191,108.10431 -28.41599,0 -45.30085,-68.21486 -45.30085,-109.13388 0,-40.91902 18.94399,-49.41912 47.35997,-49.41912 28.41599,0 47.35998,9.52967 47.35998,50.44869 z"
     id="path920"
     sodipodi:nodetypes="ccccc"
     style="fill:url(#linearGradient2251);fill-opacity:1;fill-rule:evenodd;stroke:#000000;stroke-width:1.73206005pt;stroke-linecap:butt;stroke-linejoin:miter;stroke-opacity:1"
     inkscape:connector-curvature="0" />
  <path
     d="m 217.87072,178.63259 c 26.15428,7.15006 45.56754,27.26524 64.77969,45.17666 16.21804,17.38938 20.01901,43.07053 38.0664,59.11348 12.04461,11.88352 26.6317,21.73191 35.11561,36.76017"
     id="path2178"
     style="fill:none;stroke:#000000;stroke-width:7.1500001;stroke-linecap:round;stroke-linejoin:miter;stroke-miterlimit:4;stroke-opacity:1"
     inkscape:connector-curvature="0" />
  <path
     d="m 232.28465,154.95251 c 0,15.34463 -17.77442,38.09388 -42.21215,38.09388 -24.43776,0 -46.33043,-22.74925 -46.33043,-38.09388 0,-15.34463 19.75529,-58.337028 44.19305,-58.337028 24.43773,0 44.34953,42.992398 44.34953,58.337028 z"
     id="path922"
     sodipodi:nodetypes="ccccc"
     style="fill:url(#linearGradient2249);fill-opacity:1;fill-rule:evenodd;stroke:#000000;stroke-width:1.73206005pt;stroke-linecap:butt;stroke-linejoin:miter;stroke-opacity:1"
     inkscape:connector-curvature="0" />
  <path
     d="m 309.09652,513.82092 a 8.3218288,8.9162455 0 1 1 -16.64366,0 8.3218288,8.9162455 0 1 1 16.64366,0 z"
     id="path2172"
     sodipodi:cx="300.77469"
     sodipodi:cy="513.82092"
     sodipodi:rx="8.3218288"
     sodipodi:ry="8.9162455"
     sodipodi:type="arc"
     style="fill:#820000;fill-opacity:0.75;fill-rule:evenodd;stroke:#000000;stroke-width:1pt;stroke-linecap:butt;stroke-linejoin:miter;stroke-opacity:1"
     transform="matrix(1.73206,0,0,1.73206,-309.85323,-814.18199)" />
  <path
     d="m 210.88517,69.498712 c 8.8105,17.57215 23.92221,35.147268 11.95118,40.369238 -17.85027,7.78658 -45.54721,6.27746 -59.31118,0.81334 -26.68733,-5.46409 -4.81239,-22.914488 4.11827,-40.153028 8.34171,-16.10169 11.91178,-29.75334 22.08363,-17.79556 10.59215,-8.82663 12.49312,-0.51593 21.1581,16.76601 z"
     id="path1547"
     sodipodi:nodetypes="cscscs"
     style="fill:url(#linearGradient2250);fill-opacity:1;fill-rule:evenodd;stroke:#000000;stroke-width:1.73206005pt;stroke-linecap:butt;stroke-linejoin:miter;stroke-opacity:1"
     inkscape:connector-curvature="0" />
  <path
     d="m 288.14062,255.84459 c 22.65201,44.58813 25.4189,124.79399 -1.4353,138.43667 -26.85423,13.64269 -73.21059,-44.41853 -95.86258,-89.00668 -11.32599,-22.29406 -27.46159,-53.49257 -26.08368,-72.58637 1.37789,-19.0938 20.26928,-26.08289 33.6964,-32.90424 13.4271,-6.82134 18.86018,-57.4906 35.0932,-47.34362 16.23301,10.14697 43.26597,81.11017 54.59196,103.40424 z"
     id="path2231"
     sodipodi:nodetypes="cccscsc"
     style="fill:#cecece;fill-opacity:0.57526879;fill-rule:evenodd;stroke:#9f9f9f;stroke-width:1.73206024pt;stroke-linecap:butt;stroke-linejoin:miter;stroke-opacity:1"
     inkscape:connector-curvature="0" />
  <path
     d="m 84.718203,257.90372 c -22.652,44.58813 -25.4189,124.79398 1.43531,138.43666 26.854217,13.6427 73.210577,-44.41853 95.862567,-89.00668 11.32599,-22.29406 27.46159,-53.49257 26.08368,-72.58636 -1.37789,-19.0938 -20.26928,-26.08289 -33.6964,-32.90425 -13.4271,-6.82134 -18.86018,-57.49059 -35.0932,-47.34361 -16.23301,10.14696 -43.265957,81.11016 -54.591957,103.40424 z"
     id="path2233"
     sodipodi:nodetypes="cccscsc"
     style="fill:#cecece;fill-opacity:0.57526879;fill-rule:evenodd;stroke:#9f9f9f;stroke-width:1.73206024pt;stroke-linecap:butt;stroke-linejoin:miter;stroke-opacity:1"
     inkscape:connector-curvature="0" />
</svg>
