<?xml version="1.0" encoding="iso-8859-1"?>
<!-- Generator: Adobe Illustrator 13.0.2, SVG Export Plug-In . SVG Version: 6.00 Build 14948)  -->
<!DOCTYPE svg PUBLIC "-//W3C//DTD SVG 1.1//EN" "http://www.w3.org/Graphics/SVG/1.1/DTD/svg11.dtd">
<svg version="1.1" id="Layer_1_xA0_Image_1_" xmlns="http://www.w3.org/2000/svg" xmlns:xlink="http://www.w3.org/1999/xlink"
	 x="0px" y="0px" width="238.689px" height="279.414px" viewBox="0 0 238.689 279.414"
	 style="enable-background:new 0 0 238.689 279.414;" xml:space="preserve">
<g>
	<polygon style="fill-rule:evenodd;clip-rule:evenodd;fill:#B07E09;" points="43.792,218.698 37.773,229.561 42.577,232.444 
		47.622,220.673 	"/>
	<polygon style="fill-rule:evenodd;clip-rule:evenodd;fill:#B07E09;" points="179.501,242.773 180.702,235.086 178.853,235.426 
		177.819,228.84 176.993,228.611 177.099,222.595 179.261,222.595 181.183,225.958 180.711,227.992 185.025,234.846 
		185.048,238.524 	"/>
	<polygon style="fill-rule:evenodd;clip-rule:evenodd;fill:#B07E09;" points="212.903,141.743 208.145,136.83 204.441,134.245 
		199.945,131.918 194.922,127.523 198.732,126.507 213.055,135.842 	"/>
	<path style="fill-rule:evenodd;clip-rule:evenodd;fill:#B07E09;" d="M169.107,46.559l-1.656-18.879l-0.993-8.943l3.644-3.975
		c0,0,5.3,7.618,3.975,8.943s-1.325,12.255-1.325,12.255l0.993,7.287L169.107,46.559z"/>
	<path style="fill-rule:evenodd;clip-rule:evenodd;fill:#B07E09;" d="M141.428,70.567c0,0-0.144-9.161-2.434-9.304
		s-3.292,3.865-2.72,6.728s0.572,2.863,0.572,2.863L141.428,70.567z"/>
	<path style="fill-rule:evenodd;clip-rule:evenodd;fill:#B07E09;" d="M146.15,60.834l-3.721-9.161c0,0,1.574-2.146,3.148-1.717
		s5.01,3.292,5.01,5.009s-0.716,5.582-1.288,6.155S146.15,60.834,146.15,60.834z"/>
	<path style="fill-rule:evenodd;clip-rule:evenodd;fill:#B07E09;" d="M83.458,68.707l-4.867,3.864c0,0-4.151-9.447-6.155-11.451
		s-2.719-4.151-2.719-4.151l1.717-1.288l-5.01-7.157l4.867,0.143l-2.433-10.449l5.439,3.579c0,0,1.718-2.433,1.718-4.294
		s3.721,2.147,3.721,2.147l-1.002,1.431l-0.716,5.296l3.006,15.029l1.145,6.154l1.893,1.208"/>
	<path style="fill-rule:evenodd;clip-rule:evenodd;fill:#B07E09;" d="M155.231,185.564c0,0-12.485,29.644-41.619,28.231
		s-36.665-31.918-37.655-34.079s-2.378-46.38-2.378-46.38s-0.199-26.013,10.503-30.853s36.862-3.831,36.862-3.831
		s26.161,1.411,31.115,5.848s11.494,15.528,11.692,25.005c0.198,9.477-2.773,38.515-4.558,44.565
		C157.411,180.119,155.231,185.564,155.231,185.564z"/>
	<g>
		<path style="fill-rule:evenodd;clip-rule:evenodd;fill:#B07E09;" d="M79.106,14.25c0.62,0,1.239,0,1.858,0
			c0.788,3.803-0.939,10.12-1.239,14.869C77.707,25.932,78.345,18.34,79.106,14.25z"/>
		<path style="fill-rule:evenodd;clip-rule:evenodd;" d="M167.7,40.27c1.936-0.283,1.98,1.324,1.858,3.098
			C167.643,43.472,166.772,41.188,167.7,40.27z"/>
		<path style="fill-rule:evenodd;clip-rule:evenodd;fill:#B07E09;" d="M77.247,42.129c1.507,0.389,0.328,3.13-1.239,2.478
			c0.101-0.72-0.137-1.103-0.62-1.239C75.529,42.476,77.238,43.152,77.247,42.129z"/>
		<path style="fill-rule:evenodd;clip-rule:evenodd;fill:#B07E09;" d="M103.888,45.846c-0.458,3.879-1.119,7.555-3.717,9.293
			C98.595,51.524,99.974,45.988,103.888,45.846z"/>
		<path style="fill-rule:evenodd;clip-rule:evenodd;fill:#B07E09;" d="M173.896,45.846c0,1.032,0,2.065,0,3.098
			c-1.751,0.512-1.604-0.873-3.098-0.62C170.709,46.376,172.387,46.196,173.896,45.846z"/>
		<path style="fill-rule:evenodd;clip-rule:evenodd;fill:#B07E09;" d="M176.993,48.944c1.461,2.516-2.076,5.341-3.098,7.435
			c0.844,1.428,1.086,3.457,3.718,3.098c-0.732,3.604-3.79,4.883-4.957,8.054c-0.289,1.322,0.886,1.18,1.859,1.239
			c-3.526,1.924-6.63,7.304-9.913,7.435C165.338,66.177,169.626,54.398,176.993,48.944z"/>
		<path style="fill-rule:evenodd;clip-rule:evenodd;fill:#B07E09;" d="M136.104,57.617c-7.892-0.748-14.842-3.729-23.542-1.858
			C116.007,49.225,133.717,51.778,136.104,57.617z"/>
		<path style="fill-rule:evenodd;clip-rule:evenodd;" d="M108.225,66.911c0.342-1.93,0.506-4.038,1.239-5.576
			C111.76,61.968,110.994,67.526,108.225,66.911z"/>
		<path style="fill-rule:evenodd;clip-rule:evenodd;fill:#B07E09;" d="M145.396,70.008c6.095,6.741,11.41,22.361,5.576,33.455
			c-10.598-1.751-22.082,2.205-32.216,1.239c-4.066-0.388-8.866-2.447-13.63-3.717c-7.002-1.868-13.2-1.585-16.108-6.195
			c0.266-12.538,2.65-22.958,10.532-27.879c5.101,3.229,10.316,2.092,17.347,1.858C127.206,68.427,135.642,74.087,145.396,70.008z"
			/>
		<path style="fill-rule:evenodd;clip-rule:evenodd;fill:#B07E09;" d="M84.062,68.769c2.78,0.524,4.968,1.641,5.576,4.337
			c-1.759,1.338-1.926,4.27-3.098,6.195C82.335,76.236,79.836,73.019,84.062,68.769z"/>
		<path style="fill-rule:evenodd;clip-rule:evenodd;fill:#B07E09;" d="M161.505,75.584c1.966,2.075,1.681,7.388-1.239,8.054
			C156.303,81.38,153.361,75.332,161.505,75.584z"/>
		<path style="fill-rule:evenodd;clip-rule:evenodd;fill:#B07E09;" d="M72.291,101.605c-7.916,7.366-20.939,9.625-28.499,17.347
			c-1.24-3.096-1.842-6.832-2.478-10.532C51.369,108.33,62.209,103.727,72.291,101.605z"/>
		<path style="fill-rule:evenodd;clip-rule:evenodd;" d="M88.399,102.844c1.495,1.432-3.101,4.368-3.717,6.815
			c-2.417,9.597,2.42,19.859,3.098,27.88c0.857,10.151-2.331,23.242,0,34.074c-3.695-13.267-2.062-34.552-4.956-49.563
			C81.509,115.231,81.357,105.414,88.399,102.844z"/>
		<path style="fill-rule:evenodd;clip-rule:evenodd;fill:#B07E09;" d="M110.703,105.941c3,1.017,10.467,1.562,16.727,1.239
			c-0.528,4.428-3.236,6.676-5.575,9.293C114.303,116.797,110.559,113.313,110.703,105.941z"/>
		<path style="fill-rule:evenodd;clip-rule:evenodd;" d="M145.396,107.8c0.018-0.603,0.759-0.481,1.239-0.62
			c4.881,0.076,5.459,4.454,8.055,6.815c1.133,9.505-2.739,16.544-4.337,24.781c-3.057,15.762,1.817,34.383-6.195,45.227
			c-2.035-4.663,3.504-10.936,4.336-16.728c0.772-5.369-1.156-13.96-0.619-21.064C149.142,129.463,159.708,113.238,145.396,107.8z"
			/>
		<path style="fill-rule:evenodd;clip-rule:evenodd;fill:#B07E09;" d="M158.407,107.8c4.977-0.02,8.306,1.607,7.435,7.435
			c-2.023-1.281-3.965-2.644-4.337-5.576c-2.314-0.662-1.766,1.539-3.717,1.239C157.59,109.461,157.888,108.519,158.407,107.8z"/>
		<path style="fill-rule:evenodd;clip-rule:evenodd;fill:#B07E09;" d="M41.314,115.854c-0.419,1.439-2.059,1.659-2.478,3.098
			c-1.485,0.246,0.343-2.822-1.859-1.859C37.063,115.321,39.562,115.96,41.314,115.854z"/>
		<path style="fill-rule:evenodd;clip-rule:evenodd;fill:#B07E09;" d="M35.738,117.713c-0.508,1.764-1.398,3.145-3.098,3.717
			c0.181-0.38,1.542-2.385,0-2.478C32.731,117.598,34.201,117.622,35.738,117.713z"/>
		<path style="fill-rule:evenodd;clip-rule:evenodd;fill:#B07E09;" d="M31.401,119.571c-0.419,1.439-2.059,1.659-2.479,3.098
			c-0.841-0.192-0.514-1.551-0.619-2.479C30.055,120.703,29.909,119.318,31.401,119.571z"/>
		<path style="fill-rule:evenodd;clip-rule:evenodd;fill:#B07E09;" d="M22.108,122.05c1.033,0,2.065,0,3.098,0
			c-0.232,2.039-3.293,1.25-3.098,3.717C20.729,125.506,21.623,122.479,22.108,122.05z"/>
		<path style="fill-rule:evenodd;clip-rule:evenodd;fill:#B07E09;" d="M19.63,123.908c-4.31,1.27-6.527,7.225-11.152,6.195
			C8.897,124.741,13.739,123.8,19.63,123.908z"/>
		<path style="fill-rule:evenodd;clip-rule:evenodd;fill:#B07E09;" d="M206.112,132.582c1.11-0.079,1.307,0.758,2.478,0.62
			c0.175,1.62-0.226,2.665-1.858,2.478C206.985,134.187,205.6,134.333,206.112,132.582z"/>
		<path style="fill-rule:evenodd;clip-rule:evenodd;fill:#B07E09;" d="M214.166,136.918c4.67,2.559,10.785,3.672,12.391,9.293
			C221.083,146.863,217.691,140.262,214.166,136.918z"/>
		<path style="fill-rule:evenodd;clip-rule:evenodd;fill:#B07E09;" d="M73.53,167.896c0.967,2.847,0.043,4.72-0.62,7.435
			c-2.219-0.673-3.888-1.895-5.576-3.098C67.34,167.721,69.561,167.214,73.53,167.896z"/>
		<path style="fill-rule:evenodd;clip-rule:evenodd;fill:#B07E09;" d="M68.574,174.71c-1.907,9.596-8.848,22.412-8.673,34.075
			c-7.836,1.641-7.782-4.609-13.011-5.576c9.277-8.543,11.142-19.708,19.825-29.118C67.213,174.419,67.721,174.738,68.574,174.71z"
			/>
		<path style="fill-rule:evenodd;clip-rule:evenodd;fill:#B07E09;" d="M162.744,175.95c2.495,2.702-0.831,10.781-4.956,8.674
			C161.334,183.626,160.143,177.891,162.744,175.95z"/>
		<path style="fill-rule:evenodd;clip-rule:evenodd;fill:#B07E09;" d="M50.607,207.546c1.81,0.668,2.006,2.95,1.859,5.576
			c-2.431,0.365-0.729-3.401-3.717-2.479C49.305,209.548,50.244,208.835,50.607,207.546z"/>
		<path style="fill-rule:evenodd;clip-rule:evenodd;fill:#B07E09;" d="M47.509,213.742c3.132-0.309,1.674,4.657,1.239,6.195
			C46.338,219.424,45.306,215.341,47.509,213.742z"/>
		<path style="fill-rule:evenodd;clip-rule:evenodd;fill:#B07E09;" d="M176.374,218.698c2.999,0.281,1.545,4.167-0.619,4.337
			C175.258,220.886,176.677,220.654,176.374,218.698z"/>
		<path style="fill-rule:evenodd;clip-rule:evenodd;fill:#B07E09;" d="M37.597,231.089c4.383,0.414,0.171,2.649-0.62,4.956
			c-1.707,4.979-2.166,11.354-6.195,13.63C25.874,243.144,34.754,235.895,37.597,231.089z"/>
		<path style="fill-rule:evenodd;clip-rule:evenodd;fill:#B07E09;" d="M184.428,242.241c2.884,3.946,10.95,14.929,4.337,18.586
			C185.295,256.657,185.562,248.749,184.428,242.241z"/>
		<path style="fill-rule:evenodd;clip-rule:evenodd;" d="M78.486,32.216c1.677,1.232,2.396-3.776,5.576-3.098
			c1.424,2.029-2.873,2.623-3.717,4.336c0.191,0.841,1.551,0.514,2.478,0.62c-0.404,1.868-2.433,2.11-3.098,3.717
			c0.191,0.841,1.551,0.514,2.478,0.62c-0.566,1.086-1.152,2.152-3.098,1.858c-0.812,2.67,2.95,0.768,2.478,3.098
			C80.77,44,79.3,43.975,78.486,44.607c1.46,7.626,3.04,15.133,4.337,22.923c2.52-4.485,6.725,2.38,9.293,3.717
			c3.303-1.628,5.944-9.206,10.532-5.576c1.406-2.518,1.545-6.303,4.957-6.815c-2.471-1.842-3.707,0.396-5.576,0
			c-8.078-1.71-3.979-19.401,4.957-13.63c0.305,4.435-2.687,5.574-3.717,8.673c0.378,2.193,4.259-0.457,6.195,1.239
			c7.054-7.343,27.494-5.102,30.358,4.337c1.393,0.354,5.515-0.632,5.575-0.62c-3.972-0.799,3.195,0.919,1.859,1.858
			c3.135-2.204,3.516-11.673-3.718-8.673c-0.021,2.706,1.711,3.659,1.858,6.195c-2.268-2.237-4.801-6.62-2.478-9.913
			c2.952-0.062,4.628,1.155,6.814,1.858c1.614,4.559,1.042,7.078,0.62,11.771c-2.481,3.19-6.983,0.83-9.913-0.62
			c-0.644,0.487,3.034,5.177,0.62,7.435c-2.706-0.186-0.089-5.693-2.479-6.195c-2.968,0.775-1.355,4.13-1.239,6.815
			c3.723,0.625,5.286-0.909,8.054-1.239c3.641,1.523,4.752,5.574,6.815,8.674c3.243-0.887,4.261-4,9.293-3.098
			c3.436-8.05,4.46-16.6,10.532-22.923c-0.846-1.839-2.656-2.713-4.337-3.717c1.725-1.993,4.73-2.704,5.576-5.576
			c-0.933-1.081-2.673,0.634-3.718-1.239c-0.543-1.989,1.607-1.284,1.859-2.478c-0.789-3.367-3.548,2.128-4.337-1.239
			c0.405-3.43,4.643,0.39,4.337-3.098c-1.209-2.145-2.475,0.758-3.718,0.62c-0.111-1.747-2.944-0.772-2.478-3.098
			c1.032,0,2.064,0,3.098,0c-2.526-3.383-1.405-7.284-2.479-11.152c-1.648-5.939-7.751-9.721-7.435-14.869
			c3.681,2.722,5.074,7.73,8.054,11.152c1.939-5.252-4.221-7.75-5.575-11.771c5.727,2.982,11.149,9.454,11.771,15.488
			c-1.99,0.545-0.849-2.042-2.478-1.858c-1.264,0.182-1.215,1.676-2.479,1.858c0.218,4.532,1.255,8.246,3.098,11.152
			c1.291-1.187,0.004-4.952,2.479-4.957c-0.541-0.905-0.492-2.399-2.479-1.858c0.896-0.963,1.304-2.415,1.858-3.717
			c4.338,3.55-1.325,13.104,2.479,14.869c-2.339,4.042,1.33,7.115,0,11.771c0.545,1.099,2.488-1.593,4.337-1.239
			c3.131,3.262-1.522,6.888-1.858,10.532c-0.104,1.343,2.197,0.281,3.098,0.619c-0.66,3.47-1.933,6.328-4.337,8.054
			c0.149,1.09,1.065,1.412,2.479,1.239c-4.007,4.874-8.476,9.285-13.63,13.01c-0.479,6.13-4.51,8.707-8.674,11.152
			c0.424,6.206-1.252,10.313-3.098,14.25c0.617,0.828,1.674,1.216,1.858,2.478c12.325-3.131,21.03,5.578,33.455,6.195
			c-0.762,4.154,3.495,5.65,8.054,6.195c-0.376,4.713,5.411,3.263,7.435,5.576c-0.256,2.376-3.621-0.819-4.336,1.858
			c5.447,0.366,5.037,5.603,11.151,4.337c1.163,1.095-0.737,1.809,0.619,3.098c11.938,0.454,15.519,9.264,24.162,13.01
			c0.118,4.41,5.9,9.174,0.62,11.771c-1.464-4.525-2.295-9.683-6.815-11.151c-0.583,4.336,7.084,10.877,3.098,16.728
			c-3.343-3.679-1.902-12.141-6.195-14.869c-6.958-0.683-7.486-7.796-13.01-9.913c-1.264,0.389-0.174,3.131-2.479,2.479
			c-0.189-1.876-1.917-2.214-1.239-4.956c0.813,0.219,0.975,1.091,1.858,1.238c-0.197-1.437,0.1-2.378,0.62-3.097
			c-0.721,0.101-1.103-0.137-1.239-0.62c-2.108,0.163-1.753,2.79-3.098,3.717c-1.296-0.562-1.889-1.828-1.858-3.717
			c-2.343-0.897-1.189,1.702-3.098,1.239c-1.692-1.874,0.449-3.671,1.238-4.957c-0.068-1.17-2.048-0.43-1.858-1.858
			c-1.143,1.335-0.573,4.383-3.717,3.717c0.109-2.118,2.066-4.438,0.619-6.196c-2.598,0.5-4.138,2.057-5.576,3.717
			c0.431,5.222,4.841,9.514,4.337,13.63c-7.705-12.327-16.623-23.44-30.357-29.738c-0.594,3.124-2.403,5.031-4.956,6.195
			c6.05,10.135,1.93,26.788-0.619,40.27c-1.406,7.435,1.979,10.556,3.717,16.108c0.597,1.907-0.003,4.282,0.619,6.195
			c1.503,4.616,5.631,7.923,8.055,11.771c-1.186,5.007,2.635,7.871,4.956,11.151c-0.068,1.171-2.048,0.43-1.858,1.858
			c1.542,2.796,2.681,5.993,4.956,8.055c-0.525,1.333-1.525,2.191-3.717,1.858c0.014,4.057,6.009,6.919,1.858,9.913
			c3.445,2.407,6.127,8.645,6.195,12.391c6.541,8.044,11.42,25.814,6.814,39.031c-1.731-3.342,0.123-12.012-1.858-16.728
			c-7.011,1.042-3.184,12.924-8.674,15.488c4.234-12.417,0.593-21.899,0-36.553c-0.545,1.726-3.073,1.47-3.098,3.717
			c-2.993-1.548-0.113-5.729,0-8.054c2.492-0.36-0.308,1.833,0.62,3.717c1.013,1.172,2.422-2.499,4.337-2.478
			c-1.461-5.62-6.536-0.49-8.674-0.62c0.673-2.219,0.967-4.815,1.858-6.814c1.386,0.267,0.251,3.053,0.62,4.337
			c1.002-0.856,1.524-2.192,3.717-1.859c-0.104-2.374-2.24-2.716-3.098-4.337c-2.405,0.073-1.918,3.039-4.337,3.098
			c0.983-2.113,1.279-4.916,1.858-7.434c1.379,0.26,0.485,3.287,0,3.717c1.814,0.161,1.904-1.4,3.718-1.239
			c-1.105-1.166-1.676-2.867-3.098-3.717c-2.089-0.153-1.797,3.706-3.718,1.858c0.959-1.269,0.959-5.546,0-6.815
			c-7.271,1.403-5.162,12.185-8.673,17.348c-1.486-16.405,1.125-40.803-8.674-50.803c-3.19,10.161-11.031,11.311-13.63,19.825
			c-2.046-1.246-3.453,0.513-4.337,3.098c-2.268-0.459-0.316-3.977,0-5.575c-3.088,0.288-2.581,3.594-1.858,6.195
			c-4.031,1.209-7.523,1.427-9.294,4.337c-2.193-0.207-1.522-1.705-3.717-0.62c-0.005-4.228,3.964-3.826,4.956-5.575
			c-4.022-0.951-8.955,3.056-12.391-1.859c5.202,0.659,5.953-3.133,11.771-1.858c-0.8,2.452,2.039,1.266,1.239,3.718
			c3.413,0.069,6.378-7.399,11.151-4.957c0.056-1.69-1.032-1.247,0-2.478c14.583-7.665,19.559-31.427,21.685-56.379
			c1.364-16.02-3.63-35.815-14.25-37.792c-3.834-0.713-12.448-0.199-14.869,0.62c-5.409,1.829-4.099,9.62-8.674,12.391
			c-2.142-0.491-2.615,0.688-3.717,1.239c-1.525,29.246-3.277,58.264-5.576,86.736c-5.932,0.233-7.791,0.211-11.771-1.239
			c-1.688,0.57,0.866,1.938,0,3.718c3.917,0.559,4.375,0.816,6.815,1.239c1.344,0.104,0.281-2.198,0.62-3.098
			c1.033,0,2.065,0,3.098,0c-0.305,2.026,1.653,4.294,0.62,6.814c1.295-0.263,1.641,0.425,2.478,0.62
			c1.654-1.599-1.426-0.652-0.62-3.098c2.132,0.066,1.994-2.137,3.717-2.479c-0.823,3.86,1.38,0.848,2.478,2.479
			c0.797,3.068-5.133-0.591-4.336,2.478c1.145,0.344,2.815-0.73,5.576-1.239c-3.303,8.142-13.386-0.164-16.728,1.859
			c-0.339-0.9,0.724-3.202-0.62-3.098c-2.971-0.104,1.329,2.18-0.62,3.098c-2.855-1.339-6.813-2.525-6.195-5.576
			c-1.446,0-2.891,0-4.337,0c-1.89-5.042-5.213-5.215-7.435-9.293c7.104,2.809,16.064,3.761,24.162,5.575
			c2.672-11.884,4.25-37.29,4.337-56.997c0.042-9.598,2.715-20.039,1.239-27.88c-5.255-2.799-9.116-6.992-9.293-14.869
			c-5.606-2.029-16.328-5.887-22.304-2.478c-18.986,10.832-9.266,62.779-7.435,83.638c2.693,4.122,6.71,6.92,8.054,12.391
			c-6.685-4.467-10.877-11.426-11.771-21.684c-0.732,0.713-2.19,0.701-3.717,0.619c-7.117,14.154-10.579,31.963-12.391,51.422
			c-2.453-4.568-0.955-13.088-4.337-16.728c-1.406,0.659-0.236,3.895-0.62,5.576c-1.455-0.197-1.387-1.918-2.478-2.479
			c-2.866,1.202,0.131,4.529-0.62,7.435c-1.69,0.451-1.247-1.23-2.478-1.239c-2.319,0.572-0.808,4.976-1.239,7.435
			c-0.387-3.852-4.751,0.124-4.337-4.336c-2.264-0.2-2.462,1.667-3.098,3.098c0.042,1.816,1.417,2.301,2.479,3.098
			c1.484,0.245-0.344-2.822,1.858-1.859c0.854,0.799,0.613,2.691,0.62,4.337c-1.095,1.15-1.809-0.269-3.098-0.619
			c-2.81,10.201-8.512,17.509-11.152,27.879c-1.979-2.358,1.242-9.915-2.478-10.532c-4.416,1.367-1.937,9.629-5.576,11.771
			c-0.437-20.675,13.583-26.894,19.206-41.509c1.656,0.821,2.226,2.73,3.717,3.717c2.503-1.527,0.685-4.922-1.239-5.576
			c0.237-4.997,9.089-12.795,0-14.249c1.455-5.104,6.098-5.98,8.054-9.293c0.284-0.481-1.244-1.183-1.239-1.239
			c0.174-2.345,3.608-4.053,4.957-5.576c0.514-6.507,4.573-9.47,8.054-13.01c1.054-6.381,4.103-10.767,8.674-13.63
			c1.768-14.726-3.305-37.266,4.337-48.944c-1.805-2.326-3.998-4.263-5.576-6.815c-12.52,5.86-24.988,11.771-32.835,22.304
			c-0.959-2.423,3.292-4.955,3.098-8.674c-2.042,1.675-3.384,4.05-6.195,4.957c-0.254-1.493,1.131-1.347,0.619-3.098
			c-1.347,1.13-3.123,1.833-3.717,3.717c-2.248-2.188-3.033-0.041-4.956,1.239c-1.322,0.29-1.18-0.885-1.239-1.858
			c-2.53,0.98-2.676,4.345-6.195,4.337c-0.079-1.111,0.758-1.307,0.62-2.479c-7.506,3.773-11.772,6.996-14.869,14.869
			c-3.527-2.736,4.555-8.512,1.239-11.152c-0.813,2.684-5.022,5.701-6.195,9.913c-2.51-8.09,6.854-9.663,8.673-15.488
			c5.525-3.562,14.188-3.986,21.064-6.195c1.031-1.946-2.304-2.532-0.62-3.098c3.698,3.513,5.467-1.794,10.532-0.62
			c0.285-3.383-0.776-5.419-3.098-6.195c-0.309-3.132,4.657-1.675,6.195-1.239c10.986-4.502,23.965-7.012,37.173-9.293
			c0.412,1.653,1.861,2.269,3.098,3.098c2.39-0.088,2.863-2.093,5.576-1.859c-4.904-3.613-1.292-9.2-2.478-14.25
			c-0.899-3.826-5.232-5.7-7.435-9.293c-2.114-3.45-3.141-8.115-5.576-11.771c-2.125-3.191-4.904-5.052-6.196-8.054
			c0.719-0.52,1.661-0.817,3.098-0.62c-1.765-2.365-4.137-4.123-5.576-6.815c0.623-2.463,3.734-0.594,5.576-0.62
			c-0.566-3.977-3.425-5.662-3.098-10.532c1.886-0.027,2.409,1.308,3.717,1.859c-2.556,2.843,2.404,5.34,1.239,10.532
			c-1.893,0.447-2.258-0.634-3.717-0.62c0.126,2.626,7.657,6.131,2.478,8.054c3.312,3.71,6.011,8.033,8.054,13.011
			c1.541,0.096,1.918-0.974,3.098-1.239c-4.722-8.082-3.555-22.053-9.913-28.499c1.741,3.836,3.724-3.789,3.717,0.62
			c1.111,0.079,1.307-0.758,2.478-0.62c0.593-2.245-2.674-0.63-3.098-1.858C77.474,27.468,75.404,8.269,84.682,0
			c2.835,3.451-4.521,5.78-3.098,11.771c3.056-3.346,4.641-8.163,9.293-9.913c-5.454,6.524-8.704,15.251-8.673,27.26
			C80.417,30.45,77.571,29.725,78.486,32.216z M79.726,29.119c0.299-4.749,2.026-11.066,1.239-14.869c-0.619,0-1.239,0-1.858,0
			C78.345,18.34,77.707,25.932,79.726,29.119z M75.389,43.368c0.483,0.137,0.72,0.519,0.62,1.239
			c1.567,0.652,2.746-2.089,1.239-2.478C77.238,43.152,75.529,42.476,75.389,43.368z M100.17,55.139
			c2.599-1.738,3.259-5.414,3.717-9.293C99.974,45.988,98.595,51.524,100.17,55.139z M170.798,48.324
			c1.493-0.253,1.347,1.131,3.098,0.62c0-1.033,0-2.065,0-3.098C172.387,46.196,170.709,46.376,170.798,48.324z M164.603,76.204
			c3.283-0.131,6.387-5.511,9.913-7.435c-0.974-0.059-2.148,0.083-1.859-1.239c1.167-3.17,4.225-4.45,4.957-8.054
			c-2.632,0.359-2.874-1.67-3.718-3.098c1.021-2.093,4.559-4.919,3.098-7.435C169.626,54.398,165.338,66.177,164.603,76.204z
			 M112.561,55.759c8.7-1.871,15.651,1.11,23.542,1.858C133.717,51.778,116.007,49.225,112.561,55.759z M136.104,69.389
			c-1.42-2.838-0.018-6.067,0-9.293c-8.212-5.024-28.435-4.826-30.977,4.956C111.494,70.469,128.636,63.97,136.104,69.389z
			 M116.898,68.769c-7.031,0.233-12.246,1.371-17.347-1.858c-7.882,4.922-10.266,15.341-10.532,27.879
			c2.908,4.61,9.105,4.328,16.108,6.195c4.764,1.271,9.564,3.33,13.63,3.717c10.134,0.966,21.618-2.991,32.216-1.239
			c5.834-11.094,0.519-26.714-5.576-33.455C135.642,74.087,127.206,68.427,116.898,68.769z M86.541,79.301
			c1.172-1.926,1.338-4.857,3.098-6.195c-0.608-2.696-2.796-3.812-5.576-4.337C79.836,73.019,82.335,76.236,86.541,79.301z
			 M160.266,83.638c2.92-0.666,3.205-5.979,1.239-8.054C153.361,75.332,156.303,81.38,160.266,83.638z M79.106,107.8
			c-0.927-0.105-2.287,0.221-2.478-0.62c1.097-2.414,2.331-4.69,4.956-5.576c-1.512-1.379-3.512-2.27-6.815-1.859
			c0.678,2.743-1.049,3.081-1.239,4.957C74.859,105.967,77.389,110.833,79.106,107.8z M41.314,108.42
			c0.636,3.701,1.238,7.436,2.478,10.532c7.56-7.722,20.583-9.981,28.499-17.347C62.209,103.727,51.369,108.33,41.314,108.42z
			 M121.854,116.474c2.339-2.617,5.047-4.865,5.575-9.293c-6.26,0.323-13.727-0.222-16.727-1.239
			C110.559,113.313,114.303,116.797,121.854,116.474z M157.788,110.898c1.951,0.299,1.402-1.901,3.717-1.239
			c0.372,2.933,2.313,4.295,4.337,5.576c0.871-5.828-2.458-7.455-7.435-7.435C157.888,108.519,157.59,109.461,157.788,110.898z
			 M167.7,112.756c10.185,3.652,16.03,11.643,24.782,16.728c0.242-2.855,2.254-3.942,4.956-4.337
			c-7.476-7.601-18.062-12.09-30.357-14.869C167.034,111.357,167.219,112.205,167.7,112.756z M36.977,117.093
			c2.202-0.963,0.374,2.104,1.859,1.859c0.419-1.439,2.059-1.659,2.478-3.098C39.562,115.96,37.063,115.321,36.977,117.093z
			 M32.64,118.952c1.542,0.093,0.181,2.098,0,2.478c1.7-0.572,2.59-1.954,3.098-3.717C34.201,117.622,32.731,117.598,32.64,118.952z
			 M28.304,120.191c0.105,0.927-0.222,2.287,0.619,2.479c0.419-1.439,2.059-1.659,2.479-3.098
			C29.909,119.318,30.055,120.703,28.304,120.191z M22.108,125.767c-0.196-2.468,2.866-1.678,3.098-3.717c-1.032,0-2.065,0-3.098,0
			C21.623,122.479,20.729,125.506,22.108,125.767z M8.478,130.104c4.625,1.03,6.842-4.925,11.152-6.195
			C13.739,123.8,8.897,124.741,8.478,130.104z M67.334,172.233c1.688,1.203,3.357,2.425,5.576,3.098
			c0.663-2.715,1.587-4.588,0.62-7.435C69.561,167.214,67.34,167.721,67.334,172.233z M66.715,174.091
			c-8.684,9.41-10.548,20.575-19.825,29.118c5.229,0.967,5.175,7.217,13.011,5.576c-0.175-11.663,6.767-24.479,8.673-34.075
			C67.721,174.738,67.213,174.419,66.715,174.091z M157.788,184.624c4.125,2.107,7.451-5.972,4.956-8.674
			C160.143,177.891,161.334,183.626,157.788,184.624z M168.32,218.698c4.022-0.521,6.187-2.899,10.532-3.098
			c-5.217-11.438-6.907-22.649-14.869-30.977c-0.792,0.034-0.858,0.794-1.858,0.619c-0.687,3.99,2.28,4.327,1.858,8.055
			c-1.952,0.299-0.464-2.841-1.858-3.098C163.245,198.196,167.963,207.88,168.32,218.698z M48.749,210.644
			c2.988-0.923,1.286,2.844,3.717,2.479c0.147-2.626-0.049-4.908-1.859-5.576C50.244,208.835,49.305,209.548,48.749,210.644z
			 M48.749,219.937c0.435-1.538,1.893-6.504-1.239-6.195C45.306,215.341,46.338,219.424,48.749,219.937z M175.755,223.035
			c2.164-0.17,3.618-4.056,0.619-4.337C176.677,220.654,175.258,220.886,175.755,223.035z M30.782,249.675
			c4.03-2.276,4.488-8.65,6.195-13.63c0.791-2.307,5.002-4.542,0.62-4.956C34.754,235.895,25.874,243.144,30.782,249.675z
			 M188.765,260.827c6.613-3.657-1.453-14.64-4.337-18.586C185.562,248.749,185.295,256.657,188.765,260.827z M206.731,135.68
			c1.633,0.187,2.033-0.858,1.858-2.478c-1.171,0.139-1.367-0.698-2.478-0.62C205.6,134.333,206.985,134.187,206.731,135.68z
			 M226.557,146.211c-1.605-5.621-7.721-6.734-12.391-9.293C217.691,140.262,221.083,146.863,226.557,146.211z"/>
		<path style="fill-rule:evenodd;clip-rule:evenodd;fill:#B07E09;" d="M105.126,65.052c2.542-9.782,22.765-9.98,30.977-4.956
			c-0.018,3.226-1.42,6.455,0,9.293C128.636,63.97,111.494,70.469,105.126,65.052z M109.463,61.334
			c-0.733,1.539-0.897,3.646-1.239,5.576C110.994,67.526,111.76,61.968,109.463,61.334z"/>
		<path style="fill-rule:evenodd;clip-rule:evenodd;fill:#B07E09;" d="M73.53,104.703c0.189-1.875,1.917-2.213,1.239-4.957
			c3.303-0.411,5.303,0.479,6.815,1.859c-2.625,0.885-3.859,3.162-4.956,5.576c0.191,0.841,1.551,0.514,2.478,0.62
			C77.389,110.833,74.859,105.967,73.53,104.703z"/>
		<path style="fill-rule:evenodd;clip-rule:evenodd;fill:#B07E09;" d="M162.125,190.2c1.395,0.257-0.094,3.396,1.858,3.098
			c0.422-3.728-2.545-4.064-1.858-8.055c1,0.175,1.066-0.585,1.858-0.619c7.962,8.327,9.652,19.539,14.869,30.977
			c-4.346,0.198-6.51,2.577-10.532,3.098C167.963,207.88,163.245,198.196,162.125,190.2z"/>
		<path style="fill-rule:evenodd;clip-rule:evenodd;fill:#B07E09;" d="M167.081,110.278c12.296,2.779,22.882,7.269,30.357,14.869
			c-2.702,0.395-4.714,1.481-4.956,4.337c-8.752-5.085-14.598-13.076-24.782-16.728
			C167.219,112.205,167.034,111.357,167.081,110.278z"/>
	</g>
</g>
</svg>
