<?xml version="1.0" encoding="UTF-8" standalone="no"?>
<!-- Created with Inkscape (http://www.inkscape.org/) -->
<svg
   xmlns:dc="http://purl.org/dc/elements/1.1/"
   xmlns:cc="http://web.resource.org/cc/"
   xmlns:rdf="http://www.w3.org/1999/02/22-rdf-syntax-ns#"
   xmlns:svg="http://www.w3.org/2000/svg"
   xmlns="http://www.w3.org/2000/svg"
   xmlns:sodipodi="http://inkscape.sourceforge.net/DTD/sodipodi-0.dtd"
   xmlns:inkscape="http://www.inkscape.org/namespaces/inkscape"
   width="227pt"
   height="165pt"
   id="svg26564"
   sodipodi:version="0.32"
   inkscape:version="0.43"
   version="1.0"
   sodipodi:docbase="C:\foo\wikipedia\transfer"
   sodipodi:docname="owl_in_tree.svg">
  <defs
     id="defs26566" />
  <sodipodi:namedview
     id="base"
     pagecolor="#ffffff"
     bordercolor="#666666"
     borderopacity="1.0"
     inkscape:pageopacity="0.0"
     inkscape:pageshadow="2"
     inkscape:zoom="1.2566667"
     inkscape:cx="168.57143"
     inkscape:cy="172.49998"
     inkscape:document-units="px"
     inkscape:current-layer="layer1"
     inkscape:window-width="1024"
     inkscape:window-height="721"
     inkscape:window-x="-4"
     inkscape:window-y="-4" />
  <metadata
     id="metadata26569">
    <rdf:RDF>
      <cc:Work
         rdf:about="">
        <dc:format>image/svg+xml</dc:format>
        <dc:type
           rdf:resource="http://purl.org/dc/dcmitype/StillImage" />
        <cc:license
           rdf:resource="http://web.resource.org/cc/PublicDomain" />
      </cc:Work>
      <cc:License
         rdf:about="http://web.resource.org/cc/PublicDomain">
        <cc:permits
           rdf:resource="http://web.resource.org/cc/Reproduction" />
        <cc:permits
           rdf:resource="http://web.resource.org/cc/Distribution" />
        <cc:permits
           rdf:resource="http://web.resource.org/cc/DerivativeWorks" />
      </cc:License>
    </rdf:RDF>
  </metadata>
  <g
     inkscape:label="Layer 1"
     inkscape:groupmode="layer"
     id="layer1">
    <path
       style="font-size:248.59294128px;font-style:normal;font-weight:normal;line-height:125%;fill:#000000;fill-opacity:1;stroke:none;stroke-width:1px;stroke-linecap:butt;stroke-linejoin:miter;stroke-opacity:1;font-family:Bitstream Vera Sans"
       d="M 282.33748,37.164866 C 280.51419,37.330766 276.53671,37.993676 270.40502,39.153616 C 265.59863,39.982416 261.53828,40.313876 258.22397,40.147986 C 254.24623,41.805436 250.26875,43.462716 246.29151,45.119846 C 241.31941,47.274476 236.92761,48.351706 233.11608,48.351556 C 229.46982,47.854526 226.56958,46.611556 224.41533,44.622656 C 223.91792,42.136886 222.26064,39.070916 219.44347,35.424716 C 217.78597,33.270416 215.13431,32.193186 211.48849,32.193016 C 209.33382,32.193186 206.18498,32.690366 202.04196,33.684566 L 200.05322,35.176126 C 195.90981,35.673476 189.61213,36.584986 181.16016,37.910646 L 180.16578,38.407836 C 181.49143,39.733826 183.6459,40.479606 186.6292,40.645176 C 191.10369,40.645336 193.50675,40.728196 193.8384,40.893766 C 194.9983,40.893926 196.65559,41.391116 198.81025,42.385326 C 200.96453,43.379856 202.78754,43.794176 204.2793,43.628286 C 204.77628,43.794176 205.4392,44.125636 206.26804,44.622656 C 203.61618,45.948646 201.37885,46.280106 199.55603,45.617026 C 196.407,43.462716 193.34102,43.048396 190.35809,44.374066 C 189.86072,44.705676 189.86072,45.285726 190.35809,46.114216 C 191.02082,47.274476 191.35228,47.854526 191.35247,47.854366 L 195.32995,49.594516 C 196.32413,52.743516 197.89855,54.649386 200.05322,55.312156 C 199.88729,58.295416 199.05865,60.201296 197.56729,61.029796 C 197.73282,60.864206 197.3185,60.449886 196.32432,59.786826 C 195.82695,60.284156 195.49549,60.532746 195.32995,60.532606 C 196.1584,56.886726 195.41263,54.235066 193.09262,52.577636 C 192.9267,52.246326 192.67811,51.583416 192.34684,50.588886 C 191.84946,50.257586 190.10931,49.346076 187.12639,47.854366 C 184.97173,46.860146 183.56304,45.534326 182.90031,43.876876 C 180.57993,43.379856 179.00551,42.965536 178.17704,42.633916 C 176.51958,41.805436 175.44235,40.645336 174.94533,39.153616 C 172.45923,36.667846 168.89607,35.342026 164.25584,35.176126 C 160.11246,35.176296 155.96925,35.259156 151.82619,35.424716 C 146.19127,36.916446 142.04806,38.573726 139.39654,40.396576 C 139.56213,40.396736 141.79947,41.805436 146.10855,44.622656 C 148.76006,46.280106 151.24599,47.191606 153.56634,47.357176 C 155.88639,47.854526 162.26693,47.357336 172.708,45.865626 C 173.20501,45.865776 173.86793,46.114376 174.69674,46.611406 C 173.37074,47.440196 170.96768,48.268846 167.48754,49.097336 C 163.17844,50.423316 158.62091,50.920496 153.81493,50.588886 C 159.11809,55.229436 163.75849,60.781346 167.73614,67.244616 C 174.36511,78.017106 178.17687,90.446736 179.17141,104.53356 C 181.49143,102.21346 183.23158,99.56181 184.39186,96.57859 L 184.64046,96.57859 C 184.14309,98.56743 182.65153,101.30195 180.16578,104.78215 L 180.41438,105.03075 C 182.23721,103.20783 184.47455,99.8104 187.12639,94.838436 C 186.62902,97.15874 185.0546,100.47331 182.40312,104.78215 C 183.56304,104.94798 184.806,105.03084 186.13201,105.03075 C 187.45766,105.03084 188.61776,104.94798 189.61232,104.78215 C 189.61213,104.94798 189.77786,105.11371 190.1095,105.27934 C 190.27504,105.11371 190.77223,105.03084 191.60106,105.03075 C 191.7666,105.19657 191.84946,105.52803 191.84965,106.02512 C 191.02082,106.5224 189.52927,106.77099 187.37498,106.7709 C 185.22033,106.77099 183.72877,106.85386 182.90031,107.01949 L 179.17141,109.00823 L 178.17704,115.47165 C 182.81726,116.46611 186.79475,116.96329 190.1095,116.96321 C 195.08117,116.96329 199.05865,115.88606 202.04196,113.7315 C 203.86478,113.06868 206.51643,111.74285 209.99694,109.75401 C 210.65964,109.75411 211.32256,109.91983 211.98568,110.2512 C 212.1512,110.25129 212.48266,110.16843 212.98005,110.00261 C 212.97984,110.16843 213.06271,110.49988 213.22864,110.99698 C 212.23406,111.1628 210.90824,111.65998 209.25116,112.48854 C 206.26784,114.47737 201.46171,116.88043 194.83277,119.69773 C 191.02082,119.53209 185.46892,119.11776 178.17704,118.45477 C 177.51395,122.10088 175.93953,127.48705 173.45377,134.61331 C 174.6137,134.61338 175.7738,135.27629 176.93408,136.60205 L 172.708,137.09924 C 172.04491,138.2594 171.29913,139.91669 170.47066,142.0711 C 172.45923,143.23126 175.27662,145.30286 178.92282,148.28592 C 179.75129,148.61743 180.57993,149.19748 181.40875,150.02607 C 181.24284,150.02612 179.83415,149.86039 177.18267,149.52888 C 175.35948,148.53457 172.79069,146.87728 169.47629,144.55702 C 168.15029,145.55145 166.99019,147.2916 165.99599,149.77748 C 163.84135,152.59491 160.11246,156.65526 154.8093,161.95853 C 162.76412,164.11304 168.89607,167.34475 173.20518,171.65366 C 165.5815,167.51048 158.78664,164.85882 152.82056,163.69868 C 148.84293,167.6762 143.29102,171.40509 136.16483,174.88536 C 138.65063,175.21685 142.29665,176.21122 147.10292,177.86848 C 149.58871,177.53705 151.82604,177.53705 153.81493,177.86848 C 153.15187,178.19996 152.1575,178.86287 150.83182,179.85722 C 151.16313,180.85162 152.90328,182.75749 156.05227,185.57486 C 153.56619,185.07769 151.99177,184.66337 151.329,184.3319 C 149.50584,183.50327 148.34574,182.26031 147.8487,180.603 C 146.357,179.60865 144.11967,178.78001 141.13669,178.11707 C 137.49053,177.28845 135.08747,176.62554 133.9275,176.12833 C 132.933,176.12836 131.10998,176.79127 128.45845,178.11707 C 129.12124,179.44292 129.20411,180.85162 128.70704,182.34315 C 128.37546,182.5089 128.12687,182.59177 127.96127,182.59174 L 127.21549,180.10582 C 127.21536,180.10584 127.1325,180.4373 126.96689,181.10019 C 126.63531,180.60302 126.13813,179.77438 125.47534,178.61426 C 119.0118,180.76875 112.05121,181.84599 104.59353,181.84597 C 91.500875,181.84599 79.651295,179.0286 69.044735,173.39381 C 63.244175,171.07364 56.366445,165.85319 48.411516,157.73245 C 47.085646,158.22968 45.676956,159.55551 44.185436,161.70994 C 42.859576,163.69872 41.699476,165.02455 40.705136,165.68742 C 39.545006,167.01329 38.302036,169.25062 36.976246,172.39943 C 36.644756,173.72529 36.976216,175.54831 37.970616,177.86848 C 38.964956,180.02297 39.462136,181.59739 39.462176,182.59174 C 39.462136,183.75186 39.130686,184.91196 38.467806,186.07205 C 39.130686,194.68994 42.279526,200.32471 47.914336,202.97637 C 44.102536,201.65054 40.870836,196.76155 38.219206,188.30938 C 39.213546,181.84599 38.633496,177.37132 36.479056,174.88536 C 36.147566,172.56519 36.810486,170.41072 38.467806,168.42195 C 40.290786,166.26751 41.948066,164.27877 43.439666,162.45572 C 45.262636,158.80973 48.245746,156.65526 52.389005,155.9923 C 49.074386,155.1637 45.925546,156.5724 42.942476,160.21838 C 40.622236,162.53862 37.721986,166.35038 34.241726,171.65366 C 34.075966,173.14524 34.490286,174.88539 35.484686,176.87411 C 36.644756,178.69715 37.224806,180.10584 37.224836,181.10019 C 35.401796,186.23779 35.733246,190.46387 38.219206,193.77843 C 38.550636,195.26999 39.710736,197.3416 41.699516,199.99325 C 42.528116,200.8219 43.853946,201.7334 45.676996,202.72777 L 42.942476,202.97637 C 42.445256,202.81064 41.368016,202.14772 39.710766,200.98762 C 38.053446,199.6618 36.561896,199.24748 35.236096,199.74466 C 34.573146,199.57893 33.661646,199.24748 32.501576,198.75029 C 31.838626,198.75029 31.009986,198.2531 30.015646,197.25873 C 29.021246,196.26436 28.275466,195.76718 27.778306,195.76717 C 27.281096,195.76718 26.783916,196.01577 26.286746,196.51295 C 26.286726,196.51296 24.049396,196.1815 19.574736,195.51858 L 16.840216,193.77843 C 17.337386,192.61834 17.585986,191.45824 17.585996,190.29813 C 17.585986,189.30377 17.337386,187.72935 16.840216,185.57486 C 16.343016,183.42041 16.094426,181.76312 16.094436,180.603 C 15.928696,179.60865 15.928696,176.37695 16.094436,170.90788 C 16.260156,166.7647 15.265786,163.78158 13.111326,161.95853 C 9.9624762,159.14119 8.3880562,155.4123 8.3880562,150.77185 C 8.3880562,148.61743 8.8852362,145.13713 9.8796162,140.33094 C 11.039706,135.35915 11.536896,131.79599 11.371176,129.64145 C 11.039706,127.98424 10.625386,126.24409 10.128206,124.421 C 9.7967462,122.43233 9.8796062,120.69218 10.376796,119.20054 C 12.531266,118.20626 13.525636,115.88606 13.359916,112.23994 C 13.359906,108.42828 14.022816,105.94235 15.348656,104.78215 C 19.491856,99.8104 21.563466,95.418586 21.563486,91.606726 C 21.563466,89.618096 21.066276,87.795076 20.071926,86.137676 C 19.574726,85.474886 18.414626,84.894836 16.591626,84.397526 C 14.768596,83.900466 13.608496,83.071816 13.111326,81.911596 C 12.282676,78.928606 11.288296,75.862636 10.128206,72.713656 C 9.1338262,69.399226 6.9793562,67.741936 3.6647963,67.741806 L 3.6647963,67.244616 C 5.1563462,67.410476 7.2279562,67.244756 9.8796162,66.747426 C 10.542526,64.924556 12.034076,62.438626 14.354286,59.289646 C 14.188546,59.455516 13.525636,61.609986 12.365546,65.753056 L 12.614136,66.001656 C 13.277046,65.504606 13.857096,64.344506 14.354286,62.521346 C 14.851466,60.698476 15.680106,59.621246 16.840216,59.289646 L 17.088806,59.538236 C 16.260156,60.201296 15.680106,61.527116 15.348656,63.515726 C 15.017196,65.338876 14.437146,66.581836 13.608506,67.244616 C 14.105686,70.393596 15.597236,74.785396 18.083186,80.420046 C 19.243266,79.922976 20.734826,79.840116 22.557856,80.171446 C 25.043766,80.834486 26.535316,81.165946 27.032526,81.165816 C 27.695416,82.326046 28.524056,84.066186 29.518456,86.386276 C 30.678526,86.220656 31.424306,85.640606 31.755796,84.646126 C 32.750136,81.000216 36.064706,73.956756 41.699516,63.515726 C 44.516856,59.869836 49.240116,54.897986 55.869305,48.600146 C 55.703525,48.268846 55.289205,47.771656 54.626345,47.108586 C 53.963375,46.280106 53.714785,45.534326 53.880565,44.871256 C 55.372075,39.733826 58.520915,34.513376 63.327095,29.209896 C 65.481505,25.232586 65.150045,21.255106 62.332725,17.277436 C 62.166935,17.277616 61.006835,16.780436 58.852425,15.785876 C 59.183825,15.123146 59.846735,14.791696 60.841165,14.791506 C 61.172565,14.791696 61.586885,14.874556 62.084135,15.040096 C 62.084075,14.211646 62.332665,13.051546 62.829915,11.559796 L 64.072875,10.068236 C 64.072815,10.399886 64.238545,10.814206 64.570065,11.311206 L 65.813025,10.068236 C 65.812965,10.068426 65.647235,11.394256 65.315835,14.045726 C 65.315775,15.206016 65.812965,16.780436 66.807395,18.768996 C 67.967435,20.592186 68.547485,22.083746 68.547545,23.243666 C 68.547485,23.906756 68.381755,24.652536 68.050365,25.481006 C 68.050295,25.481176 68.796075,25.232586 70.287695,24.735226 C 72.442105,23.243846 75.259485,20.509326 78.739855,16.531656 C 79.734155,15.868926 81.391435,15.040286 83.711715,14.045726 C 86.197565,13.051546 89.097815,10.648476 92.412475,6.8365262 L 94.401215,4.8477859 C 93.738205,5.5108959 93.489615,6.5052662 93.655435,7.8308962 C 94.318255,6.5052662 95.064038,5.5937659 95.892778,5.0963759 L 96.638558,5.0963759 C 96.638458,5.4280359 96.389868,5.9252159 95.892778,6.5879362 C 95.395498,7.2510462 95.229768,7.7482362 95.395588,8.0794962 C 96.389868,7.4167762 97.798558,6.3395362 99.621668,4.8477859 L 100.11886,6.0907462 L 101.36182,5.0963759 C 101.69318,5.4280359 101.85891,5.7594859 101.85901,6.0907462 C 101.85891,5.9252159 101.11313,6.6709962 99.621668,8.3280862 C 97.301378,9.4883762 94.069665,11.477126 89.926545,14.294316 C 89.594995,15.288876 88.683495,16.034656 87.192015,16.531656 C 85.700375,16.863296 84.788875,17.194756 84.457495,17.526026 C 83.628775,18.023396 82.468675,19.100636 80.977195,20.757736 C 82.137215,21.420836 83.297315,22.083746 84.457495,22.746476 C 85.783245,23.243846 86.363295,24.155356 86.197645,25.481006 C 87.026205,26.309826 89.677865,26.641276 94.152625,26.475376 C 95.478358,26.144096 97.384238,25.398316 99.870258,24.238036 C 102.35609,22.912386 104.34484,22.083746 105.83649,21.752106 C 107.99086,20.592186 110.2282,20.675056 112.5485,22.000696 C 108.07373,23.823896 101.196,26.226956 91.915285,29.209896 C 89.097815,29.872986 86.777615,29.624386 84.954685,28.464116 C 84.457415,28.132836 83.545905,27.221326 82.220155,25.729596 C 80.894255,24.238216 79.734155,23.492436 78.739855,23.492256 C 78.076865,23.492436 77.413955,23.741026 76.751115,24.238036 C 71.613455,28.381426 68.464615,30.950216 67.304585,31.944416 C 63.824225,35.259156 61.338295,38.407996 59.846795,41.390946 C 59.681015,44.208496 59.515285,45.617186 59.349605,45.617026 C 72.607835,37.496496 84.374555,33.104686 94.649808,32.441606 C 99.455848,31.447406 107.74227,31.778856 119.50911,33.435976 C 119.84045,33.436146 120.4205,33.601876 121.24926,33.933166 C 122.24351,34.264786 122.90642,34.430516 123.238,34.430346 C 123.90079,34.430516 124.39798,34.016196 124.72956,33.187386 C 127.21536,30.701626 130.19848,26.807006 133.6789,21.503516 C 135.66752,15.371746 135.0046,10.979936 131.69016,8.3280862 C 131.5243,7.6653662 131.19285,6.9195862 130.69579,6.0907462 L 131.69016,7.0851262 C 131.85576,6.9195862 131.93862,6.7538562 131.93875,6.5879362 C 132.43581,6.5881362 133.09872,7.1681862 133.9275,8.3280862 C 134.75601,9.4883762 135.41892,10.068426 135.91624,10.068236 C 136.24756,10.068426 136.66189,9.7369762 137.1592,9.0738662 C 137.65626,8.9083262 138.65063,8.2454162 140.14232,7.0851262 C 141.13655,6.0909462 142.04806,5.6766259 142.87684,5.8421559 C 142.54525,6.5052662 142.46238,6.8367262 142.62825,6.8365262 L 144.61699,6.0907462 C 143.62248,7.4167762 141.88233,8.9911962 139.39654,10.814016 C 138.56776,11.311396 138.15344,12.222896 138.15358,13.548536 C 137.98771,15.537476 137.90485,16.697566 137.90498,17.028846 L 136.41343,23.989446 C 135.25319,25.812636 132.27008,29.541526 127.46408,35.176126 C 128.12687,36.004936 129.03838,36.253526 130.1986,35.921906 C 131.19285,35.424886 132.18722,34.927706 133.18172,34.430346 C 135.50179,34.099056 137.73912,33.767606 139.89373,33.435976 C 142.71097,32.938956 144.78258,32.027456 146.10855,30.701456 C 147.59996,30.701626 149.17438,30.038716 150.83182,28.712706 C 150.50021,25.729776 151.41172,24.155356 153.56634,23.989446 C 156.21784,22.995256 157.95799,21.420836 158.78679,19.266176 C 158.78664,17.443346 158.20659,15.371746 157.04664,13.051356 C 155.55493,9.4055162 154.72629,7.4167762 154.56071,7.0851262 C 154.56056,6.9195862 154.80915,6.8367262 155.30649,6.8365262 L 156.05227,7.3337162 L 156.30086,7.0851262 C 157.46081,7.7482362 158.37231,9.1569262 159.03538,11.311206 C 159.86387,13.465866 160.94111,14.874556 162.26709,15.537286 C 162.43266,16.034656 162.84698,16.780436 163.51006,17.774616 C 165.00145,17.609076 166.24442,16.780436 167.23895,15.288696 C 168.39889,13.797326 169.47612,12.388626 170.47066,11.062606 C 170.80195,10.565616 172.12778,7.9968262 174.44815,3.3562259 L 174.94533,4.5991959 C 175.93953,4.1022059 176.43672,3.8536159 176.43689,3.8534159 C 176.76817,5.0137159 176.51958,6.6709962 175.69111,8.8252762 L 175.9397,9.0738662 C 178.75692,8.2454162 182.81726,6.6709962 188.12076,4.3505959 C 188.2863,4.8479859 189.03208,5.0137159 190.35809,4.8477859 C 189.69499,6.6709962 187.87198,7.6653662 184.88905,7.8308962 C 183.06586,8.6597362 180.24847,10.151296 176.43689,12.305576 L 170.96784,19.514776 C 168.64748,20.509326 165.41577,22.746656 161.27272,26.226776 C 159.11809,27.718516 158.12372,28.961476 158.2896,29.955676 C 160.77538,29.624386 163.84135,30.453036 167.48754,32.441606 C 171.13341,34.264786 173.86793,35.176296 175.69111,35.176126 C 177.18249,35.176296 178.67405,34.761976 180.16578,33.933166 C 182.48581,33.104686 185.88324,31.861726 190.35809,30.204266 C 191.18655,27.718516 193.09243,24.238216 196.07573,19.763366 C 197.23564,17.443346 198.4786,15.123146 199.80463,12.802756 C 201.13026,10.317026 202.70468,8.4111462 204.52789,7.0851262 C 206.51643,7.2510462 209.33382,6.9195862 212.98005,6.0907462 C 216.7916,5.0965759 219.85757,4.6822559 222.17799,4.8477859 C 224.82943,3.1906959 226.32098,2.3620559 226.65266,2.3618559 C 226.15526,2.5277859 225.57521,3.0249659 224.91251,3.8534159 C 224.91229,3.8536159 225.98953,3.3564259 228.14422,2.3618559 L 228.14422,2.8590459 C 225.98953,5.3451659 222.92355,7.0024562 218.94628,7.8308962 C 215.13431,8.6597362 211.40542,9.4883762 207.7596,10.316826 C 203.45046,12.802946 201.21312,16.614706 201.04759,21.752106 C 200.21875,22.746656 199.30724,23.906756 198.31307,25.232406 C 197.3185,26.392686 196.98705,27.718516 197.3187,29.209896 L 198.06448,29.955676 C 198.89292,30.121576 199.72157,30.204436 200.5504,30.204266 C 201.71031,30.204436 203.28473,30.038716 205.27367,29.707086 C 207.42794,29.375796 209.00236,29.210066 209.99694,29.209896 C 211.48829,29.210066 212.81411,29.458666 213.97442,29.955676 C 215.30004,29.790116 216.95733,30.370166 218.94628,31.695826 C 220.93481,32.856096 222.3435,33.436146 223.17236,33.435976 C 224.16651,33.436146 225.07802,33.021826 225.90688,32.193016 L 226.90126,32.193016 C 228.06113,31.861726 230.04987,30.701626 232.86749,28.712706 C 235.68464,26.724146 237.92198,25.729776 239.5795,25.729596 C 240.90509,25.729776 242.23092,26.144096 243.55698,26.972556 L 244.05417,26.972556 C 243.22529,26.972736 241.98232,27.221326 240.32528,27.718336 C 238.99921,28.712886 237.09333,29.955846 234.60764,31.447236 C 230.29847,33.436146 227.39822,35.342026 225.90688,37.164866 C 226.56958,39.650966 227.06676,41.225386 227.39844,41.888136 C 228.06113,43.545586 229.13837,44.539956 230.63015,44.871256 C 231.45857,45.037136 232.37007,45.120006 233.36467,45.119846 C 234.69027,45.120006 236.59615,44.705676 239.08231,43.876876 C 241.568,43.048396 243.39102,42.551206 244.55136,42.385326 C 245.71121,42.219756 248.28001,41.059656 252.25774,38.905016 C 255.40633,37.247896 258.14085,36.419256 260.4613,36.419096 C 261.78687,36.419256 263.19557,36.667846 264.68738,37.164866 C 264.52139,37.165036 269.74184,36.833576 280.34874,36.170496 C 281.34283,36.667846 282.00575,36.833576 282.33748,36.667686 L 282.33748,37.164866 M 279.35437,37.164866 C 277.53108,37.330766 274.87942,37.745086 271.39939,38.407836 L 279.35437,37.164866 M 270.40502,38.656426 C 267.09019,38.490866 262.28406,38.739456 255.98663,39.402206 C 253.33472,41.556836 249.60583,43.379856 244.79995,44.871256 C 240.98795,45.865776 237.09333,46.860146 233.11608,47.854366 C 237.59052,47.854526 243.63961,46.114376 251.26336,42.633916 C 253.58332,40.976786 256.64929,39.982416 260.4613,39.650796 C 263.77562,39.319506 267.09019,38.988046 270.40502,38.656426 M 241.07105,27.221156 C 240.4079,27.387056 239.41353,27.469916 238.08794,27.469746 C 236.26469,28.630016 232.03862,31.281676 225.4097,35.424716 C 224.58084,36.419256 224.41511,37.662226 224.91251,39.153616 C 225.40948,40.313876 225.98953,41.473976 226.65266,42.633916 C 227.31535,43.628446 228.06113,44.042766 228.89,43.876876 C 227.8954,43.379856 226.73531,41.308246 225.4097,37.662056 C 226.73531,35.507756 230.04987,33.187556 235.35342,30.701456 C 236.51328,29.541526 238.41916,28.381426 241.07105,27.221156 M 227.14985,3.6048159 C 226.48671,4.1022059 225.65807,4.3507959 224.66392,4.3505959 L 224.91251,4.1020059 C 224.74656,4.1022059 224.58084,4.1850659 224.41533,4.3505959 C 224.41511,4.3507959 224.58084,4.4336659 224.91251,4.5991959 C 224.24938,4.9308459 223.08928,5.4280359 221.43221,6.0907462 C 219.77471,6.5881362 217.20592,7.3339062 213.72583,8.3280862 C 210.24532,9.1569262 207.67653,9.7369762 206.01945,10.068236 C 203.69905,10.897076 202.12463,12.637226 201.29618,15.288696 C 199.97016,19.432086 199.14152,21.752286 198.81025,22.249296 C 196.32413,23.741026 195.2469,25.812636 195.57855,28.464116 C 195.74408,29.127206 196.32413,29.541526 197.3187,29.707086 C 196.82132,29.044346 196.57272,28.464296 196.57292,27.966936 C 196.57272,27.635646 197.89855,25.646906 200.5504,22.000696 C 200.38448,17.360486 202.87041,13.217266 208.00819,9.5710562 C 211.32256,8.9083262 214.63713,8.2454162 217.95191,7.5823062 C 221.92918,6.9195862 224.99516,5.5937659 227.14985,3.6048159 M 219.44347,32.193016 L 219.44347,32.193016 M 189.61232,5.5935659 C 188.94922,5.9252159 187.78912,6.3395362 186.13201,6.8365262 C 187.62339,7.1681862 188.78349,6.7538562 189.61232,5.5935659 M 209.99694,31.944416 C 208.00799,32.110316 205.93638,32.276046 203.78211,32.441606 C 201.62744,32.441776 199.97016,33.104686 198.81025,34.430346 L 200.30181,34.430346 C 203.119,32.441776 206.3507,31.613136 209.99694,31.944416 M 175.9397,4.1020059 C 175.7738,5.0965759 175.02802,6.8367262 173.70237,9.3224562 L 174.94533,9.3224562 C 175.7738,8.4940062 176.10526,6.7538562 175.9397,4.1020059 M 205.27367,44.871256 C 205.27347,44.871406 203.28473,44.954276 199.30744,45.119846 C 200.13589,45.451456 202.12463,45.368596 205.27367,44.871256 M 183.39749,8.0794962 C 181.90576,8.7426062 179.66842,9.5712462 176.68548,10.565426 C 175.52521,11.394256 173.4536,13.548726 170.47066,17.028846 C 168.15029,19.680686 165.91296,21.420836 163.75865,22.249296 C 163.09558,22.415206 162.18407,23.243846 161.02413,24.735226 C 160.0296,26.061226 159.03523,26.641276 158.04101,26.475376 C 157.7094,26.641276 157.37794,27.801376 157.04664,29.955676 L 157.54383,29.955676 C 157.7094,28.464296 158.8695,27.055596 161.02413,25.729596 C 163.34417,24.238216 164.83572,22.995256 165.4988,22.000696 C 167.81884,21.503696 169.80758,20.177866 171.46503,18.023216 C 173.28788,15.868926 175.02802,13.714456 176.68548,11.559796 C 178.34259,11.228526 180.57993,10.068426 183.39749,8.0794962 M 191.60106,35.673316 L 187.87216,35.673316 C 187.70625,35.673476 184.72314,36.336396 178.92282,37.662056 C 178.59119,38.159406 178.83978,38.656596 179.6686,39.153616 C 180.66279,39.485236 181.15998,39.733826 181.16016,39.899396 L 179.6686,38.407836 C 180.82852,37.745086 184.806,36.833576 191.60106,35.673316 M 162.76428,17.526026 C 162.59839,17.029026 162.26693,16.366116 161.76991,15.537286 C 160.60965,15.040286 159.69814,13.797326 159.03538,11.808386 C 158.37231,9.6541062 157.54367,8.3282862 156.54945,7.8308962 C 157.21222,9.8198362 158.8695,12.471496 161.52131,15.785876 C 161.68688,15.951796 161.76975,16.366116 161.76991,17.028846 C 161.93548,17.526216 162.26693,17.691946 162.76428,17.526026 M 192.59543,43.379696 C 191.43514,43.214126 190.02645,43.379856 188.36935,43.876876 C 189.03208,46.362966 189.94359,47.688796 191.10387,47.854366 C 190.27504,46.860146 189.69499,45.782916 189.36372,44.622656 C 190.85509,43.628446 191.93233,43.214126 192.59543,43.379696 M 196.57292,53.572006 C 196.407,52.412056 195.57835,51.086226 194.08699,49.594516 C 194.25253,50.754766 195.08117,52.080596 196.57292,53.572006 M 199.30744,58.543866 C 199.30724,58.046826 199.39011,57.466776 199.55603,56.803716 C 199.72157,56.140946 199.72157,55.643756 199.55603,55.312156 C 199.39011,54.815116 198.89292,54.566526 198.06448,54.566376 C 198.39574,55.063706 198.56147,55.560896 198.56166,56.057936 C 198.56147,56.389536 198.23001,57.052456 197.56729,58.046676 C 197.06991,59.041196 196.98705,59.952696 197.3187,60.781196 C 197.3185,60.781346 197.98142,60.035566 199.30744,58.543866 M 134.92187,10.565426 C 134.42455,9.7369762 133.59591,8.5768762 132.43594,7.0851262 C 133.09872,8.4111462 133.92737,9.5712462 134.92187,10.565426 M 136.16483,15.537286 L 135.91624,18.023216 L 136.16483,15.537286 M 173.70237,46.859996 C 172.5421,46.860146 169.72471,47.605926 165.25021,49.097336 C 161.60402,50.091856 158.53804,50.423316 156.05227,50.091706 C 158.70377,50.257586 164.58713,49.180346 173.70237,46.859996 M 143.62262,6.8365262 C 142.29665,7.6653662 140.88796,8.4940062 139.39654,9.3224562 C 137.57339,10.648476 136.66189,11.974306 136.66202,13.299946 C 136.66189,13.797326 136.74475,14.294506 136.91061,14.791506 C 136.74475,16.946166 135.91611,20.095006 134.42468,24.238036 C 134.59028,23.741026 134.67314,23.078116 134.67328,22.249296 C 134.34169,23.409576 134.25882,24.072486 134.42468,24.238036 C 133.76164,25.895496 132.43581,27.801376 130.4472,29.955676 C 127.79541,32.607506 126.13813,34.430516 125.47534,35.424716 L 125.47534,36.419096 C 125.80667,36.916446 126.30386,37.082176 126.96689,36.916276 C 126.96677,36.916446 126.88391,36.584986 126.7183,35.921906 C 128.87265,33.436146 131.93862,29.541526 135.91624,24.238036 L 137.1592,17.277436 C 136.99334,16.614706 136.91048,16.034656 136.91061,15.537286 C 136.91048,13.880186 137.73912,12.222896 139.39654,10.565426 C 140.88796,9.4055162 142.29665,8.1625562 143.62262,6.8365262 M 153.81493,49.843106 L 153.81493,49.843106 M 150.08604,35.424716 C 147.43424,35.756346 146.02554,35.922076 145.85996,35.921906 C 143.04243,37.247896 140.22505,38.490866 137.4078,39.650796 C 134.09309,41.473976 132.18722,43.877036 131.69016,46.859996 C 132.18722,47.025876 132.60154,46.777286 132.93312,46.114216 C 133.26445,45.451456 133.51305,45.037136 133.6789,44.871256 C 133.51305,44.539956 133.34732,45.368596 133.18172,47.357176 C 138.15344,45.534326 141.55088,44.705676 143.37403,44.871256 C 142.04806,44.042766 139.97646,42.799806 137.1592,41.142356 C 142.46238,37.993676 146.77132,36.087796 150.08604,35.424716 M 95.892778,5.8421559 C 95.395498,5.8423559 94.981178,6.1738162 94.649808,6.8365262 C 94.483988,7.4996362 94.318255,7.9139562 94.152625,8.0794962 C 94.483988,7.9139562 95.064038,7.1681862 95.892778,5.8421559 M 212.98005,110.74838 L 212.48287,110.2512 C 212.48266,110.41702 209.25095,112.15717 202.78774,115.47165 C 198.81006,117.46048 195.32976,118.62058 192.34684,118.95195 C 195.49549,118.95204 201.21312,116.63184 209.49975,111.99135 C 210.32819,111.82571 211.48829,111.41139 212.98005,110.74838 M 191.35247,106.27371 L 191.35247,105.52793 C 188.03771,106.02522 186.38042,106.27381 186.38061,106.27371 L 186.38061,106.5223 L 191.35247,106.27371 M 185.63483,98.56733 C 185.46892,98.73316 184.06023,100.80477 181.40875,104.78215 L 182.15453,104.78215 C 183.6459,102.95924 184.806,100.88763 185.63483,98.56733 M 101.36182,6.5879362 L 101.36182,5.8421559 C 99.870168,6.8367262 97.715698,8.3282862 94.898398,10.316826 C 93.241025,10.482756 91.169415,11.642846 88.683575,13.797136 C 86.197565,15.786066 84.291685,17.029026 82.965935,17.526026 C 81.640035,17.857666 80.479935,18.934906 79.485635,20.757736 L 80.480005,20.757736 C 81.805765,19.266366 84.291685,17.609076 87.937795,15.785876 C 90.920825,13.797326 95.395498,10.731346 101.36182,6.5879362 M 111.55413,22.000696 L 109.3168,22.000696 C 108.48805,22.166606 106.00212,23.160976 101.85901,24.983816 C 97.715698,26.641276 93.075295,27.967106 87.937795,28.961306 C 89.760725,29.292936 91.915195,28.961476 94.401215,27.966936 C 97.549968,26.807006 99.538708,26.226956 100.36745,26.226776 C 104.84202,24.072486 108.57091,22.663796 111.55413,22.000696 M 184.64046,106.5223 C 183.81163,106.35667 182.65153,106.43954 181.16016,106.7709 C 179.66842,106.93672 177.92827,107.93109 175.9397,109.75401 C 173.95079,111.41139 172.29351,112.3229 170.96784,112.48854 L 172.4594,112.23994 C 174.44798,111.41139 175.60807,111.07993 175.9397,111.24557 C 175.44235,111.90858 174.28225,112.48863 172.4594,112.98572 C 170.80195,113.31727 169.64185,113.81445 168.9791,114.47728 L 176.93408,115.22306 C 176.9339,114.06305 177.09963,112.40576 177.43126,110.2512 C 177.26536,110.41702 177.09963,110.33416 176.93408,110.00261 C 178.42546,108.8426 180.99425,107.6825 184.64046,106.5223 M 86.197645,26.226776 C 85.534655,25.729776 85.203195,25.066856 85.203275,24.238036 C 85.203195,23.409576 84.706005,22.829526 83.711715,22.497886 C 83.877365,23.658166 84.706005,24.901126 86.197645,26.226776 M 170.22207,112.98572 C 169.55899,112.82008 168.89607,112.82008 168.23332,112.98572 C 167.57024,113.31727 167.32165,113.81445 167.48754,114.47728 L 168.48192,114.47728 L 168.48192,114.22869 C 168.64748,113.56586 169.22753,113.15154 170.22207,112.98572 M 168.23332,117.70899 L 168.23332,117.70899 M 64.072875,15.040096 L 64.072875,13.548536 L 63.824285,13.548536 L 63.824285,15.040096 L 64.072875,15.040096 M 154.06352,101.79904 C 152.73755,101.46768 151.9089,102.29633 151.5776,104.28497 C 152.24036,104.28507 153.069,103.45642 154.06352,101.79904 M 67.553175,25.729596 C 67.884565,24.901126 68.050295,24.072486 68.050365,23.243666 C 68.050295,22.083746 67.470245,20.509326 66.310215,18.520396 C 65.150045,16.366116 64.570005,14.708826 64.570065,13.548536 C 64.570005,12.554356 64.901455,11.559986 65.564435,10.565426 C 64.735725,10.897076 64.404275,11.725716 64.570065,13.051356 C 64.901455,14.377376 64.735725,15.288876 64.072875,15.785876 C 66.227285,20.426466 67.138795,23.409576 66.807395,24.735226 C 66.807335,25.232586 67.055925,25.564046 67.553175,25.729596 M 122.98941,53.820596 C 121.82919,50.174716 121.332,48.020246 121.49785,47.357176 C 121.82919,46.528696 121.332,45.451456 120.00629,44.125476 C 118.84608,42.634076 118.18316,41.556836 118.01755,40.893766 C 117.85171,40.065286 118.34889,39.070916 119.50911,37.910646 C 120.83482,36.750716 121.5806,36.004936 121.74644,35.673316 C 112.2998,32.856096 101.69318,32.441776 89.926545,34.430346 C 87.606255,34.761976 84.457415,35.590616 80.480005,36.916276 C 78.656915,37.247896 76.336725,38.159406 73.519405,39.650796 C 70.867685,41.142516 68.878945,42.054026 67.553175,42.385326 C 65.564375,43.214126 63.161305,45.037136 60.343985,47.854366 C 59.018095,46.031506 58.438045,44.705676 58.603835,43.876876 C 60.426785,38.407996 64.652865,33.270416 71.282075,28.464116 C 72.442105,27.304196 73.685065,26.144096 75.010965,24.983816 C 76.502445,23.658166 77.994005,23.078116 79.485635,23.243666 C 79.485565,23.243846 78.905515,23.160976 77.745485,22.995076 C 76.585315,23.160976 74.762305,24.072486 72.276445,25.729596 C 69.293265,27.884246 65.150045,31.695996 59.846795,37.164866 C 57.857995,41.473976 57.277945,44.374226 58.106645,45.865626 C 60.261065,48.185976 61.669755,49.263216 62.332725,49.097336 L 63.327095,49.843106 L 62.829915,50.340296 C 63.161305,50.506176 63.658495,50.920496 64.321465,51.583256 C 65.150045,52.080596 65.647235,52.246326 65.813025,52.080446 L 64.072875,50.837486 L 64.570065,50.588886 C 65.067185,51.417686 66.393015,51.997736 68.547545,52.329036 C 70.701955,52.660646 71.944915,53.489286 72.276445,54.814966 C 80.397065,52.826376 86.280425,52.246326 89.926545,53.074816 C 91.418015,53.240696 94.069665,54.400796 97.881518,56.555116 C 97.715698,56.720996 97.384238,56.720996 96.887148,56.555116 C 96.224138,56.223806 95.809818,56.058076 95.644178,56.057936 C 97.467098,57.052456 99.621568,59.041196 102.1076,62.024166 C 102.60469,62.024306 103.18474,62.355766 103.84775,63.018536 C 104.51056,63.515866 105.09061,63.764456 105.5879,63.764316 L 105.09072,63.515726 L 105.5879,63.267126 C 109.23383,66.084656 113.12844,66.333246 117.27177,64.012906 C 121.41487,61.692846 123.32074,58.295416 122.98941,53.820596 M 176.68548,118.45477 C 174.36511,118.45485 170.96768,118.53771 166.49317,118.70336 L 166.24458,118.45477 C 166.7416,117.95766 167.15592,117.79194 167.48754,117.95758 C 165.16718,118.45485 162.59839,120.11214 159.78116,122.92944 C 156.46644,126.24409 154.14624,128.31569 152.82056,129.14426 C 152.82041,129.64152 152.90328,130.13871 153.06915,130.63582 C 153.89765,131.29881 154.4777,131.63026 154.8093,131.63019 L 154.56071,131.3816 L 154.8093,131.13301 C 155.80352,131.29881 157.12935,131.87886 158.78679,132.87316 C 158.45518,133.20468 158.28945,133.28755 158.2896,133.12175 C 158.45518,133.12182 159.28382,133.45328 160.77553,134.11612 C 160.77538,134.11619 160.19533,134.03333 159.03538,133.86753 C 159.20096,134.53051 159.69814,134.86197 160.52694,134.8619 C 161.35543,134.86197 161.85261,134.94483 162.0185,135.11049 C 168.48175,134.7791 171.79632,134.61338 171.96222,134.61331 C 174.6137,127.81851 176.18812,122.43233 176.68548,118.45477 M 108.32242,73.459436 L 108.32242,73.459436 M 176.43689,136.10486 C 175.60807,135.27629 175.02802,135.35915 174.69674,136.35346 L 168.9791,136.85064 C 168.64748,137.3479 167.57024,137.84508 165.74739,138.3422 C 166.7416,139.99955 168.64748,141.90543 171.46503,144.05984 C 171.13341,143.06553 170.13904,141.98829 168.48192,140.82813 C 169.31039,140.66246 169.97331,139.58523 170.47066,137.59642 C 169.64185,137.92794 168.64748,138.59086 167.48754,139.58517 L 166.74176,139.08798 C 168.73034,137.59649 171.96205,136.60212 176.43689,136.10486 M 180.91156,149.77748 L 179.6686,149.0317 L 180.91156,149.77748 M 177.67985,147.78873 C 176.35385,146.46296 174.8623,145.55145 173.20518,145.05421 C 174.19938,145.88291 175.69094,146.79442 177.67985,147.78873 M 177.43126,106.02512 C 177.43109,98.07025 175.93953,89.949546 172.95659,81.663006 C 168.64748,69.233496 161.1897,58.709736 150.58322,50.091706 C 144.78258,48.931756 140.14218,49.511806 136.66202,51.831856 L 136.41343,51.583256 C 138.56776,49.760396 141.7166,48.766026 145.85996,48.600146 L 142.62825,48.600146 C 135.83324,50.257586 131.44144,52.826376 129.45282,56.306526 C 129.4527,57.301046 128.87265,58.295416 127.71267,59.289646 C 127.38109,60.284156 127.1325,61.858576 126.96689,64.012906 C 123.98366,68.984896 119.2604,72.050876 112.7971,73.210846 C 112.63126,73.210976 115.53151,72.548066 121.49785,71.222106 L 121.74644,71.719286 C 116.27729,74.371076 110.89111,75.033986 105.5879,73.708036 C 100.9474,72.713786 96.058408,71.056506 90.920915,68.736176 C 87.109075,67.079026 82.137215,67.161886 76.005335,68.984766 C 75.342355,69.482086 74.265115,69.813546 72.773625,69.979136 C 74.762305,68.819176 78.076865,67.907666 82.717345,67.244616 C 78.408325,66.747566 72.442105,68.819176 64.818655,73.459436 C 64.818595,73.625296 66.393015,74.039616 69.541915,74.702406 C 70.204765,75.365446 70.784815,75.614036 71.282075,75.448186 C 72.110645,74.951126 73.436475,74.702536 75.259555,74.702406 C 77.911145,74.702536 79.236965,74.702536 79.237045,74.702406 C 79.734155,74.868256 80.231335,74.951126 80.728605,74.950996 C 81.557165,74.951126 82.551535,74.288216 83.711715,72.962256 C 84.871735,71.470826 85.948975,70.807916 86.943425,70.973506 C 87.109075,70.476456 87.606255,69.813546 88.434985,68.984766 C 89.097815,69.979276 89.346405,71.139366 89.180765,72.465066 L 89.926545,72.465066 C 89.926455,72.465196 90.009315,73.210976 90.175135,74.702406 C 89.512135,75.862636 89.180675,76.939866 89.180765,77.934116 C 89.180675,79.260066 90.092185,81.165946 91.915285,83.651746 C 93.903935,86.137796 94.815448,88.292266 94.649808,90.115166 C 93.655345,90.612466 93.158155,90.861056 93.158245,90.860946 C 93.323885,91.689696 93.489615,92.932666 93.655435,94.589836 C 92.826705,95.418586 92.080925,95.750046 91.418095,95.584216 C 91.583735,96.74442 91.086555,98.73316 89.926545,101.55045 C 90.755095,102.37919 91.666605,103.87075 92.661065,106.02512 C 92.163785,107.6825 92.495245,109.91983 93.655435,112.73713 C 94.815448,115.5546 95.395498,117.46048 95.395588,118.45477 C 95.395498,119.78068 95.064038,121.02364 94.401215,122.18366 C 93.738205,122.18374 93.241025,122.59806 92.909655,123.42662 C 92.743835,124.25535 92.412385,124.75253 91.915285,124.91818 C 90.755095,125.24972 89.760725,126.32695 88.932165,128.14989 C 88.103445,129.80725 87.191935,130.88449 86.197645,131.3816 C 87.854845,130.88449 89.760725,130.96735 91.915285,131.63019 C 94.069665,132.12745 96.058408,132.62463 97.881518,133.12175 C 101.03027,133.78473 103.68192,132.87323 105.83649,130.38723 C 107.99086,127.90137 109.9796,125.41545 111.80272,122.92944 C 112.46553,120.11214 113.54277,115.80319 115.03443,110.00261 C 114.86859,108.17969 113.29417,105.52803 110.31117,102.04763 L 111.30554,94.589836 L 111.55413,94.589836 C 111.55402,94.589946 111.63689,96.41296 111.80272,100.05889 L 112.7971,93.844056 C 113.29417,94.341356 113.54277,95.501456 113.54288,97.32437 C 113.70849,99.14748 114.20568,100.22472 115.03443,100.55607 C 115.03432,100.55618 115.20005,100.30758 115.53162,99.8103 C 116.36015,100.14186 116.77447,100.9705 116.77458,102.29622 C 116.60874,104.11934 116.69161,105.19657 117.02318,105.52793 C 117.68598,103.53929 119.17753,101.30195 121.49785,98.81592 C 122.32637,98.15311 123.15502,97.90452 123.98378,98.07014 C 121.99492,99.23035 120.00618,102.04773 118.01755,106.5223 L 118.51473,106.02512 L 118.76333,106.27371 C 118.76321,106.27381 118.51462,106.60527 118.01755,107.26808 C 117.68598,109.75411 117.02306,113.483 116.0288,118.45477 C 116.02869,118.45485 116.44301,118.53771 117.27177,118.70336 L 117.02318,118.45477 C 117.68598,116.96329 118.26603,114.47737 118.76333,110.99698 C 119.2604,107.35104 119.92331,104.69939 120.75207,103.042 L 120.50348,103.2906 C 120.50336,103.2907 121.24914,102.04773 122.74081,99.5617 C 123.40361,99.89326 123.48647,100.30758 122.98941,100.80467 C 122.32637,101.46768 121.99492,101.882 121.99504,102.04763 C 120.83482,103.87075 120.00618,106.60527 119.50911,110.2512 C 119.0118,114.3945 118.43176,117.21189 117.76896,118.70336 C 127.71255,111.07993 137.07621,107.35104 145.85996,107.51668 C 146.85419,105.69376 148.92579,103.20783 152.07478,100.05889 C 152.57182,100.7219 152.82041,101.05336 152.82056,101.05326 L 154.31212,100.80467 C 154.4777,100.9705 154.4777,101.46768 154.31212,102.29622 C 155.96925,100.47331 158.62091,99.23035 162.26709,98.56733 C 165.41577,98.07025 168.48175,97.65593 171.46503,97.32437 C 171.79632,97.32447 172.04491,97.40734 172.21081,97.57296 C 172.5421,97.73879 173.03928,97.98739 173.70237,98.31874 C 173.7022,97.98739 173.4536,98.31884 172.95659,99.31311 C 167.81884,99.8104 162.26693,101.63341 156.30086,104.78215 L 156.05227,104.53356 C 157.7094,103.70502 160.27819,102.29633 163.75865,100.30748 L 172.4594,98.56733 C 167.15592,99.39608 164.08995,99.89326 163.26146,100.05889 C 159.78101,100.88763 157.04649,102.37919 155.0579,104.53356 C 153.89765,104.69939 152.57182,105.61089 151.08041,107.26808 C 149.58871,108.75974 148.42861,109.67124 147.60011,110.00261 C 145.44549,109.83697 142.79384,110.16843 139.64513,110.99698 C 135.83324,112.15717 133.34732,112.82008 132.18735,112.98572 C 131.5243,113.64872 130.11561,114.31164 127.96127,114.97446 C 125.80667,115.63747 124.31512,116.63184 123.48659,117.95758 C 121.99492,118.28912 120.66909,119.53209 119.50911,121.68647 C 118.51462,123.84103 117.27166,125.16685 115.78021,125.66396 C 114.28854,125.9955 112.21694,127.90137 109.56539,131.3816 C 110.06247,131.38167 110.64252,131.13308 111.30554,130.63582 C 112.96272,130.63589 115.28291,131.46453 118.26614,133.12175 C 121.24914,134.61338 123.6522,135.35915 125.47534,135.35909 C 126.46959,135.35915 127.46396,135.19343 128.45845,134.8619 C 129.4527,134.53051 132.35295,133.78473 137.1592,132.62456 C 140.8051,131.79599 143.45675,130.55303 145.11418,128.89567 C 151.9089,125.41545 159.03523,119.53209 166.49317,111.24557 C 169.31039,110.74848 172.95642,109.00833 177.43126,106.02512 M 71.779255,54.814966 C 71.613455,54.152206 70.784815,53.572156 69.293325,53.074816 C 70.287635,54.566526 71.116275,55.146576 71.779255,54.814966 M 113.04569,101.79904 L 113.04569,97.57296 L 112.5485,101.05326 C 112.54839,101.38482 112.71412,101.63341 113.04569,101.79904 M 116.0288,106.5223 C 116.02869,106.19094 115.86296,104.2022 115.53162,100.55607 C 115.69724,101.05336 115.53151,101.71628 115.03443,102.54482 C 114.86859,104.69939 115.20005,106.02522 116.0288,106.5223 M 87.689205,72.465066 C 86.363295,74.288216 85.617515,76.857006 85.451865,80.171446 C 86.114705,78.514286 86.860475,75.945496 87.689205,72.465066 M 84.208905,81.165816 C 84.043095,80.834486 84.043095,78.265696 84.208905,73.459436 L 83.960315,73.459436 C 83.131585,74.288216 82.965855,75.448306 83.463125,76.939736 C 83.960235,78.928606 84.043095,80.337296 83.711715,81.165816 L 84.208905,81.165816 M 150.08604,133.61894 C 147.10278,133.28755 143.45675,133.95046 139.14795,135.60768 C 134.01023,137.59649 130.52993,138.67372 128.70704,138.83939 C 133.34732,137.18217 140.47364,135.44202 150.08604,133.61894 M 81.474385,82.160196 C 81.142845,80.668756 80.479935,78.431426 79.485635,75.448186 L 80.977195,82.657376 L 81.474385,82.160196 M 172.21081,170.65928 C 171.382,169.9964 170.2219,169.25062 168.73051,168.42195 C 169.55899,168.91917 170.71908,169.66495 172.21081,170.65928 M 78.988455,84.397526 C 78.988375,84.397646 78.242595,82.574636 76.751115,78.928486 C 75.259485,76.939866 73.933655,76.194086 72.773625,76.691146 C 75.922395,79.011476 77.994005,81.580266 78.988455,84.397526 M 151.82619,159.4726 L 150.83182,159.4726 L 150.33463,159.96979 L 151.82619,159.4726 M 73.767995,83.900346 C 73.436475,81.745996 72.276375,80.088706 70.287695,78.928486 C 70.619085,80.585896 71.779185,82.243176 73.767995,83.900346 M 167.48754,143.81125 C 166.32728,143.14839 164.91859,141.7397 163.26146,139.58517 C 161.27256,138.42513 158.37231,136.68498 154.56071,134.36471 C 150.74881,134.03333 145.52836,134.94483 138.89936,137.09924 C 132.27008,139.25377 127.04964,140.16528 123.238,139.83376 C 122.07778,139.83382 120.4205,139.4195 118.26614,138.59079 C 116.27729,137.59649 114.62,137.0993 113.29428,137.09924 C 110.97397,137.92794 109.89674,138.34227 110.06257,138.3422 C 110.06247,138.34227 111.05684,137.76222 113.04569,136.60205 C 110.72538,136.60212 109.0681,137.26503 108.07383,138.59079 C 109.23383,139.75096 110.80825,141.65684 112.7971,144.30843 C 112.79699,147.78879 115.44864,150.85476 120.75207,153.50637 L 121.74644,153.25778 L 124.72956,155.24652 C 124.56371,155.24657 124.14939,155.24657 123.48659,155.24652 C 125.14376,155.74375 125.9724,156.07521 125.97252,156.24089 C 125.9724,156.24094 126.38672,156.3238 127.21549,156.48949 C 130.86139,154.99798 136.33043,152.84351 143.62262,150.02607 C 148.09715,149.19748 150.83167,149.19748 151.82619,150.02607 C 149.8373,150.52331 146.93705,151.60054 143.12544,153.25778 L 142.87684,153.00918 C 145.03117,151.51768 147.59996,150.60617 150.58322,150.27466 C 146.93705,150.44044 143.04243,151.76627 138.89936,154.25215 C 137.57339,153.92074 136.1647,154.50079 134.67328,155.9923 C 133.34732,157.4839 132.18722,158.14682 131.19297,157.98104 L 131.44157,158.22964 C 131.44144,158.72687 131.69003,159.22405 132.18735,159.72119 C 132.6844,160.21842 132.933,160.30129 132.93312,159.96979 L 132.18735,159.4726 C 132.18722,159.14119 132.43581,158.72687 132.93312,158.22964 C 132.933,158.39541 133.01586,158.80973 133.18172,159.4726 C 138.31917,160.79847 143.62248,160.79847 149.09167,159.4726 C 149.75443,159.14119 150.50021,158.80973 151.329,158.47823 C 152.1575,157.98109 152.90328,157.89822 153.56634,158.22964 C 152.90328,158.72687 152.57182,158.97546 152.57197,158.97542 C 152.57182,158.97546 152.98614,158.80973 153.81493,158.47823 C 154.31197,158.31255 154.64342,158.47827 154.8093,158.97542 C 153.81478,159.30692 152.73755,160.21842 151.5776,161.70994 C 151.57745,161.70998 152.57182,161.21279 154.56071,160.21838 C 157.87513,156.90385 162.18407,151.43481 167.48754,143.81125 M 150.83182,160.46697 C 150.50021,160.63274 150.16876,160.88134 149.83744,161.21275 L 150.33463,161.70994 C 150.83167,161.37852 150.9974,160.9642 150.83182,160.46697 M 67.553175,80.171446 C 67.718845,78.514286 66.724475,77.188456 64.570065,76.193966 C 62.581255,75.033986 61.338295,74.039616 60.841165,73.210846 C 60.841105,74.702536 61.835485,76.028356 63.824285,77.188336 C 65.812965,78.182826 67.055925,79.177196 67.553175,80.171446 M 90.175135,86.883456 C 89.512135,86.386386 89.014945,85.309156 88.683575,83.651746 C 88.517765,81.994586 88.103445,80.834486 87.440615,80.171446 C 85.617515,81.663126 83.463045,82.988956 80.977195,84.148936 C 80.314205,84.646236 79.899885,85.640606 79.734235,87.132056 C 79.568425,88.623726 79.319835,89.618096 78.988455,90.115166 C 78.988375,89.949546 78.325465,88.872316 76.999705,86.883456 C 76.336725,86.054936 75.259485,85.474886 73.767995,85.143306 C 71.779185,84.811966 70.619085,84.563376 70.287695,84.397526 C 67.304515,83.071816 65.398645,82.491766 64.570065,82.657376 C 63.907085,83.320416 63.327035,84.480516 62.829915,86.137676 C 63.161305,86.469256 63.327035,86.883576 63.327095,87.380646 C 63.327035,87.546486 63.078445,88.043676 62.581315,88.872206 C 62.084075,89.700956 62.001205,90.446736 62.332725,91.109536 C 63.327035,91.275376 63.907085,91.938296 64.072875,93.098286 C 64.072815,93.927036 64.072815,94.838536 64.072875,95.832806 C 64.238545,96.82729 65.150045,96.82729 66.807395,95.832806 L 68.050365,97.82155 C 68.381755,97.98739 68.630345,98.07025 68.796145,98.07014 C 69.127535,98.07025 69.541855,97.82166 70.039105,97.32437 C 70.701955,96.82729 71.199135,96.57869 71.530665,96.57859 C 71.862055,96.74442 72.193505,96.99301 72.525035,97.32437 C 73.353605,97.32447 74.265115,96.91015 75.259555,96.0814 C 75.259485,96.08151 75.010895,95.750046 74.513775,95.087026 C 74.679435,94.424216 75.425215,93.181256 76.751115,91.358136 C 78.076865,90.529596 79.154105,90.363876 79.982825,90.860946 C 81.640035,91.855426 82.717265,93.181256 83.214535,94.838436 C 83.711635,94.838536 84.374555,94.589946 85.203275,94.092656 C 86.694745,94.755676 87.440525,95.087136 87.440615,95.087026 C 88.103445,95.087136 88.434895,94.424216 88.434985,93.098286 C 88.103445,92.766936 87.937715,92.352616 87.937795,91.855316 C 87.937715,91.523976 88.352035,90.861056 89.180765,89.866576 C 90.009315,88.706586 90.340775,87.712216 90.175135,86.883456 M 122.24363,139.08798 L 122.24363,139.08798 M 120.75207,134.8619 L 118.26614,133.86753 L 120.75207,134.8619 M 90.672315,107.76527 C 91.169415,106.77099 90.837965,105.03084 89.677945,102.54482 L 87.689205,104.28497 C 87.689125,105.27944 88.186305,106.68813 89.180765,108.51105 C 89.843595,108.67687 90.340775,108.42828 90.672315,107.76527 M 80.977195,93.346876 C 79.485565,92.352616 78.408325,92.021156 77.745485,92.352506 C 76.916775,92.849796 76.502445,93.429846 76.502525,94.092656 C 76.502445,94.589946 76.916775,95.501456 77.745485,96.82718 C 78.574055,97.98739 78.905515,98.98176 78.739855,99.8103 C 80.728525,96.66156 81.474305,94.507086 80.977195,93.346876 M 60.095385,56.555116 C 59.929605,55.726626 59.266685,54.732256 58.106645,53.572006 C 57.112215,52.246326 56.615035,51.086226 56.615085,50.091706 C 54.460565,51.749136 52.140365,53.903606 49.654486,56.555116 C 47.334246,59.206926 45.096906,61.775716 42.942476,64.261496 C 39.793596,69.067766 36.810486,75.365446 33.993126,83.154566 C 35.153196,81.000216 37.224806,78.928606 40.207956,76.939736 C 43.688216,74.288216 45.925546,72.382336 46.919966,71.222106 C 49.737306,70.559316 52.057505,68.239126 53.880565,64.261496 C 55.869255,60.284156 57.940865,57.715366 60.095385,56.555116 M 85.949055,101.79904 C 85.617515,100.14186 84.540275,98.23598 82.717345,96.0814 C 80.728525,99.23035 79.319835,100.80477 78.491265,100.80467 C 77.994005,100.80477 77.579685,100.30758 77.248305,99.31311 C 77.082495,98.31884 76.751045,97.73879 76.253925,97.57296 L 75.010965,98.56733 C 74.513705,98.40171 74.099385,98.31884 73.767995,98.31874 C 72.939285,98.31884 72.359235,99.14748 72.027845,100.80467 C 71.862055,102.29633 71.447735,103.2907 70.784885,103.78778 C 71.447735,104.4508 72.110645,104.69939 72.773625,104.53356 C 73.933655,104.69939 74.596575,104.2022 74.762375,103.042 C 74.928025,101.21909 75.093755,100.22472 75.259555,100.05889 C 76.253855,100.39045 76.585315,101.21909 76.253925,102.54482 C 75.922395,103.70502 76.005265,104.53366 76.502525,105.03075 C 77.828275,105.19657 78.822645,105.03084 79.485635,104.53356 C 79.651295,103.70502 79.568425,102.71065 79.237045,101.55045 C 79.899885,101.38482 80.397065,101.71628 80.728605,102.54482 C 81.225715,103.87075 81.557165,104.61652 81.722975,104.78215 C 82.220085,104.94798 82.634405,104.69939 82.965935,104.03638 C 82.634405,101.71628 82.634405,100.30758 82.965935,99.8103 C 83.131585,100.9705 83.960235,102.1306 85.451865,103.2906 C 85.783245,103.12497 85.948975,102.62778 85.949055,101.79904 M 144.3684,162.45572 L 136.66202,162.45572 C 137.82199,162.78721 139.06495,162.95294 140.39091,162.9529 C 141.7166,162.95294 143.04243,162.78721 144.3684,162.45572 M 86.446235,110.2512 C 87.606255,108.59401 87.440525,106.77099 85.949055,104.78215 C 85.451785,104.61652 84.623145,104.86512 83.463125,105.52793 C 83.628775,106.35667 83.711635,107.43391 83.711715,108.75964 C 83.711635,109.91983 84.623145,110.41702 86.446235,110.2512 M 87.689205,111.99135 L 87.689205,111.49416 C 87.523395,111.32853 87.191935,111.24566 86.694835,111.24557 C 86.694745,111.24566 87.026205,111.49425 87.689205,111.99135 M 85.949055,111.24557 C 85.617515,111.90858 85.451785,112.15717 85.451865,111.99135 L 85.700465,111.99135 C 85.866105,111.99144 85.948975,111.74285 85.949055,111.24557 M 87.937795,112.98572 C 87.606255,112.82008 87.191935,112.57149 86.694835,112.23994 L 86.694835,115.22306 C 86.860475,115.05742 87.109075,115.14028 87.440615,115.47165 C 87.440525,115.30601 87.523395,114.97455 87.689205,114.47728 C 87.689125,114.47737 87.357665,114.31164 86.694835,113.98009 L 86.943425,113.7315 C 87.109075,113.73159 87.357665,113.81445 87.689205,113.98009 L 87.937795,112.98572 M 85.949055,113.48291 L 85.949055,112.48854 L 85.700465,112.48854 L 85.949055,113.48291 M 91.418095,123.67522 C 92.578115,121.02364 92.495245,117.04616 91.169505,111.74276 C 91.169415,111.74285 91.252285,114.06305 91.418095,118.70336 C 91.418015,121.3551 90.920825,123.4267 89.926545,124.91818 C 90.257915,124.5868 90.755095,124.17248 91.418095,123.67522 M 83.463125,111.49416 C 83.463045,111.49425 83.297315,111.24566 82.965935,110.74838 L 82.717345,111.24557 C 82.882995,111.24566 83.131585,111.32853 83.463125,111.49416 M 82.220155,109.25683 C 82.717265,107.10245 82.137215,106.02522 80.480005,106.02512 C 79.982745,106.02522 79.568425,106.35667 79.237045,107.01949 L 78.988455,106.7709 C 78.988375,107.59964 78.905515,108.75974 78.739855,110.2512 C 78.905515,110.91421 79.817015,111.49425 81.474385,111.99135 C 81.474305,111.82571 81.640035,111.49425 81.971565,110.99698 C 82.302945,110.33416 82.385805,109.75411 82.220155,109.25683 M 87.440615,115.96884 C 87.274795,115.96892 87.026205,115.88606 86.694835,115.72024 L 86.694835,116.96321 C 87.026205,116.79757 87.274795,116.46611 87.440615,115.96884 M 83.960315,113.48291 L 83.960315,113.23431 C 83.794505,112.24003 83.214455,111.82571 82.220155,111.99135 C 82.220085,112.48863 82.800135,112.98581 83.960315,113.48291 M 154.31212,184.58049 C 153.3176,183.58614 151.99177,182.09458 150.33463,180.10582 C 151.16313,179.11147 152.07463,178.44855 153.06915,178.11707 C 152.07463,178.1171 150.83167,178.61428 149.34026,179.60863 C 150.00303,181.26594 151.66031,182.92322 154.31212,184.58049 M 85.949055,117.46039 C 85.948975,116.79757 85.948975,115.63747 85.949055,113.98009 C 85.948975,114.6431 85.866105,115.80319 85.700465,117.46039 L 85.949055,117.46039 M 150.58322,163.45009 C 149.58871,163.11867 148.42861,162.95294 147.10292,162.9529 C 146.10841,162.95294 144.61685,163.11867 142.62825,163.45009 C 140.63937,163.61586 139.14781,163.69872 138.15358,163.69868 C 135.99897,163.69872 134.09309,163.20154 132.43594,162.20712 C 129.61843,160.54988 125.22662,158.14682 119.26051,154.99793 C 118.59748,154.99798 117.76884,154.58366 116.77458,153.75496 C 115.7801,152.76064 114.86859,152.34632 114.04006,152.512 C 114.20568,153.17496 114.20568,154.16933 114.04006,155.49511 L 113.54288,154.99793 C 112.05121,153.50642 112.21694,152.42919 114.04006,151.76622 C 112.71412,151.60054 112.05121,151.932 112.05132,152.76059 C 112.05121,153.25783 112.71412,154.66652 114.04006,156.98667 C 114.70286,157.4839 115.53151,157.7325 116.52599,157.73245 L 118.51473,159.22401 C 118.34889,159.22405 118.01743,159.22405 117.52036,159.22401 C 119.0118,160.71561 120.00618,163.03581 120.50348,166.18461 C 122.65783,169.9964 124.97803,172.15087 127.46408,172.64803 L 125.22674,171.15647 L 125.47534,170.90788 C 128.12687,172.23374 130.86139,173.22811 133.6789,173.89099 L 139.14795,171.40506 C 141.9652,170.07927 145.77695,167.42761 150.58322,163.45009 M 81.722975,112.48854 L 81.474385,112.98572 C 80.977115,112.98581 80.479935,113.2344 79.982825,113.7315 L 81.722975,112.48854 M 83.960315,115.22306 L 83.960315,114.22869 C 83.131585,113.89732 82.717265,113.73159 82.717345,113.7315 C 82.551535,114.06305 82.551535,114.80882 82.717345,115.96884 C 82.717265,115.96892 82.965855,116.13465 83.463125,116.46602 L 83.214535,116.71462 C 83.048725,116.88043 82.882995,116.79757 82.717345,116.46602 C 82.551535,116.96329 82.717265,117.46048 83.214535,117.95758 L 83.463125,117.70899 C 84.291685,116.05179 84.043095,115.05742 82.717345,114.72587 C 82.551535,114.89169 82.965855,115.05742 83.960315,115.22306 M 77.496895,106.7709 C 76.999635,107.10245 76.170995,106.93672 75.010965,106.27371 C 74.679435,107.26818 74.265115,108.92546 73.767995,111.24557 C 74.596575,112.0743 75.176625,112.40576 75.508155,112.23994 C 76.502445,111.57712 77.165365,109.75411 77.496895,106.7709 M 78.242675,111.74276 C 78.076865,111.24566 77.828275,110.99707 77.496895,110.99698 L 77.248305,111.74276 L 78.242675,111.74276 M 86.694835,120.44351 C 86.694745,120.27786 86.446155,120.195 85.949055,120.19492 L 86.446235,121.18929 C 86.611885,121.18937 86.694745,120.94078 86.694835,120.44351 M 78.491265,113.7315 L 78.491265,112.48854 C 78.159735,112.65435 77.745415,112.57149 77.248305,112.23994 C 77.082495,112.73722 77.496825,113.2344 78.491265,113.7315 M 81.722975,118.45477 C 81.557165,117.79194 81.557165,116.7147 81.722975,115.22306 C 80.562795,115.38887 79.982745,115.47174 79.982825,115.47165 C 80.148475,115.30601 80.479935,115.05742 80.977195,114.72587 C 81.640035,114.3945 81.888625,113.98018 81.722975,113.48291 L 79.982825,114.47728 C 79.982745,115.30601 80.314205,116.30038 80.977195,117.46039 L 80.728605,117.70899 C 81.225715,118.37199 81.474305,118.70344 81.474385,118.70336 L 81.722975,118.45477 M 86.446235,121.68647 C 86.280425,121.85228 86.114705,121.76942 85.949055,121.43788 L 85.700465,123.92381 C 86.197565,122.43233 86.446155,121.68656 86.446235,121.68647 M 76.502525,112.98572 C 75.673805,112.98581 75.259485,113.15154 75.259555,113.48291 C 75.756675,113.483 76.170995,113.31727 76.502525,112.98572 M 72.773625,106.5223 C 72.607835,106.5224 71.862055,106.10808 70.536295,105.27934 C 70.536225,105.77662 70.204765,106.60527 69.541915,107.76527 C 69.044665,108.75974 68.878945,109.58838 69.044735,110.2512 C 68.878945,111.07993 69.210395,111.49425 70.039105,111.49416 C 71.033415,111.49425 71.613455,111.57712 71.779255,111.74276 L 71.282075,112.23994 L 71.779255,112.23994 C 71.613455,112.0743 71.530595,111.74285 71.530665,111.24557 C 72.193505,109.91983 72.607835,108.34541 72.773625,106.5223 M 78.491265,115.47165 L 78.491265,114.47728 C 78.325465,114.31164 77.911145,114.14591 77.248305,113.98009 C 77.579685,114.31164 77.579685,114.72596 77.248305,115.22306 C 77.248225,115.72033 77.579685,116.30038 78.242675,116.96321 C 77.911145,117.29475 77.662545,117.46048 77.496895,117.46039 L 77.496895,118.45477 L 78.242675,118.45477 C 78.408325,117.79194 78.242595,116.88043 77.745485,115.72024 C 78.076865,115.38887 78.325465,115.30601 78.491265,115.47165 M 85.203275,121.43788 C 84.871735,122.59806 84.788875,123.17811 84.954685,123.17803 L 84.208905,123.67522 C 84.540275,124.17248 84.788875,124.5868 84.954685,124.91818 L 84.457495,124.66959 L 84.954685,124.421 C 84.954605,123.92389 84.788875,123.4267 84.457495,122.92944 C 84.954605,122.59806 85.203195,122.10088 85.203275,121.43788 M 76.502525,113.7315 C 75.508075,113.89732 75.093755,114.47737 75.259555,115.47165 L 75.508155,115.22306 C 76.170995,114.89169 76.502445,114.3945 76.502525,113.7315 M 93.406845,132.62456 L 93.406845,132.62456 M 73.519405,112.23994 L 72.525035,111.49416 L 72.525035,112.23994 L 73.519405,112.23994 M 82.965935,121.18929 C 82.634405,121.3551 82.220085,121.27223 81.722975,120.9407 C 81.557165,121.10651 81.474305,121.27223 81.474385,121.43788 C 81.474305,121.76942 81.557165,122.01801 81.722975,122.18366 C 81.722895,122.18374 81.640035,122.59806 81.474385,123.42662 C 81.474305,123.59243 81.722895,123.6753 82.220155,123.67522 L 82.220155,122.92944 C 82.220085,122.92952 81.971485,122.76379 81.474385,122.43225 L 81.722975,122.18366 C 82.054355,122.01801 82.385805,122.10088 82.717345,122.43225 C 82.717265,122.43233 82.800135,122.01801 82.965935,121.18929 M 69.044735,104.28497 C 68.878945,104.28507 68.381755,104.4508 67.553175,104.78215 C 66.890195,105.11371 66.393015,105.03084 66.061615,104.53356 C 65.730095,105.3623 65.315775,106.27381 64.818655,107.26808 C 64.321405,108.09682 64.238545,108.92546 64.570065,109.75401 C 64.570005,109.91983 65.150045,110.08556 66.310215,110.2512 L 69.044735,104.28497 M 80.728605,120.44351 C 80.397065,120.44359 80.065615,120.36073 79.734235,120.19492 L 79.237045,121.18929 L 80.728605,120.44351 M 76.751115,118.95195 L 76.502525,118.70336 C 76.502445,118.70344 76.585315,118.28912 76.751115,117.46039 C 76.419585,117.62621 76.005265,117.62621 75.508155,117.46039 C 76.502445,116.46611 76.916775,115.80319 76.751115,115.47165 C 76.419585,115.47174 75.922395,115.63747 75.259555,115.96884 C 75.922395,118.12339 76.419585,119.11776 76.751115,118.95195 M 80.977195,120.9407 C 79.817015,121.93515 79.236965,122.43233 79.237045,122.43225 C 79.402695,122.10088 79.651295,121.93515 79.982825,121.93507 C 80.479935,121.76942 80.811385,121.43796 80.977195,120.9407 M 71.779255,112.98572 C 71.613455,113.15154 71.364865,113.2344 71.033475,113.23431 C 70.701955,113.2344 70.536225,113.40013 70.536295,113.7315 C 70.701955,113.56586 70.950545,113.483 71.282075,113.48291 C 71.779185,113.483 71.944915,113.31727 71.779255,112.98572 M 73.767995,114.72587 C 73.767925,114.72596 73.436475,114.56023 72.773625,114.22869 L 73.022225,113.98009 C 73.187885,113.98018 73.436475,114.06305 73.767995,114.22869 L 73.767995,113.23431 C 73.436475,113.2344 73.022155,113.15154 72.525035,112.98572 C 73.022155,113.31727 73.022155,113.73159 72.525035,114.22869 C 72.524965,114.56023 72.607835,114.89169 72.773625,115.22306 C 72.939285,115.72033 72.939285,116.46611 72.773625,117.46039 C 72.773555,117.79194 72.856425,118.20626 73.022225,118.70336 C 73.187885,117.04616 73.270745,116.21752 73.270815,116.21743 C 73.436475,116.21752 73.602205,115.72033 73.767995,114.72587 M 84.954685,127.15552 C 84.788875,127.15559 84.374555,127.07273 83.711715,126.90693 C 83.711635,126.907 83.960235,127.15559 84.457495,127.6527 C 84.457415,127.48705 84.623145,127.32132 84.954685,127.15552 M 81.722975,124.421 C 81.557165,124.42108 81.391435,124.25535 81.225785,123.92381 L 81.474385,125.41537 L 81.722975,124.421 M 71.779255,113.98009 C 70.784815,114.47737 70.370495,114.97455 70.536295,115.47165 L 70.784885,115.47165 C 71.447735,115.14028 71.779185,114.6431 71.779255,113.98009 M 64.818655,103.78778 C 64.818595,103.78788 64.404275,103.2907 63.575685,102.29622 C 62.415535,102.46205 61.918345,102.54492 62.084135,102.54482 C 59.929605,105.19657 58.935235,107.18531 59.101015,108.51105 C 58.935235,109.00833 59.432415,109.33978 60.592575,109.50542 C 61.586885,109.33978 62.415535,108.59401 63.078505,107.26808 C 64.238545,104.94798 64.818595,103.78788 64.818655,103.78778 M 80.728605,122.68085 C 79.402695,123.34384 78.822645,123.92389 78.988455,124.421 C 78.988375,124.5868 79.071245,124.66967 79.237045,124.66959 C 79.402695,124.66967 79.485565,124.75253 79.485635,124.91818 L 79.237045,125.16678 C 79.402695,125.66404 79.568425,125.91263 79.734235,125.91255 L 80.480005,125.41537 C 80.479935,125.08399 80.314205,124.5868 79.982825,123.92381 C 80.479935,123.75816 80.728525,123.34384 80.728605,122.68085 M 83.960315,128.14989 C 83.794505,127.98424 83.628775,127.90137 83.463125,127.9013 C 83.131585,128.23283 83.131585,128.73002 83.463125,129.39286 C 82.965855,129.72439 82.800135,130.13871 82.965935,130.63582 C 83.297315,130.30444 83.628775,129.47579 83.960315,128.14989 M 72.027845,118.70336 L 72.027845,117.46039 C 71.696325,117.62621 71.282005,117.62621 70.784885,117.46039 C 70.950545,117.12902 71.199135,116.88043 71.530665,116.71462 C 72.027785,116.54897 72.193505,116.30038 72.027845,115.96884 C 71.696325,115.96892 71.199135,116.05179 70.536295,116.21743 C 70.701955,117.04616 71.199135,117.8748 72.027845,118.70336 M 75.508155,121.18929 C 75.010895,121.3551 74.513705,121.85228 74.016595,122.68085 C 74.016525,122.68093 74.347975,122.59806 75.010965,122.43225 C 75.673805,122.10088 75.839535,121.68656 75.508155,121.18929 M 77.496895,121.18929 C 77.331095,121.52083 76.999635,121.52083 76.502525,121.18929 C 76.833905,121.68656 76.751045,122.26661 76.253925,122.92944 C 76.088125,123.4267 76.253855,124.00675 76.751115,124.66959 C 76.751045,124.8354 76.502445,124.91826 76.005335,124.91818 C 75.839535,125.24972 75.922395,125.66404 76.253925,126.16115 L 75.508155,126.90693 C 75.839535,126.40982 76.419585,125.7469 77.248305,124.91818 C 77.413955,124.42108 77.248225,123.84103 76.751115,123.17803 C 76.916775,123.01238 76.999635,122.84665 76.999705,122.68085 C 77.165365,122.34947 77.331095,121.85228 77.496895,121.18929 M 129.20423,175.87974 L 127.71267,175.87974 L 127.71267,176.37692 C 128.70692,176.04549 129.20411,175.87976 129.20423,175.87974 M 81.971565,130.13863 L 81.474385,131.3816 L 81.722975,131.3816 C 81.722895,131.38167 81.805765,130.96735 81.971565,130.13863 M 80.977195,127.9013 L 79.485635,127.9013 C 79.817015,128.23283 79.817015,128.64715 79.485635,129.14426 C 78.988375,129.47579 78.822645,129.80725 78.988455,130.13863 L 79.734235,130.38723 C 80.231335,129.89011 80.148475,129.47579 79.485635,129.14426 L 79.734235,128.89567 C 79.899885,128.73002 80.148475,128.81288 80.480005,129.14426 C 80.645665,128.97861 80.811385,128.56429 80.977195,127.9013 M 75.508155,122.92944 C 74.513705,123.59243 74.016525,123.92389 74.016595,123.92381 C 74.182255,124.25535 74.265115,124.8354 74.265185,125.66396 C 74.430845,126.32695 74.596575,126.49268 74.762375,126.16115 L 75.259555,124.91818 C 75.093755,125.08399 74.762305,125.08399 74.265185,124.91818 C 75.093755,124.25535 75.508075,123.59243 75.508155,122.92944 M 70.784885,120.6921 C 70.619085,120.52646 70.453365,120.44359 70.287695,120.44351 C 69.956175,121.10651 69.790445,121.3551 69.790515,121.18929 C 70.121905,121.18937 70.453365,121.02364 70.784885,120.6921 M 78.739855,127.9013 L 78.242675,127.9013 C 77.413955,128.73002 76.999635,129.14434 76.999705,129.14426 L 78.739855,127.9013 M 128.70704,175.13396 C 126.71818,174.96826 125.72381,175.21685 125.72393,175.87974 C 125.72381,176.21122 125.9724,176.54268 126.46971,176.87411 C 127.1325,177.20559 127.54682,177.95137 127.71267,179.11144 C 127.87828,180.76875 128.12687,181.76312 128.45845,182.09456 C 128.62406,179.94011 128.12687,177.95137 126.96689,176.12833 C 127.29823,175.13398 127.87828,174.80253 128.70704,175.13396 M 70.784885,121.43788 C 69.956175,122.26661 69.541855,122.68093 69.541915,122.68085 C 69.873315,122.68093 70.287635,122.26661 70.784885,121.43788 M 72.525035,121.18929 L 72.027845,121.18929 L 72.276445,121.43788 C 72.276375,121.60369 72.027785,121.68656 71.530665,121.68647 C 71.530595,122.01801 71.613455,122.34947 71.779255,122.68085 L 71.530665,122.92944 C 71.364865,123.26098 71.447735,123.75816 71.779255,124.421 C 71.447735,124.5868 71.282005,124.66967 71.282075,124.66959 C 71.116275,125.16685 71.199135,125.66404 71.530665,126.16115 C 71.696325,125.33258 71.779185,124.8354 71.779255,124.66959 C 71.944915,124.50394 72.110645,124.50394 72.276445,124.66959 C 72.442105,124.00675 72.276375,123.50957 71.779255,123.17803 C 71.944915,123.01238 72.110645,122.92952 72.276445,122.92944 C 72.276375,122.59806 72.193505,122.18374 72.027845,121.68647 L 72.525035,121.18929 M 79.237045,131.13301 C 79.071245,130.80162 78.905515,130.63589 78.739855,130.63582 L 78.988455,131.87878 C 79.154105,131.71313 79.236965,131.46453 79.237045,131.13301 M 83.960315,136.60205 C 84.125955,136.10493 83.877365,135.69061 83.214535,135.35909 C 82.717265,134.86197 82.385805,134.53051 82.220155,134.36471 L 81.971565,134.61331 C 82.137215,135.11056 82.302945,135.69061 82.468755,136.35346 C 82.800135,136.85071 83.297315,136.93357 83.960315,136.60205 M 78.491265,129.14426 C 76.999635,129.80725 76.336725,130.47016 76.502525,131.13301 L 76.751115,130.63582 C 76.916775,130.63589 77.082495,130.80162 77.248305,131.13301 L 76.751115,131.63019 C 76.751045,131.79599 76.833905,132.04458 76.999705,132.37597 C 77.165365,132.04458 77.579685,131.46453 78.242675,130.63582 C 77.911145,130.96735 77.496825,130.96735 76.999705,130.63582 C 77.165365,130.47016 77.413955,130.30444 77.745485,130.13863 C 78.242595,129.80725 78.491195,129.47579 78.491265,129.14426 M 70.536295,123.17803 C 69.873315,122.84665 69.541855,123.4267 69.541915,124.91818 C 70.536225,124.42108 70.867685,123.84103 70.536295,123.17803 M 17.585996,80.171446 C 16.260156,78.845746 15.348646,76.774136 14.851476,73.956626 C 14.188546,71.802286 13.608496,69.647816 13.111326,67.493206 C 13.939956,66.830426 14.520006,65.587466 14.851476,63.764316 C 15.182916,61.775716 15.762966,60.449886 16.591626,59.786826 C 16.260156,59.952696 15.845836,60.284156 15.348656,60.781196 C 15.182916,62.604356 14.271416,64.510236 12.614136,66.498836 C 12.448396,66.333246 12.365536,66.167516 12.365546,66.001656 C 12.034076,66.664706 11.868346,67.327616 11.868356,67.990396 C 11.868346,68.819176 12.199806,70.062136 12.862726,71.719286 C 13.525636,73.376706 13.774226,74.702536 13.608506,75.696776 C 14.105686,76.691276 14.602866,77.768506 15.100066,78.928486 C 15.762966,80.088706 16.591616,80.503026 17.585996,80.171446 M 73.767995,128.14989 L 72.773625,128.14989 C 72.442105,128.97861 72.276375,129.31006 72.276445,129.14426 L 73.767995,128.14989 M 70.287695,126.16115 L 70.287695,125.16678 C 70.121905,125.33258 69.873315,125.41545 69.541915,125.41537 C 70.039035,126.07836 70.287635,126.32695 70.287695,126.16115 M 81.971565,137.59642 L 81.474385,135.35909 C 80.977115,135.52488 80.645665,135.9392 80.480005,136.60205 C 80.314205,137.76222 80.148475,138.34227 79.982825,138.3422 C 80.645665,138.34227 81.308575,138.09367 81.971565,137.59642 M 75.010965,128.39848 C 74.016525,128.89574 73.602205,130.22157 73.767995,132.37597 L 74.265185,131.87878 C 74.265115,131.87886 74.099385,131.63026 73.767995,131.13301 L 74.016595,130.63582 C 74.182255,130.63589 74.347975,130.80162 74.513775,131.13301 L 74.762375,130.63582 C 74.928025,130.47016 74.845165,130.13871 74.513775,129.64145 C 75.010895,129.14434 75.176625,128.73002 75.010965,128.39848 M 29.021276,86.634866 C 28.524056,84.480516 28.192606,83.403276 28.026896,83.403156 C 27.529686,82.077446 26.783916,81.414536 25.789566,81.414416 C 26.120996,82.906096 27.198236,84.646236 29.021276,86.634866 M 63.575685,111.99135 C 62.581255,113.483 60.841105,115.14028 58.355235,116.96321 C 56.863625,117.79194 55.869255,119.36636 55.372125,121.68647 C 56.034985,120.85791 57.195085,119.94641 58.852425,118.95195 C 62.166935,116.96329 63.741355,114.6431 63.575685,111.99135 M 73.519405,129.39286 C 72.524965,129.55866 71.944915,130.13871 71.779255,131.13301 L 72.027845,131.13301 C 72.690695,130.80162 73.187885,130.22157 73.519405,129.39286 M 79.485635,136.60205 C 78.988375,136.43639 78.656915,136.76785 78.491265,137.59642 C 78.325465,138.2594 78.242595,138.59086 78.242675,138.59079 L 79.237045,138.59079 C 79.236965,138.09367 79.319835,137.43076 79.485635,136.60205 M 72.773625,131.3816 C 72.607835,131.38167 72.276375,131.5474 71.779255,131.87878 C 71.779185,132.04458 71.862055,132.29318 72.027845,132.62456 C 72.359235,132.62463 72.524965,132.45891 72.525035,132.12738 C 72.524965,131.63026 72.607835,131.38167 72.773625,131.3816 M 69.293325,128.14989 C 68.961805,128.31569 68.630345,128.64715 68.298955,129.14426 L 68.547545,129.14426 C 69.044665,128.48142 69.293265,128.14997 69.293325,128.14989 M 65.067245,114.22869 C 64.570005,116.05179 62.829855,117.95766 59.846795,119.94632 C 57.029355,121.93515 55.372075,123.92389 54.874935,125.91255 C 55.372075,125.58117 56.034985,125.24972 56.863675,124.91818 C 61.338295,122.26661 64.072815,118.70344 65.067245,114.22869 M 75.508155,134.11612 C 75.176625,134.44765 74.679435,134.69624 74.016595,134.8619 L 74.762375,135.85627 L 75.010965,135.35909 C 74.845165,135.52488 74.679435,135.44202 74.513775,135.11049 L 75.508155,134.11612 M 70.287695,129.64145 L 70.287695,128.89567 C 70.121905,128.56429 69.956175,128.39856 69.790515,128.39848 C 70.121905,128.73002 70.039035,129.14434 69.541915,129.64145 C 69.210395,129.97298 69.210395,130.30444 69.541915,130.63582 C 69.210395,130.96735 69.044665,131.13308 69.044735,131.13301 L 69.044735,132.37597 C 68.878945,132.04458 69.044665,131.46453 69.541915,130.63582 L 69.790515,131.13301 C 70.121905,130.80162 70.121905,130.47016 69.790515,130.13863 C 69.624715,129.80725 69.707585,129.55866 70.039105,129.39286 L 70.287695,129.64145 M 68.050365,117.95758 C 67.221655,124.08962 65.232915,129.72439 62.084135,134.8619 C 65.895825,131.5474 67.884565,125.91263 68.050365,117.95758 M 68.547545,129.64145 C 67.884565,129.80725 67.470245,130.3873 67.304585,131.3816 C 67.801705,131.05021 68.216025,130.47016 68.547545,129.64145 M 68.050365,131.63019 C 67.884565,131.79599 67.635975,131.87886 67.304585,131.87878 C 67.304515,132.04458 67.387385,132.29318 67.553175,132.62456 C 68.050295,132.12745 68.216025,131.79599 68.050365,131.63019 M 74.513775,139.08798 C 74.347975,138.59086 74.016525,138.01081 73.519405,137.34783 L 73.022225,139.58517 C 73.685065,139.75096 74.182255,139.58523 74.513775,139.08798 M 70.536295,134.36471 C 70.039035,134.03333 69.707585,134.11619 69.541915,134.61331 C 69.376125,134.94483 69.293265,135.27629 69.293325,135.60768 C 69.458985,135.77347 69.541855,135.85634 69.541915,135.85627 C 69.873315,135.52488 70.204765,135.0277 70.536295,134.36471 M 68.298955,137.34783 C 67.801705,137.67935 66.890195,137.76222 65.564435,137.59642 C 65.067185,137.76222 64.487135,137.67935 63.824285,137.34783 C 63.327035,136.85071 62.995575,136.60212 62.829915,136.60205 C 62.498395,136.76785 62.084075,137.0993 61.586945,137.59642 C 60.426785,137.43076 59.018095,137.92794 57.360865,139.08798 C 55.703525,140.24814 54.294835,140.66246 53.134785,140.33094 C 52.803275,139.66809 51.891775,139.25377 50.400266,139.08798 C 48.908666,138.75659 48.245746,138.01081 48.411516,136.85064 C 48.411476,135.35915 48.991526,133.37041 50.151676,130.88441 C 51.477456,128.23283 52.140365,126.32695 52.140415,125.16678 C 52.140365,123.84103 52.471825,122.34947 53.134785,120.6921 C 53.963375,119.0349 54.294835,117.62621 54.129155,116.46602 C 56.615035,112.98581 57.443675,110.33416 56.615085,108.51105 C 56.615035,108.34541 57.940865,105.61089 60.592575,100.30748 L 59.349605,100.30748 C 57.692265,98.81603 57.112215,95.418586 57.609455,90.115166 C 57.443675,90.612466 57.029355,91.109646 56.366495,91.606726 C 56.366445,91.109646 56.117845,90.446736 55.620715,89.617976 L 54.874935,90.363756 C 55.040615,88.209406 56.863625,84.729106 60.343985,79.922856 L 60.343985,79.425666 L 59.846795,79.425666 C 57.195085,82.574636 53.880515,87.712216 49.903076,94.838436 C 48.908666,96.16437 44.516856,99.8104 36.727656,105.77653 C 31.258576,109.91983 28.441196,114.31164 28.275496,118.95195 C 28.275466,123.4267 28.026876,129.64152 27.529716,137.59642 C 26.535316,138.2594 26.038136,139.33664 26.038156,140.82813 C 26.038136,141.32538 26.038136,141.90543 26.038156,142.56828 C 26.203866,143.39698 26.286726,143.97703 26.286746,144.30843 C 26.286726,146.1315 25.375216,147.2916 23.552226,147.78873 C 23.883666,147.78879 24.297986,147.87165 24.795196,148.03733 C 25.126626,148.03738 25.375216,147.87165 25.540966,147.54014 C 25.706676,147.04301 25.955266,146.71155 26.286746,146.54577 C 26.286726,146.54582 26.203866,147.04301 26.038156,148.03733 C 28.855516,147.70592 32.915866,146.54582 38.219206,144.55702 C 34.075966,136.60212 31.424306,129.47579 30.264236,123.17803 C 29.932756,124.00675 29.767026,124.91826 29.767046,125.91255 C 29.767026,126.907 29.932756,128.39856 30.264236,130.38723 C 30.595666,132.37604 30.761396,133.78473 30.761426,134.61331 C 30.761396,136.93357 30.015616,138.83945 28.524086,140.33094 L 28.275496,139.83376 C 28.441196,139.17091 28.938386,138.09367 29.767046,136.60205 C 29.601296,132.62463 29.435566,128.64715 29.269866,124.66959 C 29.104106,119.69781 29.849886,115.88606 31.507196,113.23431 C 31.507176,113.56586 31.341446,114.22877 31.010016,115.22306 C 30.844256,116.21752 30.761396,116.96329 30.761426,117.46039 C 32.418676,127.56992 35.484656,136.35352 39.959356,143.81125 C 41.285156,143.31412 43.108166,142.48548 45.428406,141.32532 C 47.914286,140.82819 50.980266,141.49111 54.626345,143.31406 C 58.272315,144.9714 61.172565,145.71718 63.327095,145.5514 C 64.487135,145.38573 65.398645,144.72281 66.061615,143.56265 C 67.387385,141.7397 68.050295,140.82819 68.050365,140.82813 C 67.553115,139.50237 67.635975,138.34227 68.298955,137.34783 M 71.779255,140.57954 L 71.779255,138.09361 L 70.784885,138.09361 L 70.536295,140.57954 L 71.779255,140.57954 M 70.039105,138.09361 C 69.873315,137.76222 69.707585,137.59649 69.541915,137.59642 C 69.210395,138.09367 69.044665,138.67372 69.044735,139.33657 C 69.044665,139.50237 69.293265,139.66809 69.790515,139.83376 C 69.624715,139.33664 69.707585,138.75659 70.039105,138.09361 M 65.813025,135.11049 L 65.813025,134.61331 C 65.481505,134.7791 65.232915,135.19343 65.067245,135.85627 C 65.564375,135.35915 65.812965,135.11056 65.813025,135.11049 M 124.48096,177.37129 C 121.99492,175.21685 119.75758,171.65369 117.76896,166.6818 C 116.44301,165.85319 114.86859,164.19591 113.04569,161.70994 C 111.3883,159.05832 109.73101,157.40104 108.07383,156.73808 C 108.07373,156.07521 107.74227,155.24657 107.07946,154.25215 C 106.58217,153.25783 106.33358,152.59491 106.33368,152.26341 C 107.16222,151.43481 108.23945,150.10899 109.56539,148.28592 C 110.2282,147.12587 109.9796,145.71718 108.81961,144.05984 C 106.33358,142.8998 105.09061,142.23688 105.09072,142.0711 C 98.295748,139.91669 92.909565,138.67372 88.932165,138.3422 C 88.434895,138.50799 87.440525,138.59086 85.949055,138.59079 C 86.611885,138.42513 87.606255,138.01081 88.932165,137.34783 C 86.114705,136.68498 83.545905,137.92794 81.225785,141.07672 C 81.722895,140.74533 82.551535,140.74533 83.711715,141.07672 L 83.463125,141.32532 C 81.805765,141.98829 80.148475,142.23688 78.491265,142.0711 C 78.988375,141.40824 79.651295,141.15965 80.480005,141.32532 C 76.999635,141.15965 74.513705,143.06553 73.022225,147.04295 C 71.199135,152.01486 69.458985,154.99798 67.801765,155.9923 L 63.078505,155.9923 C 63.907085,156.15808 65.150045,156.3238 66.807395,156.48949 C 68.464615,155.99235 69.707585,155.82662 70.536295,155.9923 C 69.210395,156.65526 67.553115,156.98672 65.564435,156.98667 C 64.570005,156.98672 62.995575,156.90385 60.841165,156.73808 C 58.852365,156.5724 57.360815,156.48953 56.366495,156.48949 C 53.880515,156.48953 51.808905,156.90385 50.151676,157.73245 C 52.803275,160.05269 56.863625,163.45013 62.332725,167.92476 C 73.933655,174.88539 85.037465,178.94574 95.644178,180.10582 C 106.25071,181.26594 115.86296,180.35443 124.48096,177.37129 M 63.078505,125.16678 C 60.923975,128.81288 59.432415,131.21594 58.603835,132.37597 C 56.780765,135.0277 54.792025,137.18217 52.637595,138.83939 C 53.797655,139.33664 55.206345,139.08804 56.863675,138.09361 C 59.846735,134.11619 61.918345,129.80725 63.078505,125.16678 M 35.484686,199.24747 L 35.484686,199.24747 M 28.026896,195.76717 C 26.866776,195.76718 25.043766,195.85004 22.557856,196.01576 C 23.883666,196.01577 25.706676,195.93291 28.026896,195.76717 M 137.1592,41.390946 L 133.9275,44.871256 L 137.1592,41.390946 M 136.41343,51.831856 C 132.76727,53.820746 130.3642,57.632496 129.20423,63.267126 C 128.70692,65.090286 126.22099,67.741936 121.74644,71.222106 L 126.96689,67.493206 C 127.96114,66.333246 128.87265,64.013046 129.70142,60.532606 C 130.52993,57.052456 131.93862,54.732256 133.9275,53.572006 C 133.92737,53.572156 134.75601,52.992106 136.41343,51.831856 M 104.59353,63.018536 C 103.2676,61.361396 101.03027,59.289786 97.881518,56.803716 C 99.704438,58.792596 101.94177,60.864206 104.59353,63.018536 M 166.24458,118.70336 C 163.59276,121.3551 159.69814,125.08399 154.56071,129.89004 L 154.56071,131.13301 C 154.56056,131.13308 154.64342,130.47016 154.8093,129.14426 C 157.29508,126.65841 161.10683,123.17811 166.24458,118.70336 M 125.72393,98.31874 C 125.22662,98.6503 124.39798,99.23035 123.238,100.05889 L 123.48659,99.8103 C 123.32074,99.47894 123.15502,99.39608 122.98941,99.5617 L 125.72393,98.31874 M 156.05227,104.78215 C 154.56056,106.27381 152.24036,108.09682 149.09167,110.2512 C 141.13655,110.58275 133.92737,112.57149 127.46408,116.21743 C 125.14376,117.8748 122.40924,120.77505 119.26051,124.91818 C 118.1003,125.24972 115.53151,127.15559 111.55413,130.63582 L 115.53162,126.90693 C 115.69724,126.74127 116.69161,126.24409 118.51473,125.41537 C 119.84045,124.75253 120.4205,123.84103 120.25488,122.68085 C 125.88954,116.38324 133.34732,112.57149 142.62825,111.24557 C 143.29102,111.41139 144.0368,111.49425 144.86559,111.49416 C 146.85419,111.49425 148.76006,110.74848 150.58322,109.25683 C 152.40609,107.76536 154.2291,106.27381 156.05227,104.78215 M 120.25488,103.2906 L 119.26051,105.52793 L 118.76333,106.02512 L 120.25488,103.2906 M 60.592575,47.854366 L 60.592575,47.854366 M 72.773625,70.227736 C 72.773555,70.227866 70.784815,71.553696 66.807395,74.205216 C 67.967435,73.045246 69.956175,71.719416 72.773625,70.227736 M 87.937795,89.120796 C 86.611885,91.275376 85.037465,92.186886 83.214535,91.855316 C 82.882995,91.855426 82.137215,90.861056 80.977195,88.872206 C 80.479935,87.049306 81.059985,85.640606 82.717345,84.646126 C 85.368925,83.154686 86.777615,82.243176 86.943425,81.911596 L 87.689205,81.911596 C 87.191935,82.740366 87.191935,83.900466 87.689205,85.391896 C 88.020575,87.049306 88.103445,88.292266 87.937795,89.120796 M 142.87684,153.25778 C 139.39641,154.58366 136.1647,156.24094 133.18172,158.22964 C 135.17033,156.90385 138.40203,155.24657 142.87684,153.25778 M 74.016595,88.623606 C 74.182255,90.446736 73.850795,92.104016 73.022225,93.595466 C 72.359235,94.092766 71.199135,94.589946 69.541915,95.087026 C 67.718845,94.755676 66.475875,92.932666 65.813025,89.617976 C 65.812965,89.618096 66.227285,88.375126 67.055995,85.889086 L 65.813025,84.397526 C 65.647235,84.397646 66.807335,84.894836 69.293325,85.889086 C 70.121905,86.054936 71.033415,86.303526 72.027845,86.634866 C 73.187885,86.966436 73.850795,87.629356 74.016595,88.623606 M 121.00066,153.25778 C 119.67472,152.42919 117.76884,150.7719 115.28303,148.28592 C 115.28291,145.96578 113.21131,142.98266 109.0682,139.33657 L 110.06257,138.59079 L 109.0682,139.58517 C 110.39392,140.41387 111.96835,141.90543 113.79147,144.05984 C 113.62563,146.21437 116.02869,149.28034 121.00066,153.25778 M 116.0288,157.48386 L 114.28865,155.49511 L 116.0288,157.48386 M 125.22674,170.90788 C 123.56934,170.07927 122.32637,168.17339 121.49785,165.19024 C 120.66909,162.20716 119.67472,160.30129 118.51473,159.4726 C 119.84045,160.30129 120.83482,162.20716 121.49785,165.19024 C 122.32637,168.17339 123.56934,170.07927 125.22674,170.90788 M 85.949055,138.83939 L 83.960315,140.82813 L 83.711715,140.82813 L 85.949055,138.83939 M 54.626345,90.363756 C 53.631925,92.518346 51.560316,95.584316 48.411516,99.5617 C 47.582836,100.22472 44.516856,102.21346 39.213586,105.52793 C 35.567516,107.84823 33.081596,110.41702 31.755796,113.23431 C 33.247326,110.41702 36.893346,107.18531 42.693886,103.53919 C 48.494336,99.89326 51.974635,96.16437 53.134785,92.352506 L 54.626345,90.363756 M 78.491265,142.56828 L 76.751115,143.56265 C 75.922395,146.54582 73.850795,150.60617 70.536295,155.74371 C 72.027785,154.41793 73.187885,152.51205 74.016595,150.02607 C 75.342355,146.3801 76.170995,144.39135 76.502525,144.05984 C 76.833905,143.56271 77.496825,143.06553 78.491265,142.56828 M 28.275496,140.33094 C 28.275466,140.16528 28.275466,141.40824 28.275496,144.05984 C 28.275466,145.55145 27.695416,146.3801 26.535346,146.54577 C 27.529686,146.3801 28.026876,145.38573 28.026896,143.56265 C 28.026876,141.57397 28.109736,140.49674 28.275496,140.33094 M 83.960315,87.132056 L 83.960315,85.640496 L 83.463125,85.640496 C 83.131585,85.640606 82.965855,86.054936 82.965935,86.883456 C 82.965855,86.883576 83.297315,86.966436 83.960315,87.132056 M 86.943425,86.883456 C 86.777615,84.894836 86.280425,84.149056 85.451865,84.646126 C 85.451785,84.646236 85.783245,85.557746 86.446235,87.380646 C 86.611885,88.043676 86.280425,88.706586 85.451865,89.369386 C 84.788875,90.032416 84.374555,90.446736 84.208905,90.612356 C 83.545905,90.612466 82.717265,90.115276 81.722975,89.120796 C 81.722895,89.120906 82.220085,89.783826 83.214535,91.109536 C 83.380185,91.275376 83.711635,91.358246 84.208905,91.358136 C 84.540275,91.358246 84.871735,91.275376 85.203275,91.109536 C 86.694745,90.446736 87.274795,89.038046 86.943425,86.883456 M 71.779255,88.623606 C 71.447735,87.960806 70.950545,87.712216 70.287695,87.877826 L 70.287695,89.369386 L 71.530665,89.369386 C 71.696325,89.369506 71.779185,89.120906 71.779255,88.623606 M 73.022225,91.358136 C 71.862055,92.849796 70.701955,93.429846 69.541915,93.098286 C 68.547485,92.435476 68.050295,91.441106 68.050365,90.115166 C 68.216025,88.955176 68.298895,87.795076 68.298955,86.634866 L 67.801765,86.634866 C 67.470245,87.629356 67.304515,88.789456 67.304585,90.115166 C 67.304515,91.275376 67.470245,92.352616 67.801765,93.346876 C 69.127535,94.009896 70.536225,94.092766 72.027845,93.595466 C 72.690695,91.938296 73.022155,91.109646 73.022225,91.109536 L 73.022225,91.358136"
       id="text1339" />
  </g>
</svg>
