<?xml version="1.0" encoding="UTF-8" standalone="no"?>
<!-- Created with Inkscape (http://www.inkscape.org/) -->

<svg
   xmlns:dc="http://purl.org/dc/elements/1.1/"
   xmlns:cc="http://creativecommons.org/ns#"
   xmlns:rdf="http://www.w3.org/1999/02/22-rdf-syntax-ns#"
   xmlns:svg="http://www.w3.org/2000/svg"
   xmlns="http://www.w3.org/2000/svg"
   xmlns:xlink="http://www.w3.org/1999/xlink"
   xmlns:sodipodi="http://sodipodi.sourceforge.net/DTD/sodipodi-0.dtd"
   xmlns:inkscape="http://www.inkscape.org/namespaces/inkscape"
   width="93.165207"
   height="124.80554"
   id="svg2"
   sodipodi:version="0.32"
   inkscape:version="0.48.1 r9760"
   sodipodi:docname="nicubunu_Goat_head.svg"
   inkscape:export-filename="/home/nicu/Desktop/goat.png"
   inkscape:export-xdpi="90.000000"
   inkscape:export-ydpi="90.000000"
   version="1.1">
  <defs
     id="defs3">
    <linearGradient
       inkscape:collect="always"
       id="linearGradient13173">
      <stop
         style="stop-color:#e7b078;stop-opacity:1;"
         offset="0"
         id="stop13175" />
      <stop
         style="stop-color:#e7b078;stop-opacity:0;"
         offset="1"
         id="stop13177" />
    </linearGradient>
    <linearGradient
       inkscape:collect="always"
       id="linearGradient7792">
      <stop
         style="stop-color:#ffffff;stop-opacity:1;"
         offset="0"
         id="stop7794" />
      <stop
         style="stop-color:#ffffff;stop-opacity:0;"
         offset="1"
         id="stop7796" />
    </linearGradient>
    <linearGradient
       inkscape:collect="always"
       xlink:href="#linearGradient7792"
       id="linearGradient13218"
       gradientUnits="userSpaceOnUse"
       x1="407.50073"
       y1="245.97594"
       x2="400.89575"
       y2="164.13118"
       gradientTransform="matrix(0.170824,0,0,0.170824,8.92206,-25.44559)" />
    <linearGradient
       inkscape:collect="always"
       xlink:href="#linearGradient7792"
       id="linearGradient13221"
       gradientUnits="userSpaceOnUse"
       x1="571.8266"
       y1="350.69843"
       x2="485.4986"
       y2="270.17249"
       gradientTransform="matrix(0.170824,0,0,0.170824,8.92206,-25.44559)" />
    <linearGradient
       inkscape:collect="always"
       xlink:href="#linearGradient7792"
       id="linearGradient13224"
       gradientUnits="userSpaceOnUse"
       x1="156.97771"
       y1="302.47543"
       x2="246.78027"
       y2="287.27264"
       gradientTransform="matrix(0.170824,0,0,0.170824,8.92206,-25.44559)" />
    <linearGradient
       inkscape:collect="always"
       xlink:href="#linearGradient7792"
       id="linearGradient13227"
       gradientUnits="userSpaceOnUse"
       x1="367.35037"
       y1="360.53241"
       x2="416.91986"
       y2="260.58954"
       gradientTransform="matrix(0.170824,0,0,0.170824,8.92206,-25.44559)" />
    <linearGradient
       inkscape:collect="always"
       xlink:href="#linearGradient7792"
       id="linearGradient13230"
       gradientUnits="userSpaceOnUse"
       x1="128.742"
       y1="641.76855"
       x2="168.33768"
       y2="567.04138"
       gradientTransform="matrix(0.170824,0,0,0.170824,8.92206,-25.44559)" />
    <linearGradient
       inkscape:collect="always"
       xlink:href="#linearGradient7792"
       id="linearGradient13233"
       gradientUnits="userSpaceOnUse"
       x1="290.78638"
       y1="530.49005"
       x2="324.90097"
       y2="460.63632"
       gradientTransform="matrix(0.170824,0,0,0.170824,8.92206,-25.44559)" />
    <linearGradient
       inkscape:collect="always"
       xlink:href="#linearGradient13173"
       id="linearGradient13246"
       gradientUnits="userSpaceOnUse"
       x1="305"
       y1="933.36218"
       x2="297.37988"
       y2="757.36218"
       gradientTransform="matrix(0.170824,0,0,0.170824,8.92206,-25.44559)" />
    <linearGradient
       inkscape:collect="always"
       xlink:href="#linearGradient7792"
       id="linearGradient14017"
       x1="45.536491"
       y1="48.355782"
       x2="32.411266"
       y2="27.909006"
       gradientUnits="userSpaceOnUse" />
    <linearGradient
       inkscape:collect="always"
       xlink:href="#linearGradient13173"
       id="linearGradient14042"
       gradientUnits="userSpaceOnUse"
       gradientTransform="matrix(0.170824,0,0,0.170824,8.92206,-25.44559)"
       x1="305"
       y1="933.36218"
       x2="297.37988"
       y2="757.36218" />
    <linearGradient
       inkscape:collect="always"
       xlink:href="#linearGradient7792"
       id="linearGradient14044"
       gradientUnits="userSpaceOnUse"
       gradientTransform="matrix(0.170824,0,0,0.170824,8.92206,-25.44559)"
       x1="290.78638"
       y1="530.49005"
       x2="324.90097"
       y2="460.63632" />
    <linearGradient
       inkscape:collect="always"
       xlink:href="#linearGradient7792"
       id="linearGradient14046"
       gradientUnits="userSpaceOnUse"
       gradientTransform="matrix(0.170824,0,0,0.170824,8.92206,-25.44559)"
       x1="128.742"
       y1="641.76855"
       x2="168.33768"
       y2="567.04138" />
    <linearGradient
       inkscape:collect="always"
       xlink:href="#linearGradient7792"
       id="linearGradient14048"
       gradientUnits="userSpaceOnUse"
       gradientTransform="matrix(0.170824,0,0,0.170824,8.92206,-25.44559)"
       x1="367.35037"
       y1="360.53241"
       x2="416.91986"
       y2="260.58954" />
    <linearGradient
       inkscape:collect="always"
       xlink:href="#linearGradient7792"
       id="linearGradient14050"
       gradientUnits="userSpaceOnUse"
       gradientTransform="matrix(0.170824,0,0,0.170824,8.92206,-25.44559)"
       x1="156.97771"
       y1="302.47543"
       x2="246.78027"
       y2="287.27264" />
    <linearGradient
       inkscape:collect="always"
       xlink:href="#linearGradient7792"
       id="linearGradient14052"
       gradientUnits="userSpaceOnUse"
       gradientTransform="matrix(0.170824,0,0,0.170824,8.92206,-25.44559)"
       x1="571.8266"
       y1="350.69843"
       x2="485.4986"
       y2="270.17249" />
    <linearGradient
       inkscape:collect="always"
       xlink:href="#linearGradient7792"
       id="linearGradient14054"
       gradientUnits="userSpaceOnUse"
       gradientTransform="matrix(0.170824,0,0,0.170824,8.92206,-25.44559)"
       x1="407.50073"
       y1="245.97594"
       x2="400.89575"
       y2="164.13118" />
    <linearGradient
       inkscape:collect="always"
       xlink:href="#linearGradient7792"
       id="linearGradient14056"
       gradientUnits="userSpaceOnUse"
       x1="45.536491"
       y1="48.355782"
       x2="32.411266"
       y2="27.909006" />
    <linearGradient
       y2="57.79884"
       x2="105.36873"
       y1="40.248547"
       x1="103.69408"
       gradientUnits="userSpaceOnUse"
       id="linearGradient1342"
       xlink:href="#linearGradient7792"
       inkscape:collect="always" />
    <linearGradient
       y2="270.17249"
       x2="485.4986"
       y1="350.69843"
       x1="571.8266"
       gradientTransform="matrix(0.170824,0,0,0.170824,3.92206,-25.44559)"
       gradientUnits="userSpaceOnUse"
       id="linearGradient1351"
       xlink:href="#linearGradient7792"
       inkscape:collect="always" />
    <linearGradient
       y2="287.27264"
       x2="246.78027"
       y1="302.47543"
       x1="156.97771"
       gradientTransform="matrix(0.170824,0,0,0.170824,3.92206,-25.44559)"
       gradientUnits="userSpaceOnUse"
       id="linearGradient1354"
       xlink:href="#linearGradient7792"
       inkscape:collect="always" />
    <linearGradient
       y2="567.04138"
       x2="168.33768"
       y1="641.76855"
       x1="128.742"
       gradientTransform="matrix(0.170824,0,0,0.170824,3.92206,-25.44559)"
       gradientUnits="userSpaceOnUse"
       id="linearGradient1360"
       xlink:href="#linearGradient7792"
       inkscape:collect="always" />
    <linearGradient
       y2="460.63632"
       x2="324.90097"
       y1="530.49005"
       x1="290.78638"
       gradientTransform="matrix(0.170824,0,0,0.170824,3.92206,-25.44559)"
       gradientUnits="userSpaceOnUse"
       id="linearGradient1363"
       xlink:href="#linearGradient7792"
       inkscape:collect="always" />
    <linearGradient
       y2="757.36218"
       x2="297.37988"
       y1="933.36218"
       x1="305"
       gradientTransform="matrix(0.170824,0,0,0.170824,3.92206,-25.44559)"
       gradientUnits="userSpaceOnUse"
       id="linearGradient1376"
       xlink:href="#linearGradient13173"
       inkscape:collect="always" />
    <linearGradient
       gradientUnits="userSpaceOnUse"
       y2="18.461538"
       x2="71.384621"
       y1="-9.0476794e-07"
       x1="51.89743"
       id="linearGradient3240"
       xlink:href="#linearGradient13173"
       inkscape:collect="always" />
    <linearGradient
       y2="757.36218"
       x2="297.37988"
       y1="933.36218"
       x1="305"
       gradientTransform="matrix(0.170824,0,0,0.170824,3.92206,-25.44559)"
       gradientUnits="userSpaceOnUse"
       id="linearGradient3263"
       xlink:href="#linearGradient13173"
       inkscape:collect="always" />
    <linearGradient
       y2="460.63632"
       x2="324.90097"
       y1="530.49005"
       x1="290.78638"
       gradientTransform="matrix(0.170824,0,0,0.170824,3.92206,-25.44559)"
       gradientUnits="userSpaceOnUse"
       id="linearGradient3265"
       xlink:href="#linearGradient7792"
       inkscape:collect="always" />
    <linearGradient
       y2="567.04138"
       x2="168.33768"
       y1="641.76855"
       x1="128.742"
       gradientTransform="matrix(0.170824,0,0,0.170824,3.92206,-25.44559)"
       gradientUnits="userSpaceOnUse"
       id="linearGradient3267"
       xlink:href="#linearGradient7792"
       inkscape:collect="always" />
    <linearGradient
       y2="287.27264"
       x2="246.78027"
       y1="302.47543"
       x1="156.97771"
       gradientTransform="matrix(0.170824,0,0,0.170824,3.92206,-25.44559)"
       gradientUnits="userSpaceOnUse"
       id="linearGradient3269"
       xlink:href="#linearGradient7792"
       inkscape:collect="always" />
    <linearGradient
       y2="270.17249"
       x2="485.4986"
       y1="350.69843"
       x1="571.8266"
       gradientTransform="matrix(0.170824,0,0,0.170824,3.92206,-25.44559)"
       gradientUnits="userSpaceOnUse"
       id="linearGradient3271"
       xlink:href="#linearGradient7792"
       inkscape:collect="always" />
    <linearGradient
       y2="57.79884"
       x2="105.36873"
       y1="40.248547"
       x1="103.69408"
       gradientUnits="userSpaceOnUse"
       id="linearGradient3273"
       xlink:href="#linearGradient7792"
       inkscape:collect="always" />
    <linearGradient
       y2="18.461538"
       x2="71.384621"
       y1="-9.0476794e-07"
       x1="51.89743"
       gradientUnits="userSpaceOnUse"
       id="linearGradient3275"
       xlink:href="#linearGradient13173"
       inkscape:collect="always" />
  </defs>
  <sodipodi:namedview
     id="base"
     pagecolor="#ffffff"
     bordercolor="#666666"
     borderopacity="1.0"
     inkscape:pageopacity="0.0"
     inkscape:pageshadow="2"
     inkscape:zoom="1"
     inkscape:cx="42.078149"
     inkscape:cy="62.930546"
     inkscape:document-units="px"
     inkscape:current-layer="layer1"
     inkscape:window-width="1152"
     inkscape:window-height="791"
     inkscape:window-x="0"
     inkscape:window-y="24"
     showguides="true"
     inkscape:guide-bbox="true"
     showgrid="false"
     fit-margin-top="0"
     fit-margin-left="0"
     fit-margin-right="0"
     fit-margin-bottom="0"
     inkscape:window-maximized="0" />
  <metadata
     id="metadata4">
    <rdf:RDF>
      <cc:Work
         rdf:about="">
        <dc:format>image/svg+xml</dc:format>
        <dc:type
           rdf:resource="http://purl.org/dc/dcmitype/StillImage" />
      </cc:Work>
    </rdf:RDF>
  </metadata>
  <g
     inkscape:label="Layer 1"
     inkscape:groupmode="layer"
     id="layer1"
     transform="translate(-21.921851,-2.1250024)">
    <g
       transform="matrix(0.946891,0,0,0.946891,0.217346,5.794205)"
       id="g3242">
      <path
         style="fill:#000000;fill-opacity:1;fill-rule:evenodd;stroke:none"
         d="m 37.34375,3.21875 c -4.042719,9.615574 -6.841882,22.828211 1.625,30.90625 -6.704897,9.952925 -1.131248,23.998753 -9.669448,33.302846 C 25.67344,69.199074 19.966069,78.234169 24.75,82.78125 c 1.100514,4.328737 3.408163,7.21479 5.866344,8.473262 3.433859,2.898726 8.739844,3.303425 12.014417,5.062917 3.878456,7.337431 2.2963,16.097531 -1.380761,23.182571 3.309959,2.04424 10.348184,-3.49105 10.077279,-2.05566 -1.018875,4.48579 -7.247295,14.45332 1.250157,8.79154 4.061874,-0.60854 7.556536,-5.8213 8.578814,-7.95463 -0.393467,10.28105 3.830665,0.33379 6.3125,-3.75 3.304867,-9.17545 -4.409149,-16.779707 -7.46875,-24.75 5.428615,-6.276066 2.792884,2.318051 6.896432,4.239367 9.630651,5.099551 23.822116,0.456534 28.759818,-9.208117 0.731359,-8.25527 2.100858,-16.475837 2.0625,-24.78125 8.41687,-0.412304 16.72295,-2.340995 23.59375,-7.4375 -6.19289,-7.748552 -16.80549,-14.996572 -26.84375,-9.8125 -1.944421,-4.926482 6.14005,-5.210869 7.5625,-9.40625 7.66396,-9.551371 2.79131,-22.308439 -2.6875,-31.59375 -0.632768,8.514989 -0.799824,18.285846 -8.9359,23.428935 C 87.132481,28.685256 84.27052,21.649588 80.25,21.375 77.444825,19.644931 77.020657,14.022897 72.356542,12.950431 63.858305,8.5842989 50.880701,12.429747 48.0625,22.0625 41.757869,14.89032 41.441006,5.0861533 40.09375,-3.875 c -0.916667,2.3645833 -1.833333,4.72916667 -2.75,7.09375 z"
         id="path2437"
         inkscape:connector-curvature="0" />
      <path
         sodipodi:nodetypes="cssc"
         id="path2144"
         d="m 39.213195,3.9396809 c 0.336106,11.0434851 5.857849,17.9096511 9.651045,22.3270451 2.552758,2.972833 -5.346002,9.090615 -8.066545,6.91418 -7.922499,-6.337999 -6.193953,-20.742543 -1.5845,-29.2412251 z"
         style="fill:#9e4100;fill-opacity:1;fill-rule:evenodd;stroke:none"
         inkscape:connector-curvature="0" />
      <path
         sodipodi:nodetypes="ccccccsc"
         id="path2158"
         d="m 57.165379,87.752394 c 1.824577,9.651045 15.082238,19.179786 5.95936,30.271286 0,-4.03328 -2.448773,-7.49037 -2.59282,-11.81173 -0.28809,3.169 1.584502,15.55691 -9.651043,18.58186 2.160681,-4.89755 3.889226,-10.51532 3.889226,-17.14141 -1.584498,4.32137 -5.473725,10.51532 -10.515317,9.79509 4.753499,-9.65104 2.592818,-18.293769 -0.576182,-23.623451 -3.168999,-5.329681 8.589232,-1.1741 13.486776,-6.071645 z"
         style="fill:#ffffff;fill-opacity:1;fill-rule:evenodd;stroke:none"
         inkscape:connector-curvature="0" />
      <path
         style="fill:url(#linearGradient3263);fill-opacity:1;fill-rule:evenodd;stroke:none"
         d="m 57.165379,87.752394 c 1.824577,9.651045 15.082238,19.179786 5.95936,30.271286 0,-4.03328 -2.448773,-7.49037 -2.59282,-11.81173 -0.28809,3.169 1.584502,15.55691 -9.651043,18.58186 2.160681,-4.89755 3.889226,-10.51532 3.889226,-17.14141 -1.584498,4.32137 -5.473725,10.51532 -10.515317,9.79509 4.753499,-9.65104 2.592818,-18.293769 -0.576182,-23.623451 -3.168999,-5.329681 8.589232,-1.1741 13.486776,-6.071645 z"
         id="path13171"
         sodipodi:nodetypes="ccccccsc"
         inkscape:connector-curvature="0" />
      <path
         id="path2154"
         d="m 59.858974,20.690705 c -11.79918,1.353963 -15.495367,10.117673 -19.6875,15.19391 -3.62886,3.548106 -2.986383,21.507408 -4.858974,25.396635 -1.872589,3.889227 -12.231873,15.669481 -7.46875,24.46875 2.948045,5.446139 9.773863,2.544758 13.375,0.875 -0.367309,1.776751 -5.586644,3.099143 -8.03125,3.75 1.218779,1.1081 7.104862,4.459497 13.875,2.875 10.515317,-2.160683 16.507773,-8.785138 18.8125,-9.9375 0.144046,2.304727 -0.703471,6.309965 1.28125,8.5 4.177317,4.609453 21.314361,2.576339 26.5,-7.21875 C 93.822187,78.288162 96.12912,68.02935 95.75,58.25 103.30514,57.265106 111.03334,57.630315 118.03125,52.1875 111.56379,44.14572 102.28093,39.962476 93,45.71875 91.885144,43.346141 92.966118,39.449752 90.930288,37.577724 89.219749,22.009638 72.344788,20.143501 59.858974,20.690705 z"
         style="fill:#e7b078;fill-opacity:1;fill-rule:evenodd;stroke:none"
         sodipodi:nodetypes="ccssccccscccccc"
         inkscape:connector-curvature="0" />
      <path
         sodipodi:nodetypes="cssssscc"
         id="path8568"
         d="m 26.509942,81.727852 c 0,0 9.784055,-6.039541 11.475126,-8.576147 C 39.67614,70.615096 47.769123,64.817139 49.339404,59.13997 50.909685,53.462802 55.829247,44.195748 60.331368,40.737771 75.825441,28.837125 80.961647,34.023382 80.745014,45.249027 80.570219,54.306652 74.584684,72.910122 64.559045,75.56752 54.533409,78.224918 45.517198,88.648434 41.004838,86.801065 36.721334,88.615388 28.281164,92.401878 26.509942,81.727852 z"
         style="fill:#f7e5d3;fill-opacity:1;fill-rule:evenodd;stroke:none"
         inkscape:connector-curvature="0" />
      <path
         sodipodi:nodetypes="cssc"
         id="path2142"
         d="M 100.57655,8.5491359 C 113.3966,33.468997 87.584764,41.47985 84.991946,41.76794 82.399128,42.056031 78.481909,36.95379 80.64259,34.36097 83.134119,31.371135 101.58487,25.690544 100.57655,8.5491359 z"
         style="fill:#9e4100;fill-opacity:1;fill-rule:evenodd;stroke:none"
         inkscape:connector-curvature="0" />
      <path
         sodipodi:nodetypes="csscc"
         id="path2146"
         d="m 29.706195,70.632724 c 0,0 4.033271,3.45709 8.642726,2.016635 1.435422,-0.44857 -2.304727,9.074863 -6.193953,9.651045 -3.889227,0.576183 -6.482045,0.28809 -6.770136,-2.304726 -0.414534,-2.080618 0.720226,-6.914182 4.321363,-9.362954 z"
         style="fill:#000100;fill-opacity:1;fill-rule:evenodd;stroke:none"
         inkscape:connector-curvature="0" />
      <path
         id="path9328"
         d="m 66.833336,46.978448 c -1.486235,0.117836 -3.079089,1.282744 -3.59798,1.686887 -0.473844,-0.04539 -0.956654,-0.05492 -1.446666,-0.01601 -3.790024,0.49629 -7.907768,1.922136 -9.60885,5.626515 -1.34172,2.367319 -1.786037,5.105508 -1.622828,7.80986 0.735033,2.322487 3.227723,2.498486 5.316897,2.396874 5.54659,-0.170424 10.997579,-4.275222 11.514605,-9.966512 0.241595,-1.356428 0.04884,-2.645111 -0.01601,-3.998349 0.534807,-0.643495 2.35185,-1.548892 3.245656,-1.558769 -0.684731,-0.622545 -3.268219,0.681107 -4.190527,0.693972 -0.113473,-0.05962 -0.221109,-0.1375 -0.33631,-0.192177 -0.05129,-0.733786 2.289773,-1.573438 3.491216,-1.88974 -2.314575,-0.410882 -3.919287,0.994504 -4.670969,1.441327 -0.15716,-0.04888 -0.315431,-0.08845 -0.475104,-0.128118 -0.007,-0.637727 1.218136,-1.370861 3.133553,-1.857711 -0.234801,-0.05508 -0.482517,-0.06819 -0.736679,-0.04804 z"
         style="fill:#000000;fill-opacity:1;fill-rule:evenodd;stroke:none"
         inkscape:connector-curvature="0" />
      <path
         sodipodi:nodetypes="cssc"
         id="path2148"
         d="m 66.444122,50.672754 c -2.710022,-1.985251 -6.109554,-1.182435 -9.513337,0.231742 -4.703017,1.953972 -6.006703,9.349705 -5.761818,10.941455 0.576182,3.745181 16.740617,2.855902 15.275155,-11.173197 z"
         style="fill:#ffffff;fill-opacity:1;fill-rule:evenodd;stroke:none"
         inkscape:connector-curvature="0" />
      <path
         sodipodi:nodetypes="ccsccc"
         id="path6268"
         d="m 58.174695,55.546339 c -2.288063,0.06553 -4.556514,0.64807 -6.448606,2.215374 -0.489197,1.859091 -0.649929,3.467881 -0.555178,4.083761 0.460724,2.9947 11.025027,3.180687 14.55169,-4.689937 -0.05481,-0.221475 -0.233282,-0.478857 -0.437357,-0.637636 -2.064653,-0.50416 -4.595755,-1.043585 -7.110549,-0.971562 z"
         style="fill:#009fff;fill-opacity:1;fill-rule:evenodd;stroke:none"
         inkscape:connector-curvature="0" />
      <path
         sodipodi:nodetypes="cscscc"
         id="path7029"
         d="m 56.78675,59.779571 c -1.726862,0.0046 -3.682019,0.18845 -5.396971,0.261575 -0.04668,0.002 -0.301094,0.08742 -0.345847,0.09037 -0.112228,0.806417 0.03811,1.58245 0.0898,1.918435 0.332763,2.162953 6.041407,2.739891 10.435518,-0.02097 -0.0361,-1.732471 -2.212169,-2.256211 -4.782501,-2.249407 z"
         style="fill:#000000;fill-opacity:1;fill-rule:evenodd;stroke:none"
         inkscape:connector-curvature="0" />
      <path
         sodipodi:nodetypes="ccscc"
         id="path7032"
         d="m 55.607256,51.23024 c -3.029423,2.613167 -3.422554,6.475103 -3.676933,9.504526 -0.02999,2.085254 4.925703,2.775045 6.868233,1.734404 1.942532,-1.040643 5.966346,-5.827593 6.382601,-8.602637 -3.121924,1.873155 -6.93761,0.416255 -9.573901,-2.636293 z"
         style="fill:url(#linearGradient3265);fill-opacity:1;fill-rule:evenodd;stroke:none"
         inkscape:connector-curvature="0" />
      <path
         sodipodi:nodetypes="ccccc"
         id="path7800"
         d="m 28.411824,70.794301 c -2.266286,1.942532 -4.39382,6.868234 -3.191301,9.504524 0.41223,0.903738 4.509446,2.220038 7.700747,0.832515 1.942531,-1.179393 4.162566,-5.827593 4.370695,-6.798859 -0.90189,0.06938 -8.325132,0.06938 -8.880141,-3.53818 z"
         style="fill:url(#linearGradient3267);fill-opacity:1;fill-rule:evenodd;stroke:none"
         inkscape:connector-curvature="0" />
      <path
         sodipodi:nodetypes="ccsc"
         id="path10867"
         d="M 40.219698,32.082829 C 33.757389,24.634062 35.569251,13.380385 38.468231,5.8108289 c -2.174234,12.2602671 4.46926,23.6146021 5.979146,24.0977661 1.509884,0.483163 -3.623723,1.389093 -4.227679,2.174234 z"
         style="fill:url(#linearGradient3269);fill-opacity:1;fill-rule:evenodd;stroke:none"
         inkscape:connector-curvature="0" />
      <path
         sodipodi:nodetypes="cccc"
         id="path11635"
         d="m 100.8229,10.143206 c 0.24984,13.97123 -12.55732,19.991099 -18.924752,24.147407 -1.363002,1.107394 -1.464314,3.443146 0.468927,5.153321 2.825507,1.487108 22.322305,-13.760435 18.455825,-29.300728 z"
         style="fill:url(#linearGradient3271);fill-opacity:1;fill-rule:evenodd;stroke:none"
         inkscape:connector-curvature="0" />
      <path
         sodipodi:nodetypes="ccsc"
         id="path15617"
         d="m 94.71798,46.411246 c 4.935154,-4.482377 17.85502,-0.844704 21.3015,4.82298 -2.81341,1.473688 -15.27277,6.698584 -20.095755,4.82298 -1.344807,-0.52298 2.679434,-5.894754 -1.205745,-9.64596 z"
         style="fill:url(#linearGradient3273);fill-opacity:1;fill-rule:evenodd;stroke:none"
         inkscape:connector-curvature="0" />
      <path
         style="fill:#ffffff;fill-opacity:1;fill-rule:evenodd;stroke:none"
         d="m 74.769231,24.102564 c 0,0 4.717949,-3.897436 -0.923077,-7.897436 C 65.025641,8.4102565 43.589743,15.897436 50.666667,32 c 2.461538,3.487179 2.666667,2.717949 3.897436,3.076923 C 51.179488,30 53.538462,24.410256 53.538462,24.410256 c 0,0 -1.230769,7.846154 6.974359,7.589744 -5.025641,-3.333333 -3.48718,-9.641026 -3.48718,-9.641026 0,0 -0.615384,4.717949 2.461539,5.333334 -0.307693,-2.358975 -0.333334,-5.410257 3.692307,-6.358975 2.794872,-0.74359 6.769231,8.205129 11.589744,2.769231 z"
         id="path1382"
         sodipodi:nodetypes="cccccccccc"
         inkscape:connector-curvature="0" />
      <path
         sodipodi:nodetypes="cccccccccc"
         id="path3232"
         d="m 74.769231,24.102564 c 0,0 4.717949,-3.897436 -0.923077,-7.897436 C 65.025641,8.4102565 43.589743,15.897436 50.666667,32 c 2.461538,3.487179 2.666667,2.717949 3.897436,3.076923 C 51.179488,30 53.538462,24.410256 53.538462,24.410256 c 0,0 -1.230769,7.846154 6.974359,7.589744 -5.025641,-3.333333 -3.48718,-9.641026 -3.48718,-9.641026 0,0 -0.615384,4.717949 2.461539,5.333334 -0.307693,-2.358975 -0.333334,-5.410257 3.692307,-6.358975 2.794872,-0.74359 6.769231,8.205129 11.589744,2.769231 z"
         style="fill:url(#linearGradient3275);fill-opacity:1;fill-rule:evenodd;stroke:none"
         inkscape:connector-curvature="0" />
    </g>
  </g>
</svg>
