<?xml version="1.0" encoding="UTF-8" standalone="no"?>
<!-- Created with Inkscape (http://www.inkscape.org/) -->

<svg
   xmlns:dc="http://purl.org/dc/elements/1.1/"
   xmlns:cc="http://creativecommons.org/ns#"
   xmlns:rdf="http://www.w3.org/1999/02/22-rdf-syntax-ns#"
   xmlns:svg="http://www.w3.org/2000/svg"
   xmlns="http://www.w3.org/2000/svg"
   xmlns:xlink="http://www.w3.org/1999/xlink"
   xmlns:sodipodi="http://sodipodi.sourceforge.net/DTD/sodipodi-0.dtd"
   xmlns:inkscape="http://www.inkscape.org/namespaces/inkscape"
   width="107.16192"
   height="120.81802"
   id="svg2"
   sodipodi:version="0.32"
   inkscape:version="0.48.1 r9760"
   sodipodi:docname="nicubunu_Monkey_head.svg"
   version="1.1">
  <defs
     id="defs3">
    <linearGradient
       inkscape:collect="always"
       id="linearGradient9419">
      <stop
         style="stop-color:#ffffff;stop-opacity:1;"
         offset="0"
         id="stop9421" />
      <stop
         style="stop-color:#ffffff;stop-opacity:0;"
         offset="1"
         id="stop9423" />
    </linearGradient>
    <linearGradient
       id="linearGradient9352">
      <stop
         style="stop-color:#dadada;stop-opacity:1.0000000;"
         offset="0.0000000"
         id="stop9354" />
      <stop
         style="stop-color:#ffffff;stop-opacity:1.0000000;"
         offset="1.0000000"
         id="stop9356" />
    </linearGradient>
    <linearGradient
       id="linearGradient8586">
      <stop
         style="stop-color:#3f1f00;stop-opacity:1;"
         offset="0"
         id="stop8588" />
      <stop
         style="stop-color:#572b00;stop-opacity:1.0000000;"
         offset="1.0000000"
         id="stop8590" />
    </linearGradient>
    <linearGradient
       id="linearGradient8562">
      <stop
         style="stop-color:#dc8432;stop-opacity:1;"
         offset="0"
         id="stop8564" />
      <stop
         style="stop-color:#f79438;stop-opacity:1.0000000;"
         offset="1.0000000"
         id="stop8566" />
    </linearGradient>
    <linearGradient
       inkscape:collect="always"
       xlink:href="#linearGradient8562"
       id="linearGradient8568"
       x1="90.705124"
       y1="176.92308"
       x2="149.03847"
       y2="136.85898"
       gradientUnits="userSpaceOnUse" />
    <linearGradient
       inkscape:collect="always"
       xlink:href="#linearGradient8562"
       id="linearGradient8576"
       x1="157.3718"
       y1="88.141029"
       x2="165.0641"
       y2="79.487183"
       gradientUnits="userSpaceOnUse" />
    <linearGradient
       inkscape:collect="always"
       xlink:href="#linearGradient8562"
       id="linearGradient8584"
       x1="41.346153"
       y1="100.32051"
       x2="48.717949"
       y2="91.346153"
       gradientUnits="userSpaceOnUse" />
    <linearGradient
       inkscape:collect="always"
       xlink:href="#linearGradient8586"
       id="linearGradient8592"
       x1="94.551285"
       y1="106.73077"
       x2="123.39744"
       y2="69.871796"
       gradientUnits="userSpaceOnUse" />
    <linearGradient
       inkscape:collect="always"
       xlink:href="#linearGradient9352"
       id="linearGradient9358"
       x1="72.435898"
       y1="56.410255"
       x2="116.02564"
       y2="19.871796"
       gradientUnits="userSpaceOnUse" />
    <linearGradient
       inkscape:collect="always"
       xlink:href="#linearGradient8586"
       id="linearGradient9388"
       gradientUnits="userSpaceOnUse"
       x1="94.551285"
       y1="106.73077"
       x2="123.39744"
       y2="69.871796" />
    <linearGradient
       inkscape:collect="always"
       xlink:href="#linearGradient8562"
       id="linearGradient9390"
       gradientUnits="userSpaceOnUse"
       x1="90.705124"
       y1="176.92308"
       x2="149.03847"
       y2="136.85898" />
    <linearGradient
       inkscape:collect="always"
       xlink:href="#linearGradient8562"
       id="linearGradient9392"
       gradientUnits="userSpaceOnUse"
       x1="41.346153"
       y1="100.32051"
       x2="48.717949"
       y2="91.346153" />
    <linearGradient
       inkscape:collect="always"
       xlink:href="#linearGradient8562"
       id="linearGradient9394"
       gradientUnits="userSpaceOnUse"
       x1="157.3718"
       y1="88.141029"
       x2="165.0641"
       y2="79.487183" />
    <linearGradient
       inkscape:collect="always"
       xlink:href="#linearGradient9352"
       id="linearGradient9396"
       gradientUnits="userSpaceOnUse"
       x1="72.435898"
       y1="56.410255"
       x2="116.02564"
       y2="19.871796" />
    <linearGradient
       inkscape:collect="always"
       xlink:href="#linearGradient9352"
       id="linearGradient9400"
       gradientUnits="userSpaceOnUse"
       x1="72.435898"
       y1="56.410255"
       x2="116.02564"
       y2="19.871796" />
    <linearGradient
       inkscape:collect="always"
       xlink:href="#linearGradient8562"
       id="linearGradient9404"
       gradientUnits="userSpaceOnUse"
       x1="157.3718"
       y1="88.141029"
       x2="165.0641"
       y2="79.487183" />
    <linearGradient
       inkscape:collect="always"
       xlink:href="#linearGradient8562"
       id="linearGradient9407"
       gradientUnits="userSpaceOnUse"
       x1="41.346153"
       y1="100.32051"
       x2="48.717949"
       y2="91.346153" />
    <linearGradient
       inkscape:collect="always"
       xlink:href="#linearGradient8562"
       id="linearGradient9411"
       gradientUnits="userSpaceOnUse"
       x1="90.705124"
       y1="176.92308"
       x2="149.03847"
       y2="136.85898" />
    <linearGradient
       inkscape:collect="always"
       xlink:href="#linearGradient8586"
       id="linearGradient9414"
       gradientUnits="userSpaceOnUse"
       x1="94.551285"
       y1="106.73077"
       x2="123.39744"
       y2="69.871796" />
    <linearGradient
       inkscape:collect="always"
       xlink:href="#linearGradient9419"
       id="linearGradient9425"
       x1="94"
       y1="-204"
       x2="65"
       y2="88"
       gradientUnits="userSpaceOnUse" />
    <linearGradient
       inkscape:collect="always"
       xlink:href="#linearGradient9419"
       id="linearGradient9428"
       gradientUnits="userSpaceOnUse"
       x1="-288"
       y1="269"
       x2="102.88277"
       y2="99.562637" />
    <linearGradient
       inkscape:collect="always"
       xlink:href="#linearGradient8586"
       id="linearGradient9430"
       gradientUnits="userSpaceOnUse"
       x1="94.551285"
       y1="106.73077"
       x2="123.39744"
       y2="69.871796" />
    <linearGradient
       inkscape:collect="always"
       xlink:href="#linearGradient8562"
       id="linearGradient9432"
       gradientUnits="userSpaceOnUse"
       x1="90.705124"
       y1="176.92308"
       x2="149.03847"
       y2="136.85898" />
    <linearGradient
       inkscape:collect="always"
       xlink:href="#linearGradient8562"
       id="linearGradient9434"
       gradientUnits="userSpaceOnUse"
       x1="41.346153"
       y1="100.32051"
       x2="48.717949"
       y2="91.346153" />
    <linearGradient
       inkscape:collect="always"
       xlink:href="#linearGradient8562"
       id="linearGradient9436"
       gradientUnits="userSpaceOnUse"
       x1="157.3718"
       y1="88.141029"
       x2="165.0641"
       y2="79.487183" />
    <linearGradient
       inkscape:collect="always"
       xlink:href="#linearGradient9352"
       id="linearGradient9438"
       gradientUnits="userSpaceOnUse"
       x1="72.435898"
       y1="56.410255"
       x2="116.02564"
       y2="19.871796" />
    <linearGradient
       inkscape:collect="always"
       xlink:href="#linearGradient9352"
       id="linearGradient9442"
       gradientUnits="userSpaceOnUse"
       x1="56.73077"
       y1="70.833336"
       x2="80.207245"
       y2="38.809151" />
    <linearGradient
       inkscape:collect="always"
       xlink:href="#linearGradient8562"
       id="linearGradient9446"
       gradientUnits="userSpaceOnUse"
       x1="157.3718"
       y1="88.141029"
       x2="165.0641"
       y2="79.487183" />
    <linearGradient
       inkscape:collect="always"
       xlink:href="#linearGradient8562"
       id="linearGradient9449"
       gradientUnits="userSpaceOnUse"
       x1="41.346153"
       y1="100.32051"
       x2="48.717949"
       y2="91.346153" />
    <linearGradient
       inkscape:collect="always"
       xlink:href="#linearGradient8562"
       id="linearGradient9453"
       gradientUnits="userSpaceOnUse"
       x1="90.705124"
       y1="176.92308"
       x2="149.03847"
       y2="136.85898" />
    <linearGradient
       inkscape:collect="always"
       xlink:href="#linearGradient8586"
       id="linearGradient9456"
       gradientUnits="userSpaceOnUse"
       x1="94.551285"
       y1="106.73077"
       x2="123.39744"
       y2="69.871796" />
    <linearGradient
       inkscape:collect="always"
       xlink:href="#linearGradient9419"
       id="linearGradient9467"
       gradientUnits="userSpaceOnUse"
       x1="-288"
       y1="269"
       x2="102.88277"
       y2="99.562637"
       gradientTransform="translate(-113,51)" />
    <linearGradient
       gradientUnits="userSpaceOnUse"
       y2="13.782051"
       x2="114.10256"
       y1="7.3717952"
       x1="118.91026"
       id="linearGradient2095"
       xlink:href="#linearGradient9352"
       inkscape:collect="always" />
    <linearGradient
       gradientUnits="userSpaceOnUse"
       y2="23.076923"
       x2="75.641022"
       y1="12.5"
       x1="89.102562"
       id="linearGradient2105"
       xlink:href="#linearGradient9352"
       inkscape:collect="always" />
    <linearGradient
       y2="69.871796"
       x2="123.39744"
       y1="106.73077"
       x1="94.551285"
       gradientUnits="userSpaceOnUse"
       id="linearGradient1359"
       xlink:href="#linearGradient8586"
       inkscape:collect="always" />
    <linearGradient
       y2="136.85898"
       x2="149.03847"
       y1="176.92308"
       x1="90.705124"
       gradientUnits="userSpaceOnUse"
       id="linearGradient1361"
       xlink:href="#linearGradient8562"
       inkscape:collect="always" />
    <linearGradient
       y2="91.346153"
       x2="48.717949"
       y1="100.32051"
       x1="41.346153"
       gradientUnits="userSpaceOnUse"
       id="linearGradient1363"
       xlink:href="#linearGradient8562"
       inkscape:collect="always" />
    <linearGradient
       y2="79.487183"
       x2="165.0641"
       y1="88.141029"
       x1="157.3718"
       gradientUnits="userSpaceOnUse"
       id="linearGradient1365"
       xlink:href="#linearGradient8562"
       inkscape:collect="always" />
  </defs>
  <sodipodi:namedview
     id="base"
     pagecolor="#ffffff"
     bordercolor="#666666"
     borderopacity="1.0"
     inkscape:pageopacity="0.0"
     inkscape:pageshadow="2"
     inkscape:zoom="1"
     inkscape:cx="86.175698"
     inkscape:cy="95.974267"
     inkscape:document-units="px"
     inkscape:current-layer="layer1"
     inkscape:window-width="1152"
     inkscape:window-height="791"
     inkscape:window-x="0"
     inkscape:window-y="24"
     showgrid="false"
     fit-margin-top="0"
     fit-margin-left="0"
     fit-margin-right="0"
     fit-margin-bottom="0"
     inkscape:window-maximized="0" />
  <metadata
     id="metadata4">
    <rdf:RDF>
      <cc:Work
         rdf:about="">
        <dc:format>image/svg+xml</dc:format>
        <dc:type
           rdf:resource="http://purl.org/dc/dcmitype/StillImage" />
      </cc:Work>
    </rdf:RDF>
  </metadata>
  <g
     inkscape:label="Layer 1"
     inkscape:groupmode="layer"
     id="layer1"
     transform="translate(-13.824302,-3.1562441)">
    <g
       transform="matrix(0.661223,0,0,0.661223,-3.25133,-5.542971)"
       id="g1351">
      <path
         sodipodi:nodetypes="csccsccscccsccccccccccsccc"
         id="path4002"
         d="m 101.64984,31.746795 c -0.21034,0.07888 -2.690705,5.608173 -2.93109,6.409455 -0.674003,2.246673 -1.062224,4.885117 -1.5,7.40625 -0.471095,-0.165245 -2.688888,-0.220487 -3.34375,-0.21875 -2.160645,-5.094096 -5.628546,-13.945302 -5.414263,-10.088141 0.09994,1.798852 0.413228,7.822347 0.320513,10.275641 -1.668629,0.08488 -3.381478,0.0994 -5,0.3125 -2.135334,-5.377835 -5.345349,-16.641046 -4.602564,-12.184295 0.302262,1.813567 1.588425,11.028338 1.102564,12.809295 -9.223639,1.986007 -17.296716,7.148834 -22.625,20.5 -1.064904,3.638224 -3.26578,8.88278 -3.90625,12.3125 -1.391828,-0.07138 -3.609766,-0.08334 -5.03125,-0.03125 -7.989951,0.292808 -14.431087,1.89129 -19.875,10.90625 -5.399361,11.68546 6.928438,25.36023 22.1875,25.03125 -0.129165,1.74948 -0.10525,5.72279 -0.28125,7.53125 -2.231617,0.96413 -5.513829,3.12179 -7.59375,4.28125 -10.493693,5.57291 -17.192987,23.31504 -15.78125,35.6875 3.472221,31.87553 54.740305,33.21255 79.53125,31.5 40.3636,-2.26843 71.69525,-19.9974 78.875,-41.96875 2.13351,-12.64095 -6.83728,-21.22559 -19.3125,-27.1875 C 165.91239,119.11287 165.01042,111.48693 162.5,106 c 14.37729,-5.77971 20.38436,-22.78216 10.53125,-31.28125 -8.68388,-5.957843 -16.41627,-5.09912 -23.8125,-2.0625 -1.9062,0.78262 -5.63834,1.09853 -7.375,2.0625 -10.9278,-16.009973 -22.11486,-26.670999 -39.71875,-27.25 -0.34037,-0.0078 0.44527,-16.067115 -0.47516,-15.721955 z"
         style="fill:url(#linearGradient1359);fill-opacity:1;fill-rule:nonzero;stroke:none"
         inkscape:connector-curvature="0" />
      <path
         sodipodi:nodetypes="ccccccccccccc"
         id="path6282"
         d="m 159.93589,130.12821 -48.07692,-10.89744 -32.051278,-3.20513 -33.653846,8.33333 -13.141025,17.3077 -2.884616,27.5641 22.435898,16.98718 50.641027,7.37179 44.87179,-8.01282 31.41026,-22.43589 5.1282,-17.62821 -15.38461,-19.55128 c 0,0 -9.61539,0 -9.29488,4.16667 z"
         style="fill:url(#linearGradient1361);fill-opacity:1;fill-rule:evenodd;stroke:none"
         inkscape:connector-curvature="0" />
      <path
         id="path5522"
         d="m 64.706638,108.22653 -1.903136,-13.956331 3.594813,-9.515682 11.418818,-2.537515 7.189627,8.881303 2.537515,23.472015 2.114596,2.1146 14.590709,0 9.30423,1.26875 0.21146,-23.89493 8.03546,-7.824005 10.15006,0.845838 5.28649,11.207359 -4.44065,19.454288 -21.56888,1.69167 -2.53752,9.09276 -4.22919,5.70941 -17.974063,3.1719 3.383353,-18.39699 -7.401086,-3.17189 -17.762606,-7.61255 z"
         style="fill:#ffffff;fill-opacity:1;fill-rule:evenodd;stroke:none"
         inkscape:connector-curvature="0" />
      <path
         sodipodi:nodetypes="cscccsc"
         id="path7800"
         d="m 52.678775,88.131589 c 0,0 -8.08925,-2.367585 -11.24603,-0.986494 -2.184092,0.95554 -6.905458,6.905458 -6.905458,6.905458 l 1.972988,6.510857 9.470342,5.91897 c 0,0 2.762183,-0.3946 5.918964,-1.38109 1.191023,-0.3722 0.789194,-14.797414 0.789194,-16.967701 z"
         style="fill:url(#linearGradient1363);fill-opacity:1;fill-rule:evenodd;stroke:none"
         inkscape:connector-curvature="0" />
      <path
         style="fill:url(#linearGradient1365);fill-opacity:1;fill-rule:evenodd;stroke:none"
         d="m 148.29641,83.050368 c 0,0 6.65129,-5.661484 10.08817,-5.907392 2.37789,-0.170135 9.32511,2.900539 9.32511,2.900539 l 1.28219,6.681311 -3.45961,7.474694 c 0,0 -4.79898,3.105895 -8.05231,3.701111 -1.22745,0.224565 -8.17398,-12.92909 -9.18355,-14.850263 z"
         id="path8560"
         sodipodi:nodetypes="cscccsc"
         inkscape:connector-curvature="0" />
      <path
         sodipodi:nodetypes="ccccccccsccccccccccscccccccccccccccccccscccccssccccccsccsccccccccccsccccsccccccccccccccsccccccccccsccsccccccccccc"
         id="path1288"
         d="m 102.875,13.15625 c -1.80689,13.582532 -2.66747,19.786859 -7.038462,28.241186 -3.425211,-5.466345 -6.513087,-10.914263 -9.617788,-18.303686 -0.134883,7.545672 1.956998,16.691506 -1.0625,19.75 L 74.03125,14.4375 c 1.479967,10.803418 5.201122,26.090011 4.4375,32.40625 -9.424845,2.301531 -17.944715,7.801284 -23.0625,20.625 -1.064907,3.638219 -1.79703,7.10153 -2.4375,10.53125 -1.391825,-0.07138 -2.828516,-0.08334 -4.25,-0.03125 -7.989951,0.292808 -16.181087,2.86004 -21.625,11.875 -5.399361,11.68547 7.240938,27.11023 22.5,26.78125 -0.129166,1.74948 -0.2615,3.50404 -0.4375,5.3125 -2.231615,0.96413 -4.420079,1.96554 -6.5,3.125 -10.493692,5.57291 -17.661737,25.44004 -16.25,37.8125 3.472221,31.87553 55.709055,34.3063 80.5,32.59375 40.3636,-2.26843 73.4765,-21.1224 80.65625,-43.09375 2.13351,-12.64095 -6.36853,-22.19434 -18.84375,-28.15625 -0.55637,-5.91838 -2.42708,-11.60682 -4.9375,-17.09375 14.3773,-5.77971 19.72811,-25.34466 9.875,-33.84375 -8.68388,-5.957837 -17.19752,-4.94287 -24.59375,-1.90625 -1.90622,0.78262 -3.73209,1.72353 -5.46875,2.6875 -10.61272,-15.548363 -23.01484,-27.298567 -39.84375,-28.5 -1.89423,-5.673878 1.01923,-22.886218 -0.875,-32.40625 z m -1.5617,22.739583 c 0.94028,-0.352603 -2.11544,11.480262 0.46795,14.697917 15.25531,2.197033 31.31113,10.502404 41.03125,28.28125 9.36276,12.525412 22.01032,34.87154 18.8125,48.9375 5.55877,-5.20137 26.42234,11.93511 17.9375,28.4375 -4.03568,8.63816 -19.58378,27.06584 -53.59375,31.5625 -41.447008,4.30294 -89.343134,0.88558 -93.125,-28.125 -0.320402,-11.2018 6.196887,-27.59533 15.59375,-33.8125 11.41345,-4.8394 24.339515,-6.64493 37.25,-6.8125 -6.460793,3.38915 -10.806122,8.59032 -9.15625,12.9375 2.752302,9.4369 12.371322,7.48852 19.125,7.25 8.5912,-0.15814 19.40378,-11.92742 16.3125,-18.53125 21.7744,2.86454 39.99522,8.39895 45.4375,9.53125 4.27688,1.07248 3.67643,-1.6887 0.71875,-2.53125 -8.29517,-2.58998 -16.21246,-4.75994 -23.75,-6.5625 1.40011,-3.78692 3.31355,-10.63526 3.90625,-14.3125 3.99572,-16.473561 -4.22009,-23.32922 -12.875,-23.0625 -0.577,0.01778 -1.17261,0.04445 -1.75,0.125 -6.19517,0.805083 -10.73649,6.8384 -12.40625,12.625 -1.11389,5.28138 -1.2144,14.34042 -0.15625,20.125 -7.94528,-1.12567 -15.410095,-1.68737 -22.40625,-1.75 0.344771,-4.07588 0.397884,-10.83952 0.03125,-14.4375 C 88.396514,86.699659 81.926492,81.1404 75.0625,80.875 c -1.584002,-0.06124 -3.195238,0.15737 -4.75,0.625 -0.552806,0.166271 -1.088041,0.36675 -1.625,0.59375 -5.776781,2.378533 -8.600896,9.35345 -8.71875,15.375 0.289284,5.40237 2.538977,14.21885 5.0625,19.53125 -3.536032,0.72892 -6.952143,1.65113 -10.1875,2.75 -1.19208,-20.727316 -0.676274,-33.70638 7.8125,-56.3125 2.13773,-5.40096 8.876837,-9.678202 17.65625,-11.875 3.105406,-2.950312 0.545481,-10.633366 0.132212,-13.112981 -0.825267,-4.951608 2.103816,5.861597 4.649038,12.300481 1.39121,2.675944 3.722178,1.81506 4.21875,-0.53125 0.184048,-2.863316 0.566834,-9.881128 0.445513,-12.064904 C 89.522948,33.922733 93.058746,44.555144 95.15625,50 c 1.104583,1.627226 1.581754,1.73349 2.375,0.1875 0.467686,-2.841163 3.57171,-14.212791 3.78205,-14.291667 z M 160.9375,72.25 c 6.67111,-0.08734 13.17992,2.70489 14.625,12.375 0.23948,9.306199 -7.90925,15.97263 -13.625,18.75 -4.30083,-8.306498 -9.84586,-16.1692 -14.625,-23.71875 -0.57259,-0.913549 -1.19908,-1.76213 -1.78125,-2.65625 2.35184,-1.868162 8.9421,-4.66537 15.40625,-4.75 z m 1.28125,3.28125 c -2.02519,-0.0075 -4.14014,0.56333 -6.1875,1.40625 -1.81986,0.749247 -4.38619,3.0931 -6.0625,4 -0.3567,0.94954 1.75803,-0.51514 2.5625,-0.59375 4.77883,-2.11982 11.37164,-5.19731 15.375,2.53125 2.35492,4.87908 -3.24645,11.72041 -7.0625,13.84375 -0.41244,0.834408 -0.27471,2.57454 0.625,2.4375 0.001,-0.0011 12.22894,-9.15641 9.8125,-17.03125 -2.51781,-4.92835 -5.68719,-6.58121 -9.0625,-6.59375 z m -113.25,5.5625 c 1.511509,0.03784 2.636965,0.23311 3.3125,0.53125 -1.553987,10.039897 -1.751723,19.54849 -2.34375,29.78125 -6.310588,0.016 -16.256897,-1.8914 -19.875,-10.4375 -4.597753,-16.118469 11.200864,-20.06796 18.90625,-19.875 z M 73.21875,85 c 6.732062,-0.432922 10.604912,6.746 12,13.4375 -7.437156,-4.025974 -17.146784,-4.65455 -20.59375,-0.125 -0.720543,-6.27694 0.552019,-11.92866 7.21875,-13.125 0.47454,-0.09897 0.926197,-0.15865 1.375,-0.1875 z m -28.5625,0.90625 c -5.900466,0.210431 -11.341869,2.18585 -11.75,11.03125 1.055356,8.16936 14.967218,10.7495 14.96875,10.75 0.875865,-0.24718 1.31426,-1.19199 0.59375,-1.78125 -4.352504,-0.35573 -12.283369,-4.27133 -12.15625,-9.6875 0.450072,-8.692237 7.741071,-8.61077 12.96875,-8.65625 0.764995,-0.261006 1.998597,-0.75163 1.28125,-1.46875 -1.901281,-0.132748 -3.939428,-0.25763 -5.90625,-0.1875 z m 81.25,1.8125 c 7.74404,0.432137 9.53174,7.15778 9.125,14.4375 -6.14431,-5.810947 -14.9997,-7.11006 -19.5,-3.625 0.92583,-6.249957 3.62555,-11.37942 10.375,-10.8125 z M 80.9375,99.65625 c 3.368351,-0.404311 4.133185,8.69358 1.46875,9.40625 -4.650913,1.24401 -5.65025,-8.90434 -1.46875,-9.40625 z m 49.65625,2.5625 c 3.35842,0.47978 2.35186,9.34375 -0.40625,9.34375 -4.81441,-1e-5 -3.76294,-9.93935 0.40625,-9.34375 z m -30.4375,15.34375 c 2.23203,-0.097 4.61775,0.33372 7.03125,1.5 3.27484,1.44869 1.02536,12.68176 -4.46875,14.46875 -6.168369,1.04274 -15.449156,-7.52677 -11.84375,-11.875 2.285353,-2.27501 5.56119,-3.93203 9.28125,-4.09375 z M 147.75,152.40625 C 133.19184,159.42242 76.597537,165.7016 64.59375,160.5 L 54.25,163.5625 c 12.244858,6.16342 74.5626,-1.42802 89,-8.25 l 4.5,-2.90625 z"
         style="fill:#000000;fill-opacity:1;fill-rule:nonzero;stroke:none"
         inkscape:connector-curvature="0" />
    </g>
  </g>
</svg>
