<?xml version="1.0" encoding="UTF-8" standalone="no"?>
<!-- Created with Inkscape (http://www.inkscape.org/) -->

<svg
   xmlns:dc="http://purl.org/dc/elements/1.1/"
   xmlns:cc="http://creativecommons.org/ns#"
   xmlns:rdf="http://www.w3.org/1999/02/22-rdf-syntax-ns#"
   xmlns:svg="http://www.w3.org/2000/svg"
   xmlns="http://www.w3.org/2000/svg"
   xmlns:xlink="http://www.w3.org/1999/xlink"
   xmlns:sodipodi="http://sodipodi.sourceforge.net/DTD/sodipodi-0.dtd"
   xmlns:inkscape="http://www.inkscape.org/namespaces/inkscape"
   width="117.68469"
   height="36.556343"
   id="svg1"
   sodipodi:version="0.32"
   inkscape:version="0.48.1 r9760"
   sodipodi:docname="nicubunu_Seagull.svg"
   version="1.1">
  <defs
     id="defs3">
    <linearGradient
       inkscape:collect="always"
       id="linearGradient1907">
      <stop
         style="stop-color:#000000;stop-opacity:1;"
         offset="0"
         id="stop1908" />
      <stop
         style="stop-color:#000000;stop-opacity:0;"
         offset="1"
         id="stop1909" />
    </linearGradient>
    <linearGradient
       id="linearGradient5603">
      <stop
         style="stop-color:#000000;stop-opacity:1.0000000;"
         offset="0.0000000"
         id="stop5604" />
      <stop
         style="stop-color:#e56900;stop-opacity:1.0000000;"
         offset="1.0000000"
         id="stop5605" />
    </linearGradient>
    <linearGradient
       id="linearGradient5598">
      <stop
         style="stop-color:#c8c8c8;stop-opacity:1.0000000;"
         offset="0.0000000"
         id="stop5599" />
      <stop
         style="stop-color:#ffffff;stop-opacity:1.0000000;"
         offset="1.0000000"
         id="stop5600" />
    </linearGradient>
    <linearGradient
       id="linearGradient5572">
      <stop
         style="stop-color:#000000;stop-opacity:1.0000000;"
         offset="0.0000000"
         id="stop5573" />
      <stop
         style="stop-color:#727272;stop-opacity:1.0000000;"
         offset="1.0000000"
         id="stop5574" />
    </linearGradient>
    <linearGradient
       id="linearGradient4936">
      <stop
         style="stop-color:#d36100;stop-opacity:1.0000000;"
         offset="0.0000000"
         id="stop4937" />
      <stop
         style="stop-color:#ff7400;stop-opacity:1.0000000;"
         offset="1.0000000"
         id="stop4938" />
    </linearGradient>
    <linearGradient
       inkscape:collect="always"
       xlink:href="#linearGradient4936"
       id="linearGradient4939"
       gradientTransform="scale(0.574196,1.741565)"
       x1="299.67236"
       y1="64.241798"
       x2="302.90543"
       y2="66.330132"
       gradientUnits="userSpaceOnUse" />
    <linearGradient
       inkscape:collect="always"
       xlink:href="#linearGradient4936"
       id="linearGradient4944"
       gradientTransform="scale(0.798004,1.253127)"
       x1="176.1767"
       y1="89.561455"
       x2="182.00511"
       y2="97.719078"
       gradientUnits="userSpaceOnUse" />
    <linearGradient
       inkscape:collect="always"
       xlink:href="#linearGradient4936"
       id="linearGradient4949"
       gradientTransform="scale(1.069817,0.934739)"
       x1="133.96149"
       y1="123.33655"
       x2="138.69655"
       y2="132.49091"
       gradientUnits="userSpaceOnUse" />
    <linearGradient
       inkscape:collect="always"
       xlink:href="#linearGradient5572"
       id="linearGradient5575"
       gradientTransform="scale(1.370665,0.729573)"
       x1="100.13611"
       y1="91.970963"
       x2="79.627007"
       y2="111.93586"
       gradientUnits="userSpaceOnUse" />
    <linearGradient
       inkscape:collect="always"
       xlink:href="#linearGradient5572"
       id="linearGradient5580"
       gradientTransform="scale(1.358318,0.736205)"
       x1="205.33818"
       y1="150.51605"
       x2="173.22473"
       y2="202.4386"
       gradientUnits="userSpaceOnUse" />
    <linearGradient
       inkscape:collect="always"
       xlink:href="#linearGradient5572"
       id="linearGradient5585"
       gradientTransform="scale(1.136756,0.879696)"
       x1="149.93787"
       y1="125.35924"
       x2="140.12573"
       y2="111.17141"
       gradientUnits="userSpaceOnUse" />
    <linearGradient
       inkscape:collect="always"
       xlink:href="#linearGradient5598"
       id="linearGradient5601"
       gradientTransform="scale(1.050353,0.952061)"
       x1="119.98783"
       y1="124.31543"
       x2="155.26537"
       y2="85.549522"
       gradientUnits="userSpaceOnUse" />
    <linearGradient
       inkscape:collect="always"
       xlink:href="#linearGradient5603"
       id="linearGradient5606"
       gradientTransform="scale(1.077498,0.928076)"
       x1="131.36064"
       y1="136.02763"
       x2="136.50058"
       y2="127.09388"
       gradientUnits="userSpaceOnUse" />
    <linearGradient
       inkscape:collect="always"
       xlink:href="#linearGradient1907"
       id="linearGradient1910"
       gradientTransform="scale(2.249546,0.444534)"
       x1="-20.232269"
       y1="-323.14188"
       x2="29.252838"
       y2="-925.08319"
       gradientUnits="userSpaceOnUse" />
  </defs>
  <sodipodi:namedview
     id="base"
     pagecolor="#ffffff"
     bordercolor="#666666"
     borderopacity="1.0"
     inkscape:pageopacity="0.0"
     inkscape:pageshadow="2"
     inkscape:zoom="1"
     inkscape:cx="108.51776"
     inkscape:cy="71.358054"
     inkscape:current-layer="svg1"
     inkscape:window-width="952"
     inkscape:window-height="783"
     inkscape:window-x="292"
     inkscape:window-y="37"
     showgrid="false"
     fit-margin-top="0"
     fit-margin-left="0"
     fit-margin-right="0"
     fit-margin-bottom="0"
     inkscape:window-maximized="0" />
  <g
     inkscape:label="Layer 1"
     inkscape:groupmode="layer"
     id="layer1"
     transform="translate(-5.358162,-46.734212)" />
  <g
     id="g5607"
     transform="matrix(-0.406251,0,0,0.406251,119.96304,-23.686842)">
    <path
       style="fill:#ffffff;fill-opacity:1;fill-rule:evenodd;stroke:none"
       d="m 23.4375,58.8125 c -6.055834,0.207953 -11.228576,-0.150006 -17.21875,0.84375 -0.5789398,1.461434 2.0557425,1.682676 4.5625,2.125 -1.1123279,1.583958 0.465013,2.564102 1.96875,2.46875 7.533701,1.00479 15.418989,0.597047 23,0.53125 21.500287,-0.417658 42.852879,-1.765889 64.34375,-2.4375 1.06471,0.336556 3.90961,0.259372 4.5625,0.6875 9.41954,2.871322 17.74012,8.546068 25.8125,14.03125 6.14781,4.220628 11.9748,9.291158 18.0625,13.59375 2.47054,3.155445 -3.75169,4.193624 -5.71875,3.0625 C 134.3579,90.191433 126.69246,84.932219 119.75,79 c -0.53606,2.735422 -0.12775,3.569433 -0.0312,4.9375 1.44154,7.599545 5.36855,14.070061 9.5625,20.46875 2.73495,3.82205 5.41767,7.03296 9.46875,9.5625 1.61248,0.7414 3.44985,0.96062 5.1875,1.125 -0.0435,0.26816 -0.44249,1.77563 -0.49636,2.04227 -0.0413,0.55881 -1.37613,0.71361 -1.75364,1.05148 -1.1319,0.94006 -1.76742,2.33502 -2.79966,3.38784 -0.42806,0.44494 -0.0752,0.20344 0.14341,0.86216 0.28523,0.85324 0.0387,1.02212 0.96875,1.3125 0.40732,0.14216 1.22314,-0.16805 1.625,-0.28125 0.16669,0.50249 0.088,1.35316 0.59375,1.53125 1.21355,0.53026 1.77792,0.47119 3.03125,0.125 0.65232,-0.19742 1.28979,0.22822 1.28125,-0.5 2.9e-4,-0.54477 0.19964,-1.14426 0.625,-1.53125 1.247,-1.5107 2.38815,-3.12988 3.93568,-4.31432 -0.20681,-0.29881 0.58192,-0.98368 1.22057,-1.37318 0.0807,-0.0992 1.30132,-0.7627 1.34375,-0.875 0.64329,0.44496 1.78689,0.66921 2.53125,0.875 4.01433,3.27182 7.55034,6.00059 12.71875,6.9375 1.1386,-1.75778 -0.77735,-2.40015 -1.53125,-4.125 -1.59468,-2.22131 1.86431,-4.55788 3.3125,-5.625 0.13274,0.81369 0.36887,1.6822 1.1875,2 0.55782,0.17947 0.52945,0.15711 0.96875,0.6875 0.8269,-1.2713 1.15701,-2.79913 1.375,-4.28125 0.009,-0.0724 -0.008,-0.14629 0,-0.21875 0.81952,-0.7355 0.73509,-1.83773 1.46875,-2.65625 0.13167,-0.0717 1.57058,-1.2387 1.59375,-1.375 2.44828,-2.87909 4.08522,-5.06472 5,-8.78125 0.59801,-2.041482 3.78966,-2.60319 5.625,-3.15625 3.97944,-0.39582 8.52113,-0.369741 12.5,-0.15625 -0.68681,0.483537 1.26198,1.744649 2.08493,1.511215 9.81028,1.568633 18.56832,5.633625 27.35257,10.145035 13.26989,6.87381 25.24826,14.93024 37.5,23.4375 2.77636,1.84204 4.9458,4.13367 8,5.5 1.05714,0.80467 2.2002,-0.0676 2.34375,-1.15625 5.01605,4.03723 10.0538,8.52554 15.84375,11.375 4.46553,-0.4472 -2.87459,-3.1245 -3.90625,-4.5625 C 277.50998,132.52636 265.41518,122.04914 253,112.0625 240.96012,102.71551 226.40535,96.712722 211.25,95.03125 c -9.16531,-1.137178 -18.42806,-1.082931 -27.625,-0.375 -7.51153,-5.524959 -16.56486,-10.076473 -26.15625,-8.84375 -4.89176,-1.529051 -8.70761,-5.380169 -12.84375,-8.28125 -7.41724,-5.618986 -14.30206,-11.982381 -22.15625,-17 -4.01603,-1.249898 -8.41947,-0.558589 -12.59375,-0.9375 C 81.068918,58.944043 52.250892,58.581428 23.4375,58.8125 z m 127.6875,56.34375 c -1e-5,0 0.1341,2.99818 -1.90625,3.40625 -2.04035,0.40807 -4.0717,1.23715 -4.34375,1.78125 -0.27204,0.54409 1.36398,-4.38239 1.5,-5.0625 l 4.75,-0.125 z"
       id="path2405"
       sodipodi:nodetypes="ccccccccccccccccccccccccccccccccccccccccccccccccccccccccccccc"
       inkscape:connector-curvature="0" />
    <path
       style="fill:url(#linearGradient5601);fill-opacity:1;fill-rule:evenodd;stroke:none"
       d="m 145.02435,94.548383 c -8.12203,-2.763166 -24.3661,-13.81583 -25.45462,-15.406744 -0.83732,4.35408 3.85169,16.327799 7.20097,21.184271 2.76317,4.35408 9.54549,13.64837 12.97851,14.48569 3.43303,0.83732 9.37802,0.75359 11.1364,0.41866 1.75838,-0.33493 5.1914,2.17704 7.36844,4.10288 2.17704,1.92585 8.20577,5.35887 10.80147,5.27514 1.17225,0.25119 -2.09331,-5.02394 -2.00958,-5.86126 -0.2512,-2.5957 2.00957,-3.26556 2.5957,-4.35408 -3.76795,0.92106 -5.35886,0.75359 -10.21534,1.08852 -4.18661,0.16746 -10.8852,-1.59092 -14.48569,-9.37802 -0.58613,-4.01915 -1.25598,-9.545482 0.0837,-11.555057 z"
       id="path5586"
       sodipodi:nodetypes="cccccccccccc"
       inkscape:connector-curvature="0" />
    <path
       style="fill:url(#linearGradient5585);fill-opacity:1;fill-rule:evenodd;stroke:none"
       d="m 176.84262,109.369 c -8.70816,3.26556 -11.80626,-2.67944 -14.48569,-5.02394 5.35887,6.61485 2.26078,10.21534 -1.42345,9.12682 -7.70337,-1.92584 -14.90435,-17.332583 -5.02393,-23.193845 0.41866,-1.255984 -5.86127,1.004787 -7.53592,-0.33493 1.67466,2.930632 0.41867,4.772743 -2.76316,4.68901 -2.26077,-1.004788 -1.59091,10.215345 -0.41866,11.806255 1.17225,1.59092 4.52155,8.70816 12.22492,8.79189 7.70337,0.0837 18.16991,-1.33972 19.42589,-5.86126 z"
       id="path5581"
       sodipodi:nodetypes="ccccccccc"
       inkscape:connector-curvature="0" />
    <path
       style="fill:url(#linearGradient5580);fill-opacity:1;fill-rule:evenodd;stroke:none"
       d="m 201.12499,96.97662 c 0,0 7.87084,0 11.72252,1.004787 3.85169,1.004788 26.9618,7.703373 32.32067,10.550273 5.35887,2.8469 25.11969,17.24885 30.81349,22.60772 5.69379,5.35887 17.24885,14.06703 17.75124,15.23928 0.5024,1.17225 -1.33971,1.00479 -2.3445,0.16746 -1.00479,-0.83732 -14.06703,-10.8852 -14.06703,-10.8852 0,0 0.83733,2.17704 0,2.17704 -0.83732,0 -21.43547,-12.89477 -23.77997,-14.56942 -3.68422,-3.85168 -23.27758,-14.56942 -24.78476,-15.23928 -1.50718,-0.66986 -21.7704,-10.047873 -24.28237,-9.880408 -2.51197,0.167464 -3.34929,-1.172252 -3.34929,-1.172252 z"
       id="path5576"
       sodipodi:nodetypes="cccccccccccc"
       inkscape:connector-curvature="0" />
    <path
       style="fill:url(#linearGradient5575);fill-opacity:1;fill-rule:evenodd;stroke:none"
       d="m 102.32087,62.478911 c 0,0 14.90435,-0.837323 15.74168,-0.502394 0.83732,0.33493 35.0001,24.282368 36.00489,24.784762 1.00478,0.502394 3.51675,3.181827 1.33971,3.181827 -2.17704,0 -4.35408,1.507182 -7.20098,0 -2.84689,-1.507181 -27.29673,-19.593358 -30.31109,-20.598146 -3.01436,-1.004788 -13.56463,-6.866049 -15.57421,-6.866049 z"
       id="path4950"
       inkscape:connector-curvature="0" />
    <path
       style="fill:#000000;fill-opacity:1;fill-rule:evenodd;stroke:none"
       d="m 99.9375,61.65625 c -1.869515,1.792907 2.92593,1.319038 3.994,2.019417 9.41954,2.871319 17.71453,8.43444 25.78691,13.919622 6.14782,4.22063 11.97514,8.883369 18.06284,13.185961 2.47054,3.155443 -2.51489,3.615926 -4.48195,2.484802 -8.45461,-3.527315 -16.11527,-8.782255 -23.05773,-14.714474 -2.30437,-1.209259 -1.34087,3.331409 -1.24437,4.699476 1.44154,7.599541 5.35778,14.467574 9.55173,20.866256 2.73496,3.82205 5.53247,7.86046 9.58355,10.39 3.6141,1.66173 7.69532,1.5582 11.55912,1.10553 2.59225,-0.35309 4.04907,2.11493 6.27715,2.73091 4.01432,3.27182 8.54119,6.27319 13.7096,7.2101 1.1386,-1.75778 -1.06159,-4.0599 -1.81549,-5.78475 -1.63604,-2.27893 1.45923,-3.24326 2.86358,-4.34403 5.67883,-3.71175 10.40347,-9.21327 12.05119,-15.907597 0.59801,-2.041472 3.7756,-1.350688 5.61094,-1.903745 12.95903,-1.288985 26.04091,0.965306 38.42582,4.727732 10.71313,3.42998 21.75514,7.25853 30.42959,14.56066 1.56542,0.59823 2.59135,1.91041 4.93399,3.00851 -1.11946,-1.39802 -3.64385,-3.24293 -5.30881,-4.84295 -9.65324,-7.58245 -21.80414,-11.70141 -33.52465,-15.03326 -12.06135,-3.240726 -24.7494,-5.164522 -37.21331,-3.43395 -2.06716,0.347229 -4.91596,0.272094 -4.69376,3.176786 -1.69045,6.358804 -6.36545,11.436444 -11.80942,14.903574 -1.86406,1.0919 -4.58738,2.57922 -3.10206,5.20124 0.61034,1.43671 3.41928,5.1788 0.18955,3.43025 -3.83681,-1.28949 -7.13895,-3.67356 -10.27379,-6.16529 -2.49058,-0.96348 -4.56855,-3.50595 -7.61506,-2.71702 -3.68259,0.4569 -7.79678,0.47704 -11.00869,-1.62561 -4.9163,-3.90687 -8.35978,-9.31599 -11.53458,-14.65354 -2.90496,-5.323147 -5.6652,-11.003475 -6.12681,-17.139262 -0.14844,-2.02488 2.23892,1.374237 3.28313,1.741726 6.24373,4.77279 12.8967,9.194877 20.27904,11.996676 2.30219,0.758063 6.92478,0.423551 5.84937,-3.112528 -0.54257,-2.3198 -3.10628,-3.021037 -4.69799,-4.494918 -11.08945,-8.218446 -22.12237,-16.796822 -34.74396,-22.567477 -3.24561,-1.39588 -6.64383,-2.625183 -10.18867,-2.918827 z"
       id="path1091"
       sodipodi:nodetypes="ccccccccccccccccccccccccccccccccccccc"
       inkscape:connector-curvature="0" />
    <path
       style="fill:#000000;fill-opacity:1;fill-rule:evenodd;stroke:none"
       d="m 23.90625,58.375 c -6.055832,0.20795 -12.197327,-0.150006 -18.1875,0.84375 -1.4770224,3.728483 12.295361,3.047249 14.747549,3.533773 1.869207,0.772759 7.859257,-0.570179 3.189931,-1.160471 C 20.538823,61.478153 8.7158122,61.184027 7.375,60.1875 c 14.030003,-0.919918 28.114038,-0.545053 42.167605,-0.619089 23.976827,0.209566 47.967594,0.28604 71.926145,1.275339 6.2938,3.335123 11.45843,8.437813 17.12554,12.702223 5.77997,4.43183 11.27256,9.410465 17.79325,12.738942 4.46467,0.510608 9.51175,-0.170869 13.97768,1.719777 4.982,1.572331 9.18625,4.874368 13.60353,7.432808 19.81523,-1.637905 40.84217,0.02469 58.33539,10.28344 12.32388,7.1012 22.51359,17.1551 33.46992,26.09715 5.59458,4.74468 11.16004,9.52375 16.69469,14.33816 -7.6185,-4.71601 -14.29507,-10.79969 -21.15625,-16.53125 -2.54062,1.25541 4.12787,4.45436 5.48021,6.2817 5.51722,4.31784 10.72953,9.27312 17.05036,12.38385 4.46552,-0.4472 -2.7143,-4.39568 -3.74596,-5.83368 C 277.9821,132.07698 265.89701,121.60245 253.48183,111.61581 241.44196,102.26882 226.8899,96.278606 211.73455,94.597134 202.56924,93.459958 193.29069,93.510819 184.09375,94.21875 176.58221,88.693793 167.52889,84.142277 157.9375,85.375 153.04573,83.845952 149.23425,80.002919 145.09811,77.101838 137.68087,71.482854 130.79933,65.123118 122.94514,60.105499 118.92911,58.855598 114.51918,59.542848 110.3449,59.163937 81.538818,58.514227 52.719642,58.143928 23.90625,58.375 z"
       id="path1088"
       sodipodi:nodetypes="cccccccccccccccccccccccccc"
       inkscape:connector-curvature="0" />
    <path
       style="fill:#000000;fill-opacity:1;fill-rule:evenodd;stroke:none"
       d="m 9.875,61.3125 c -2.2691964,1.773228 1.560158,3.459822 3.215052,3.354885 7.533701,1.004785 15.16462,0.721699 22.745631,0.655902 24.053842,-0.467259 48.060548,-2.251476 72.112407,-2.761523 3.50141,0.05282 7.0892,-0.245267 10.52066,0.563236 11.59048,8.253238 23.70836,15.757326 35.11058,24.278624 1.16473,0.687448 1.98164,1.663854 1.67025,2.911101 1.89344,0.867012 1.70019,-1.436766 0.78173,-2.435366 -4.2245,-3.702918 -9.02953,-6.68011 -13.60878,-9.918497 -7.86556,-5.375521 -15.82711,-10.628951 -23.65022,-16.053512 -3.67209,-0.867949 -7.50721,-0.539226 -11.25283,-0.590409 -26.462751,0.570458 -52.875858,2.702473 -79.350749,2.8366 C 22.72449,64.061798 17.197252,64.243479 11.843022,63.106144 9.8805887,63.074994 11.052237,61.761065 9.875,61.3125 z"
       id="path1089"
       inkscape:connector-curvature="0" />
    <path
       style="fill:#000000;fill-opacity:1;fill-rule:evenodd;stroke:none"
       d="m 200.25882,96.778856 c -1.33983,0.372842 -0.0382,0.795127 1.14551,1.36795 9.8103,1.56863 19.04594,6.044304 27.83019,10.555714 13.26988,6.87381 25.52897,15.46865 37.78071,23.97591 2.77636,1.84204 5.4712,3.87012 8.5254,5.23645 1.34682,1.02518 3.37547,-0.19015 2.45937,-1.85238 -0.6047,-1.07749 -1.63547,0.17645 -1.0625,0.96875 -1.75012,-0.41693 -3.23731,-1.53524 -4.76919,-2.43489 -7.10008,-4.64846 -13.94412,-9.67605 -21.05041,-14.3163 -11.29132,-7.41114 -22.9833,-14.42058 -35.67825,-19.16247 -4.80455,-1.748883 -10.09657,-3.714571 -15.18083,-4.338734 z"
       id="path1090"
       sodipodi:nodetypes="ccccccccccc"
       inkscape:connector-curvature="0" />
    <path
       style="fill:#000000;fill-opacity:1;fill-rule:evenodd;stroke:none"
       d="m 144.97877,105.16507 c -0.44149,0.10419 0.46428,1.79242 0.64609,2.64603 1.29143,2.78721 3.26427,4.92868 6.0814,6.16684 3.38289,1.54279 7.09221,2.04445 10.76742,1.89504 3.42735,-0.14168 6.83337,-0.71968 10.12628,-1.67688 0.56266,-0.24053 0.31272,-1.24183 -0.30073,-1.17377 -0.70722,0.15153 -1.39571,0.38237 -2.10735,0.51745 -4.53758,1.03909 -9.27701,1.50672 -13.89461,0.7311 -2.8775,-0.50767 -5.82289,-1.42511 -7.88481,-3.55223 -1.28817,-1.31179 -3.18406,-5.62315 -3.43369,-5.55358 z"
       id="path1092"
       sodipodi:nodetypes="cccccccccc"
       inkscape:connector-curvature="0" />
    <path
       style="fill:#000000;fill-opacity:1;fill-rule:evenodd;stroke:none"
       d="m 160.59375,100.34375 c -0.53585,-0.0265 0.0225,1.00759 0.35097,1.40183 1.20832,2.50867 1.97435,4.51448 3.99944,6.4348 1.78128,1.66655 4.04071,2.95432 6.5155,3.12134 2.08041,0.16335 3.66012,-0.62921 5.43944,-1.68471 1.62565,-1.33419 0.66906,-1.00062 0.097,-0.94857 -0.47308,0.0763 -0.84491,0.42865 -1.29249,0.5863 -1.84474,0.8553 -4.01119,1.10761 -5.95702,0.44444 -2.37622,-0.77995 -4.4339,-2.38045 -5.96432,-4.30166 -1.10703,-1.40228 -2.95498,-5.05955 -3.1885,-5.05377 z"
       id="path1093"
       sodipodi:nodetypes="cccccccccc"
       inkscape:connector-curvature="0" />
    <path
       style="fill:url(#linearGradient4939);fill-opacity:1;fill-rule:evenodd;stroke:none"
       d="m 171.66169,107.95084 c 0,0 2.04035,-1.36023 2.44842,0.13603 0.40807,1.49626 -0.13602,7.07322 -1.08819,8.02539 -0.95216,0.95216 -1.7683,0 -1.7683,-0.81614 0,-0.81615 -0.13602,-6.52913 0.40807,-7.34528 z"
       id="path4314"
       inkscape:connector-curvature="0" />
    <path
       style="fill:#000000;fill-opacity:1;fill-rule:evenodd;stroke:none"
       d="m 173.09375,106.9375 c -0.6743,-0.0412 -1.46253,-0.0169 -1.95045,0.52138 -0.31735,0.4853 -0.21334,1.09809 -0.33554,1.64159 -0.24967,2.11421 -0.52392,4.26624 -0.1991,6.38767 0.12839,0.82116 0.51152,1.73401 1.33971,2.05552 0.55782,0.17947 1.07266,-0.27625 1.37594,-0.69802 0.82689,-1.2713 1.17186,-2.7881 1.38985,-4.27022 0.15405,-1.30606 0.3047,-2.63009 0.17534,-3.94474 -0.0316,-0.84172 -0.75985,-1.49921 -1.55436,-1.64976 -0.0797,-0.0184 -0.16029,-0.0328 -0.24139,-0.0434 z m -0.21875,1.28125 c 0.60956,-0.0316 0.87612,0.67803 0.80775,1.18925 0.0237,2.0737 -0.23946,4.17945 -1.00772,6.1151 -0.15274,0.44008 -0.87231,0.40141 -0.84774,-0.11372 -0.32014,-2.01242 -0.0123,-4.04539 0.23165,-6.04733 0.0753,-0.32636 0.003,-0.70151 0.17208,-0.99253 0.16261,-0.16576 0.42547,-0.20661 0.64398,-0.15077 z"
       id="path1094"
       inkscape:connector-curvature="0" />
    <path
       style="fill:#4a0000;fill-opacity:1;fill-rule:evenodd;stroke:none"
       d="m 164.78517,97.311549 c 1.17225,-0.418662 3.85169,2.846901 3.76795,3.935421 -1.84211,1.42345 -3.68422,-2.763169 -3.76795,-3.935421 z"
       id="path5587"
       sodipodi:nodetypes="ccc"
       inkscape:connector-curvature="0" />
    <path
       style="fill:#000000;fill-opacity:1;fill-rule:evenodd;stroke:none"
       d="m 164.625,96.59375 c -0.40614,0.03631 -0.67193,0.535056 -0.48137,0.89454 0.46095,1.369522 0.97619,2.76305 1.90394,3.89306 0.55817,0.66428 1.37183,1.18437 2.26598,1.15821 0.34191,0.0247 0.68504,-0.20659 0.72293,-0.56136 0.17246,-1.12025 -0.29041,-2.230285 -0.91824,-3.135825 -0.64543,-0.912497 -1.45897,-1.79055 -2.54401,-2.159385 -0.30428,-0.09893 -0.63172,-0.145589 -0.94923,-0.08924 z m 0.38143,0.818927 c 1.06397,0.338997 2.63644,2.032636 2.87543,3.079163 0.036,0.13459 0.11505,1.11129 -0.10213,0.97872 -0.30336,-0.15749 -1.01112,-0.4486 -1.2206,-0.71023 -0.45884,-0.62644 -1.27765,-2.631495 -1.5527,-3.347653 z"
       id="path1095"
       sodipodi:nodetypes="ccccccccccccc"
       inkscape:connector-curvature="0" />
    <path
       style="fill:#4a0000;fill-opacity:1;fill-rule:evenodd;stroke:none"
       d="m 175.58664,101.74936 c 0,-3.516763 2.76316,-3.181827 3.76795,-3.181827 0,1.590917 -1.00479,2.344507 -3.76795,3.181827 z"
       id="path5588"
       sodipodi:nodetypes="ccc"
       inkscape:connector-curvature="0" />
    <path
       style="fill:#000000;fill-opacity:1;fill-rule:evenodd;stroke:none"
       d="m 178.09375,98.0625 c -0.99665,0.160776 -1.97614,0.657976 -2.5584,1.50387 -0.40045,0.57633 -0.61786,1.29076 -0.5587,1.99333 0.0341,0.34544 0.39807,0.58949 0.73218,0.52963 1.50694,-0.0751 2.93846,-0.89555 3.81274,-2.117645 0.25151,-0.354697 0.47513,-0.737964 0.60736,-1.153512 0.0673,-0.343369 -0.20145,-0.704039 -0.55156,-0.733422 -0.48753,-0.09918 -0.99319,-0.103755 -1.48362,-0.02225 z m 1.00479,0.966356 c -0.43384,0.48031 -1.02189,2.050484 -3.47357,2.248814 0.0422,-0.17032 0.51842,-1.13955 0.62579,-1.27512 0.20989,-0.216126 0.79235,-0.851252 1.09693,-0.908713 0.19161,-0.03265 2.48242,-0.687759 1.75085,-0.06498 z"
       id="path1096"
       sodipodi:nodetypes="ccccccccccccc"
       inkscape:connector-curvature="0" />
    <path
       style="fill:url(#linearGradient4944);fill-opacity:1;fill-rule:evenodd;stroke:none"
       d="m 144.45698,110.12722 c 0,0 2.72047,1.22421 2.8565,1.76831 0.13602,0.54409 -2.3124,6.66515 -3.12854,8.02539 -0.81614,1.36023 -2.8565,4.6248 -3.94469,3.94468 -1.08818,-0.68012 -2.04035,-1.49626 -1.63228,-2.17638 0.40807,-0.68012 4.35276,-2.99252 4.6248,-3.94468 0.27205,-0.95217 1.22421,-6.9372 1.22421,-7.61732 z"
       id="path4940"
       inkscape:connector-curvature="0" />
    <path
       style="fill:url(#linearGradient4949);fill-opacity:1;fill-rule:evenodd;stroke:none"
       d="m 151.66623,114.616 c 0,0 3.40059,0.68012 2.17638,2.04035 -1.22421,1.36024 -5.98504,3.40059 -6.39311,4.6248 -0.40807,1.22421 -0.13602,3.67264 -1.7683,3.80866 -1.63229,0.13602 -3.53662,0.54409 -3.94469,-0.40807 -0.40807,-0.95217 3.53662,-5.03287 4.08071,-5.03287 0.54409,0 2.99252,-0.5441 3.53661,-1.22421 0.5441,-0.68012 1.63228,-3.53662 2.3124,-3.80866 z"
       id="path4945"
       inkscape:connector-curvature="0" />
    <path
       style="fill:url(#linearGradient5606);fill-opacity:1;fill-rule:evenodd;stroke:none"
       d="m 138.82816,122.01258 c 0,0 3.09809,-2.76317 3.76795,-3.68422 0.66986,-0.92106 1.33972,-0.83733 1.84211,-0.41867 0.50239,0.41867 -1.08852,3.3493 0.2512,2.42824 1.33971,-0.92105 2.5957,-1.59091 3.09809,-0.83732 0.5024,0.75359 -0.50239,1.59091 -0.66986,2.76316 -0.66985,1.08853 -0.50239,2.42825 -1.00478,2.8469 -2.26078,0.2512 -4.52155,0.33493 -4.68901,-0.58612 -0.16747,-0.92106 -2.17704,-0.2512 -2.5957,-2.51197 z"
       id="path5602"
       sodipodi:nodetypes="ccccccccc"
       inkscape:connector-curvature="0" />
    <path
       style="fill:#000000;fill-opacity:1;fill-rule:evenodd;stroke:none"
       d="m 144.25,109.3125 c -0.54486,0.13404 -0.48891,0.7937 -0.51073,1.22926 -0.15202,2.00681 -0.24046,4.0298 -0.63984,6.00671 -0.0413,0.55881 -0.54607,0.84741 -0.92358,1.18528 -1.1319,0.94006 -2.33301,1.80715 -3.36525,2.85997 -0.42806,0.44494 -0.90111,1.03958 -0.68248,1.6983 0.28524,0.85324 0.72999,1.81506 1.66003,2.10544 0.8773,0.30619 1.83999,-0.0852 2.46567,-0.72076 0.97096,-0.89464 1.74834,-1.98244 2.43019,-3.10721 0.59324,-1.08462 0.97442,-2.26742 1.45124,-3.40467 0.62768,-1.62732 1.23061,-3.27019 1.68292,-4.95532 0.22069,-0.53985 -0.19766,-0.97476 -0.58433,-1.28487 -0.80164,-0.77554 -1.77032,-1.52275 -2.91901,-1.62176 -0.0216,0.003 -0.0432,0.006 -0.0648,0.01 z m 0.71875,1.65625 c 0.56412,0.29609 1.10272,0.65026 1.5625,1.09375 -0.48389,1.91768 -0.7372,3.83572 -1.44179,5.67961 -0.39719,0.98328 -1.24925,1.91381 -1.85734,2.79297 -0.57726,0.86267 -1.20301,1.71897 -2.00924,2.38165 -0.40202,0.36416 -1.16597,0.53687 -1.45601,-0.0523 -0.20164,-0.40871 -0.64189,-0.95193 -0.14365,-1.33149 1.29215,-1.3068 2.82864,-2.33824 4.19519,-3.56126 0.53077,-0.6152 0.55839,-1.47331 0.71437,-2.23452 0.20956,-1.50788 0.30441,-3.02921 0.42332,-4.54615 0.004,-0.0741 0.009,-0.14818 0.0127,-0.22229 z"
       id="path1098"
       sodipodi:nodetypes="ccccccccccccccccccccccccc"
       inkscape:connector-curvature="0" />
    <path
       style="fill:#000000;fill-opacity:1;fill-rule:evenodd;stroke:none"
       d="m 151.4375,113.9375 c -0.48723,0.15794 -0.55372,0.72607 -0.68837,1.14627 -0.52551,1.22068 -1.21135,2.4649 -2.3677,3.19184 -0.50361,0.32184 -1.09459,0.5071 -1.6949,0.48405 -0.46271,0.006 -0.94224,0.1012 -1.30562,0.4069 -0.77875,0.55692 -1.44099,1.25578 -2.19106,1.8487 -0.7604,0.65519 -1.5853,1.27279 -2.14927,2.11628 -0.47363,0.87844 0.0379,2.07732 0.96681,2.40444 1.21355,0.53026 2.60752,0.46242 3.86085,0.11623 0.65232,-0.19742 1.27277,-0.7489 1.26423,-1.47712 3e-4,-0.54477 0.0833,-1.14447 0.50869,-1.53146 1.24701,-1.5107 2.80322,-2.72226 4.35075,-3.9067 0.60933,-0.43483 1.25225,-0.81929 1.8909,-1.20879 0.43928,-0.54033 0.26513,-1.31505 -0.0161,-1.88616 -0.45894,-0.88937 -1.35409,-1.60741 -2.36825,-1.70359 l -0.0609,-8.9e-4 z m 0.40625,1.5 c 0.47479,0.13406 0.90624,0.54786 0.97028,1.04845 0.0216,0.37384 -0.35943,0.52481 -0.62283,0.68725 -1.98944,1.23559 -3.75718,2.79745 -5.37933,4.47878 -0.55956,0.63645 -1.00243,1.46507 -0.91,2.33696 -0.0407,0.4223 -0.52873,0.54596 -0.88237,0.57507 -0.88589,0.13885 -1.88214,0.22537 -2.66954,-0.29135 -0.33922,-0.19205 -0.21363,-0.69153 0.0445,-0.90056 1.17939,-1.06896 2.38701,-2.10757 3.6129,-3.1231 0.57518,-0.39055 1.31638,-0.11152 1.93088,-0.38579 1.30007,-0.392 2.35142,-1.36634 3.04222,-2.51299 0.36586,-0.59847 0.64891,-1.24549 0.86325,-1.91272 z"
       id="path1099"
       inkscape:connector-curvature="0" />
  </g>
  <metadata
     id="metadata3035">
    <rdf:RDF>
      <cc:Work
         rdf:about="">
        <dc:title>seagull</dc:title>
        <dc:description />
        <dc:subject>
          <rdf:Bag>
            <rdf:li>bird</rdf:li>
          </rdf:Bag>
        </dc:subject>
        <dc:publisher>
          <cc:Agent>
            <dc:title />
          </cc:Agent>
        </dc:publisher>
        <dc:creator>
          <cc:Agent>
            <dc:title>Nicu Buculei</dc:title>
          </cc:Agent>
        </dc:creator>
        <dc:rights>
          <cc:Agent>
            <dc:title>Nicu Buculei</dc:title>
          </cc:Agent>
        </dc:rights>
        <dc:date />
        <dc:format>image/svg+xml</dc:format>
        <dc:type
           rdf:resource="http://purl.org/dc/dcmitype/StillImage" />
        <cc:license
           rdf:resource="http://web.resource.org/cc/PublicDomain" />
        <dc:language>en</dc:language>
      </cc:Work>
      <cc:License
         rdf:about="http://web.resource.org/cc/PublicDomain">
        <cc:permits
           rdf:resource="http://web.resource.org/cc/Reproduction" />
        <cc:permits
           rdf:resource="http://web.resource.org/cc/Distribution" />
        <cc:permits
           rdf:resource="http://web.resource.org/cc/DerivativeWorks" />
      </cc:License>
    </rdf:RDF>
  </metadata>
</svg>
