<?xml version="1.0" encoding="UTF-8" standalone="no"?>
<!-- Created with Inkscape (http://www.inkscape.org/) -->

<svg
   xmlns:dc="http://purl.org/dc/elements/1.1/"
   xmlns:cc="http://creativecommons.org/ns#"
   xmlns:rdf="http://www.w3.org/1999/02/22-rdf-syntax-ns#"
   xmlns:svg="http://www.w3.org/2000/svg"
   xmlns="http://www.w3.org/2000/svg"
   xmlns:xlink="http://www.w3.org/1999/xlink"
   xmlns:sodipodi="http://sodipodi.sourceforge.net/DTD/sodipodi-0.dtd"
   xmlns:inkscape="http://www.inkscape.org/namespaces/inkscape"
   height="274.62799"
   id="svg1582"
   inkscape:version="0.48.1 r9760"
   sodipodi:docname="pig_marcelo_caiafa1.svg"
   sodipodi:version="0.32"
   version="1.0"
   viewBox="0 0 238.53733 243.59067"
   width="490.55383"
   x="0.00000000"
   xml:space="preserve"
   y="0.00000000"><metadata
   id="metadata3"><rdf:RDF><cc:Work
       rdf:about=""><dc:title>Pig</dc:title><dc:description /><dc:subject><rdf:Bag><rdf:li>mammal</rdf:li><rdf:li>pink</rdf:li><rdf:li>animal</rdf:li><rdf:li>farm</rdf:li><rdf:li>pig</rdf:li></rdf:Bag></dc:subject><dc:publisher><cc:Agent
           rdf:about="http://www.openclipart.org"><dc:title>Open Clip Art Library</dc:title></cc:Agent></dc:publisher><dc:creator><cc:Agent><dc:title>Marcelo Caiafa</dc:title></cc:Agent></dc:creator><dc:rights><cc:Agent><dc:title>Marcelo Caiafa</dc:title></cc:Agent></dc:rights><dc:date /><dc:format>image/svg+xml</dc:format><dc:type
         rdf:resource="http://purl.org/dc/dcmitype/StillImage" /><cc:license
         rdf:resource="http://web.resource.org/cc/PublicDomain" /><dc:language>en</dc:language></cc:Work><cc:License
       rdf:about="http://web.resource.org/cc/PublicDomain"><cc:permits
         rdf:resource="http://web.resource.org/cc/Reproduction" /><cc:permits
         rdf:resource="http://web.resource.org/cc/Distribution" /><cc:permits
         rdf:resource="http://web.resource.org/cc/DerivativeWorks" /></cc:License></rdf:RDF></metadata>
<sodipodi:namedview
   bordercolor="#666666"
   borderopacity="1.0"
   id="base"
   inkscape:current-layer="svg1582"
   inkscape:cx="261.27711"
   inkscape:cy="136.28005"
   inkscape:pageopacity="0.0"
   inkscape:pageshadow="2"
   inkscape:window-height="973"
   inkscape:window-width="1280"
   inkscape:window-x="-4"
   inkscape:window-y="-4"
   inkscape:zoom="0.97299472"
   pagecolor="#ffffff"
   showgrid="false"
   fit-margin-top="0"
   fit-margin-left="0"
   fit-margin-right="0"
   fit-margin-bottom="0"
   inkscape:window-maximized="0" />
<defs
   id="defs1835">
  <linearGradient
   gradientUnits="userSpaceOnUse"
   id="linearGradient1847"
   x1="221.617"
   x2="269.62601"
   xlink:href="#id0"
   y1="205.39101"
   y2="222.00999" />

</defs>


 

<g
   id="Capa_x0020_1"
   transform="matrix(0.279523,0,0,0.279523,-994.28306,-2283.0396)">
  <path
   d="m 3839.83,8937.95 c -16.5197,-12.9724 -42.7953,-19.9764 -23.6654,-49.5472 8.4252,-13.0236 33.8386,3.3228 45.4173,6.4016 37.689,10.0236 3.2047,62.748 -21.752,43.1457 l 10e-5,-10e-5 z"
   id="path3696"
   style="fill:#838281"
   inkscape:connector-curvature="0" />

  <path
   d="m 3851.44,8926.97 c -13.1929,-8.5394 -31.0472,-17.0787 -22.5079,-30.2717 6.2087,7.374 21.7323,10.4764 34.1535,13.9685 -0.3898,5.0472 -0.7795,10.0945 -1.1654,15.5276 -3.4921,0 -6.9881,0.3858 -10.4803,0.7756 l 1e-4,0 z"
   id="path3698"
   style="fill:#aaa9a9"
   inkscape:connector-curvature="0" />

  <g
   id="g3700">
   <path
   d="m 4221.07,9001.29 c -0.5394,-0.2126 -1.0866,-0.437 -2.2047,-1.1063 l 15.6457,-26.1339 c 1.0787,0.6457 -2.5866,-1.248 -2.0866,-1.0512 l -11.3543,28.2913 -1e-4,1e-4 z m 11.9371,-28.0513 c 0.035,0.016 1.4685,0.7914 1.5039,0.811 l -7.8228,13.0669 6.3189,-13.878 0,10e-5 z m -12.6378,27.7558 c -2.8307,-1.2992 -3.9961,-1.811 -5.0158,-2.2559 l 12.1339,-27.9213 c 2.5512,1.1103 4.9449,2.1575 5.5197,2.4213 l -12.6378,27.7559 0,0 z m -5.0157,-2.2559 c -3.2599,-1.4252 -4.7638,-2.0394 -5.8071,-2.5197 l 12.7559,-27.7717 c 4.6614,2.1457 4.7834,2.1968 5.185,2.3701 l -12.1339,27.9213 1e-4,0 z m 6.8897,-30.2835 0.059,-0.01 -6.3779,13.8858 6.3189,-13.878 0,10e-5 z m -12.6378,27.7558 c -18.4094,-8.4606 -33.9646,-19.0276 -23.3386,-42.1339 l 27.7559,12.6378 c -0.689,1.5 4.3386,-0.043 8.2205,1.7402 l -12.6378,27.7559 0,0 z m -23.3386,-42.1339 c 4.0984,-8.9134 16.6339,-11.5827 23.9921,-5.0906 l -10.1142,11.4094 -13.878,-6.3189 10e-5,10e-5 z m 23.992,-5.0906 c 0.1141,0.1023 -0.2323,-0.2048 -0.2126,-0.189 l -19.4016,23.5433 c -0.1063,-0.087 -0.3662,-0.315 -0.6142,-0.5354 l 20.2283,-22.8189 1e-4,0 z m -0.2127,-0.189 0.2086,0.2126 -9.9094,11.5591 9.7008,-11.7717 0,0 z m 0.2086,0.2126 c 2.6418,2.2638 12.3583,3.4094 21.3622,4.4645 l -3.3543,30.2756 c -13.5315,-1.5866 -28.1299,-3.311 -37.8268,-11.622 l 19.8189,-23.1181 0,0 z m 21.3622,4.4646 c 2.2047,0.2559 4.3937,0.5158 6.248,0.7599 l -3.8425,30.2205 c -2.0236,-0.2638 -3.8819,-0.4843 -5.7598,-0.7048 l 3.3543,-30.2756 0,0 z m 6.248,0.7599 c 6.0827,0.7992 12.9134,8.0118 13.315,14.1181 l -15.2362,0.9921 1.9213,-15.1102 -1e-4,0 z m 13.3151,14.1181 c 0.1378,2.1142 0.2362,4.874 0.3307,7.6772 l -30.4882,1.0236 c -0.067,-2.0473 -0.1417,-4.0827 -0.3149,-6.7166 l 30.4724,-1.9842 0,0 z m 0.3307,7.6772 c 0.087,2.5197 0.1811,5.0984 0.37,7.7874 l -30.4331,2.2204 c -0.2165,-3.0551 -0.3267,-6.0511 -0.4252,-8.9842 l 30.4882,-1.0236 1e-4,0 z m 0.37,7.7874 c 0.5,7.063 -6.0393,15.2205 -13.0354,16.2323 l -2.1811,-15.122 15.2165,-1.1103 0,0 z m -13.0354,16.2323 c -2.5708,0.3701 -4.9567,0.9961 -7.5393,1.6693 l -7.6378,-29.5354 c 3.6338,-0.9449 6.9881,-1.8228 10.815,-2.3779 l 4.3622,30.2441 -1e-4,-1e-4 z m -7.5393,1.6694 -0.059,0.01 -3.7598,-14.7756 3.8189,14.7677 0,1e-4 z m -0.059,0.01 c -0.1063,0.024 -0.091,0.024 -0.7992,0.2008 l -7.4015,-29.5669 c 1.2047,-0.3032 0.087,-0.035 0.6811,-0.185 l 7.5196,29.5512 0,-10e-5 z m -0.7992,0.2008 c -1.4094,0.3583 -8.0275,-0.098 -9.3779,-0.6378 l 5.6772,-14.1457 3.7007,14.7835 0,0 z"
   id="path3702"
   style="fill:#838281"
   inkscape:connector-curvature="0" />

   <path
   d="m 4226.74,8987.14 c -14.2795,-6.5669 -33.1693,-12.4685 -26.6024,-26.748 7.2008,6.4094 23.0079,7.2677 35.7992,8.9488 0.3346,5.0512 0.3307,10.1496 0.7205,15.5827 -3.4567,0.5 -6.5158,1.3307 -9.9173,2.2166 l 0,-1e-4 z"
   id="path3704"
   style="fill:#aaa9a9"
   inkscape:connector-curvature="0" />

  </g>

  <g
   id="g3706">
   <path
   d="m 4167.72,8930.13 c 0.4173,-0.3898 0.6024,-0.5669 0.6496,-0.6102 l 21.252,21.8425 c -0.5354,0.5196 -0.9567,0.9291 -1.1299,1.0905 l -20.7717,-22.3228 0,0 z m 0.6496,-0.6102 c 3.3937,-3.2874 6.5236,-6.9803 9.3819,-10.9803 l 24.8268,17.6693 c -3.9331,5.5 -8.252,10.5984 -12.9567,15.1535 l -21.252,-21.8425 0,0 z m 9.3819,-10.9803 c 2.9527,-4.1299 5.6575,-8.6339 8.1023,-13.3858 l 27.0945,13.9685 c -3.0787,5.9803 -6.5354,11.7205 -10.3701,17.0866 l -24.8268,-17.6693 1e-4,0 z m 8.1023,-13.3858 c 12.8307,-24.9331 18.3307,-56.1969 17.8228,-81.1181 l 30.5591,-0.5984 c 0.5905,29.126 -5.9764,65.937 -21.2874,95.685 l -27.0945,-13.9685 0,0 z m 17.8228,-81.1181 c -0.1496,-7.4882 7.2008,-15.2795 14.6811,-15.5787 l 0.5984,15.2795 -15.2795,0.2992 0,0 z m 14.6811,-15.5787 c 3.6221,-0.1418 6.8583,-0.2992 9.7205,-0.4292 l 1.1968,30.5591 c -2.8622,0.13 -6.0984,0.2874 -9.7204,0.4292 l -1.1969,-30.5591 z m 9.7205,-0.4292 c 19.7756,-0.9134 27.6181,-1.2834 34.2283,8.1142 l -24.9449,17.5512 c -3.0788,-4.3779 -0.095,4.5276 -8.0866,4.8937 l -1.1969,-30.5591 1e-4,0 z m 34.2282,8.1142 c 4.7047,6.6732 3.878,11.815 2.5276,20.3189 l -30.0787,-4.7717 c 0.1338,-0.8582 4.996,5.3937 2.6063,2.004 l 24.9449,-17.5512 -10e-5,0 z m 2.5276,20.3189 c -0.8976,5.6574 -2.2913,14.4094 -1.1614,27.9961 l -30.4409,2.3858 c -1.3937,-16.7874 0.378,-27.9409 1.5236,-35.1535 l 30.0787,4.7716 0,0 z m -1.1614,27.9961 c 0.032,0.4016 -0.3228,4.504 -0.4173,4.8937 l -14.8031,-3.7007 15.2205,-1.193 -1e-4,0 z m -0.4172,4.8937 c -3.6772,14.7165 -5.8189,30.1339 -7.9921,45.811 l -30.2047,-4.1811 c 2.3031,-16.6142 4.5708,-32.9528 8.5905,-49.0315 l 29.6063,7.4016 0,0 z m -7.9921,45.811 c -1.8504,13.3583 -3.7284,26.9134 -6.6378,40.9173 l -29.8425,-6.2047 c 2.6614,-12.8189 4.4842,-25.9528 6.2756,-38.8937 l 30.2047,4.1811 0,0 z m -6.6378,40.9173 c -2.0591,9.9094 -14.0591,15.1772 -22.7402,9.9685 l 7.8189,-13.0709 14.9213,3.1024 0,0 z m -22.7402,9.9685 -0.1181,-0.071 15.6378,-26.1417 0.1181,0.071 -15.6378,26.1417 z m -0.1181,-0.071 -0.059,0 7.8779,-13.0709 -7.8189,13.0709 1e-4,0 z m -0.059,0 c -1.0787,-0.6496 -5.2087,-1.6969 -9.5827,-2.8032 l 7.4016,-29.6063 c 6.6929,1.6929 12.9961,3.2914 17.937,6.2678 l -15.7559,26.1417 0,0 z m -9.5827,-2.8032 c -10.0315,-2.5354 -20.9291,-5.2992 -27.8071,-12.6614 l 22.3228,-20.7717 c 0.6929,0.7402 7.0433,2.3504 12.8858,3.8268 l -7.4016,29.6063 1e-4,0 z m -19.9292,-37.9685 c 3.6615,-0.811 11.8819,1.7913 14.4449,4.5354 l -11.1614,10.3858 -3.2834,-14.9213 -1e-4,1e-4 z m 6.567,29.8424 -0.1063,0.024 -6.5669,-29.8425 0.1063,-0.024 6.5669,29.8425 z m -6.7323,-29.8189 0.059,0 3.2834,14.9213 -3.3425,-14.9213 0,0 z m 6.6851,29.8425 c -7.6142,1.7323 -24.5039,5.5236 -33.8622,-1.6614 l 18.5039,-24.2362 c 1.9685,1.5118 5.3582,-3.1929 8.6732,-3.9449 l 6.685,29.8425 10e-5,0 z m -33.8623,-1.6614 c -7.0315,-5.4016 -7.6141,-17.2244 -1.1338,-23.2795 l 10.3858,11.1614 -9.252,12.1181 0,0 z"
   id="path3708"
   style="fill:#838281"
   inkscape:connector-curvature="0" />

   <path
   d="m 4178.1,8941.29 c 29.3701,-27.6339 41.626,-79.5197 40.8504,-117.555 48.5118,-1.9409 25.6142,-4.6575 29.4961,41.9134 -6.9882,27.9449 -8.5394,57.4409 -14.748,87.3268 -7.2244,-4.4685 -27.7598,-5.9291 -34.2244,-12.8504 -5.4173,1.2323 -17.6535,4.0236 -21.374,1.1654 l -10e-5,-2e-4 z"
   id="path3710"
   style="fill:#f7c5b4"
   inkscape:connector-curvature="0" />

  </g>

  <g
   id="g3712">
   <path
   d="m 3855.69,8917 -0.098,-0.024 7.0393,-29.7244 0.099,0.024 L 3855.69,8917 z m -0.098,-0.024 -0.063,-0.059 3.5827,-14.8031 -3.5197,14.8622 0,0 z m -0.063,-0.059 c -2.8543,-0.6929 -4.6496,-1.1378 -5.1221,-1.2678 l 8.1181,-29.4882 c 2.5591,0.7126 3.8819,1.0827 4.1693,1.1497 l -7.1653,29.6063 0,0 z m -5.1221,-1.2678 c -1.3346,-0.374 -2.9763,-0.8661 -4.996,-1.5078 l 9.189,-29.126 c 0.87,0.2756 2.2283,0.6732 3.9252,1.1456 l -8.1182,29.4882 0,0 z m 4.1339,-30.6339 0.059,0 -4.5945,14.563 4.5354,-14.563 0,0 z m -9.0709,29.126 c -8.689,-2.7441 -16.3858,-6.1023 -21.874,-9.5315 l 16.1181,-25.9055 c 3.4055,2.13 8.626,4.3544 14.8268,6.3111 l -9.0708,29.126 -10e-5,-1e-4 z m -21.8739,-9.5314 c -3.0394,-1.8977 -7.2205,-9.3701 -7.2205,-12.9528 l 15.2795,0 -8.0591,12.9528 1e-4,0 z m -7.2205,-12.9528 c 0,-7.4607 2.4763,-12.1063 4.9094,-16.6811 l 26.9764,14.3228 c -0.6535,1.2322 -1.3268,2.2244 -1.3268,2.3582 l -30.5591,0 1e-4,1e-4 z m 4.9094,-16.6812 0.059,0 13.4291,7.1614 -13.4882,-7.1614 1e-4,0 z m 0.059,0 c 0.5039,-0.9449 1.5945,-0.1063 1.2992,-0.9921 l 28.8898,-9.6693 c 3.8465,11.5236 0.2874,18.1969 -3.3307,24.9843 l -26.8583,-14.3228 0,-1e-4 z m 22.6063,-19.4369 c 1.9567,0.9921 6.8858,6.689 7.5827,8.7756 l -14.4449,4.8347 6.8622,-13.6102 0,-10e-5 z m -13.7244,27.2206 c -1.2677,-0.6418 -1.5788,-0.8426 -1.874,-1.0237 l 15.9921,-26.0236 c 0.1023,0.063 -1.0709,-0.5157 -0.3937,-0.1732 l -13.7244,27.2205 0,0 z m -1.8741,-1.0236 c -1.7874,-1.1063 11.2756,1.9134 7.1851,1.9134 l 0,-30.5591 c 4.5748,0 6.3582,1.1063 8.8071,2.622 l -15.9921,26.0236 -10e-5,1e-4 z m -5.3503,-22.0788 c 1.8661,-2.6653 9.2834,-6.5669 12.5354,-6.5669 l 0,15.2795 -12.5354,-8.7126 0,0 z m 25.0709,17.4252 -0.028,0.039 -25.0709,-17.4252 0.028,-0.039 25.0709,17.4252 z m -0.028,0.039 -0.063,0.063 -12.4724,-8.7756 12.5354,8.7126 0,0 z m -0.063,0.063 c -0.4134,0.5866 -0.7323,1.0511 -1.0157,1.4685 l -25.189,-17.189 c 0.4645,-0.6851 0.9134,-1.3386 1.2598,-1.8308 l 24.9449,17.5512 0,10e-5 z m -26.2638,-15.6615 0.059,-0.059 12.5945,8.5945 -12.6535,-8.5354 -1e-4,-10e-5 z m 25.3072,17.071 c -0.9292,1.3779 -0.7166,1.0354 -1.0748,1.5748 l -25.4252,-16.8346 c 1.1102,-1.6772 1.0197,-1.5512 1.1929,-1.8111 l 25.3071,17.0709 0,0 z m -26.5,-15.1969 0,-0.063 12.7126,8.4174 -12.7126,-8.3544 0,0 z m 25.4252,16.7087 c -1.4488,2.2008 -3.0473,4.8465 -4.748,7.9685 l -26.8583,-14.5669 c 1.6259,-2.9882 3.7834,-6.4724 6.1811,-10.1102 l 25.4252,16.7087 0,-10e-5 z m -4.7481,7.9686 c -2.4488,4.5 -10.874,8.5985 -15.937,7.7559 l 2.5079,-15.0394 13.4291,7.2835 0,0 z m -15.937,7.7559 c -5.4685,-0.9094 -9.7756,-2.6929 -13.0866,-5.1378 l 18.1417,-24.4724 c 0.5157,0.378 -0.5669,-0.5551 -0.039,-0.4685 l -5.0157,30.0787 0,0 z m 4.996,-29.6693 0.059,0.059 -9.0709,12.2362 9.0118,-12.2953 0,0 z m -18.0236,24.5906 c -7.0826,-5.2087 -9.3504,-11.9606 -8.2598,-19.5394 l 30.2047,4.2992 c -0.5236,3.6378 -7.2913,-11.8268 -3.9213,-9.3504 l -18.0236,24.5906 0,0 z m -8.2598,-19.5394 c 0.6732,-4.6929 2.8937,-9.1693 5.9488,-13.2795 l 24.4724,18.1417 c -0.2205,0.2992 -0.1102,-1.3189 -0.2165,-0.563 l -30.2047,-4.2992 0,0 z m 5.9488,-13.2795 c 5.3268,-7.1496 13.8189,-13.9646 18.5945,-17.4409 l 17.9055,24.7087 c -3.3465,2.437 -9.1417,7 -12.0276,10.874 l -24.4724,-18.1417 0,-10e-5 z m 42.6496,-7.2361 c 0.5709,4.0078 -2.878,12.122 -6.1496,14.5039 l -8.9528,-12.3543 15.1024,-2.1497 0,10e-5 z m -30.2047,4.2992 -0.047,-0.3307 30.2047,-4.2993 0.047,0.3307 -30.2047,4.2993 z m -0.047,-0.3307 0,-0.059 15.1024,-2.0906 -15.1024,2.1497 0,0 z m 0,-0.059 c -0.7795,-5.5905 -1.1693,-10.6102 -1.5276,-15.3189 l 30.4409,-2.2677 c 0.3386,4.4646 0.7087,9.2244 1.2914,13.4055 l -30.2047,4.1811 0,0 z m -1.5276,-15.3189 c -0.122,-1.6339 0.091,1.248 -0.095,-1.1575 l 30.4409,-2.3858 c 0.1221,1.6023 -0.09,-1.1772 0.095,1.2756 l -30.4409,2.2677 z m -0.095,-1.1575 c -0.4488,-5.7559 4.8977,-13.8071 10.3858,-15.6378 l 4.8347,14.4449 -15.2205,1.1929 0,0 z m 10.3858,-15.6378 c 3.8819,-1.2953 9.8228,-3.4409 15.5669,-5.5118 l 10.2677,28.7717 c -4.2559,1.5354 -8.6811,3.1339 -16.1654,5.6299 l -9.6693,-28.8898 1e-4,0 z m 15.5668,-5.5118 c 13.9016,-5.0197 26.5827,-9.6023 45.8425,-13.2677 l 5.6141,29.9606 c -16.374,3.1181 -28.2126,7.3937 -41.189,12.0787 l -10.2677,-28.7717 1e-4,10e-5 z m 45.8424,-13.2678 c 10.0039,-1.9055 19.4528,7.2008 17.9094,17.248 l -15.1024,-2.2677 -2.807,-14.9803 0,0 z m 17.9094,17.248 c -2.8977,18.8622 -10.1102,34.7205 -17.3189,50.5827 l -27.811,-12.5354 c 6.3307,-13.9252 12.6614,-27.8504 14.9252,-42.5827 l 30.2047,4.5354 0,0 z m -17.3189,50.5827 c -5.1497,11.3307 -10.311,22.6811 -13.252,34.2953 l -29.6063,-7.4015 c 3.6181,-14.2913 9.3385,-26.8701 15.0472,-39.4291 l 27.811,12.5354 1e-4,-10e-5 z m -13.2521,34.2954 c -1.4134,5.5826 -9.0512,11.5787 -14.8031,11.5787 l 0,-15.2795 14.8031,3.7007 0,10e-5 z m -14.8031,11.5786 -5.8229,0 0,-30.5591 5.8229,0 0,30.5591 z m -5.8229,0 c -0.2086,0 -3.3189,-0.37 -3.5197,-0.4173 l 3.5197,-14.8622 0,15.2795 0,0 z"
   id="path3714"
   style="fill:#838281"
   inkscape:connector-curvature="0" />

   <path
   d="m 3859.21,8902.13 c -11.2559,-2.7165 -21.3465,-6.5984 -27.5551,-10.4803 0,-8.5394 8.5394,-13.1969 5.4331,-22.5079 -0.7756,-0.3898 -1.1654,-0.7795 -1.5512,-0.7795 -2.7165,3.8819 -5.437,8.1535 -7.7638,12.4213 -20.9567,-3.4922 1.1654,-21.7323 9.7008,-27.9449 -0.7756,-5.4331 -1.1614,-10.8661 -1.5512,-15.9094 20.9567,-6.9882 34.9291,-13.5866 59.3819,-18.2441 -4.6575,30.2756 -22.8976,54.3346 -30.2717,83.4449 -1.9409,0 -3.8819,0 -5.8228,0 l 0,-1e-4 z"
   id="path3716"
   style="fill:#f7c5b4"
   inkscape:connector-curvature="0" />

  </g>

  <g
   id="g3718">
   <path
   d="m 3471.56,9026.26 c -0.095,-0.095 -0.1417,-0.1654 -0.7047,-0.7756 l 22.4409,-20.6535 c 0.374,0.4055 -0.4213,-0.4685 -0.1299,-0.1772 l -21.6063,21.6063 0,0 z m -0.7048,-0.7755 c -12.5354,-13.6693 -7.1771,-39.5551 -4.0433,-54.7165 l 29.8425,6.0866 c -1.9724,9.5315 -5.3386,25.815 -3.3582,27.9764 l -22.4409,20.6535 -1e-4,0 z m -4.0433,-54.7165 c 0.6024,-2.9174 1.0945,-5.2796 1.1693,-6.0355 l 30.3228,2.8662 c -0.2519,2.496 -0.8779,5.5354 -1.6496,9.2559 l -29.8425,-6.0866 0,0 z m 31.0748,-8.6024 c 0.1339,0.4921 0.4685,4.9252 0.4173,5.4331 l -15.1614,-1.4331 14.7441,-4 0,0 z m -29.4882,8 c -8.7519,-31.8228 -14.8386,-59.5276 -17.2165,-87.8504 l 30.4409,-2.3858 c 2.1772,25.9134 7.941,51.9724 16.2638,82.2362 l -29.4882,8 0,0 z m -17.2165,-87.8504 c -2.3818,-28.3543 -0.9606,-56.9843 5.3347,-90.4961 l 29.9606,5.6142 c -5.7323,30.5236 -7.0276,56.626 -4.8543,82.4961 l -30.4409,2.3858 -1e-4,0 z m 30.2245,-99.2677 c 2.8897,2.4764 5.7716,10.6417 5.0708,14.3858 l -14.9803,-2.8071 9.9095,-11.5787 0,0 z m -19.8189,23.1575 -0.028,-0.024 19.8189,-23.1575 0.028,0.024 -19.8189,23.1575 z m -0.028,-0.024 -0.1181,-0.1181 10.0276,-11.4606 -9.9094,11.5787 -10e-5,0 z m -0.118,-0.1181 c -8.0355,-7.0197 -16.0709,-14.5472 -23.9094,-22.4882 l 21.7244,-21.3701 c 7.3818,7.4803 14.8504,14.4803 22.2402,20.937 l -20.0551,22.9213 -10e-5,0 z m -23.9093,-22.4882 c -7.9174,-8.0119 -15.6693,-16.4567 -23.0748,-25.2323 l 23.2756,-19.6929 c 6.9803,8.2716 14.2126,16.1575 21.5236,23.5551 l -21.7244,21.3701 z m -23.0748,-25.2323 c -39.0394,-46.2441 -70.0118,-103.217 -70.0118,-160.098 l 30.5591,0 c 0,48.7244 27.752,98.9724 62.7283,140.406 l -23.2756,19.6929 0,-9e-4 z m -39.6929,-162.5461 c 0.016,0.094 0.2401,2.3503 0.2401,2.4488 l -15.2795,0 15.0394,-2.4488 0,0 z m -30.0787,4.8976 -0.027,-0.1693 30.0787,-4.8976 0.027,0.1693 -30.0787,4.8976 z m -0.027,-0.1693 c -4.0748,-24.7283 0.2244,-48.5236 4.2165,-70.6063 l 30.0787,5.3701 c -3.563,19.7205 -7.4055,40.9803 -4.2165,60.3386 l -30.0787,4.8976 0,0 z m 4.2165,-70.6063 c 1,-5.563 1.9961,-11.0354 2.7323,-15.8307 l 30.2047,4.5354 c -0.8819,5.7481 -1.8662,11.1457 -2.8583,16.6654 l -30.0787,-5.37 0,-1e-4 z m 2.7323,-15.8306 c 0.043,-0.2914 1.1338,-3.8504 1.2559,-4.1181 l 13.8465,6.3858 -15.1024,-2.2677 0,0 z m 1.2559,-4.1181 c 6.9331,-15.0197 17.9764,-18.5118 28.0709,-21.689 l 9.0709,29.126 c -3.9055,1.2283 -8.1772,2.5787 -9.4488,5.3346 l -27.6929,-12.7717 -10e-5,1e-4 z m 28.071,-21.6891 c 2.4763,-0.7795 4.6653,-1.4764 4.3779,-3.9567 l 30.3228,-3.4646 c 3.1811,27.4646 -10.3307,31.7244 -25.6299,36.5472 l -9.0709,-29.126 1e-4,1e-4 z m 26.1062,-19.4765 c 3.2048,1.5355 8.1851,8.5237 8.5945,12.0551 l -15.1614,1.7323 6.567,-13.7874 -10e-5,0 z m -13.1338,27.5748 c -1.3308,-0.6378 -2.9213,-0.126 -4.4922,0.3819 l -9.3149,-29.0079 c 7.3582,-2.3858 14.7756,-4.7874 26.9409,1.0512 l -13.1339,27.5748 1e-4,0 z m -4.4923,0.3819 c -2.7086,0.874 -5.4252,1.7559 -9.0039,2.1535 l -3.3386,-30.3228 c 0.6575,-0.071 1.8504,-0.4606 3.0276,-0.8386 l 9.3149,29.0079 0,0 z m -9.0039,2.1536 c -8.4291,0.937 -16.9488,-6.6929 -16.9488,-15.1614 l 15.2795,0 1.6693,15.1614 0,0 z m -16.9488,-15.1614 0,-0.059 30.5591,0 0,0.059 -30.5591,0 z m 0,-0.059 c 0.01,-12.4055 2.6653,-25.3307 7.4173,-38.4449 l 28.6457,10.3858 c -3.5276,9.7323 -5.5,19.1772 -5.5039,28.0591 l -30.5591,0 0,0 z m 7.4173,-38.4449 c 4.5787,-12.6378 11.0157,-25.2913 18.811,-37.7008 l 25.9055,16.2362 c -6.8543,10.9134 -12.374,21.6417 -16.0709,31.8504 l -28.6457,-10.3858 1e-4,0 z m 18.8109,-37.7008 c 39.1181,-62.2835 115.591,-124.173 162.386,-147.425 l 13.4882,27.3386 c -43.1417,21.437 -113.74,78.6457 -149.969,136.323 l -25.9055,-16.2362 3e-4,-4e-4 z m 178.0827,-121.4016 c -0.083,0.059 -2.1142,1.2678 -2.2087,1.315 l -6.7441,-13.6693 8.9528,12.3543 0,0 z m -17.9055,-24.7087 c 1.3031,-0.9488 0.5787,-0.4291 0.6102,-0.4488 l 16.9528,25.4252 c -0.126,0.083 1.563,-1.1536 0.3425,-0.2677 l -17.9055,-24.7087 0,0 z m 17.6811,24.8583 -0.1181,0.1181 -8.4763,-12.7126 8.5944,12.5945 0,0 z m -17.189,-25.189 c 64.5709,-44.2677 149.331,-59.9488 228.48,-74.5787 l 5.4882,30.0787 c -76.1299,14.0748 -157.65,29.1535 -216.78,69.689 l -17.189,-25.189 8e-4,0 z m 228.4792,-74.5787 c 14.122,-2.6103 28.1457,-5.2087 36.7559,-6.8898 l 5.7323,29.9606 c -15.5276,3.0354 -26.1811,5.0079 -37,7.0079 l -5.4882,-30.0787 0,0 z m 44.0394,22.7126 c -0.035,0.01 -1.5157,0.3543 -1.5512,0.3582 l -2.8661,-14.9803 4.4173,14.622 0,10e-5 z m -8.8346,-29.2442 c 55.1811,-16.8937 86.4331,-13.1575 128.571,-8.1259 l -3.4646,30.3228 c -38.5157,-4.5985 -67.0748,-8.0158 -116.272,7.0472 l -8.8346,-29.2441 2e-4,0 z m 128.5708,-8.126 c 18.0394,2.1536 38.2165,4.567 63.7638,5.5276 l -0.9528,30.5591 c -26.3307,-0.9882 -47.4213,-3.5118 -66.2756,-5.7638 l 3.4646,-30.3228 0,-1e-4 z m 63.7638,5.5277 c 0.09,0 2.4173,0.2834 2.5078,0.2992 l -2.9842,14.9803 0.4764,-15.2795 0,0 z m 2.5078,0.2992 c 55.3071,11.0236 111.169,22.8858 167.768,37.5433 l -7.6378,29.4882 c -54.6693,-14.1575 -110.413,-25.9724 -166.098,-37.0709 l 5.9685,-29.9606 -7e-4,0 z m 167.7687,37.5433 c 56.1614,14.5394 112.22,31.6929 167.732,53.2717 l -10.9843,28.4094 c -54.311,-21.1102 -109.268,-37.9252 -164.386,-52.1929 l 7.6378,-29.4882 5e-4,0 z m 158.9565,82.3976 c -0.083,-0.016 -2.1299,-0.689 -2.2086,-0.7165 l 5.4921,-14.2047 -3.2834,14.9213 -1e-4,-1e-4 z m 6.567,-29.8424 0.1063,0.024 -6.567,29.8425 -0.1062,-0.024 6.5669,-29.8425 z m 0.1063,0.024 c 11.622,2.5866 24.5551,7.4015 38.2874,13.9291 l -13.0079,27.5748 c -11.6142,-5.5197 -22.3819,-9.5551 -31.8465,-11.6614 l 6.5669,-29.8425 10e-5,0 z m 38.2873,13.9291 c 13.3976,6.374 27.4685,14.3189 41.7598,23.374 l -16.3543,25.7874 c -13.4961,-8.5512 -26.4646,-15.9016 -38.4134,-21.5866 l 13.0079,-27.5748 0,0 z m 41.7598,23.374 c 72.9606,46.2283 156.535,124.213 187.366,170.602 l -25.4252,16.8346 c -28.9252,-43.5236 -108.413,-117.37 -178.295,-161.65 l 16.3543,-25.7874 -1e-4,8e-4 z m 169.3431,193.3422 c -1.3465,-0.504 -6.6024,-4.7047 -7.4016,-5.9055 l 12.7126,-8.4174 -5.311,14.3228 0,10e-5 z m 10.622,-28.6458 0.063,0.024 -10.622,28.6457 -0.063,-0.024 10.622,-28.6457 z m -10.2008,28.7913 -0.3582,-0.122 5.311,-14.3228 -4.9528,14.4449 0,-10e-5 z m 9.9055,-28.8897 c 1.4882,0.5118 13.0906,-6.4961 23.6732,-10.8346 l 11.5827,28.1732 c -15.1102,6.1968 -35.9252,14.7323 -45.1614,11.5512 l 9.9055,-28.8898 0,0 z m 23.6732,-10.8346 c 5.1733,-2.1181 9.6969,-3.9764 11.5866,-4.6535 l 10.2677,28.7717 c -3.1141,1.1181 -6.433,2.4842 -10.2717,4.0551 l -11.5827,-28.1732 1e-4,-10e-5 z m 11.5865,-4.6535 c 0.1418,-0.051 2.8347,-0.6968 2.9843,-0.7165 l 2.1496,15.1024 -5.1339,-14.3858 0,-10e-5 z m 2.9843,-0.7164 c 75.6811,-10.811 89.937,20.9488 113.972,74.5354 l -27.811,12.4173 c -18.1142,-40.3819 -28.8583,-64.3189 -81.8622,-56.748 l -4.2992,-30.2047 4e-4,0 z m 113.9716,74.5354 c 1.6653,3.7204 3.4055,7.5945 6.4212,14.1299 l -27.6929,12.7717 c -1.5393,-3.3386 -4.0945,-9.0315 -6.5393,-14.4843 l 27.811,-12.4173 0,0 z m 6.4212,14.1299 c 0.2914,0.6338 1.4331,5.685 1.4331,6.3858 l -15.2795,0 13.8465,-6.3858 -1e-4,0 z m 1.4332,6.3858 0,2.7165 -30.5591,0 0,-2.7165 30.5591,0 z m 0,2.7165 c 0,7.6378 -7.6418,15.2795 -15.2795,15.2795 l 0,-15.2795 15.2795,0 z m -15.2795,15.2795 -0.035,0 0,-30.5591 0.035,0 0,30.5591 z m -0.035,0 c -5.4724,0 -23.6535,-1.9252 -42.9567,-1.8504 l -0.1181,-30.5591 c 19.2992,-0.075 37.5984,1.8465 43.0748,1.8504 l 0,30.5591 0,0 z m -42.9567,-1.8504 c -15.0866,0.059 -30.5394,1.2953 -38.4449,5.7126 l -14.8031,-26.622 c 13.4252,-7.5039 33.9567,-9.5708 53.1299,-9.6496 l 0.1181,30.5591 0,-1e-4 z m -38.4449,5.7127 c -1.1456,0.6378 -1.7992,1.4292 -1.563,2.3859 l -29.6063,7.4015 c -4.3149,-17.2677 2.7953,-28.8346 16.3661,-36.4094 l 14.8031,26.622 1e-4,0 z m -29.4962,13.7874 c -0.1535,-0.2637 -1.6023,-3.7086 -1.6732,-4 l 14.8031,-3.7008 -13.1299,7.7008 0,0 z m 26.2598,-15.4016 c 8.4606,14.4409 15.9843,30.8661 22.7126,48.0394 l -28.4094,11.1024 c -6.2677,-16.0039 -13.1181,-31.0276 -20.563,-43.7402 l 26.2598,-15.4016 z m 22.7126,48.0394 c 6.8032,17.3661 12.7362,35.1102 17.9803,52.2087 l -29.2441,8.9528 c -5.2283,-17.0433 -10.9528,-34.248 -17.1457,-50.0591 l 28.4094,-11.1024 1e-4,0 z m 17.9802,52.2087 c 0.071,0.2362 0.6496,3.6339 0.6575,3.8779 l -15.2795,0.5985 14.622,-4.4764 0,0 z m 0.6575,3.8779 c 0,0.189 0.02,0.3898 0.024,0.5827 l -30.5591,1.1969 c 0,-0.1929 -0.02,-0.3937 -0.024,-0.5827 l 30.5591,-1.1969 z m 0.024,0.5827 c 0.374,9.5158 0.4606,19.4803 0.2795,29.7795 l -30.5591,-0.3543 c 0.1693,-9.5945 0.083,-19.0394 -0.2795,-28.2283 l 30.5591,-1.1969 0,0 z m 0.2795,29.7795 c -0.1732,9.9056 -0.6378,20.4055 -1.3701,31.3622 l -30.4409,-2.0315 c 0.6496,-9.7677 1.0748,-19.6969 1.252,-29.685 l 30.5591,0.3544 -1e-4,-10e-5 z m -1.37,31.3623 c -3.6063,54.189 -13.9094,112.681 -28.6969,162.453 l -29.2441,-8.5985 c 14.1614,-47.6575 24.0315,-103.787 27.5,-155.886 l 30.4409,2.0315 1e-4,0 z m -58.5985,158.154 c 0,-0.3149 0.5709,-4 0.6575,-4.2992 l 14.622,4.2992 -15.2795,0 0,0 z m 30.5591,0 c 0,0.9449 0,2.1339 0.087,2.567 l -29.9606,5.7323 c -0.685,-3.4449 -0.685,-6.1457 -0.685,-8.2993 l 30.5591,0 -1e-4,0 z m 0.087,2.567 c 1.9331,9.7362 -6.7835,19.122 -16.6496,18.0276 l 1.6693,-15.1614 14.9803,-2.8662 0,0 z m -16.6496,18.0276 c -25.7165,-2.8543 -52.5472,-2.9094 -71.5472,5.4528 l -12.2992,-27.937 c 24.8504,-10.937 57.0276,-11.185 87.185,-7.8386 l -3.3386,30.3228 0,0 z m -71.5472,5.4528 c -16.1496,7.1102 -26.7008,21.7913 -24.8898,49.126 l -30.4409,1.7874 c -2.8386,-42.9016 15.3346,-66.6535 43.0315,-78.8504 l 12.2992,27.937 0,0 z m -24.8898,49.126 c 0.5354,8.122 -7.0945,16.1732 -15.2205,16.1732 l 0,-15.2795 15.2205,-0.8937 0,0 z m -15.2205,16.1732 -0.1102,0 0,-30.5591 0.1102,0 0,30.5591 z m -0.1102,0 -0.059,0 0.059,-15.2795 0,15.2795 z m -0.059,0 c -5.6968,-0.024 -11.2677,-1.3229 -16.6299,-3.5788 l 11.8189,-28.1732 c 1.7874,0.752 3.4646,1.189 4.9291,1.1929 l -0.1181,30.5591 0,0 z m -16.6299,-3.5787 c -4.7795,-2.0157 -9.4291,-4.8346 -13.8622,-8.2047 l 18.3858,-24.3543 c 2.4567,1.8701 4.9213,3.3858 7.2953,4.3858 l -11.8189,28.1732 0,0 z m -13.8622,-8.2047 c -20.248,-15.3937 -37.5748,-44.7795 -42.0551,-58.5472 l 29.0079,-9.4331 c 3.3268,10.2165 16.2638,32.0906 31.4331,43.626 l -18.3858,24.3543 -1e-4,0 z m -42.055,-58.5472 c -0.067,-0.2165 -0.7008,-3.4764 -0.7165,-3.7008 l 15.2205,-1.0157 -14.5039,4.7165 -1e-4,0 z m -0.7165,-3.7008 c -0.8425,-12.1811 -1.2204,-22.9055 -1.5905,-33.6142 l 30.5591,-0.9527 c 0.3898,11.3386 0.7913,22.6654 1.4724,32.5354 l -30.4409,2.0315 -1e-4,0 z m -1.5904,-33.6142 -0.024,-0.689 30.5591,-0.9528 0.024,0.689 -30.5591,0.9528 z m 15.2559,-16.4449 c 7.3779,0 15.0276,7.433 15.2795,14.8031 l -15.2795,0.4764 0,-15.2795 0,0 z m 0,30.5591 c -7.0315,0 8.8268,-3.7599 8.8268,-2.4292 l -30.5591,0 c 0,-15.4331 4.4173,-28.1299 21.7323,-28.1299 l 0,30.5591 0,0 z m 8.8267,-2.4291 c 0,3.185 0.3977,7.2953 0.7481,10.9882 l -30.4409,2.8661 c -0.4095,-4.2795 -0.8662,-9.0236 -0.8662,-13.8543 l 30.5591,0 -10e-5,0 z m 0.7481,10.9882 c 0.3426,3.5945 0.6615,6.878 0.6615,9.9252 l -30.5591,0 c 0,-1.4094 -0.2599,-4.1063 -0.5433,-7.059 l 30.4409,-2.8662 0,0 z m 0.6614,9.9252 c 0,7.6378 -7.6418,15.2795 -15.2795,15.2795 l 0,-15.2795 15.2795,0 z m -15.2795,15.2795 -0.024,0 0,-30.5591 0.024,0 0,30.5591 z m -0.024,0 c -0.028,0 -1.2914,-0.059 -1.315,-0.059 l 1.315,-15.2205 0,15.2795 0,0 z m -1.315,-0.059 c -3.0669,-0.2677 -7.4724,-2.3031 -12.7008,-5.6102 l 16.2362,-25.9055 c 1.3386,0.8464 -2.9882,0.8937 -0.9055,1.0748 l -2.6299,30.4409 0,0 z m -12.7008,-5.6103 c -2.2441,-1.4173 -6.9252,-4.5236 -13.2638,-8.7795 l 16.9528,-25.3071 c 3.9882,2.6772 8.2283,5.4488 12.5472,8.1811 l -16.2362,25.9055 0,0 z m -13.2638,-8.7795 c -27.063,-18.1693 -73.7362,-51.1535 -76.2598,-53.6772 l 21.6063,-21.6063 c 1.937,1.937 45.685,32.5748 71.6063,49.9764 l -16.9528,25.3071 0,0 z m -59.4291,-78.5079 c 0.4881,0.2126 4.3976,2.8464 4.7756,3.2244 l -10.8031,10.8031 6.0275,-14.0276 0,10e-5 z m -12.0551,28.055 c -81.9331,-35.4567 -158,-30.4606 -241.114,-25 l -1.7874,-30.4409 c 86.8898,-5.7087 166.413,-10.9331 254.957,27.3858 l -12.0551,28.0551 -5e-4,0 z m -241.1135,-25 c -7.1023,0.4606 -14.2677,0.9409 -21.4803,1.3858 l -1.7874,-30.4409 c 7.2126,-0.4449 14.378,-0.9252 21.4803,-1.3858 l 1.7874,30.4409 z m -21.4803,1.3858 c -9.5748,0.5945 -17.752,-8.8149 -15.874,-18.2047 l 14.9803,2.9843 0.8937,15.2205 0,-1e-4 z m -15.874,-18.2046 0.024,-0.1181 29.9606,5.9685 -0.024,0.1181 -29.9606,-5.9685 z m 0.024,-0.1181 0.059,-0.059 14.9213,3.0433 -14.9803,-2.9842 -1e-4,0 z m 0.059,-0.059 c 2.6654,-13.0354 11.1496,-24.6811 18.8307,-35.2244 l 24.7087,17.9055 c -5.8858,8.0788 -12.3898,17.0039 -13.6969,23.4055 l -29.8425,-6.0866 0,0 z m 18.8307,-35.2244 c 2.4016,-3.2992 4.7166,-6.4685 6.7284,-9.6496 l 25.9055,16.2362 c -2.1417,3.3819 -4.9803,7.2716 -7.9252,11.3189 l -24.7087,-17.9055 0,0 z m 33.6496,4.6181 c -0.032,0.071 -0.9764,1.9055 -1.0158,1.9685 l -12.9528,-8.1181 13.9685,6.1496 1e-4,0 z m -27.9371,-12.2992 0.095,-0.2126 27.937,12.2992 -0.095,0.2126 -27.937,-12.2992 z m 0.095,-0.2126 0.063,-0.059 13.9055,6.2087 -13.9685,-6.1496 0,0 z m 0.063,-0.059 c 0.8425,-1.8976 1.9843,-5.0472 3.3189,-9.1102 l 29.0079,9.4331 c -1.5748,4.7913 -3.1063,8.9291 -4.5157,12.0945 l -27.811,-12.4173 -1e-4,-10e-5 z m 3.319,-9.1102 c 1.4252,-4.3385 2.9527,-9.3543 4.5,-14.7402 l 29.3622,8.2363 c -1.7244,5.996 -3.3741,11.4291 -4.8544,15.937 l -29.0079,-9.4331 10e-5,0 z m 4.4999,-14.7402 c 8.2087,-28.5669 17.7638,-69.0079 19.1142,-80.3937 l 30.3228,3.4646 c -1.4882,12.5591 -11.5276,55.4213 -20.0748,85.1654 l -29.3622,-8.2363 0,0 z m 35.2913,-93.8819 c 8,0.5315 15.0906,8.9922 14.1457,16.9528 l -15.1614,-1.7322 1.0158,-15.2205 -1e-4,-1e-4 z m -2.0314,30.441 c -2.7874,-0.1851 1.0945,0.094 -0.5945,0.01 l 1.4331,-30.5591 c 1.0866,0.055 -2.1811,-0.1141 1.1929,0.1103 l -2.0315,30.4409 0,1e-4 z m -0.5945,0.01 -0.1181,0 0.8346,-15.2795 -0.7165,15.2795 0,0 z m -0.1181,0 c -6.4803,-0.374 -13.4252,-0.7677 -18.8504,-8.9055 l 25.4252,-16.9528 c 3.063,4.5985 -5.7914,-4.7519 -4.9055,-4.7008 l -1.6693,30.5591 z m -14.6142,-30.0945 c 6.3543,-4.2362 16.9528,-2.1181 21.189,4.2363 l -12.7126,8.4763 -8.4764,-12.7126 0,0 z m 16.9528,25.4252 c -0.3701,0.2441 -0.748,0.5 -1.7126,0.9804 l -13.6063,-27.3386 c 0.9331,-0.4646 -1.9803,1.1614 -1.6339,0.933 l 16.9528,25.4252 0,0 z m -16.9921,-25.3425 c 0.047,-0.032 1.626,-0.9921 1.6733,-1.0157 l 6.8031,13.6693 -8.4764,-12.6535 0,-10e-5 z m 16.9528,25.3072 c -1.248,0.8307 -4.9015,21.622 -11.1457,44.4409 l -29.4882,-8 c 7.756,-28.3386 15.3858,-56.2165 23.6811,-61.748 l 16.9528,25.3071 z m -11.1457,44.4409 c -5.4842,20.0472 -11.0472,40.3583 -15.5276,51.3701 l -28.2913,-11.3386 c 3.6142,-8.8859 9.0079,-28.5866 14.3307,-48.0315 l 29.4882,8 0,0 z m -15.5276,51.3701 c -0.043,0.1063 -1.1299,2.3504 -1.1929,2.4488 l -12.9528,-8.1181 14.1457,5.6693 0,0 z m -1.1929,2.4488 c -20.5236,32.4646 -34.5591,60.4843 -41.4016,90.3976 l -29.7244,-6.8032 c 7.7756,-33.9921 23.0551,-64.7638 45.2205,-99.8307 l 25.9055,16.2362 0,1e-4 z m -41.4016,90.3975 c -6.8228,29.8346 -6.7244,62.4606 0.9252,104.449 l -30.0787,5.3701 c -8.4016,-46.1024 -8.3661,-82.5472 -0.5708,-116.622 l 29.7244,6.8032 -1e-4,-3e-4 z m 0.9252,104.4493 c 1.2205,6.7086 -4.2322,15.3898 -10.8031,17.3071 l -4.2362,-14.622 15.0394,-2.6851 -1e-4,0 z m -10.803,17.3071 -32.1732,9.3898 -8.4724,-29.2441 32.1732,-9.3898 8.4724,29.2441 z m -32.1732,9.3898 c -2.6063,0.7598 -10.3976,-0.4055 -12.6535,-1.9095 l 8.4173,-12.7126 4.2363,14.622 -10e-5,10e-5 z m -12.6534,-1.9095 c -6.2717,-4.1772 -10.2756,-7.3819 -13.4567,-10.7559 l 22.2047,-20.8898 c 1.4763,1.5669 3.8858,3.4213 8.0866,6.2205 l -16.8346,25.4252 0,0 z m -13.4567,-10.7559 c -3.5315,-3.7599 -5.567,-7.1024 -7.9134,-11.5433 l 26.9764,-14.2047 c 1.1378,2.1535 2.0236,3.6693 3.1417,4.8582 l -22.2047,20.8898 0,0 z m 5.5748,-33.9252 c 4.0591,0 11.5906,4.5827 13.4882,8.1772 l -13.4882,7.1024 0,-15.2795 0,-1e-4 z m 0,30.5592 -0.1102,0 0,-30.5591 0.1102,0 0,30.5591 z m -0.1102,0 -0.059,0 0.059,-15.2795 0,15.2795 z m -0.059,0 c -0.563,0 4.8425,-2.2441 0.8859,-0.7717 l -10.622,-28.6457 c 6.0511,-2.252 6.6102,-1.1535 9.8543,-1.1417 l -0.1181,30.5591 -1e-4,0 z m 0.8859,-0.7717 -0.059,0 -5.2519,-14.3228 5.311,14.3228 0,0 z m -0.059,0 c -0.9212,0.3386 3.2599,-1.7008 2.5079,-1.2244 l -16.3543,-25.7874 c 1.0118,-0.6417 2.1221,-1.185 3.3425,-1.6338 l 10.5039,28.6457 0,-10e-5 z m 2.5079,-1.2244 -0.1181,0.059 -8.0591,-12.9528 8.1772,12.8937 0,0 z m -0.1181,0.059 c -3.9055,2.4448 6.0197,-13.6181 6.0197,-9.4607 l -30.5591,0 c 0,-8.1693 2.9567,-13.0236 8.4212,-16.4449 l 16.1181,25.9055 10e-5,10e-5 z m -20.0631,1.3424 c -1.5787,-1.5787 -4.4763,-8.5669 -4.4763,-10.8031 l 15.2795,0 -10.8031,10.8031 -1e-4,0 z m 21.6064,-21.6063 0.035,0.035 -21.6063,21.6063 -0.035,-0.035 21.6063,-21.6063 z m 0.035,0.035 0.059,0.1181 -10.8622,10.685 10.8031,-10.8031 10e-5,0 z m 0.059,0.1181 c 4.2441,4.2992 6.6024,10.315 8.5551,15.2835 l -28.4094,11.1024 c -0.9212,-2.3425 -1.7008,-4.8425 -1.8701,-5.0158 l 21.7244,-21.3701 0,0 z m 8.5552,15.2835 c 0.6614,1.693 -0.3426,-0.9133 0.5748,1.3977 l -28.4094,11.2205 c -0.5473,-1.3819 0.4803,1.185 -0.5748,-1.5158 l 28.4094,-11.1024 0,0 z m 0.5748,1.3977 c 2.5826,6.4921 -1.1536,16.1575 -7.4016,19.2795 l -6.8032,-13.6693 14.2047,-5.6103 10e-5,1e-4 z m -7.4016,19.2794 c -0.035,0.016 0.075,-0.035 -0.6575,0.2953 l -12.5354,-27.811 c 0.6457,-0.2913 -0.5276,0.2323 -0.4134,0.1772 l 13.6063,27.3386 0,-10e-5 z m -13.6693,-27.2794 0.4764,-0.2362 6.2677,13.9055 -6.7441,-13.6693 0,0 z m 13.4882,27.3386 c -0.8937,0.4409 -1.8189,0.8819 -2.7441,1.2992 l -12.5354,-27.811 c 0.9134,-0.4134 1.5512,-0.7087 1.7914,-0.8268 l 13.4882,27.3386 -1e-4,0 z m -2.744,1.2992 c -1.6103,0.7244 -2.811,1.2598 -3.4882,1.5433 l -11.8189,-28.1732 c 1.6063,-0.6771 2.5512,-1.0827 2.7716,-1.1811 l 12.5354,27.811 1e-4,0 z m -3.4883,1.5433 c -7.8189,3.2992 -19.378,7.1063 -25.5827,5.7284 l 6.567,-29.8425 c 1.2519,0.2756 3.3228,-2.4252 7.1968,-4.0591 l 11.8189,28.1732 0,0 z m -25.5827,5.7284 c -3.8897,-0.8622 -10.3031,-6.9646 -11.3976,-10.8031 l 14.6811,-4.1181 -3.2834,14.9213 -1e-4,-10e-5 z m -11.3975,-10.803 -0.024,-0.083 29.3622,-8.2362 0.024,0.083 -29.3622,8.2363 z m -0.024,-0.083 -0.063,-0.059 14.7441,-4.059 -14.6811,4.1181 -10e-5,0 z m -0.063,-0.059 c -0.5355,-1.9252 -0.8189,-4.059 -0.8465,-6.3504 l 30.5591,-0.3543 c 0,0.4173 -0.3661,-1.9252 -0.2244,-1.4134 l -29.4882,8.1181 0,0 z m -0.8465,-6.3504 c -0.02,-1.563 0.1221,-3.3779 0.4056,-5.3858 l 30.2047,4.1811 c -0.035,0.2559 -0.051,0.5512 -0.051,0.8504 l -30.5591,0.3543 0,0 z m 0.4055,-5.3858 0,-0.059 15.1024,2.1497 -15.1024,-2.0906 0,0 z m 0,-0.059 c 1.059,-7.4291 4.6693,-17.4685 9.9724,-27.685 l 27.0945,13.9685 c -3.7795,7.2796 -6.2638,13.811 -6.8622,18.0157 l -30.2047,-4.2992 0,0 z m 9.9725,-27.685 0.2362,-0.4173 13.311,7.4016 -13.5472,-6.9843 0,0 z m 0.2362,-0.4173 c 0.1299,-0.2401 0.3228,-0.6142 0.4134,-0.7598 l 25.9055,16.1181 c -0.051,0.087 0.3976,-0.7244 0.3031,-0.5552 l -26.622,-14.8031 0,0 z m 26.9134,14.2835 c -0.01,0.02 -0.5826,1.0552 -0.5944,1.0748 l -12.9528,-8.059 13.5472,6.9842 0,0 z m -27.0945,-13.9685 c 5.748,-11.1496 6.6417,-29.5512 7.5866,-49.1575 l 30.5591,1.4331 c -1.1063,22.9173 -2.1496,44.4252 -11.0512,61.6929 l -27.0945,-13.9685 0,0 z m 7.5866,-49.1575 c 0.6968,-14.4252 1.4291,-29.4449 4.1614,-44.3228 l 30.0787,5.4882 c -2.3465,12.7756 -3.0276,26.8031 -3.6811,40.2677 l -30.5591,-1.4331 10e-5,0 z m 4.1613,-44.3228 0.2835,-1.5354 30.0787,5.4882 -0.2835,1.5354 -30.0787,-5.4882 z m 0.2835,-1.5354 c 3.7086,-19.9567 8.3189,-40.6929 12.4803,-59.3976 l 29.8425,6.5669 c -4.0551,18.2402 -8.5551,38.4646 -12.2441,58.3189 l -30.0787,-5.4882 0,0 z m 12.4803,-59.3976 c 6.0551,-27.2205 11.1024,-49.9449 10.7323,-57.689 l 30.5591,-1.433 c 0.559,11.6654 -4.9016,36.2441 -11.4488,65.689 l -29.8425,-6.567 -1e-4,0 z m 33.5907,-71.6575 c 3.0669,1.752 7.5315,9.0158 7.7008,12.5354 l -15.2795,0.7166 7.5787,-13.252 0,0 z m -15.1575,26.5039 c -0.3543,-0.2008 0.7323,0.3897 0.6102,0.3307 l 13.6063,-27.3386 c 0.2323,0.1142 0.4764,0.2401 0.941,0.5039 l -15.1575,26.5039 0,1e-4 z m 0.6102,0.3306 -0.1811,-0.122 6.9843,-13.5472 -6.8032,13.6693 0,-1e-4 z m -0.1811,-0.122 c -0.685,-0.3543 0.5197,0.3307 0.3937,0.315 l 4.1811,-30.2047 c 2.4528,0.3425 5.4882,0.7716 9.3937,2.7953 l -13.9685,27.0945 0,-10e-5 z m 0.3937,0.315 -0.059,0 2.1496,-15.1024 -2.0906,15.1024 0,0 z m -0.059,0 c -2.5315,-0.3582 -4.6378,-0.6574 -7.7284,-2.4606 l 15.2835,-26.378 c 2.0473,1.1929 -3.9134,-1.4567 -3.2559,-1.3661 l -4.2992,30.2047 0,0 z m -10.8898,-26.4528 c 4.0158,-4.0158 13.5276,-5.252 18.4449,-2.3859 l -7.6417,13.189 -10.8031,-10.8031 -10e-5,0 z m 21.6064,21.6063 -0.035,0.035 -21.6063,-21.6063 0.035,-0.035 21.6063,21.6063 z m -0.035,0.035 -0.4763,0.4173 -10.3268,-11.2205 10.8031,10.8031 0,10e-5 z m -0.4764,0.4172 c -1.941,1.7874 -10.2992,34.7598 -15.4803,55.2362 l -29.6063,-7.4016 c 6.0433,-23.8701 15.7953,-62.3189 24.4331,-70.2756 l 20.6535,22.4409 0,1e-4 z m -15.4803,55.2361 c -1.5866,6.256 -2.937,11.5866 -3.5827,13.9331 l -29.4882,-8 c 1.0906,-3.9685 2.1732,-8.2362 3.4646,-13.3346 l 29.6063,7.4016 0,-1e-4 z m -3.5827,13.9332 c -3.0276,11.0039 -17.4803,14.8701 -25.5472,6.8032 l 10.8031,-10.8031 14.7441,4 0,-10e-5 z m -25.5472,6.8032 c -0.4646,-0.4646 1.7638,1.5354 0.3976,0.2835 l 20.5354,-22.4409 c 1.4607,1.3386 0.2992,0.1771 0.6733,0.5512 l -21.6063,21.6063 0,-10e-5 z m 0.3976,0.2835 -0.4764,-0.4173 10.7441,-10.8031 -10.2677,11.2205 0,-10e-5 z m -0.4764,-0.4172 c -2.4173,-2.3937 -5.7677,-4.5197 -9.7992,-6.374 l 12.7717,-27.6929 c 7.1103,3.2716 13.3976,7.3937 18.5157,12.4606 l -21.4882,21.6063 0,0 z m -9.7992,-6.3741 c -4.4606,-2.0511 -9.7716,-3.7204 -15.6417,-5.0275 l 6.567,-29.8425 c 7.7795,1.7323 15.1654,4.1023 21.8465,7.1772 l -12.7717,27.6929 -10e-5,-1e-4 z m -15.6416,-5.0275 c -32.3031,-7.2087 -76.2992,-2.6299 -98.1614,6.0118 l -11.2205,-28.4094 c 26.0945,-10.315 78.1299,-15.8858 115.949,-7.4449 l -6.567,29.8425 -10e-5,0 z m -98.1613,6.0118 c -0.1023,0.039 -2.4015,0.6969 -2.5078,0.7166 l -3.1024,-14.9213 5.6102,14.2047 0,0 z m -2.5078,0.7165 -0.2835,0.059 -6.2047,-29.8425 0.2834,-0.059 6.2048,29.8425 z m -0.2835,0.059 c -29.1535,6.059 -57.8465,18.252 -86.4449,30.4016 l -11.937,-28.0551 c 29.9724,-12.7362 60.0354,-25.5079 92.1772,-32.189 l 6.2047,29.8425 0,0 z m -86.4449,30.4016 c -38.1535,16.2087 -76.1811,32.3701 -117.772,35.815 l -2.3858,-30.4409 c 36.7008,-3.0394 72.4055,-18.2126 108.22,-33.4291 l 11.937,28.0551 8e-4,-10e-5 z m -122.0088,5.6733 c 0.051,-0.01 1.7992,-0.2953 1.8504,-0.2992 l 1.1929,15.2205 -3.0433,-14.9213 0,0 z m 6.0866,29.8425 -0.1142,0.024 -6.0866,-29.8425 0.1142,-0.024 6.0866,29.8425 z m -6.2599,-29.8189 0.059,0 3.0433,14.9213 -3.1023,-14.9213 -1e-4,0 z m 6.2048,29.8425 c -3.9843,0.8346 -8.3937,1.6299 -12.9252,2.311 l -4.5355,-30.2047 c 4.6693,-0.7008 8.4804,-1.3701 11.2559,-1.9488 l 6.2048,29.8425 0,0 z m -12.9252,2.311 c -4.3701,0.6575 -9.689,1.3346 -15.815,1.9764 l -3.1024,-30.3228 c 4.6457,-0.4882 9.5512,-1.1339 14.3819,-1.8583 l 4.5354,30.2047 1e-4,0 z m -15.8151,1.9764 c -30.4173,3.1929 -69.7598,3.1811 -86.5551,-9.3228 l 18.1417,-24.4724 c 9.4213,7.0118 40.3898,6.0866 65.311,3.4724 l 3.1024,30.3228 0,0 z m -86.5551,-9.3228 c -0.3268,-0.2441 -3.2953,-3.3111 -3.5236,-3.6418 l 12.5945,-8.5945 -9.0709,12.2362 0,10e-5 z m -3.5236,-3.6418 c -0.8937,-1.3031 5.5118,1.1969 3.8504,1.2362 l -0.5985,-30.5591 c 7.5591,-0.1811 13.3858,-0.3228 21.937,12.1339 l -25.189,17.189 1e-4,0 z m 3.8503,1.2363 c -0.3346,0 -0.7008,0.016 -1.3464,0.016 l 0,-30.5591 c 0.067,0 0.4134,-0.012 0.748,-0.016 l 0.5984,30.5591 0,0 z m -15.1929,-21.7087 c 1.8622,-3.9804 9.4528,-8.8347 13.8465,-8.8347 l 0,15.2795 -13.8465,-6.4449 0,10e-5 z m 27.6929,12.8897 c -7.1496,15.2677 -13.7677,29.9134 -19.2795,44.4291 l -28.5276,-10.7402 c 6.13,-16.1457 12.9094,-31.1929 20.1142,-46.5787 l 27.6929,12.8898 z m -19.2795,44.4291 c -5.559,14.6339 -10.2874,29.7402 -13.7992,46.2087 l -29.8425,-6.3228 c 3.8544,-18.063 9.0315,-34.6063 15.1142,-50.626 l 28.5276,10.7402 -10e-5,-10e-5 z m -43.4645,47.1064 c -0.2283,-0.8307 -0.3543,-6.378 -0.1771,-7.2205 l 14.9213,3.1614 -14.7441,4.0591 -10e-5,0 z m 29.4883,-8.1181 c 2.0315,7.3425 3.4409,11.752 4.4291,14.8583 l -29.126,9.189 c -1.1969,-3.752 -2.8976,-9.0827 -4.7913,-15.9291 l 29.4882,-8.1181 0,-1e-4 z m 4.4291,14.8584 c 3.1102,9.7362 4.1693,13.122 0.7086,20.063 l -27.3386,-13.6063 c 2.0434,-4.0985 -2.1692,3.7598 -2.496,2.7322 l 29.126,-9.1889 0,0 z m 0.7086,20.063 c -1.3464,2.7008 -7.8937,7.622 -10.8622,8.1771 l -2.807,-14.9803 13.6693,6.8032 -1e-4,0 z m -10.8621,8.1772 -0.126,0.024 -5.6142,-29.9606 0.126,-0.024 5.6142,29.9606 z m -5.7993,-29.937 0.059,0 2.8071,14.9803 -2.8661,-14.9803 -10e-5,0 z m 5.7323,29.9606 c -2.2677,0.4409 -6.6929,3.6338 -11.1417,6.8503 l -17.7874,-24.8268 c 7.0945,-5.1259 14.1575,-10.2165 23.1969,-11.9843 l 5.7323,29.9606 -1e-4,2e-4 z m -11.1416,6.8502 c -8.8464,6.3859 -17.7795,12.8307 -29.6339,12.8307 l 0,-30.5591 c 2.0118,0 6.9528,-3.5669 11.8465,-7.0984 l 17.7874,24.8268 0,0 z m -29.6339,12.8307 c -2.9567,0 -10.2441,-3.626 -12.0551,-5.9685 l 12.0551,-9.311 0,15.2795 0,0 z m -12.0551,-5.9685 c -0.5079,-0.6575 -1.559,-2.063 -2.4921,-3.3071 l 24.3543,-18.2677 c 0.4921,0.6614 1.0236,1.3661 2.248,2.9528 l -24.1102,18.622 0,0 z m -2.4921,-3.3071 c -0.5709,-0.7638 11.6732,-4.0237 6.2441,-1.4725 l -12.8898,-27.6929 c 16.8858,-7.937 20.9764,-2.4842 31,10.8976 l -24.3543,18.2677 0,10e-5 z m -15.4803,-15.319 c 0,-4.3858 4.8661,-11.9843 8.8346,-13.8465 l 6.4449,13.8465 -15.2795,0 0,0 z m 30.5591,0 c 0,2.1575 0.2559,4.4292 0.5315,6.9173 l -30.3228,3.3386 c -0.3976,-3.5905 -0.7677,-6.8701 -0.7677,-10.2559 l 30.5591,0 -10e-5,0 z m -29.7912,10.3189 0,-0.063 15.1614,-1.6693 -15.1614,1.7323 0,0 z m 30.3228,-3.4645 c 0.039,0.3661 0.087,0.744 0.126,1.1181 l -30.3228,3.4645 c -0.039,-0.374 -0.087,-0.7519 -0.126,-1.1181 l 30.3228,-3.4645 z m 0.126,1.1181 c 0.4252,3.7362 -3.0079,11.6457 -6.0276,13.9094 l -9.1339,-12.1772 15.1614,-1.7323 1e-4,10e-5 z m -6.0276,13.9093 -0.094,0.071 -18.2677,-24.3543 0.095,-0.071 18.2677,24.3543 z m -0.094,0.071 c -0.1457,0.1103 -1.1535,0.8937 -2.1102,1.6339 l -18.622,-24.1102 c 0.5472,-0.4252 1.0748,-0.8346 2.4645,-1.8779 l 18.2677,24.3543 0,-1e-4 z m -2.1102,1.6339 c -5.1181,3.9646 -10.063,7.8032 -17.5,9.5197 l -6.8032,-29.7244 c 0.9095,-0.2087 3.2599,-2.0315 5.6811,-3.9055 l 18.622,24.1102 1e-4,0 z m -17.5001,9.5197 c -3.496,0.8071 -11.6732,-1.5276 -14.2047,-4.0591 l 10.8031,-10.8031 3.4016,14.8622 0,0 z"
   id="path3720"
   style="fill:#838281"
   inkscape:connector-curvature="0" />

   <path
   d="m 3482.36,9015.46 c -9.7008,-9.7047 0,-41.5276 0.7795,-49.2913 -17.0787,-62.0945 -23.6772,-107.504 -11.6457,-171.539 -55.1102,-48.126 -111.772,-123.031 -111.772,-196.382 -4.6575,-27.9449 3.1024,-56.6614 6.9843,-81.8898 9.3149,-20.1811 36.8701,-6.9843 33.7638,-33.7638 -9.7008,-4.6575 -14.748,0.3858 -21.7323,1.1614 0,-76.0669 117.594,-178.913 180.079,-209.961 71.7992,-49.2913 172.319,-62.0984 259.642,-79.1732 76.0669,-23.2874 104.776,-5.0472 187.441,-1.9409 111,22.122 223.161,47.3465 332.992,90.0394 75.2953,16.689 216.563,138.941 258.091,201.425 5.0472,1.9409 35.7047,-12.0315 45.4094,-15.5236 70.6339,-10.0906 78.7835,24.4488 104.398,79.9488 0,0.7756 0,1.5512 0,2.7165 -13.5827,0 -107.114,-12.0315 -97.8031,25.2283 15.9134,27.1654 28.7205,62.8701 39.2008,97.0236 2.7165,66.7559 -8.9252,151.362 -29.1063,219.28 0,1.5512 0,3.4921 0.3858,5.4331 -55.8858,-6.2087 -117.984,0.3898 -113.327,70.6339 -25.6142,0 -52.7795,-43.0787 -58.2126,-59.7677 -0.7795,-11.2559 -1.1653,-22.5079 -1.5551,-33.7638 -10.4764,0 -5.0433,24.063 -5.0433,33.7638 -3.1063,0 -89.6535,-60.5433 -92.7598,-63.6496 -92.3661,-39.9724 -175.984,-30.6299 -269.516,-24.8071 2.7165,-13.5866 16.2402,-28.2756 23.6142,-39.9173 8.0039,-17.6772 26.2992,-92.2126 28.2835,-108.933 -3.0197,-0.1929 -6.5591,-0.189 -7.8662,-2.1536 -6.2126,3.8819 -23.0669,79.9213 -32.3819,102.819 -42.689,67.5315 -58.6142,117.551 -42.563,205.65 l -32.1732,9.3898 c -10.4803,-6.9842 -12.8071,-10.0906 -16.2992,-16.689 -3.8858,0 -6.2126,-0.8307 -6.2126,3.8819 2.3307,2.3268 4.2717,7.7598 5.8229,11.6417 -3.8819,1.9409 -18.4173,8.1535 -21.9094,7.3779 -1.4607,-4.9685 1.9527,-16.2756 8.311,-28.5197 12.2047,-23.5197 6.8661,-62.8465 13.2953,-97.8228 9.3543,-50.8819 24.5197,-105.878 23.7362,-122.083 -2.8347,-1.5393 -5.6417,-1.1378 -6.9016,-1.874 -6.6417,5.9607 -19.248,60.9016 -23.5157,76.4252 -26.7795,-26.7795 -106.717,-22.122 -140.094,-8.9252 -69.4724,14.3583 -132.343,60.1535 -202.591,65.9764 -24.063,5.0473 -84.9921,11.2559 -103.236,-2.3267 -4.2677,-6.2126 -6.5945,-5.4331 -10.0906,-5.4331 -14.3583,30.6575 -26.7795,59.378 -34.1535,93.9213 5.0473,18.2402 7.374,21.7323 6.2126,24.0591 -12.4213,2.3307 -25.2283,19.4055 -38.0354,19.4055 -6.5984,-8.5354 -8.1496,-12.4173 -14.748,-9.315 0,3.1063 0.3898,6.2126 0.7756,9.7047 -4.6575,3.4922 -8.9252,7.3741 -13.9724,8.5394 l -10e-4,-5e-4 z"
   id="path3722"
   style="fill:#f7c5b4"
   inkscape:connector-curvature="0" />

  </g>

  <g
   id="g3724">
  </g>

  <g
   id="g3726">
   <g
   id="g3728">
   </g>

   <g
   id="g3730">
   </g>

   <g
   id="g3732">
   </g>

  </g>

  <g
   id="g3734">
  </g>

  <g
   id="g3736">
   <g
   id="g3738">
    <g
   id="g3740">
    </g>

   </g>

   <g
   id="g3742">
    <g
   id="g3744">
    </g>

   </g>

   <g
   id="g3746">
    <g
   id="g3748">
    </g>

   </g>

   <g
   id="g3750">
    <g
   id="g3752">
    </g>

   </g>

   <g
   id="g3754">
    <g
   id="g3756">
    </g>

   </g>

  </g>

  <g
   id="g3758">
   <g
   id="g3760">
   </g>

  </g>

  <g
   id="g3762">
   <g
   id="g3764">
   </g>

   <g
   id="g3766">
   </g>

   <g
   id="g3768">
   </g>

  </g>

  <path
   d="m 3270.07,8471.34 c -66.752,-38.0354 1.5512,-110.996 38.811,-60.1575 6.5984,23.2874 -15.5236,55.5 -38.811,60.1575 z"
   id="path3770"
   style="fill:#ffffff"
   inkscape:connector-curvature="0" />

  <path
   d="m 3526.04,9035.85 c -63.9921,-39.0354 41.3819,-89.3661 49.4921,-23.0157 2.4488,20.2126 -33.9567,32.4252 -49.4921,23.0157 z"
   id="path3772"
   style="fill:#838281"
   inkscape:connector-curvature="0" />

  <path
   d="m 3533.98,9022.83 c -15.9094,-9.7047 -15.9094,-9.7047 -16.689,-11.2559 16.3031,-16.2992 38.811,-31.8268 43.0827,3.1024 -6.2126,9.3149 -18.2441,8.1535 -26.3937,8.1535 z"
   id="path3774"
   style="fill:#aaa9a9"
   inkscape:connector-curvature="0" />

  <path
   d="m 4547.56,8993.57 c -87.4488,-34.1063 23.1339,-138.256 95.874,-100.665 69.2677,35.8346 -42.2323,121.587 -95.874,100.665 z"
   id="path3776"
   style="fill:#838281"
   inkscape:connector-curvature="0" />

  <path
   d="m 4553.11,8979.37 c -31.8268,-12.4213 -22.8976,-27.5551 -11.6457,-50.0669 29.1102,-37.6457 154.854,-45.4055 84.9961,32.2126 -24.8386,16.3031 -46.5709,17.0787 -73.3504,17.8543 l 0,0 z"
   id="path3778"
   style="fill:#df947a"
   inkscape:connector-curvature="0" />

  <path
   d="m 4070.29,9017.48 c 0,-0.016 0.039,0.012 0.039,0 0,-0.016 -0.039,0.02 -0.039,0 z"
   id="path3780"
   style="fill:#838281"
   inkscape:connector-curvature="0" />

  <path
   d="m 4076.21,9017.04 c -20.3898,2.7638 -50.5591,4.3701 -52.7913,-24.5354 -0.937,-12.1693 35.5748,-21.7677 42.7717,-24.7283 33.4252,-13.752 43.1575,44.8268 10.0197,49.2638 l -10e-5,-10e-5 z"
   id="path3782"
   style="fill:#838281"
   inkscape:connector-curvature="0" />

  <path
   d="m 4074.95,9001.78 c -15.6693,1.2165 -35.0394,5.2598 -36.2559,-10.4094 9.4094,2.0945 23.6339,-4.8543 35.626,-9.6102 2.752,4.248 5.5039,8.4921 8.4921,13.0472 -2.7795,2.1181 -5.3189,4.5472 -7.8622,6.9724 l 0,0 z"
   id="path3784"
   style="fill:#aaa9a9"
   inkscape:connector-curvature="0" />

  <g
   id="g3786">
   <path
   d="m 4358.74,8619.08 c -31.5276,-11.3307 -44.8465,-31.4685 -48.3228,-54.9488 l 8.6929,-1.2362 c 3.0158,20.3701 14.7402,37.8937 42.5827,47.9016 l -2.9528,8.2834 0,0 z m -48.3228,-54.9488 c -3.374,-22.7559 2.7599,-48.4055 10.2913,-71.9921 l 8.3859,2.6457 c -7.2126,22.5945 -13.1102,47.0236 -9.9843,68.1102 l -8.6929,1.2362 0,0 z m 18.8504,-70.1024 -0.1732,0.7559 -4.1929,-1.3228 4.3661,0.5669 0,0 z m -8.7323,-1.1338 0.071,-0.5433 8.7323,1.1338 -0.071,0.5433 -8.7323,-1.1338 z m 8.8032,0.5551 0,0.035 -4.3661,-0.5669 4.3661,0.5315 0,0 z m -8.7323,-1.063 c 0.9725,-7.5197 1.6221,-13.7244 2.1536,-18.811 l 8.7322,0.8976 c -0.5748,5.4764 -1.2756,12.189 -2.1535,18.9764 l -8.7323,-1.0629 0,-10e-5 z m 2.1536,-18.8109 c 0.8622,-8.2008 1.4448,-13.7874 2.4724,-15.8386 l 7.874,3.9212 c -0.3386,0.6732 -0.8583,5.5984 -1.6142,12.815 l -8.7322,-0.8976 0,0 z m 2.4724,-15.8386 1.2205,-2.441 2.7165,0 0,4.4016 -3.937,-1.9606 0,0 z m 3.937,-2.441 0.055,0 0,8.8032 -0.055,0 0,-8.8032 z m 0.055,0 c 4.8819,0.016 11.0236,2.1181 17.9921,5.8032 l -4.0866,7.7716 c -5.7323,-3.0315 -10.5118,-4.7598 -13.9055,-4.7716 l 0,-8.8032 0,0 z m 17.9921,5.8032 c 6.5827,3.4803 14.0394,8.4331 21.9409,14.3898 l -5.2913,7.0157 c -7.5669,-5.7008 -14.622,-10.3976 -20.7362,-13.6339 l 4.0866,-7.7716 0,0 z m 21.9409,14.3898 c 40.2441,30.3465 93.5354,88.1969 102.693,113.098 l -8.252,3.0236 c -8.7047,-23.6732 -60.4685,-79.5 -99.7323,-109.106 l 5.2914,-7.0157 -1e-4,1e-4 z m 102.6931,113.0979 0.6535,1.7834 -0.8425,1.689 -3.937,-1.9606 4.126,-1.5118 0,0 z m -0.189,3.4724 -1.1654,2.3268 -7.874,-3.9213 1.1654,-2.3268 7.874,3.9213 z m -1.1654,2.3268 -1.2244,2.4409 -2.7126,0 0,-4.4016 3.937,1.9607 z m -3.937,2.4409 c -0.6457,0 -1,-0.1457 -1.1457,-0.075 l -3.9212,-7.874 c 1.6929,-0.8504 3.3819,-0.8544 5.0669,-0.8544 l 0,8.8032 0,0 z m -1.1457,-0.075 -3.3661,1.689 -2.185,-3.0985 3.5905,-2.5275 1.9606,3.937 0,0 z m -5.5511,-1.4095 c -13.8858,-19.6732 -34.3346,-47.3583 -57.0906,-71.5118 l 6.3937,-6.0157 c 23.1339,24.5512 43.8346,52.5748 57.878,72.4724 l -7.1811,5.0551 0,0 z m -57.0906,-71.5118 c -22.4449,-23.8189 -47.0866,-44.1969 -69.6024,-49.7795 l 2.0945,-8.5275 c 24.437,6.059 50.4606,27.4134 73.9016,52.2913 l -6.3937,6.0157 0,0 z m -72.937,-54.2992 0.307,-5.2795 5.1221,1.2716 -1.0472,4.2638 -4.3819,-0.2559 0,0 z m 8.7637,0.5118 -0.024,0.4016 -8.7638,-0.5118 0.024,-0.4016 8.7637,0.5118 z m -0.024,0.4016 c -0.7283,11.5591 -3.5551,24.2047 -6.4567,37.2047 l -8.5905,-1.8898 c 2.8425,-12.7323 5.6063,-25.1102 6.2834,-35.8268 l 8.7638,0.5118 0,10e-5 z m -6.4567,37.2046 c -8.622,38.6181 -18.0236,80.7362 29.8622,96.5118 l -2.748,8.3544 c -55.4567,-18.2717 -45.1575,-64.4252 -35.7047,-106.756 l 8.5906,1.8897 -10e-5,1e-4 z m 29.6733,104.9169 -2.5591,-0.051 1.374,-4.1771 1.1851,4.2283 0,0 z m -2.3701,-8.4567 c 4.1771,-1.1929 12.5512,-3.5826 15.5551,9.0355 l -8.5591,2.0315 c -0.874,-3.6772 -3.3779,-2.9646 -4.626,-2.6103 l -2.37,-8.4567 0,0 z m 15.5551,9.0355 1.2874,5.4173 -5.567,0 0,-4.4016 4.2796,-1.0157 z m -4.2796,5.4173 c -1.6653,0 -3.2992,0.095 -4.8976,0.2205 l -0.6851,-8.7638 c 1.8898,-0.1496 3.7638,-0.2599 5.5827,-0.2599 l 0,8.8032 0,0 z m -4.8976,0.2205 c -1.7638,0.1456 -3.4331,0.3385 -5.1024,0.5196 l -0.9606,-8.7322 c 1.8189,-0.2008 3.6575,-0.4095 5.3779,-0.5512 l 0.6851,8.7638 0,0 z m -5.1024,0.5196 -1.9567,-0.2244 1.4764,-4.1417 0.4803,4.3661 0,0 z"
   id="path3788"
   style="fill:#838281"
   inkscape:connector-curvature="0" />

   <path
   d="m 4360.22,8614.94 c -59.378,-21.3465 -50.063,-75.2913 -35.315,-121.476 2.3268,-17.8543 3.1024,-31.437 4.2677,-33.7638 29.4961,0 126.134,96.6378 138.555,130.402 -0.3897,0.7756 -0.7795,1.5512 -1.1653,2.3268 -1.1654,0 -2.3307,0 -3.1063,0.3897 -27.9409,-39.5866 -82.2756,-111.386 -129.236,-123.028 -2.7166,46.1811 -41.9173,116.039 26.3898,138.551 2.7165,-0.7756 8.1496,-2.3267 10.0906,5.8229 -3.4922,0 -6.9843,0.3858 -10.4803,0.7756 l -2e-4,-2e-4 z"
   id="path3790"
   style="fill:#838281"
   inkscape:connector-curvature="0" />

  </g>

  <path
   d="m 3321.48,8519.82 c -16.2717,-2.3031 -77.2008,-12.3701 -48.2402,-41.3307 15.4409,-12.0787 30.3307,0 46.2362,2.1811 22.6102,3.1024 49.3622,-0.5118 68.7008,-8.937 23.7126,-10.3346 30.185,35.126 8.685,39.4252 -22.0276,4.3976 -53.0354,11.8504 -75.3819,8.6614 l 1e-4,0 z m 2.6259,0.1772 c 2.626,0.1771 0,-0.016 0,0 z"
   id="path3792"
   style="fill:#838281"
   inkscape:connector-curvature="0" />

  <path
   d="m 3323.63,8504.72 c -5.4331,-0.7795 -63.2598,-11.6457 -32.9882,-16.689 27.1654,13.5827 73.3504,10.8661 103.622,-2.3307 0,3.8819 0.7756,4.6575 -0.3858,10.4803 -25.2283,5.0433 -46.9606,7.7598 -70.248,8.5394 l 0,0 z"
   id="path3794"
   style="fill:#df947a"
   inkscape:connector-curvature="0" />

  <path
   d="m 3238.51,8511.07 c -27.685,-10.4094 -13.9528,-26.9764 -5.2953,-31.815 -111.209,-108.559 150.815,-170.079 101.15,-33.1457 -11.4606,31.6181 -60.6496,78.1969 -95.8543,64.9606 l -4e-4,10e-5 z m 0.063,-0.1969 c -0.189,-0.012 0.6772,0.2598 1.0906,0.1653 0.3385,-0.079 -0.7048,-0.1417 -1.0906,-0.1653 z m -0.1338,0.1732 c 0,0 0.047,0.024 0.083,-0.01 0.055,-0.051 0.079,-0.3701 -0.083,0.01 z m 32.126,-51.5551 c 32.0591,2.3937 47.4252,-63.4016 4.0275,-56.9488 -27.878,4.1456 -34.8346,54.6457 -4.0275,56.9488 z"
   id="path3796"
   style="fill:#838281"
   inkscape:connector-curvature="0" />

  <path
   d="m 3243.29,8496.56 c -1.1654,-0.3858 -2.3268,-0.7756 -3.1024,-0.7756 -0.3897,-0.7756 -0.7795,-1.1614 -0.7795,-1.5512 36.4843,-24.063 73.7402,-26.3898 76.8465,-83.0551 -40.3622,-63.6496 -122.642,13.1969 -54.3346,60.9331 0,0.3898 0,1.1654 0.3858,1.941 -23.2835,15.5236 -85.3819,-98.5787 32.2126,-94.311 66.3661,36.0945 5.437,116.819 -51.2283,116.819 l -1e-4,-2e-4 z"
   id="path3798"
   style="fill:#df947a"
   inkscape:connector-curvature="0" />

  <path
   d="m 4568.43,8925.24 c 6.189,-3.2598 11.5709,-0.1102 13.5827,4.374 2.2835,5.0788 0.2441,11.874 -9.8307,12.9685 -10.4882,1.1378 -12.0551,-12.9646 -3.752,-17.3425 l 0,0 z m 54.874,8.4646 c -9.5197,-5.248 0.4921,-20.2795 9.4882,-15.3031 11.1181,6.1457 1.8701,21.5709 -9.4882,15.3031 z"
   id="path3800"
   style="fill:#838281"
   inkscape:connector-curvature="0" />

  <path
   d="m 4570.26,8937.21 c -1.0354,0.1142 -1.3071,-4.3465 -1.0945,-4.9724 0.7835,-2.3347 6.3189,-3.7992 7.5158,0.2716 0.9212,3.1457 -2.4449,4.2638 -6.4213,4.7008 l 0,0 z m 56.5984,-7.7283 c -1.626,-0.8111 -1.2126,-3.6418 -0.5787,-4.5945 0.7126,-1.067 2.3818,-2.437 3.4488,-1.7244 1.5078,1.0078 2.9173,3.2519 2.2953,5.744 -0.4134,1.6733 -3.5434,1.3859 -5.1654,0.5748 l 0,1e-4 z"
   id="path3802"
   style="fill:#70614e"
   inkscape:connector-curvature="0" />

  <path
   d="m 4516.07,8777.37 c -24.2205,2.9055 -12.7835,-53.1575 14.2008,-32.1339 17.1181,13.3386 2.9449,29.0787 -8.6142,30.7165 0,0 -5.5866,1.4173 -5.5866,1.4173 l 0,1e-4 z m 101.201,-16.6536 c -18.4646,-11.374 -2.5472,-27.4961 10.4921,-29.189 10.7874,-1.4015 19.0787,3.1733 14.5039,24.6969 -2.7401,12.9055 -18.7795,8.3189 -24.9961,4.4922 l 10e-5,-1e-4 z"
   id="path3804"
   style="fill:#838281"
   inkscape:connector-curvature="0" />

  <path
   d="m 4514.83,8766.87 c -1.9843,0.2165 -2.4961,-8.315 -2.0945,-9.5118 1.5,-4.4685 12.0906,-7.2717 14.378,0.5197 1.7638,6.0157 -4.6772,8.1535 -12.2835,8.9921 l 0,0 z m 108.272,-14.7835 c -3.1063,-1.5551 -2.315,-6.9685 -1.1024,-8.7913 1.3622,-2.0433 4.5512,-4.6575 6.5945,-3.2992 2.8898,1.9291 5.5867,6.2244 4.3977,10.9921 -0.7992,3.1929 -6.7835,2.6496 -9.8898,1.0984 l 0,0 z"
   id="path3806"
   style="fill:#dededd"
   inkscape:connector-curvature="0" />

  <g
   id="g3808">
  </g>

  <g
   id="g3810">
   <g
   id="g3812">
   </g>

   <g
   id="g3814">
   </g>

   <g
   id="g3816">
   </g>

  </g>

  <g
   id="g3818">
   <g
   id="g3820">
    <g
   id="g3822">
    </g>

   </g>

   <g
   id="g3824">
    <g
   id="g3826">
    </g>

   </g>

   <g
   id="g3828">
    <g
   id="g3830">
    </g>

   </g>

   <g
   id="g3832">
    <g
   id="g3834">
    </g>

   </g>

   <g
   id="g3836">
    <g
   id="g3838">
    </g>

   </g>

   <g
   id="g3840">
   </g>

   <g
   id="g3842">
   </g>

   <g
   id="g3844">
   </g>

   <g
   id="g3846">
   </g>

  </g>

  <g
   id="g3848">
  </g>

  <g
   id="g3850">
  </g>

  <g
   id="g3852">
  </g>

  <g
   id="g3854">
  </g>

  <g
   id="g3856">
  </g>

  <g
   id="g3858">
  </g>

 </g>

  
</svg>