<?xml version="1.0" encoding="UTF-8" standalone="no"?>
<!-- Generator: Adobe Illustrator 12.0.0, SVG Export Plug-In . SVG Version: 6.00 Build 51448)  -->
<svg
   xmlns:dc="http://purl.org/dc/elements/1.1/"
   xmlns:cc="http://web.resource.org/cc/"
   xmlns:rdf="http://www.w3.org/1999/02/22-rdf-syntax-ns#"
   xmlns:svg="http://www.w3.org/2000/svg"
   xmlns="http://www.w3.org/2000/svg"
   xmlns:sodipodi="http://sodipodi.sourceforge.net/DTD/sodipodi-0.dtd"
   xmlns:inkscape="http://www.inkscape.org/namespaces/inkscape"
   height="277.173"
   id="Layer_1"
   inkscape:version="0.45.1"
   sodipodi:docbase="/Users/johnolsen/Desktop/openclipart-0.20-pre/recovered-zerobyte-files/animals/birds"
   sodipodi:docname="pinguino_col_piccolo_ar_04r.svg"
   sodipodi:version="0.32"
   space="preserve"
   style="overflow:visible;enable-background:new 0 0 151.133 277.173;"
   version="1.1"
   viewBox="0 0 151.133 277.173"
   width="151.133"
   inkscape:output_extension="org.inkscape.output.svg.inkscape">
  <metadata
     id="metadata3">
    <rdf:RDF>
      <cc:Work
         rdf:about="">
        <dc:title>Pinguino col piccolo</dc:title>
        <dc:description />
        <dc:subject>
          <rdf:Bag>
            <rdf:li>animal</rdf:li>
            <rdf:li>bird</rdf:li>
            <rdf:li>penguin</rdf:li>
          </rdf:Bag>
        </dc:subject>
        <dc:publisher>
          <cc:Agent
             rdf:about="http://www.openclipart.org/">
            <dc:title>Open Clip Art Library</dc:title>
          </cc:Agent>
        </dc:publisher>
        <dc:creator>
          <cc:Agent>
            <dc:title>Architetto Francesco Rollandin</dc:title>
          </cc:Agent>
        </dc:creator>
        <dc:rights>
          <cc:Agent>
            <dc:title>Architetto Francesco Rollandin</dc:title>
          </cc:Agent>
        </dc:rights>
        <dc:date />
        <dc:format>image/svg+xml</dc:format>
        <dc:type
           rdf:resource="http://purl.org/dc/dcmitype/StillImage" />
        <cc:license
           rdf:resource="http://web.resource.org/cc/PublicDomain" />
        <dc:language>en</dc:language>
      </cc:Work>
      <cc:License
         rdf:about="http://web.resource.org/cc/PublicDomain">
        <cc:permits
           rdf:resource="http://web.resource.org/cc/Reproduction" />
        <cc:permits
           rdf:resource="http://web.resource.org/cc/Distribution" />
        <cc:permits
           rdf:resource="http://web.resource.org/cc/DerivativeWorks" />
      </cc:License>
    </rdf:RDF>
  </metadata>
  <defs
     id="defs1612" />
  <sodipodi:namedview
     bordercolor="#666666"
     borderopacity="1.0"
     id="base"
     inkscape:current-layer="Layer_1"
     inkscape:cx="75.566498"
     inkscape:cy="138.58650"
     inkscape:pageopacity="0.0"
     inkscape:pageshadow="2"
     inkscape:window-height="510"
     inkscape:window-width="787"
     inkscape:window-x="22"
     inkscape:window-y="29"
     inkscape:zoom="1.2988278"
     pagecolor="#ffffff" />
  <path
     d="M85.106,4.845c7.57,7.418,6.913,15.958,8.161,26.558  c0.795,6.752,1.599,11.368,4.924,17.38c3.813,6.894,9.929,12.051,14.135,18.657c3.894,6.116,5.26,13.26,7.924,19.932  c2.785,6.974,6.985,13.042,10.34,19.746c7.101,14.194,8.271,29.193,9.278,44.724c1.019,15.7-1.684,30.397,4.062,45.555  c2.525,6.663,8.936,16.106,6.761,23.421c-1.846,6.207-9.212,4.019-13.893,0.97c-2.356,11.652-2.288,23.85-7.269,34.891  c-0.693,1.537-1.355,3.297-2.584,4.523c-0.283,0.282-3.312,1.992-3.231,1.778c-0.957,2.548,3.383,5.855,1.292,9.368  c-1.341-1.188-2.156-2.745-3.553-3.877c-0.388,2.021-0.236,4.254-2.101,5.491c-0.901-2.124-2.038-4.519-4.523-5.33  c0.063,0.901-0.375,5.634-0.97,6.139c-1.924,1.634-2.994-0.97-4.521-2.423c-1.472-1.4-0.239-2.326-2.747-2.262  c-2.292,0.059-0.559,0.656-1.938,1.455c-1.279,0.74-3.322,2.842-5.17,1.614c-0.95,1.675-9.542,0.354-9.691-0.646  c-2.533-0.128-7.771,5.307-8.238,4.604c-1.391-2.102,0.165-5.905-3.393-2.343c-4.086,4.093-1.438-1.204-2.746-1.937  c-1.639-0.919-3.429,1.296-5.007,1.938c-0.779-3.132,1.265-5.47,2.422-7.593c-4.356,1.006-7.08-1.951-10.822-1.938  c-2.404,0.008-3.436,2.094-5.007,3.069c-2.587,1.605-5.822,3.452-8.723,4.524c0.043-2.074,0.501-4.112,0.97-6.14  c-1.595,0.414-7.601,5.698-8.239,5.33c-1.363-0.786,1.366-5.439,1.778-6.3c-2.891,0.716-16.506,6.658-8.804-1.049  c2.089-2.09,2.874-2.663,0.565-4.685c-2.118-1.854-4.308-4.174-5.573-6.704c-1.456-2.912-2.915-5.633-4.119-8.643  c-8.486-21.202-0.626-45.162-4.685-67.118c-3.376,6.7-5.008,14.391-5.008,21.89c0,4.306-0.689,11.811-6.784,10.096  c-11.038-3.105-8.222-29.262-7.592-37.315c0.85-10.872,2.581-22.293,6.623-32.387c4.638-11.582,11.88-22.364,18.092-33.681  c4.238-7.721,3.042-16.105,6.3-24.23c5.417-13.508,24.364-22.802,24.069-37.799c-0.214-10.908-8.882-18.732-18.415-22.453  c-6.111-2.385-13.386-2.746-19.87-2.746c-4.11,0-12.882,4.126-5.976-2.746C21.686,6.124,36.774,14.408,48.02,7.13  C58.342,0.451,74.24-3.779,85.106,4.845"
     id="path1597"
     style="fill-rule:evenodd;clip-rule:evenodd;" />
  <path
     d="M81.876,5.006c9.944,2.463,9.216,19.006,9.37,26.007  c0.29,13.119,6.441,20.006,14.215,30.046c4.538,5.861,7.513,11.874,10.418,18.657c2.579,6.021,3.709,12.225,7.446,17.832  c7.362,11.046,12.1,24.534,13.635,37.494c0.163,1.377,0.101,0.916-0.646,1.777c1.757,2.325,0.597,7.411,1.05,10.58  c1.114,7.805,1.577,17.665,0.97,25.523c-0.973,12.589,3.256,23.817,8.077,35.052c3.536,8.237,3.016,18.018-7.674,12.682  c-10.027-5.006-17.889-19.992-21.727-30.206c-0.979-2.609,3.565-8.554,5.896-10.016c2.502-1.569,9.382-1.788,3.554-4.686  c-2.15-1.068-4.786-0.684-6.784-2.181c-1.647-1.234-2.548-2.147-4.524-3.149c-2.984-1.513-3.4-0.155-4.163-4.224  c-0.767-4.096-1.564-8.212-2.053-12.35c-0.613-5.193-1.473-9.627-1.052-14.926c0.275-3.46,0.826-14.388,3.958-16.477  c3.065-2.045,2.164-5.583-0.809-1.615c-3.447,4.601-3.905,10.284-4.603,15.83c-0.575,4.568-0.479,8.596,0.286,13.191  c0.612,3.676,1.258,7.354,1.813,11.038c0.366,2.427,2.456,8.724-0.565,8.724c-6.033,0-8.11-0.694-12.52,3.715  c-2.216,2.216-4.282,4.537-3.553,7.108c-1.438,0.462-1.364,0.647-1.293,2.1c-2.165,1.411,3.407,13.624,0.968,16.961  c0.053,1.288-0.705,2.733,0.646,4.038c-1.307,1.121-1.673,2.898-0.806,4.361c-2.434,1.31-2.996,6.017-6.301,7.916  c-1.525,0.877-4.501,1.712-5.653,2.583c-1.407,1.063-2.057,4.942-4.199,5.008c0.045,1.013-0.59,1.648-0.323,2.748  c-2.432,0.077-3.134,3.114-2.424,4.846c-1.74,0.645-2.547,4.237-1.938,5.33c-1.366,0.771-3.273,2.596-4.2,4.199  c-1.485-0.452-5.815,2.147-7.431,3.069c-2.56-0.927-13.05,2.984-7.35,6.784c3.076,2.051,6.483,6.363,11.549,5.493  c-1.127,1.914,3.514,7.34,4.847,7.43c-0.086,1.55-0.188,1.647,1.292,2.423c-6.924-0.012-9.55-7.838-15.669-9.369  c-5.572-1.394-9.057,1.973-13.891,2.746c-5.385,0.862-7.563-6.089-10.124-10.354c-4.33-7.214-6.093-15.446-6.677-23.729  c-0.996-14.129,1.01-28.147-0.646-41.999c-1.639-13.71-2.261-27.6-2.261-41.532c0-13.387,6.138-27.368,9.53-40.205  c2.287-8.654,2.659-17.285,7.107-25.441c6.321-11.588,21.159-17.286,21-31.742c-0.109-9.9-6.74-17.239-15.286-21.837  c-7.785-4.188-15.621-4.743-24.129-5.139c8.264-1.165,17.667-0.811,25.846,0.808c1.733,0.343,9.522,4.14,10.176,3.876  c1.944-0.785-0.624-1.976-1.615-2.746c-3.783-2.941-10.687-3.553-15.265-3.553c-7.746,0-16.076-1.787-23.504,1.13  c8.833-8.325,23.371-1.787,33.599-7.269c5.647-3.026,10.385-6.961,16.962-7.431C69.441,1.58,77.863,1.556,81.876,5.006   M64.431,14.375c0.934,3.625-4.524,3.842-4.524,1.454C59.907,12.808,62.72,11.22,64.431,14.375 M131.468,217.747  c4.463,3.043,3.706,5.348,3.068,10.5c-0.455,3.678-1.078,7.327-1.537,11.008c-0.771,6.181-2.625,13.629-6.054,19.038  c-0.082-2.233,1.742-3.921-0.324-5.493c1.338-1.188,0.538-7.283-1.373-8.56c-2.817-1.882,0.315-6.465,0.405-8.401  c0.14-3.008-0.481-16.983-5.494-15.992c-2.359-2.028-1.409-5.798-5.168-6.621c0.84-1.354,0.042-6.691-1.614-6.947  c0.746-2.11-0.501-5.416-0.325-8.238c0.206-3.308-0.677-4.956,1.453-7.754C119.397,200.06,124.353,209.373,131.468,217.747   M56.191,259.746c1.544,1.381,3.066,2.849,4.523,4.36c-0.999,0.482-2.986,2.056-4.039,2.101c-1.274,0.055-2.71-1.64-4.523-1.938  C53.006,262.465,54.82,260.774,56.191,259.746 M53.769,259.423c-0.86,1.451-6.783,5.658-7.27,2.261  C46.166,259.355,52.363,256.72,53.769,259.423 M45.854,259.261c-1.818,3.223-4.62,7.969-7.431,3.392  C39.548,261.112,43.183,257.83,45.854,259.261 M125.814,259.584C125.342,260.145,125.511,259.945,125.814,259.584 M124.521,270.245  c-0.549-1.336-1.493-2.489-2.747-3.23C124.141,265.701,124.792,268.162,124.521,270.245 M120.159,269.438  c0.056,0.988-0.027,1.876-0.483,2.746c-0.697-0.966-1.516-2.279-1.938-3.392C118.824,268.559,119.395,268.972,120.159,269.438   M73.314,271.053c-0.601,0.836-1.079,1.521-2.1,1.939C71.406,271.288,71.948,270.194,73.314,271.053 M113.213,271.7  c0.055,0.735-0.229,1.839-0.321,2.584c-0.907-0.418-1.868-1.301-2.424-2.1C111.439,271.04,112.186,271.22,113.213,271.7   M78.483,272.346c-0.492,0.819-1.261,1.749-2.1,2.423C76.303,272.96,76.715,271.085,78.483,272.346 M84.46,273.638  c-0.428,0.832-1.046,1.596-1.938,2.1C82.123,273.856,82.637,272.403,84.46,273.638"
     id="path1599"
     style="fill-rule:evenodd;clip-rule:evenodd;fill:#B2B2B2;" />
  <path
     d="M63.137,15.344c-0.604,0.174-0.846,0.551-1.615,0.485  c0-0.484,0-0.969,0-1.454C62.534,14.297,62.647,14.863,63.137,15.344"
     id="path1601"
     style="fill-rule:evenodd;clip-rule:evenodd;fill:#FFFF00;" />
  <path
     d="M18.877,145.542c-0.545,8.563,0.865,17.021,0.646,25.522  c-0.155,6.014-3.839,11.793-5.008,17.931c-0.778,4.089,0.685,15.035-2.584,17.769c-4.839,4.046-8.292-6.313-9.04-9.866  c-5.453-25.918,3.546-56.037,17.359-77.767c2.053-3.229,4.375-6.324,5.734-9.935C23.008,121.101,17.685,133.03,18.877,145.542"
     id="path1603"
     style="fill-rule:evenodd;clip-rule:evenodd;fill:#8C8C8C;" />
  <path
     d="M119.353,174.779c0.132,2.372,4.816,1.561,6.947,2.423  c-1.178,0.172-8.095,0.908-8.563,1.776c-1.127,2.091,3.134,0.97,3.716,0.646c-3.373,1.025-2.505,4.771-4.604,6.865  c-1.575,1.571-2.713,2.576-4.281,4.28c-1.775,1.929-4.535,2.753-5.816,4.686c-2.01,3.03,1.663,1.056,2.424-0.484  c3.856-1.752,2.737,1.965,2.423,4.522c-0.271,2.203,1.507,5.747,0.485,7.753c0.747-0.072,0.802,0.292,1.613,0  c-1.042,2.98,0.63,10.056,4.04,9.693c-1.54,2.343,2.264,3.484,3.553,5.007c1.584,1.872,2.701,4.88,2.908,6.785  c0.545,5.029-1.021,8.753-1.292,13.729c-0.654,0.289-5.831,8.437-5.492,10.662c-1.734,0.156-1.658,0.249-2.585,1.777  c-1.573-0.726-3.772-0.056-5.491,0.808c-1.152,0.578-0.171,2.255-2.182,1.856c-1.601-0.317-3.337,0.033-3.149,2.02  c-1.033-0.387-2.833-0.641-3.796,0c-2.245,1.494-0.705,0.488-3.15,0.484c-2.347-0.004-5.554-2.67-7.996-2.181  c-2.024,0.406-0.979-0.092-2.505-0.888c0.435,0.227-3.28-2.818-3.067-2.423c-1.711-3.168,1.934-4.741,0.646-7.754  c1.332-1.442,4.213-3.229,2.422-5.816c2.532,0.02,0.938-3.29,1.616-5.007c0.517-1.307,3.228-2.401,3.231-4.201  c1.006,0.194,4.05-0.493,2.908-1.937c-0.814-1.029-4.215,1.911-4.361,2.907c-1.45-0.679-1.97,1.104-2.908,1.938  c-0.54,1.598-1.097,3.629,0,5.168c-3.335-0.436-0.531,1.542-1.132,3.07c-0.355,0.905-1.385,1.511-1.776,2.423  c-0.141,0.327-0.891,3.667-0.808,3.554c-1.064,1.45-3.565,2.432-5.008,3.877c-1.203,1.205-10.074,2.894-11.631,2.503  c-2.373-0.595-7.393-2.309-9.208-1.533c-0.748-3.016-8.504-4.137-4.523-7.594c2.387-2.072,9.43-2.693,12.115-4.361  c4.477-2.781,7.383-4.909,8.885-10.016c0.357-1.217-0.28-2.086,0.161-3.391c0.374-1.107,1.399-1.608,2.1-2.747  c1.145-1.86,3.49-3.568,3.393-5.976c4.308,1.186,14.912-9.705,12.599-13.246c1.353-1.188,1.544-6.762,0.89-9.369  c-0.433-1.724,0.378-4.725,0.081-6.946c-0.257-1.928-0.748-4.997-2.1-6.461c2.495-3.583,2.512-7.585,6.865-11.307  C102.77,168.236,115.173,170.629,119.353,174.779 M110.468,175.587c2.943,4.376-1.913,10.198-5.652,5.653  C101.683,177.433,106.759,173.437,110.468,175.587"
     id="path1605"
     style="fill-rule:evenodd;clip-rule:evenodd;fill:#FFFFFF;" />
  <path
     d="M110.468,178.495c-0.324,3.323-4.053,4.174-4.845,0.808  C104.756,175.616,109.502,175.115,110.468,178.495 M109.176,178.01c0.245,1.513-1.824,3.203-2.745,1.292  C105.313,176.983,108.011,176.818,109.176,178.01"
     id="path1607"
     style="fill-rule:evenodd;clip-rule:evenodd;fill:#FFFF00;" />
  <path
     d="M125.006,247.146c1.331,2.47-0.64,4.942,1.615,7.432  c-2.586,2.475-1.313,7.294-5.331,7.43c-1.207,0.041-3.008-2.19-4.522-2.1c-0.98,0.059-4.556,1.861-4.684,3.07  c-2.293-1.104-3.673,1.764-4.282,3.391c-0.311,0.827,0.687,1.251-0.242,2.101c-1.135,1.038-1.802-0.37-2.907,0.323  c-2.164,1.358-2.049,2.595-4.362,3.229c-2.557,0.702-3.665,0.884-6.622,0.162c-2.82-0.688-3.699-1.122-6.138-3.392  c-2.494-2.321-2.318-2.448-5.978-2.908c-2.029-0.255-4.283-1.509-6.541,0c-2.866,1.914-3.714-1.732-6.059-1.454  c0.564-2.213-1.526-3.986-3.069-4.522c-0.057-1.794-0.381-2.004-1.938-2.746c1.667-1.775,5.5-0.651,7.431-1.373  c3.475-1.301,7.137-2.679,10.337-3.797c0.522,3.204,1.031,1.967,2.908,4.038c0.72,0.794,1.33,2.874,2.262,3.394  c0.964,0.537,3.002-0.357,4.36,0.322c1.83,0.917,6.095,2.373,8.4,2.424c0.565,0.013,0.83-1.107,1.292-1.13  c-0.771,0.038,2.421-0.559,1.94-0.324c1.352-0.659,2.056,0.619,2.26-1.616c2.307-0.53,4.155-1.296,5.654-1.774  c1.569-0.5,4.659-0.898,5.17-2.183c0.61-1.536,1.877-0.576,2.423-1.212c0.236-0.275,1.654-2.658,1.775-2.907  c1.223-2.511,0.98-4.548,3.231-6.301C124.442,245.35,124.824,246.129,125.006,247.146 M54.738,267.823  c-1.527,1.135-3.104,2.113-4.846,2.907C50.363,267.972,52.235,263.393,54.738,267.823 M48.114,264.754  c-1.05,1.847-3.088,2.931-4.845,4.198C43.871,266.835,45.539,261.631,48.114,264.754 M38.746,265.399  c-1.451,1.165-3.282,1.406-5.008,2.101C34.603,265.565,37.322,262.413,38.746,265.399 M88.176,270.568  c-0.166,1.897-3.588,1.745-5.331,1.132c0.058-1.501,1.112-2.947,2.101-4.2C85.62,268.893,86.47,270.401,88.176,270.568   M83.33,267.176c-0.967,0.45-3.438,8.08-5.331,3.392C77.211,268.617,81.715,266.766,83.33,267.176 M77.676,267.661  c-1.129,1.34-1.877,2.962-2.262,4.686c-0.27-1.343-1.006-2.515-2.1-3.394c1.83-1.839,3.506-2.496,5.976-2.584  C78.953,267.212,78.445,267.281,77.676,267.661 M118.868,261.684c0.883,2.056,3.265,1.004,4.038,2.585  c0.295,0.604-0.437,1.523-1.293,1.453c-1.396-0.115-0.695-0.691-1.695-1.695c-3.826-3.842-1.701,2.015-0.242,3.473  c-2.913,0.551-4.646,0.592-5.979-2.262c-1.621-3.476,0.822-1.289,2.748-3.876C117.389,262.088,117.935,261.526,118.868,261.684   M112.892,266.207c1.102,2.37-0.719,6.445-3.231,4.2c-1.724-1.54,0.895-5.202,1.131-6.623  C111.602,264.398,112.375,265.243,112.892,266.207"
     id="path1609"
     style="fill-rule:evenodd;clip-rule:evenodd;fill:#D1CFCC;" />
</svg>
