<?xml version="1.0" encoding="UTF-8" standalone="no"?>
<!-- Created with Inkscape (http://www.inkscape.org/) -->

<svg
   xmlns:dc="http://purl.org/dc/elements/1.1/"
   xmlns:cc="http://creativecommons.org/ns#"
   xmlns:rdf="http://www.w3.org/1999/02/22-rdf-syntax-ns#"
   xmlns:svg="http://www.w3.org/2000/svg"
   xmlns="http://www.w3.org/2000/svg"
   xmlns:xlink="http://www.w3.org/1999/xlink"
   xmlns:sodipodi="http://sodipodi.sourceforge.net/DTD/sodipodi-0.dtd"
   xmlns:inkscape="http://www.inkscape.org/namespaces/inkscape"
   width="762.68036"
   height="177.81448"
   id="svg2"
   sodipodi:version="0.32"
   inkscape:version="0.48.1 r9760"
   version="1.0"
   sodipodi:docname="rygle_Snake_Colour_Outline_1.svg"
   inkscape:output_extension="org.inkscape.output.svg.inkscape"
   inkscape:export-filename="E:\Images\Vector\Snake.png"
   inkscape:export-xdpi="90.089996"
   inkscape:export-ydpi="90.089996">
  <defs
     id="defs4">
    <linearGradient
       id="linearGradient3746">
      <stop
         id="stop3748"
         offset="0"
         style="stop-color:#14dbcb;stop-opacity:1;" />
      <stop
         id="stop3752"
         offset="1"
         style="stop-color:#1b566c;stop-opacity:1;" />
    </linearGradient>
    <linearGradient
       id="linearGradient3736">
      <stop
         style="stop-color:#ffffff;stop-opacity:1;"
         offset="0"
         id="stop3738" />
      <stop
         style="stop-color:#ffffff;stop-opacity:0;"
         offset="1"
         id="stop3740" />
    </linearGradient>
    <linearGradient
       id="linearGradient3652">
      <stop
         style="stop-color:#18d441;stop-opacity:1;"
         offset="0"
         id="stop3654" />
      <stop
         style="stop-color:#ebe943;stop-opacity:1;"
         offset="1"
         id="stop3656" />
    </linearGradient>
    <inkscape:perspective
       sodipodi:type="inkscape:persp3d"
       id="perspective10"
       inkscape:vp_x="-50 : 600 : 1"
       inkscape:vp_y="0 : 1000 : 0"
       inkscape:vp_z="700 : 600 : 1"
       inkscape:persp3d-origin="300 : 400 : 1" />
    <linearGradient
       y2="157.56709"
       x2="551.76062"
       y1="157.56709"
       x1="535.2597"
       gradientTransform="matrix(1.1354944,0.1489112,0.3544232,-0.6291192,-455.87429,151.10482)"
       gradientUnits="userSpaceOnUse"
       id="linearGradient14574"
       xlink:href="#linearGradient4858"
       inkscape:collect="always" />
    <linearGradient
       y2="157.56709"
       x2="551.76062"
       y1="157.56709"
       x1="535.2597"
       gradientTransform="matrix(-0.9263376,0.2758424,-0.3801472,-0.5116624,805.16307,67.56448)"
       gradientUnits="userSpaceOnUse"
       id="linearGradient14572"
       xlink:href="#linearGradient4858"
       inkscape:collect="always" />
    <linearGradient
       y2="157.56709"
       x2="551.76062"
       y1="157.56709"
       x1="535.2597"
       gradientTransform="matrix(0.9600264,0.1119776,0.2862248,-0.5695488,-358.21557,160.83386)"
       gradientUnits="userSpaceOnUse"
       id="linearGradient14570"
       xlink:href="#linearGradient4858"
       inkscape:collect="always" />
    <radialGradient
       r="1.9257008"
       fy="415.23523"
       fx="9.3867407"
       cy="415.23523"
       cx="9.3867407"
       gradientTransform="matrix(-3.415704,-0.06554319,-0.5962632,-0.5743696,513.56299,331.6948)"
       gradientUnits="userSpaceOnUse"
       id="radialGradient6489"
       xlink:href="#linearGradient12058"
       inkscape:collect="always" />
    <radialGradient
       r="1.9257008"
       fy="415.23523"
       fx="9.3867407"
       cy="415.23523"
       cx="9.3867407"
       gradientTransform="matrix(3.803332,-0.06554319,0.6639288,-0.5743696,-85.86605,331.6948)"
       gradientUnits="userSpaceOnUse"
       id="radialGradient6487"
       xlink:href="#linearGradient12058"
       inkscape:collect="always" />
    <radialGradient
       r="1.7170268"
       fy="379.90359"
       fx="96.387573"
       cy="379.90359"
       cx="96.387573"
       gradientTransform="matrix(1.2758672,0,0,-0.4926064,107.28017,276.38048)"
       gradientUnits="userSpaceOnUse"
       id="radialGradient6485"
       xlink:href="#linearGradient8945"
       inkscape:collect="always" />
    <radialGradient
       r="336.7695"
       fy="747.50793"
       fx="378.62222"
       cy="747.50793"
       cx="378.62222"
       gradientTransform="matrix(-0.1490018,-2.2645928e-7,-9.8014455e-8,0.05927683,535.78705,10.823791)"
       gradientUnits="userSpaceOnUse"
       id="radialGradient5329"
       xlink:href="#linearGradient6382"
       inkscape:collect="always" />
    <clipPath
       id="clipPath2341"
       clipPathUnits="userSpaceOnUse">
      <path
         id="path2343"
         clip-rule="evenodd"
         d="m 0,-0.3 841.9,0 0,595.3 L 0,595 0,-0.3 z"
         inkscape:connector-curvature="0" />
    </clipPath>
    <radialGradient
       gradientUnits="userSpaceOnUse"
       gradientTransform="scale(1.0155474,0.9846906)"
       xlink:href="#linearGradient827"
       r="38.948738"
       id="radialGradient830"
       fy="49.007641"
       fx="76.033928"
       cy="48.244743"
       cx="75.282188" />
    <linearGradient
       id="linearGradient827">
      <stop
         style="stop-color:#14accb;stop-opacity:1;"
         offset="0"
         id="stop828" />
      <stop
         id="stop3744"
         offset="0.5"
         style="stop-color:#58d728;stop-opacity:1;" />
      <stop
         style="stop-color:#1b8e6c;stop-opacity:1;"
         offset="1"
         id="stop829" />
    </linearGradient>
    <linearGradient
       gradientUnits="userSpaceOnUse"
       y2="23.741014"
       y1="15.459764"
       xlink:href="#linearGradient838"
       x2="134.75218"
       x1="126.7053"
       id="linearGradient837" />
    <linearGradient
       id="linearGradient838">
      <stop
         style="stop-color:#ffffff;stop-opacity:0.50000000;"
         offset="0.0000000"
         id="stop839" />
      <stop
         style="stop-color:#ffffff;stop-opacity:0.0000000;"
         offset="1.0000000"
         id="stop840" />
    </linearGradient>
    <linearGradient
       id="linearGradient8945">
      <stop
         style="stop-color:#9a7c5a;stop-opacity:1.0000000;"
         offset="0.00000000"
         id="stop8946" />
      <stop
         style="stop-color:#cca478;stop-opacity:0;"
         offset="1"
         id="stop8947" />
    </linearGradient>
    <linearGradient
       id="linearGradient4591">
      <stop
         style="stop-color:#9f805e;stop-opacity:1.0000000;"
         offset="0.00000000"
         id="stop4592" />
      <stop
         style="stop-color:#ffcd97;stop-opacity:1.0000000;"
         offset="1.0000000"
         id="stop4593" />
    </linearGradient>
    <linearGradient
       id="linearGradient4858">
      <stop
         style="stop-color:#23283e;stop-opacity:1.0000000;"
         offset="0.00000000"
         id="stop4859" />
      <stop
         style="stop-color:#3139a3;stop-opacity:1.0000000;"
         offset="1.0000000"
         id="stop4860" />
    </linearGradient>
    <linearGradient
       id="linearGradient1963">
      <stop
         style="stop-color:#a0815e;stop-opacity:1.0000000;"
         offset="0.00000000"
         id="stop1964" />
      <stop
         style="stop-color:#ffcd97;stop-opacity:0.00000000;"
         offset="1.0000000"
         id="stop1965" />
    </linearGradient>
    <linearGradient
       id="linearGradient4202">
      <stop
         style="stop-color:#ffffff;stop-opacity:1.0000000;"
         offset="0.00000000"
         id="stop4203" />
      <stop
         style="stop-color:#dbdde4;stop-opacity:1.0000000;"
         offset="1.0000000"
         id="stop4204" />
    </linearGradient>
    <linearGradient
       id="linearGradient12058">
      <stop
         style="stop-color:#392e21;stop-opacity:1.0000000;"
         offset="0.00000000"
         id="stop12059" />
      <stop
         style="stop-color:#b39069;stop-opacity:0.49803922;"
         offset="0.50000000"
         id="stop12061" />
      <stop
         style="stop-color:#cca478;stop-opacity:0.00000000;"
         offset="1.0000000"
         id="stop12060" />
    </linearGradient>
    <linearGradient
       y2="283.50299"
       x2="631.10602"
       y1="320.64584"
       x1="546.13843"
       gradientUnits="userSpaceOnUse"
       id="linearGradient5078"
       xlink:href="#linearGradient11754"
       inkscape:collect="always" />
    <linearGradient
       id="linearGradient11754"
       inkscape:collect="always">
      <stop
         id="stop11756"
         offset="0"
         style="stop-color:#e39827;stop-opacity:1;" />
      <stop
         id="stop11758"
         offset="1"
         style="stop-color:#e39827;stop-opacity:0;" />
    </linearGradient>
    <radialGradient
       r="64.649765"
       fy="588.70215"
       fx="214.15234"
       cy="588.70215"
       cx="214.15234"
       gradientUnits="userSpaceOnUse"
       id="radialGradient5080"
       xlink:href="#linearGradient6382"
       inkscape:collect="always" />
    <linearGradient
       id="linearGradient6382"
       inkscape:collect="always">
      <stop
         id="stop6384"
         offset="0"
         style="stop-color:#e2b9a7;stop-opacity:1;" />
      <stop
         id="stop6386"
         offset="1"
         style="stop-color:#e2b9a7;stop-opacity:0;" />
    </linearGradient>
    <radialGradient
       r="64.649765"
       fy="588.70215"
       fx="214.15234"
       cy="588.70215"
       cx="214.15234"
       gradientUnits="userSpaceOnUse"
       id="radialGradient5082"
       xlink:href="#linearGradient6382"
       inkscape:collect="always" />
    <radialGradient
       r="336.7695"
       fy="747.50793"
       fx="378.62222"
       cy="747.50793"
       cx="378.62222"
       gradientTransform="matrix(-0.862399,1.364215e-6,-5.672924e-7,-0.35709,705.1459,1042.557)"
       gradientUnits="userSpaceOnUse"
       id="radialGradient5084"
       xlink:href="#linearGradient6382"
       inkscape:collect="always" />
    <radialGradient
       r="336.7695"
       fy="2186.678"
       fx="378.62122"
       cy="2186.678"
       cx="378.62122"
       gradientTransform="matrix(-1.435374,2.920021e-7,-6.148185e-8,-0.263691,922.0854,843.6629)"
       gradientUnits="userSpaceOnUse"
       id="radialGradient5086"
       xlink:href="#linearGradient8194"
       inkscape:collect="always" />
    <linearGradient
       inkscape:collect="always"
       id="linearGradient8194">
      <stop
         style="stop-color:#e2b9a7;stop-opacity:1;"
         offset="0"
         id="stop8196" />
      <stop
         style="stop-color:#e2b9a7;stop-opacity:0;"
         offset="1"
         id="stop8198" />
    </linearGradient>
    <radialGradient
       r="224.85068"
       fy="222.48161"
       fx="502.82346"
       cy="222.48161"
       cx="502.82346"
       gradientTransform="matrix(1,0,0,0.474624,0,127.4047)"
       gradientUnits="userSpaceOnUse"
       id="radialGradient5088"
       xlink:href="#linearGradient9972"
       inkscape:collect="always" />
    <linearGradient
       id="linearGradient9972"
       inkscape:collect="always">
      <stop
         id="stop9974"
         offset="0"
         style="stop-color:#e09224;stop-opacity:1;" />
      <stop
         id="stop9976"
         offset="1"
         style="stop-color:#e09224;stop-opacity:0;" />
    </linearGradient>
    <clipPath
       clipPathUnits="userSpaceOnUse"
       id="clipPath38453">
      <path
         sodipodi:nodetypes="cscccccccc"
         id="path38451"
         d="m 1666.125,329.13288 c -9.3319,-0.29999 -13.6209,6.20321 -16.1593,19.39122 -1.2986,6.7468 -4.383,12.86199 6.0328,18.74484 -4.288,8.31415 1.111,5.92434 0.2155,12.06564 8.6974,2.69123 17.893,4.01221 28.8713,0.43092 -0.375,-2.48658 -0.6386,-3.43043 0.8619,-9.04924 1.3849,-4.89932 -3.5364,-5.65959 -0.8619,-11.63472 l 1.2928,-9.04924 c 6.632,-8.64123 6.4931,-12.54621 -1.0773,-21.54579 -8.0499,-0.73196 -15.1229,-0.90566 -19.1758,0.64637 z"
         style="fill:#3c3c3c;fill-opacity:1;fill-rule:evenodd;stroke:#000000;stroke-width:0.80000001;stroke-linecap:butt;stroke-linejoin:miter;stroke-miterlimit:4;stroke-opacity:1;stroke-dasharray:none"
         inkscape:connector-curvature="0" />
    </clipPath>
    <clipPath
       clipPathUnits="userSpaceOnUse"
       id="clipPath8250">
      <path
         sodipodi:nodetypes="ccccc"
         id="path8248"
         d="m 1298.8882,345.82048 c -1.2058,-1.99016 -2.2042,-4.18768 -3.1241,-6.46374 4.3193,-3.6492 8.1802,-6.29673 14.5434,-1.5082 -0.024,1.91929 -0.6252,3.64589 -1.5082,5.27871 -5.381,-0.85029 -7.4818,0.7943 -9.9111,2.69323 z"
         style="fill:#0a0909;fill-opacity:1;fill-rule:evenodd;stroke:#000000;stroke-width:0.5;stroke-linecap:butt;stroke-linejoin:miter;stroke-miterlimit:4;stroke-opacity:1;stroke-dasharray:none"
         inkscape:connector-curvature="0" />
    </clipPath>
    <path
       style="fill:none;stroke:#ffffff;stroke-width:0.98735839px;stroke-linecap:butt;stroke-linejoin:miter;stroke-opacity:1"
       d="m 253.46817,435.59308 c 0,0 -3.40903,-24.07398 -1.81815,-37.20525 6.31658,-16.23366 11.07578,-14.99734 9.09072,-37.20526"
       id="path15737"
       sodipodi:nodetypes="ccc"
       inkscape:connector-curvature="0" />
    <path
       style="fill:none;stroke:#ffffff;stroke-width:0.94961298px;stroke-linecap:butt;stroke-linejoin:miter;stroke-opacity:1"
       d="m 160.8673,424.6766 c -5.51805,16.35476 -6.40925,25.11135 1.82511,45.28059"
       id="path15742"
       sodipodi:nodetypes="cc"
       inkscape:connector-curvature="0" />
    <path
       style="fill:none;stroke:#ffffff;stroke-width:0.82712215px;stroke-linecap:butt;stroke-linejoin:miter;stroke-opacity:1"
       d="m 390.07686,457.99747 c 17.45235,-3.56653 37.98211,3.76306 46.89652,17.16521"
       id="path15752"
       sodipodi:nodetypes="cc"
       inkscape:connector-curvature="0" />
    <path
       style="fill:none;stroke:#ffffff;stroke-width:0.82712215px;stroke-linecap:butt;stroke-linejoin:miter;stroke-opacity:1"
       d="m 517.49812,273.37613 c 9.20678,-2.90566 22.13429,-4.34331 30.19678,8.20115"
       id="path15747"
       sodipodi:nodetypes="cc"
       inkscape:connector-curvature="0" />
    <inkscape:perspective
       inkscape:persp3d-origin="300 : 400 : 1"
       inkscape:vp_z="700 : 600 : 1"
       inkscape:vp_y="0 : 1000 : 0"
       inkscape:vp_x="-50 : 600 : 1"
       id="perspective2948"
       sodipodi:type="inkscape:persp3d" />
    <linearGradient
       inkscape:collect="always"
       xlink:href="#linearGradient3652"
       id="linearGradient3805"
       gradientUnits="userSpaceOnUse"
       gradientTransform="translate(-6.1567556,424.97581)"
       x1="490.93414"
       y1="12.431303"
       x2="472.7514"
       y2="150.38359" />
    <linearGradient
       inkscape:collect="always"
       xlink:href="#linearGradient3746"
       id="linearGradient3807"
       gradientUnits="userSpaceOnUse"
       x1="171.46652"
       y1="515.65942"
       x2="636.13666"
       y2="572.56494" />
  </defs>
  <sodipodi:namedview
     id="base"
     pagecolor="#ffffff"
     bordercolor="#666666"
     borderopacity="1.0"
     gridtolerance="10000"
     guidetolerance="10"
     objecttolerance="10"
     inkscape:pageopacity="0.0"
     inkscape:pageshadow="2"
     inkscape:zoom="0.175"
     inkscape:cx="-729.52762"
     inkscape:cy="603.71505"
     inkscape:document-units="px"
     inkscape:current-layer="layer1"
     showgrid="false"
     inkscape:window-width="1280"
     inkscape:window-height="998"
     inkscape:window-x="-4"
     inkscape:window-y="-4"
     fit-margin-top="0"
     fit-margin-left="0"
     fit-margin-right="0"
     fit-margin-bottom="0"
     inkscape:window-maximized="0" />
  <metadata
     id="metadata7">
    <rdf:RDF>
      <cc:Work
         rdf:about="">
        <dc:format>image/svg+xml</dc:format>
        <dc:type
           rdf:resource="http://purl.org/dc/dcmitype/StillImage" />
        <dc:title>Snake</dc:title>
        <dc:date>Jan 2008</dc:date>
        <dc:creator>
          <cc:Agent>
            <dc:title>Rygle</dc:title>
          </cc:Agent>
        </dc:creator>
        <dc:rights>
          <cc:Agent>
            <dc:title>Public Domain</dc:title>
          </cc:Agent>
        </dc:rights>
        <dc:publisher>
          <cc:Agent>
            <dc:title />
          </cc:Agent>
        </dc:publisher>
        <dc:identifier />
        <dc:source />
        <dc:relation />
        <dc:language />
        <dc:subject>
          <rdf:Bag />
        </dc:subject>
        <dc:coverage />
        <dc:description />
        <dc:contributor>
          <cc:Agent>
            <dc:title />
          </cc:Agent>
        </dc:contributor>
        <cc:license
           rdf:resource="http://creativecommons.org/licenses/publicdomain/" />
      </cc:Work>
      <cc:License
         rdf:about="http://creativecommons.org/licenses/publicdomain/">
        <cc:permits
           rdf:resource="http://creativecommons.org/ns#Reproduction" />
        <cc:permits
           rdf:resource="http://creativecommons.org/ns#Distribution" />
        <cc:permits
           rdf:resource="http://creativecommons.org/ns#DerivativeWorks" />
      </cc:License>
    </rdf:RDF>
  </metadata>
  <g
     inkscape:label="Layer 1"
     inkscape:groupmode="layer"
     id="layer1"
     transform="translate(-1.464885,-432.86831)">
    <g
       id="g3809">
      <path
         sodipodi:nodetypes="czzzzzzz"
         id="path2641"
         d="m 177.31072,515.31828 c 0,0 5.62723,-1.50555 27.62157,15.797 21.99435,17.30256 24.06925,58.34712 64.10805,53.77956 40.0388,-4.56756 44.92615,-70.87598 96.0471,-72.04974 51.12094,-1.17376 55.74544,64.84322 108.43669,67.35471 52.69125,2.51149 49.43164,-60.2256 102.3283,-57.30874 52.89667,2.91685 67.47799,51.92518 109.25838,68.97611 41.78038,17.05094 57.86312,-0.77236 57.86312,-0.77236"
         style="fill:#ff0000;fill-opacity:0;fill-rule:evenodd;stroke:#000000;stroke-width:5.25479412;stroke-linecap:butt;stroke-linejoin:round;stroke-miterlimit:4;stroke-opacity:1;stroke-dasharray:none"
         inkscape:connector-curvature="0" />
      <path
         sodipodi:nodetypes="ccccccczzzccsccczzccccccccccccccczzsczzzzcccccccc"
         id="path2629"
         d="m 756.2182,561.97411 c -25.71944,-0.8179 -56.31459,10.93104 -80.01121,-8.54948 -32.54492,-20.09789 -50.324,-54.71831 -94.83284,-62.92359 -34.27866,-6.40414 -49.33434,17.14252 -65.91103,30.9317 -13.5875,15.41886 -46.22601,22.74244 -72.27415,8.22453 -27.75071,-13.65599 -35.32859,-41.51965 -67.43872,-50.98615 -33.31618,-6.34559 -50.56064,15.20656 -65.34311,29.78324 -11.51567,12.79094 -35.65601,30.8806 -61.26937,15.94769 -25.61336,-14.93291 -27.12511,-44.68897 -47.9468,-63.877 -20.82169,-19.18803 -63.87272,-30.55769 -85.88034,-22.30381 -22.007598,8.25385 -60.22222,16.86426 -57.954149,38.4078 -14.691108,12.64418 -52.8857047,2.38949 -53.2631736,4.60267 -0.2054637,1.12675 30.5337466,4.29987 32.0631556,7.09046 1.52943,2.79057 -8.642718,7.19694 -21.409505,15.20849 17.5227,-2.50856 23.869146,-19.65024 48.141812,-21.97386 17.795552,0.3174 82.62932,7.43197 107.50086,29.95098 29.87159,25.24984 34.3405,63.26582 69.74316,82.27867 35.40266,19.01284 70.0824,4.64175 82.40456,-13.57535 12.32215,-18.2171 14.08934,-41.14112 42.71186,-47.13459 27.95227,-1.95094 42.24222,21.59407 55.96699,35.57555 14.51888,19.47705 49.3504,35.25321 75.86882,25.06111 33.38579,-10.84566 39.069,-43.78286 77.42511,-49.73329 26.60225,-3.61863 48.65994,14.7161 60.23777,30.62124 12.13219,16.51311 33.73441,35.24391 61.68056,33.31707 31.07676,-1.35782 60.2792,-15.8323 65.0894,-37.39032 -0.1037,-2.90184 -1.10925,-6.57255 -5.29966,-8.55376 z m -2.0922,2.85372 c 15.61983,8.26098 -7.7202,26.90446 -33.54322,35.33904 -19.85473,7.70535 -52.15063,5.76255 -67.56375,-11.53474 -18.19506,-17.48227 -31.22575,-43.99916 -65.41032,-47.93336 -37.44847,-4.0515 -52.9169,21.07933 -71.26898,36.75568 -13.19941,14.58424 -45.88553,22.81612 -70.26727,7.28908 -26.99322,-15.78275 -34.29923,-45.73817 -69.33723,-54.46894 -34.86195,-5.19699 -43.5017,20.49245 -52.55192,38.41449 -9.05022,17.92204 -35.38162,38.81708 -69.64674,27.55323 -34.26512,-11.26385 -43.51755,-39.90507 -56.96438,-61.0803 -21.91791,-34.51497 -43.48994,-42.90232 -81.77414,-49.12061 -47.064003,-4.47394 -54.288511,-8.09265 -54.042389,-16.85644 0.239053,-8.51148 28.651748,-20.83672 55.802879,-28.38566 27.15113,-7.54894 59.84487,2.95592 79.90555,21.63211 20.06065,18.67622 22.6548,49.26076 49.05306,64.50749 26.39823,15.24677 53.32738,-0.22499 65.65322,-13.76725 15.16671,-13.3704 28.1045,-34.88034 59.45466,-31.89427 28.92225,6.37077 37.48151,30.66277 58.32209,44.31261 23.65383,19.27171 66.07184,20.14291 83.79508,3.01502 18.57939,-12.21629 27.93117,-35.36696 58.88946,-35.75857 38.90494,2.67391 60.03706,31.16037 83.55514,50.47283 17.94177,17.05419 48.38237,31.09855 75.65719,24.08412 7.36838,-0.76306 16.22252,-3.68377 22.28201,-2.57556 z"
         style="fill:#000000;fill-opacity:1;fill-rule:evenodd;stroke:#000000;stroke-width:5.25479412;stroke-linecap:butt;stroke-linejoin:round;stroke-miterlimit:4;stroke-opacity:1;stroke-dasharray:none"
         inkscape:connector-curvature="0" />
      <path
         transform="matrix(3.1057669,0.1419606,-0.5380911,4.4858569,495.93243,-586.05442)"
         d="m -78.640442,234.81409 c 0,0.39364 -0.797776,0.71275 -1.781883,0.71275 -0.984107,0 -1.781883,-0.31911 -1.781883,-0.71275 0,-0.39365 0.797776,-0.71276 1.781883,-0.71276 0.984107,0 1.781883,0.31911 1.781883,0.71276 z"
         sodipodi:ry="0.71275324"
         sodipodi:rx="1.7818831"
         sodipodi:cy="234.81409"
         sodipodi:cx="-80.422325"
         id="path2639"
         style="fill:#000000;fill-opacity:1;stroke:#000000;stroke-width:1.27166593;stroke-linejoin:round;stroke-miterlimit:4;stroke-opacity:1;stroke-dasharray:none"
         sodipodi:type="arc" />
      <path
         id="path2643"
         d="m 218.25978,546.07035 -14.9414,5.35249"
         style="fill:none;stroke:#000000;stroke-width:5.25479412;stroke-linecap:butt;stroke-linejoin:round;stroke-miterlimit:4;stroke-opacity:1;stroke-dasharray:none"
         inkscape:connector-curvature="0" />
      <path
         id="path2645"
         d="m 236.86812,574.49636 -10.5048,7.05706"
         style="fill:none;stroke:#000000;stroke-width:5.25479412;stroke-linecap:butt;stroke-linejoin:round;stroke-miterlimit:4;stroke-opacity:1;stroke-dasharray:none"
         inkscape:connector-curvature="0" />
      <path
         id="path2647"
         d="m 270.14182,585.82761 6.80747,15.92181"
         style="fill:none;stroke:#000000;stroke-width:5.25479412;stroke-linecap:butt;stroke-linejoin:round;stroke-miterlimit:4;stroke-opacity:1;stroke-dasharray:none"
         inkscape:connector-curvature="0" />
      <path
         id="path2649"
         d="m 292.14717,573.26379 23.13844,12.06726"
         style="fill:none;stroke:#000000;stroke-width:5.25479412;stroke-linecap:butt;stroke-linejoin:round;stroke-miterlimit:4;stroke-opacity:1;stroke-dasharray:none"
         inkscape:connector-curvature="0" />
      <path
         id="path2651"
         d="m 310.66485,550.91455 21.66495,8.7448"
         style="fill:none;stroke:#000000;stroke-width:5.25479412;stroke-linecap:butt;stroke-linejoin:round;stroke-miterlimit:4;stroke-opacity:1;stroke-dasharray:none"
         inkscape:connector-curvature="0" />
      <path
         id="path2653"
         d="m 338.36069,521.37874 16.13254,11.92813"
         style="fill:none;stroke:#000000;stroke-width:5.25479412;stroke-linecap:butt;stroke-linejoin:round;stroke-miterlimit:4;stroke-opacity:1;stroke-dasharray:none"
         inkscape:connector-curvature="0" />
      <path
         id="path2655"
         d="m 401.06369,526.5016 -12.07831,10.17281"
         style="fill:none;stroke:#000000;stroke-width:5.25479412;stroke-linecap:butt;stroke-linejoin:round;stroke-miterlimit:4;stroke-opacity:1;stroke-dasharray:none"
         inkscape:connector-curvature="0" />
      <path
         id="path2657"
         d="m 430.51419,558.07491 -10.713,5.40205"
         style="fill:none;stroke:#000000;stroke-width:5.25479412;stroke-linecap:butt;stroke-linejoin:round;stroke-miterlimit:4;stroke-opacity:1;stroke-dasharray:none"
         inkscape:connector-curvature="0" />
      <path
         id="path2659"
         d="m 467.46278,580.39048 -2.43853,13.02114"
         style="fill:none;stroke:#000000;stroke-width:5.25479412;stroke-linecap:butt;stroke-linejoin:round;stroke-miterlimit:4;stroke-opacity:1;stroke-dasharray:none"
         inkscape:connector-curvature="0" />
      <path
         id="path2661"
         d="m 508.51692,568.50583 12.54483,8.58093"
         style="fill:none;stroke:#000000;stroke-width:5.25479412;stroke-linecap:butt;stroke-linejoin:round;stroke-miterlimit:4;stroke-opacity:1;stroke-dasharray:none"
         inkscape:connector-curvature="0" />
      <path
         id="path2663"
         d="m 540.52898,534.63096 21.48603,11.70951"
         style="fill:none;stroke:#000000;stroke-width:5.25479412;stroke-linecap:butt;stroke-linejoin:round;stroke-miterlimit:4;stroke-opacity:1;stroke-dasharray:none"
         inkscape:connector-curvature="0" />
      <path
         id="path2665"
         d="m 604.35935,530.36617 -7.70304,13.41531"
         style="fill:none;stroke:#000000;stroke-width:5.25479412;stroke-linecap:butt;stroke-linejoin:round;stroke-miterlimit:4;stroke-opacity:1;stroke-dasharray:none"
         inkscape:connector-curvature="0" />
      <path
         id="path2667"
         d="m 646.86947,564.48598 -11.83141,6.92753"
         style="fill:none;stroke:#000000;stroke-width:5.25479412;stroke-linecap:butt;stroke-linejoin:round;stroke-miterlimit:4;stroke-opacity:1;stroke-dasharray:none"
         inkscape:connector-curvature="0" />
      <path
         id="path2669"
         d="m 679.98509,589.60589 -9.21688,12.08689"
         style="fill:none;stroke:#000000;stroke-width:5.25479412;stroke-linecap:butt;stroke-linejoin:round;stroke-miterlimit:4;stroke-opacity:1;stroke-dasharray:none"
         inkscape:connector-curvature="0" />
    </g>
    <g
       id="g2357"
       transform="matrix(1.25,0,0,-1.25,-1161.7164,181.51722)" />
    <g
       id="g2425"
       transform="matrix(1.25,0,0,-1.25,-1161.7164,181.51722)" />
    <g
       id="g2513"
       transform="matrix(1.25,0,0,-1.25,-1161.7164,181.51722)" />
    <flowRoot
       xml:space="preserve"
       id="flowRoot2887"
       transform="matrix(1.25,0,0,-1.25,-1156.2441,929.85131)"><flowRegion
         id="flowRegion2889"><rect
           id="rect2891"
           width="388.2016"
           height="83.438599"
           x="508.40976"
           y="185.84276" /></flowRegion><flowPara
         id="flowPara2893" /></flowRoot>  </g>
</svg>
