<?xml version="1.0" encoding="UTF-8" standalone="no"?>
<!-- Created with Inkscape (http://www.inkscape.org/) -->

<svg
   xmlns:dc="http://purl.org/dc/elements/1.1/"
   xmlns:cc="http://creativecommons.org/ns#"
   xmlns:rdf="http://www.w3.org/1999/02/22-rdf-syntax-ns#"
   xmlns:svg="http://www.w3.org/2000/svg"
   xmlns="http://www.w3.org/2000/svg"
   xmlns:sodipodi="http://sodipodi.sourceforge.net/DTD/sodipodi-0.dtd"
   xmlns:inkscape="http://www.inkscape.org/namespaces/inkscape"
   height="471.65558"
   id="svg1"
   inkscape:version="0.48.1 r9760"
   sodipodi:docname="sleeping_cat_rgolan_sup_r.svg"
   sodipodi:version="0.32"
   width="891.37256"
   version="1.1">
  <metadata
     id="metadata3">
    <rdf:RDF>
      <cc:Work
         rdf:about="">
        <dc:title>sleeping_cat</dc:title>
        <dc:description>line drawing of sleeping cat</dc:description>
        <dc:subject>
          <rdf:Bag>
            <rdf:li>mammal</rdf:li>
            <rdf:li>cat</rdf:li>
            <rdf:li>kitten</rdf:li>
            <rdf:li>animal</rdf:li>
          </rdf:Bag>
        </dc:subject>
        <dc:publisher>
          <cc:Agent
             rdf:about="http://www.openclipart.org">
            <dc:title>Ron Golan</dc:title>
          </cc:Agent>
        </dc:publisher>
        <dc:creator>
          <cc:Agent>
            <dc:title>rgolan@superconcentrated.com</dc:title>
          </cc:Agent>
        </dc:creator>
        <dc:rights>
          <cc:Agent>
            <dc:title>Ron Golan</dc:title>
          </cc:Agent>
        </dc:rights>
        <dc:date>2005-04-17</dc:date>
        <dc:format>image/svg+xml</dc:format>
        <dc:type
           rdf:resource="http://purl.org/dc/dcmitype/StillImage" />
        <cc:license
           rdf:resource="http://web.resource.org/cc/PublicDomain" />
        <dc:language>en_US</dc:language>
      </cc:Work>
      <cc:License
         rdf:about="http://web.resource.org/cc/PublicDomain">
        <cc:permits
           rdf:resource="http://web.resource.org/cc/Reproduction" />
        <cc:permits
           rdf:resource="http://web.resource.org/cc/Distribution" />
        <cc:permits
           rdf:resource="http://web.resource.org/cc/DerivativeWorks" />
      </cc:License>
    </rdf:RDF>
  </metadata>
  <defs
     id="defs3" />
  <sodipodi:namedview
     bordercolor="#666666"
     borderopacity="1.0"
     id="base"
     inkscape:current-layer="svg1"
     inkscape:cx="515.33403"
     inkscape:cy="180.93108"
     inkscape:pageopacity="0.0"
     inkscape:pageshadow="2"
     inkscape:window-height="931"
     inkscape:window-width="1137"
     inkscape:window-x="0"
     inkscape:window-y="6"
     inkscape:zoom="0.68267418"
     pagecolor="#ffffff"
     showgrid="false"
     fit-margin-top="0"
     fit-margin-left="0"
     fit-margin-right="0"
     fit-margin-bottom="0"
     inkscape:window-maximized="0" />
  <path
     d="m 100.53987,143.85503 c -59.003896,24.41313 -59.637096,48.61262 -68.697596,84.85458 -17.588499,70.35406 24.872596,122.62657 120.051496,135.90735 97.4002,13.59074 173.2678,-21.30572 208.3913,-56.62806 36.2379,-36.44313 43.0373,-103.06308 15.8558,-147.23297 -13.2892,-21.59506 -32.1876,-32.90265 -46.3994,-34.53735 m -44,-9 c -8.2118,-3.6347 -51.737,-4.5965 -86.2801,0.50002 -34.5432,5.09653 -66.9177,14.7233 -70.9215,15.13643"
     id="path1394"
     sodipodi:nodetypes="czzzzsczs"
     style="fill:none;stroke:#000000;stroke-width:7.08661413;stroke-linecap:butt;stroke-linejoin:miter;stroke-miterlimit:4;stroke-opacity:1;stroke-dasharray:none"
     inkscape:connector-curvature="0" />
  <path
     d="m 256.08937,226.47326 c 27.1815,-15.85586 61.1583,-15.85586 61.1583,-15.85586"
     id="path2165"
     style="color:#000000;fill:none;stroke:#000000;stroke-width:7.08661413;stroke-linecap:butt;stroke-linejoin:miter;stroke-miterlimit:4;stroke-opacity:1;stroke-dasharray:none;stroke-dashoffset:0;marker:none;visibility:visible;display:inline;overflow:visible"
     inkscape:connector-curvature="0" />
  <path
     d="m 65.81907,221.94302 47.5676,15.85585"
     id="path2167"
     style="color:#000000;fill:none;stroke:#000000;stroke-width:7.08661413;stroke-linecap:butt;stroke-linejoin:miter;stroke-miterlimit:4;stroke-opacity:1;stroke-dasharray:none;stroke-dashoffset:0;marker:none;visibility:visible;display:inline;overflow:visible"
     inkscape:connector-curvature="0" />
  <path
     d="m 154.15887,253.62596 52.0978,0 -29.4466,47.56757 -22.6512,-47.56757 z"
     id="path2169"
     style="color:#000000;fill:none;stroke:#000000;stroke-width:7.08661413;stroke-linecap:butt;stroke-linejoin:miter;stroke-miterlimit:4;stroke-opacity:1;stroke-dasharray:none;stroke-dashoffset:0;marker:none;visibility:visible;display:inline;overflow:visible"
     inkscape:connector-curvature="0" />
  <path
     d="m 217.58227,300.66476 226.5123,0.52877"
     id="path2171"
     sodipodi:nodetypes="cc"
     style="color:#000000;fill:none;stroke:#000000;stroke-width:7.08661413;stroke-linecap:butt;stroke-linejoin:miter;stroke-miterlimit:4;stroke-opacity:1;stroke-dasharray:none;stroke-dashoffset:0;marker:none;visibility:visible;display:inline;overflow:visible"
     inkscape:connector-curvature="0" />
  <path
     d="m 224.37767,280.80743 208.3913,-20.3861"
     id="path2173"
     style="color:#000000;fill:none;stroke:#000000;stroke-width:7.08661413;stroke-linecap:butt;stroke-linejoin:miter;stroke-miterlimit:4;stroke-opacity:1;stroke-dasharray:none;stroke-dashoffset:0;marker:none;visibility:visible;display:inline;overflow:visible"
     inkscape:connector-curvature="0" />
  <path
     d="M 149.62867,294.92694 20.516674,323.84476"
     id="path2175"
     sodipodi:nodetypes="cc"
     style="color:#000000;fill:none;stroke:#000000;stroke-width:7.08661413;stroke-linecap:butt;stroke-linejoin:miter;stroke-miterlimit:4;stroke-opacity:1;stroke-dasharray:none;stroke-dashoffset:0;marker:none;visibility:visible;display:inline;overflow:visible"
     inkscape:connector-curvature="0" />
  <path
     d="M 144.16238,278.27079 0.130575,283.07255"
     id="path2177"
     sodipodi:nodetypes="cc"
     style="color:#000000;fill:none;stroke:#000000;stroke-width:7.08661413;stroke-linecap:butt;stroke-linejoin:miter;stroke-miterlimit:4;stroke-opacity:1;stroke-dasharray:none;stroke-dashoffset:0;marker:none;visibility:visible;display:inline;overflow:visible"
     inkscape:connector-curvature="0" />
  <path
     d="m 152.54242,315.04055 49.8327,0"
     id="path2179"
     style="color:#000000;fill:none;stroke:#000000;stroke-width:7.08661413;stroke-linecap:butt;stroke-linejoin:miter;stroke-miterlimit:4;stroke-opacity:1;stroke-dashoffset:0;marker:none;visibility:visible;display:inline;overflow:visible"
     inkscape:connector-curvature="0" />
  <path
     d="M 43.167874,185.67228 29.577174,79.211522 c 0,0 52.097796,13.59073 63.423396,24.916348 11.3256,11.32561 45.3025,43.03733 45.3025,43.03733"
     id="path2181"
     style="color:#000000;fill:none;stroke:#000000;stroke-width:7.08661413;stroke-linecap:butt;stroke-linejoin:miter;stroke-miterlimit:4;stroke-opacity:1;stroke-dasharray:none;stroke-dashoffset:0;marker:none;visibility:visible;display:inline;overflow:visible"
     inkscape:connector-curvature="0" />
  <path
     d="m 285.53597,124.51397 c 0,0 11.3256,-45.302448 29.4466,-61.158308 18.121,-15.85586 88.3398,-27.18147 88.3398,-27.18147 l -11.3256,77.014168 -15.8559,45.30245"
     id="path2183"
     style="color:#000000;fill:none;stroke:#000000;stroke-width:7.08661413;stroke-linecap:butt;stroke-linejoin:miter;stroke-miterlimit:4;stroke-opacity:1;stroke-dasharray:none;stroke-dashoffset:0;marker:none;visibility:visible;display:inline;overflow:visible"
     inkscape:connector-curvature="0" />
  <path
     d="m 144.26567,125.1652 c -2,-57.859308 167.74946,-120.8197682 333.02847,-121.6210482 166.74383,-0.80128 340.54563,77.9324902 369.99223,116.4395682 29.4466,38.50709 49.8327,92.87003 36.242,149.4981 -13.5907,56.62806 -228.7774,183.47493 -278.6101,192.53542 -49.8327,9.06049 -95.0747,11.59072 -95.1351,-18.12099 -0.0605,-29.73057 28.5046,-5.50547 89.8095,-21.91634 61.9768,-16.59074 109.4613,-49.99419 138.9678,-70.74905 28.3663,-19.95281 67.484,-63.07466 72.484,-93.07466"
     id="path2187"
     sodipodi:nodetypes="czccczzzz"
     style="color:#000000;fill:none;stroke:#000000;stroke-width:7.08661413;stroke-linecap:butt;stroke-linejoin:miter;stroke-miterlimit:4;stroke-opacity:1;stroke-dasharray:none;stroke-dashoffset:0;marker:none;visibility:visible;display:inline;overflow:visible"
     inkscape:connector-curvature="0" />
  <path
     d="m 689.63812,137.50273 c -72.4839,0 -99.6228,11.04412 -135.9073,56.62807 -35.1701,44.18401 -19.7066,172.47938 -6.52315,183.46559 l -148.26891,17.66096 c -12.32538,1.40385 -31.66214,8.29311 -24.18399,28.57841 7.59075,20.59074 87.1583,25.91635 135.1352,17.06049"
     id="path2189"
     sodipodi:nodetypes="czcczc"
     style="color:#000000;fill:none;stroke:#000000;stroke-width:7.08661413;stroke-linecap:butt;stroke-linejoin:miter;stroke-miterlimit:4;stroke-opacity:1;stroke-dasharray:none;stroke-dashoffset:0;marker:none;visibility:visible;display:inline;overflow:visible"
     inkscape:connector-curvature="0" />
  <path
     d="m 158.68917,366.88209 c 0,0 -20.3861,4.53024 -15.8559,15.85586 4.5302,11.32561 18.78556,34.36984 57.29256,29.8396 38.5071,-4.53025 135.24284,-41.16522 148.83364,-50.22571 13.5907,-9.06049 92.87,-40.7722 124.5817,-70.2188 31.7117,-29.44659 36.242,-47.56757 29.4466,-65.68855 -6.7954,-18.12098 -21.4466,-110.36295 -35.0373,-117.15831 -13.5908,-6.79537 -45.3025,-9.06049 -45.3025,-9.06049"
     id="path2199"
     sodipodi:nodetypes="cccccccc"
     style="color:#000000;fill:none;stroke:#000000;stroke-width:7.08661413;stroke-linecap:butt;stroke-linejoin:miter;stroke-miterlimit:4;stroke-opacity:1;stroke-dasharray:none;stroke-dashoffset:0;marker:none;visibility:visible;display:inline;overflow:visible"
     inkscape:connector-curvature="0" />
  <path
     d="m 398.21062,339.37574 c 0,0 28.98621,12.36621 63.24001,16.26759 34.25379,3.90138 76.50758,-1.39448 76.50758,-1.39448"
     id="path2201"
     sodipodi:nodetypes="czc"
     style="color:#000000;fill:none;stroke:#000000;stroke-width:7.08661413;stroke-linecap:butt;stroke-linejoin:miter;stroke-miterlimit:4;stroke-opacity:1;stroke-dasharray:none;stroke-dashoffset:0;marker:none;visibility:visible;display:inline;overflow:visible"
     inkscape:connector-curvature="0" />
  <path
     d="m 48.28097,319.98126 c 0,0 -16.999996,38 -15.999996,45 1,7 1,13 14,12 12.999996,-1 31.859306,-5.07034 34.859306,-12.07034 3,-7 5.53517,-19.46483 5.53517,-19.46483"
     id="path2203"
     sodipodi:nodetypes="ccccc"
     style="color:#000000;fill:none;stroke:#000000;stroke-width:7.08661413;stroke-linecap:butt;stroke-linejoin:miter;stroke-miterlimit:4;stroke-opacity:1;stroke-dasharray:none;stroke-dashoffset:0;marker:none;visibility:visible;display:inline;overflow:visible"
     inkscape:connector-curvature="0" />
</svg>
