<?xml version="1.0" encoding="UTF-8" standalone="no"?>
<!-- Created with Inkscape (http://www.inkscape.org/) -->

<svg
   xmlns:dc="http://purl.org/dc/elements/1.1/"
   xmlns:cc="http://creativecommons.org/ns#"
   xmlns:rdf="http://www.w3.org/1999/02/22-rdf-syntax-ns#"
   xmlns:svg="http://www.w3.org/2000/svg"
   xmlns="http://www.w3.org/2000/svg"
   xmlns:xlink="http://www.w3.org/1999/xlink"
   xmlns:sodipodi="http://sodipodi.sourceforge.net/DTD/sodipodi-0.dtd"
   xmlns:inkscape="http://www.inkscape.org/namespaces/inkscape"
   height="118.2886"
   id="svg8458"
   inkscape:version="0.48.1 r9760"
   sodipodi:docname="yellow_gourami_01.svg"
   sodipodi:version="0.32"
   version="1.0"
   width="212.38199"
   x="0.0000000"
   y="0.0000000">
  <metadata
     id="metadata4862">
    <rdf:RDF>
      <cc:Work
         rdf:about="">
        <dc:title>Yellow Gourami</dc:title>
        <dc:description />
        <dc:subject>
          <rdf:Bag>
            <rdf:li />
            <rdf:li>animal</rdf:li>
            <rdf:li>gourami</rdf:li>
            <rdf:li>fish</rdf:li>
          </rdf:Bag>
        </dc:subject>
        <dc:publisher>
          <cc:Agent
             rdf:about="http://www.openclipart.org">
            <dc:title>Jonathon Love</dc:title>
          </cc:Agent>
        </dc:publisher>
        <dc:creator>
          <cc:Agent>
            <dc:title>Jonathon Love</dc:title>
          </cc:Agent>
        </dc:creator>
        <dc:rights>
          <cc:Agent>
            <dc:title>Jonathon Love</dc:title>
          </cc:Agent>
        </dc:rights>
        <dc:date />
        <dc:format>image/svg+xml</dc:format>
        <dc:type
           rdf:resource="http://purl.org/dc/dcmitype/StillImage" />
        <cc:license
           rdf:resource="http://web.resource.org/cc/PublicDomain" />
        <dc:language>en</dc:language>
      </cc:Work>
      <cc:License
         rdf:about="http://web.resource.org/cc/PublicDomain">
        <cc:permits
           rdf:resource="http://web.resource.org/cc/Reproduction" />
        <cc:permits
           rdf:resource="http://web.resource.org/cc/Distribution" />
        <cc:permits
           rdf:resource="http://web.resource.org/cc/DerivativeWorks" />
      </cc:License>
    </rdf:RDF>
  </metadata>
  <sodipodi:namedview
     bordercolor="#666666"
     borderopacity="1.0"
     id="base"
     inkscape:cx="81.062376"
     inkscape:cy="22.882853"
     inkscape:pageopacity="0.0"
     inkscape:pageshadow="2"
     inkscape:window-height="1025"
     inkscape:window-width="1600"
     inkscape:window-x="0"
     inkscape:window-y="0"
     inkscape:zoom="3.4732669"
     pagecolor="#ffffff"
     showgrid="false"
     fit-margin-top="0"
     fit-margin-left="0"
     fit-margin-right="0"
     fit-margin-bottom="0"
     inkscape:window-maximized="0"
     inkscape:current-layer="svg8458" />
  <defs
     id="defs8460">
    <linearGradient
       id="linearGradient8750">
      <stop
         id="stop8751"
         offset="0.0000000"
         style="stop-color:#000000;stop-opacity:0.33944955;" />
      <stop
         id="stop8753"
         offset="1.0000000"
         style="stop-color:#c7c7c7;stop-opacity:0.0000000;" />
    </linearGradient>
    <linearGradient
       id="linearGradient8565">
      <stop
         id="stop8566"
         offset="0.0000000"
         style="stop-color:#000000;stop-opacity:1.0000000;" />
      <stop
         id="stop8567"
         offset="0.30037037"
         style="stop-color:#000000;stop-opacity:0.75229359;" />
      <stop
         id="stop8568"
         offset="1.0000000"
         style="stop-color:#ffffff;stop-opacity:0.41284403;" />
    </linearGradient>
    <linearGradient
       id="linearGradient8558">
      <stop
         id="stop8559"
         offset="0.0000000"
         style="stop-color:#ffc000;stop-opacity:1.0000000;" />
      <stop
         id="stop8563"
         offset="0.50000000"
         style="stop-color:#ffc820;stop-opacity:1.0000000;" />
      <stop
         id="stop8560"
         offset="1.0000000"
         style="stop-color:#ffffff;stop-opacity:1.0000000;" />
    </linearGradient>
    <linearGradient
       collect="always"
       id="linearGradient8561"
       x1="70.047282"
       x2="59.588515"
       xlink:href="#linearGradient8558"
       y1="165.34736"
       y2="222.66733"
       gradientTransform="scale(1.9474141,0.51350147)"
       gradientUnits="userSpaceOnUse" />
    <linearGradient
       collect="always"
       id="linearGradient8562"
       x1="220.93892"
       x2="241.97846"
       xlink:href="#linearGradient8558"
       y1="283.07938"
       y2="161.78702"
       gradientTransform="scale(1.3455442,0.74319375)"
       gradientUnits="userSpaceOnUse" />
    <radialGradient
       collect="always"
       cx="381.8791"
       cy="161.3219"
       fx="381.8791"
       fy="161.3219"
       id="radialGradient8564"
       r="8.5110058"
       xlink:href="#linearGradient8565"
       gradientTransform="scale(1.0302449,0.97064301)"
       gradientUnits="userSpaceOnUse" />
    <linearGradient
       collect="always"
       id="linearGradient8592"
       x1="286.3232"
       x2="256.56613"
       xlink:href="#linearGradient8558"
       y1="246.77506"
       y2="255.8756"
       gradientTransform="scale(1.2899135,0.7752458)"
       gradientUnits="userSpaceOnUse" />
    <linearGradient
       collect="always"
       id="linearGradient8593"
       x1="80.458412"
       x2="56.755542"
       xlink:href="#linearGradient8558"
       y1="63.643987"
       y2="16.268692"
       gradientTransform="scale(1.5255867,0.65548552)"
       gradientUnits="userSpaceOnUse" />
    <linearGradient
       collect="always"
       id="linearGradient8594"
       x1="20.553433"
       x2="51.02912"
       xlink:href="#linearGradient8558"
       y1="78.18249"
       y2="56.234801"
       gradientTransform="scale(0.88500562,1.1299363)"
       gradientUnits="userSpaceOnUse" />
    <linearGradient
       collect="always"
       id="linearGradient8617"
       x1="231.33209"
       x2="139.04607"
       xlink:href="#linearGradient8565"
       y1="297.74879"
       y2="372.11041"
       gradientTransform="scale(1.6049889,0.62305728)"
       gradientUnits="userSpaceOnUse" />
    <linearGradient
       collect="always"
       id="linearGradient8749"
       x1="26.749176"
       x2="37.861902"
       xlink:href="#linearGradient8750"
       y1="65.247082"
       y2="58.817077"
       gradientTransform="scale(0.84668394,1.1810783)"
       gradientUnits="userSpaceOnUse" />
  </defs>
  <g
     id="g8857"
     transform="translate(-7.15625,-6.8978264)">
    <path
       d="m 55.09375,81.5625 c -6.275165,7.73257 -1.809341,14.189137 3.8125,17.625 11.502075,7.02964 10.94364,4.21695 20.9375,5.25 8.629036,4.44513 29.85225,7.62675 39.875,6.84375 26.1341,-2.04164 32.45208,0.0499 48.96875,-17.4375 -9.87423,5.563904 -21.0528,8.65328 -32.53125,7.21875 C 111.10867,95.275947 81.795734,100.2498 55.125,81.59375 55.117,81.57973 55.10176,81.57649 55.09375,81.5625 z"
       id="path8507"
       style="fill:url(#linearGradient8561);fill-opacity:1;fill-rule:evenodd;stroke:#373737;stroke-width:1pt;stroke-linecap:butt;stroke-linejoin:miter;stroke-opacity:1"
       inkscape:connector-curvature="0" />
    <path
       d="m 20.65625,44.625 c -4.499921,-0.113898 -8.77211,0.573319 -12.875,3.40625 0.2719851,3.957786 4.849322,10.812223 7.03125,13.6875 8.630458,9.64892 8.218567,6.936552 13.78125,12.5625 -1.97372,6.859721 -1.95632,8.483333 -2.40625,13.46875 -0.516883,5.72725 1.451734,10.22871 2.875,16.65625 5.206774,0.004 5.986062,0.15593 9.5625,-3.28125 6.819759,-7.052674 6.869202,-13.723821 13.5,-19.3125 0.698666,-0.557722 1.48441,-0.995468 2.21875,-1.5 C 49.320591,71.98866 45.233902,68.564387 50.125,50.28125 50.363123,50.206923 50.546979,50.077854 50.78125,50 42.066843,49.956971 33.36197,47.983234 25.21875,44.9375 23.668963,44.775741 22.156224,44.662966 20.65625,44.625 z"
       id="path8546"
       style="fill:url(#linearGradient8594);fill-opacity:1;fill-rule:evenodd;stroke:#373737;stroke-width:1pt;stroke-linecap:butt;stroke-linejoin:miter;stroke-opacity:1"
       inkscape:connector-curvature="0" />
    <path
       d="M 147.5,7.59375 C 130.79956,7.3484946 105.47902,9.6704069 95.9375,12.40625 86.152185,15.211995 62.08083,27.084361 53.15625,31.75 47.389633,35.818055 48.428811,43.728023 51.9375,49.53125 69.765171,42.969977 76.460436,26.277625 91.78125,19.5625 110.17105,12.672595 129.23919,7.7609474 148.375,7.625 148.05841,7.6183174 147.82324,7.5984969 147.5,7.59375 z"
       id="path8518"
       style="fill:url(#linearGradient8593);fill-opacity:1;fill-rule:evenodd;stroke:#373737;stroke-width:1pt;stroke-linecap:butt;stroke-linejoin:miter;stroke-opacity:1"
       inkscape:connector-curvature="0" />
    <path
       d="m 420.82633,141.02902 c -22.1714,-6.71128 -6.73628,-2.05365 -28.91278,-7.0248 -33.98402,-14.79612 -69.00853,-8.05455 -101.98844,4.30167 -16.72705,7.33148 -23.59518,26.04559 -43.94677,32.39805 -5.44152,20.34063 -0.38849,23.07618 5.29169,33.01827 28.13134,19.67774 59.03704,14.4523 85.45634,20.55575 25.01194,3.1259 48.82077,-13.86809 61.47831,-32.93602 7.30216,-11.00032 35.22986,-34.69354 22.62165,-50.31292 z"
       id="path8478"
       style="fill:url(#linearGradient8562);fill-opacity:1;fill-rule:evenodd;stroke:#373737;stroke-width:1pt;stroke-linecap:butt;stroke-linejoin:miter;stroke-opacity:1"
       transform="matrix(0.948079,0,0,0.948079,-183.0885,-111.5573)"
       inkscape:connector-curvature="0" />
    <path
       d="m 401.57241,156.58597 a 8.1434202,7.6344562 0 1 0 -16.28684,0 8.1434202,7.6344562 0 1 0 16.28684,0 z"
       id="path8490"
       style="fill:url(#radialGradient8564);fill-opacity:1;fill-rule:evenodd;stroke:#000000;stroke-width:1pt;stroke-linecap:butt;stroke-linejoin:miter;stroke-opacity:0.47783257"
       transform="matrix(0.831705,0,-0.07248028,0.831705,-126.9779,-94.296)"
       inkscape:connector-curvature="0" />
    <path
       d="m 404.70364,182.69036 c -7.88297,4.13134 -16.99198,3.02668 -24.13703,-3.70459"
       id="path8491"
       style="fill:none;stroke:#000000;stroke-width:0.7344038pt;stroke-linecap:butt;stroke-linejoin:miter;stroke-opacity:0.32512315"
       transform="matrix(0.948079,0,0,0.948079,-183.0885,-111.5573)"
       inkscape:connector-curvature="0" />
    <path
       d="m 420.06705,141.18827 c -3.49295,0.2502 -2.82056,1.13858 -5.08001,2.70397 -0.8248,3.59213 5.85051,-0.15923 6.81845,-0.57817"
       id="path8532"
       style="fill:none;stroke:#000000;stroke-width:0.62036223pt;stroke-linecap:butt;stroke-linejoin:miter;stroke-opacity:0.35960592"
       transform="matrix(0.948079,0,0,0.948079,-183.0885,-111.5573)"
       inkscape:connector-curvature="0" />
    <path
       d="m 363.49063,183.58356 c -12.05055,-0.45245 -24.55996,-4.71741 -36.30883,-0.10467 -10.62897,8.47793 1.28413,27.94944 13.60384,22.11122 9.08921,-1.40589 17.7865,-5.09824 25.22425,-10.49001"
       id="path8569"
       style="fill:url(#linearGradient8592);fill-opacity:1;fill-rule:evenodd;stroke:#000000;stroke-width:1pt;stroke-linecap:butt;stroke-linejoin:miter;stroke-opacity:0.55172412"
       transform="matrix(0.948079,0,0,0.948079,-183.0885,-111.5573)"
       inkscape:connector-curvature="0" />
    <path
       d="m 403.07872,185.02313 c -42.28688,49.82405 -109.82254,43.33205 -166.98974,64.06073"
       id="path8595"
       style="fill:none;stroke:url(#linearGradient8617);stroke-width:1pt;stroke-linecap:butt;stroke-linejoin:miter;stroke-opacity:1"
       transform="matrix(0.948079,0,0,0.948079,-183.0885,-111.5573)"
       inkscape:connector-curvature="0" />
    <path
       d="M 22.84375,44.78125 7.96875,48.75 c 0.1211741,0.712537 0.3133759,1.459351 0.625,2.28125 L 28,45.84375 c -0.921628,-0.31246 -1.872507,-0.535114 -2.78125,-0.875 -0.805289,-0.08405 -1.583345,-0.130264 -2.375,-0.1875 z M 32.1875,47.1875 9.59375,53.21875 c 0.361446,0.734286 0.676804,1.457972 1.09375,2.1875 l 26.40625,-7.0625 C 35.444661,47.986098 33.81046,47.648693 32.1875,47.1875 z m 9.25,2.46875 L 12.03125,57.5 c 0.490052,0.764835 0.923895,1.416195 1.375,2.0625 l 28.65625,-7.625 -0.625,-2.28125 z m 1.21875,4.59375 -27.875,7.4375 c 0.0059,0.0077 0.02544,0.02359 0.03125,0.03125 0.791968,0.885422 1.192808,1.21274 1.84375,1.90625 L 43.25,56.53125 42.65625,54.25 z m 1.1875,4.5625 -25.34375,6.75 c 0.702697,0.703151 1.423718,1.44794 1.96875,1.9375 l 24,-6.375 -0.625,-2.3125 z m 1.25,4.59375 -22.375,5.96875 c 0.818619,0.612769 1.542814,1.138908 2.375,1.78125 L 45.6875,65.6875 45.09375,63.40625 z m 1.21875,4.5625 -19.09375,5.09375 c 0.46489,0.427676 0.766541,0.63497 1.34375,1.21875 -0.121629,0.422736 -0.08057,0.552618 -0.1875,0.9375 l 18.5625,-4.9375 -0.625,-2.3125 z m 1.21875,4.59375 -19.78125,5.25 c -0.203563,0.851821 -0.495303,1.923905 -0.625,2.625 l 21.03125,-5.59375 -0.625,-2.28125 z M 48.75,77.125 26.6875,83.03125 c -0.09432,0.766449 -0.175746,1.686 -0.25,2.53125 L 49.375,79.40625 48.75,77.125 z M 50,81.6875 26.1875,88.03125 c -0.06327,0.838361 -9.94e-4,1.639815 0.03125,2.4375 L 50.0625,84.125 c 0.146088,-0.166874 0.283276,-0.334731 0.4375,-0.5 L 50,81.6875 z m -2.4375,5.59375 -21.15625,5.625 c 0.110537,0.782211 0.207152,1.561348 0.375,2.34375 l 19.125,-5.09375 c 0.518523,-0.979859 1.069484,-1.932828 1.65625,-2.875 z m -3.25,5.75 -17,4.53125 c 0.18443,0.726256 0.392549,1.554255 0.59375,2.3125 L 42.6875,95.9375 c 0.625313,-0.995713 1.1055,-1.936659 1.625,-2.90625 z M 40.28125,99 l -11.8125,3.1875 c 0.19537,0.77389 0.378383,1.38728 0.5625,2.21875 0.142582,1.1e-4 0.176384,-0.0315 0.3125,-0.0312 l 7.96875,-2.125 c 0.428056,-0.36196 0.818761,-0.6517 1.34375,-1.15625 0.686534,-0.70998 1.062078,-1.392465 1.625,-2.09375 z"
       id="path8713"
       style="fill:none;stroke:url(#linearGradient8749);stroke-width:0.75;stroke-linecap:butt;stroke-linejoin:miter;stroke-miterlimit:4;stroke-opacity:1"
       inkscape:connector-curvature="0" />
  </g>
</svg>
