<?xml version="1.0" encoding="UTF-8" standalone="no"?>
<!-- Created with Sodipodi ("http://www.sodipodi.com/") -->
<svg
   xmlns:dc="http://purl.org/dc/elements/1.1/"
   xmlns:cc="http://creativecommons.org/ns#"
   xmlns:rdf="http://www.w3.org/1999/02/22-rdf-syntax-ns#"
   xmlns:svg="http://www.w3.org/2000/svg"
   xmlns="http://www.w3.org/2000/svg"
   xmlns:xlink="http://www.w3.org/1999/xlink"
   xmlns:sodipodi="http://sodipodi.sourceforge.net/DTD/sodipodi-0.dtd"
   xmlns:inkscape="http://www.inkscape.org/namespaces/inkscape"
   height="455.23798"
   id="svg1065"
   sodipodi:docbase="/home/franck/Dessins/Vectoriels/"
   sodipodi:docname="tennis_racket_01.svg"
   sodipodi:version="0.32"
   space="preserve"
   width="593.96954"
   inkscape:version="0.46"
   inkscape:output_extension="org.inkscape.output.svg.inkscape"
   version="1.0"
   inkscape:export-filename="C:\joanna\Gfx\drawings_vector\admin\thumbs\Franck Doucet\tennis_racket_01.png"
   inkscape:export-xdpi="39.547482"
   inkscape:export-ydpi="39.547482">
  <metadata
     id="metadata3">
    <rdf:RDF>
      <cc:Work
         rdf:about="">
        <dc:title>tennis_racket</dc:title>
        <dc:description />
        <dc:subject>
          <rdf:Bag>
            <rdf:li>sport</rdf:li>
            <rdf:li>recreation</rdf:li>
            <rdf:li>tennis</rdf:li>
            <rdf:li>racket</rdf:li>
          </rdf:Bag>
        </dc:subject>
        <dc:publisher>
          <cc:Agent
             rdf:about="http://www.openclipart.org">
            <dc:title>Open Clip Art Library</dc:title>
          </cc:Agent>
        </dc:publisher>
        <dc:creator>
          <cc:Agent>
            <dc:title>Franck Doucet</dc:title>
          </cc:Agent>
        </dc:creator>
        <dc:rights>
          <cc:Agent>
            <dc:title></dc:title>
          </cc:Agent>
        </dc:rights>
        <dc:date />
        <dc:format>image/svg+xml</dc:format>
        <dc:type
           rdf:resource="http://purl.org/dc/dcmitype/StillImage" />
        <cc:license
           rdf:resource="http://creativecommons.org/licenses/publicdomain/" />
        <dc:language>en</dc:language>
      </cc:Work>
      <cc:License
         rdf:about="http://creativecommons.org/licenses/publicdomain/">
        <cc:permits
           rdf:resource="http://creativecommons.org/ns#Reproduction" />
        <cc:permits
           rdf:resource="http://creativecommons.org/ns#Distribution" />
        <cc:permits
           rdf:resource="http://creativecommons.org/ns#DerivativeWorks" />
      </cc:License>
    </rdf:RDF>
  </metadata>
  <defs
     id="defs1067">
    <inkscape:perspective
       sodipodi:type="inkscape:persp3d"
       inkscape:vp_x="0 : 526.18109 : 1"
       inkscape:vp_y="0 : 1000 : 0"
       inkscape:vp_z="744.09448 : 526.18109 : 1"
       inkscape:persp3d-origin="372.04724 : 350.78739 : 1"
       id="perspective65" />
    <linearGradient
       id="linearGradient660">
      <stop
         id="stop661"
         offset="0"
         style="stop-color:#5a3a00;stop-opacity:1;" />
      <stop
         id="stop662"
         offset="1"
         style="stop-color:#b55700;stop-opacity:1;" />
    </linearGradient>
    <linearGradient
       id="linearGradient618">
      <stop
         id="stop619"
         offset="0"
         style="stop-color:#002fff;stop-opacity:1;" />
      <stop
         id="stop620"
         offset="1"
         style="stop-color:#00d2ff;stop-opacity:1;" />
    </linearGradient>
    <linearGradient
       id="linearGradient610">
      <stop
         id="stop611"
         offset="0"
         style="stop-color:#666767;stop-opacity:1;" />
      <stop
         id="stop612"
         offset="1"
         style="stop-color:#f3f2f2;stop-opacity:1;" />
    </linearGradient>
    <linearGradient
       id="linearGradient613"
       x1="104.97143"
       x2="620.09909"
       xlink:href="#linearGradient610"
       y1="291.65119"
       y2="460.67683"
       gradientTransform="matrix(1.090974,0,0,0.9166122,-38.419175,-255.59319)"
       gradientUnits="userSpaceOnUse" />
    <linearGradient
       id="linearGradient617"
       x1="56.804845"
       x2="94.860721"
       xlink:href="#linearGradient618"
       y1="612.43428"
       y2="612.43428"
       gradientTransform="matrix(0.9167314,1.8101687e-2,-2.1531061e-2,1.0904066,-38.419175,-255.59319)"
       gradientUnits="userSpaceOnUse" />
    <radialGradient
       cx="647.54256"
       cy="84.237415"
       fx="647.54256"
       fy="84.237415"
       id="radialGradient621"
       r="314.27207"
       xlink:href="#linearGradient618"
       gradientTransform="matrix(0.5007905,0.6457521,-0.9670034,0.7499258,-38.419175,-255.59319)"
       gradientUnits="userSpaceOnUse" />
    <linearGradient
       id="linearGradient659"
       x1="43.973091"
       x2="69.677188"
       xlink:href="#linearGradient660"
       y1="697.01046"
       y2="697.01046"
       gradientTransform="matrix(1.0549791,0,0,0.9478861,-38.419175,-255.59319)"
       gradientUnits="userSpaceOnUse" />
    <linearGradient
       inkscape:collect="always"
       xlink:href="#linearGradient660"
       id="linearGradient2438"
       x1="102.09601"
       y1="501.86939"
       x2="148.66516"
       y2="501.86939"
       gradientTransform="matrix(0.7967233,0,0,1.2551409,-38.419175,-255.59319)"
       gradientUnits="userSpaceOnUse" />
    <linearGradient
       inkscape:collect="always"
       xlink:href="#linearGradient660"
       id="linearGradient2440"
       x1="180.73507"
       y1="486.52179"
       x2="214.42945"
       y2="486.52179"
       gradientTransform="matrix(0.8117384,0,0,1.231924,-38.419175,-255.59319)"
       gradientUnits="userSpaceOnUse" />
    <linearGradient
       inkscape:collect="always"
       xlink:href="#linearGradient660"
       id="linearGradient2442"
       x1="154.6325"
       y1="484.70239"
       x2="200.81082"
       y2="484.70239"
       gradientTransform="matrix(0.8082324,0,0,1.2372679,-38.419175,-255.59319)"
       gradientUnits="userSpaceOnUse" />
    <linearGradient
       inkscape:collect="always"
       xlink:href="#linearGradient660"
       id="linearGradient2444"
       x1="74.654972"
       y1="509.15398"
       x2="122.01689"
       y2="509.15398"
       gradientTransform="matrix(0.7888078,0,0,1.267736,-38.419175,-255.59319)"
       gradientUnits="userSpaceOnUse" />
    <linearGradient
       inkscape:collect="always"
       xlink:href="#linearGradient660"
       id="linearGradient2446"
       x1="128.54154"
       y1="493.01468"
       x2="174.81496"
       y2="493.01468"
       gradientTransform="matrix(0.8018645,0,0,1.2470934,-38.419175,-255.59319)"
       gradientUnits="userSpaceOnUse" />
  </defs>
  <sodipodi:namedview
     id="base"
     showgrid="false"
     inkscape:zoom="0.43901235"
     inkscape:cx="372.04724"
     inkscape:cy="526.18109"
     inkscape:window-width="640"
     inkscape:window-height="667"
     inkscape:window-x="22"
     inkscape:window-y="29"
     inkscape:current-layer="svg1065" />
  <path
     d="M 348.1657,51.161217 C 260.9091,97.753794 242.82187,185.1014 261.28275,230.50549 C 216.26769,174.01427 261.9766,80.584061 355.07959,29.815372 C 442.33604,-16.777242 585.70463,-8.9111008 585.61849,98.527961 C 555.46486,1.3408921 435.42209,4.5685164 348.1657,51.161217 z"
     id="path609"
     sodipodi:nodetypes="ccccc"
     style="font-size:12px;fill:#808080;fill-rule:evenodd;stroke-width:1" />
  <path
     d="M 573.90743,51.156406 C 607.90413,108.97151 564.10123,194.05341 476.07073,241.19201 C 388.04023,288.33061 289.11753,279.67561 255.12093,221.86051 C 221.12413,164.04541 264.92733,78.963606 352.95773,31.825006 C 440.98823,-15.313594 539.91073,-6.658594 573.90743,51.156406 z M 585.98883,65.957006 C 610.88803,137.28571 577.80493,209.91481 482.79943,263.22531 C 387.79413,316.53571 316.49613,310.71861 260.63993,257.92621 C 207.29083,207.45751 244.22203,86.705606 347.49553,31.032806 C 442.50093,-22.277594 560.22723,-4.499894 585.98883,65.957006 z"
     id="path1074"
     sodipodi:nodetypes="ccscsccscc"
     style="font-size:12px;fill:url(#linearGradient613);fill-rule:evenodd;stroke-width:1" />
  <path
     d="M 241.57426,157.4854 C 217.20575,235.97636 169.76176,283.61133 89.232385,364.93762 C 107.86356,339.24955 131.21927,371.43829 120.32143,383.54733 C 216.20587,332.93133 326.95609,307.46569 410.05035,293.40639 C 401.97593,282.05194 401.41847,272.36832 411.71871,266.02518 C 385.45346,272.86334 335.84571,276.04589 302.29453,261.42781 C 295.54155,263.72376 291.75854,272.63602 292.42537,280.13237 C 297.88535,284.39699 298.13602,289.17009 272.50606,295.35307 C 230.25831,308.41683 196.38435,318.76642 157.52116,335.8008 C 153.99143,336.82205 150.11089,335.48533 152.0048,333.42863 C 181.3705,300.36818 207.15786,270.17174 219.47258,253.24036 C 225.63011,244.77473 235.67046,238.78083 251.182,246.11618 C 245.32124,238.25548 244.63158,229.03996 258.21609,225.06886 C 252.70673,192.74572 255.03004,185.2387 256.90145,172.82915 C 257.55736,159.66954 250.68785,154.25737 241.57426,157.4854 z"
     id="path1070"
     sodipodi:nodetypes="ccccccccccscccc"
     style="font-size:12px;fill:url(#radialGradient621);fill-opacity:1;fill-rule:evenodd" />
  <path
     d="M 133.52645,355.59858 C 129.49686,348.46443 111.4401,341.6923 108.26981,344.36628 L 7.1577659,414.3359 C 4.5470789,416.30795 0.21997331,422.96278 5.5813364,420.48962 C 10.762881,419.61984 23.339452,422.07263 26.633571,427.20085 C 30.804645,434.35408 31.02407,449.39017 27.703533,453.77301 L 130.61917,379.60018 C 131.32342,378.89914 132.7212,378.03315 132.93386,376.90828 C 136.97957,371.18198 135.21434,358.16324 133.52645,355.59858 z"
     id="path614"
     sodipodi:nodetypes="ccccscccs"
     style="font-size:12px;fill:#808080;fill-rule:evenodd" />
  <path
     d="M 12.364943,414.06783 C 6.5171294,411.0694 0.42830171,419.12386 0.27071028,425.69363 L 0.0030704636,436.85142 C -0.15452293,443.42129 5.7811073,445.94716 11.628929,448.94569 L 22.641189,454.5923 C 28.489011,457.59083 34.577832,449.53617 34.735426,442.9663 L 35.003075,431.80851 C 35.160655,425.23884 29.225039,422.71277 23.377195,419.71433 L 12.364943,414.06783 z"
     id="path616"
     sodipodi:nodetypes="cssssssss"
     style="font-size:12px;fill:url(#linearGradient617);fill-opacity:1;fill-rule:evenodd" />
  <path
     d="M 253.55303,174.12111 L 482.92683,13.851206"
     id="path622"
     sodipodi:nodetypes="cc"
     style="fill:none;fill-opacity:1;fill-rule:evenodd;stroke:#000000;stroke-width:1pt;stroke-linecap:butt;stroke-linejoin:miter;stroke-opacity:1" />
  <path
     d="M 251.15653,191.17021 L 502.86893,15.545806"
     id="path623"
     sodipodi:nodetypes="cc"
     style="fill:none;fill-opacity:1;fill-rule:evenodd;stroke:#000000;stroke-width:1pt;stroke-linecap:butt;stroke-linejoin:miter;stroke-opacity:1" />
  <path
     d="M 253.45033,206.52471 L 515.72393,20.629706"
     id="path624"
     sodipodi:nodetypes="cc"
     style="fill:none;fill-opacity:1;fill-rule:evenodd;stroke:#000000;stroke-width:1pt;stroke-linecap:butt;stroke-linejoin:miter;stroke-opacity:1" />
  <path
     d="M 256.83943,220.28731 L 531.07843,26.911706"
     id="path625"
     sodipodi:nodetypes="cc"
     style="fill:none;fill-opacity:1;fill-rule:evenodd;stroke:#000000;stroke-width:1pt;stroke-linecap:butt;stroke-linejoin:miter;stroke-opacity:1" />
  <path
     d="M 263.61803,232.74891 L 544.03633,33.690506"
     id="path626"
     sodipodi:nodetypes="cc"
     style="fill:none;fill-opacity:1;fill-rule:evenodd;stroke:#000000;stroke-width:1pt;stroke-linecap:butt;stroke-linejoin:miter;stroke-opacity:1" />
  <path
     d="M 273.08393,241.82111 L 555.79593,42.163506"
     id="path627"
     sodipodi:nodetypes="cc"
     style="fill:none;fill-opacity:1;fill-rule:evenodd;stroke:#000000;stroke-width:1pt;stroke-linecap:butt;stroke-linejoin:miter;stroke-opacity:1" />
  <path
     d="M 284.24433,250.29431 L 563.17353,52.827606"
     id="path628"
     sodipodi:nodetypes="cc"
     style="fill:none;fill-opacity:1;fill-rule:evenodd;stroke:#000000;stroke-width:1pt;stroke-linecap:butt;stroke-linejoin:miter;stroke-opacity:1" />
  <path
     d="M 297.39003,256.86711 L 571.15033,63.594406"
     id="path629"
     sodipodi:nodetypes="cc"
     style="fill:none;fill-opacity:1;fill-rule:evenodd;stroke:#000000;stroke-width:1pt;stroke-linecap:butt;stroke-linejoin:miter;stroke-opacity:1" />
  <path
     d="M 310.63873,263.85131 L 578.03163,75.953306"
     id="path630"
     sodipodi:nodetypes="cc"
     style="fill:none;fill-opacity:1;fill-rule:evenodd;stroke:#000000;stroke-width:1pt;stroke-linecap:butt;stroke-linejoin:miter;stroke-opacity:1" />
  <path
     d="M 327.07113,268.54161 L 581.81443,90.109406"
     id="path631"
     sodipodi:nodetypes="cc"
     style="fill:none;fill-opacity:1;fill-rule:evenodd;stroke:#000000;stroke-width:1pt;stroke-linecap:butt;stroke-linejoin:miter;stroke-opacity:1" />
  <path
     d="M 347.50943,270.33911 L 584.10813,103.85431"
     id="path632"
     sodipodi:nodetypes="cc"
     style="fill:none;fill-opacity:1;fill-rule:evenodd;stroke:#000000;stroke-width:1pt;stroke-linecap:butt;stroke-linejoin:miter;stroke-opacity:1" />
  <path
     d="M 255.84693,156.88411 L 460.19483,13.954106"
     id="path633"
     sodipodi:nodetypes="cc"
     style="fill:none;fill-opacity:1;fill-rule:evenodd;stroke:#000000;stroke-width:1pt;stroke-linecap:butt;stroke-linejoin:miter;stroke-opacity:1" />
  <path
     d="M 369.59613,271.32201 L 581.09303,122.13581"
     id="path635"
     sodipodi:nodetypes="cc"
     style="fill:none;fill-opacity:1;fill-rule:evenodd;stroke:#000000;stroke-width:1pt;stroke-linecap:butt;stroke-linejoin:miter;stroke-opacity:1" />
  <path
     d="M 311.52153,68.926106 L 506.40383,221.01901"
     id="path636"
     style="fill:none;fill-opacity:1;fill-rule:evenodd;stroke:#000000;stroke-width:1pt;stroke-linecap:butt;stroke-linejoin:miter;stroke-opacity:1" />
  <path
     d="M 302.62473,77.822906 L 495.81243,229.06851"
     id="path637"
     style="fill:none;fill-opacity:1;fill-rule:evenodd;stroke:#000000;stroke-width:1pt;stroke-linecap:butt;stroke-linejoin:miter;stroke-opacity:1" />
  <path
     d="M 293.30433,86.296106 L 484.37363,235.84701"
     id="path638"
     sodipodi:nodetypes="cc"
     style="fill:none;fill-opacity:1;fill-rule:evenodd;stroke:#000000;stroke-width:1pt;stroke-linecap:butt;stroke-linejoin:miter;stroke-opacity:1" />
  <path
     d="M 285.67853,95.616606 L 473.35853,243.04921"
     id="path639"
     style="fill:none;fill-opacity:1;fill-rule:evenodd;stroke:#000000;stroke-width:1pt;stroke-linecap:butt;stroke-linejoin:miter;stroke-opacity:1" />
  <path
     d="M 278.47633,105.36071 L 461.07253,248.98041"
     id="path640"
     sodipodi:nodetypes="cc"
     style="fill:none;fill-opacity:1;fill-rule:evenodd;stroke:#000000;stroke-width:1pt;stroke-linecap:butt;stroke-linejoin:miter;stroke-opacity:1" />
  <path
     d="M 272.96873,115.95211 L 446.24453,254.06431"
     id="path641"
     style="fill:none;fill-opacity:1;fill-rule:evenodd;stroke:#000000;stroke-width:1pt;stroke-linecap:butt;stroke-linejoin:miter;stroke-opacity:1" />
  <path
     d="M 266.61393,126.54351 L 433.11113,260.41921"
     id="path642"
     style="fill:none;fill-opacity:1;fill-rule:evenodd;stroke:#000000;stroke-width:1pt;stroke-linecap:butt;stroke-linejoin:miter;stroke-opacity:1" />
  <path
     d="M 260.68273,139.67691 L 416.58853,264.23211"
     id="path643"
     style="fill:none;fill-opacity:1;fill-rule:evenodd;stroke:#000000;stroke-width:1pt;stroke-linecap:butt;stroke-linejoin:miter;stroke-opacity:1" />
  <path
     d="M 322.53663,60.452906 L 516.14793,212.96951"
     id="path644"
     sodipodi:nodetypes="cc"
     style="fill:none;fill-opacity:1;fill-rule:evenodd;stroke:#000000;stroke-width:1pt;stroke-linecap:butt;stroke-linejoin:miter;stroke-opacity:1" />
  <path
     d="M 333.55173,52.827206 L 526.73933,204.49641"
     id="path645"
     sodipodi:nodetypes="cc"
     style="fill:none;fill-opacity:1;fill-rule:evenodd;stroke:#000000;stroke-width:1pt;stroke-linecap:butt;stroke-linejoin:miter;stroke-opacity:1" />
  <path
     d="M 345.83783,45.625106 L 536.48343,195.17601"
     id="path646"
     sodipodi:nodetypes="cc"
     style="fill:none;fill-opacity:1;fill-rule:evenodd;stroke:#000000;stroke-width:1pt;stroke-linecap:butt;stroke-linejoin:miter;stroke-opacity:1" />
  <path
     d="M 358.54743,38.846406 L 544.53293,185.43191"
     id="path647"
     sodipodi:nodetypes="cc"
     style="fill:none;fill-opacity:1;fill-rule:evenodd;stroke:#000000;stroke-width:1pt;stroke-linecap:butt;stroke-linejoin:miter;stroke-opacity:1" />
  <path
     d="M 372.10453,32.915306 L 553.00603,175.68771"
     id="path648"
     sodipodi:nodetypes="cc"
     style="fill:none;fill-opacity:1;fill-rule:evenodd;stroke:#000000;stroke-width:1pt;stroke-linecap:butt;stroke-linejoin:miter;stroke-opacity:1" />
  <path
     d="M 385.66153,26.984106 L 560.63193,165.09631"
     id="path649"
     style="fill:none;fill-opacity:1;fill-rule:evenodd;stroke:#000000;stroke-width:1pt;stroke-linecap:butt;stroke-linejoin:miter;stroke-opacity:1" />
  <path
     d="M 399.21853,21.900206 L 567.41043,154.08121"
     id="path650"
     style="fill:none;fill-opacity:1;fill-rule:evenodd;stroke:#000000;stroke-width:1pt;stroke-linecap:butt;stroke-linejoin:miter;stroke-opacity:1" />
  <path
     d="M 416.58853,18.510906 L 573.34163,141.79521"
     id="path651"
     style="fill:none;fill-opacity:1;fill-rule:evenodd;stroke:#000000;stroke-width:1pt;stroke-linecap:butt;stroke-linejoin:miter;stroke-opacity:1" />
  <path
     d="M 433.95843,15.121706 L 578.84913,129.50911"
     id="path652"
     sodipodi:nodetypes="cc"
     style="fill:none;fill-opacity:1;fill-rule:evenodd;stroke:#000000;stroke-width:1pt;stroke-linecap:butt;stroke-linejoin:miter;stroke-opacity:1" />
  <path
     d="M 458.95433,14.697806 L 582.66223,111.29171"
     id="path653"
     style="fill:none;fill-opacity:1;fill-rule:evenodd;stroke:#000000;stroke-width:1pt;stroke-linecap:butt;stroke-linejoin:miter;stroke-opacity:1" />
  <path
     d="M 259.83553,139.25301 L 433.53493,15.545206"
     id="path654"
     style="fill:none;fill-opacity:1;fill-rule:evenodd;stroke:#000000;stroke-width:1pt;stroke-linecap:butt;stroke-linejoin:miter;stroke-opacity:1" />
  <path
     d="M 400.19893,268.04481 L 572.41563,144.97231"
     id="path655"
     sodipodi:nodetypes="cc"
     style="fill:none;fill-opacity:1;fill-rule:evenodd;stroke:#000000;stroke-width:1pt;stroke-linecap:butt;stroke-linejoin:miter;stroke-opacity:1" />
  <path
     d="M 64.829125,374.50631 L 42.923095,389.63411 C 45.712195,388.08061 54.459235,406.19921 55.950635,409.54601 C 56.963135,412.72041 58.862705,431.64471 56.567905,432.77451 L 79.383425,416.25181 C 80.654425,414.41591 79.868625,398.04311 78.510325,394.71791 C 76.860225,391.63871 67.653525,372.24681 64.829125,374.50631 z"
     id="path663"
     sodipodi:nodetypes="ccsccsc"
     style="font-size:12px;fill:url(#linearGradient2438);fill-rule:evenodd" />
  <path
     d="M 108.29043,344.02901 C 111.07953,343.74651 120.54983,359.59701 122.04123,362.94381 C 123.05373,366.11821 124.65373,384.14371 122.35893,385.27361 L 131.06523,379.17121 C 137.12493,375.58941 136.10983,358.02861 134.00943,354.89421 C 132.39833,351.88251 115.29583,342.03481 108.29043,344.02901 z"
     id="path669"
     sodipodi:nodetypes="csccsc"
     style="font-size:12px;fill:url(#linearGradient2440);fill-rule:evenodd" />
  <path
     d="M 107.74263,344.30271 L 86.559825,359.55451 C 89.348925,358.00101 98.519625,375.27231 100.01103,378.61911 C 101.02353,381.79351 102.62353,400.11871 100.32873,401.24851 L 123.14423,384.72571 C 124.41523,382.88981 123.92903,367.11621 122.57073,363.79101 C 120.92063,360.71181 110.56703,342.04321 107.74263,344.30271 z"
     id="path670"
     sodipodi:nodetypes="ccsccsc"
     style="font-size:12px;fill:url(#linearGradient2442);fill-rule:evenodd" />
  <path
     d="M 43.346675,390.05771 L 20.469245,405.30951 C 23.258345,403.75601 32.878405,423.79611 34.369805,427.14291 C 35.382305,430.31741 35.035085,448.79231 32.740295,449.92211 L 56.903845,432.50071 C 58.174845,430.66471 58.138025,414.14221 56.779725,410.81701 C 55.129635,407.73781 46.171085,387.79821 43.346675,390.05771 z"
     id="path671"
     sodipodi:nodetypes="ccsccsc"
     style="font-size:12px;fill:url(#linearGradient2444);fill-rule:evenodd" />
  <path
     d="M 86.559725,359.43021 L 64.653725,374.50661 C 67.442825,372.95311 76.489425,390.52401 77.980825,393.87081 C 78.993325,397.04521 80.892925,415.81971 78.598125,416.94951 L 100.96423,400.57651 C 102.23523,398.74071 101.89883,382.36791 100.54053,379.04271 C 98.890425,375.96351 89.384125,357.17081 86.559725,359.43021 z"
     id="path672"
     sodipodi:nodetypes="ccsccsc"
     style="font-size:12px;fill:url(#linearGradient2446);fill-rule:evenodd" />
  <path
     d="M 20.893015,405.09741 L 7.9715154,413.57061 C 10.760615,412.01721 25.287965,420.45721 28.836695,422.46751 C 31.418895,424.02321 33.143825,426.42171 35.085585,429.45791 C 35.297405,427.55151 24.988375,404.74431 20.893015,405.09741 z"
     id="path673"
     sodipodi:nodetypes="ccscc"
     style="font-size:12px;fill:url(#linearGradient659);fill-rule:evenodd" />
  <path
     d="M 438.77473,97.545606 L 426.81563,87.727406 C 423.35703,84.888006 418.65783,84.450106 412.71793,86.413906 C 406.85103,88.437606 399.48863,92.409306 390.63113,98.329306 C 380.46133,105.12641 374.19053,110.89001 371.81863,115.62021 C 370.83323,117.57991 370.44953,119.21921 370.66693,120.53771 C 371.03023,121.81321 372.12193,123.19801 373.94223,124.69251 L 380.76823,130.29651 C 381.13243,130.59551 383.28033,132.35891 387.21213,135.58681 C 391.14383,138.81461 394.82093,141.83351 398.24303,144.64291 C 401.66523,147.45251 403.81293,149.21571 404.68683,149.93311 C 405.56043,150.65041 403.13953,148.66291 397.42373,143.97031 L 410.52993,154.73021 L 412.87813,156.65801 C 412.95073,156.71771 413.02373,156.77751 413.09663,156.83741 C 413.16933,156.89711 413.26023,156.97181 413.36953,157.06151 C 413.44243,157.12131 413.51513,157.18101 413.58803,157.24091 C 413.66073,157.30051 413.75173,157.37521 413.86093,157.46491 L 428.65993,169.61461 C 430.55313,171.00601 434.23343,169.95591 439.70103,166.46431 C 445.16853,162.97281 447.24723,160.20061 445.93763,158.14821 L 413.88243,131.83161 C 411.11533,129.88561 413.17623,126.61021 420.06543,122.00571 C 426.51723,117.69361 430.92663,116.34621 433.29323,117.96351 L 433.40253,118.05321 L 464.20123,143.58261 C 467.91483,146.46851 467.80193,150.69181 463.86293,156.25251 C 459.92383,161.81321 454.38193,167.03521 447.23763,171.91881 C 440.12963,176.83231 432.62183,180.52181 424.71423,182.98731 C 416.80673,185.45291 410.83263,185.02701 406.79153,181.70941 L 393.35783,170.68061 L 393.19403,170.54601 L 377.24823,157.45491 L 361.52103,144.54321 L 352.78363,137.37001 C 349.61643,134.76981 348.08863,132.04971 348.20023,129.20981 C 348.20263,126.44311 349.95413,122.83231 353.45533,118.37781 C 359.83763,110.09991 369.91793,101.35641 383.69633,92.147406 C 400.53663,80.892006 414.73213,73.816906 426.28293,70.922406 C 430.94723,69.702806 434.84553,69.401706 437.97793,70.019006 C 441.11063,70.473706 444.15153,71.911606 447.10013,74.332306 L 457.20283,82.626406 L 458.95023,84.061006 L 472.00183,94.776106 L 508.42553,124.67921 C 509.48133,125.54601 509.75343,126.82801 509.24203,128.52541 C 508.87633,130.17951 506.67063,132.35881 502.62453,135.06301 C 495.73533,139.66751 491.10773,140.83561 488.74143,138.56721 C 487.43103,137.49141 483.73583,134.45771 477.65593,129.46631 C 471.61253,124.50481 465.75143,119.69291 460.07213,115.03041 C 454.42933,110.39771 450.26073,106.97541 447.56673,104.76361 C 444.90903,102.58181 446.32903,103.74751 451.82623,108.26061 L 438.77473,97.545606 z M 574.40223,64.520106 C 603.01423,108.45461 568.57463,202.21591 447.94133,253.94951 C 360.18183,291.82931 276.53473,263.10171 260.61773,225.01461 C 233.23913,160.86531 275.24963,76.019606 367.58933,34.994706 C 459.72773,-5.351394 535.86973,6.549006 574.40223,64.520106 z"
     id="path770"
     style="font-size:52px;font-weight:normal;opacity:0.03159999;fill:#ffffff;font-family:Captain Podd" />
</svg>
