<?xml version="1.0" encoding="UTF-8" standalone="no"?>
<!-- Created with Inkscape (http://www.inkscape.org/) -->

<svg
   xmlns:dc="http://purl.org/dc/elements/1.1/"
   xmlns:cc="http://creativecommons.org/ns#"
   xmlns:rdf="http://www.w3.org/1999/02/22-rdf-syntax-ns#"
   xmlns:svg="http://www.w3.org/2000/svg"
   xmlns="http://www.w3.org/2000/svg"
   xmlns:xlink="http://www.w3.org/1999/xlink"
   xmlns:sodipodi="http://sodipodi.sourceforge.net/DTD/sodipodi-0.dtd"
   xmlns:inkscape="http://www.inkscape.org/namespaces/inkscape"
   height="81.440231"
   id="svg5183"
   inkscape:version="0.48.1 r9760"
   sodipodi:docname="Anonymous_Rollerblades.svg"
   sodipodi:version="0.32"
   width="81.007576"
   inkscape:output_extension="org.inkscape.output.svg.inkscape"
   inkscape:export-filename="C:\Documents and Settings\All Users\Documents\Ubuntu Brig\Andy Fitzsimon\rollerblades.png"
   inkscape:export-xdpi="90"
   inkscape:export-ydpi="90"
   version="1.1">
  <metadata
     id="metadata3">
    <rdf:RDF>
      <cc:Work
         rdf:about="">
        <dc:title>Etiquette Icons</dc:title>
        <dc:description />
        <dc:subject>
          <rdf:Bag>
            <rdf:li />
            <rdf:li>sports</rdf:li>
            <rdf:li>entertainment</rdf:li>
            <rdf:li>recreation</rdf:li>
          </rdf:Bag>
        </dc:subject>
        <dc:publisher>
          <cc:Agent
             rdf:about="http://www.openclipart.org">
            <dc:title>Andy Fitzsimon</dc:title>
          </cc:Agent>
        </dc:publisher>
        <dc:creator>
          <cc:Agent>
            <dc:title>Andy Fitzsimon</dc:title>
          </cc:Agent>
        </dc:creator>
        <dc:rights>
          <cc:Agent>
            <dc:title>Andy Fitzsimon</dc:title>
          </cc:Agent>
        </dc:rights>
        <dc:date />
        <dc:format>image/svg+xml</dc:format>
        <dc:type
           rdf:resource="http://purl.org/dc/dcmitype/StillImage" />
        <cc:license
           rdf:resource="http://web.resource.org/cc/PublicDomain" />
        <dc:language>en</dc:language>
      </cc:Work>
      <cc:License
         rdf:about="http://web.resource.org/cc/PublicDomain">
        <cc:permits
           rdf:resource="http://web.resource.org/cc/Reproduction" />
        <cc:permits
           rdf:resource="http://web.resource.org/cc/Distribution" />
        <cc:permits
           rdf:resource="http://web.resource.org/cc/DerivativeWorks" />
      </cc:License>
    </rdf:RDF>
  </metadata>
  <defs
     id="defs5185">
    <inkscape:perspective
       sodipodi:type="inkscape:persp3d"
       inkscape:vp_x="0 : 80 : 1"
       inkscape:vp_y="0 : 1000 : 0"
       inkscape:vp_z="160 : 80 : 1"
       inkscape:persp3d-origin="80 : 53.333333 : 1"
       id="perspective95" />
    <linearGradient
       id="linearGradient1769">
      <stop
         id="stop1770"
         offset="0.0000000"
         style="stop-color:#454545;stop-opacity:1.0000000;" />
      <stop
         id="stop1771"
         offset="0.64800704"
         style="stop-color:#c9c9c9;stop-opacity:1.0000000;" />
      <stop
         id="stop1772"
         offset="0.69753003"
         style="stop-color:#d3d3d3;stop-opacity:1.0000000;" />
      <stop
         id="stop1773"
         offset="1.0000000"
         style="stop-color:#7c7c7c;stop-opacity:1.0000000;" />
    </linearGradient>
    <linearGradient
       id="linearGradient5406">
      <stop
         id="stop5407"
         offset="0.0000000"
         style="stop-color:#454545;stop-opacity:1.0000000;" />
      <stop
         id="stop5408"
         offset="0.64800704"
         style="stop-color:#c9c9c9;stop-opacity:1.0000000;" />
      <stop
         id="stop5410"
         offset="0.69753003"
         style="stop-color:#d3d3d3;stop-opacity:1.0000000;" />
      <stop
         id="stop5409"
         offset="1.0000000"
         style="stop-color:#7c7c7c;stop-opacity:1.0000000;" />
    </linearGradient>
    <linearGradient
       id="linearGradient1806">
      <stop
         id="stop1807"
         offset="0.0000000"
         style="stop-color:#000000;stop-opacity:0.29378530;" />
      <stop
         id="stop3276"
         offset="0.64777780"
         style="stop-color:#000000;stop-opacity:0.062146891;" />
      <stop
         id="stop1808"
         offset="1.0000000"
         style="stop-color:#000000;stop-opacity:0.0000000;" />
    </linearGradient>
    <radialGradient
       cx="24.825565"
       cy="176.56438"
       fx="40.974991"
       fy="162.11137"
       id="radialGradient4069"
       r="42.859913"
       xlink:href="#linearGradient1806"
       gradientUnits="userSpaceOnUse" />
    <linearGradient
       id="linearGradient5240">
      <stop
         id="stop5241"
         offset="0.0000000"
         style="stop-color:#000000;stop-opacity:0.63841808;" />
      <stop
         id="stop5242"
         offset="1.0000000"
         style="stop-color:#000000;stop-opacity:0.0000000;" />
    </linearGradient>
    <linearGradient
       id="linearGradient5232">
      <stop
         id="stop5233"
         offset="0.0000000"
         style="stop-color:#ffffff;stop-opacity:1.0000000;" />
      <stop
         id="stop5234"
         offset="1.0000000"
         style="stop-color:#ffffff;stop-opacity:0.0000000;" />
    </linearGradient>
    <linearGradient
       id="linearGradient5228">
      <stop
         id="stop5229"
         offset="0"
         style="stop-color:#000;stop-opacity:1;" />
      <stop
         id="stop5230"
         offset="1"
         style="stop-color:#fff;stop-opacity:1;" />
    </linearGradient>
    <pattern
       height="400.00000"
       id="pattern5189"
       width="468.00000">
      <image
         height="400.00000"
         id="image5190"
         sodipodi:absref="/home/andy/s_rollerblades.png"
         width="468.00000"
         xlink:href="/home/andy/s_rollerblades.png" />
    </pattern>
    <linearGradient
       id="linearGradient5231"
       x1="267.34705"
       x2="349.74146"
       xlink:href="#linearGradient5232"
       y1="448.95612"
       y2="438.73831"
       gradientTransform="scale(0.64959548,1.5394196)"
       gradientUnits="userSpaceOnUse" />
    <linearGradient
       id="linearGradient5236"
       x1="253.09035"
       x2="190.935"
       xlink:href="#linearGradient5232"
       y1="1028.0271"
       y2="1120.9229"
       gradientTransform="scale(1.5134438,0.66074474)"
       gradientUnits="userSpaceOnUse" />
    <linearGradient
       id="linearGradient5239"
       x1="242.78975"
       x2="192.8378"
       xlink:href="#linearGradient5240"
       y1="1017.2418"
       y2="1061.7825"
       gradientTransform="scale(1.4380736,0.6953747)"
       gradientUnits="userSpaceOnUse" />
    <linearGradient
       id="linearGradient5402"
       x1="228.37074"
       x2="148.03554"
       xlink:href="#linearGradient5232"
       y1="896.23218"
       y2="991.08142"
       gradientTransform="scale(1.4969091,0.66804325)"
       gradientUnits="userSpaceOnUse" />
    <linearGradient
       id="linearGradient5404"
       x1="207.85458"
       x2="252.61032"
       xlink:href="#linearGradient5232"
       y1="713.94489"
       y2="715.9765"
       gradientTransform="scale(1.0380175,0.96337493)"
       gradientUnits="userSpaceOnUse" />
    <linearGradient
       id="linearGradient5405"
       x1="148.42847"
       x2="149.14815"
       xlink:href="#linearGradient5406"
       y1="1733.7642"
       y2="1811.4896"
       gradientTransform="scale(2.1926869,0.45606147)"
       gradientUnits="userSpaceOnUse" />
    <linearGradient
       id="linearGradient5413"
       x1="211.32967"
       x2="188.81364"
       xlink:href="#linearGradient5232"
       y1="855.6308"
       y2="912.69806"
       gradientTransform="scale(1.0950272,0.91321934)"
       gradientUnits="userSpaceOnUse" />
    <linearGradient
       id="linearGradient5417"
       x1="276.39441"
       x2="258.67062"
       xlink:href="#linearGradient5232"
       y1="836.39954"
       y2="904.82745"
       gradientTransform="scale(1.0809798,0.92508667)"
       gradientUnits="userSpaceOnUse" />
    <linearGradient
       id="linearGradient5418"
       x1="340.74927"
       x2="322.21985"
       xlink:href="#linearGradient5232"
       y1="865.09778"
       y2="911.35004"
       gradientTransform="scale(1.0809798,0.92508667)"
       gradientUnits="userSpaceOnUse" />
    <linearGradient
       id="linearGradient5419"
       x1="407.82843"
       x2="376.67752"
       xlink:href="#linearGradient5232"
       y1="832.94354"
       y2="893.13483"
       gradientTransform="scale(1.0809798,0.92508667)"
       gradientUnits="userSpaceOnUse" />
    <linearGradient
       id="linearGradient5421"
       x1="224.95319"
       x2="227.6964"
       xlink:href="#linearGradient5406"
       y1="803.73749"
       y2="834.19659"
       gradientUnits="userSpaceOnUse" />
    <linearGradient
       id="linearGradient5422"
       x1="212.69102"
       x2="201.71889"
       xlink:href="#linearGradient5406"
       y1="818.20142"
       y2="849.88959"
       gradientUnits="userSpaceOnUse" />
    <linearGradient
       id="linearGradient5427"
       x1="210.72586"
       x2="200.24503"
       xlink:href="#linearGradient5406"
       y1="812.58997"
       y2="850.71478"
       gradientUnits="userSpaceOnUse" />
    <linearGradient
       id="linearGradient5428"
       x1="194.84084"
       x2="213.83736"
       xlink:href="#linearGradient5406"
       y1="818.20142"
       y2="846.09357"
       gradientUnits="userSpaceOnUse" />
    <linearGradient
       id="linearGradient5429"
       x1="212.85478"
       x2="197.95235"
       xlink:href="#linearGradient5406"
       y1="816.55096"
       y2="851.2099"
       gradientUnits="userSpaceOnUse" />
    <linearGradient
       id="linearGradient5430"
       x1="166.66542"
       x2="169.40863"
       xlink:href="#linearGradient5406"
       y1="805.20697"
       y2="835.66608"
       gradientUnits="userSpaceOnUse" />
    <linearGradient
       id="linearGradient5431"
       x1="111.94966"
       x2="114.69287"
       xlink:href="#linearGradient5406"
       y1="811.08472"
       y2="841.54382"
       gradientUnits="userSpaceOnUse" />
    <linearGradient
       id="linearGradient5432"
       x1="287.64935"
       x2="290.39255"
       xlink:href="#linearGradient5406"
       y1="805.20691"
       y2="835.66602"
       gradientUnits="userSpaceOnUse" />
    <linearGradient
       id="linearGradient5433"
       x1="101.83669"
       x2="103.26243"
       xlink:href="#linearGradient1806"
       y1="-5.6619129"
       y2="160.65417"
       gradientTransform="scale(0.9940336,1.0060022)"
       gradientUnits="userSpaceOnUse" />
    <linearGradient
       id="linearGradient5434"
       x1="86.236061"
       x2="63.864159"
       xlink:href="#linearGradient5232"
       y1="27.94301"
       y2="36.332474"
       gradientTransform="scale(1.1249327,0.88894208)"
       gradientUnits="userSpaceOnUse" />
    <linearGradient
       id="linearGradient5435"
       x1="71.774124"
       x2="66.816772"
       xlink:href="#linearGradient1806"
       y1="25.213377"
       y2="22.308681"
       gradientTransform="scale(1.137493,0.87912628)"
       gradientUnits="userSpaceOnUse" />
    <linearGradient
       id="linearGradient5436"
       x1="108.06216"
       x2="83.953316"
       xlink:href="#linearGradient5232"
       y1="97.474037"
       y2="99.228432"
       gradientTransform="scale(1.3030298,0.76744216)"
       gradientUnits="userSpaceOnUse" />
    <linearGradient
       id="linearGradient1574"
       x1="0.625"
       x2="0.62717772"
       xlink:href="#linearGradient5406"
       y1="-1.4666667"
       y2="0.69354838" />
    <linearGradient
       inkscape:collect="always"
       xlink:href="#linearGradient1806"
       id="linearGradient3511"
       gradientUnits="userSpaceOnUse"
       gradientTransform="matrix(0.9940336,0,0,1.0060022,18.860145,90.12378)"
       x1="101.83669"
       y1="-5.6619129"
       x2="103.26243"
       y2="160.65417" />
    <linearGradient
       inkscape:collect="always"
       xlink:href="#linearGradient5232"
       id="linearGradient3514"
       gradientUnits="userSpaceOnUse"
       gradientTransform="scale(1.0950272,0.91321934)"
       x1="211.32967"
       y1="855.6308"
       x2="188.81364"
       y2="912.69806" />
    <linearGradient
       inkscape:collect="always"
       xlink:href="#linearGradient5232"
       id="linearGradient3516"
       gradientUnits="userSpaceOnUse"
       gradientTransform="scale(1.0809798,0.92508667)"
       x1="276.39441"
       y1="836.39954"
       x2="258.67062"
       y2="904.82745" />
    <linearGradient
       inkscape:collect="always"
       xlink:href="#linearGradient5232"
       id="linearGradient3518"
       gradientUnits="userSpaceOnUse"
       gradientTransform="scale(1.0809798,0.92508667)"
       x1="340.74927"
       y1="865.09778"
       x2="322.21985"
       y2="911.35004" />
    <linearGradient
       inkscape:collect="always"
       xlink:href="#linearGradient5232"
       id="linearGradient3520"
       gradientUnits="userSpaceOnUse"
       gradientTransform="scale(1.0809798,0.92508667)"
       x1="407.82843"
       y1="832.94354"
       x2="376.67752"
       y2="893.13483" />
    <linearGradient
       inkscape:collect="always"
       xlink:href="#linearGradient5406"
       id="linearGradient3522"
       gradientUnits="userSpaceOnUse"
       x1="194.84084"
       y1="818.20142"
       x2="213.83736"
       y2="846.09357" />
    <linearGradient
       inkscape:collect="always"
       xlink:href="#linearGradient5406"
       id="linearGradient3524"
       gradientUnits="userSpaceOnUse"
       x1="111.94966"
       y1="811.08472"
       x2="114.69287"
       y2="841.54382" />
    <linearGradient
       inkscape:collect="always"
       xlink:href="#linearGradient5406"
       id="linearGradient3526"
       gradientUnits="userSpaceOnUse"
       x1="212.69102"
       y1="818.20142"
       x2="201.71889"
       y2="849.88959" />
    <linearGradient
       inkscape:collect="always"
       xlink:href="#linearGradient5406"
       id="linearGradient3528"
       gradientUnits="userSpaceOnUse"
       x1="224.95319"
       y1="803.73749"
       x2="227.6964"
       y2="834.19659" />
    <linearGradient
       inkscape:collect="always"
       xlink:href="#linearGradient5406"
       id="linearGradient3530"
       gradientUnits="userSpaceOnUse"
       x1="212.85478"
       y1="816.55096"
       x2="197.95235"
       y2="851.2099" />
    <linearGradient
       inkscape:collect="always"
       xlink:href="#linearGradient5406"
       id="linearGradient3532"
       gradientUnits="userSpaceOnUse"
       x1="287.64935"
       y1="805.20691"
       x2="290.39255"
       y2="835.66602" />
    <linearGradient
       inkscape:collect="always"
       xlink:href="#linearGradient5406"
       id="linearGradient3534"
       gradientUnits="userSpaceOnUse"
       x1="210.72586"
       y1="812.58997"
       x2="200.24503"
       y2="850.71478" />
    <linearGradient
       inkscape:collect="always"
       xlink:href="#linearGradient5406"
       id="linearGradient3536"
       gradientUnits="userSpaceOnUse"
       x1="166.66542"
       y1="805.20697"
       x2="169.40863"
       y2="835.66608" />
    <linearGradient
       inkscape:collect="always"
       xlink:href="#linearGradient5406"
       id="linearGradient3538"
       gradientUnits="userSpaceOnUse"
       gradientTransform="scale(2.1926869,0.45606147)"
       x1="148.42847"
       y1="1733.7642"
       x2="149.14815"
       y2="1811.4896" />
    <linearGradient
       inkscape:collect="always"
       xlink:href="#linearGradient5232"
       id="linearGradient3540"
       gradientUnits="userSpaceOnUse"
       gradientTransform="scale(0.64959548,1.5394196)"
       x1="267.34705"
       y1="448.95612"
       x2="349.74146"
       y2="438.73831" />
    <linearGradient
       inkscape:collect="always"
       xlink:href="#linearGradient5232"
       id="linearGradient3542"
       gradientUnits="userSpaceOnUse"
       gradientTransform="scale(1.5134438,0.66074474)"
       x1="253.09035"
       y1="1028.0271"
       x2="190.935"
       y2="1120.9229" />
    <linearGradient
       inkscape:collect="always"
       xlink:href="#linearGradient5240"
       id="linearGradient3544"
       gradientUnits="userSpaceOnUse"
       gradientTransform="scale(1.4380736,0.6953747)"
       x1="242.78975"
       y1="1017.2418"
       x2="192.8378"
       y2="1061.7825" />
    <linearGradient
       inkscape:collect="always"
       xlink:href="#linearGradient5232"
       id="linearGradient3546"
       gradientUnits="userSpaceOnUse"
       gradientTransform="scale(1.4969091,0.66804325)"
       x1="228.37074"
       y1="896.23218"
       x2="148.03554"
       y2="991.08142" />
    <linearGradient
       inkscape:collect="always"
       xlink:href="#linearGradient5232"
       id="linearGradient3548"
       gradientUnits="userSpaceOnUse"
       gradientTransform="scale(1.0380175,0.96337493)"
       x1="207.85458"
       y1="713.94489"
       x2="252.61032"
       y2="715.9765" />
    <linearGradient
       inkscape:collect="always"
       xlink:href="#linearGradient5232"
       id="linearGradient3550"
       gradientUnits="userSpaceOnUse"
       gradientTransform="scale(1.1249327,0.88894208)"
       x1="86.236061"
       y1="27.94301"
       x2="63.864159"
       y2="36.332474" />
    <linearGradient
       inkscape:collect="always"
       xlink:href="#linearGradient1806"
       id="linearGradient3552"
       gradientUnits="userSpaceOnUse"
       gradientTransform="scale(1.137493,0.87912628)"
       x1="71.774124"
       y1="25.213377"
       x2="66.816772"
       y2="22.308681" />
    <linearGradient
       inkscape:collect="always"
       xlink:href="#linearGradient5232"
       id="linearGradient3554"
       gradientUnits="userSpaceOnUse"
       gradientTransform="scale(1.3030298,0.76744216)"
       x1="108.06216"
       y1="97.474037"
       x2="83.953316"
       y2="99.228432" />
  </defs>
  <sodipodi:namedview
     bordercolor="#666666"
     borderopacity="1.0"
     id="base"
     inkscape:cx="15.71886"
     inkscape:cy="-13.773395"
     inkscape:pageopacity="0.0"
     inkscape:pageshadow="2"
     inkscape:window-height="697"
     inkscape:window-width="594"
     inkscape:window-x="1"
     inkscape:window-y="47"
     inkscape:zoom="1.1768099"
     pagecolor="#ffffff"
     showborder="true"
     showguides="true"
     snaptoguides="true"
     showgrid="false"
     inkscape:current-layer="svg5183"
     fit-margin-top="0"
     fit-margin-left="0"
     fit-margin-right="0"
     fit-margin-bottom="0"
     inkscape:window-maximized="0" />
  <g
     transform="matrix(0.999338,0.03638392,-0.03638392,0.999338,-38.637091,-21.02375)"
     id="g1575">
    <path
       transform="matrix(0.327346,0,0,0.327346,23.76884,8.268109)"
       style="fill:#979679;fill-opacity:0.75;fill-rule:evenodd;stroke:#e2ddcd;stroke-width:3.70000005"
       sodipodi:type="arc"
       sodipodi:ry="27.341518"
       sodipodi:rx="27.341518"
       sodipodi:cy="249.27211"
       sodipodi:cx="84.705093"
       id="path5223"
       d="m 112.04661,249.27211 c 0,15.1003 -12.241213,27.34152 -27.341517,27.34152 -15.100303,0 -27.341518,-12.24122 -27.341518,-27.34152 0,-15.1003 12.241215,-27.34152 27.341518,-27.34152 15.100304,0 27.341517,12.24122 27.341517,27.34152 z" />
    <path
       inkscape:connector-curvature="0"
       transform="matrix(0.327346,0,0,0.327346,-16.23094,-181.6019)"
       style="fill:url(#linearGradient3514);fill-opacity:1;fill-rule:evenodd;stroke-width:1pt"
       id="path5412"
       d="m 186.66721,822.2302 c 0,0 -6.06537,22.74514 14.40526,25.77783 20.47063,3.03269 28.81051,-7.20263 29.1896,-17.81703 0.37908,-10.6144 -36.77132,-31.46412 -43.59486,-7.9608 z" />
    <path
       transform="matrix(0.327346,0,0,0.327346,45.70541,8.4436)"
       style="fill:#979679;fill-opacity:0.75;fill-rule:evenodd;stroke:#e2ddcd;stroke-width:3.70000005"
       sodipodi:type="arc"
       sodipodi:ry="27.341518"
       sodipodi:rx="27.341518"
       sodipodi:cy="249.27211"
       sodipodi:cx="84.705093"
       id="path5224"
       d="m 112.04661,249.27211 c 0,15.1003 -12.241213,27.34152 -27.341517,27.34152 -15.100303,0 -27.341518,-12.24122 -27.341518,-27.34152 0,-15.1003 12.241215,-27.34152 27.341518,-27.34152 15.100304,0 27.341517,12.24122 27.341517,27.34152 z" />
    <path
       inkscape:connector-curvature="0"
       transform="matrix(0.327346,0,0,0.327346,-16.23094,-181.6019)"
       style="fill:url(#linearGradient3516);fill-opacity:1;fill-rule:evenodd;stroke-width:1pt"
       sodipodi:nodetypes="czcc"
       id="path5414"
       d="m 255.75962,819.94352 c -0.37909,4.54903 -2.27048,24.6015 16.30069,26.536 18.19611,1.89543 26.91508,-7.9608 27.29417,-18.5752 0.37908,-10.6144 -36.77132,-31.46412 -43.59486,-7.9608 z" />
    <path
       transform="matrix(0.314796,0,0,0.314796,68.00311,11.39652)"
       style="fill:#979679;fill-opacity:0.75;fill-rule:evenodd;stroke:#e1dccb;stroke-width:3.84750962"
       sodipodi:type="arc"
       sodipodi:ry="27.341518"
       sodipodi:rx="27.341518"
       sodipodi:cy="249.27211"
       sodipodi:cx="84.705093"
       id="path5225"
       d="m 112.04661,249.27211 c 0,15.1003 -12.241213,27.34152 -27.341517,27.34152 -15.100303,0 -27.341518,-12.24122 -27.341518,-27.34152 0,-15.1003 12.241215,-27.34152 27.341518,-27.34152 15.100304,0 27.341517,12.24122 27.341517,27.34152 z" />
    <path
       inkscape:connector-curvature="0"
       transform="matrix(0.327346,0,0,0.327346,-16.23094,-181.6019)"
       style="fill:url(#linearGradient3518);fill-opacity:1;fill-rule:evenodd;stroke-width:1pt"
       sodipodi:nodetypes="czcc"
       id="path5415"
       d="m 318.35898,823.33988 c -0.37909,4.54903 -2.27048,24.6015 16.30069,26.536 18.19611,1.89543 26.91508,-7.9608 27.29417,-18.5752 0.37908,-10.6144 -36.77132,-31.46412 -43.59486,-7.9608 z" />
    <path
       transform="matrix(0.289695,0,0,0.289695,89.8785,16.37352)"
       style="fill:#979679;fill-opacity:0.75;fill-rule:evenodd;stroke:#e2ddcd;stroke-width:4.18088055"
       sodipodi:type="arc"
       sodipodi:ry="27.341518"
       sodipodi:rx="27.341518"
       sodipodi:cy="249.27211"
       sodipodi:cx="84.705093"
       id="path5226"
       d="m 112.04661,249.27211 c 0,15.1003 -12.241213,27.34152 -27.341517,27.34152 -15.100303,0 -27.341518,-12.24122 -27.341518,-27.34152 0,-15.1003 12.241215,-27.34152 27.341518,-27.34152 15.100304,0 27.341517,12.24122 27.341517,27.34152 z" />
    <path
       inkscape:connector-curvature="0"
       transform="matrix(0.327346,0,0,0.327346,-16.23094,-181.6019)"
       style="fill:url(#linearGradient3520);fill-opacity:1;fill-rule:evenodd;stroke-width:1pt"
       sodipodi:nodetypes="czcc"
       id="path5416"
       d="m 378.0975,815.5742 c -0.37909,4.54903 -2.27048,24.6015 16.30069,26.536 18.19611,1.89543 26.91508,-7.9608 27.29417,-18.5752 0.37908,-10.6144 -36.77132,-31.46412 -43.59486,-7.9608 z" />
    <path
       transform="matrix(0.293306,0,0,0.293306,54.82422,-154.4051)"
       style="fill:url(#linearGradient3522);fill-opacity:1;fill-rule:evenodd;stroke:url(#linearGradient3524);stroke-width:0.7533381"
       sodipodi:type="arc"
       sodipodi:ry="10.186055"
       sodipodi:rx="10.186055"
       sodipodi:cy="828.26898"
       sodipodi:cx="204.25722"
       id="path5425"
       d="m 214.44327,828.26898 c 0,5.6256 -4.56045,10.18606 -10.18605,10.18606 -5.62561,0 -10.18606,-4.56046 -10.18606,-10.18606 0,-5.6256 4.56045,-10.18605 10.18606,-10.18605 5.6256,0 10.18605,4.56045 10.18605,10.18605 z" />
    <path
       transform="matrix(0.293306,0,0,0.293306,13.33512,-152.9151)"
       style="fill:url(#linearGradient3526);fill-opacity:1;fill-rule:evenodd;stroke:url(#linearGradient3528);stroke-width:0.7533381"
       sodipodi:type="arc"
       sodipodi:ry="10.186055"
       sodipodi:rx="10.186055"
       sodipodi:cy="828.26898"
       sodipodi:cx="204.25722"
       id="path5423"
       d="m 214.44327,828.26898 c 0,5.6256 -4.56045,10.18606 -10.18605,10.18606 -5.62561,0 -10.18606,-4.56046 -10.18606,-10.18606 0,-5.6256 4.56045,-10.18605 10.18606,-10.18605 5.6256,0 10.18605,4.56045 10.18605,10.18605 z" />
    <path
       transform="matrix(0.293306,0,0,0.293306,-8.281179,-153.2627)"
       style="fill:url(#linearGradient3530);fill-opacity:1;fill-rule:evenodd;stroke:url(#linearGradient3532);stroke-width:0.7533381"
       sodipodi:type="arc"
       sodipodi:ry="10.186055"
       sodipodi:rx="10.186055"
       sodipodi:cy="828.26898"
       sodipodi:cx="204.25722"
       id="path5420"
       d="m 214.44327,828.26898 c 0,5.6256 -4.56045,10.18606 -10.18605,10.18606 -5.62561,0 -10.18606,-4.56046 -10.18606,-10.18606 0,-5.6256 4.56045,-10.18605 10.18606,-10.18605 5.6256,0 10.18605,4.56045 10.18605,10.18605 z" />
    <path
       transform="matrix(0.293306,0,0,0.293306,35.14939,-153.635)"
       style="fill:url(#linearGradient3534);fill-opacity:1;fill-rule:evenodd;stroke:url(#linearGradient3536);stroke-width:0.7533381"
       sodipodi:type="arc"
       sodipodi:ry="10.186055"
       sodipodi:rx="10.186055"
       sodipodi:cy="828.26898"
       sodipodi:cx="204.25722"
       id="path5424"
       d="m 214.44327,828.26898 c 0,5.6256 -4.56045,10.18606 -10.18605,10.18606 -5.62561,0 -10.18606,-4.56046 -10.18606,-10.18606 0,-5.6256 4.56045,-10.18605 10.18606,-10.18605 5.6256,0 10.18605,4.56045 10.18605,10.18605 z" />
    <path
       inkscape:connector-curvature="0"
       transform="matrix(0.327346,0,0,0.327346,-16.23094,-181.6019)"
       style="fill:url(#linearGradient3538);fill-rule:evenodd;stroke-width:1pt"
       sodipodi:nodetypes="czzzzczzzzzczz"
       id="path5227"
       d="m 184.91876,786.94808 -3.75275,14.47493 c -1.84694,7.12391 22.66287,26.74606 30.02206,26.80541 l 66.47741,0.53611 c 7.03984,0.0568 13.98742,-3.95818 19.2999,-8.57773 l 12.33048,-10.72216 13.93882,10.18605 c 5.93668,4.33834 12.48351,9.72901 19.836,9.64995 l 49.85806,-0.53611 c 14.85699,-0.15975 24.52503,-14.40394 2.14443,-20.37211 l -16.08324,-4.28887 c -5.50648,-1.4684 -5.68483,-11.20932 8.04163,-12.33049 l -166.72965,-0.5361 c -13.57311,-0.0436 -31.97679,-17.42767 -35.38315,-4.28888 z" />
    <path
       inkscape:connector-curvature="0"
       transform="matrix(0.327346,0,0,0.327346,-16.23094,-181.6019)"
       style="fill:#767676;fill-opacity:1;fill-rule:evenodd;stroke-width:1pt"
       sodipodi:nodetypes="cccc"
       id="path5212"
       d="m 262.11835,636.3017 c 4.82497,-4.82498 20.3721,-31.63039 38.59978,-25.19709 11.25827,-2.68054 -3.21665,30.02206 -9.11384,33.23871 -5.89719,3.21665 -34.84703,-1.07222 -29.48594,-8.04162 z" />
    <path
       inkscape:connector-curvature="0"
       transform="matrix(0.327346,0,0,0.327346,-16.23094,-181.6019)"
       style="fill:#9b9a85;fill-rule:evenodd;stroke-width:1pt"
       id="path5213"
       d="m 214.40471,640.05445 c 0,0 3.21665,-21.98043 0,-24.12487 -3.21665,-2.14443 18.76379,-6.43329 32.16649,4.82498 13.40271,11.25827 13.93882,18.22768 27.34152,17.69157 13.40271,-0.53611 23.58876,3.21665 21.44433,11.79438 -2.14443,8.57773 -0.53611,18.76378 -5.89719,21.98043 -5.36108,3.21665 -45.03309,9.64995 -49.32195,-3.75275 -4.28887,-13.40271 -18.22768,-26.80541 -21.98044,-25.7332 -3.75276,1.07222 -3.75276,-2.68054 -3.75276,-2.68054 z" />
    <path
       inkscape:connector-curvature="0"
       transform="matrix(0.327346,0,0,0.327346,-16.23094,-181.6019)"
       style="fill:#525252;fill-rule:evenodd;stroke-width:1pt"
       id="path5214"
       d="m 245.49899,736.01782 -8.57773,32.7026 12.33048,16.61935 86.31342,2.14443 9.11384,-25.19708 -99.18001,-26.2693 z" />
    <path
       inkscape:connector-curvature="0"
       transform="matrix(0.327346,0,0,0.327346,-16.23094,-181.6019)"
       style="fill:#313131;fill-opacity:1;fill-rule:evenodd;stroke-width:1pt"
       sodipodi:nodetypes="czzzzcccz"
       id="path5215"
       d="m 187.0632,792.84529 c -6.32873,-5.28734 -0.44676,-16.88742 2.68054,-21.98044 3.12729,-5.09303 -1.42963,-20.46146 13.4027,-25.19708 13.86278,-4.42607 15.96115,-9.16571 26.80541,-6.4333 11.34762,2.85925 8.3972,40.32528 20.90822,41.28032 l 70.23018,5.36109 -9.11384,10.18606 -77.19958,2.14442 c -41.99515,-2.32313 -41.07467,0.18546 -47.71363,-5.36107 z" />
    <path
       inkscape:connector-curvature="0"
       transform="matrix(0.327346,0,0,0.327346,-16.23094,-181.6019)"
       style="fill-rule:evenodd;stroke-width:1pt"
       id="path5222"
       d="m 198.32147,725.83176 c 0,0 -8.57773,25.19709 -4.28887,31.63039 4.28887,6.43329 14.47492,0.5361 15.54714,-3.75276 1.07222,-4.28887 -8.04162,-35.91925 -11.25827,-27.87763 z" />
    <path
       inkscape:connector-curvature="0"
       transform="matrix(0.327346,0,0,0.327346,-16.23094,-181.6019)"
       style="fill:#767676;fill-rule:evenodd;stroke-width:1pt"
       id="path5216"
       d="m 289.45986,703.31522 c 0,0 15.54714,25.73319 50.93028,31.09427 35.38314,5.36108 55.21914,21.44433 55.21914,21.44433 0,0 12.8666,9.11384 -4.82497,11.25827 -17.69157,2.14444 -53.61082,-3.75275 -61.65244,-0.53611 -8.04163,3.21665 -36.45536,4.28887 -47.17753,-1.60832 -10.72216,-5.89719 -41.81643,-30.55817 -40.20811,-35.91925 1.60832,-5.36108 -1.60832,-42.35255 47.71363,-25.73319 z" />
    <path
       inkscape:connector-curvature="0"
       transform="matrix(0.327346,0,0,0.327346,-16.23094,-181.6019)"
       style="fill:#5b5b5b;fill-rule:evenodd;stroke-width:1pt"
       sodipodi:nodetypes="czzczzzzc"
       id="path5217"
       d="m 305.00699,800.3508 33.77482,-34.84703 c 3.7765,-3.89639 10.12479,-5.0296 15.54714,-4.82498 l 28.41373,1.07222 13.93882,-7.50551 c 4.2975,-2.31403 6.17565,8.52974 5.89719,13.4027 l -1.07222,18.76379 c -0.36074,6.31285 -7.6162,12.78448 -13.93881,12.86659 l -82.56067,1.07222 z" />
    <path
       inkscape:connector-curvature="0"
       transform="matrix(0.327346,0,0,0.327346,-16.23094,-181.6019)"
       style="fill:#999999;fill-rule:evenodd;stroke-width:1pt"
       sodipodi:nodetypes="czzcczccccc"
       id="path5218"
       d="m 224.59077,768.18431 -24.12487,-26.2693 c -6.89096,-7.50349 -1.97686,-20.47294 -0.53611,-30.55817 l 5.36108,-37.52758 -0.53611,-30.55816 c 0,0 27.34152,-13.67076 36.99147,6.4333 9.64995,20.10406 30.02206,24.12487 39.67201,22.51654 4.82497,-1.60832 10.72216,-3.75275 10.72216,13.93882 0,17.69157 -2.14443,19.836 -15.01103,21.98043 -12.8666,2.14443 -23.05265,0 -27.87763,19.2999 -4.82497,19.29989 -2.68054,46.1053 -24.66097,40.74422 z" />
    <path
       inkscape:connector-curvature="0"
       transform="matrix(0.327346,0,0,0.327346,-16.23094,-181.6019)"
       style="fill:url(#linearGradient3540);fill-rule:evenodd;stroke-width:1pt"
       sodipodi:nodetypes="ccccccc"
       id="path5219"
       d="m 211.18806,649.7044 c -4.55692,2.68054 2.68054,13.40271 -2.14444,26.26931 -4.82497,12.86659 -8.57772,52.00249 -2.14442,58.43578 6.43329,6.4333 10.18605,-6.9694 17.15546,-2.14443 6.9694,4.82498 20.37211,9.11384 17.69157,-4.82497 -2.68054,-13.93881 -13.93882,3.21665 -16.08325,-9.11384 -2.14443,-12.33049 21.44433,-92.21061 -14.47492,-68.62185 z" />
    <path
       inkscape:connector-curvature="0"
       transform="matrix(0.327346,0,0,0.327346,-16.23094,-181.6019)"
       style="fill:#d3d3d3;fill-rule:evenodd;stroke-width:1pt"
       sodipodi:nodetypes="ccccc"
       id="path5220"
       d="m 281.95434,684.55143 -3.21664,15.54714 c 0,0 19.29989,5.36108 20.37211,1.07221 1.07221,-4.28886 4.28886,-16.08324 0,-14.47492 -4.28887,1.60833 -17.15547,-2.14443 -17.15547,-2.14443 z" />
    <path
       inkscape:connector-curvature="0"
       transform="matrix(0.327346,0,0,0.327346,-16.23094,-181.6019)"
       style="fill:#585858;fill-rule:evenodd;stroke-width:1pt"
       sodipodi:nodetypes="ccccc"
       id="path5221"
       d="m 248.17953,682.67505 -1.60833,14.47492 c -0.80416,7.23746 28.94985,6.16525 32.7026,5.09303 3.75276,-1.07222 8.57773,-19.836 4.28887,-19.836 -4.28887,0 -35.91925,-9.64995 -35.38314,0.26805 z" />
    <path
       inkscape:connector-curvature="0"
       transform="matrix(0.327346,0,0,0.327346,-16.23094,-181.6019)"
       style="fill:url(#linearGradient3542);fill-opacity:1;fill-rule:evenodd;stroke-width:1pt"
       sodipodi:nodetypes="cczcccc"
       id="path5237"
       d="m 266.44577,717.29456 c 0,0 9.64995,-11.25827 20.90822,-8.04162 11.25827,3.21665 18.22768,20.37211 41.28033,24.66098 23.05265,4.28886 41.81644,5.89718 49.85807,13.93881 8.04162,8.04162 8.57773,13.4027 -3.75276,12.33049 -12.33049,-1.07222 -38.06368,-4.82498 -49.85806,0.5361 -11.79438,5.36109 -76.66348,-16.61935 -58.4358,-43.42476 z" />
    <path
       inkscape:connector-curvature="0"
       transform="matrix(0.327346,0,0,0.327346,-16.23094,-181.6019)"
       style="fill:url(#linearGradient3544);fill-opacity:1;fill-rule:evenodd;stroke-width:1pt"
       id="path5238"
       d="m 258.40415,726.94451 c 0,0 19.836,16.61935 41.28033,18.22768 21.44433,1.60832 40.74422,9.64995 40.20811,15.01103 -0.5361,5.36108 -23.05265,17.15546 -41.28033,10.18605 -18.22768,-6.9694 -57.36357,-30.02206 -52.5386,-33.77481 4.82497,-3.75276 12.33049,-9.64995 12.33049,-9.64995 z" />
    <path
       inkscape:connector-curvature="0"
       transform="matrix(0.327346,0,0,0.327346,-16.23094,-181.6019)"
       style="fill:url(#linearGradient3546);fill-opacity:1;fill-rule:evenodd;stroke-width:1pt"
       sodipodi:nodetypes="czzcczzcc"
       id="path5401"
       d="m 205.59749,642.50747 12.8666,-3.21665 c 25.8308,-6.4577 24.25737,30.94006 48.78585,32.16649 l 21.44432,1.07222 0,3.21665 -21.71238,-2.41249 c -26.03314,-2.89257 -28.77507,-34.21563 -47.98168,-30.82622 l -13.67076,2.41249 0.26805,-2.41249 z" />
    <path
       inkscape:connector-curvature="0"
       transform="matrix(0.327346,0,0,0.327346,-16.23094,-181.6019)"
       style="fill:url(#linearGradient3548);fill-opacity:1;fill-rule:evenodd;stroke-width:1pt"
       id="path5403"
       d="m 263.49718,681.37531 c 0,0 -11.79438,-2.14443 -12.33049,2.41249 -0.53611,4.55692 -6.70135,16.08325 4.02081,16.3513 10.72216,0.26805 21.71238,-18.49573 8.30968,-18.76379 z" />
    <path
       inkscape:connector-curvature="0"
       style="fill:url(#linearGradient3550);fill-opacity:1;fill-rule:evenodd;stroke-width:1pt"
       id="path1767"
       d="m 74.921122,28.921543 c 0,0 4.55692,-0.804162 4.959001,1.072217 0.402081,1.876378 0.268054,6.567325 -1.742352,7.639542 -2.010406,1.072216 -9.51592,0.402081 -10.856191,-1.474298 -1.340271,-1.876379 -1.340271,-9.247866 0.536108,-8.845785 1.876379,0.402081 3.752758,2.680541 7.103434,1.608324 z" />
    <path
       inkscape:connector-curvature="0"
       style="fill:url(#linearGradient3552);fill-opacity:1;fill-rule:evenodd;stroke-width:1pt"
       sodipodi:nodetypes="cccc"
       id="path1768"
       d="m 76.901797,27.368735 c 0.284314,-3.032686 4.321386,-8.425472 5.277808,-8.732782 -2.45256,-0.351328 -3.773779,-2.849061 -12.083457,8.275184 4.690947,0.938189 6.805649,0.457598 6.805649,0.457598 z" />
    <path
       inkscape:connector-curvature="0"
       style="fill:url(#linearGradient3554);fill-opacity:1;fill-rule:evenodd;stroke-width:1pt"
       sodipodi:nodetypes="ccccc"
       id="path1572"
       d="m 113.91527,66.934448 c 0,0 3.03269,6.065372 -0.94771,10.614401 -3.9804,4.549029 -18.00658,2.464058 -20.091552,-0.568628 -2.084971,-3.032686 5.307201,-8.150344 9.098062,-8.150344 3.79085,0 10.42485,0.189543 11.9412,-1.895429 z" />
  </g>
</svg>
