<?xml version="1.0" encoding="UTF-8" standalone="no"?>
<!-- Created with Inkscape (http://www.inkscape.org/) -->

<svg
   xmlns:dc="http://purl.org/dc/elements/1.1/"
   xmlns:cc="http://creativecommons.org/ns#"
   xmlns:rdf="http://www.w3.org/1999/02/22-rdf-syntax-ns#"
   xmlns:svg="http://www.w3.org/2000/svg"
   xmlns="http://www.w3.org/2000/svg"
   xmlns:sodipodi="http://sodipodi.sourceforge.net/DTD/sodipodi-0.dtd"
   xmlns:inkscape="http://www.inkscape.org/namespaces/inkscape"
   id="svg2"
   version="1.1"
   inkscape:version="0.48.1 r9760"
   width="71.449219"
   height="78.458206"
   sodipodi:docname="RockArt-OntarioRider.svg">
  <title
     id="title2986">Rock Art Ontario Rider</title>
  <metadata
     id="metadata8">
    <rdf:RDF>
      <cc:Work
         rdf:about="">
        <dc:format>image/svg+xml</dc:format>
        <dc:type
           rdf:resource="http://purl.org/dc/dcmitype/StillImage" />
        <dc:title>Rock Art Ontario Rider</dc:title>
        <dc:date>26 Feb 2011</dc:date>
        <dc:creator>
          <cc:Agent>
            <dc:title>SeriousTux</dc:title>
          </cc:Agent>
        </dc:creator>
        <dc:source>http://en.wikipedia.org/wiki/File:Peterborough-i_sziklafigua.jpg</dc:source>
        <dc:subject>
          <rdf:Bag>
            <rdf:li>petroglyph person Ontario</rdf:li>
            <rdf:li>Canada</rdf:li>
          </rdf:Bag>
        </dc:subject>
        <dc:description>Person riding something from Petroglyph Provincial Park, near Peterborough, Ontario</dc:description>
      </cc:Work>
    </rdf:RDF>
  </metadata>
  <defs
     id="defs6" />
  <sodipodi:namedview
     pagecolor="#ffffff"
     bordercolor="#666666"
     borderopacity="1"
     objecttolerance="10"
     gridtolerance="10"
     guidetolerance="10"
     inkscape:pageopacity="0"
     inkscape:pageshadow="2"
     inkscape:window-width="1680"
     inkscape:window-height="1026"
     id="namedview4"
     showgrid="false"
     inkscape:zoom="4"
     inkscape:cx="40.103267"
     inkscape:cy="-10.578141"
     inkscape:window-x="0"
     inkscape:window-y="0"
     inkscape:window-maximized="1"
     inkscape:current-layer="svg2"
     fit-margin-top="0"
     fit-margin-left="0"
     fit-margin-right="0"
     fit-margin-bottom="0" />
  <path
     style="fill:#000000;fill-opacity:1;stroke:none"
     d="m 30.537716,16.240488 c -0.882062,-0.145465 -1.841443,0.970101 -1.72243,1.449464 0.509054,2.050311 1.358604,2.736945 1.078533,4.121473 -0.366778,1.813195 -1.303915,4.038288 -3.479829,4.822588 -1.330755,0.479668 -2.869414,-0.638742 -4.341201,-0.617533 -1.772271,0.02554 -3.434901,1.099093 -5.186883,0.893703 -0.636152,-0.07458 -1.296044,-0.340732 -1.66841,-0.740891 -2.228921,-2.395298 3.47818,-3.014454 -2.189432,-8.650396 -1.23821,-1.231285 -4.1033239,-1.556492 -5.9772439,-0.950971 -2.307981,0.745784 -3.831062,2.941627 -4.014385,4.84726 -0.239576,2.490415 2.950562,4.479135 3.977897,6.85028 2.098281,4.842951 1.796602,10.230952 4.4049539,14.927702 0.897645,1.61635 3.747262,2.650586 3.783691,4.405567 0.06126,2.951356 -4.915201,1.888156 -6.0523769,7.558573 -0.725496,3.617627 1.7704369,7.547891 4.8977309,10.324763 2.716417,2.412032 6.291666,0.997459 10.985613,4.563914 -2.547097,1.040943 -5.828931,1.917523 -8.029426,2.54521 -12.7527299,3.637692 -9.6141739,8.859452 8.955535,3.709816 8.387669,-2.326016 13.903899,-3.988019 22.924899,-7.233134 28.228184,-10.154497 32.164965,-18.758551 -0.786731,-7.202035 -3.870206,1.357324 -6.225993,2.085098 -9.930033,3.320922 -2.678141,-1.707748 2.170379,-5.133114 2.278101,-7.793327 0.125057,-3.088157 -0.35762,-6.299292 -1.907538,-9.154141 -1.067971,-1.967128 -2.497766,-4.107929 -4.917543,-5.171129 -2.100145,-0.922764 -4.877729,-0.132723 -7.234289,-0.565798 -2.407144,-0.442367 -5.373082,-0.580591 -6.923167,-2.052363 -2.177293,-2.067289 -2.773914,-5.367419 -1.590139,-7.860164 0.632003,-1.330847 2.405464,-2.38397 4.176223,-2.809999 1.589659,-0.382451 3.48219,0.998388 4.969726,0.424947 3.587565,-1.382998 5.425239,-4.935387 6.02001,-7.966025 0.32129,-1.637101 -0.90398,-3.25228 -1.45753,-4.840084 -0.266805,-0.765292 -0.643384,-1.092071 -1.044326,-1.158192 z M 30.14138,47.890755 c 3.420872,1.230407 3.359564,5.241486 4.075001,8.072637 0.858552,3.397481 1.205991,6.439433 0.180669,10.37889 -2.837194,0.388093 -5.352864,1.852853 -7.60387,2.886406 -2.889118,-1.105808 -6.702182,-3.204187 -8.818151,-5.645419 -1.436796,-1.657657 -2.387126,-3.716953 -2.277119,-5.701938 0.144916,-2.614952 1.322499,-5.495929 3.820179,-7.291972 2.715039,-1.952341 7.247668,-3.912736 10.623291,-2.698604 z"
     id="path3770"
     inkscape:connector-curvature="0"
     sodipodi:nodetypes="ssssssssssssssscsssscsssssssssssssccssss" />
  <path
     style="fill:#000000;fill-opacity:1;stroke:none"
     d="M 4.0488731,14.503946 C 1.8713271,13.597975 0.04920407,11.058595 0.00120807,8.7005928 -0.06068193,5.6598462 2.2643841,2.5074537 4.9119741,1.0107047 c 1.915208,-1.08271399 4.853685,-1.51643499 6.5978569,-0.17548599 1.889517,1.45268099 1.99145,4.59711969 1.653302,6.95640579 -0.309438,2.1589797 -1.456103,4.4298245 -3.2400579,5.6845875 -1.625908,1.143597 -4.038913,1.791341 -5.874202,1.027734 z"
     id="path3774"
     inkscape:connector-curvature="0"
     sodipodi:nodetypes="aaaaaaa" />
</svg>
