<?xml version="1.0" encoding="UTF-8" standalone="no"?>
<!-- Created with Inkscape (http://www.inkscape.org/) -->

<svg
   xmlns:dc="http://purl.org/dc/elements/1.1/"
   xmlns:cc="http://creativecommons.org/ns#"
   xmlns:rdf="http://www.w3.org/1999/02/22-rdf-syntax-ns#"
   xmlns:svg="http://www.w3.org/2000/svg"
   xmlns="http://www.w3.org/2000/svg"
   xmlns:xlink="http://www.w3.org/1999/xlink"
   xmlns:sodipodi="http://sodipodi.sourceforge.net/DTD/sodipodi-0.dtd"
   xmlns:inkscape="http://www.inkscape.org/namespaces/inkscape"
   width="569.22125"
   height="1022.3823"
   id="svg39019"
   sodipodi:version="0.32"
   inkscape:version="0.48.1 r9760"
   version="1.0"
   sodipodi:docname="unicycle_line_art.svg"
   inkscape:output_extension="org.inkscape.output.svg.inkscape"
   inkscape:export-filename="/home/alexander/работы/clipart/simple_vector_bike.png"
   inkscape:export-xdpi="32.795872"
   inkscape:export-ydpi="32.795872">
  <defs
     id="defs39021">
    <inkscape:perspective
       sodipodi:type="inkscape:persp3d"
       inkscape:vp_x="-50 : 600 : 1"
       inkscape:vp_y="0 : 1000 : 0"
       inkscape:vp_z="700 : 600 : 1"
       inkscape:persp3d-origin="300 : 400 : 1"
       id="perspective26198" />
    <inkscape:perspective
       sodipodi:type="inkscape:persp3d"
       inkscape:vp_x="-50 : 600 : 1"
       inkscape:vp_y="0 : 1000 : 0"
       inkscape:vp_z="700 : 600 : 1"
       inkscape:persp3d-origin="300 : 400 : 1"
       id="perspective39027" />
    <inkscape:perspective
       id="perspective3008"
       inkscape:persp3d-origin="0.5 : 0.33333333 : 1"
       inkscape:vp_z="1 : 0.5 : 1"
       inkscape:vp_y="0 : 1000 : 0"
       inkscape:vp_x="0 : 0.5 : 1"
       sodipodi:type="inkscape:persp3d" />
    <linearGradient
       y2="838.87573"
       x2="303.06595"
       y1="854.65784"
       x1="295.4556"
       gradientTransform="scale(1.547045,0.646393)"
       gradientUnits="userSpaceOnUse"
       id="linearGradient11227"
       xlink:href="#linearGradient699"
       inkscape:collect="always" />
    <linearGradient
       y2="1243.33"
       x2="174.52737"
       y1="1270.3788"
       x1="186.98415"
       gradientTransform="matrix(2.044585,0,0,0.489097,33.84565,-97.01967)"
       gradientUnits="userSpaceOnUse"
       id="linearGradient10333"
       xlink:href="#linearGradient699"
       inkscape:collect="always" />
    <linearGradient
       y2="838.87573"
       x2="303.06595"
       y1="854.65784"
       x1="295.4556"
       gradientTransform="scale(1.547045,0.646393)"
       gradientUnits="userSpaceOnUse"
       id="linearGradient2226"
       xlink:href="#linearGradient699"
       inkscape:collect="always" />
    <linearGradient
       y2="1243.33"
       x2="174.52737"
       y1="1270.3788"
       x1="186.98415"
       gradientTransform="scale(2.044584,0.489097)"
       gradientUnits="userSpaceOnUse"
       id="linearGradient2224"
       xlink:href="#linearGradient699"
       inkscape:collect="always" />
    <linearGradient
       y2="880.95563"
       x2="78.471832"
       y1="880.95563"
       x1="63.264988"
       gradientTransform="matrix(1.400546,0,0,0.714007,5.904634,1.326509)"
       gradientUnits="userSpaceOnUse"
       id="linearGradient2034"
       xlink:href="#linearGradient699"
       inkscape:collect="always" />
    <linearGradient
       gradientUnits="userSpaceOnUse"
       y2="838.87573"
       y1="854.65784"
       xlink:href="#linearGradient699"
       x2="303.06595"
       x1="295.4556"
       id="linearGradient998"
       gradientTransform="scale(1.547045,0.646393)" />
    <radialGradient
       xlink:href="#linearGradient699"
       r="0.82733351"
       id="radialGradient983"
       gradientTransform="translate(-2.159203e-6,5.248793e-6)"
       fy="0.48491001"
       fx="0.49977759"
       cy="0.48491001"
       cx="0.49977759" />
    <linearGradient
       y2="-0.93064982"
       y1="0.95663434"
       xlink:href="#linearGradient699"
       x2="1.212333"
       x1="-1.152614"
       id="linearGradient957" />
    <linearGradient
       y2="-0.33517343"
       y1="0.85648137"
       xlink:href="#linearGradient699"
       x2="1.3366299"
       x1="-0.67224663"
       id="linearGradient956" />
    <linearGradient
       y2="-0.17980042"
       y1="1.2669779"
       xlink:href="#linearGradient699"
       x2="0.62844592"
       x1="0.10968352"
       id="linearGradient955"
       gradientTransform="translate(-3.841972e-8,2.232551e-6)" />
    <linearGradient
       gradientUnits="userSpaceOnUse"
       y2="1118.2357"
       y1="1149.3214"
       xlink:href="#linearGradient715"
       x2="71.729126"
       x1="49.494358"
       id="linearGradient880"
       gradientTransform="scale(1.651282,0.60559)" />
    <linearGradient
       y2="1.3841925"
       y1="-1.2320621"
       xlink:href="#linearGradient699"
       x2="0.42031607"
       x1="0.32499713"
       id="linearGradient871"
       gradientTransform="translate(4.091899e-7,-2.013206e-6)" />
    <linearGradient
       y2="0.1368366"
       y1="0.3309238"
       xlink:href="#linearGradient699"
       x2="0.81090641"
       x1="-0.1248619"
       id="linearGradient870" />
    <radialGradient
       xlink:href="#linearGradient699"
       spreadMethod="reflect"
       r="0.094074175"
       id="radialGradient868"
       fy="0.49218607"
       fx="0.52343845"
       cy="0.49218607"
       cx="0.52343845" />
    <linearGradient
       y2="0.28906327"
       y1="0.023440827"
       xlink:href="#linearGradient699"
       x2="0.28125268"
       x1="0.96875852"
       spreadMethod="reflect"
       id="linearGradient856" />
    <radialGradient
       xlink:href="#linearGradient699"
       r="0.91972142"
       id="radialGradient846"
       gradientTransform="translate(-2.338593e-6,-5.19865e-6)"
       fy="0.49877778"
       fx="0.49184155"
       cy="0.49877778"
       cx="0.49184155" />
    <radialGradient
       xlink:href="#linearGradient699"
       spreadMethod="reflect"
       r="0.69604367"
       id="radialGradient837"
       gradientTransform="translate(2.027491e-8,1.186052e-6)"
       fy="-0.30644989"
       fx="1.6109731"
       cy="-0.30644989"
       cx="1.6109731" />
    <radialGradient
       gradientTransform="scale(1.000001,0.999999)"
       xlink:href="#linearGradient699"
       spreadMethod="reflect"
       r="0.27620763"
       id="radialGradient836"
       fy="0.16797796"
       fx="0.93945211"
       cy="0.16797796"
       cx="0.93945211" />
    <radialGradient
       gradientTransform="scale(1.000001,0.999999)"
       xlink:href="#linearGradient699"
       spreadMethod="reflect"
       r="0.22096607"
       id="radialGradient835"
       fy="0.23438247"
       fx="0.85156155"
       cy="0.23438247"
       cx="0.85156155" />
    <radialGradient
       xlink:href="#linearGradient699"
       r="1.1719083"
       id="radialGradient804"
       fy="0.50753236"
       fx="0.51499623"
       cy="0.50753236"
       cx="0.51499623" />
    <radialGradient
       xlink:href="#linearGradient699"
       r="1.2540652"
       id="radialGradient781"
       fy="0.49218804"
       fx="0.4923076"
       cy="0.49218804"
       cx="0.4923076" />
    <radialGradient
       xlink:href="#linearGradient699"
       r="1.151347"
       id="radialGradient778"
       fy="0.50776517"
       fx="0.46152827"
       cy="0.50776517"
       cx="0.46152827" />
    <radialGradient
       xlink:href="#linearGradient699"
       r="0.89234108"
       id="radialGradient776"
       fy="0.49999502"
       fx="0.49999884"
       cy="0.49999502"
       cx="0.49999884" />
    <radialGradient
       xlink:href="#linearGradient699"
       r="0.70326263"
       id="radialGradient775"
       fy="0.49996966"
       fx="0.47652671"
       cy="0.49996966"
       cx="0.47652671" />
    <linearGradient
       y2="0.33417273"
       y1="-0.072722025"
       xlink:href="#linearGradient699"
       x2="0.64091784"
       x1="0.82793403"
       spreadMethod="reflect"
       id="linearGradient774" />
    <linearGradient
       y2="-0.29972529"
       y1="0.52672982"
       xlink:href="#linearGradient699"
       x2="0.55781066"
       x1="0.47706398"
       id="linearGradient764"
       gradientTransform="translate(-2.879758e-7,1.307351e-6)" />
    <linearGradient
       y2="0.039062828"
       y1="0.49224487"
       xlink:href="#linearGradient699"
       x2="0.14473668"
       x1="0.8289575"
       id="linearGradient757" />
    <linearGradient
       gradientUnits="userSpaceOnUse"
       y2="880.95563"
       y1="880.95563"
       xlink:href="#linearGradient699"
       x2="78.471832"
       x1="63.264988"
       id="linearGradient735"
       gradientTransform="scale(1.400546,0.714007)" />
    <linearGradient
       gradientUnits="userSpaceOnUse"
       y2="1243.33"
       y1="1270.3788"
       xlink:href="#linearGradient699"
       x2="174.52737"
       x1="186.98415"
       id="linearGradient727"
       gradientTransform="scale(2.044584,0.489097)" />
    <linearGradient
       gradientUnits="userSpaceOnUse"
       gradientTransform="scale(0.504525,1.982063)"
       y2="297.5105"
       y1="297.5105"
       xlink:href="#linearGradient699"
       x2="203.88734"
       x1="180.71118"
       id="linearGradient726" />
    <linearGradient
       gradientUnits="userSpaceOnUse"
       gradientTransform="scale(0.486801,2.054226)"
       y2="325.77103"
       y1="329.52396"
       xlink:href="#linearGradient715"
       x2="188.53616"
       x1="157.66322"
       id="linearGradient721" />
    <linearGradient
       y2="0.234375"
       y1="0.6015625"
       xlink:href="#linearGradient715"
       x2="0.69266105"
       x1="0.40829536"
       id="linearGradient720" />
    <linearGradient
       y2="0.5020085"
       y1="0.51304257"
       xlink:href="#linearGradient715"
       x2="-0.75726485"
       x1="0.77837771"
       id="linearGradient719" />
    <linearGradient
       y2="0.61703664"
       y1="0.60426718"
       xlink:href="#linearGradient715"
       x2="1.6025035"
       x1="0.099006712"
       id="linearGradient718" />
    <linearGradient
       gradientUnits="userSpaceOnUse"
       gradientTransform="matrix(0.670383,0,0,1.491685,-2.115494,0)"
       y2="398.09921"
       y1="409.9584"
       xlink:href="#linearGradient715"
       x2="729.71198"
       x1="701.63098"
       id="linearGradient714" />
    <linearGradient
       xlink:href="#linearGradient699"
       id="linearGradient710" />
    <linearGradient
       xlink:href="#linearGradient699"
       id="linearGradient708" />
    <linearGradient
       y2="-0.023437545"
       y1="0.97655779"
       xlink:href="#linearGradient699"
       x2="0.82692665"
       x1="-0.063907221"
       id="linearGradient706"
       gradientTransform="translate(1.346607e-6,-4.483036e-8)" />
    <radialGradient
       gradientUnits="userSpaceOnUse"
       gradientTransform="scale(1.323459,0.755596)"
       xlink:href="#linearGradient699"
       r="91.939926"
       id="radialGradient703"
       fy="718.33417"
       fx="221.24318"
       cy="718.33417"
       cx="221.24318" />
    <linearGradient
       gradientUnits="userSpaceOnUse"
       gradientTransform="scale(1.776846,0.562795)"
       y2="964.76501"
       y1="1014.2485"
       xlink:href="#linearGradient699"
       x2="142.77808"
       x1="143.54929"
       id="linearGradient702" />
    <linearGradient
       id="linearGradient699">
      <stop
         style="stop-color:#000000;stop-opacity:1;"
         offset="0"
         id="stop700" />
      <stop
         style="stop-color:#dddfdf;stop-opacity:1;"
         offset="1"
         id="stop701" />
    </linearGradient>
    <linearGradient
       id="linearGradient715">
      <stop
         style="stop-color:#0052ff;stop-opacity:1;"
         offset="0"
         id="stop716" />
      <stop
         style="stop-color:#dddfdf;stop-opacity:1;"
         offset="1"
         id="stop717" />
    </linearGradient>
    <inkscape:perspective
       id="perspective4036"
       inkscape:persp3d-origin="372.04724 : 350.78739 : 1"
       inkscape:vp_z="744.09448 : 526.18109 : 1"
       inkscape:vp_y="0 : 1000 : 0"
       inkscape:vp_x="0 : 526.18109 : 1"
       sodipodi:type="inkscape:persp3d" />
    <inkscape:perspective
       id="perspective3646"
       inkscape:persp3d-origin="0.5 : 0.33333333 : 1"
       inkscape:vp_z="1 : 0.5 : 1"
       inkscape:vp_y="0 : 1000 : 0"
       inkscape:vp_x="0 : 0.5 : 1"
       sodipodi:type="inkscape:persp3d" />
    <inkscape:perspective
       id="perspective3730"
       inkscape:persp3d-origin="0.5 : 0.33333333 : 1"
       inkscape:vp_z="1 : 0.5 : 1"
       inkscape:vp_y="0 : 1000 : 0"
       inkscape:vp_x="0 : 0.5 : 1"
       sodipodi:type="inkscape:persp3d" />
    <inkscape:perspective
       id="perspective3826"
       inkscape:persp3d-origin="0.5 : 0.33333333 : 1"
       inkscape:vp_z="1 : 0.5 : 1"
       inkscape:vp_y="0 : 1000 : 0"
       inkscape:vp_x="0 : 0.5 : 1"
       sodipodi:type="inkscape:persp3d" />
    <radialGradient
       inkscape:collect="always"
       xlink:href="#linearGradient699-3"
       id="radialGradient3495-2"
       gradientUnits="userSpaceOnUse"
       gradientTransform="matrix(1.014184,0,0,0.986015,105.49855,425.29074)"
       cx="328.06409"
       cy="812.35944"
       fx="328.06409"
       fy="812.35944"
       r="7.2140231" />
    <linearGradient
       id="linearGradient699-3">
      <stop
         style="stop-color:#000000;stop-opacity:1;"
         offset="0"
         id="stop700-2" />
      <stop
         style="stop-color:#dddfdf;stop-opacity:1;"
         offset="1"
         id="stop701-2" />
    </linearGradient>
    <inkscape:perspective
       id="perspective3880"
       inkscape:persp3d-origin="0.5 : 0.33333333 : 1"
       inkscape:vp_z="1 : 0.5 : 1"
       inkscape:vp_y="0 : 1000 : 0"
       inkscape:vp_x="0 : 0.5 : 1"
       sodipodi:type="inkscape:persp3d" />
    <inkscape:perspective
       id="perspective3913"
       inkscape:persp3d-origin="0.5 : 0.33333333 : 1"
       inkscape:vp_z="1 : 0.5 : 1"
       inkscape:vp_y="0 : 1000 : 0"
       inkscape:vp_x="0 : 0.5 : 1"
       sodipodi:type="inkscape:persp3d" />
    <inkscape:perspective
       id="perspective3985"
       inkscape:persp3d-origin="0.5 : 0.33333333 : 1"
       inkscape:vp_z="1 : 0.5 : 1"
       inkscape:vp_y="0 : 1000 : 0"
       inkscape:vp_x="0 : 0.5 : 1"
       sodipodi:type="inkscape:persp3d" />
    <linearGradient
       id="linearGradient699-3-2">
      <stop
         style="stop-color:#000000;stop-opacity:1;"
         offset="0"
         id="stop700-2-3" />
      <stop
         style="stop-color:#dddfdf;stop-opacity:1;"
         offset="1"
         id="stop701-2-3" />
    </linearGradient>
    <radialGradient
       inkscape:collect="always"
       xlink:href="#linearGradient699-3-2"
       id="radialGradient4313"
       gradientUnits="userSpaceOnUse"
       gradientTransform="matrix(1.014184,0,0,0.986015,105.49855,425.29074)"
       cx="328.06409"
       cy="812.35944"
       fx="328.06409"
       fy="812.35944"
       r="7.2140231" />
    <inkscape:perspective
       id="perspective5101"
       inkscape:persp3d-origin="0.5 : 0.33333333 : 1"
       inkscape:vp_z="1 : 0.5 : 1"
       inkscape:vp_y="0 : 1000 : 0"
       inkscape:vp_x="0 : 0.5 : 1"
       sodipodi:type="inkscape:persp3d" />
    <radialGradient
       inkscape:collect="always"
       xlink:href="#linearGradient699-3-2"
       id="radialGradient5171"
       gradientUnits="userSpaceOnUse"
       gradientTransform="matrix(1.014184,0,0,0.986015,105.49855,425.29074)"
       cx="328.06409"
       cy="812.35944"
       fx="328.06409"
       fy="812.35944"
       r="7.2140231" />
  </defs>
  <sodipodi:namedview
     id="base"
     pagecolor="#ffffff"
     bordercolor="#666666"
     borderopacity="1.0"
     gridtolerance="10000"
     guidetolerance="10"
     objecttolerance="10"
     inkscape:pageopacity="0.0"
     inkscape:pageshadow="2"
     inkscape:zoom="0.69999999"
     inkscape:cx="-261.56577"
     inkscape:cy="410.86032"
     inkscape:document-units="px"
     inkscape:current-layer="layer1"
     showgrid="false"
     inkscape:window-width="1680"
     inkscape:window-height="1026"
     inkscape:window-x="0"
     inkscape:window-y="0"
     inkscape:window-maximized="1" />
  <metadata
     id="metadata39024">
    <rdf:RDF>
      <cc:Work
         rdf:about="">
        <dc:format>image/svg+xml</dc:format>
        <dc:type
           rdf:resource="http://purl.org/dc/dcmitype/StillImage" />
        <dc:title />
        <dc:date />
        <dc:creator>
          <cc:Agent>
            <dc:title />
          </cc:Agent>
        </dc:creator>
        <dc:rights>
          <cc:Agent>
            <dc:title />
          </cc:Agent>
        </dc:rights>
        <dc:publisher>
          <cc:Agent>
            <dc:title />
          </cc:Agent>
        </dc:publisher>
        <dc:identifier />
        <dc:source />
        <dc:relation />
        <dc:language />
        <dc:subject>
          <rdf:Bag />
        </dc:subject>
        <dc:coverage />
        <dc:description />
        <dc:contributor>
          <cc:Agent>
            <dc:title />
          </cc:Agent>
        </dc:contributor>
        <cc:license
           rdf:resource="" />
      </cc:Work>
    </rdf:RDF>
  </metadata>
  <g
     inkscape:groupmode="layer"
     id="layer5"
     style="display:none"
     transform="translate(44.797963,494.91093)">
    <rect
       style="fill:#ffffff;fill-opacity:1;stroke:none"
       id="rect39180"
       width="823.27435"
       height="514.16766"
       x="-95.964493"
       y="-66.487038" />
  </g>
  <g
     inkscape:label="Layer 1"
     inkscape:groupmode="layer"
     id="layer1"
     transform="translate(1.802848,423.50218)">
    <g
       id="g3558">
      <g
         id="g3568" />
    </g>
    <path
       style="fill:#ffffff;fill-opacity:1;stroke:#000000;stroke-width:9.36831284;stroke-miterlimit:4;stroke-opacity:1;stroke-dasharray:none;display:inline"
       d="M 288.4375 457.84375 C 277.41845 457.69706 284.72999 462.34128 273.71875 462.78125 C 262.70751 463.22122 269.62847 458.00586 258.65625 459.03125 C 247.68403 460.05664 255.43335 463.8921 244.53125 465.5 C 233.62916 467.1079 239.95732 461.18914 229.15625 463.375 C 218.35518 465.56086 226.48192 468.55488 215.8125 471.3125 C 205.14308 474.07012 210.78878 467.52219 200.28125 470.84375 C 189.77371 474.16531 198.19086 476.28017 187.875 480.15625 C 177.55914 484.03233 182.46995 476.92413 172.375 481.34375 C 162.28005 485.76337 170.87667 486.95562 161.03125 491.90625 C 151.18583 496.85688 155.31798 489.25114 145.75 494.71875 C 136.18202 500.18636 144.82592 500.46841 135.5625 506.4375 C 126.29908 512.40659 129.6201 504.42135 120.6875 510.875 C 111.7549 517.32865 120.38897 516.67383 111.8125 523.59375 C 103.23603 530.51367 105.69602 522.22718 97.5 529.59375 C 89.303981 536.96032 97.823588 535.39516 90.03125 543.1875 C 82.238913 550.97984 83.804068 542.46023 76.4375 550.65625 C 69.070932 558.85227 77.357418 556.39228 70.4375 564.96875 C 63.517583 573.54522 64.172401 564.9424 57.71875 573.875 C 51.265098 582.8076 59.250342 579.48658 53.28125 588.75 C 47.312158 598.01342 47.030112 589.33827 41.5625 598.90625 C 36.094887 608.47423 43.700635 604.34208 38.75 614.1875 C 33.799366 624.03292 32.575873 615.46755 28.15625 625.5625 C 23.736626 635.65745 30.876085 630.71539 27 641.03125 C 23.123916 651.34711 21.009058 642.92997 17.6875 653.4375 C 14.365942 663.94504 20.913867 658.29933 18.15625 668.96875 C 15.398633 679.63817 12.404608 671.51143 10.21875 682.3125 C 8.0328914 693.11357 13.951654 686.7854 12.34375 697.6875 C 10.735846 708.58959 6.900392 700.84028 5.875 711.8125 C 4.8496079 722.78472 10.064973 715.86376 9.625 726.875 C 9.1850267 737.88624 4.5408075 730.5747 4.6875 741.59375 C 4.8341925 752.6128 9.2670574 745.16062 10 756.15625 C 10.732942 767.15188 5.3391351 760.40272 6.65625 771.34375 C 7.9733651 782.28479 11.602446 774.39457 13.5 785.25 C 15.397554 796.10543 9.3398861 789.94845 11.8125 800.6875 C 14.285114 811.42655 17.053085 803.22027 20.09375 813.8125 C 23.134415 824.40473 16.431153 818.92836 20.03125 829.34375 C 23.631348 839.75914 25.506925 831.32223 29.65625 841.53125 C 33.805574 851.74027 26.56321 846.99503 31.25 856.96875 C 35.93679 866.94247 36.914029 858.32111 42.125 868.03125 C 47.33597 877.74139 39.623371 873.79971 45.34375 883.21875 C 51.06413 892.63779 51.130176 883.99251 57.34375 893.09375 C 63.557324 902.19499 55.467095 899.08611 62.15625 907.84375 C 68.845405 916.60139 67.979225 907.98578 75.125 916.375 C 82.270775 924.76422 73.886611 922.53424 81.46875 930.53125 C 89.05089 938.52826 87.284238 930.07411 95.28125 937.65625 C 103.27826 945.23839 94.735785 943.88548 103.125 951.03125 C 111.51422 958.17703 108.83611 949.96709 117.59375 956.65625 C 126.35139 963.3454 117.71126 962.91143 126.8125 969.125 C 135.91374 975.33857 132.36221 967.43587 141.78125 973.15625 C 151.20029 978.87663 142.57111 979.38278 152.28125 984.59375 C 161.99139 989.80472 157.65128 982.34446 167.625 987.03125 C 177.59872 991.71804 169.04098 993.13193 179.25 997.28125 C 189.45902 1001.4306 184.33461 994.4624 194.75 998.0625 C 205.16539 1001.6626 196.84527 1003.9906 207.4375 1007.0312 C 218.02973 1010.0719 212.19845 1003.6836 222.9375 1006.1562 C 233.67655 1008.6289 225.61332 1011.8212 236.46875 1013.7188 C 247.32418 1015.6163 240.84021 1009.8704 251.78125 1011.1875 C 262.72228 1012.5046 255.06687 1016.5483 266.0625 1017.2812 C 277.05813 1018.0142 270.0122 1012.9783 281.03125 1013.125 C 292.0503 1013.2717 284.86376 1018.0962 295.875 1017.6562 C 306.88624 1017.2163 299.34028 1012.9941 310.3125 1011.9688 C 321.28472 1010.9434 314.66041 1016.5142 325.5625 1014.9062 C 336.4646 1013.2983 328.51143 1009.8734 339.3125 1007.6875 C 350.11357 1005.5016 344.11183 1011.7264 354.78125 1008.9688 C 365.45067 1006.2111 357.17996 1003.6966 367.6875 1000.375 C 378.19503 997.05344 372.87164 1003.8761 383.1875 1000 C 393.50336 996.12392 384.9988 994.48212 395.09375 990.0625 C 405.1887 985.64288 400.65458 992.98188 410.5 988.03125 C 420.34542 983.08061 411.71327 982.34261 421.28125 976.875 C 430.84923 971.40739 427.11158 979.21909 436.375 973.25 C 445.63842 967.28091 437.0049 967.45365 445.9375 961 C 454.8701 954.54635 451.95478 962.73242 460.53125 955.8125 C 469.10772 948.89258 460.52273 949.99157 468.71875 942.625 C 476.91477 935.25843 474.92641 943.66734 482.71875 935.875 C 490.51109 928.08266 482.07093 930.10227 489.4375 921.90625 C 496.80407 913.71023 495.70508 922.29522 502.625 913.71875 C 509.54492 905.14228 501.3901 908.02635 507.84375 899.09375 C 514.2974 890.16115 514.12466 898.79467 520.09375 889.53125 C 526.06284 880.26783 518.25114 884.00548 523.71875 874.4375 C 529.18636 864.86952 529.92437 873.50167 534.875 863.65625 C 539.82563 853.81083 532.48663 858.3762 536.90625 848.28125 C 541.32587 838.1863 542.96767 846.65961 546.84375 836.34375 C 550.71983 826.02789 543.86594 831.35129 547.1875 820.84375 C 550.50906 810.33622 553.05488 818.60692 555.8125 807.9375 C 558.57012 797.26808 552.34539 803.26982 554.53125 792.46875 C 556.71711 781.66768 560.1421 789.62084 561.75 778.71875 C 563.3579 767.81665 557.78711 774.44097 558.8125 763.46875 C 559.83789 752.49653 564.06003 760.04249 564.5 749.03125 C 564.93997 738.02001 560.11544 745.20655 559.96875 734.1875 C 559.82206 723.16845 564.85794 730.21438 564.125 719.21875 C 563.39206 708.22312 559.34837 715.90979 558.03125 704.96875 C 556.71414 694.02772 562.46005 700.48043 560.5625 689.625 C 558.66495 678.76957 555.44136 686.8328 552.96875 676.09375 C 550.49614 665.3547 556.91567 671.18598 553.875 660.59375 C 550.83433 650.00152 548.50635 658.32164 544.90625 647.90625 C 541.30615 637.49086 548.27432 642.61527 544.125 632.40625 C 539.97568 622.19723 538.56179 630.75497 533.875 620.78125 C 529.18821 610.80753 536.64847 615.14764 531.4375 605.4375 C 526.22653 595.72736 525.72038 604.35654 520 594.9375 C 514.27962 585.51846 522.18232 589.06999 515.96875 579.96875 C 509.75518 570.86751 510.15791 579.50764 503.46875 570.75 C 496.7796 561.99236 505.02077 564.67047 497.875 556.28125 C 490.72922 547.89203 492.05089 556.43451 484.46875 548.4375 C 476.88661 540.44049 485.37201 542.23839 477.375 534.65625 C 469.37799 527.07411 471.60797 535.42703 463.21875 528.28125 C 454.82953 521.13548 463.44514 522.00165 454.6875 515.3125 C 445.92986 508.62334 449.03874 516.71357 439.9375 510.5 C 430.83626 504.28643 439.48154 504.22038 430.0625 498.5 C 420.64346 492.77962 424.58514 500.49222 414.875 495.28125 C 405.16486 490.07028 413.75497 489.09304 403.78125 484.40625 C 393.80753 479.71946 398.55277 486.96182 388.34375 482.8125 C 378.13473 478.66318 386.60289 476.7876 376.1875 473.1875 C 365.77211 469.5874 371.24848 476.29067 360.65625 473.25 C 350.06402 470.20934 358.2703 467.44136 347.53125 464.96875 C 336.7922 462.49614 342.94918 468.5538 332.09375 466.65625 C 321.23832 464.7587 329.09728 461.16086 318.15625 459.84375 C 307.21521 458.52664 313.99563 463.88919 303 463.15625 C 292.00437 462.42331 299.45655 457.99044 288.4375 457.84375 z M 284.625 506.65625 C 412.26798 506.65625 515.71875 610.13827 515.71875 737.78125 C 515.71875 865.42423 412.26798 968.875 284.625 968.875 C 156.98202 968.875 53.5 865.42423 53.5 737.78125 C 53.5 610.13827 156.98202 506.65625 284.625 506.65625 z "
       transform="translate(-1.802848,-423.50218)"
       id="path17005-4" />
    <path
       inkscape:connector-curvature="0"
       d="m 283.37795,328.856 c 6.65859,-8.33719 8.13847,-22.25722 -2.28597,-30.58282 l -112.75837,-85.126 c -10.82515,-7.82388 -19.06332,-7.51818 -25.72209,0.81924 -5.85773,7.33443 -5.63731,16.03881 4.38643,24.86613 l 106.24739,92.24993 c 10.42444,8.3256 23.47347,6.11139 30.13261,-2.22648 z"
       id="path2170-8-6"
       sodipodi:nodetypes="ccccccc"
       style="font-size:12px;fill:#ffffff;fill-opacity:1;fill-rule:evenodd;stroke:#000000;stroke-width:7.65500021;stroke-miterlimit:4;stroke-opacity:1;stroke-dasharray:none" />
    <rect
       y="-277.70352"
       x="38.386631"
       width="84.745575"
       style="font-size:12px;fill:#191a19;fill-opacity:1;fill-rule:evenodd;stroke:#000000;stroke-width:2.90541506;stroke-opacity:1"
       ry="12.840112"
       id="rect2176-5-3"
       height="38.520691"
       transform="matrix(-0.62405702,0.78137881,-0.78137881,-0.62405702,0,0)" />
    <path
       transform="matrix(-1.8131447,2.2702298,-2.2702298,-1.8131447,2574.6514,922.23953)"
       style="fill:url(#radialGradient5171);fill-opacity:1;fill-rule:evenodd;stroke:#000000;stroke-width:1pt;stroke-linecap:butt;stroke-linejoin:miter;stroke-opacity:1"
       sodipodi:type="arc"
       sodipodi:ry="3.8670044"
       sodipodi:rx="3.977478"
       sodipodi:cy="801.00787"
       sodipodi:cx="332.7821"
       id="path2178-7-7"
       d="m 336.75958,801.00787 a 3.977478,3.8670044 0 1 1 -7.95495,0 3.977478,3.8670044 0 1 1 7.95495,0 z" />
    <path
       sodipodi:type="arc"
       style="fill:none;stroke:#000000;stroke-width:4.76599979;stroke-miterlimit:4;stroke-opacity:1;stroke-dasharray:none;display:inline"
       id="path17009-1"
       sodipodi:cx="234.28572"
       sodipodi:cy="305.21933"
       sodipodi:rx="18.571428"
       sodipodi:ry="18.571428"
       d="m 252.85715,305.21933 a 18.571428,18.571428 0 1 1 -37.14286,0 18.571428,18.571428 0 1 1 37.14286,0 z"
       transform="matrix(1.9656554,0,0,1.9656554,-177.71722,-285.6865)" />
    <path
       inkscape:connector-curvature="0"
       style="fill:none;stroke:#000000;stroke-width:1.96565521px;stroke-linecap:butt;stroke-linejoin:miter;stroke-opacity:1;display:inline"
       d="M 278.68531,277.75264 266.77162,84.155486"
       id="path17011-3" />
    <path
       inkscape:connector-curvature="0"
       style="fill:none;stroke:#000000;stroke-width:1.96565521px;stroke-linecap:butt;stroke-linejoin:miter;stroke-opacity:1;display:inline"
       d="M 286.62777,280.73106 311.44792,87.133902"
       id="path17013-8" />
    <path
       inkscape:connector-curvature="0"
       style="fill:none;stroke:#000000;stroke-width:1.96565521px;stroke-linecap:butt;stroke-linejoin:miter;stroke-opacity:1;display:inline"
       d="M 295.56302,281.72386 362.081,100.04039"
       id="path17015-7" />
    <path
       inkscape:connector-curvature="0"
       style="fill:none;stroke:#000000;stroke-width:1.96565521px;stroke-linecap:butt;stroke-linejoin:miter;stroke-opacity:1;display:inline"
       d="m 304.49827,283.70947 102.259,-160.83454"
       id="path17017-4" />
    <path
       inkscape:connector-curvature="0"
       style="fill:none;stroke:#000000;stroke-width:1.96565521px;stroke-linecap:butt;stroke-linejoin:miter;stroke-opacity:1;display:inline"
       d="M 310.45508,289.66633 438.52706,148.68788"
       id="path17019-2" />
    <path
       inkscape:connector-curvature="0"
       style="fill:none;stroke:#000000;stroke-width:1.96565521px;stroke-linecap:butt;stroke-linejoin:miter;stroke-opacity:1;display:inline"
       d="M 317.40472,297.60877 469.30405,177.47925"
       id="path17021-7" />
    <path
       inkscape:connector-curvature="0"
       style="fill:none;stroke:#000000;stroke-width:1.96565521px;stroke-linecap:butt;stroke-linejoin:miter;stroke-opacity:1;display:inline"
       d="M 319.39035,307.53681 496.1098,227.11953"
       id="path17023-7" />
    <path
       inkscape:connector-curvature="0"
       style="fill:none;stroke:#000000;stroke-width:1.96565521px;stroke-linecap:butt;stroke-linejoin:miter;stroke-opacity:1;display:inline"
       d="M 320.38314,317.46486 511.99468,300.58717"
       id="path17025-9" />
    <path
       inkscape:connector-curvature="0"
       style="fill:none;stroke:#000000;stroke-width:1.96565521px;stroke-linecap:butt;stroke-linejoin:miter;stroke-opacity:1;display:inline"
       d="M 299.53424,85.148291 259.822,282.71667"
       id="path17027-3" />
    <path
       inkscape:connector-curvature="0"
       style="fill:none;stroke:#000000;stroke-width:1.96565521px;stroke-linecap:butt;stroke-linejoin:miter;stroke-opacity:1;display:inline"
       d="M 276.6997,279.73825 399.80763,116.91808"
       id="path17029-1" />
    <path
       inkscape:connector-curvature="0"
       style="fill:none;stroke:#000000;stroke-width:1.96565521px;stroke-linecap:butt;stroke-linejoin:miter;stroke-opacity:1;display:inline"
       d="M 315.41911,297.60877 504.05224,253.92529"
       id="path17031-9" />
    <path
       inkscape:connector-curvature="0"
       style="fill:none;stroke:#000000;stroke-width:1.96565521px;stroke-linecap:butt;stroke-linejoin:miter;stroke-opacity:1;display:inline"
       d="m 317.40472,325.40731 186.64752,42.69063"
       id="path17033-8" />
    <path
       inkscape:connector-curvature="0"
       style="fill:none;stroke:#000000;stroke-width:1.96565521px;stroke-linecap:butt;stroke-linejoin:miter;stroke-opacity:1;display:inline"
       d="m 313.43353,337.32099 171.75542,88.35974"
       id="path17035-6" />
    <path
       inkscape:connector-curvature="0"
       style="fill:none;stroke:#000000;stroke-width:1.96565521px;stroke-linecap:butt;stroke-linejoin:miter;stroke-opacity:1;display:inline"
       d="M 304.49827,345.26345 448.4551,476.31379"
       id="path17037-5" />
    <path
       inkscape:connector-curvature="0"
       style="fill:none;stroke:#000000;stroke-width:1.96565521px;stroke-linecap:butt;stroke-linejoin:miter;stroke-opacity:1;display:inline"
       d="M 299.53424,348.24187 402.78605,510.06918"
       id="path17039-0" />
    <path
       inkscape:connector-curvature="0"
       style="fill:none;stroke:#000000;stroke-width:1.96565521px;stroke-linecap:butt;stroke-linejoin:miter;stroke-opacity:1;display:inline"
       d="m 290.59899,349.23464 50.6331,187.64031"
       id="path17041-2" />
    <path
       inkscape:connector-curvature="0"
       style="fill:none;stroke:#000000;stroke-width:1.96565521px;stroke-linecap:butt;stroke-linejoin:miter;stroke-opacity:1;display:inline"
       d="m 281.66372,349.23464 -1.98559,194.58994"
       id="path17043-8" />
    <path
       inkscape:connector-curvature="0"
       style="fill:none;stroke:#000000;stroke-width:1.96565521px;stroke-linecap:butt;stroke-linejoin:miter;stroke-opacity:1;display:inline"
       d="M 270.74286,348.24187 211.17451,530.91813"
       id="path17045-6" />
    <path
       inkscape:connector-curvature="0"
       style="fill:none;stroke:#000000;stroke-width:1.96565521px;stroke-linecap:butt;stroke-linejoin:miter;stroke-opacity:1;display:inline"
       d="M 259.822,339.3066 146.64213,502.12677"
       id="path17047-0" />
    <path
       inkscape:connector-curvature="0"
       style="fill:none;stroke:#000000;stroke-width:1.96565521px;stroke-linecap:butt;stroke-linejoin:miter;stroke-opacity:1;display:inline"
       d="M 252.87236,335.33538 96.009055,448.51524"
       id="path17049-2" />
    <path
       inkscape:connector-curvature="0"
       style="fill:none;stroke:#000000;stroke-width:1.96565521px;stroke-linecap:butt;stroke-linejoin:miter;stroke-opacity:1;display:inline"
       d="M 248.90112,328.38574 64.239262,377.03321"
       id="path17051-4" />
    <path
       inkscape:connector-curvature="0"
       style="fill:none;stroke:#000000;stroke-width:1.96565521px;stroke-linecap:butt;stroke-linejoin:miter;stroke-opacity:1;display:inline"
       d="M 250.88673,319.45047 52.325579,305.5512"
       id="path17053-8" />
    <path
       inkscape:connector-curvature="0"
       style="fill:none;stroke:#000000;stroke-width:1.96565521px;stroke-linecap:butt;stroke-linejoin:miter;stroke-opacity:1;display:inline"
       d="M 247.90835,303.56557 64.239262,235.06197"
       id="path17055-6" />
    <path
       inkscape:connector-curvature="0"
       style="fill:none;stroke:#000000;stroke-width:1.96565521px;stroke-linecap:butt;stroke-linejoin:miter;stroke-opacity:1;display:inline"
       d="M 251.87953,291.65194 111.89393,159.60872"
       id="path17057-5" />
    <path
       inkscape:connector-curvature="0"
       style="fill:none;stroke:#000000;stroke-width:1.96565521px;stroke-linecap:butt;stroke-linejoin:miter;stroke-opacity:1;display:inline"
       d="M 255.85077,286.68789 179.4047,110.96125"
       id="path17059-0" />
    <path
       inkscape:connector-curvature="0"
       style="fill:none;stroke:#000000;stroke-width:1.96565521px;stroke-linecap:butt;stroke-linejoin:miter;stroke-opacity:1;display:inline"
       d="M 322.36877,311.50803 464.34,453.47925"
       id="path17061-9" />
    <path
       inkscape:connector-curvature="0"
       style="fill:none;stroke:#000000;stroke-width:1.96565521px;stroke-linecap:butt;stroke-linejoin:miter;stroke-opacity:1;display:inline"
       d="m 318.39754,324.41452 44.67629,205.51077"
       id="path17063-0" />
    <path
       inkscape:connector-curvature="0"
       style="fill:none;stroke:#000000;stroke-width:1.96565521px;stroke-linecap:butt;stroke-linejoin:miter;stroke-opacity:1;display:inline"
       d="M 311.44792,338.31379 195.2896,525.95409"
       id="path17065-0" />
    <path
       inkscape:connector-curvature="0"
       style="fill:none;stroke:#000000;stroke-width:1.96565521px;stroke-linecap:butt;stroke-linejoin:miter;stroke-opacity:1;display:inline"
       d="M 317.40472,332.35696 263.79323,544.81741"
       id="path17067-6" />
    <path
       inkscape:connector-curvature="0"
       style="fill:none;stroke:#000000;stroke-width:1.96565521px;stroke-linecap:butt;stroke-linejoin:miter;stroke-opacity:1;display:inline"
       d="M 293.57739,347.24904 114.87234,468.37135"
       id="path17069-1" />
    <path
       inkscape:connector-curvature="0"
       style="fill:none;stroke:#000000;stroke-width:1.96565521px;stroke-linecap:butt;stroke-linejoin:miter;stroke-opacity:1;display:inline"
       d="M 272.72847,350.22746 53.318402,347.24904"
       id="path17071-3" />
    <path
       inkscape:connector-curvature="0"
       style="fill:none;stroke:#000000;stroke-width:1.96565521px;stroke-linecap:butt;stroke-linejoin:miter;stroke-opacity:1;display:inline"
       d="M 284.64216,351.22027 73.174512,414.75983"
       id="path17073-8" />
    <path
       inkscape:connector-curvature="0"
       style="fill:none;stroke:#000000;stroke-width:4.09625006;stroke-linecap:butt;stroke-linejoin:miter;stroke-miterlimit:4;stroke-opacity:1;stroke-dasharray:none;display:inline"
       d="M 253.86514,336.32818 81.116955,203.29218"
       id="path17075-9" />
    <path
       inkscape:connector-curvature="0"
       style="fill:none;stroke:#000000;stroke-width:1.96565521px;stroke-linecap:butt;stroke-linejoin:miter;stroke-opacity:1;display:inline"
       d="M 261.8076,344.27063 57.289606,264.84615"
       id="path17077-3" />
    <path
       inkscape:connector-curvature="0"
       style="fill:none;stroke:#000000;stroke-width:1.96565521px;stroke-linecap:butt;stroke-linejoin:miter;stroke-opacity:1;display:inline"
       d="M 250.88673,298.60154 224.081,92.097947"
       id="path17079-4" />
    <path
       inkscape:connector-curvature="0"
       style="fill:none;stroke:#000000;stroke-width:1.96565521px;stroke-linecap:butt;stroke-linejoin:miter;stroke-opacity:1;display:inline"
       d="M 252.87236,334.34257 200.25363,101.03318"
       id="path17081-4" />
    <path
       inkscape:connector-curvature="0"
       style="fill:none;stroke:#000000;stroke-width:1.54308879px;stroke-linecap:butt;stroke-linejoin:miter;stroke-opacity:1;display:inline"
       d="M 243.57538,301.29737 141.46679,129.61327"
       id="path17083-6" />
    <path
       inkscape:connector-curvature="0"
       style="fill:none;stroke:#000000;stroke-width:1.96565521px;stroke-linecap:butt;stroke-linejoin:miter;stroke-opacity:1;display:inline"
       d="M 300.52705,283.70947 500.08102,396.88933"
       id="path17085-0" />
    <path
       inkscape:connector-curvature="0"
       style="fill:none;stroke:#000000;stroke-width:1.96565521px;stroke-linecap:butt;stroke-linejoin:miter;stroke-opacity:1;display:inline"
       d="m 289.60619,280.73106 220.40288,47.65468"
       id="path17087-6" />
    <rect
       style="fill:#000000;fill-opacity:1;stroke:#000000;stroke-width:4.7686801;stroke-miterlimit:4;stroke-opacity:1;stroke-dasharray:none;display:inline"
       id="rect22150-6"
       width="31.585157"
       height="11.018077"
       x="-90.79673"
       y="178.47227"
       rx="5.1417689"
       ry="5.1417689"
       inkscape:transform-center-y="-94.664068"
       inkscape:transform-center-x="-2.6854054"
       transform="matrix(-0.85895356,0.51205349,0.51205349,0.85895356,0,0)" />
    <path
       inkscape:connector-curvature="0"
       style="fill:none;stroke:#000000;stroke-width:4.32444191;stroke-linecap:butt;stroke-linejoin:miter;stroke-miterlimit:4;stroke-opacity:1;display:inline"
       d="m 314.85944,336.0752 -36.5182,34.08213"
       id="path23142-1" />
    <rect
       style="fill:#ffffff;fill-opacity:1;stroke:#000000;stroke-width:4.09625006;stroke-miterlimit:4;stroke-opacity:1;stroke-dasharray:none;display:inline"
       id="rect17133-8"
       width="667.9364"
       height="36.599255"
       x="-346.12201"
       y="-323.20267"
       rx="13.476954"
       ry="23.852505"
       transform="matrix(-0.05885374,0.99826662,-0.99826662,-0.05885374,0,0)"
       inkscape:transform-center-y="-6.199204"
       inkscape:transform-center-x="-3.2904899e-05" />
    <rect
       height="38.216721"
       id="rect2064-1-5"
       ry="12.738791"
       style="font-size:12px;fill:#191a19;fill-opacity:1;fill-rule:evenodd;stroke:#000000;stroke-width:2.88248849;stroke-opacity:1"
       width="84.076851"
       x="-1.8173078"
       y="-600.70337"
       transform="matrix(-0.67172329,0.74080215,-0.74080215,-0.67172329,0,0)" />
    <path
       inkscape:connector-curvature="0"
       style="font-size:12px;fill:#ffffff;fill-opacity:1;fill-rule:evenodd;stroke:#000000;stroke-width:4.09625006;stroke-miterlimit:4;stroke-opacity:1;stroke-dasharray:none"
       sodipodi:nodetypes="ccccccc"
       id="path2068-8-9"
       d="m 277.74419,312.51601 c -6.85263,8.06842 -8.73688,21.82791 1.35142,30.39611 l 109.26938,87.79148 c 10.50064,8.08256 18.6791,8.02604 25.53192,-0.0426 6.02853,-7.09778 6.07052,-15.73633 -3.60522,-24.78998 L 307.69195,311.21019 c -10.08808,-8.568 -23.09455,-6.76324 -29.94776,1.30582 z" />
    <path
       inkscape:connector-curvature="0"
       d="m 181.81177,-347.05928 c 26.1582,24.37887 186.61256,28.18978 223.63225,28.18978 46.82848,-2.45229 60.49031,-37.7463 60.49031,-62.12517 0,-24.37887 -14.908,-52.3282 -56.39542,-35.15728 -10.05901,4.16325 -326.948382,11.65037 -227.72714,69.09267 z"
       id="path2086-29-8"
       sodipodi:nodetypes="cccsc"
       style="font-size:12px;fill:#ffffff;fill-opacity:1;fill-rule:evenodd;stroke:#000000;stroke-width:4.09625006;stroke-miterlimit:4;stroke-opacity:1;stroke-dasharray:none" />
  </g>
</svg>
