<?xml version="1.0" encoding="UTF-8" standalone="no"?>
<!-- Created with Inkscape (http://www.inkscape.org/) -->

<svg
   xmlns:dc="http://purl.org/dc/elements/1.1/"
   xmlns:cc="http://creativecommons.org/ns#"
   xmlns:rdf="http://www.w3.org/1999/02/22-rdf-syntax-ns#"
   xmlns:svg="http://www.w3.org/2000/svg"
   xmlns="http://www.w3.org/2000/svg"
   xmlns:sodipodi="http://sodipodi.sourceforge.net/DTD/sodipodi-0.dtd"
   xmlns:inkscape="http://www.inkscape.org/namespaces/inkscape"
   width="347.66293"
   height="395.04779"
   id="svg3120"
   version="1.1"
   inkscape:version="0.48.1 "
   sodipodi:docname="Waveski Down Wave.svg">
  <defs
     id="defs3122">
    <inkscape:path-effect
       effect="spiro"
       id="path-effect2899"
       is_visible="true" />
    <inkscape:path-effect
       effect="spiro"
       id="path-effect3689-4"
       is_visible="true" />
    <inkscape:path-effect
       effect="spiro"
       id="path-effect3718-0"
       is_visible="true" />
    <inkscape:path-effect
       effect="spiro"
       id="path-effect3718-0-9"
       is_visible="true" />
    <inkscape:path-effect
       effect="spiro"
       id="path-effect3830"
       is_visible="true" />
    <inkscape:path-effect
       effect="spiro"
       id="path-effect2840-7"
       is_visible="true" />
    <inkscape:path-effect
       effect="spiro"
       id="path-effect3772-8-8"
       is_visible="true" />
    <inkscape:path-effect
       effect="spiro"
       id="path-effect3826"
       is_visible="true" />
    <inkscape:path-effect
       effect="spiro"
       id="path-effect3834"
       is_visible="true" />
    <inkscape:path-effect
       effect="spiro"
       id="path-effect3838-4"
       is_visible="true" />
    <inkscape:path-effect
       effect="spiro"
       id="path-effect2870"
       is_visible="true" />
    <inkscape:path-effect
       effect="spiro"
       id="path-effect3867-4-1"
       is_visible="true" />
    <inkscape:path-effect
       effect="spiro"
       id="path-effect2904"
       is_visible="true" />
    <inkscape:path-effect
       effect="spiro"
       id="path-effect2909"
       is_visible="true" />
    <inkscape:path-effect
       effect="spiro"
       id="path-effect2913"
       is_visible="true" />
    <inkscape:path-effect
       effect="spiro"
       id="path-effect2987-9-4"
       is_visible="true" />
    <inkscape:path-effect
       effect="spiro"
       id="path-effect3821"
       is_visible="true" />
    <inkscape:path-effect
       effect="spiro"
       id="path-effect2832-1-2-7-0"
       is_visible="true" />
    <inkscape:path-effect
       effect="spiro"
       id="path-effect3041"
       is_visible="true" />
    <inkscape:path-effect
       effect="spiro"
       id="path-effect3045-8"
       is_visible="true" />
  </defs>
  <sodipodi:namedview
     id="base"
     pagecolor="#ffffff"
     bordercolor="#666666"
     borderopacity="1.0"
     inkscape:pageopacity="0.0"
     inkscape:pageshadow="2"
     inkscape:zoom="0.35"
     inkscape:cx="183.11501"
     inkscape:cy="341.38461"
     inkscape:document-units="px"
     inkscape:current-layer="layer1"
     showgrid="false"
     fit-margin-top="0"
     fit-margin-left="0"
     fit-margin-right="0"
     fit-margin-bottom="0"
     inkscape:window-width="750"
     inkscape:window-height="425"
     inkscape:window-x="1705"
     inkscape:window-y="25"
     inkscape:window-maximized="0" />
  <metadata
     id="metadata3125">
    <rdf:RDF>
      <cc:Work
         rdf:about="">
        <dc:format>image/svg+xml</dc:format>
        <dc:type
           rdf:resource="http://purl.org/dc/dcmitype/StillImage" />
        <dc:title></dc:title>
      </cc:Work>
    </rdf:RDF>
  </metadata>
  <g
     inkscape:label="Layer 1"
     inkscape:groupmode="layer"
     id="layer1"
     transform="translate(-191.88499,-254.69407)">
    <g
       transform="translate(-16.014675,-36.337176)"
       style="display:inline"
       id="g3865">
      <path
         inkscape:connector-curvature="0"
         sodipodi:nodetypes="caaaaaaacacssaaaaaaaac"
         inkscape:original-d="m 222.24399,681.84453 c 0,0 -7.40348,-11.66692 -9.15451,-18.24072 -3.21553,-12.07185 -3.43489,-25.00163 -2.07892,-37.42059 1.95272,-17.88436 7.70015,-35.33846 14.55245,-51.97305 9.21622,-22.37322 21.98476,-43.23058 35.34167,-63.40711 10.90363,-16.47069 23.30868,-31.9675 36.38114,-46.77574 13.29579,-15.06123 27.73132,-29.12683 42.6179,-42.6179 12.95208,-11.73792 26.04602,-23.49085 40.53897,-33.26274 14.39867,-9.70834 45.73627,-24.94707 45.73627,-24.94707 0,0 19.22966,-6.84007 29.1049,-9.35514 8.66816,-2.20765 26.36296,-5.0091 26.36296,-5.0091 0,0 3.98663,21.60376 3.87553,29.57972 -0.2032,14.58811 4.79844,-10.25698 -2.26715,27.96706 -2.5505,13.79791 -5.31071,28.29627 -9.73157,41.95488 -4.90392,15.15103 -11.38132,29.80389 -18.52208,44.03806 -7.8826,15.71293 -16.9621,30.84735 -26.74366,45.45395 -7.98177,11.919 -16.98363,23.13444 -25.98652,34.30222 -10.02434,12.43485 -20.33148,24.66192 -31.18383,36.38112 -9.65511,10.42633 -19.36949,20.87984 -30.14437,30.14437 -10.5887,9.10444 -21.43948,18.21701 -33.72901,24.84867 -16.76295,9.0456 -34.76138,16.93873 -53.5857,19.84815 -10.35068,1.59977 -31.38447,-1.50904 -31.38447,-1.50904 z"
         inkscape:path-effect="#path-effect2899"
         id="path2897"
         d="m 222.24399,681.84453 c -4.03259,-5.51784 -7.14023,-11.70995 -9.15451,-18.24072 -3.71019,-12.02933 -3.65904,-24.93165 -2.07892,-37.42059 2.26512,-17.90311 7.58759,-35.32545 14.55245,-51.97305 9.35517,-22.36098 21.66505,-43.39504 35.34167,-63.40711 11.15287,-16.31923 23.24128,-32.00929 36.38114,-46.77574 13.36121,-15.0152 27.78723,-29.05217 42.6179,-42.6179 12.90767,-11.80675 26.16499,-23.29299 40.53897,-33.26274 14.29677,-9.9162 29.6588,-18.29549 45.73627,-24.94707 9.48304,-3.75063 19.21254,-6.87797 29.1049,-9.35514 8.68176,-2.17402 17.48885,-3.84741 26.36296,-5.0091 2.47152,9.65694 3.77584,19.61203 3.87553,29.57972 0.0936,9.36252 -0.87093,18.70876 -2.26715,27.96706 -2.14319,14.21148 -5.31,28.27975 -9.73157,41.95488 -4.90419,15.16779 -11.33638,29.80856 -18.52208,44.03806 -7.93012,15.70364 -16.79473,30.94499 -26.74366,45.45395 -8.11458,11.83384 -16.93903,23.16538 -25.98652,34.30222 -10.07252,12.39858 -20.43067,24.568 -31.18383,36.38112 -9.57061,10.514 -19.4663,20.75716 -30.14437,30.14437 -10.50201,9.23243 -21.75512,17.62676 -33.72901,24.84867 -16.43788,9.91431 -34.5126,17.67692 -53.5857,19.84815 -10.45168,1.18979 -21.09516,0.67803 -31.38447,-1.50904"
         style="fill:#ffffff;stroke:#000000;stroke-width:4.18818903;stroke-linecap:butt;stroke-linejoin:miter;stroke-miterlimit:4;stroke-opacity:1;stroke-dasharray:none;display:inline" />
      <path
         inkscape:connector-curvature="0"
         sodipodi:nodetypes="caacccccaccccaaaaac"
         inkscape:original-d="m 475.51272,357.52749 c 0,0 -15.90048,2.54966 -23.63383,4.72677 -9.69223,2.72858 -19.25289,6.1054 -28.3606,10.39889 -13.54136,6.38357 -26.50747,14.08579 -38.75949,22.68848 -28.53653,22.11878 -55.62317,46.46634 -80.35503,72.7922 -20.94215,25.05026 -32.54209,37.05566 -49.15837,65.22938 -6.96365,12.42082 -21.47689,39.60416 -26.4699,52.93979 -5.73005,17.10306 -11.23352,34.81897 -12.28959,52.93978 -0.13071,7.62056 1.15008,15.25561 2.83606,22.68848 1.32259,5.83082 5.67212,17.01636 5.67212,17.01636 0,0 16.42251,-0.11216 24.57919,-0.94535 16.62298,-0.76636 33.77078,-8.10426 48.21302,-16.07101 22.4825,-13.96306 42.66587,-31.53165 61.44796,-50.10372 14.23794,-14.5211 27.16489,-30.31198 39.70484,-46.32232 13.37193,-17.07257 26.74186,-34.29345 37.81413,-52.93978 11.80109,-19.87371 22.36452,-40.66711 30.25131,-62.39333 4.8767,-13.43414 8.47099,-27.43426 10.39889,-41.59553 1.65834,-12.18127 1.99983,-24.62046 0.94535,-36.86879 -0.41347,-4.80261 -2.83606,-14.1803 -2.83606,-14.1803 z"
         inkscape:path-effect="#path-effect3689-4"
         id="path3687"
         d="m 475.51272,357.52749 c -7.97516,1.0229 -15.87872,2.60362 -23.63383,4.72677 -9.72265,2.66182 -19.20765,6.17531 -28.3606,10.39889 -13.61092,6.28069 -26.46224,14.11631 -38.75949,22.68848 -29.71675,20.71496 -56.25644,45.74681 -80.35503,72.7922 -18.13744,20.35531 -34.98081,41.94199 -49.15837,65.22938 -10.27143,16.87137 -19.1227,34.60501 -26.4699,52.93979 -6.78113,16.92216 -12.33945,34.70956 -12.28959,52.93978 0.0209,7.63933 1.03228,15.26513 2.83606,22.68848 1.41336,5.81662 3.31284,11.51504 5.67212,17.01636 8.19799,0.47767 16.4421,0.16059 24.57919,-0.94535 16.87682,-2.29379 33.2221,-7.98642 48.21302,-16.07101 23.36322,-12.59977 43.24076,-30.78813 61.44796,-50.10372 13.9537,-14.80315 27.07745,-30.37278 39.70484,-46.32232 13.46856,-17.01202 26.39628,-34.48867 37.81413,-52.93978 12.18712,-19.69425 22.64929,-40.51643 30.25131,-62.39333 4.69801,-13.51982 8.29945,-27.43753 10.39889,-41.59553 1.80893,-12.1989 2.49744,-24.63456 0.94535,-36.86879 -0.60718,-4.78609 -1.55573,-9.52884 -2.83606,-14.1803"
         style="fill:none;stroke:#000000;stroke-width:6.31417322;stroke-linecap:butt;stroke-linejoin:miter;stroke-miterlimit:4;stroke-opacity:1;stroke-dasharray:none;display:inline" />
      <path
         inkscape:connector-curvature="0"
         sodipodi:nodetypes="ccaaaaaaac"
         inkscape:original-d="m 262.80822,577.0858 22.68848,18.90706 c 0,0 5.33127,-5.43922 7.56283,-8.50818 2.47119,-3.39851 4.72727,-7.00874 6.38113,-10.87156 1.12868,-2.63616 2.60744,-5.41463 2.36338,-8.27185 -0.20092,-2.35218 -1.48135,-4.63707 -3.07239,-6.38113 -1.23835,-1.35745 -2.956,-2.34559 -4.72677,-2.83606 -3.94789,-1.0935 -8.3303,-1.05145 -12.28959,0 -2.45545,0.65208 -4.65473,2.16832 -6.61748,3.78142 -4.83232,3.97147 -12.28959,14.1803 -12.28959,14.1803 z"
         inkscape:path-effect="#path-effect3718-0"
         id="path3716"
         d="m 262.80822,577.0858 22.68848,18.90706 c 2.80772,-2.56271 5.34698,-5.41937 7.56283,-8.50818 2.45196,-3.41794 4.50159,-7.10835 6.38113,-10.87156 1.29696,-2.59677 2.5447,-5.37488 2.36338,-8.27185 -0.15095,-2.41167 -1.32525,-4.71187 -3.07239,-6.38113 -1.33798,-1.27835 -2.98926,-2.19932 -4.72677,-2.83606 -3.92621,-1.43883 -8.36074,-1.43161 -12.28959,0 -2.39594,0.87304 -4.58203,2.2453 -6.61748,3.78142 -5.02964,3.79579 -9.24721,8.66222 -12.28959,14.1803"
         style="fill:none;stroke:#000000;stroke-width:4.18818903;stroke-linecap:butt;stroke-linejoin:miter;stroke-miterlimit:4;stroke-opacity:1;stroke-dasharray:none;display:inline" />
      <path
         inkscape:connector-curvature="0"
         sodipodi:nodetypes="ccaaaaaaac"
         inkscape:original-d="m 286.44179,597.68062 22.68849,18.90706 c 0,0 5.48485,-5.33322 7.56283,-8.50818 2.47078,-3.77512 4.22916,-8.01476 5.67212,-12.28959 0.69686,-2.06449 1.40206,-4.20226 1.41802,-6.38114 0.0171,-2.33293 -0.33549,-4.78718 -1.41802,-6.85382 -1.06008,-2.02377 -2.65599,-3.99807 -4.72677,-4.9631 -3.43418,-1.60042 -7.75768,-1.93032 -11.34424,-0.70902 -3.17095,1.07978 -5.19982,4.24324 -7.56283,6.61748 -4.4124,4.43336 -12.2896,14.18031 -12.2896,14.18031 z"
         inkscape:path-effect="#path-effect3718-0-9"
         id="path3716-4"
         d="m 286.44179,597.68062 22.68849,18.90706 c 2.92532,-2.43889 5.48372,-5.3171 7.56283,-8.50818 2.46986,-3.79083 4.25062,-7.99426 5.67212,-12.28959 0.68664,-2.07481 1.29647,-4.19904 1.41802,-6.38114 0.13132,-2.35752 -0.3269,-4.75988 -1.41802,-6.85382 -1.0694,-2.05226 -2.73673,-3.78194 -4.72677,-4.9631 -1.69396,-1.00543 -3.62268,-1.61813 -5.58817,-1.74942 -1.96549,-0.13129 -3.96452,0.22142 -5.75607,1.0404 -3.07212,1.40438 -5.36425,4.05303 -7.56283,6.61748 -4.07118,4.74867 -8.16779,9.47553 -12.2896,14.18031"
         style="fill:none;stroke:#000000;stroke-width:4.18818903;stroke-linecap:butt;stroke-linejoin:miter;stroke-miterlimit:4;stroke-opacity:1;stroke-dasharray:none;display:inline" />
      <path
         inkscape:connector-curvature="0"
         inkscape:original-d="m 439.14014,457.75633 -3.02855,10.09518 -6.0571,9.08566 -9.08566,14.13324 -11.1047,-1.00952 -9.08565,-6.0571 30.28552,-34.3236 8.07614,8.07614 z"
         inkscape:path-effect="#path-effect3830"
         id="path3828"
         d="m 439.14014,457.75633 -3.02855,10.09518 c -2.03888,3.01526 -4.05798,6.0439 -6.0571,9.08566 -3.07603,4.68033 -6.10479,9.39173 -9.08566,14.13324 l -11.1047,-1.00952 -9.08565,-6.0571 30.28552,-34.3236 8.07614,8.07614"
         style="fill:none;stroke:#000000;stroke-width:6.31417322;stroke-linecap:butt;stroke-linejoin:miter;stroke-miterlimit:4;stroke-opacity:1;stroke-dasharray:none;display:inline" />
      <path
         inkscape:connector-curvature="0"
         sodipodi:nodetypes="caaaaaassaaaaaaaaaaacccaaaaaaassaaaaaaaacaaaaaaaaaaaaaaaaaacccccccaaaac"
         inkscape:original-d="m 448.9491,441.94892 c 0,0 -7.16175,11.81451 -11.4228,17.22995 -4.56655,5.80371 -10.67686,10.30403 -15.0672,16.24216 -2.95375,3.99507 -4.44074,8.96134 -7.47601,12.89483 -5.0235,6.51009 -11.48805,11.77713 -17.50647,17.38029 -5.46306,5.08611 -11.0556,10.04461 -16.87045,14.72447 -5.76098,4.63651 -12.79168,7.79035 -17.82419,13.20883 -3.31448,3.56868 -6.8337,18.49074 -7.80991,12.34896 -3.03245,-19.07856 -7.23883,11.09243 -11.31155,15.76594 -4.55044,5.22169 -7.6738,9.57271 -11.69898,14.19967 -3.61875,4.15979 -8.0592,7.64326 -11.18697,12.18377 -3.73111,5.41635 -4.56382,12.63736 -8.82409,17.64817 -2.61514,3.07586 -6.01561,5.73967 -9.82087,7.08867 -3.2374,1.14769 -6.9539,1.40336 -10.28819,0.57847 -4.32094,-1.06897 -10.40956,-2.55045 -11.44514,-6.87951 -0.48301,-2.01914 2.02734,-3.64321 3.30824,-5.27707 3.67713,-4.69037 8.31046,-8.54521 12.44436,-12.83842 5.79595,-6.01931 12.38875,-11.37529 17.32786,-18.11549 5.48655,-7.48726 9.63571,-15.9272 13.38971,-24.41653 3.59287,-8.12496 4.50357,-17.35463 8.66393,-25.20416 2.84394,-5.36579 8.95043,-10.82379 10.93323,-14.57332 2.82919,-5.35007 18.76543,-18.44071 11.59358,-21.42471 -4.00884,-5.21695 -20.96788,19.64664 -26.37137,23.40027 -5.67688,3.94355 -7.35933,4.4993 -9.45156,8.07645 -1.45108,2.48097 -0.7889,5.72331 -1.66885,8.45946 -2.52017,7.8363 -6.37931,15.20145 -10.23919,22.47196 -1.82594,3.43936 -4.36816,6.47616 -6.09188,9.96788 -2.34382,4.74784 -3.62968,9.95428 -5.72257,14.81796 -1.56223,3.63049 -2.88046,7.43291 -5.09509,10.70651 -3.47858,5.14192 -7.70726,9.90572 -12.63219,13.68527 -2.14834,1.6487 -5.37894,3.21957 -7.19203,3.77849 -6.93316,2.13728 -4.98152,-0.61463 -7.21629,-2.41433 -2.90406,-2.33867 -6.34387,-2.30293 -6.93388,-5.11349 -0.83405,-3.97309 3.66893,-7.28474 6.06764,-10.56 4.88728,-6.67322 12.80645,-11.02557 16.78192,-18.27906 3.40521,-6.21302 3.58836,-13.70844 5.46441,-20.54054 3.07751,-11.2075 5.6133,-22.59476 9.50056,-33.54777 1.1843,-3.33698 2.57377,-6.61145 4.19631,-9.75872 4.06227,-7.87966 8.96159,-15.30697 13.80803,-22.73012 6.5084,-9.96871 12.90161,-20.07976 20.48667,-29.2559 3.16909,-3.83385 10.39447,-10.70651 10.39447,-10.70651 0,0 -7.80212,-2.30765 -9.82429,-5.46197 -1.84746,-2.88181 -1.53863,-6.89944 -0.78763,-10.23919 0.92875,-4.13025 3.68074,-7.70183 6.30104,-11.02682 3.7937,-4.81396 9.30422,-8.03316 13.38971,-12.60208 6.12511,-6.84989 10.04657,-15.55207 16.54023,-22.05364 5.10106,-5.10727 10.55259,-10.47146 17.30831,-13.01416 6.77063,-2.54831 14.88383,0.951 21.64156,-1.63133 3.92924,-1.50148 6.20752,-5.88465 10.00923,-7.68475 3.01936,-1.42966 6.42703,-2.52304 9.75903,-2.28161 5.19059,0.37609 10.52377,2.38878 14.53146,5.70873 4.5071,3.73366 7.3797,9.35075 9.34883,14.86225 0.95891,2.68391 0.14072,5.78741 1.06425,8.48369 3.29935,9.63263 10.8091,17.27897 15.57871,26.27475 2.31067,4.35807 4.83156,8.68093 6.30104,13.38971 1.42725,4.57344 1.83897,9.41511 2.36289,14.17734 1.06385,9.66994 0.88509,19.43854 1.57526,29.14231 0.63575,8.93857 2.80289,17.82907 2.36289,26.77942 -0.62053,12.62265 -4.00448,24.98529 -7.02059,37.258 -1.09361,4.44993 -2.80605,4.50589 -4.00623,13.15032 -0.43516,3.13425 3.03238,4.83697 0.88554,9.45156 -1.93885,4.69414 -11.71221,9.7453 -11.71221,9.7453 0,0 -10.23697,-5.63832 -12.80223,-10.53293 -1.46757,-2.80017 -2.13184,-5.54654 -1.91425,-8.70048 0.14268,-2.06813 3.99146,-5.31694 3.99146,-5.31694 0,0 7.41896,-4.00325 7.41896,-4.00325 0,0 2.5159,-21.04022 2.31828,-31.60002 -0.13346,-7.13104 -1.41831,-14.19654 -2.36289,-21.26601 -1.12615,-8.42842 -2.2489,-16.87032 -3.93815,-25.20416 -0.43009,-2.12184 -0.59504,-4.37067 -1.57526,-6.30104 -0.9284,-1.82832 -3.93815,-4.72578 -3.93815,-4.72578 z"
         inkscape:path-effect="#path-effect2840-7"
         id="path2838"
         d="m 448.9491,441.94892 c -2.88554,6.28811 -6.75439,12.12381 -11.4228,17.22995 -4.99052,5.45845 -10.91341,10.12285 -15.0672,16.24216 -2.79175,4.11276 -4.70213,8.77 -7.47601,12.89483 -4.60318,6.84505 -11.34211,11.89898 -17.50647,17.38029 -5.58164,4.96316 -10.79356,10.38177 -16.87045,14.72447 -6.03666,4.31395 -12.96288,7.60355 -17.82419,13.20883 -3.19644,3.68562 -5.30616,8.16181 -7.80991,12.34896 -3.32154,5.55477 -7.36376,10.63729 -11.31155,15.76594 -3.74307,4.86269 -7.42439,9.79692 -11.69898,14.19967 -3.84913,3.96453 -8.20523,7.53161 -11.18697,12.18377 -3.5562,5.54845 -4.94227,12.32244 -8.82409,17.64817 -2.42376,3.32532 -5.8519,6.00256 -9.82087,7.08867 -3.32652,0.91031 -6.84094,0.68267 -10.28819,0.57847 -2.51085,-0.0759 -5.10189,-0.0985 -7.40555,-1.10018 -1.15183,-0.50083 -2.21169,-1.25114 -2.96612,-2.25531 -0.75443,-1.00418 -1.18579,-2.27305 -1.07347,-3.52402 0.0949,-1.05662 0.56515,-2.0513 1.18117,-2.915 0.61601,-0.8637 1.37644,-1.6124 2.12707,-2.36207 4.21707,-4.2117 8.25172,-8.60239 12.44436,-12.83842 5.8815,-5.94237 12.09028,-11.59846 17.32786,-18.11549 5.84508,-7.27293 10.41766,-15.5719 13.38971,-24.41653 2.83637,-8.44085 4.26716,-17.46068 8.66393,-25.20416 3.00186,-5.2868 7.25461,-9.73294 10.93323,-14.57332 4.93274,-6.49056 8.85835,-13.74501 11.59358,-21.42471 -7.18798,9.38879 -16.19414,17.38028 -26.37137,23.40027 -1.81209,1.07188 -3.6669,2.08597 -5.34632,3.35567 -1.67943,1.26971 -3.19443,2.82261 -4.10524,4.72078 -1.2495,2.60401 -1.26286,5.59986 -1.66885,8.45946 -1.16709,8.22033 -5.66046,15.54584 -10.23919,22.47196 -2.14883,3.25048 -4.34582,6.48444 -6.09188,9.96788 -2.37423,4.73665 -3.87455,9.85231 -5.72257,14.81796 -1.38112,3.71108 -2.96986,7.3654 -5.09509,10.70651 -3.34398,5.25713 -7.92544,9.60285 -12.63219,13.68527 -1.04376,0.90531 -2.1027,1.80536 -3.29058,2.51102 -1.18789,0.70565 -2.52082,1.21378 -3.90145,1.26747 -1.28121,0.0498 -2.54986,-0.292 -3.73849,-0.77279 -1.18862,-0.48078 -2.31537,-1.10048 -3.4778,-1.64154 -1.33784,-0.62271 -2.72911,-1.1444 -3.98864,-1.91327 -1.25953,-0.76888 -2.40427,-1.82729 -2.94524,-3.20022 -0.40213,-1.02059 -0.44508,-2.16486 -0.20941,-3.2362 0.23568,-1.07134 0.74065,-2.07229 1.38868,-2.95736 1.29607,-1.77016 3.12487,-3.06134 4.88837,-4.36644 6.71344,-4.96838 13.09212,-10.78637 16.78192,-18.27906 3.14083,-6.37792 4.13928,-13.55579 5.46441,-20.54054 2.16924,-11.43408 5.32138,-22.68599 9.50056,-33.54777 1.27194,-3.30579 2.63956,-6.57712 4.19631,-9.75872 3.89913,-7.96884 8.94923,-15.30734 13.80803,-22.73012 6.52517,-9.96849 12.76549,-20.18221 20.48667,-29.2559 3.22584,-3.79091 6.7006,-7.36998 10.39447,-10.70651 -1.97403,0.11653 -3.97857,-0.34063 -5.70688,-1.30151 -1.72832,-0.96088 -3.17456,-2.42225 -4.11741,-4.16046 -0.83605,-1.54131 -1.27483,-3.28311 -1.37399,-5.03376 -0.0992,-1.75066 0.13509,-3.51103 0.58636,-5.20543 1.09948,-4.12824 3.46536,-7.83149 6.30104,-11.02682 4.07044,-4.58669 9.10677,-8.21316 13.38971,-12.60208 6.42484,-6.58383 10.99842,-14.71104 16.54023,-22.05364 2.22519,-2.94825 4.62893,-5.79288 7.48526,-8.13489 2.85634,-2.34201 6.19736,-4.17356 9.82305,-4.87927 3.58327,-0.69745 7.27416,-0.27853 10.92027,-0.0993 3.64611,0.17926 7.44757,0.0832 10.72129,-1.53206 1.89122,-0.93312 3.50991,-2.32872 5.07718,-3.73977 1.56728,-1.41106 3.12107,-2.86435 4.93205,-3.94498 2.90943,-1.73609 6.3739,-2.42188 9.75903,-2.28161 5.28762,0.2191 10.39683,2.40543 14.53146,5.70873 4.66869,3.72998 8.20817,8.99639 9.34883,14.86225 0.54424,2.79876 0.54633,5.67994 1.06425,8.48369 0.93307,5.05119 3.503,9.65613 6.45223,13.86174 2.94923,4.20561 6.31329,8.11521 9.12648,12.41301 2.7112,4.14199 4.9006,8.6415 6.30104,13.38971 1.35773,4.6034 1.9645,9.39446 2.36289,14.17734 0.80759,9.6955 0.77938,19.44584 1.57526,29.14231 0.73326,8.93362 2.16559,17.81793 2.36289,26.77942 0.28032,12.73213 -1.9836,25.56123 -7.02059,37.258 -0.9137,2.12176 -1.9179,4.20759 -2.69767,6.38214 -0.77977,2.17455 -1.33473,4.4582 -1.30856,6.76818 0.0359,3.17086 1.1619,6.29256 0.88554,9.45156 -0.24609,2.81302 -1.6553,5.50647 -3.82594,7.31257 -2.17063,1.8061 -5.07539,2.70215 -7.88627,2.43273 -5.32647,-1.86074 -9.95008,-5.66478 -12.80223,-10.53293 -0.76883,-1.31228 -1.41576,-2.70657 -1.78758,-4.18133 -0.37183,-1.47477 -0.46163,-3.03558 -0.12667,-4.51915 0.50286,-2.22722 1.99314,-4.21238 3.99146,-5.31694 l 7.41896,-4.00325 c 2.0727,-10.38383 2.85337,-21.02488 2.31828,-31.60002 -0.36057,-7.12606 -1.31468,-14.20825 -2.36289,-21.26601 -1.24921,-8.4111 -2.63337,-16.80151 -3.93815,-25.20416 -0.33333,-2.14659 -0.67082,-4.32596 -1.57526,-6.30104 -0.86383,-1.88641 -2.23844,-3.53594 -3.93815,-4.72578"
         style="fill:#000000;stroke:#ffffff;stroke-width:2.41653538;stroke-linecap:butt;stroke-linejoin:miter;stroke-miterlimit:4;stroke-opacity:1;stroke-dasharray:none;display:inline" />
      <path
         inkscape:connector-curvature="0"
         sodipodi:nodetypes="caaaaaccaaacc"
         inkscape:original-d="m 266.11696,566.21423 c 19.98849,14.15289 4.92618,6.29447 8.0355,8.74453 2.54828,2.00797 5.63856,3.21315 8.50818,4.72676 3.73945,1.97241 7.98068,3.1108 11.34424,5.67212 3.37289,2.56842 5.787,6.20264 8.50818,9.45354 2.30616,2.75509 4.02563,6.01996 6.61748,8.50818 2.93322,2.81594 9.92621,7.09014 9.92621,7.09014 l -5.43578,6.38114 c 0,0 -10.4324,-7.14556 -14.88932,-11.58058 -3.97699,-3.95745 -6.12936,-9.59503 -10.39889,-13.23494 -4.9378,-4.20964 -11.85977,-5.51496 -17.01636,-9.45354 -3.67464,-2.80667 -9.68987,-9.92621 -9.68987,-9.92621 37.22194,15.79936 4.26479,-3.1218 4.49043,-6.38114 z"
         inkscape:path-effect="#path-effect3772-8-8"
         id="path3770"
         d="m 266.11696,566.21423 c 2.07532,3.40064 4.82205,6.38974 8.0355,8.74453 2.62212,1.92147 5.53445,3.41357 8.50818,4.72676 3.87658,1.71189 7.93014,3.16168 11.34424,5.67212 3.43058,2.52255 6.03615,5.98637 8.50818,9.45354 2.08782,2.92829 4.12963,5.91118 6.61748,8.50818 2.82921,2.95333 6.21494,5.3717 9.92621,7.09014 l -5.43578,6.38114 c -5.78454,-2.61168 -10.93412,-6.6169 -14.88932,-11.58058 -3.50523,-4.39897 -6.12705,-9.57584 -10.39889,-13.23494 -4.94049,-4.23183 -11.52973,-5.95872 -17.01636,-9.45354 -3.93461,-2.50623 -7.27917,-5.93236 -9.68987,-9.92621 l 4.49043,-6.38114"
         style="fill:#ffffff;stroke:#000000;stroke-width:1px;stroke-linecap:butt;stroke-linejoin:miter;stroke-opacity:1;display:inline" />
      <path
         inkscape:connector-curvature="0"
         inkscape:original-d="m 294.24122,586.06666 -5.19944,6.14479"
         inkscape:path-effect="#path-effect3826"
         id="path3824"
         d="m 294.24122,586.06666 -5.19944,6.14479"
         style="fill:none;stroke:#000000;stroke-width:1px;stroke-linecap:butt;stroke-linejoin:miter;stroke-opacity:1;display:inline" />
      <path
         inkscape:connector-curvature="0"
         sodipodi:nodetypes="caaaccaaaacc"
         inkscape:original-d="m 436.11159,478.9562 c 0,0 -20.51833,-6.06595 -30.4972,-9.89164 -6.87505,-2.63575 -13.71072,-5.4659 -20.18221,-8.97779 -7.44292,-4.03907 -14.82498,-8.38565 -21.30774,-13.83406 -5.45034,-4.58071 -14.54031,-15.64548 -14.54031,-15.64548 l -8.96964,8.67453 c 86.19207,24.14041 10.21555,11.42786 16.05255,16.35581 5.13439,4.33476 10.76606,8.08946 16.5512,11.50768 6.92072,4.0892 14.16597,7.67029 21.611,10.70171 7.17296,2.92063 14.76296,4.69106 22.10152,7.16635 3.95158,1.33287 11.80687,4.13779 11.80687,4.13779 l 7.37396,-10.1949 z"
         inkscape:path-effect="#path-effect3834"
         id="path3832"
         d="m 436.11159,478.9562 c -10.34174,-2.71745 -20.52926,-6.02172 -30.4972,-9.89164 -6.86706,-2.66604 -13.63453,-5.60256 -20.18221,-8.97779 -7.54275,-3.88818 -14.81161,-8.37409 -21.30774,-13.83406 -5.46398,-4.59245 -10.35972,-9.8603 -14.54031,-15.64548 l -8.96964,8.67453 c 4.75031,6.00089 10.14161,11.49403 16.05255,16.35581 5.19443,4.27244 10.78097,8.05221 16.5512,11.50768 6.90517,4.13511 14.09635,7.81891 21.611,10.70171 7.23232,2.77449 14.72736,4.79441 22.10152,7.16635 3.97044,1.27711 7.90782,2.65699 11.80687,4.13779 l 7.37396,-10.1949"
         style="fill:#ffffff;stroke:#000000;stroke-width:2.77086616;stroke-linecap:butt;stroke-linejoin:miter;stroke-miterlimit:4;stroke-opacity:1;stroke-dasharray:none;display:inline" />
      <path
         inkscape:connector-curvature="0"
         inkscape:original-d="m 341.47339,436.13312 7.2783,2.72936 9.70439,0.90979 -3.63915,-10.00766 -9.09787,1.21305 -4.24567,5.15546 z"
         inkscape:path-effect="#path-effect3838-4"
         id="path3836"
         d="m 341.47339,436.13312 7.2783,2.72936 9.70439,0.90979 -3.63915,-10.00766 -9.09787,1.21305 -4.24567,5.15546"
         style="fill:#000000;stroke:none;display:inline" />
      <path
         inkscape:connector-curvature="0"
         sodipodi:nodetypes="caaaaaaaaaaaaaaac"
         inkscape:original-d="m 414.19563,358.8209 c 0,0 -4.86927,5.45062 -6.69238,8.58901 -1.33447,2.29721 -2.45998,4.77594 -3.0346,7.36974 -0.68832,3.10705 -0.46715,6.3551 -0.43351,9.53731 0.023,2.17226 0.56676,4.33442 0.43351,6.50271 -0.0942,1.53282 -0.54441,3.02337 -0.86702,4.52481 -0.37643,1.75192 -1.64275,3.48174 -1.24636,5.22925 0.34947,1.54064 2.35603,2.23373 2.98041,3.68488 0.86428,2.00871 -0.10177,4.54227 0.86703,6.50271 1.08645,2.19853 3.06816,3.99391 5.20217,5.20217 2.07389,1.17421 4.55967,1.9124 6.93622,1.73405 3.74659,-0.28117 7.20466,-2.36587 10.40434,-4.33514 4.5384,-2.79319 8.22834,-6.7835 12.1384,-10.40433 2.54905,-2.36049 5.26097,-4.60883 7.36974,-7.36974 1.41434,-1.85172 2.22542,-4.09818 3.46811,-6.0692 0.8204,-1.30122 2.02303,-2.37903 2.62818,-3.79325 0.65291,-1.52585 1.0025,-4.87703 1.0025,-4.87703"
         inkscape:path-effect="#path-effect2870"
         id="path2868"
         d="m 414.19563,358.8209 c -2.61438,2.53444 -4.87395,5.43438 -6.69238,8.58901 -1.33162,2.3101 -2.43262,4.77216 -3.0346,7.36974 -0.7215,3.11327 -0.71209,6.3537 -0.43351,9.53731 0.18951,2.16571 0.502,4.3298 0.43351,6.50271 -0.0486,1.54281 -0.29377,3.09163 -0.86702,4.52481 -0.34133,0.85337 -0.79619,1.65995 -1.09925,2.52765 -0.30306,0.86769 -0.44661,1.83267 -0.14711,2.7016 0.25943,0.75266 0.82205,1.35756 1.3959,1.90937 0.57385,0.55182 1.18417,1.08738 1.58451,1.77551 0.55519,0.95431 0.64983,2.10306 0.65523,3.2071 0.005,1.10404 -0.0632,2.22635 0.2118,3.29561 0.31562,1.22716 1.07332,2.31016 2.01021,3.16326 0.9369,0.85311 2.04899,1.49194 3.19196,2.03891 2.16934,1.03814 4.53164,1.77597 6.93622,1.73405 1.90934,-0.0333 3.7884,-0.55885 5.52545,-1.35216 1.73705,-0.79331 3.34154,-1.85018 4.87889,-2.98298 4.29174,-3.16238 8.09559,-6.92937 12.1384,-10.40433 2.64379,-2.27245 5.43574,-4.46917 7.36974,-7.36974 1.2933,-1.93966 2.16208,-4.13809 3.46811,-6.0692 0.86259,-1.27544 1.91287,-2.42975 2.62818,-3.79325 0.78122,-1.48914 1.133,-3.20048 1.0025,-4.87703"
         style="fill:none;stroke:#ffffff;stroke-width:2.41653538;stroke-linecap:butt;stroke-linejoin:miter;stroke-miterlimit:4;stroke-opacity:1;stroke-dasharray:none;display:inline" />
      <path
         inkscape:connector-curvature="0"
         inkscape:original-d="m 380.29097,407.62646 4.8522,8.49134 5.76198,-4.54893 -0.90979,-7.2783 -9.70439,3.33589 z"
         inkscape:path-effect="#path-effect3867-4-1"
         id="path3865"
         d="m 380.29097,407.62646 4.8522,8.49134 5.76198,-4.54893 -0.90979,-7.2783 -9.70439,3.33589"
         style="fill:#000000;stroke:#000000;stroke-width:1px;stroke-linecap:butt;stroke-linejoin:miter;stroke-opacity:1;display:inline" />
      <path
         inkscape:connector-curvature="0"
         sodipodi:nodetypes="ccccc"
         inkscape:original-d="m 371.05749,384.1563 115.84963,202.51628 -3.14493,2.57926 -116.7319,-204.77891 4.0272,-0.31663 z"
         inkscape:path-effect="#path-effect2904"
         id="path2902"
         d="m 371.05749,384.1563 115.84963,202.51628 -3.14493,2.57926 -116.7319,-204.77891 4.0272,-0.31663"
         style="fill:#000000;stroke:#ffffff;stroke-width:1px;stroke-linecap:butt;stroke-linejoin:miter;stroke-opacity:1;display:inline" />
      <path
         inkscape:connector-curvature="0"
         sodipodi:nodetypes="caaascaccaacca"
         inkscape:original-d="m 371.11268,384.71773 c -1.5794,-7.19573 -4.61097,-14.00305 -7.32574,-20.85163 -3.11083,-7.84773 -6.4202,-15.63577 -10.25587,-23.15586 -4.40839,-8.64294 -9.06091,-17.21737 -14.62354,-25.16668 -5.2245,-7.4661 -11.75924,-17.36333 -17.50135,-21.00109 -3.10053,-1.96426 -2.55887,-0.86714 -4.77994,-2.71651 -2.44631,-0.69011 0.15648,4.88659 0.57776,7.28628 0.66183,3.76998 1.81647,7.77049 3.04556,11.07166 2.56688,6.40509 3.65156,8.14887 7.20069,14.05539 2.75718,4.55014 5.42006,9.80102 8.34974,14.57119 3.29203,5.36013 6.92618,10.50254 10.36057,15.77259 3.95437,6.06796 7.61888,12.33066 11.79689,18.24686 3.80226,5.85048 8.18579,11.16568 13.51195,15.66058 0,0 -0.0859,-2.53895 -0.35672,-3.77278 z"
         inkscape:path-effect="#path-effect2909"
         id="path2907"
         d="m 371.11268,384.71773 c -1.07843,-7.31258 -4.34214,-14.08887 -7.32574,-20.85163 -3.40793,-7.72456 -6.50097,-15.59389 -10.25587,-23.15586 -4.31682,-8.69361 -9.4842,-16.93254 -14.62354,-25.16668 -4.86172,-7.78934 -9.92184,-15.81833 -17.50135,-21.00109 -1.51453,-1.03561 -3.11516,-1.94527 -4.77994,-2.71651 0.0105,2.43864 0.2038,4.87647 0.57776,7.28628 0.58821,3.79041 1.62385,7.50909 3.04556,11.07166 1.95272,4.89319 4.61729,9.46382 7.20069,14.05539 2.74522,4.87918 5.41079,9.80619 8.34974,14.57119 3.30233,5.35416 6.94236,10.49165 10.36057,15.77259 3.93612,6.08109 7.58081,12.35641 11.79689,18.24686 4.01837,5.61422 8.54705,10.86303 13.51195,15.66058 -0.0532,-1.26265 -0.17234,-2.52253 -0.35672,-3.77278"
         style="fill:#000000;stroke:#ffffff;stroke-width:1px;stroke-linecap:butt;stroke-linejoin:miter;stroke-opacity:1;display:inline" />
      <path
         inkscape:connector-curvature="0"
         sodipodi:nodetypes="caaaaaaasccaacc"
         inkscape:original-d="m 483.26685,579.92324 c 0,0 9.28872,4.64742 13.67737,7.40857 5.757,3.62206 11.67719,7.19868 16.52681,11.9677 10.15839,9.98957 17.9067,22.23088 25.64506,34.19341 4.47964,6.92496 9.27651,13.85968 11.96769,21.65582 1.94637,5.63849 5.14656,12.16168 2.84945,17.6666 -1.88791,4.52428 -7.51695,6.49305 -11.96769,8.54835 -4.97757,2.29858 -10.47862,3.77045 -15.95692,3.98923 -4.61833,0.18444 -10.86134,-0.68742 -13.67737,-2.27956 -14.58836,-8.24804 -5.43825,-3.21726 -9.11824,-6.83868 -7.3559,-11.67424 -14.89389,-23.78763 -20.51605,-36.47297 -3.67214,-9.15442 -6.91563,-18.68847 -7.97846,-28.49451 -0.7176,-6.62079 -0.11412,-13.4057 1.13978,-19.94616 0.79174,-4.12981 3.98923,-11.96769 3.98923,-11.96769 l 3.41934,0.56989 z"
         inkscape:path-effect="#path-effect2913"
         id="path2911"
         d="m 483.26685,579.92324 c 4.67038,2.25632 9.23604,4.72938 13.67737,7.40857 5.83295,3.51868 11.46767,7.40596 16.52681,11.9677 10.62449,9.57992 18.41705,21.84794 25.64506,34.19341 4.16762,7.1183 8.19523,14.32044 11.96769,21.65582 1.41689,2.75508 2.80941,5.56054 3.51727,8.57666 0.70787,3.01612 0.6812,6.301 -0.66782,9.08994 -1.09536,2.26453 -2.99409,4.06595 -5.1206,5.40977 -2.12651,1.34382 -4.48746,2.26677 -6.84709,3.13858 -5.16124,1.90693 -10.46682,3.62369 -15.95692,3.98923 -4.65731,0.31009 -9.41206,-0.38381 -13.67737,-2.27956 -3.50133,-1.5562 -6.64392,-3.91314 -9.11824,-6.83868 -8.1749,-11.33873 -15.0711,-23.59864 -20.51605,-36.47297 -3.85693,-9.11952 -7.00758,-18.64063 -7.97846,-28.49451 -0.65571,-6.65508 -0.30319,-13.41639 1.13978,-19.94616 0.90899,-4.11341 2.24838,-8.13157 3.98923,-11.96769 l 3.41934,0.56989"
         style="fill:#000000;stroke:#ffffff;stroke-width:1px;stroke-linecap:butt;stroke-linejoin:miter;stroke-opacity:1;display:inline" />
      <path
         inkscape:connector-curvature="0"
         inkscape:original-d="m 392.42146,417.33085 -6.67177,5.15546 11.82723,22.13815 8.18808,-3.63915 -13.34354,-23.65446 z"
         inkscape:path-effect="#path-effect2987-9-4"
         id="path2985"
         d="m 392.42146,417.33085 -6.67177,5.15546 11.82723,22.13815 8.18808,-3.63915 -13.34354,-23.65446"
         style="fill:#000000;stroke:#000000;stroke-width:1px;stroke-linecap:butt;stroke-linejoin:miter;stroke-opacity:1;display:inline" />
      <path
         inkscape:connector-curvature="0"
         inkscape:original-d="m 458.53265,531.96401 -7.58156,3.94242 13.64681,23.3512 6.67177,-3.94242 -12.73702,-23.3512 z"
         inkscape:path-effect="#path-effect3821"
         id="path3819"
         d="m 458.53265,531.96401 -7.58156,3.94242 13.64681,23.3512 6.67177,-3.94242 -12.73702,-23.3512"
         style="fill:#000000;stroke:#000000;stroke-width:1px;stroke-linecap:butt;stroke-linejoin:miter;stroke-opacity:1;display:inline" />
      <path
         inkscape:connector-curvature="0"
         sodipodi:nodetypes="caaaaaaaaaaaccsc"
         inkscape:original-d="m 339.03701,435.78177 c 0,0 8.46699,2.54895 12.8286,3.1569 6.18766,0.86247 12.48401,0.55744 18.73049,0.66895 3.3442,0.0597 6.76605,-0.71165 10.03419,0 3.79057,0.82541 6.76165,4.17891 10.58446,4.83906 3.12697,0.53999 6.52599,0.32361 9.48392,-0.82539 2.77246,-1.07695 5.69521,-2.79785 7.08059,-5.42979 1.51772,-2.88335 1.03045,-6.54479 0.51249,-9.76176 -0.61974,-3.84915 -0.97021,-8.78691 -4.24834,-10.89735 -3.61235,-2.32561 -8.84251,-0.78855 -12.86912,0.70941 -2.17251,0.80821 -3.32816,3.45275 -5.50532,4.24834 -2.83682,1.03667 -6.04707,0.69469 -9.05235,0.39382 -1.68033,-0.16822 -3.2948,-0.75088 -4.91729,-1.2192 -3.24769,-0.82376 -7.15354,-0.46753 -7.87091,-2.40065 0.11752,-3.89244 -23.37663,1.56374 6.25249,-2.08507 4.66854,-0.57493 12.32423,-5.91684 12.32423,-5.91684"
         inkscape:path-effect="#path-effect2832-1-2-7-0"
         id="path2830"
         d="m 339.03701,435.78177 c 4.18035,1.40049 8.47572,2.45751 12.8286,3.1569 6.18503,0.99377 12.49441,1.26352 18.73049,0.66895 3.35005,-0.31941 6.7862,-0.88059 10.03419,0 1.87746,0.50902 3.5923,1.47743 5.28698,2.43242 1.69469,0.95499 3.41523,1.91561 5.29748,2.40664 3.11785,0.81337 6.45345,0.26951 9.48392,-0.82539 1.43318,-0.5178 2.83122,-1.1619 4.07141,-2.04738 1.24019,-0.88547 2.32118,-2.02271 3.00918,-3.38241 0.74792,-1.47814 1.00656,-3.16389 1.00241,-4.82048 -0.004,-1.65659 -0.25964,-3.30077 -0.48992,-4.94128 -0.27771,-1.97835 -0.52227,-3.97413 -1.12323,-5.87934 -0.60096,-1.90522 -1.59015,-3.73939 -3.12511,-5.01801 -1.78255,-1.48486 -4.20191,-2.10387 -6.51244,-1.89464 -2.31053,0.20924 -4.50905,1.20099 -6.35668,2.60405 -1.85128,1.40583 -3.41104,3.23957 -5.50532,4.24834 -1.38587,0.66754 -2.94061,0.93425 -4.47886,0.94178 -1.53824,0.008 -3.06719,-0.236 -4.57349,-0.54796 -1.65394,-0.34253 -3.2896,-0.7681 -4.91729,-1.2192 -2.64361,-0.73266 -5.2684,-1.53323 -7.87091,-2.40065 2.11141,-0.60946 4.19789,-1.30526 6.25249,-2.08507 4.26556,-1.61898 8.39336,-3.60073 12.32423,-5.91684"
         style="fill:none;stroke:#ffffff;stroke-width:2.77086616;stroke-linecap:butt;stroke-linejoin:miter;stroke-miterlimit:4;stroke-opacity:1;stroke-dasharray:none;display:inline" />
      <path
         inkscape:connector-curvature="0"
         sodipodi:nodetypes="ccccc"
         inkscape:original-d="m 366.64416,381.84916 6.67178,10.91744 0.60652,-0.90979 -5.45872,-11.2207 -1.81958,1.21305 z"
         inkscape:path-effect="#path-effect3041"
         id="path3039"
         d="m 366.64416,381.84916 6.67178,10.91744 0.60652,-0.90979 -5.45872,-11.2207 -1.81958,1.21305"
         style="fill:#000000;stroke:#000000;stroke-width:1px;stroke-linecap:butt;stroke-linejoin:miter;stroke-opacity:1" />
      <path
         inkscape:connector-curvature="0"
         sodipodi:nodetypes="caaaaaaaaaaaac"
         inkscape:original-d="m 458.67206,531.05423 c 0,0 -4.94365,2.31477 -7.22082,3.80301 -1.02365,0.669 -2.18059,1.27584 -2.86877,2.28669 -1.00676,1.4788 -1.48419,3.34426 -1.57379,5.13099 -0.0774,1.5444 0.33713,3.11254 0.90979,4.54894 0.76792,1.92615 2.00531,3.6556 3.31143,5.26613 1.24803,1.5389 2.66325,2.9758 4.27013,4.135 1.75661,1.26722 3.64315,2.55433 5.76198,3.00389 1.58527,0.33635 3.31765,0.21765 4.8522,-0.30326 1.76155,-0.59796 3.37106,-1.7458 4.63087,-3.11456 1.22589,-1.3319 2.24027,-2.97773 2.64743,-4.74153 0.4099,-1.77568 -0.17377,-3.64095 -0.30327,-5.45872 -0.16584,-2.32788 -0.77482,-4.64732 -0.60652,-6.97502 0.12731,-1.76082 1.21305,-5.15546 1.21305,-5.15546"
         inkscape:path-effect="#path-effect3045-8"
         id="path3043"
         d="m 458.67206,531.05423 c -2.48644,1.10839 -4.90025,2.37968 -7.22082,3.80301 -1.04765,0.64258 -2.09452,1.33221 -2.86877,2.28669 -1.14991,1.41759 -1.59115,3.30574 -1.57379,5.13099 0.0148,1.55497 0.33861,3.1026 0.90979,4.54894 0.76511,1.93742 1.96231,3.67904 3.31143,5.26613 1.2853,1.51202 2.71699,2.89971 4.27013,4.135 1.71097,1.36082 3.62174,2.55824 5.76198,3.00389 1.60553,0.33431 3.30003,0.22615 4.8522,-0.30326 1.77822,-0.60651 3.34242,-1.74714 4.63087,-3.11456 1.25797,-1.33508 2.29297,-2.94173 2.64743,-4.74153 0.35428,-1.7989 0.0116,-3.6525 -0.30327,-5.45872 -0.40176,-2.3048 -0.75958,-4.64048 -0.60652,-6.97502 0.11603,-1.76971 0.52779,-3.51968 1.21305,-5.15546"
         style="fill:none;stroke:#ffffff;stroke-width:2.06220484;stroke-linecap:butt;stroke-linejoin:miter;stroke-miterlimit:4;stroke-opacity:1;stroke-dasharray:none;display:inline" />
    </g>
  </g>
</svg>
