<?xml version="1.0" encoding="UTF-8" standalone="no"?>
<!-- Created with Inkscape (http://www.inkscape.org/) -->
<svg
   xmlns:dc="http://purl.org/dc/elements/1.1/"
   xmlns:cc="http://web.resource.org/cc/"
   xmlns:rdf="http://www.w3.org/1999/02/22-rdf-syntax-ns#"
   xmlns:svg="http://www.w3.org/2000/svg"
   xmlns="http://www.w3.org/2000/svg"
   xmlns:xlink="http://www.w3.org/1999/xlink"
   xmlns:sodipodi="http://sodipodi.sourceforge.net/DTD/sodipodi-0.dtd"
   xmlns:inkscape="http://www.inkscape.org/namespaces/inkscape"
   height="193.07048"
   id="svg3656"
   inkscape:version="0.45.1"
   sodipodi:docbase="/Users/johnolsen/Desktop/openclipart-0.20-pre/recovered-zerobyte-files/geography"
   sodipodi:docname="spyglass_vladimir_herna_04r.svg"
   sodipodi:version="0.32"
   width="978.65094"
   inkscape:output_extension="org.inkscape.output.svg.inkscape"
   version="1.0">
  <metadata
     id="metadata3">
    <rdf:RDF>
      <cc:Work
         rdf:about="">
        <dc:title>Spyglass</dc:title>
        <dc:description />
        <dc:subject>
          <rdf:Bag>
            <rdf:li>pirates</rdf:li>
            <rdf:li>telescope</rdf:li>
            <rdf:li>geography</rdf:li>
            <rdf:li>spyglass</rdf:li>
            <rdf:li>study</rdf:li>
          </rdf:Bag>
        </dc:subject>
        <dc:publisher>
          <cc:Agent
             rdf:about="http://www.openclipart.org/">
            <dc:title>Open Clip Art Library</dc:title>
          </cc:Agent>
        </dc:publisher>
        <dc:creator>
          <cc:Agent>
            <dc:title>Vladimir Hernandez</dc:title>
          </cc:Agent>
        </dc:creator>
        <dc:rights>
          <cc:Agent>
            <dc:title>Vladimir Hernandez</dc:title>
          </cc:Agent>
        </dc:rights>
        <dc:date />
        <dc:format>image/svg+xml</dc:format>
        <dc:type
           rdf:resource="http://purl.org/dc/dcmitype/StillImage" />
        <cc:license
           rdf:resource="http://web.resource.org/cc/PublicDomain" />
        <dc:language>en</dc:language>
      </cc:Work>
      <cc:License
         rdf:about="http://web.resource.org/cc/PublicDomain">
        <cc:permits
           rdf:resource="http://web.resource.org/cc/Reproduction" />
        <cc:permits
           rdf:resource="http://web.resource.org/cc/Distribution" />
        <cc:permits
           rdf:resource="http://web.resource.org/cc/DerivativeWorks" />
      </cc:License>
    </rdf:RDF>
  </metadata>
  <defs
     id="defs3">
    <linearGradient
       id="linearGradient3008"
       inkscape:collect="always">
      <stop
         id="stop3009"
         offset="0"
         style="stop-color:#273883;stop-opacity:1;" />
      <stop
         id="stop3010"
         offset="1"
         style="stop-color:#273883;stop-opacity:0;" />
    </linearGradient>
    <linearGradient
       gradientTransform="scale(1.307478,0.764831)"
       gradientUnits="userSpaceOnUse"
       id="linearGradient3011"
       inkscape:collect="always"
       x1="219.431"
       x2="221.85864"
       xlink:href="#linearGradient3008"
       y1="164.24301"
       y2="243.16029" />
    <linearGradient
       id="linearGradient3016"
       inkscape:collect="always">
      <stop
         id="stop3017"
         offset="0"
         style="stop-color:#273883;stop-opacity:1;" />
      <stop
         id="stop3018"
         offset="1"
         style="stop-color:#273883;stop-opacity:0;" />
    </linearGradient>
    <linearGradient
       gradientTransform="scale(2.234852,0.447457)"
       gradientUnits="userSpaceOnUse"
       id="linearGradient3019"
       inkscape:collect="always"
       x1="276.03955"
       x2="275.21561"
       xlink:href="#linearGradient3016"
       y1="226.61229"
       y2="462.12076" />
    <linearGradient
       id="linearGradient3012"
       inkscape:collect="always">
      <stop
         id="stop3013"
         offset="0"
         style="stop-color:#273883;stop-opacity:1;" />
      <stop
         id="stop3014"
         offset="1"
         style="stop-color:#273883;stop-opacity:0;" />
    </linearGradient>
    <linearGradient
       gradientTransform="scale(1.689669,0.591832)"
       gradientUnits="userSpaceOnUse"
       id="linearGradient3015"
       inkscape:collect="always"
       x1="286.33905"
       x2="288.32806"
       xlink:href="#linearGradient3012"
       y1="188.71542"
       y2="340.73914" />
  </defs>
  <sodipodi:namedview
     bordercolor="#666666"
     borderopacity="1.0"
     id="base"
     inkscape:current-layer="layer1"
     inkscape:cx="305.25953"
     inkscape:cy="417.84947"
     inkscape:pageopacity="0.0"
     inkscape:pageshadow="2"
     inkscape:window-height="974"
     inkscape:window-width="1280"
     inkscape:window-x="0"
     inkscape:window-y="25"
     inkscape:zoom="0.43415836"
     pagecolor="#ffffff" />
  <g
     id="layer1"
     inkscape:groupmode="layer"
     inkscape:label="Layer 1"
     transform="translate(-44.651553,-238.56043)">
    <g
       id="g3651"
       transform="matrix(1.89913,0,0,1.89913,-313.8037,126.6898)">
      <path
         d="M 373.8484,75.960289 C 378.65429,99.934729 379.65916,118.01103 374.24161,143.03403 L 531.59375,142.1875 C 539.49149,140.23066 545.65626,126.53407 545.65625,109.75 C 545.65625,92.965933 539.49149,79.238086 531.59375,77.28125 L 373.8484,75.960289 z "
         id="rect2377"
         sodipodi:nodetypes="cccccc"
         style="fill:url(#linearGradient3015);fill-opacity:1;fill-rule:nonzero;stroke:none;stroke-opacity:1" />
      <path
         d="M 691.40625,92.46875 L 543.16659,92.46268 C 546.5744,104.66577 546.05012,114.77173 543.42873,126.71268 C 543.42873,126.71268 690.98062,127 691.40625,127 C 698.39496,127 704.06249,119.27797 704.0625,109.75 C 704.0625,100.22203 698.39495,92.468753 691.40625,92.46875 z "
         id="rect2378"
         sodipodi:nodetypes="cccccc"
         style="fill:url(#linearGradient3019);fill-opacity:1;fill-rule:nonzero;stroke:none;stroke-opacity:1" />
      <path
         d="M 204.375,58.90625 L 204.375,160.5 L 361.78125,160.5 C 361.91797,160.51105 362.04995,160.5625 362.1875,160.5625 C 362.32505,160.5625 362.45703,160.51105 362.59375,160.5 L 363.84375,160.5 L 363.84375,160.3125 C 371.87029,157.67072 378.15626,136.02564 378.15625,109.75 C 378.15625,83.474786 371.87011,61.829859 363.84375,59.1875 L 204.375,58.90625 z "
         id="rect2379"
         sodipodi:nodetypes="cccccccccc"
         style="fill:url(#linearGradient3011);fill-opacity:1;fill-rule:nonzero;stroke:none;stroke-opacity:1" />
      <path
         d="M 172.47664 116.79931 A 15.948182 49.616566 0 1 1  140.58028,116.79931 A 15.948182 49.616566 0 1 1  172.47664 116.79931 z"
         id="path2380"
         sodipodi:cx="156.52846"
         sodipodi:cy="116.79931"
         sodipodi:rx="15.948182"
         sodipodi:ry="49.616566"
         sodipodi:type="arc"
         style="fill:#4e69e1;fill-opacity:1;fill-rule:nonzero;stroke:none;stroke-opacity:1"
         transform="matrix(1,0,0,1.024411,48.16681,-9.909411)" />
    </g>
  </g>
</svg>
