<?xml version="1.0" encoding="UTF-8" standalone="no"?>
<!-- Created with Inkscape (http://www.inkscape.org/) -->

<svg
   xmlns:dc="http://purl.org/dc/elements/1.1/"
   xmlns:cc="http://creativecommons.org/ns#"
   xmlns:rdf="http://www.w3.org/1999/02/22-rdf-syntax-ns#"
   xmlns:svg="http://www.w3.org/2000/svg"
   xmlns="http://www.w3.org/2000/svg"
   xmlns:xlink="http://www.w3.org/1999/xlink"
   xmlns:sodipodi="http://sodipodi.sourceforge.net/DTD/sodipodi-0.dtd"
   xmlns:inkscape="http://www.inkscape.org/namespaces/inkscape"
   height="284.99997"
   id="svg2"
   inkscape:export-filename="C:\Documents and Settings\Administrator\Desktop\planeta1.png"
   inkscape:export-xdpi="90.000000"
   inkscape:export-ydpi="90.000000"
   inkscape:version="0.48.1 r9760"
   sodipodi:docname="planet_costea_bogdan_r.svg"
   sodipodi:version="0.32"
   width="300"
   version="1.1">
  <metadata
     id="metadata3155">
    <rdf:RDF>
      <cc:Work
         rdf:about="">
        <dc:title>Planet</dc:title>
        <dc:description>Planet
http://www.bcostea.net</dc:description>
        <dc:subject>
          <rdf:Bag>
            <rdf:li>unsorted</rdf:li>
          </rdf:Bag>
        </dc:subject>
        <dc:publisher>
          <cc:Agent
             rdf:about="http://www.openclipart.org/">
            <dc:title>Open Clip Art Library</dc:title>
          </cc:Agent>
        </dc:publisher>
        <dc:creator>
          <cc:Agent>
            <dc:title>Costea Bogdan</dc:title>
          </cc:Agent>
        </dc:creator>
        <dc:rights>
          <cc:Agent>
            <dc:title>Costea Bogdan</dc:title>
          </cc:Agent>
        </dc:rights>
        <dc:date />
        <dc:format>image/svg+xml</dc:format>
        <dc:type
           rdf:resource="http://purl.org/dc/dcmitype/StillImage" />
        <cc:license
           rdf:resource="http://web.resource.org/cc/PublicDomain" />
        <dc:language>en</dc:language>
      </cc:Work>
      <cc:License
         rdf:about="http://web.resource.org/cc/PublicDomain">
        <cc:permits
           rdf:resource="http://web.resource.org/cc/Reproduction" />
        <cc:permits
           rdf:resource="http://web.resource.org/cc/Distribution" />
        <cc:permits
           rdf:resource="http://web.resource.org/cc/DerivativeWorks" />
      </cc:License>
    </rdf:RDF>
  </metadata>
  <defs
     id="defs3">
    <linearGradient
       id="linearGradient57701"
       inkscape:collect="always">
      <stop
         id="stop57703"
         offset="0"
         style="stop-color:#ffffff;stop-opacity:1;" />
      <stop
         id="stop57705"
         offset="1"
         style="stop-color:#ffffff;stop-opacity:0;" />
    </linearGradient>
    <linearGradient
       id="linearGradient56925"
       inkscape:collect="always">
      <stop
         id="stop56927"
         offset="0"
         style="stop-color:#000000;stop-opacity:1;" />
      <stop
         id="stop56929"
         offset="1"
         style="stop-color:#000000;stop-opacity:0;" />
    </linearGradient>
    <linearGradient
       id="linearGradient24952">
      <stop
         id="stop24954"
         offset="0"
         style="stop-color:#ff0000;stop-opacity:1;" />
      <stop
         id="stop24956"
         offset="1.0000000"
         style="stop-color:#000000;stop-opacity:1.0000000;" />
    </linearGradient>
    <linearGradient
       gradientTransform="scale(1.293218,0.773265)"
       gradientUnits="userSpaceOnUse"
       id="linearGradient56931"
       inkscape:collect="always"
       x1="205.06253"
       x2="134.741"
       xlink:href="#linearGradient56925"
       y1="1159.7743"
       y2="1116.069" />
    <linearGradient
       gradientTransform="scale(1.293218,0.773265)"
       gradientUnits="userSpaceOnUse"
       id="linearGradient57707"
       inkscape:collect="always"
       x1="95.030014"
       x2="162.04228"
       xlink:href="#linearGradient57701"
       y1="1050.0651"
       y2="1107.1494" />
    <linearGradient
       gradientTransform="scale(1.293218,0.773265)"
       gradientUnits="userSpaceOnUse"
       id="linearGradient57734"
       inkscape:collect="always"
       x1="205.06253"
       x2="134.741"
       xlink:href="#linearGradient56925"
       y1="1159.7743"
       y2="1116.069" />
    <linearGradient
       gradientTransform="scale(1.293218,0.773265)"
       gradientUnits="userSpaceOnUse"
       id="linearGradient57736"
       inkscape:collect="always"
       x1="95.030014"
       x2="162.04228"
       xlink:href="#linearGradient57701"
       y1="1050.0651"
       y2="1107.1494" />
    <linearGradient
       gradientTransform="scale(1.293218,0.773265)"
       gradientUnits="userSpaceOnUse"
       id="linearGradient57811"
       inkscape:collect="always"
       x1="205.06253"
       x2="134.741"
       xlink:href="#linearGradient56925"
       y1="1159.7743"
       y2="1116.069" />
    <linearGradient
       gradientTransform="scale(1.293218,0.773265)"
       gradientUnits="userSpaceOnUse"
       id="linearGradient57813"
       inkscape:collect="always"
       x1="95.030014"
       x2="162.04228"
       xlink:href="#linearGradient57701"
       y1="1050.0651"
       y2="1107.1494" />
    <linearGradient
       gradientTransform="scale(1.293218,0.773265)"
       gradientUnits="userSpaceOnUse"
       id="linearGradient57838"
       inkscape:collect="always"
       x1="95.030014"
       x2="162.04228"
       xlink:href="#linearGradient57701"
       y1="1050.0651"
       y2="1107.1494" />
    <linearGradient
       gradientTransform="scale(1.293218,0.773265)"
       gradientUnits="userSpaceOnUse"
       id="linearGradient57840"
       inkscape:collect="always"
       x1="205.06253"
       x2="134.741"
       xlink:href="#linearGradient56925"
       y1="1159.7743"
       y2="1116.069" />
    <linearGradient
       gradientTransform="scale(1.293218,0.773265)"
       gradientUnits="userSpaceOnUse"
       id="linearGradient57842"
       inkscape:collect="always"
       x1="205.06253"
       x2="134.741"
       xlink:href="#linearGradient56925"
       y1="1159.7743"
       y2="1116.069" />
    <linearGradient
       gradientTransform="scale(1.293218,0.773265)"
       gradientUnits="userSpaceOnUse"
       id="linearGradient57844"
       inkscape:collect="always"
       x1="95.030014"
       x2="162.04228"
       xlink:href="#linearGradient57701"
       y1="1050.0651"
       y2="1107.1494" />
    <linearGradient
       gradientTransform="scale(1.293218,0.773265)"
       gradientUnits="userSpaceOnUse"
       id="linearGradient1387"
       inkscape:collect="always"
       x1="205.06253"
       x2="134.741"
       xlink:href="#linearGradient56925"
       y1="1159.7743"
       y2="1116.069" />
    <linearGradient
       gradientTransform="scale(1.293218,0.773265)"
       gradientUnits="userSpaceOnUse"
       id="linearGradient1389"
       inkscape:collect="always"
       x1="95.030014"
       x2="162.04228"
       xlink:href="#linearGradient57701"
       y1="1050.0651"
       y2="1107.1494" />
  </defs>
  <sodipodi:namedview
     bordercolor="#666666"
     borderopacity="1.0"
     id="base"
     inkscape:current-layer="g57709"
     inkscape:cx="203.67039"
     inkscape:cy="222.36829"
     inkscape:document-units="px"
     inkscape:pageopacity="1.0000000"
     inkscape:pageshadow="2"
     inkscape:window-height="749"
     inkscape:window-width="1024"
     inkscape:window-x="-4"
     inkscape:window-y="-4"
     inkscape:zoom="1.2525291"
     pagecolor="#ffffff"
     showgrid="false"
     fit-margin-top="0"
     fit-margin-left="0"
     fit-margin-right="0"
     fit-margin-bottom="0"
     inkscape:window-maximized="0" />
  <g
     id="layer1"
     inkscape:groupmode="layer"
     inkscape:label="Layer 1"
     transform="translate(-6.0696871,-7.3258467)">
    <g
       id="g57709"
       transform="translate(-94.76118,-541.7479)">
      <g
         id="g1363"
         transform="matrix(1.057824,0,0,1.047553,-437.3956,-99.87983)">
        <g
           id="g57767"
           transform="matrix(1.87919,0,0,1.867677,284.6946,-797.6881)">
          <path
             d="m 275.08772,831.83588 c 0,39.82263 -34.63902,72.10526 -77.36842,72.10526 -42.7294,0 -77.36842,-32.28263 -77.36842,-72.10526 0,-39.82264 34.63902,-72.10527 77.36842,-72.10527 42.7294,0 77.36842,32.28263 77.36842,72.10527 z"
             id="path57769"
             sodipodi:cx="197.7193"
             sodipodi:cy="831.83588"
             sodipodi:rx="77.368423"
             sodipodi:ry="72.105263"
             sodipodi:type="arc"
             style="fill:#38c3ff;fill-opacity:1;stroke:#000000;stroke-width:1.11558175;stroke-linejoin:round;stroke-miterlimit:4;stroke-opacity:1"
             transform="matrix(0.959315,0,0,0.995151,4.886287,3.683)" />
          <path
             d="m 148.42105,793.41481 c 1.75439,-1.75438 14.03509,-19.64912 15.78948,-7.36842 1.75438,12.2807 13.68421,-2.10526 15.43859,7.36842 1.75439,9.47369 0.70176,4.21053 -7.7193,13.68421 -8.42105,9.47369 -9.47368,5.26316 -8.42105,15.78948 1.05263,10.52631 -7.7193,9.12281 -9.12281,17.89474 -1.4035,8.77193 0.35088,23.85964 -6.66666,16.49122 -7.01755,-7.36842 -11.57895,-1.40351 -15.4386,-12.2807 -3.85965,-10.87719 -9.12281,-6.31579 -0.35088,-16.8421 8.77193,-10.52632 10.17544,-5.61404 7.36843,-15.78948 -2.80702,-10.17544 -8.07018,-8.42105 -2.10527,-13.33333 5.96491,-4.91228 11.22807,-5.61404 11.22807,-5.61404 z"
             id="path57771"
             style="fill:#00b600;fill-opacity:1;fill-rule:evenodd;stroke:#000000;stroke-width:0.5;stroke-linecap:butt;stroke-linejoin:miter;stroke-miterlimit:4;stroke-opacity:1"
             inkscape:connector-curvature="0" />
          <path
             d="m 197.17544,787.21838 c 0,0 20.89564,-2.78967 25.64465,7.57195 4.74901,10.36164 7.12352,6.3764 1.89961,15.94098 -5.22391,9.56459 -13.29723,10.76016 -1.4247,17.13655 11.87252,6.37639 19.47093,14.7454 11.87252,16.3395 -7.59842,1.5941 -10.92273,5.57934 -16.62153,0.79704 -5.69882,-4.78229 1.4247,-1.19557 -10.92273,-11.95572 -12.34743,-10.76016 -16.62153,-12.35426 -14.24704,-18.73065 2.37451,-6.37639 9.97294,-5.18082 7.12352,-12.35426 -2.8494,-7.17344 -1.8996,-6.77491 -4.74901,-9.56458 -2.8494,-2.78967 -3.79921,-3.1882 -2.8494,-4.78229 0.9498,-1.5941 4.27411,-0.39852 4.27411,-0.39852 z"
             id="path57773"
             style="fill:#00b600;fill-opacity:1;fill-rule:evenodd;stroke:#000000;stroke-width:0.5;stroke-linecap:butt;stroke-linejoin:miter;stroke-miterlimit:4;stroke-opacity:1"
             inkscape:connector-curvature="0" />
          <path
             d="m 172.98246,868.15165 c 0.70175,3.85965 -1.40351,9.12281 11.92982,10.52632 13.33333,1.40351 23.15789,-2.45614 28.77193,-1.40351 5.61403,1.05263 21.75439,5.61404 11.57895,-7.01754 -10.17544,-12.63158 -8.77193,-10.52632 -19.64913,-13.33334 -10.87719,-2.80701 -6.66666,-4.91228 -16.49122,-8.77193 -9.82457,-3.85965 -14.03509,-8.77193 -12.98246,-1.05263 1.05263,7.7193 2.45614,11.92983 -2.80702,13.33334 -5.26316,1.4035 -8.77193,4.21052 -5.61403,5.61403 3.15789,1.40351 5.26316,2.10526 5.26316,2.10526 z"
             id="path57775"
             style="fill:#00b600;fill-opacity:1;fill-rule:evenodd;stroke:#000000;stroke-width:0.5;stroke-linecap:butt;stroke-linejoin:miter;stroke-miterlimit:4;stroke-opacity:1"
             inkscape:connector-curvature="0" />
          <path
             d="m 157.19298,769.90604 c 0,0 23.85965,-7.36842 19.29825,-2.10526 -4.56141,5.26316 -11.22807,6.31579 -4.21053,6.31579 7.01755,0 5.61404,1.75438 9.82456,-1.75439 4.21053,-3.50877 -0.35087,-8.07017 7.7193,-4.21052 8.07018,3.85965 10.52632,4.91228 17.89474,6.31579 7.36842,1.4035 11.57895,0.35087 7.7193,-3.1579 -3.85965,-3.50877 -7.7193,-4.91228 -3.85965,-5.26316 3.85965,-0.35087 10.87719,1.40351 13.33333,2.10527 2.45614,0.70175 5.96491,0.70175 5.96491,0.70175 0,0 -33.68421,-20.70175 -73.68421,1.05263 z"
             id="path57777"
             style="fill:#ffffff;fill-opacity:1;fill-rule:evenodd;stroke:#000000;stroke-width:0.5;stroke-linecap:butt;stroke-linejoin:miter;stroke-miterlimit:4;stroke-opacity:1"
             inkscape:connector-curvature="0" />
          <path
             d="m 236.14035,890.6078 c -3.15789,1.05263 -11.57895,3.85965 -17.19298,4.21052 -5.61404,0.35088 -3.85965,-2.45614 -14.73684,-0.70175 -10.8772,1.75438 -23.1579,-6.31579 -25.26316,-4.5614 -2.10526,1.75438 2.80702,1.75438 1.75438,3.50877 -1.05263,1.75438 -8.07017,1.40351 -9.82456,0.70175 -1.75438,-0.70175 -10.52631,-5.26316 -9.1228,-2.80702 1.4035,2.45614 -2.10527,3.1579 -2.10527,3.1579 0,0 36.53223,21.61807 76.49123,-3.50877 z"
             id="path57779"
             sodipodi:nodetypes="ccccccccc"
             style="fill:#ffffff;fill-opacity:1;fill-rule:evenodd;stroke:#000000;stroke-width:0.5;stroke-linecap:butt;stroke-linejoin:miter;stroke-miterlimit:4;stroke-opacity:1"
             inkscape:connector-curvature="0" />
          <path
             d="m 252.74952,787.51772 c 0,0 -18.36356,4.14271 -9.9425,8.70411 8.42105,4.56141 9.82456,3.1579 10.52631,7.7193 0.70176,4.5614 4.91228,-0.35088 4.91228,-0.35088 0,0 5.96492,20 -1.4035,22.45614 -7.36843,2.45614 -13.68422,24.91228 -2.10527,16.84211 11.57895,-8.07018 9.98062,11.4368 9.98062,11.4368 0,0 14.55765,-34.18897 -11.96794,-66.80758 z"
             id="path57781"
             sodipodi:nodetypes="cccccccc"
             style="fill:#00b600;fill-opacity:1;fill-rule:evenodd;stroke:#000000;stroke-width:0.5;stroke-linecap:butt;stroke-linejoin:miter;stroke-miterlimit:4;stroke-opacity:1"
             inkscape:connector-curvature="0" />
          <path
             d="m 202.8932,792.02485 c 0,0 2.28255,2.02893 1.77531,4.18467 -0.50723,2.15574 -1.90212,1.26808 -1.01446,3.17021 0.88766,1.90212 2.78978,2.02893 2.91659,3.93105 0.12681,1.90213 2.28255,6.59403 3.1702,3.80425 0.88766,-2.78978 1.5217,-0.50723 1.90213,-4.31148 0.38042,-3.80425 1.5217,-1.01447 -0.25362,-5.19914 -1.77531,-4.18467 -1.39489,-2.15574 -4.31148,-4.94552 -2.91659,-2.78978 -6.34041,-4.5651 -6.2136,-3.29702 0.1268,1.26809 0.1268,1.5217 0.76085,1.77532 0.63404,0.25362 1.26808,0.88766 1.26808,0.88766 z"
             id="path57783"
             style="fill:#987100;fill-opacity:1;fill-rule:evenodd;stroke:#000000;stroke-width:0.30000001;stroke-linecap:butt;stroke-linejoin:miter;stroke-miterlimit:4;stroke-opacity:1"
             inkscape:connector-curvature="0" />
          <path
             d="m 208.72638,810.79247 c -1.01447,1.77532 -2.15574,0.63404 -0.63404,3.29701 1.52169,2.66298 1.26808,3.29702 0,5.83318 -1.26809,2.53617 -1.90213,4.05787 -0.63405,5.70637 1.26809,1.64851 -0.1268,0.38043 3.29702,4.31149 3.42382,3.93105 6.08679,5.95998 7.22807,4.94552 1.14127,-1.01447 4.18467,0.76085 2.15574,3.1702 -2.02893,2.40936 -4.18467,3.67744 -0.38043,3.55063 3.80425,-0.1268 6.21361,2.53617 4.69191,-2.53616 -1.5217,-5.07233 -2.02893,-5.70637 -6.0868,-8.62296 -4.05786,-2.91659 -7.48168,-5.70637 -7.48168,-9.00339 0,-3.29701 0,-7.10126 -1.01447,-8.49615 -1.01447,-1.39489 -1.14127,-2.15574 -1.14127,-2.15574 z"
             id="path57785"
             style="fill:#987100;fill-opacity:1;fill-rule:evenodd;stroke:#000000;stroke-width:0.30000001;stroke-linecap:butt;stroke-linejoin:miter;stroke-miterlimit:4;stroke-opacity:1"
             inkscape:connector-curvature="0" />
          <path
             d="m 206.95106,794.3074 c 0,0.50723 -0.50723,2.02893 -0.50723,2.02893 0,0 1.14127,0.63404 0.63404,1.39489 -0.50723,0.76085 0.25362,2.53616 0.63404,1.01447 0.38043,-1.5217 0.63404,-2.15574 0,-2.66298 -0.63404,-0.50723 -0.76085,-1.77531 -0.76085,-1.77531 z"
             id="path57787"
             style="fill:#ffffff;fill-opacity:1;fill-rule:evenodd;stroke:none"
             inkscape:connector-curvature="0" />
          <path
             d="m 208.85319,822.0784 c 0.1268,0.76085 0.25361,2.53617 1.39489,3.55063 1.14127,1.01447 1.26808,1.90213 2.02893,2.78979 0.76085,0.88765 1.39489,2.15574 2.28255,2.53616 0.88765,0.38043 0.76085,-0.12681 -0.25362,-1.26808 -1.01447,-1.14128 -3.0434,-3.55063 -3.80425,-4.81872 -0.76085,-1.26808 -1.6485,-2.78978 -1.6485,-2.78978 z"
             id="path57789"
             style="fill:#ffffff;fill-opacity:1;fill-rule:evenodd;stroke:none"
             inkscape:connector-curvature="0" />
          <path
             d="m 158.76393,795.19505 c -2.40936,1.14128 -6.84765,-0.50723 -8.87658,2.91659 -2.02893,3.42383 -4.69191,1.39489 -2.78978,4.69191 1.90212,3.29701 4.6919,6.34041 2.15574,6.97445 -2.53617,0.63404 1.39489,3.80425 2.91659,2.78978 1.5217,-1.01446 5.07233,1.5217 3.0434,-3.04339 -2.02894,-4.5651 -3.93106,-4.43829 -1.90213,-6.72084 2.02893,-2.28255 5.32595,-1.26808 6.97446,-2.91659 1.6485,-1.64851 2.15574,-2.40936 1.39489,-3.29701 -0.76085,-0.88766 -2.91659,-1.3949 -2.91659,-1.3949 z"
             id="path57791"
             style="fill:#987100;fill-opacity:1;fill-rule:evenodd;stroke:#000000;stroke-width:0.30000001;stroke-linecap:butt;stroke-linejoin:miter;stroke-miterlimit:4;stroke-opacity:1"
             inkscape:connector-curvature="0" />
          <path
             d="m 153.43798,853.14642 c 0,0 -8.24254,-1.6485 -9.51062,-5.83318 -1.26808,-4.18467 -1.5217,-2.53616 -3.1702,-5.57956 -1.64851,-3.0434 -2.78979,-5.32594 -0.88766,-5.83318 1.90212,-0.50723 6.08679,1.5217 6.84764,0.25362 0.76085,-1.26808 1.5217,-2.66297 1.01447,-4.94552 -0.50723,-2.28255 -1.77532,-1.90213 -1.64851,-4.69191 0.12681,-2.78978 1.5217,-6.72084 3.29702,-4.6919 1.77531,2.02893 1.26808,2.28254 1.5217,4.31148 0.25361,2.02893 2.15574,2.91659 4.43828,1.77531 2.28255,-1.14127 5.45276,-2.40935 5.32595,-1.01446 -0.12681,1.39489 -1.26808,0.88765 -1.64851,2.40935 -0.38042,1.5217 1.77532,2.40936 -0.38042,2.91659 -2.15574,0.50724 -3.17021,1.14128 -2.78978,1.90213 0.38042,0.76085 0.93972,0.44182 0.8356,1.48298 -0.72881,0.78087 -3.42116,2.9206 -3.24496,17.53825 z"
             id="path57793"
             sodipodi:nodetypes="cccccccccccccccc"
             style="fill:#ffffbc;fill-opacity:1;fill-rule:evenodd;stroke:#000000;stroke-width:0.30000001;stroke-linecap:butt;stroke-linejoin:miter;stroke-miterlimit:4;stroke-opacity:1"
             inkscape:connector-curvature="0" />
          <path
             d="m 261.29699,828.61078 c -2.28317,2.28317 -3.80529,-0.25369 -4.31267,3.55161 -0.50737,3.80529 -0.76105,4.56635 1.77581,3.80529 2.53686,-0.76106 3.04424,-2.28318 4.31267,0 1.26843,2.28318 1.52212,6.08848 2.02949,2.02949 0.50737,-4.05898 2.53686,-4.56635 0.76106,-7.3569 -1.77581,-2.79055 -1.77581,-2.28318 -2.79055,-1.77581 -1.01475,0.50738 -1.77581,-0.25368 -1.77581,-0.25368 z"
             id="path57795"
             style="fill:#00d2dd;fill-opacity:1;fill-rule:evenodd;stroke:#082c63;stroke-width:0.30000001;stroke-linecap:butt;stroke-linejoin:miter;stroke-miterlimit:4;stroke-opacity:1"
             inkscape:connector-curvature="0" />
          <path
             d="m 231,774.09375 c -0.47071,0.0495 -0.93059,0.18335 -1.40625,0.46875 -3.8053,2.28319 -4.06426,3.579 -6.09375,4.59375 -2.0295,1.01476 1.7872,3.29055 -9.375,0.5 -11.16219,-2.79054 -13.44839,-3.57356 -17,-2.8125 -0.82963,0.17777 -1.19789,0.37826 -1.8125,0.5625 1e-4,-0.74314 -0.48235,-1.3125 -2,-1.3125 -3.8053,-3e-5 -7.37115,4.05512 -11.9375,4.5625 -4.56635,0.50736 -5.05127,-1.01651 -10.125,-2.03125 -5.07374,-1.01477 -8.12692,-1.51667 -5.84375,1.78125 2.28318,3.29794 6.34182,2.02563 8.625,4.5625 2.28318,2.53683 7.34375,4.3125 7.34375,4.3125 1e-5,10e-6 6.34024,4.3104 2.28125,10.90625 -4.05898,6.59587 -7.85481,2.28267 -7.09375,12.9375 0.76106,10.65481 -4.04952,18.76826 -7.09375,21.8125 -3.04424,3.04423 -5.08813,5.86377 -7.625,10.9375 -2.53685,5.07373 -7.09744,9.63397 -6.84375,15.46875 0.023,0.52853 0.089,1.03159 0.125,1.5625 -3.05428,-0.57824 -8.30435,-0.28717 -12.3125,-1.5625 -5.5811,-1.77578 -11.92276,-5.85656 -12.9375,-7.125 -1.01475,-1.26842 -1,-0.25 -1,-0.25 1.52211,3.29791 1.00721,2.28652 4.8125,8.375 3.8053,6.08847 12.18733,14.71138 16.5,15.21875 4.31268,0.50735 11.91186,2.3053 9.375,-1.5 -2.53688,-3.80527 -4.8125,-5.09375 -4.8125,-5.09375 0,-10e-6 0.73114,-0.98848 1.34375,-1.90625 0.57129,1.45715 1.35941,1.45651 2.46875,-1.625 2.28318,-6.34216 0.49245,-12.18557 5.3125,-14.46875 4.82004,-2.28317 7.0955,-4.05303 9.125,-11.15625 2.02949,-7.10324 1.5237,-7.11746 6.34375,-11.9375 4.82004,-4.82004 5.60481,-7.10095 4.84375,-10.90625 -0.76106,-3.8053 -1.03318,-17.24858 1.25,-6.59375 2.28318,10.6548 -1.75562,15.23508 0.78125,20.5625 2.53685,5.3274 7.58989,4.29758 12.15625,9.625 4.56635,5.3274 10.16504,10.13413 20.3125,11.65625 10.14746,1.52213 15.46138,1.77547 15.96875,8.625 0.50736,6.84951 -0.76651,13.71683 -1.78125,16 -0.9261,2.08369 -0.10022,2.66757 1.96875,-1.0625 -0.0845,0.71869 -0.1875,1.34192 -0.1875,2.3125 -1e-5,3.04422 -1.51123,5.85112 3.5625,5.34375 5.07373,-0.50736 15.20769,-15.71683 15.96875,-18 0.76106,-2.28318 4.04969,-2.29197 2.78125,-10.15625 -1.26842,-7.86428 2.30529,-6.60657 -1.5,-7.875 -3.80529,-1.26846 -6.84183,1.27404 -9.125,-2.53125 -2.28318,-3.80532 -4.33462,-3.56409 -2.8125,-9.90625 1.5221,-6.34215 0.50721,-10.63958 4.3125,-13.9375 3.8053,-3.29791 5.0883,-10.15432 3.3125,-12.4375 -1.77581,-2.2832 -2.30496,-0.77003 -7.125,-5.84375 -4.82005,-5.07375 -6.84006,-7.59358 -7.09375,-11.90625 -0.25369,-4.31267 2.79968,-5.0862 1.53125,-9.90625 -1.10988,-4.21752 -4.1738,-9.19058 -7.46875,-8.84375 z m -40.21875,8.125 c 0.37453,0.70451 2.29921,1.25 8.375,1.25 13.19171,10e-6 22.56794,-1.52212 24.34375,0 1.77579,1.52213 5.59375,7.34375 5.59375,7.34375 3.04423,6.08846 4.81618,5.57883 4.5625,10.90625 -0.2537,5.3274 -0.27564,6.35833 -2.8125,9.65625 -2.53687,3.29791 -7.33655,5.83076 -3.53125,8.875 3.80529,3.04422 5.83445,2.27371 8.625,7.09375 2.79056,4.82004 4.56619,6.85464 4.3125,10.40625 -0.25367,3.55163 0.48894,7.36008 1.25,12.6875 0.76106,5.32742 -0.5,8.36201 -0.5,11.40625 0,3.04424 1.26474,8.88413 0.25,10.40625 -0.785,1.17753 -2.32388,0.41124 -3.6875,0.8125 1.44861,-2.33662 2.45002,-4.47771 0.90625,-8.9375 -2.28319,-6.59586 -2.52564,-10.13044 -5.0625,-11.90625 -2.53686,-1.7758 -8.14134,-3.05144 -13.46875,-3.8125 -5.32741,-0.76106 -12.92996,-3.05127 -17.75,-8.125 -4.82004,-5.07371 -3.31233,-3.54759 -7.625,-8.875 -4.31267,-5.3274 -5.05513,-5.32884 -5.5625,-10.65625 -0.50737,-5.32744 -2.28687,-6.07691 0.25,-13.6875 2.53686,-7.61058 5.58286,-4.31409 2.03125,-10.65625 -3.55162,-6.34214 -4.30881,-5.84182 -4.5625,-8.125 -0.23471,-2.1123 0.71976,-3.81436 4.0625,-6.0625 z"
             id="path57797"
             style="opacity:0.0471204;fill:#000000;fill-opacity:1;fill-rule:evenodd;stroke:none"
             inkscape:connector-curvature="0" />
          <path
             d="m 183.66895,855.50154 c 0.25369,1.52211 -1.01474,0.76105 -2.79055,3.80529 -1.7758,3.04424 -2.53686,4.05898 -1.26843,6.08847 1.26843,2.0295 1.52212,3.29793 4.05898,3.55161 2.53687,0.25369 6.08848,-2.02949 8.87903,-1.01474 2.79055,1.01474 0.50737,3.29792 7.3569,3.55161 6.84954,0.25368 11.41589,0 11.41589,-1.52212 0,-1.52212 1.01475,-2.28318 -2.79055,-3.55161 -3.80529,-1.26843 -4.56635,-1.52212 -8.87902,-2.53686 -4.31267,-1.01475 -5.83479,-1.52212 -7.61059,-3.29793 -1.77581,-1.7758 -2.53687,-3.04423 -4.82005,-3.04423 -2.28317,0 -3.55161,-2.02949 -3.55161,-2.02949 z"
             id="path57799"
             style="fill:#987100;fill-opacity:1;fill-rule:evenodd;stroke:#000000;stroke-width:0.30000001;stroke-linecap:butt;stroke-linejoin:miter;stroke-miterlimit:4;stroke-opacity:1"
             inkscape:connector-curvature="0" />
          <path
             d="m 184.43001,860.57526 c -1.01474,0.50738 -2.02949,0.25369 -1.26843,1.52212 0.76106,1.26843 1.01475,1.77581 2.02949,1.77581 1.01475,0 3.29793,-0.25369 2.02949,-1.26844 -1.26843,-1.01474 -1.7758,-1.01474 -2.79055,-2.02949 z"
             id="path57801"
             style="fill:#ffffff;fill-opacity:1;fill-rule:evenodd;stroke:none"
             inkscape:connector-curvature="0" />
          <path
             d="m 192.04061,864.12687 c 0,0 0,-0.25368 1.26843,1.26843 1.26843,1.52212 2.79055,1.26844 2.79055,1.26844 0,0 0.50737,-1.01475 -0.76106,-1.52212 -1.26843,-0.50737 -3.29792,-1.01475 -3.29792,-1.01475 z"
             id="path57803"
             style="fill:#ffffff;fill-opacity:1;fill-rule:evenodd;stroke:none"
             inkscape:connector-curvature="0" />
          <path
             d="m 156.52451,797.66104 c -1.01474,0.25369 -1.01474,-0.25369 -3.29792,1.01475 -2.28318,1.26843 -3.29792,1.01474 -3.55161,2.28317 -0.25369,1.26844 -1.26843,2.53687 0.25369,2.28318 1.52211,-0.25369 3.29792,-2.79055 3.29792,-2.79055 l 2.79055,-0.25369 0.50737,-2.53686 z"
             id="path57805"
             style="fill:#ffffff;fill-opacity:1;fill-rule:evenodd;stroke:none"
             inkscape:connector-curvature="0" />
        </g>
        <path
           d="m 268.40022,854.74048 c 0,24.37864 -33.05157,44.14143 -73.82275,44.14143 -40.77118,0 -73.82275,-19.76279 -73.82275,-44.14143 0,-24.37864 33.05157,-44.14144 73.82275,-44.14144 40.77118,0 73.82275,19.7628 73.82275,44.14144 z"
           id="path57807"
           sodipodi:cx="194.57747"
           sodipodi:cy="854.74048"
           sodipodi:rx="73.822746"
           sodipodi:ry="44.141434"
           sodipodi:type="arc"
           style="opacity:0.86910993;fill:url(#linearGradient1387);fill-opacity:1;stroke:none"
           transform="matrix(1.917935,0,0,3.080593,277.6322,-1877.532)" />
        <path
           d="m 268.40022,854.74048 c 0,24.37864 -33.05157,44.14143 -73.82275,44.14143 -40.77118,0 -73.82275,-19.76279 -73.82275,-44.14143 0,-24.37864 33.05157,-44.14144 73.82275,-44.14144 40.77118,0 73.82275,19.7628 73.82275,44.14144 z"
           id="path57809"
           sodipodi:cx="194.57747"
           sodipodi:cy="854.74048"
           sodipodi:rx="73.822746"
           sodipodi:ry="44.141434"
           sodipodi:type="arc"
           style="opacity:0.86910993;fill:url(#linearGradient1389);fill-opacity:1;stroke:none"
           transform="matrix(1.917935,0,0,3.080593,277.2056,-1877.631)" />
      </g>
    </g>
  </g>
</svg>
