<?xml version="1.0" encoding="UTF-8" standalone="no"?>
<!-- Created with Inkscape (http://www.inkscape.org/) -->

<svg
   xmlns:dc="http://purl.org/dc/elements/1.1/"
   xmlns:cc="http://creativecommons.org/ns#"
   xmlns:rdf="http://www.w3.org/1999/02/22-rdf-syntax-ns#"
   xmlns:svg="http://www.w3.org/2000/svg"
   xmlns="http://www.w3.org/2000/svg"
   xmlns:sodipodi="http://sodipodi.sourceforge.net/DTD/sodipodi-0.dtd"
   xmlns:inkscape="http://www.inkscape.org/namespaces/inkscape"
   width="299.7652"
   height="456.66434"
   id="svg3832"
   version="1.1"
   inkscape:version="0.48.1 r9760"
   sodipodi:docname="Nouveau document 5">
  <defs
     id="defs3834" />
  <sodipodi:namedview
     id="base"
     pagecolor="#ffffff"
     bordercolor="#666666"
     borderopacity="1.0"
     inkscape:pageopacity="0.0"
     inkscape:pageshadow="2"
     inkscape:zoom="0.35"
     inkscape:cx="116.19475"
     inkscape:cy="216.73576"
     inkscape:document-units="px"
     inkscape:current-layer="layer1"
     showgrid="false"
     fit-margin-top="0"
     fit-margin-left="0"
     fit-margin-right="0"
     fit-margin-bottom="0"
     inkscape:window-width="1680"
     inkscape:window-height="1026"
     inkscape:window-x="0"
     inkscape:window-y="0"
     inkscape:window-maximized="1" />
  <metadata
     id="metadata3837">
    <rdf:RDF>
      <cc:Work
         rdf:about="">
        <dc:format>image/svg+xml</dc:format>
        <dc:type
           rdf:resource="http://purl.org/dc/dcmitype/StillImage" />
        <dc:title></dc:title>
      </cc:Work>
    </rdf:RDF>
  </metadata>
  <g
     inkscape:label="Calque 1"
     inkscape:groupmode="layer"
     id="layer1"
     transform="translate(-258.80525,-292.43361)">
    <g
       id="g3851"
       transform="translate(-4.2857143e-6,-28.571429)">
      <path
         style="fill:#2eb334"
         d="m 347.80998,777.40453 c -3.35782,-1.52736 -3.69899,-4.79944 -4.2195,-40.46738 l -0.51904,-35.5679 -5.61233,-6.20039 c -3.08679,-3.41022 -7.58679,-9.82545 -10,-14.25607 -8.55361,-15.70427 -13.98275,-23.06802 -26.38856,-35.7918 -12.19841,-12.51107 -13.94097,-15.27409 -11.29911,-17.91595 1.88946,-1.88946 4.74504,-1.46747 17.95214,2.65289 16.89043,5.26948 23.05235,8.38169 29.43429,14.86642 3.42342,3.47856 5.54244,4.99031 5.79291,4.1328 0.21722,-0.74366 0.92966,-6.67534 1.58321,-13.1815 0.65355,-6.50617 2.27501,-18.20617 3.60325,-26 3.38485,-19.86168 3.63486,-18.53297 -4.26575,-22.67061 -7.58345,-3.97154 -21.66734,-14.04699 -23.02391,-16.47104 -0.49592,-0.88616 -3.12574,-2.1979 -5.84406,-2.91498 -11.83939,-3.12317 -24.38274,-10.85256 -34.89068,-21.50013 -5.29931,-5.36972 -7.71603,-8.92186 -11.69604,-17.19104 -7.30702,-15.18166 -10.42375,-29.03591 -7.95148,-35.34532 0.4281,-1.09252 0.13709,-3.68285 -0.67405,-6 -1.75142,-5.00318 -1.072,-16.02889 1.26636,-20.55079 1.32463,-2.56154 1.50237,-5.0482 0.98817,-13.82501 -0.52246,-8.91786 -0.29178,-11.97753 1.3839,-18.3558 2.28908,-8.7131 5.54361,-15.5955 10.04079,-21.2334 1.70552,-2.13812 3.10095,-4.39616 3.10095,-5.01786 0,-0.6217 1.12419,-2.78476 2.4982,-4.80679 1.37401,-2.02204 3.16389,-6.2322 3.97751,-9.35591 0.81363,-3.12372 2.69922,-7.76128 4.19022,-10.30571 3.68525,-6.28899 15.70583,-17.86888 22.91877,-22.07855 3.25342,-1.89878 9.5153,-6.84878 13.9153,-11 4.4,-4.15122 10.7,-8.97989 14,-10.73037 3.3,-1.75049 7.57091,-4.80876 9.4909,-6.79616 7.03845,-7.28553 20.21371,-12.52114 31.5091,-12.52114 7.63459,0 17.78587,2.98496 23.08513,6.78813 3.98936,2.86308 14.11673,6.2139 24.92676,8.24745 5.86986,1.10422 6.19886,1.04574 13.9255,-2.4754 10.58168,-4.82223 17.60469,-6.76302 24.41251,-6.74633 6.40181,0.0157 10.22137,1.2404 14.82894,4.75476 1.75325,1.33727 3.6813,2.43139 4.28457,2.43139 2.39637,0 13.76024,5.41595 19.48003,9.28406 15.7034,10.61971 28.20595,26.49517 31.65582,40.19584 0.65437,2.59876 2.86753,7.26641 4.91812,10.37256 4.7604,7.21084 6.34763,12.21681 5.69878,17.97337 -0.46479,4.12365 -0.17833,4.98458 2.82672,8.4953 9.93618,11.60819 12.37141,30.52052 5.73164,44.51278 -1.36061,2.86729 -1.43283,4.1251 -0.44823,7.8064 3.10894,11.62398 0.18109,22.50653 -8.05769,29.94978 -4.02586,3.63712 -4.12173,3.87642 -4.33261,10.81467 -0.30193,9.9344 -3.4601,17.77454 -9.54896,23.70527 -4.2671,4.15629 -4.92158,5.37568 -5.79449,10.79601 -1.19187,7.40083 -5.90597,16.55611 -12.04314,23.38905 -5.00025,5.56714 -15.26521,12.70491 -18.27116,12.70491 -1.05143,0 -3.37642,1.11721 -5.16665,2.48268 -8.32968,6.35336 -35.1225,15.14556 -53.85003,17.67116 -10.1991,1.37546 -28.75794,0.52718 -34.63729,-1.58319 -5.86469,-2.10511 -6.12427,-2.04237 -6.12427,1.48022 0,1.67798 -1.61681,9.44048 -3.59291,17.25 -5.74205,22.69246 -7.44698,33.7168 -8.07268,52.19913 l -0.57551,17 3.45197,-4.5 c 1.89859,-2.475 6.6879,-9.3375 10.64292,-15.25 6.33979,-9.47758 7.52889,-10.75 10.04613,-10.75 4.0345,0 5.06752,1.78652 5.26031,9.09727 0.20059,7.60637 -0.20478,8.48844 -11.66252,25.37733 -17.02054,25.08856 -22.98684,41.57249 -24.22495,66.92965 -0.69365,14.20621 -1.50639,15.59575 -9.12188,15.59575 -2.66702,0 -8.17952,0.21899 -12.25,0.48664 -4.07049,0.26765 -7.96854,0.22843 -8.66234,-0.0872 z"
         id="path3857"
         inkscape:connector-curvature="0" />
      <path
         style="fill:#3d6a41"
         d="m 347.80998,777.40453 c -3.35782,-1.52736 -3.69899,-4.79944 -4.2195,-40.46738 l -0.51904,-35.5679 -5.61233,-6.20039 c -3.08679,-3.41022 -7.58679,-9.82545 -10,-14.25607 -8.55361,-15.70427 -13.98275,-23.06802 -26.38856,-35.7918 -12.19841,-12.51107 -13.94097,-15.27409 -11.29911,-17.91595 1.88946,-1.88946 4.74504,-1.46747 17.95214,2.65289 16.89043,5.26948 23.05235,8.38169 29.43429,14.86642 3.42342,3.47856 5.54244,4.99031 5.79291,4.1328 0.21722,-0.74366 0.92966,-6.67534 1.58321,-13.1815 0.65355,-6.50617 2.27501,-18.20617 3.60325,-26 3.38485,-19.86168 3.63486,-18.53297 -4.26575,-22.67061 -7.58345,-3.97154 -21.66734,-14.04699 -23.02391,-16.47104 -0.49592,-0.88616 -3.12574,-2.1979 -5.84406,-2.91498 -11.83939,-3.12317 -24.38274,-10.85256 -34.89068,-21.50013 -5.29931,-5.36972 -7.71603,-8.92186 -11.69604,-17.19104 -7.30702,-15.18166 -10.42375,-29.03591 -7.95148,-35.34532 0.4281,-1.09252 0.13709,-3.68285 -0.67405,-6 -1.75142,-5.00318 -1.072,-16.02889 1.26636,-20.55079 1.32463,-2.56154 1.50237,-5.0482 0.98817,-13.82501 -0.52246,-8.91786 -0.29178,-11.97753 1.3839,-18.3558 2.28908,-8.7131 5.54361,-15.5955 10.04079,-21.2334 1.70552,-2.13812 3.10095,-4.39616 3.10095,-5.01786 0,-0.6217 1.12419,-2.78476 2.4982,-4.80679 1.37401,-2.02204 3.16389,-6.2322 3.97751,-9.35591 0.81363,-3.12372 2.69922,-7.76128 4.19022,-10.30571 3.68525,-6.28899 15.70583,-17.86888 22.91877,-22.07855 3.25342,-1.89878 9.5153,-6.84878 13.9153,-11 4.4,-4.15122 10.7,-8.97989 14,-10.73037 3.3,-1.75049 7.57091,-4.80876 9.4909,-6.79616 7.03845,-7.28553 20.21371,-12.52114 31.5091,-12.52114 7.63459,0 17.78587,2.98496 23.08513,6.78813 3.98936,2.86308 14.11673,6.2139 24.92676,8.24745 5.86986,1.10422 6.19886,1.04574 13.9255,-2.4754 10.58168,-4.82223 17.60469,-6.76302 24.41251,-6.74633 6.40181,0.0157 10.22137,1.2404 14.82894,4.75476 1.75325,1.33727 3.6813,2.43139 4.28457,2.43139 2.39637,0 13.76024,5.41595 19.48003,9.28406 15.7034,10.61971 28.20595,26.49517 31.65582,40.19584 0.65437,2.59876 2.86753,7.26641 4.91812,10.37256 4.7604,7.21084 6.34763,12.21681 5.69878,17.97337 -0.46479,4.12365 -0.17833,4.98458 2.82672,8.4953 9.93618,11.60819 12.37141,30.52052 5.73164,44.51278 -1.36061,2.86729 -1.43283,4.1251 -0.44823,7.8064 3.10894,11.62398 0.18109,22.50653 -8.05769,29.94978 -4.02586,3.63712 -4.12173,3.87642 -4.33261,10.81467 -0.30193,9.9344 -3.4601,17.77454 -9.54896,23.70527 -4.2671,4.15629 -4.92158,5.37568 -5.79449,10.79601 -1.19187,7.40083 -5.90597,16.55611 -12.04314,23.38905 -5.00025,5.56714 -15.26521,12.70491 -18.27116,12.70491 -1.05143,0 -3.37642,1.11721 -5.16665,2.48268 -8.32968,6.35336 -35.1225,15.14556 -53.85003,17.67116 -10.1991,1.37546 -28.75794,0.52718 -34.63729,-1.58319 -5.86469,-2.10511 -6.12427,-2.04237 -6.12427,1.48022 0,1.67798 -1.61681,9.44048 -3.59291,17.25 -5.74205,22.69246 -7.44698,33.7168 -8.07268,52.19913 l -0.57551,17 3.45197,-4.5 c 1.89859,-2.475 6.6879,-9.3375 10.64292,-15.25 6.33979,-9.47758 7.52889,-10.75 10.04613,-10.75 4.0345,0 5.06752,1.78652 5.26031,9.09727 0.20059,7.60637 -0.20478,8.48844 -11.66252,25.37733 -17.02054,25.08856 -22.98684,41.57249 -24.22495,66.92965 -0.69365,14.20621 -1.50639,15.59575 -9.12188,15.59575 -2.66702,0 -8.17952,0.21899 -12.25,0.48664 -4.07049,0.26765 -7.96854,0.22843 -8.66234,-0.0872 z m 96.72659,-184.1283 2.46512,-0.9745 -4.0145,-2.53424 c -2.20797,-1.39383 -6.36344,-3.54473 -9.23436,-4.77977 l -5.21987,-2.24552 -5.23076,2.00594 c -2.87692,1.10327 -7.87171,3.59911 -11.09955,5.54631 -5.23075,3.15546 -5.61125,3.59599 -3.5,4.05207 3.93268,0.84954 33.18781,-0.0242 35.83392,-1.07029 z m -38.04025,-10.68749 c 6.28369,-3.60796 12.24619,-6.82061 13.25,-7.13921 1.08892,-0.3456 1.82512,-1.53305 1.82512,-2.94378 0,-4.14314 -7.44891,-8.18632 -23.68817,-12.85766 -12.94206,-3.72288 -16.01609,-3.55734 -20.55565,1.10695 -6.0238,6.18933 -6.09037,7.46764 -0.83729,16.07915 5.46792,8.96372 11.08954,13.59122 15.58111,12.82576 1.65,-0.2812 8.1412,-3.46324 14.42488,-7.07121 z m 64.53582,3.3222 c 6.92584,-2.62279 16.82146,-8.25237 17.36331,-9.87793 0.35851,-1.07552 -0.94042,-1.21141 -6.57436,-0.68779 -7.34509,0.68265 -26.33316,7.41034 -27.05879,9.58724 -0.20897,0.6269 0.19931,1.83779 0.90729,2.69085 1.56186,1.88192 7.66884,1.20121 15.36255,-1.71237 z m -102.74888,-4.11073 c -1.39214,-2.36234 -4.03431,-5.9104 -5.87149,-7.88458 -3.09136,-3.32188 -4.19883,-3.75706 -14.85867,-5.83878 -6.33509,-1.23715 -12.86009,-2.09691 -14.5,-1.91059 l -2.98166,0.33878 5,3.73171 c 6.95173,5.18838 19.67618,11.7151 28,14.36197 3.85,1.22426 7.16717,2.06184 7.37149,1.86129 0.20433,-0.20054 -0.76753,-2.29745 -2.15967,-4.6598 z m 79.58162,-4.11749 c 0.58612,-1.52739 21.31733,-10.67011 24.24649,-10.69299 1.07804,-0.008 2.60342,-0.42245 3.38974,-0.92006 2.96731,-1.87782 -9.40609,-14.90793 -19.02506,-20.03479 l -5.94443,-3.16835 -3.35883,2.07587 c -3.95246,2.44276 -10.26641,9.11948 -13.29854,14.06264 -5.24859,8.55653 -3.9619,13.49808 4.52323,17.37155 6.381,2.91293 8.72664,3.23653 9.4674,1.30613 z m 57.93551,-11.21003 c 6.12389,-6.17292 10.24254,-13.02355 11.31886,-18.82686 0.69006,-3.72068 0.63025,-3.83338 -1.66603,-3.1395 -5.23699,1.5825 -18.33988,7.71781 -22.29699,10.44037 -7.45951,5.13228 -7.46967,5.25967 -0.9173,11.50569 3.20374,3.05396 6.3308,5.55265 6.94902,5.55265 0.61822,0 3.59382,-2.48956 6.61244,-5.53235 z m -140.25813,-7.95256 c 12.18102,-6.29905 7.57705,-20.52028 -9.47082,-29.25446 -7.96388,-4.08016 -13.52154,-5.23917 -17.90182,-3.7333 -6.62878,2.27886 -19.59818,12.18371 -19.59818,14.9673 0,0.69405 2.91195,4.40708 6.47101,8.25119 6.24981,6.75037 6.66855,7.01194 12.25,7.6521 3.17844,0.36455 8.02899,1.28392 10.77899,2.04303 6.71464,1.85353 13.97032,1.88432 17.47082,0.0741 z m -46.64824,-1.8293 c -15.27047,-19.38961 -26.16737,-28.5377 -32.37033,-27.1753 -1.80748,0.39699 -3.44945,1.57118 -3.96258,2.8337 -0.74514,1.83338 0.0358,3.03374 5.22126,8.02573 7.64503,7.35974 17.62448,13.8642 25.34365,16.51862 7.58039,2.6067 7.96983,2.59301 5.768,-0.20275 z m 107.19758,-3.3104 c 1.49061,-2.54353 4.3006,-6.38499 6.24443,-8.53657 3.31565,-3.67004 3.44838,-4.07236 2.14626,-6.50539 -2.28289,-4.26562 -13.74825,-14.09608 -20.20132,-17.32072 -9.25489,-4.62472 -16.96454,-3.57569 -24.56599,3.34261 -3.09441,2.81632 -8.12225,11.59262 -8.13416,14.19851 -0.019,4.1572 5.83522,8.06467 16.49062,11.00687 5.5,1.51868 12.7,4.0001 16,5.51427 3.3,1.51416 6.74474,2.79173 7.65498,2.83903 0.96103,0.0499 2.79138,-1.85313 4.36518,-4.53861 z m 69.26694,-10.70933 7.99473,-4.16606 -1.98704,-4.21841 c -2.72022,-5.77495 -8.98455,-12.66923 -13.42714,-14.77737 -3.58784,-1.70254 -3.80588,-1.69005 -8.27629,0.47401 -5.4639,2.64501 -15.67586,9.81958 -18.86717,13.25543 l -2.27582,2.4502 5.77582,3.58724 c 3.17669,1.97299 7.97832,5.83808 10.67028,8.5891 l 4.89447,5.00185 3.75172,-3.01497 c 2.06345,-1.65823 7.34935,-4.88969 11.74644,-7.18102 z m -44.8189,-12.1146 c 2.26368,-3.66272 8.75463,-9.4313 15.81838,-14.05799 l 4.28659,-2.80766 -2.78659,-2.95134 c -3.18342,-3.37164 -14.75737,-11.41462 -20.99674,-14.59108 -2.31559,-1.17886 -5.71499,-2.14339 -7.55422,-2.14339 -4.75477,0 -11.76936,4.80601 -16.86474,11.55479 l -4.31723,5.71814 2.28245,1.61353 c 8.46174,5.98186 17.10893,13.43288 19.6639,16.94381 3.94564,5.4219 7.41526,5.66094 10.4682,0.72119 z m 73.24115,1.31898 c 4.74827,-2.49254 8.77412,-11.41541 8.78507,-19.47122 0.0109,-7.97595 -4.32841,-16.05228 -9.8544,-18.34122 -2.65156,-1.09832 -3.46455,-0.95212 -7.34211,1.32028 -5.88903,3.4512 -12.47905,9.19886 -15.79427,13.7754 l -2.73225,3.77176 4.28226,4.46921 c 2.35525,2.45807 5.51559,6.63735 7.02298,9.28728 3.76928,6.62623 5.11463,7.54089 9.92337,6.74655 2.2,-0.36341 4.76921,-1.06452 5.70935,-1.55804 z m -197.09119,-11.44222 5.76676,-3.50312 -0.11522,-5.05839 c -0.13891,-6.09827 -2.94105,-9.41675 -11.64597,-13.79196 -6.43387,-3.23374 -10.34777,-4.24142 -16.47406,-4.24142 -7.84101,0 -17.46803,5.70043 -21.13898,12.51697 l -1.88068,3.4922 3.75195,4.57875 c 2.06356,2.51831 4.19968,4.57875 4.74691,4.57875 2.43166,0 11.85065,5.30728 16.57338,9.33852 l 5.17403,4.41647 4.73756,-4.41182 c 2.60565,-2.4265 7.3326,-5.98823 10.50432,-7.91495 z m 51.62093,2.64029 c 3.39276,-4.57857 8.69053,-9.24302 13.01091,-11.45552 1.7875,-0.91539 3.25,-2.03528 3.25,-2.48863 0,-0.45336 -1.27176,-2.5793 -2.82613,-4.72432 -8.17972,-11.28794 -21.77173,-15.70682 -32.10209,-10.43666 -4.76113,2.42895 -12.69827,10.03238 -14.9927,14.36235 -1.30126,2.45569 -1.23213,2.88245 0.82086,5.06777 1.23298,1.31244 4.25563,2.9501 6.71699,3.63924 2.46137,0.68914 7.04198,2.82457 10.17914,4.74539 11.71953,7.17566 11.58976,7.16516 15.94302,1.29038 z m -99.76599,-0.81851 c -0.0148,-0.4125 -1.38256,-2.325 -3.03948,-4.25 l -3.01258,-3.5 1.53948,3.87212 c 0.84671,2.12967 1.53948,4.04217 1.53948,4.25 0,0.20784 0.675,0.37788 1.5,0.37788 0.825,0 1.48789,-0.3375 1.4731,-0.75 z m 211.2569,-16 c 0.91367,-1.5125 4.1607,-5.59119 7.21561,-9.06376 3.05491,-3.47256 5.55439,-6.89937 5.55439,-7.61514 0,-2.66198 -4.12448,-6.38878 -11.165,-10.08846 -5.86331,-3.08109 -8.5991,-3.89623 -14.30579,-4.26246 -8.6069,-0.55236 -13.96774,1.59417 -20.4326,8.18138 l -4.27514,4.35605 8.65149,5.63932 c 4.75831,3.10163 10.77215,7.62296 13.36408,10.04741 3.56628,3.33583 5.67954,4.50676 8.68778,4.81377 2.18635,0.22312 4.21566,0.48133 4.50957,0.57379 0.29392,0.0925 1.28194,-1.0694 2.19561,-2.5819 z M 272.275,499.63228 c -2.18758,-1.85917 -2.20594,-1.85286 -2.53164,0.87083 -0.18045,1.50897 -0.0284,3.92672 0.33784,5.37276 l 0.66592,2.62917 1.86571,-3.5 c 1.85381,-3.47765 1.85165,-3.51196 -0.33783,-5.37276 z m 136.84923,7.60745 c 0.57903,-0.40408 2.06645,-2.40313 3.30537,-4.44233 1.23893,-2.0392 5.44667,-6.66486 9.35054,-10.27925 6.91822,-6.4052 7.06264,-6.63759 5.70338,-9.17739 -1.73705,-3.24571 -11.07035,-11.64582 -16.44049,-14.79668 -3.5072,-2.05781 -4.64115,-2.24915 -8.76429,-1.47887 -7.91479,1.47865 -13.90747,5.46351 -18.70692,12.43927 l -3.05443,4.43948 5.15771,2.61361 c 6.13324,3.10794 13.61509,10.38498 16.39634,15.94747 2.06991,4.13982 3.28537,5.46937 5,5.46937 0.55,0 1.47375,-0.3306 2.05279,-0.73468 z m -63.50379,-14.6421 c 3.7357,-3.52408 7.72792,-6.7044 8.87159,-7.06739 1.14368,-0.36299 2.07941,-0.99546 2.07941,-1.4055 0,-2.61714 -22.8891,-18.1197 -26.75324,-18.1197 -3.65086,0 -8.67814,2.49149 -13.11449,6.49947 -3.78296,3.41768 -8.83756,10.27919 -7.99634,10.85487 0.20024,0.13703 3.06407,1.06761 6.36407,2.06795 8.02372,2.43225 14.15874,5.64249 19,9.94204 2.2,1.95383 4.17028,3.57115 4.3784,3.59404 0.20812,0.0229 3.43489,-2.8417 7.1706,-6.36578 z m 196.43401,0.83124 c 4.22101,-4.55455 5.0449,-14.87571 1.68589,-21.11965 -1.04128,-1.93558 -1.53992,-2.0708 -4.20741,-1.14091 -3.56044,1.24118 -7.2247,5.81009 -8.93187,11.13702 -1.19735,3.73612 -1.14456,3.88217 3.12623,8.64826 2.38928,2.66637 4.70314,4.89374 5.1419,4.9497 0.43876,0.056 1.87213,-1.05753 3.18526,-2.47442 z m -256.28314,-3.25559 c 2.36507,-1.55747 5.74719,-3.40567 7.51581,-4.10711 l 3.21568,-1.27534 -1.8938,-3.71217 c -5.64208,-11.05939 -16.75336,-20.20922 -20.63765,-16.99452 -4.16483,3.44687 -6.66459,14.60949 -4.81453,21.4992 0.46478,1.73086 8.98788,7.1325 11.61449,7.36085 0.38492,0.0335 2.63492,-1.21344 5,-2.77091 z m 230.67001,-7.10186 c 2.93115,-1.49536 4.50636,-3.38833 6.94992,-8.35191 3.10601,-6.3092 3.13392,-6.49401 1.64206,-10.87239 -6.48845,-19.04256 -28.64296,-21.02036 -41.75258,-3.72738 -3.19349,4.21256 -2.83243,4.75985 4.79072,7.26148 7.78961,2.55625 14.83632,7.05466 19.61956,12.52452 2.40924,2.75509 4.51087,5.02951 4.67028,5.05427 0.15941,0.0248 1.99543,-0.8251 4.08004,-1.88859 z m -65.82956,-7.26866 c 3.45808,-3.39089 7.68622,-6.32211 11.25,-7.79922 3.14033,-1.30159 5.70968,-2.64829 5.70968,-2.99268 0,-1.38653 -6.84455,-7.55633 -12.35418,-11.13626 -8.60467,-5.59098 -16.19501,-8.22236 -19.94596,-6.91478 -4.13099,1.44007 -11.09215,7.32586 -13.74938,11.62534 l -2.21234,3.57965 3.88093,3.12088 c 5.77131,4.64104 12.15179,11.7167 13.9137,15.42965 1.52897,3.22206 1.6122,3.25527 4.7617,1.89974 1.76304,-0.7588 5.69868,-3.82434 8.74585,-6.81232 z m -75.95112,-0.41846 c 4.59902,-6.22546 6.0719,-7.81452 10.34104,-11.15662 l 2.90905,-2.27737 -3.41964,-3.5513 c -5.66587,-5.88399 -17.63913,-13.39397 -21.3542,-13.39397 -7.27751,0 -14.76015,4.31489 -19.25114,11.10124 -1.43384,2.16668 -2.42864,4.08071 -2.21065,4.25341 0.21799,0.1727 4.44634,3.06326 9.39634,6.42348 4.95,3.36021 10.77883,7.93476 12.95295,10.16567 2.17412,2.23091 4.52242,4.0562 5.21845,4.0562 0.69603,0 3.13404,-2.52933 5.4178,-5.62074 z m -59.36438,-14.44774 2.22481,-1.43152 -4.72481,-7 c -4.51355,-6.687 -12.50493,-13.5 -15.83495,-13.5 -1.99266,0 -9.24989,6.81799 -12.15398,11.41838 -2.39668,3.79659 -2.41726,3.97439 -0.60824,5.25598 6.49239,4.59953 10.63157,8.46443 13.95896,13.03396 l 3.79253,5.20832 5.56043,-5.7768 c 3.05824,-3.17724 6.5616,-6.42098 7.78525,-7.20832 z m 227.46202,-0.46269 c 4.55817,-0.82552 5.81316,-3.7574 5.81316,-13.58054 0,-7.8031 -2.74206,-16.35789 -6.32083,-19.71997 l -2.30039,-2.1611 -3.43939,2.52479 c -4.13445,3.03502 -5.98666,5.29457 -10.045,12.25412 l -3.08251,5.28612 3.85104,4.21388 c 2.11807,2.31763 4.71655,6.15478 5.7744,8.52701 1.55058,3.47716 2.32452,4.21723 3.99303,3.81828 1.13831,-0.27218 3.72873,-0.79534 5.75649,-1.16259 z m -128.33132,-8.46752 c 1.84554,-2.72092 5.5847,-6.64682 8.30926,-8.72422 l 4.95373,-3.77709 -2.48169,-2.13531 c -1.36493,-1.17443 -7.57909,-4.94374 -13.80925,-8.37625 l -11.32757,-6.24094 -6.4094,3.31802 c -3.52516,1.8249 -8.88079,5.61838 -11.90139,8.42994 l -5.49199,5.11194 5.39896,3.9463 c 2.96943,2.17046 7.76732,6.0838 10.66198,8.6963 5.19178,4.68571 5.35423,4.74965 12.00243,4.72421 l 6.73941,-0.0258 3.35552,-4.94712 z M 335.438,451.06137 c 3.1326,-4.83443 8.16787,-9.47173 13.09502,-12.06005 l 2.46158,-1.29312 -4.46158,-3.99075 c -5.90385,-5.28082 -15.32141,-9.71062 -20.64648,-9.71162 -5.5766,-10e-4 -8.41625,1.19235 -13.26895,5.57649 l -4.05841,3.66652 6.25613,6.64359 c 3.44087,3.65397 7.38036,8.77411 8.75441,11.3781 2.15405,4.08215 2.92313,4.73451 5.58159,4.73451 2.59662,0 3.58893,-0.78032 6.28669,-4.94367 z m 143.14931,-0.38332 c 2.99151,-3.27319 7.25601,-6.51031 11.06095,-8.39621 l 6.19239,-3.06924 -4.23978,-3.07128 c -12.99215,-9.41146 -27.76288,-9.45529 -38.40209,-0.11394 l -3.74191,3.28544 7.30728,4.2366 c 4.01901,2.33013 9.33229,6.06742 11.80729,8.30509 2.475,2.23768 4.64564,4.08696 4.82365,4.10952 0.17801,0.0225 2.51451,-2.35613 5.19222,-5.28598 z M 278.4626,442.60313 c 1.42526,-2.14605 4.50781,-5.50384 6.85011,-7.46176 3.84654,-3.21531 4.25873,-3.99286 4.25873,-8.03364 0,-4.82117 -2.84017,-9.10269 -6.03831,-9.10269 -4.03544,0 -11.55438,16.97044 -11.96367,27.00228 -0.34459,8.44638 -0.17343,8.84083 2.16872,4.99772 1.17317,-1.925 3.29916,-5.25586 4.72442,-7.40191 z m 240.12083,-8.83321 c 1.30914,-2.32931 4.04973,-6.04627 6.0902,-8.25991 l 3.70993,-4.0248 -1.91311,-3.93314 c -1.05221,-2.16322 -2.92243,-5.03082 -4.15606,-6.37243 -2.83835,-3.08681 -11.3733,-7.15203 -15.04261,-7.16483 -5.62802,-0.0196 -11.69583,4.93008 -15.60532,12.72979 -2.44207,4.8721 -1.80355,6.81997 3.2056,9.77895 1.63076,0.96331 5.20083,3.94073 7.9335,6.61648 4.35523,4.26453 5.48867,4.86501 9.18304,4.86501 3.91463,0 4.38395,-0.30139 6.59483,-4.23512 z m -75.81732,-0.81431 c 1.24,-1.67719 4.62847,-4.84177 7.52994,-7.0324 2.90146,-2.19063 5.27539,-4.56356 5.27539,-5.27318 0,-1.42111 -14.72826,-16.02803 -19.50882,-19.3481 -2.93629,-2.03924 -3.11932,-2.04767 -7.59242,-0.34971 -6.04839,2.29592 -13.22816,7.30706 -16.36878,11.42462 -1.39149,1.82434 -2.52998,3.56453 -2.52998,3.86709 0,0.30257 4.3875,3.04816 9.75,6.10133 5.3625,3.05316 11.9365,7.37564 14.60888,9.60549 2.67239,2.22986 5.24642,4.05429 5.72007,4.05429 0.47364,0 1.87572,-1.37225 3.11572,-3.04943 z m -75.39501,0.64444 c 1.48519,-0.77274 3.82534,-2.62146 5.20034,-4.10826 1.375,-1.48681 5.33316,-4.73381 8.79591,-7.21555 6.12209,-4.3877 6.24702,-4.56628 4.52539,-6.46866 -0.97378,-1.07602 -6.80758,-5.35378 -12.964,-9.50613 -10.4673,-7.05993 -11.43906,-7.50365 -14.97888,-6.83958 -5.42594,1.01791 -10.87473,4.03948 -15.34422,8.50897 -6.91489,6.91489 -6.9059,7.37164 0.22417,11.38264 3.4329,1.93117 8.49163,5.83493 11.24163,8.67503 6.76597,6.98765 8.87768,7.8723 13.29966,5.57154 z m -61.00682,-10.96343 c 5.58172,-5.18003 9.54063,-7.34146 15.06471,-8.22479 l 4.06749,-0.65042 -1.50656,-3.62818 c -2.81353,-6.77567 -6.39913,-11.14478 -10.96777,-13.3644 l -4.4821,-2.17757 -6.45521,3.1832 c -3.55036,1.75077 -8.26618,4.81931 -10.47959,6.819 l -4.02438,3.63579 4.0718,2.94959 c 4.13408,2.99472 7.85598,9.39341 7.89681,13.5762 0.0318,3.26121 1.51474,2.80024 6.8148,-2.11842 z m 173.38508,-5.38158 c 0.81835,-0.9625 2.93262,-4.36529 4.69839,-7.56175 l 3.21048,-5.81174 -2.19991,-3.55954 c -2.40992,-3.89934 -9.38865,-8.78738 -14.90651,-10.44084 -3.02621,-0.90681 -4.35804,-0.68405 -9.5,1.58894 -3.28921,1.45399 -7.18439,3.79627 -8.65596,5.20507 l -2.6756,2.56147 8.6756,9.82283 8.67559,9.82283 5.59501,0.0614 c 4.14935,0.0455 5.97947,-0.39081 7.08291,-1.68864 z m 56.80012,-7.5 c -0.0453,-6.6972 -7.03825,-16.812 -15.42019,-22.30405 -2.31876,-1.51931 -2.87206,-1.57441 -3.68423,-0.36688 -1.09056,1.62145 -0.43214,9.23476 0.83519,9.6572 3.62466,1.20822 11.32703,7.6109 13.79119,11.46407 1.65,2.58009 3.3375,4.7155 3.75,4.74536 0.4125,0.0299 0.74012,-1.4082 0.72804,-3.1957 z m -132.60521,-2.42259 c 2.00221,-2.56992 5.99991,-6.44044 8.88378,-8.60116 2.88386,-2.16071 5.57897,-4.51465 5.98911,-5.23098 1.06646,-1.86256 -8.93756,-10.7126 -15.99806,-14.15264 -7.39338,-3.60224 -13.79954,-3.61688 -20.8431,-0.0476 -5.07788,2.57315 -12.41551,9.65393 -12.39164,11.95788 0.007,0.68592 3.44205,3.47839 7.63322,6.2055 4.19117,2.72711 10.31771,7.11461 13.61454,9.75 3.29683,2.63539 6.77668,4.79162 7.733,4.79162 0.95633,0 3.37694,-2.10266 5.37915,-4.67259 z m -66.28676,-7.81115 c 4.26766,-3.9919 9.88141,-7.28815 15.2289,-8.94202 3.93531,-1.21711 -12.24633,-16.57424 -17.46409,-16.57424 -3.4486,0 -12.33666,4.81911 -16.42105,8.9035 l -3.5829,3.58291 2.32653,1.50679 c 4.46035,2.88878 10.4871,8.96131 12.37745,12.47147 1.04714,1.94443 2.0924,3.53533 2.32279,3.53533 0.23039,0 2.57595,-2.01768 5.21237,-4.48374 z m 164.83764,-4.68801 5.07629,-1.17175 0,-4.6887 c 0,-3.32412 0.71159,-5.7373 2.44503,-8.29165 l 2.44502,-3.60295 -4.31278,-3.7866 c -2.37203,-2.08263 -6.38078,-4.54643 -8.90834,-5.47512 l -4.59555,-1.68852 -6.12607,3.06123 c -5.8802,2.93838 -12.94731,8.84913 -12.94731,10.82882 0,0.52049 1.83114,1.88052 4.06919,3.02229 2.23806,1.14177 6.73415,4.52591 9.99131,7.52032 3.25717,2.99441 6.3417,5.44438 6.85452,5.44438 0.51282,0 3.21673,-0.52729 6.00869,-1.17175 z m -57.90111,-4.3523 c 1.30417,-1.38823 5.20761,-4.11025 8.67431,-6.04894 3.4667,-1.93869 6.30309,-4.00224 6.30309,-4.58567 0,-2.39519 -12.26924,-12.70397 -19.46979,-16.35878 l -7.58955,-3.85226 -4.44613,2.16009 c -4.21564,2.04812 -9.70971,8.16149 -11.00643,12.24709 -0.41707,1.31408 0.71939,3.03436 4.00587,6.06373 2.52347,2.32605 5.35715,5.53324 6.29708,7.12707 1.44548,2.45113 2.17146,2.81226 4.70895,2.34245 2.05071,-0.37968 3.94929,0.0729 6,1.43033 3.76825,2.49428 3.6793,2.50144 6.5226,-0.52511 z m -137.3176,-7.96602 c 0.82943,-1.65546 3.79626,-5.3613 6.59294,-8.23519 2.79668,-2.87389 4.83793,-5.4722 4.53611,-5.77402 -1.51926,-1.51927 -22.83405,17.61102 -22.83405,20.49384 0,0.45836 2.29431,-0.13594 5.09846,-1.32066 3.49088,-1.47485 5.57397,-3.10309 6.60654,-5.16397 z m 71.29319,-12.35606 6.09439,-2.76646 -2.17086,-2.7598 c -2.60103,-3.30667 -8.07657,-6.87906 -13.04166,-8.50872 -3.12592,-1.026 -4.41465,-0.8908 -9.44327,0.99064 -3.20283,1.19834 -7.63893,3.87236 -9.85799,5.94228 l -4.03466,3.76349 7.97793,8.38605 7.97793,8.38604 5.2019,-5.33353 c 3.2224,-3.30394 7.52102,-6.38627 11.29629,-8.09999 z m 100.66817,-6.80423 c 4.9484,-2.89996 5.11749,-3.75823 2.33423,-11.84793 -5.38064,-15.63908 -13.95523,-18.77284 -31.37669,-11.46722 -10.13197,4.24879 -9.96069,4.09046 -8.16018,7.54314 0.83818,1.6073 1.52673,3.64721 1.53012,4.53313 0.003,0.88591 2.81866,3.44181 6.25616,5.67978 3.4375,2.23797 8.88508,6.74926 12.10573,10.02509 l 5.85574,5.95606 3.56062,-3.94118 c 1.95834,-2.16765 5.51076,-5.08404 7.89427,-6.48087 z m -69.10681,2.90036 c 1.51227,-2.6125 4.70116,-6.56466 7.08642,-8.78259 l 4.33683,-4.03259 -3.09746,-3.75775 c -3.83965,-4.65817 -12.35552,-9.65518 -16.47562,-9.66769 -3.99166,-0.0121 -14.78825,5.38509 -17.39074,8.69362 l -2.01788,2.56532 4.83333,4.75769 c 2.65834,2.61673 5.41268,6.15636 6.12077,7.86584 0.96935,2.34021 1.93692,3.11851 3.91612,3.15007 1.44577,0.0231 4.20368,0.90419 6.12868,1.95808 1.925,1.05389 3.56974,1.93503 3.65498,1.95808 0.0852,0.0231 1.39229,-2.09558 2.90457,-4.70808 z m -72.05955,-4.09958 c 0.55,-0.90773 3.212,-3.80985 5.91556,-6.44914 4.53439,-4.42662 4.78975,-4.92455 3.29302,-6.42127 -1.49673,-1.49674 -1.93686,-1.48082 -5.67595,0.20527 -6.11532,2.75763 -15.36923,11.57502 -14.49105,13.80749 0.59189,1.50467 1.4487,1.68954 5.33182,1.15042 2.67605,-0.37154 5.04819,-1.33816 5.6266,-2.29277 z m 170.54684,-3.10576 c -6.27716,-5.70829 -16.66745,-12.75738 -17.53115,-11.89368 -0.23583,0.23582 0.1626,2.43164 0.8854,4.87959 1.22783,4.15842 1.59286,4.4984 5.55615,5.17499 2.33309,0.39829 7.00966,2.28364 10.39237,4.18968 3.38272,1.90604 6.37539,3.47728 6.65039,3.49164 0.275,0.0144 -2.40392,-2.61464 -5.95316,-5.84222 z m -77.27891,-11.04466 c -1.10571,-1.77052 -2.76793,-2.72043 -2.76793,-1.58179 0,1.60098 1.44641,3.58179 2.61546,3.58179 1.15116,0 1.17839,-0.35723 0.15247,-2 z m -68.72723,-2.13034 c 2.81684,-0.84395 4.60588,-0.83991 7.06092,0.0159 3.1677,1.10427 3.43674,0.98557 7.34328,-3.23963 2.2303,-2.41225 5.93707,-5.33798 8.23725,-6.50164 2.30018,-1.16365 4.45019,-2.54943 4.77779,-3.07949 0.894,-1.44652 -5.52826,-2.33364 -13.70158,-1.89261 -7.44408,0.40167 -15.62061,3.36319 -20.59055,7.45785 -2.31431,1.90673 -2.31814,1.94612 -0.5,5.13938 2.06505,3.62689 2.17386,3.65789 7.37289,2.10022 z"
         id="path3855"
         inkscape:connector-curvature="0" />
      <path
         style="fill:#000200"
         d="m 348.24353,777.18553 c -3.32312,-0.65041 -4.13525,-7.62355 -4.21379,-36.18049 -0.11622,-42.25835 0.59759,-37.40731 -6.85772,-46.60498 -3.51968,-4.34226 -8.92635,-12.53577 -12.01483,-18.2078 -7.63585,-14.02332 -12.07498,-19.78987 -25.29012,-32.85247 -6.2126,-6.14089 -11.29563,-11.60353 -11.29563,-12.13921 0,-0.53569 0.84739,-2.02045 1.88308,-3.29948 l 1.88308,-2.32551 13.86692,4.30172 c 18.53329,5.74928 25.2877,9.16648 31.45369,15.91305 2.74749,3.00619 5.14238,5.2968 5.32197,5.09024 0.1796,-0.20656 0.87169,-5.55056 1.53799,-11.87556 0.66629,-6.325 2.52586,-19.5717 4.13236,-29.4371 1.6065,-9.86541 2.92091,-18.2501 2.92091,-18.63265 0,-0.38255 -2.39864,-1.86909 -5.3303,-3.30342 -8.16987,-3.99714 -17.68718,-10.35406 -22.6697,-15.1418 -2.93787,-2.82303 -6.06213,-4.72982 -9,-5.49287 -6.73871,-1.75026 -15.9926,-6.41388 -23.13451,-11.65895 -8.07805,-5.9326 -18.86549,-16.23183 -18.86549,-18.0117 0,-0.74881 -1.99473,-5.33323 -4.43274,-10.18759 -5.63278,-11.21554 -7.73107,-19.34112 -7.6319,-29.55437 0.0432,-4.44375 -0.19583,-11.75977 -0.53108,-16.25782 -0.50754,-6.80976 -0.25527,-9.20193 1.50756,-14.29578 1.8049,-5.21541 1.97725,-6.98585 1.16875,-12.00613 -1.96659,-12.21142 2.76064,-30.36449 10.58289,-40.63937 3.73474,-4.90577 10.01264,-17.51079 10.74107,-21.56635 1.49642,-8.33145 16.3133,-25.07707 27.64666,-31.24545 2.91141,-1.58459 8.4904,-6.07328 12.39775,-9.97486 4.56878,-4.56204 9.49476,-8.3025 13.80222,-10.48049 3.68387,-1.86269 7.40855,-4.47123 8.27708,-5.79677 0.86853,-1.32554 4.06518,-4.00038 7.10368,-5.94408 15.41115,-9.8584 34.94138,-10.3893 48.63055,-1.32197 5.32091,3.52442 13.68468,6.30611 24.34805,8.09788 l 7.21792,1.21282 9.77076,-4.30199 c 16.78053,-7.38833 26.70982,-7.80272 36.45912,-1.5216 2.95582,1.90432 5.8959,3.46241 6.53351,3.46241 2.27843,0 12.72268,5.13892 18.76223,9.23165 8.28319,5.61314 19.30986,17.07827 23.928,24.87947 2.08015,3.51388 4.72702,9.53888 5.88193,13.38888 1.15491,3.85 2.85739,7.9 3.7833,9 5.02121,5.96536 8.10489,15.20253 7.28756,21.82989 -0.39936,3.23816 -0.007,4.31969 2.54116,7 9.75654,10.26359 12.33493,28.21373 6.26109,43.58824 -1.85309,4.69068 -1.97163,5.82575 -0.88292,8.45415 0.69166,1.66981 1.25756,6.01272 1.25756,9.65092 0,8.42393 -3.71263,16.62573 -9.36496,20.6887 l -3.82419,2.74888 -0.42858,8.51961 c -0.52661,10.4684 -2.96162,16.38886 -9.64852,23.45927 -4.1267,4.36338 -4.89935,5.83406 -5.43322,10.34176 -1.38633,11.7054 -13.78924,28.13458 -25.4643,33.73058 -3.16139,1.5153 -7.32299,3.61543 -9.24799,4.66696 -16.28478,8.89557 -40.05591,16.17674 -57.52537,17.62019 -11.76185,0.97185 -27.26447,-0.0395 -33.17275,-2.16417 l -4.19813,-1.50966 -0.66539,4.68734 c -0.36597,2.57804 -2.39744,11.78559 -4.51439,20.46124 -4.9521,20.29463 -6.7632,32.73746 -7.462,51.26634 l -0.56419,14.95976 3.17504,-3.68707 c 1.74628,-2.02788 6.61216,-8.73223 10.81307,-14.89855 8.404,-12.33583 10.15366,-14.00999 12.85863,-12.30374 2.06391,1.30188 3.65913,9.42417 2.77574,14.13305 -0.33509,1.78618 -4.82274,9.56619 -9.97255,17.28892 -18.735,28.09523 -24.32203,43.20043 -26.06411,70.46739 -0.8247,12.90814 -0.96957,13.32984 -4.78996,13.94352 -3.91677,0.62915 -21.77342,1.17699 -24.02155,0.73697 z m 15.37267,-9.78903 3.54476,-0.58653 1.13953,-11.65247 c 1.36605,-13.96871 5.07364,-28.69212 9.80244,-38.92698 1.90768,-4.12893 3.46851,-7.61999 3.46851,-7.7579 0,-0.13792 -1.11815,-0.5314 -2.48477,-0.8744 -1.58039,-0.39665 -2.76329,-1.61902 -3.25,-3.35841 -0.42088,-1.50412 -0.74735,-12.40977 -0.7255,-24.23477 0.0441,-23.86043 0.82853,-29.83577 7.54849,-57.5 3.31759,-13.65762 4.65946,-21.53237 3.66178,-21.48918 -0.1375,0.006 -2.45902,0.68096 -5.15893,1.5 -6.18438,1.8761 -12.18785,1.89555 -17.40064,0.0564 -4.0572,-1.43147 -4.06154,-1.43028 -4.6005,1.25 -1.69091,8.40893 -3.74914,22.39786 -5.10298,34.68281 -2.06345,18.72396 -3.37503,26.66022 -4.66235,28.21134 -1.66894,2.01095 -5.64512,1.51692 -7.73738,-0.96134 -1.04475,-1.2375 -4.5586,-5.625 -7.80854,-9.75 -4.52532,-5.74377 -7.18164,-8.11566 -11.34384,-10.1292 -10.20338,-4.93606 -10.91618,-4.80613 -5.8885,1.07334 7.4928,8.76223 11.22502,14.24867 16.86402,24.7905 2.9757,5.56291 8.08187,13.18585 11.34703,16.93987 3.26517,3.75402 6.43391,7.95049 7.04165,9.32549 0.7077,1.60115 1.22676,14.185 1.44368,35 0.18628,17.875 0.53125,33.0625 0.7666,33.75 0.46113,1.34703 3.88091,1.57708 9.53544,0.64146 z m 71.45524,-172.42579 c 12.77822,-1.44525 13.41311,-1.71051 9.8657,-4.12185 -5.46231,-3.71301 -14.3207,-7.84382 -16.82081,-7.84382 -2.8588,0 -20.74675,8.97526 -20.9268,10.5 -0.25566,2.16498 14.73274,2.95287 27.88191,1.46567 z m -31.33251,-10.56133 c 5.38832,-3.07762 11.71745,-6.56512 14.06473,-7.75 4.37166,-2.20678 5.07646,-4.33202 2.48259,-7.48594 -3.61205,-4.39193 -31.30444,-13.87364 -37.1359,-12.7151 -1.91419,0.38029 -4.4422,2.20779 -6.68273,4.83095 -5.21036,6.10015 -5.47629,7.74145 -2.08426,12.86374 1.58507,2.39361 3.66627,5.70201 4.62487,7.35201 2.52023,4.33793 8.35178,8.5 11.9095,8.5 1.83813,0 6.8666,-2.19462 12.8212,-5.59566 z m 68.6113,1.35711 c 3.45334,-1.40372 8.74168,-4.04489 11.75187,-5.86926 4.70985,-2.85446 5.27644,-3.51367 4.06299,-4.72711 -1.21345,-1.21345 -2.50363,-1.19645 -9.25187,0.12193 -7.48475,1.46226 -21.22377,6.54023 -24.05681,8.89144 -1.09942,0.91245 -1.02196,1.45469 0.43832,3.06828 2.31523,2.55831 8.41448,2.02715 17.0555,-1.48528 z m -102.96481,-2.91293 c -1.27269,-2.28332 -4.26818,-6.33332 -6.65665,-9 -3.55902,-3.97358 -4.94873,-4.84852 -7.70121,-4.84852 -1.8472,0 -5.95004,-0.675 -9.11743,-1.5 -3.16739,-0.825 -8.02684,-1.48127 -10.79879,-1.45837 l -5.0399,0.0416 3.63259,3.21286 c 7.39316,6.5389 29.76271,17.44994 36.18139,17.64793 1.66777,0.0515 1.62746,-0.27868 -0.5,-4.09552 z m 80.07966,-5.92801 c 3.64055,-2.69157 21.59741,-9.92051 24.64279,-9.92051 3.80212,0 3.60737,-1.31259 -1.08102,-7.28609 -5.12003,-6.52344 -12.19574,-12.39796 -18.17682,-15.09106 l -4.16894,-1.87715 -4.30482,2.53199 c -5.40825,3.18099 -7.74846,5.69892 -12.2344,13.16348 -5.69103,9.46983 -4.71301,14.18729 3.75909,18.13191 6.33977,2.95181 7.97507,3.00094 11.56412,0.34743 z m 56.40518,-10.17051 c 6.55538,-6.48705 10.58405,-13.51392 11.45644,-19.98249 l 0.50338,-3.73249 -6.3416,2.57682 c -8.87641,3.60681 -18.88756,8.83598 -22.32359,11.66038 l -2.90655,2.38917 1.82182,3.08409 c 1.002,1.69625 2.82935,3.54316 4.06078,4.10423 1.23143,0.56108 3.06955,2.16028 4.08473,3.55379 1.01517,1.39351 2.17944,2.54779 2.58726,2.56508 0.40782,0.0173 3.58362,-2.78108 7.05733,-6.21858 z m -141.3976,-7.19892 c 3.7917,-1.96076 9.09878,-8.15847 9.09878,-10.62571 0,-6.4147 -9.2935,-16.27161 -20,-21.21248 -8.19354,-3.78118 -13.06667,-3.96092 -19.24582,-0.70984 -5.52569,2.90726 -12.65029,8.43252 -15.15478,11.7528 -1.73757,2.30354 -1.69632,2.37423 5.99892,10.28182 7.05506,7.24975 8.09567,7.96233 11.62769,7.96233 2.13355,0 6.89301,0.65934 10.57658,1.4652 3.68358,0.80586 8.04741,1.63844 9.69741,1.85017 1.65,0.21173 3.35985,0.45239 3.79966,0.5348 0.43981,0.0824 2.06051,-0.50218 3.60156,-1.29909 z m -45.81014,-3.30108 c -9.84108,-13.23305 -22.60988,-25.51493 -27.98151,-26.91449 -3.03928,-0.79187 -7.0802,0.6304 -8.50599,2.99384 -0.94891,1.57296 -0.0376,2.8343 6.50267,9 8.3492,7.87106 16.36724,13.10309 24.26189,15.83166 7.26746,2.51181 8.16246,2.36934 5.72294,-0.91101 z m 107.7451,-3.00876 c 2.15088,-3.16732 5.31581,-7.26294 7.03317,-9.10137 l 3.12247,-3.34262 -1.95534,-2.74601 c -3.80723,-5.34676 -14.93889,-14.85651 -20.69835,-17.68254 -6.91782,-3.39441 -12.09476,-3.57031 -17.88308,-0.60763 -5.46838,2.79893 -11.7498,9.82539 -13.96206,15.61812 l -1.81858,4.76188 3.41279,3.31049 c 2.72441,2.64273 5.89345,4.04704 15.71107,6.96209 6.76404,2.00838 14.41404,4.71438 17,6.01332 2.58595,1.29894 5.02246,2.40926 5.41447,2.46737 0.39201,0.0581 2.47255,-2.48578 4.62344,-5.6531 z m 58.32811,-3.64987 c 2.19022,-1.87475 7.32426,-5.03828 11.40897,-7.03007 4.0847,-1.99179 7.42674,-3.85084 7.42674,-4.13121 0,-1.2639 -4.53379,-9.2703 -7.08818,-12.51731 -3.64873,-4.63807 -10.69196,-8.43576 -14.0718,-7.58748 -3.56494,0.89475 -16.71024,9.74829 -20.66405,13.91753 l -3.32403,3.50515 6.82403,4.55363 c 3.75322,2.5045 8.60286,6.3862 10.77698,8.62601 2.17412,2.23981 4.12759,4.07238 4.34103,4.07238 0.21345,0 2.18009,-1.53388 4.37031,-3.40863 z m -31.83039,-21.21849 c 3.39136,-3.64492 8.7536,-8.38669 11.9161,-10.53727 3.1625,-2.15057 5.75,-4.31324 5.75,-4.80592 0,-2.24614 -21.30938,-16.9866 -27.51923,-19.03604 -2.59542,-0.85656 -4.34957,-0.86202 -6.89648,-0.0215 -4.22837,1.39549 -11.67863,7.85114 -15.54335,13.46831 l -2.90615,4.22395 6.18261,4.06542 c 3.40043,2.23598 9.4552,7.48648 13.45505,11.66778 3.99985,4.1813 7.75011,7.60236 8.33391,7.60236 0.5838,0 3.83619,-2.98221 7.22754,-6.62712 z m 72.41869,2.86966 c 6.5776,-4.30981 9.56607,-20.77727 5.29126,-29.15659 -2.1378,-4.19042 -7.34284,-9.08595 -9.66041,-9.08595 -4.3942,0 -17.3279,9.90015 -22.59237,17.29341 l -1.99337,2.79944 4.97619,5.26159 c 2.7369,2.89387 5.76168,6.81048 6.72174,8.70357 3.25783,6.424 4.44742,7.20721 9.85686,6.48962 2.67716,-0.35514 6.0072,-1.39243 7.4001,-2.30509 z m -208.09742,-3.21037 c 2.98958,-2.7323 7.66472,-6.2198 10.3892,-7.75 l 4.9536,-2.78217 10e-4,-5.64641 c 9.4e-4,-5.26043 -0.25209,-5.86863 -3.70162,-8.89736 -4.74251,-4.16398 -14.54824,-8.75475 -20.41846,-9.55935 -9.28653,-1.27286 -22.10023,5.32908 -26.37042,13.58671 -1.35321,2.61681 -1.2459,2.96318 2.1453,6.92503 2.2795,2.6631 6.14976,5.40679 10.70798,7.59108 3.92603,1.88134 9.16323,5.21936 11.63823,7.41782 2.475,2.19846 4.66191,4.01639 4.85979,4.03984 0.19789,0.0234 2.80581,-2.19288 5.79539,-4.92519 z m 59.10462,-2.20054 c 5.26411,-6.55928 9.89947,-11.02794 13.82671,-13.32945 2.42742,-1.42257 4.4135,-3.26946 4.4135,-4.10419 0,-2.98047 -9.86214,-12.06299 -16.17434,-14.89574 -7.33289,-3.29081 -13.56698,-3.01597 -20.23563,0.89212 -4.74058,2.77816 -11.64599,9.87938 -13.96183,14.35771 -1.45454,2.81278 -1.41704,3.09413 0.66518,4.99119 1.21364,1.10571 4.00662,2.57725 6.20662,3.27008 5.02585,1.58275 11.95133,5.09565 16.5,8.36949 4.34194,3.12506 6.52231,3.23677 8.75979,0.44879 z m -97.75979,-3.79603 c 0,-0.46551 -1.575,-2.73153 -3.5,-5.0356 -1.925,-2.30407 -3.5,-3.97661 -3.5,-3.71674 0,0.98032 3.25078,8.26828 4.21771,9.45573 1.03048,1.26548 2.78229,0.82261 2.78229,-0.70339 z m -5.26751,-17.8275 c 1.42888,-3.064 1.40474,-3.39065 -0.34867,-4.7182 -3.423,-2.59165 -4.67325,-1.87826 -3.96091,2.2601 1.40811,8.18046 1.92327,9.87123 2.36136,7.75 0.22718,-1.1 1.10388,-3.48136 1.94822,-5.2919 z m 216.91857,1.7919 c 0.92889,-1.375 3.84153,-4.81349 6.47253,-7.64109 6.33511,-6.8085 7.00162,-9.57438 3.25115,-13.4917 -1.58111,-1.65145 -6.18623,-4.63981 -10.23361,-6.6408 -6.23463,-3.08236 -8.37346,-3.63768 -14,-3.63495 -5.44453,0.003 -7.6061,0.52918 -11.99668,2.92226 -4.5343,2.47141 -11.16478,8.70192 -11.13589,10.46412 0.005,0.28719 3.21384,2.49973 7.1314,4.91675 3.91756,2.41703 10.16849,6.94549 13.89096,10.06325 5.87345,4.91932 7.30766,5.6603 10.84969,5.60541 3.19625,-0.0495 4.44789,-0.60551 5.77045,-2.56325 z m -78.18122,-2.13378 c 3.83108,-5.78916 10.16138,-12.47518 14.13892,-14.93344 3.24923,-2.00813 3.31653,-2.17657 1.93633,-4.84558 -1.96176,-3.79363 -12.8032,-13.66807 -17.81227,-16.22351 -3.69957,-1.88737 -4.63526,-1.97999 -9.34809,-0.92531 -2.88036,0.6446 -7.00182,2.45041 -9.15879,4.01291 -3.5087,2.54169 -11.22594,10.96949 -11.22594,12.25957 0,0.27768 2.62601,2.12573 5.83557,4.10678 6.75692,4.17062 13.12451,10.72363 16.11371,16.58295 2.84707,5.5807 5.81176,5.57 9.52056,-0.0344 z m -57.66934,-17.78358 c 1.75972,-0.72891 3.1995,-1.68083 3.1995,-2.1154 0,-1.06322 -13.03034,-10.72235 -20.57683,-15.25319 -5.62144,-3.37505 -6.36398,-3.56918 -9.90867,-2.59044 -5.87979,1.62348 -11.26782,5.68562 -15.63997,11.79125 l -3.97294,5.54815 6.7992,2.09887 c 8.59836,2.65424 15.72246,6.31314 20.66417,10.61299 l 3.86496,3.36295 6.18554,-6.06495 c 3.40204,-3.33573 7.62531,-6.66133 9.38504,-7.39023 z m 190.81024,2.26656 c 1.76918,-4.63252 1.4779,-10.86578 -0.73467,-15.72185 -1.39911,-3.07072 -1.95217,-3.1596 -6.43216,-1.03371 -3.32045,1.57566 -8.44391,9.69313 -8.44391,13.3783 0,0.86859 2.1375,3.88856 4.75,6.71105 l 4.75,5.1318 2.22483,-2.05807 c 1.22366,-1.13193 2.97232,-4.01532 3.88591,-6.40752 z m -259.71251,2.21505 c 2.12216,-1.33967 5.48822,-3.11671 7.48012,-3.94898 1.99191,-0.83227 3.62165,-1.89808 3.62165,-2.36846 0,-1.58701 -6.16626,-10.71837 -9.84668,-14.58154 -2.00932,-2.10911 -5.32316,-4.69675 -7.36408,-5.75031 l -3.71076,-1.91557 -2.1241,2.2503 c -3.21019,3.40093 -4.77542,6.92055 -5.49712,12.36097 -0.91892,6.92715 0.91707,10.78554 6.54274,13.74975 5.84137,3.07787 6.33096,3.08702 10.89823,0.20384 z m 231.43319,-7.18525 c 2.59564,-1.23777 4.16367,-3.20109 6.6326,-8.30463 3.05136,-6.30746 3.16246,-6.92017 1.9741,-10.88657 -1.57816,-5.26744 -6.96779,-11.65213 -12.00573,-14.22229 -9.96973,-5.08618 -26.07701,0.67834 -31.56857,11.29784 -1.76892,3.42071 -1.32757,4.03461 4.13618,5.75327 7.97164,2.50753 15.99278,7.30555 20.95575,12.53514 2.77434,2.92338 5.36648,5.34517 5.76032,5.38174 0.39384,0.0366 2.24575,-0.66295 4.11535,-1.5545 z m -74.76108,-0.40574 c 1.48529,-0.56471 5.05296,-3.37917 7.92814,-6.25435 4.66649,-4.66649 8.8893,-7.33659 16.36388,-10.34697 l 2.36235,-0.95143 -2.70304,-3.21239 c -3.71317,-4.41284 -16.17682,-12.42615 -22.86122,-14.69825 -5.39027,-1.83221 -5.61861,-1.83249 -9.65606,-0.0119 -3.9167,1.76624 -14.00439,11.57412 -14.00439,13.616 0,0.52404 3.78887,4.65028 8.4197,9.16941 4.78549,4.67007 8.71697,9.40361 9.10841,10.96662 0.76619,3.05941 1.16732,3.1965 5.04223,1.72326 z m -67.56874,-6.97576 c 1.76555,-2.75137 5.4823,-7.0454 8.25943,-9.54228 l 5.04934,-4.53979 -3.40519,-3.56779 c -1.87285,-1.96229 -6.51325,-5.76826 -10.31201,-8.45772 -5.99257,-4.24264 -7.55319,-4.88992 -11.78984,-4.88992 -5.91105,0 -10.99969,2.44959 -15.9234,7.66527 -6.66738,7.06274 -6.69627,6.93368 2.99441,13.37642 4.74411,3.15407 10.87566,7.78982 13.62566,10.30168 2.75,2.51185 5.74059,4.58717 6.64575,4.61182 0.90898,0.0248 3.08286,-2.19472 4.85585,-4.95769 z m -68.5016,-6.0787 c 1.1,-1.35354 4.12872,-4.22694 6.73048,-6.38534 l 4.73048,-3.92435 -2.61302,-4.55456 c -4.60347,-8.02393 -13.49224,-16.05455 -17.77014,-16.05455 -3.00906,0 -9.10654,5.33971 -12.2789,10.75295 l -2.69913,4.6057 2.88506,2.07068 c 5.74467,4.12308 10.34835,8.69026 13.64857,13.54038 2.53014,3.71839 3.61506,4.63243 4.3666,3.67887 0.55,-0.69784 1.9,-2.37624 3,-3.72978 z m 237.52717,-8.9188 c 3.19791,0 4.5855,-2.8531 5.60458,-11.52388 1.01908,-8.67073 -4.929,-24.47612 -9.21116,-24.47612 -2.42607,0 -11.76909,9.98044 -14.34491,15.3236 l -2.32535,4.82359 3.05551,3.17641 c 1.68052,1.74702 4.25889,5.58571 5.7297,8.53043 2.51866,5.04259 2.84988,5.31889 5.69433,4.75 1.66107,-0.33222 4.26986,-0.60403 5.7973,-0.60403 z m -129.50686,-8.17556 c 3.18756,-4.38962 8.02507,-9.01334 12.48839,-11.93649 l 2.46142,-1.61206 -5.98506,-3.82985 c -11.77712,-7.5362 -22.41894,-12.67945 -24.93055,-12.04908 -5.45197,1.36836 -21.55451,13.71152 -21.55451,16.52229 0,0.35724 1.37912,1.4642 3.06472,2.45991 1.6856,0.99571 5.895,4.45797 9.35424,7.69391 7.39829,6.92074 9.09185,7.67649 16.4342,7.33378 5.25499,-0.24528 5.68143,-0.47074 8.66715,-4.58241 z m -80.94397,2.83638 c 2.79009,-5.87723 13.16656,-16.66082 16.03181,-16.66082 2.38315,0 1.55445,-1.5954 -3.01794,-5.81008 C 333.87269,421.86739 322.188,420.51 312.89864,429.33087 l -4.39587,4.17417 5.84402,6.12066 c 3.21421,3.36636 7.16716,8.67645 8.78434,11.80021 2.88615,5.57494 3.00478,5.66779 6.44031,5.04016 1.925,-0.35167 3.53435,-0.71177 3.57634,-0.80021 z m 152.10741,-10.45008 c 2.64894,-1.69553 6.05375,-3.55044 7.56625,-4.12201 1.5125,-0.57158 2.75,-1.39508 2.75,-1.83 0,-2.68998 -18.48422,-11.25873 -24.28695,-11.25873 -5.26021,0 -12.66207,3.12903 -17.26955,7.30045 l -4.71709,4.27065 7.8868,4.64306 c 4.33773,2.55368 9.89796,6.41067 12.35606,8.57108 l 4.46927,3.92802 3.21448,-4.20987 c 1.76796,-2.31543 5.38179,-5.59712 8.03073,-7.29265 z m -204.3269,-5.48241 c 1.57126,-2.0335 4.38376,-4.64097 6.25,-5.79437 2.52611,-1.56122 3.37873,-2.77894 3.33671,-4.76552 -0.1685,-7.96635 -5.42749,-13.84752 -9.27449,-10.37175 -5.8352,5.2721 -13.32146,31.21759 -9.97349,34.56556 0.38257,0.38257 2.07007,-1.69667 3.75,-4.62052 1.67993,-2.92386 4.34,-6.97989 5.91127,-9.0134 z m 237.71643,-5.47833 c 1.23002,-2.0625 3.98251,-5.87447 6.11666,-8.47103 l 3.88026,-4.72104 -2.11986,-4.15526 c -5.61003,-10.99659 -18.79153,-16.17084 -27.05246,-10.61915 -3.57537,2.4028 -9.89788,11.90224 -9.89788,14.87135 0,0.95884 1.6875,2.98583 3.75,4.50442 2.0625,1.51859 6.08556,4.91649 8.94014,7.55089 4.58795,4.23408 5.70973,4.78982 9.66844,4.78982 4.11068,0 4.66189,-0.30784 6.7147,-3.75 z m -72.90438,-3.5 c 3.01029,-2.8875 6.67836,-6.30934 8.15127,-7.60408 l 2.67801,-2.35409 -4.57303,-5.14591 c -2.51517,-2.83026 -7.57726,-7.73996 -11.24909,-10.91046 -7.37322,-6.36652 -7.87688,-6.44179 -16.16637,-2.41612 -5.37338,2.60951 -15.41106,11.97655 -14.79963,13.81084 0.23843,0.7153 4.22621,3.47508 8.86173,6.13284 4.63551,2.65777 10.90321,6.80207 13.92821,9.20958 3.025,2.4075 5.99402,4.41105 6.59783,4.45234 0.6038,0.0413 3.56078,-2.28744 6.57107,-5.17494 z m -76.53693,2.16844 c 1.85241,-1.14486 3.36803,-2.43041 3.36803,-2.85679 0,-0.42637 3.608,-3.42717 8.01778,-6.66844 l 8.01779,-5.89321 -2.76779,-2.3209 c -1.52228,-1.2765 -7.36528,-5.439 -12.98444,-9.25 -11.70593,-7.93914 -13.9709,-8.38407 -22.08824,-4.33904 -4.89204,2.43781 -14.1951,11.57004 -14.1951,13.93445 0,0.58237 2.38741,2.22975 5.30536,3.66085 2.91794,1.43109 8.54481,5.57483 12.50415,9.20831 4.15875,3.81649 8.09736,6.60633 9.3266,6.60633 1.1703,0 3.64344,-0.9367 5.49586,-2.08156 z M 306.053,423.02174 c 5.7877,-5.24137 9.54394,-7.23946 15.81847,-8.41448 3.33608,-0.62474 3.71721,-0.97964 3.12169,-2.90692 -2.28626,-7.39901 -8.76295,-14.98989 -13.88695,-16.27593 -1.33571,-0.33524 -3.99523,-0.0925 -5.91005,0.53947 -4.10819,1.35582 -14.4876,7.92039 -16.61099,10.5058 -1.34637,1.63932 -1.25224,1.96027 1,3.40982 5.10422,3.28508 7.84971,7.15074 8.99424,12.66393 0.6236,3.00389 1.32216,5.46161 1.55234,5.46161 0.23019,0 2.89474,-2.24248 5.92125,-4.9833 z m 172.51684,-4.01584 c 1.90913,-1.02174 9.0016,-13.40397 9.0016,-15.71525 0,-4.08674 -14.00255,-14.28561 -19.61344,-14.28561 -5.16144,0 -18.38656,7.53686 -18.38656,10.47831 0,0.75709 1.0125,2.20357 2.25,3.21439 1.2375,1.01083 5.14629,4.98099 8.68621,8.82258 5.74089,6.23014 6.92925,7.04877 11,7.57762 2.51008,0.32609 4.70587,0.66359 4.87953,0.75 0.17366,0.0864 1.15585,-0.29251 2.18266,-0.84204 z m 58.03429,-12.2861 c -2.18065,-7.27833 -9.3829,-16.1559 -15.96488,-19.67847 -3.09132,-1.65442 -4.06781,-0.49316 -4.06781,4.83751 0,4.43905 0.23016,4.86553 3.45597,6.40381 4.49558,2.14379 10.93056,7.99371 13.67129,12.4283 1.90298,3.07909 2.29082,3.29841 3.14226,1.77698 0.6485,-1.15881 0.56979,-3.07587 -0.23683,-5.76813 z m -132.10191,0.25228 c 2.33413,-2.76813 6.67957,-6.83233 9.65654,-9.03155 2.97697,-2.19922 5.41268,-4.51152 5.41268,-5.13845 0,-2.21206 -8.60507,-9.34416 -15.89348,-13.17293 -6.60678,-3.47069 -7.92557,-3.81938 -12.61471,-3.33542 -7.99856,0.82552 -14.31318,4.61176 -19.83248,11.89151 l -2.79023,3.6802 8.92642,6.00211 c 4.90953,3.30116 11.04136,7.83257 13.62627,10.0698 6.23607,5.39728 8.26633,5.25221 13.50899,-0.96527 z m -67.60973,-6.45017 c 4.66098,-4.466 13.22996,-9.51687 16.14571,-9.51687 0.84328,0 1.53324,-0.41374 1.53324,-0.91941 0,-1.76844 -10.3037,-12.17426 -14.47579,-14.61927 -3.73067,-2.18632 -4.59719,-2.33465 -7.61689,-1.30389 -8.33669,2.84571 -19.65119,12.42795 -16.08017,13.61829 3.43618,1.14539 9.98753,7.33591 12.67285,11.97486 1.65,2.85041 3.03199,5.19761 3.0711,5.216 0.0391,0.0184 2.17658,-1.98399 4.74995,-4.44971 z M 504.69659,394.6 c 2.3598,-0.51274 2.67003,-1.11158 3.06914,-5.92431 0.28344,-3.41794 1.27377,-6.51924 2.73874,-8.5766 l 2.29475,-3.22268 -2.32867,-2.47876 c -1.28077,-1.36332 -5.14255,-3.86402 -8.58173,-5.55713 -6.21797,-3.0611 -6.27647,-3.06901 -10.42397,-1.40951 -5.71211,2.28553 -12.33325,6.97862 -14.8682,10.53863 l -2.10766,2.95993 5.10141,2.58508 c 2.80578,1.42179 7.75303,5.02279 10.9939,8.00221 5.30363,4.87578 6.17203,5.32901 8.68981,4.53533 1.53853,-0.48499 3.97865,-1.13848 5.42248,-1.45219 z m -58.79345,-4.97681 c 2.29257,-1.86002 6.54006,-4.57229 9.43889,-6.02728 4.52144,-2.26941 5.13067,-2.90685 4.28624,-4.48468 -1.645,-3.07372 -11.72942,-11.77208 -17.42756,-15.03223 -9.85098,-5.63616 -14.10863,-5.00497 -21.06586,3.123 -5.55968,6.49523 -5.66773,8.44319 -0.70558,12.71953 2.28703,1.97093 5.21662,5.14611 6.51022,7.05596 2.10412,3.10648 2.76982,3.44228 6.31657,3.18619 2.65567,-0.19174 4.39307,0.23004 5.26243,1.27755 1.83297,2.2086 2.67805,2.00055 7.38465,-1.81804 z m -137.09195,-9.00872 c 2.05686,-3.00226 5.09436,-6.42321 6.75,-7.60213 1.65564,-1.17892 3.01025,-2.8323 3.01025,-3.67417 0,-3.46068 -14.76927,7.86006 -20.57805,15.7732 -1.88207,2.56389 -3.42195,4.91813 -3.42195,5.23164 0,0.31351 2.3625,-0.51896 5.25,-1.84994 3.98899,-1.83871 6.14826,-3.73108 8.98975,-7.8786 z m 57.98965,-1.24992 c 4.67452,-5.0794 10.16185,-8.91763 14.19696,-9.93038 3.99523,-1.00274 4.08792,-2.30041 0.43606,-6.10483 -3.8383,-3.99864 -11.68873,-8.3243 -15.10739,-8.3243 -3.63725,0 -16.4362,6.58377 -18.28539,9.40599 -1.66877,2.54687 -1.65624,2.56926 6.1791,11.04061 4.31819,4.66871 7.95449,8.50315 8.08066,8.52098 0.12618,0.0178 2.15118,-2.0558 4.5,-4.60807 z m 103.65677,-8.41941 c 1.24425,-1.68295 4.67409,-4.60272 7.62186,-6.48839 2.94777,-1.88566 5.56707,-3.7712 5.82068,-4.19009 0.75496,-1.24699 -2.88074,-11.82151 -5.74463,-16.70835 -3.58807,-6.12258 -7.30402,-7.93053 -15.02027,-7.30792 -5.32014,0.42927 -19.65229,5.41549 -21.73613,7.56209 -0.36977,0.38091 0.039,2.94256 0.90829,5.69256 1.42046,4.49345 2.28524,5.4559 8.53591,9.5 3.82543,2.475 9.0417,6.83762 11.59172,9.69472 2.55002,2.85709 4.88927,5.21959 5.19834,5.25 0.30907,0.0304 1.57997,-1.32168 2.82423,-3.00462 z M 410.49927,366.435 c 1.33342,-2.51352 4.37015,-6.28275 6.74829,-8.37607 2.37813,-2.09332 4.32388,-4.22386 4.32388,-4.73455 0,-1.76322 -6.51509,-7.98228 -11.25709,-10.74559 -2.6164,-1.52466 -6.2624,-2.81478 -8.10222,-2.86693 -4.04224,-0.11458 -13.49137,4.48412 -17.22836,8.38468 l -2.70578,2.82423 5.57171,6.01811 c 3.06445,3.30997 5.8608,6.92893 6.21412,8.04214 0.37947,1.19562 1.5357,2.04117 2.82501,2.06594 1.20043,0.0231 3.75761,0.90419 5.68261,1.95808 1.925,1.05389 3.95077,1.93503 4.50172,1.95808 0.55094,0.0231 2.09269,-2.0146 3.42611,-4.52812 z m 101.54087,-4.49844 c -5.37225,-5.46206 -19.44767,-15.93152 -21.41876,-15.93152 -0.43038,0 -0.10693,2.4272 0.71877,5.39378 1.41532,5.08491 1.7136,5.42773 5.20904,5.98667 4.97371,0.79533 11.64743,3.83783 16.52225,7.53237 2.2,1.66735 4.21091,3.04406 4.4687,3.05936 0.25778,0.0153 -2.21722,-2.703 -5.5,-6.04066 z m -177.24544,2.34186 c 2.55166,-0.36291 3.92191,-1.15539 4.35452,-2.51843 0.34718,-1.09388 2.68395,-3.95572 5.19282,-6.35964 4.43095,-4.24559 4.51047,-4.42724 2.77688,-6.34285 -1.7722,-1.95825 -1.81155,-1.95839 -5.61124,-0.0199 -2.10459,1.07368 -6.3868,4.33524 -9.51602,7.24792 -4.75973,4.43034 -5.57103,5.66905 -4.96452,7.57998 0.51489,1.62227 1.20594,2.08981 2.38464,1.61336 0.91281,-0.36897 3.33513,-0.90915 5.38292,-1.2004 z m 97.77674,-13.83912 c 0,-1.61757 -2.26023,-4.43426 -3.55824,-4.43426 -1.2771,0 -1.25583,0.35413 0.1502,2.5 1.48389,2.26471 3.40804,3.35677 3.40804,1.93426 z m -69.28348,-4.35296 c 2.0806,-0.59671 4.44698,-0.53701 6.75168,0.17032 3.44494,1.05728 3.65412,0.96548 7.17667,-3.14983 1.99557,-2.33137 6.13825,-5.65539 9.20597,-7.3867 l 5.57766,-3.14784 -4.46425,-1.35072 c -8.9113,-2.69623 -23.54676,0.51161 -31.22362,6.84369 l -3.75937,3.10083 2.25937,2.86415 c 2.47542,3.13802 3.68248,3.43083 8.47589,2.0561 z"
         id="path3853"
         inkscape:connector-curvature="0" />
    </g>
  </g>
</svg>
