<?xml version="1.0" encoding="UTF-8" standalone="no"?>
<!-- Created with Inkscape (http://www.inkscape.org/) -->

<svg
   xmlns:dc="http://purl.org/dc/elements/1.1/"
   xmlns:cc="http://creativecommons.org/ns#"
   xmlns:rdf="http://www.w3.org/1999/02/22-rdf-syntax-ns#"
   xmlns:svg="http://www.w3.org/2000/svg"
   xmlns="http://www.w3.org/2000/svg"
   xmlns:xlink="http://www.w3.org/1999/xlink"
   xmlns:sodipodi="http://sodipodi.sourceforge.net/DTD/sodipodi-0.dtd"
   xmlns:inkscape="http://www.inkscape.org/namespaces/inkscape"
   height="314.72815"
   id="svg1354"
   inkscape:version="0.48.1 r9760"
   sodipodi:docname="apple_with_worm_dan_ger_01r_2.svg"
   sodipodi:version="0.32"
   width="270.0163"
   inkscape:output_extension="org.inkscape.output.svg.inkscape"
   version="1.0">
  <metadata
     id="metadata3">
    <rdf:RDF>
      <cc:Work
         rdf:about="">
        <dc:title />
        <dc:description>Apple with a bite taken out. A worm is coming out of the bit portion.</dc:description>
        <dc:subject>
          <rdf:Bag>
            <rdf:li>food fruit apple</rdf:li>
          </rdf:Bag>
        </dc:subject>
        <dc:publisher>
          <cc:Agent
             rdf:about="http://www.openclipart.org/">
            <dc:title>Open Clip Art Library</dc:title>
          </cc:Agent>
        </dc:publisher>
        <dc:creator>
          <cc:Agent>
            <dc:title>Dan Gerhards</dc:title>
          </cc:Agent>
        </dc:creator>
        <dc:rights>
          <cc:Agent>
            <dc:title>Dan Gerhards</dc:title>
          </cc:Agent>
        </dc:rights>
        <dc:date>September 2005</dc:date>
        <dc:format>image/svg+xml</dc:format>
        <dc:type
           rdf:resource="http://purl.org/dc/dcmitype/StillImage" />
        <cc:license
           rdf:resource="http://web.resource.org/cc/PublicDomain" />
        <dc:language>en</dc:language>
      </cc:Work>
      <cc:License
         rdf:about="http://web.resource.org/cc/PublicDomain">
        <cc:permits
           rdf:resource="http://web.resource.org/cc/Reproduction" />
        <cc:permits
           rdf:resource="http://web.resource.org/cc/Distribution" />
        <cc:permits
           rdf:resource="http://web.resource.org/cc/DerivativeWorks" />
      </cc:License>
    </rdf:RDF>
  </metadata>
  <defs
     id="defs1357">
    <linearGradient
       id="linearGradient21671">
      <stop
         id="stop21673"
         offset="0.0000000"
         style="stop-color:#e0bc6e;stop-opacity:1.0000000;" />
      <stop
         id="stop21677"
         offset="0.50000000"
         style="stop-color:#f9fbea;stop-opacity:1.0000000;" />
      <stop
         id="stop21675"
         offset="1.0000000"
         style="stop-color:#e5c973;stop-opacity:1.0000000;" />
    </linearGradient>
    <linearGradient
       id="linearGradient20875">
      <stop
         id="stop20877"
         offset="0.0000000"
         style="stop-color:#707070;stop-opacity:1.0000000;" />
      <stop
         id="stop20879"
         offset="1.0000000"
         style="stop-color:#000000;stop-opacity:1.0000000;" />
    </linearGradient>
    <linearGradient
       id="linearGradient20822">
      <stop
         id="stop20824"
         offset="0.0000000"
         style="stop-color:#efc9c6;stop-opacity:1.0000000;" />
      <stop
         id="stop20826"
         offset="1.0000000"
         style="stop-color:#d2837d;stop-opacity:1.0000000;" />
    </linearGradient>
    <linearGradient
       id="linearGradient18595">
      <stop
         id="stop18597"
         offset="0.0000000"
         style="stop-color:#e2e99a;stop-opacity:0.61224490;" />
      <stop
         id="stop18601"
         offset="0.50000000"
         style="stop-color:#e8e99a;stop-opacity:1.0000000;" />
      <stop
         id="stop18599"
         offset="1.0000000"
         style="stop-color:#e5ef8b;stop-opacity:1.0000000;" />
    </linearGradient>
    <linearGradient
       id="linearGradient16331">
      <stop
         id="stop16333"
         offset="0.0000000"
         style="stop-color:#b87018;stop-opacity:0.44705883;" />
      <stop
         id="stop16335"
         offset="1.0000000"
         style="stop-color:#e9bd42;stop-opacity:0.22352941;" />
    </linearGradient>
    <linearGradient
       id="linearGradient16301">
      <stop
         id="stop16303"
         offset="0.0000000"
         style="stop-color:#e1e899;stop-opacity:1.0000000;" />
      <stop
         id="stop16305"
         offset="1.0000000"
         style="stop-color:#f7fadb;stop-opacity:1.0000000;" />
    </linearGradient>
    <linearGradient
       id="linearGradient16293">
      <stop
         id="stop16295"
         offset="0.0000000"
         style="stop-color:#b8a718;stop-opacity:0.44705883;" />
      <stop
         id="stop16297"
         offset="1.0000000"
         style="stop-color:#e9e742;stop-opacity:0.22448979;" />
    </linearGradient>
    <linearGradient
       id="linearGradient16285">
      <stop
         id="stop16287"
         offset="0.0000000"
         style="stop-color:#998643;stop-opacity:1.0000000;" />
      <stop
         id="stop16289"
         offset="1.0000000"
         style="stop-color:#999043;stop-opacity:0.0000000;" />
    </linearGradient>
    <linearGradient
       id="linearGradient13979">
      <stop
         id="stop13981"
         offset="0"
         style="stop-color:#ffcfcf;stop-opacity:1;" />
      <stop
         id="stop13983"
         offset="1"
         style="stop-color:#ffcfcf;stop-opacity:0;" />
    </linearGradient>
    <linearGradient
       id="linearGradient13971">
      <stop
         id="stop13973"
         offset="0.0000000"
         style="stop-color:#070001;stop-opacity:1.0000000;" />
      <stop
         id="stop13975"
         offset="1.0000000"
         style="stop-color:#620916;stop-opacity:1.0000000;" />
    </linearGradient>
    <linearGradient
       id="linearGradient8822">
      <stop
         id="stop8824"
         offset="0"
         style="stop-color:#fefefe;stop-opacity:1;" />
      <stop
         id="stop8826"
         offset="1"
         style="stop-color:#fefefe;stop-opacity:0;" />
    </linearGradient>
    <linearGradient
       id="linearGradient8814">
      <stop
         id="stop8816"
         offset="0"
         style="stop-color:#8d2025;stop-opacity:1;" />
      <stop
         id="stop8818"
         offset="1.0000000"
         style="stop-color:#8d2025;stop-opacity:1.0000000;" />
    </linearGradient>
    <linearGradient
       id="linearGradient8080">
      <stop
         id="stop8082"
         offset="0"
         style="stop-color:#420202;stop-opacity:1;" />
      <stop
         id="stop8084"
         offset="1"
         style="stop-color:#420202;stop-opacity:0;" />
    </linearGradient>
    <linearGradient
       id="linearGradient7346">
      <stop
         id="stop7348"
         offset="0.0000000"
         style="stop-color:#440000;stop-opacity:0.37755102;" />
      <stop
         id="stop7350"
         offset="1"
         style="stop-color:#430000;stop-opacity:1.0000000" />
    </linearGradient>
    <linearGradient
       id="linearGradient6590">
      <stop
         id="stop6592"
         offset="0.0000000"
         style="stop-color:#c04958;stop-opacity:1.0000000;" />
      <stop
         id="stop6598"
         offset="0.50000000"
         style="stop-color:#be4656;stop-opacity:0.74489796;" />
      <stop
         id="stop6594"
         offset="1.0000000"
         style="stop-color:#bd4253;stop-opacity:0.0000000;" />
    </linearGradient>
    <linearGradient
       id="linearGradient6582">
      <stop
         id="stop6584"
         offset="0"
         style="stop-color:#000000;stop-opacity:1;" />
      <stop
         id="stop6586"
         offset="1"
         style="stop-color:#000000;stop-opacity:0;" />
    </linearGradient>
    <linearGradient
       id="linearGradient5832">
      <stop
         id="stop5834"
         offset="0.0000000"
         style="stop-color:#000000;stop-opacity:1.0000000;" />
      <stop
         id="stop5836"
         offset="1.0000000"
         style="stop-color:#380c0e;stop-opacity:0.0000000;" />
    </linearGradient>
    <linearGradient
       id="linearGradient3643">
      <stop
         id="stop3645"
         offset="0.0000000"
         style="stop-color:#7f1c21;stop-opacity:1.0000000;" />
      <stop
         id="stop3647"
         offset="1.0000000"
         style="stop-color:#b0161d;stop-opacity:1.0000000;" />
    </linearGradient>
    <radialGradient
       cx="48.50449"
       cy="65.67099"
       fx="48.50449"
       fy="65.67099"
       gradientTransform="matrix(0.396859,0.0706019,-0.02777794,0.156142,35.79646,52.88718)"
       gradientUnits="userSpaceOnUse"
       id="radialGradient8878"
       inkscape:collect="always"
       r="42.887432"
       xlink:href="#linearGradient8822" />
    <radialGradient
       cx="40.423332"
       cy="140.83504"
       fx="40.423332"
       fy="140.83504"
       gradientTransform="matrix(1.974909,-0.75203,0.664289,1.744492,-132.9643,-72.54759)"
       gradientUnits="userSpaceOnUse"
       id="radialGradient8881"
       inkscape:collect="always"
       r="18.794815"
       xlink:href="#linearGradient6590" />
    <radialGradient
       cx="62.484726"
       cy="67.062752"
       fx="62.484726"
       fy="67.062752"
       gradientTransform="matrix(1.864309,-0.111884,0.02142618,0.357021,-50.5891,48.78081)"
       gradientUnits="userSpaceOnUse"
       id="radialGradient8885"
       inkscape:collect="always"
       r="42.887432"
       xlink:href="#linearGradient8822" />
    <radialGradient
       cx="61.331074"
       cy="96.750336"
       fx="61.331074"
       fy="96.750336"
       gradientTransform="matrix(2.284827,0.320645,-0.134288,0.9569,-65.80743,-15.18181)"
       gradientUnits="userSpaceOnUse"
       id="radialGradient8889"
       inkscape:collect="always"
       r="28.270758"
       xlink:href="#linearGradient8080" />
    <radialGradient
       cx="86.173874"
       cy="177.76193"
       fx="86.173874"
       fy="177.76193"
       gradientTransform="matrix(2.111825,-0.09891897,0.01849545,0.39486,-99.08371,102.6595)"
       gradientUnits="userSpaceOnUse"
       id="radialGradient8892"
       inkscape:collect="always"
       r="34.792561"
       xlink:href="#linearGradient5832" />
    <linearGradient
       gradientUnits="userSpaceOnUse"
       id="linearGradient8895"
       inkscape:collect="always"
       x1="89.084457"
       x2="82.966072"
       xlink:href="#linearGradient3643"
       y1="139.21457"
       y2="60.822758" />
    <linearGradient
       gradientUnits="userSpaceOnUse"
       id="linearGradient13977"
       inkscape:collect="always"
       x1="80.451797"
       x2="83.511337"
       xlink:href="#linearGradient13971"
       y1="40.503368"
       y2="42.510963" />
    <radialGradient
       cx="86.065315"
       cy="33.995708"
       fx="86.065315"
       fy="33.995708"
       gradientTransform="matrix(-1.633335,-1.061337,0.908849,-1.398664,195.7418,172.8886)"
       gradientUnits="userSpaceOnUse"
       id="radialGradient13987"
       inkscape:collect="always"
       r="2.7279859"
       xlink:href="#linearGradient13971" />
    <radialGradient
       cx="280.54092"
       cy="120.56979"
       fx="280.54092"
       fy="120.56979"
       gradientTransform="matrix(0.372615,0.437996,-0.245668,0.208997,46.3635,-21.87512)"
       gradientUnits="userSpaceOnUse"
       id="radialGradient17089"
       inkscape:collect="always"
       r="8.1621428"
       xlink:href="#linearGradient16293" />
    <radialGradient
       cx="288.28595"
       cy="114.64095"
       fx="288.28595"
       fy="114.64095"
       gradientTransform="matrix(1.161036,0,0,2.279391,-202.87,-145.6333)"
       gradientUnits="userSpaceOnUse"
       id="radialGradient17092"
       inkscape:collect="always"
       r="8.1621428"
       xlink:href="#linearGradient16293" />
    <radialGradient
       cx="259.35349"
       cy="121.60902"
       fx="259.35349"
       fy="121.60902"
       gradientTransform="matrix(1.58392,0.722404,-0.310992,0.827798,-272.8859,-158.8299)"
       gradientUnits="userSpaceOnUse"
       id="radialGradient17095"
       inkscape:collect="always"
       r="8.1621428"
       xlink:href="#linearGradient16293" />
    <radialGradient
       cx="294.08792"
       cy="96.092392"
       fx="294.08792"
       fy="96.092392"
       gradientTransform="matrix(-0.377055,-0.358713,1.025253,-1.077677,149.5455,288.5998)"
       gradientUnits="userSpaceOnUse"
       id="radialGradient17101"
       inkscape:collect="always"
       r="8.1621428"
       xlink:href="#linearGradient16331" />
    <radialGradient
       cx="256.1087"
       cy="103.76028"
       fx="256.1087"
       fy="103.76028"
       gradientTransform="matrix(0.367168,0.483351,-1.225841,0.931188,130.0035,-127.2121)"
       gradientUnits="userSpaceOnUse"
       id="radialGradient17104"
       inkscape:collect="always"
       r="8.1621428"
       xlink:href="#linearGradient16293" />
    <linearGradient
       gradientTransform="translate(-192.2522,-79.49671)"
       gradientUnits="userSpaceOnUse"
       id="linearGradient17107"
       inkscape:collect="always"
       x1="286.4371"
       x2="307.3588"
       xlink:href="#linearGradient16301"
       y1="196.73601"
       y2="183.21617" />
    <linearGradient
       gradientTransform="translate(-192.2522,-79.49671)"
       gradientUnits="userSpaceOnUse"
       id="linearGradient17111"
       inkscape:collect="always"
       x1="315.39673"
       x2="326.10043"
       xlink:href="#linearGradient18595"
       y1="181.11861"
       y2="182.88014" />
    <radialGradient
       cx="251.51294"
       cy="79.891762"
       fx="251.51294"
       fy="79.891762"
       gradientTransform="matrix(-0.14894,-0.582007,1.808962,-0.462926,29.57558,296.716)"
       gradientUnits="userSpaceOnUse"
       id="radialGradient18567"
       inkscape:collect="always"
       r="8.1621428"
       xlink:href="#linearGradient16331" />
    <linearGradient
       gradientTransform="translate(-192.2522,-79.49671)"
       gradientUnits="userSpaceOnUse"
       id="linearGradient19339"
       inkscape:collect="always"
       x1="286.4371"
       x2="307.3588"
       xlink:href="#linearGradient16301"
       y1="196.73601"
       y2="183.21617" />
    <radialGradient
       cx="256.1087"
       cy="103.76028"
       fx="256.1087"
       fy="103.76028"
       gradientTransform="matrix(0.367168,0.483351,-1.225841,0.931188,130.0035,-127.2121)"
       gradientUnits="userSpaceOnUse"
       id="radialGradient19341"
       inkscape:collect="always"
       r="8.1621428"
       xlink:href="#linearGradient16293" />
    <radialGradient
       cx="259.35349"
       cy="121.60902"
       fx="259.35349"
       fy="121.60902"
       gradientTransform="matrix(1.58392,0.722404,-0.310992,0.827798,-272.8859,-158.8299)"
       gradientUnits="userSpaceOnUse"
       id="radialGradient19343"
       inkscape:collect="always"
       r="8.1621428"
       xlink:href="#linearGradient16293" />
    <radialGradient
       cx="288.28595"
       cy="114.64095"
       fx="288.28595"
       fy="114.64095"
       gradientTransform="matrix(1.161036,0,0,2.279391,-202.87,-145.6333)"
       gradientUnits="userSpaceOnUse"
       id="radialGradient19345"
       inkscape:collect="always"
       r="8.1621428"
       xlink:href="#linearGradient16293" />
    <radialGradient
       cx="280.54092"
       cy="120.56979"
       fx="280.54092"
       fy="120.56979"
       gradientTransform="matrix(0.372615,0.437996,-0.245668,0.208997,46.3635,-21.87512)"
       gradientUnits="userSpaceOnUse"
       id="radialGradient19347"
       inkscape:collect="always"
       r="8.1621428"
       xlink:href="#linearGradient16293" />
    <linearGradient
       gradientTransform="translate(-192.2522,-79.49671)"
       gradientUnits="userSpaceOnUse"
       id="linearGradient19349"
       inkscape:collect="always"
       x1="315.39673"
       x2="326.10043"
       xlink:href="#linearGradient18595"
       y1="181.11861"
       y2="182.88014" />
    <radialGradient
       cx="294.08792"
       cy="96.092392"
       fx="294.08792"
       fy="96.092392"
       gradientTransform="matrix(-0.377055,-0.358713,1.025253,-1.077677,149.5455,288.5998)"
       gradientUnits="userSpaceOnUse"
       id="radialGradient19351"
       inkscape:collect="always"
       r="8.1621428"
       xlink:href="#linearGradient16331" />
    <radialGradient
       cx="251.51294"
       cy="79.891762"
       fx="251.51294"
       fy="79.891762"
       gradientTransform="matrix(-0.14894,-0.582007,1.808962,-0.462926,29.57558,296.716)"
       gradientUnits="userSpaceOnUse"
       id="radialGradient19353"
       inkscape:collect="always"
       r="8.1621428"
       xlink:href="#linearGradient16331" />
    <radialGradient
       cx="382.89407"
       cy="188.12128"
       fx="382.89407"
       fy="188.12128"
       gradientTransform="matrix(0.772157,0,0,0.852163,85.64534,27.74941)"
       gradientUnits="userSpaceOnUse"
       id="radialGradient20828"
       inkscape:collect="always"
       r="13.986498"
       xlink:href="#linearGradient20822" />
    <radialGradient
       cx="371.52542"
       cy="194.62422"
       fx="371.52542"
       fy="194.62422"
       gradientTransform="matrix(0.772157,0,0,0.884333,122.4193,46.93089)"
       gradientUnits="userSpaceOnUse"
       id="radialGradient20830"
       inkscape:collect="always"
       r="13.557914"
       xlink:href="#linearGradient20822" />
    <radialGradient
       cx="357.24521"
       cy="199.2504"
       fx="357.24521"
       fy="199.2504"
       gradientTransform="matrix(0.772157,0,0,0.941067,123.097,34.7493)"
       gradientUnits="userSpaceOnUse"
       id="radialGradient20832"
       inkscape:collect="always"
       r="12.768574"
       xlink:href="#linearGradient20822" />
    <radialGradient
       cx="343.59579"
       cy="201.25719"
       fx="343.59579"
       fy="201.25719"
       gradientTransform="matrix(0.772157,0,0,0.993181,123.8957,23.99462)"
       gradientUnits="userSpaceOnUse"
       id="radialGradient20834"
       inkscape:collect="always"
       r="12.060818"
       xlink:href="#linearGradient20822" />
    <radialGradient
       cx="382.89407"
       cy="188.12128"
       fx="382.89407"
       fy="188.12128"
       gradientTransform="matrix(0.766464,-0.09359629,0.103295,0.845879,104.3758,89.72424)"
       gradientUnits="userSpaceOnUse"
       id="radialGradient20838"
       inkscape:collect="always"
       r="13.986498"
       xlink:href="#linearGradient20822" />
    <radialGradient
       cx="382.89407"
       cy="188.12128"
       fx="382.89407"
       fy="188.12128"
       gradientTransform="matrix(0.72195,-0.273887,0.302266,0.796754,90.55121,160.7287)"
       gradientUnits="userSpaceOnUse"
       id="radialGradient20842"
       inkscape:collect="always"
       r="13.986498"
       xlink:href="#linearGradient20822" />
    <radialGradient
       cx="382.89407"
       cy="188.12128"
       fx="382.89407"
       fy="188.12128"
       gradientTransform="matrix(0.824332,-0.566105,0.624762,0.909743,-22.82726,272.8307)"
       gradientUnits="userSpaceOnUse"
       id="radialGradient20846"
       inkscape:collect="always"
       r="13.986498"
       xlink:href="#linearGradient20822" />
    <radialGradient
       cx="408.60416"
       cy="160.31364"
       fx="408.60416"
       fy="160.31364"
       gradientTransform="matrix(0.890517,3.458723e-7,-2.270184e-7,0.584504,65.60371,104.3992)"
       gradientUnits="userSpaceOnUse"
       id="radialGradient20873"
       inkscape:collect="always"
       r="9.742897"
       xlink:href="#linearGradient20875" />
    <radialGradient
       cx="400.70639"
       cy="167.38881"
       fx="400.70639"
       fy="167.38881"
       gradientTransform="matrix(1,0,0,0.723404,0,46.4818)"
       gradientUnits="userSpaceOnUse"
       id="radialGradient20889"
       inkscape:collect="always"
       r="2.2465944"
       xlink:href="#linearGradient20875" />
    <radialGradient
       cx="343.59579"
       cy="201.25719"
       fx="343.59579"
       fy="201.25719"
       gradientTransform="matrix(0.768693,0.07305378,-0.09396573,0.988726,134.1814,0.360248)"
       gradientUnits="userSpaceOnUse"
       id="radialGradient21639"
       inkscape:collect="always"
       r="12.060818"
       xlink:href="#linearGradient20822" />
    <radialGradient
       cx="343.59579"
       cy="201.25719"
       fx="343.59579"
       fy="201.25719"
       gradientTransform="matrix(0.761378,0.128564,-0.165365,0.979318,142.0529,-17.79711)"
       gradientUnits="userSpaceOnUse"
       id="radialGradient21643"
       inkscape:collect="always"
       r="12.060818"
       xlink:href="#linearGradient20822" />
    <radialGradient
       cx="343.59579"
       cy="201.25719"
       fx="343.59579"
       fy="201.25719"
       gradientTransform="matrix(0.752904,0.171348,-0.220396,0.968419,110.2146,-57.84568)"
       gradientUnits="userSpaceOnUse"
       id="radialGradient21647"
       inkscape:collect="always"
       r="12.060818"
       xlink:href="#linearGradient20822" />
    <radialGradient
       cx="343.59579"
       cy="201.25719"
       fx="343.59579"
       fy="201.25719"
       gradientTransform="matrix(0.715919,0.289282,-0.372088,0.920847,191.4979,-63.88675)"
       gradientUnits="userSpaceOnUse"
       id="radialGradient21651"
       inkscape:collect="always"
       r="12.060818"
       xlink:href="#linearGradient20822" />
    <radialGradient
       cx="343.59579"
       cy="201.25719"
       fx="343.59579"
       fy="201.25719"
       gradientTransform="matrix(0.630162,0.446228,-0.573959,0.810543,255.7404,-100.052)"
       gradientUnits="userSpaceOnUse"
       id="radialGradient21655"
       inkscape:collect="always"
       r="12.060818"
       xlink:href="#linearGradient20822" />
    <linearGradient
       gradientTransform="translate(-187.9258,-67.05845)"
       gradientUnits="userSpaceOnUse"
       id="linearGradient21669"
       inkscape:collect="always"
       x1="538.55725"
       x2="553.13037"
       xlink:href="#linearGradient21671"
       y1="300.42413"
       y2="275.50394" />
    <linearGradient
       gradientTransform="translate(-187.9258,-67.05845)"
       gradientUnits="userSpaceOnUse"
       id="linearGradient22430"
       inkscape:collect="always"
       x1="538.55725"
       x2="553.13037"
       xlink:href="#linearGradient21671"
       y1="300.42413"
       y2="275.50394" />
    <radialGradient
       cx="343.59579"
       cy="201.25719"
       fx="343.59579"
       fy="201.25719"
       gradientTransform="matrix(0.630162,0.446228,-0.573959,0.810543,255.7404,-100.052)"
       gradientUnits="userSpaceOnUse"
       id="radialGradient22432"
       inkscape:collect="always"
       r="12.060818"
       xlink:href="#linearGradient20822" />
    <radialGradient
       cx="343.59579"
       cy="201.25719"
       fx="343.59579"
       fy="201.25719"
       gradientTransform="matrix(0.715919,0.289282,-0.372088,0.920847,191.4979,-63.88675)"
       gradientUnits="userSpaceOnUse"
       id="radialGradient22434"
       inkscape:collect="always"
       r="12.060818"
       xlink:href="#linearGradient20822" />
    <radialGradient
       cx="343.59579"
       cy="201.25719"
       fx="343.59579"
       fy="201.25719"
       gradientTransform="matrix(0.761378,0.128564,-0.165365,0.979318,142.0529,-17.79711)"
       gradientUnits="userSpaceOnUse"
       id="radialGradient22436"
       inkscape:collect="always"
       r="12.060818"
       xlink:href="#linearGradient20822" />
    <radialGradient
       cx="343.59579"
       cy="201.25719"
       fx="343.59579"
       fy="201.25719"
       gradientTransform="matrix(0.768693,0.07305378,-0.09396573,0.988726,134.1814,0.360248)"
       gradientUnits="userSpaceOnUse"
       id="radialGradient22438"
       inkscape:collect="always"
       r="12.060818"
       xlink:href="#linearGradient20822" />
    <radialGradient
       cx="343.59579"
       cy="201.25719"
       fx="343.59579"
       fy="201.25719"
       gradientTransform="matrix(0.772157,0,0,0.993181,123.8957,23.99462)"
       gradientUnits="userSpaceOnUse"
       id="radialGradient22440"
       inkscape:collect="always"
       r="12.060818"
       xlink:href="#linearGradient20822" />
    <radialGradient
       cx="357.24521"
       cy="199.2504"
       fx="357.24521"
       fy="199.2504"
       gradientTransform="matrix(0.772157,0,0,0.941067,123.097,34.7493)"
       gradientUnits="userSpaceOnUse"
       id="radialGradient22442"
       inkscape:collect="always"
       r="12.768574"
       xlink:href="#linearGradient20822" />
    <radialGradient
       cx="371.52542"
       cy="194.62422"
       fx="371.52542"
       fy="194.62422"
       gradientTransform="matrix(0.772157,0,0,0.884333,122.4193,46.93089)"
       gradientUnits="userSpaceOnUse"
       id="radialGradient22444"
       inkscape:collect="always"
       r="13.557914"
       xlink:href="#linearGradient20822" />
    <radialGradient
       cx="382.89407"
       cy="188.12128"
       fx="382.89407"
       fy="188.12128"
       gradientTransform="matrix(0.766464,-0.09359629,0.103295,0.845879,104.3758,89.72424)"
       gradientUnits="userSpaceOnUse"
       id="radialGradient22446"
       inkscape:collect="always"
       r="13.986498"
       xlink:href="#linearGradient20822" />
    <radialGradient
       cx="382.89407"
       cy="188.12128"
       fx="382.89407"
       fy="188.12128"
       gradientTransform="matrix(0.72195,-0.273887,0.302266,0.796754,90.55121,160.7287)"
       gradientUnits="userSpaceOnUse"
       id="radialGradient22448"
       inkscape:collect="always"
       r="13.986498"
       xlink:href="#linearGradient20822" />
    <radialGradient
       cx="408.60416"
       cy="160.31364"
       fx="408.60416"
       fy="160.31364"
       gradientTransform="matrix(0.890517,3.458723e-7,-2.270184e-7,0.584504,65.60371,104.3992)"
       gradientUnits="userSpaceOnUse"
       id="radialGradient22450"
       inkscape:collect="always"
       r="9.742897"
       xlink:href="#linearGradient20875" />
    <radialGradient
       cx="400.70639"
       cy="167.38881"
       fx="400.70639"
       fy="167.38881"
       gradientTransform="matrix(1,0,0,0.723404,0,46.4818)"
       gradientUnits="userSpaceOnUse"
       id="radialGradient22452"
       inkscape:collect="always"
       r="2.2465944"
       xlink:href="#linearGradient20875" />
    <linearGradient
       inkscape:collect="always"
       xlink:href="#linearGradient21671"
       id="linearGradient3190"
       gradientUnits="userSpaceOnUse"
       gradientTransform="translate(-187.9258,-67.05845)"
       x1="538.55725"
       y1="300.42413"
       x2="553.13037"
       y2="275.50394" />
    <radialGradient
       inkscape:collect="always"
       xlink:href="#linearGradient20822"
       id="radialGradient3192"
       gradientUnits="userSpaceOnUse"
       gradientTransform="matrix(0.630162,0.446228,-0.573959,0.810543,255.7404,-100.052)"
       cx="343.59579"
       cy="201.25719"
       fx="343.59579"
       fy="201.25719"
       r="12.060818" />
    <radialGradient
       inkscape:collect="always"
       xlink:href="#linearGradient20822"
       id="radialGradient3194"
       gradientUnits="userSpaceOnUse"
       gradientTransform="matrix(0.715919,0.289282,-0.372088,0.920847,191.4979,-63.88675)"
       cx="343.59579"
       cy="201.25719"
       fx="343.59579"
       fy="201.25719"
       r="12.060818" />
    <radialGradient
       inkscape:collect="always"
       xlink:href="#linearGradient20822"
       id="radialGradient3196"
       gradientUnits="userSpaceOnUse"
       gradientTransform="matrix(0.761378,0.128564,-0.165365,0.979318,142.0529,-17.79711)"
       cx="343.59579"
       cy="201.25719"
       fx="343.59579"
       fy="201.25719"
       r="12.060818" />
    <radialGradient
       inkscape:collect="always"
       xlink:href="#linearGradient20822"
       id="radialGradient3198"
       gradientUnits="userSpaceOnUse"
       gradientTransform="matrix(0.768693,0.07305378,-0.09396573,0.988726,134.1814,0.360248)"
       cx="343.59579"
       cy="201.25719"
       fx="343.59579"
       fy="201.25719"
       r="12.060818" />
    <radialGradient
       inkscape:collect="always"
       xlink:href="#linearGradient20822"
       id="radialGradient3200"
       gradientUnits="userSpaceOnUse"
       gradientTransform="matrix(0.772157,0,0,0.993181,123.8957,23.99462)"
       cx="343.59579"
       cy="201.25719"
       fx="343.59579"
       fy="201.25719"
       r="12.060818" />
    <radialGradient
       inkscape:collect="always"
       xlink:href="#linearGradient20822"
       id="radialGradient3202"
       gradientUnits="userSpaceOnUse"
       gradientTransform="matrix(0.772157,0,0,0.941067,123.097,34.7493)"
       cx="357.24521"
       cy="199.2504"
       fx="357.24521"
       fy="199.2504"
       r="12.768574" />
    <radialGradient
       inkscape:collect="always"
       xlink:href="#linearGradient20822"
       id="radialGradient3204"
       gradientUnits="userSpaceOnUse"
       gradientTransform="matrix(0.772157,0,0,0.884333,122.4193,46.93089)"
       cx="371.52542"
       cy="194.62422"
       fx="371.52542"
       fy="194.62422"
       r="13.557914" />
    <radialGradient
       inkscape:collect="always"
       xlink:href="#linearGradient20822"
       id="radialGradient3206"
       gradientUnits="userSpaceOnUse"
       gradientTransform="matrix(0.766464,-0.09359629,0.103295,0.845879,104.3758,89.72424)"
       cx="382.89407"
       cy="188.12128"
       fx="382.89407"
       fy="188.12128"
       r="13.986498" />
    <radialGradient
       inkscape:collect="always"
       xlink:href="#linearGradient20822"
       id="radialGradient3208"
       gradientUnits="userSpaceOnUse"
       gradientTransform="matrix(0.72195,-0.273887,0.302266,0.796754,90.55121,160.7287)"
       cx="382.89407"
       cy="188.12128"
       fx="382.89407"
       fy="188.12128"
       r="13.986498" />
    <radialGradient
       inkscape:collect="always"
       xlink:href="#linearGradient20875"
       id="radialGradient3210"
       gradientUnits="userSpaceOnUse"
       gradientTransform="matrix(0.890517,3.458723e-7,-2.270184e-7,0.584504,65.60371,104.3992)"
       cx="408.60416"
       cy="160.31364"
       fx="408.60416"
       fy="160.31364"
       r="9.742897" />
    <radialGradient
       inkscape:collect="always"
       xlink:href="#linearGradient20875"
       id="radialGradient3212"
       gradientUnits="userSpaceOnUse"
       gradientTransform="matrix(1,0,0,0.723404,0,46.4818)"
       cx="400.70639"
       cy="167.38881"
       fx="400.70639"
       fy="167.38881"
       r="2.2465944" />
  </defs>
  <sodipodi:namedview
     bordercolor="#666666"
     borderopacity="1.0"
     id="base"
     inkscape:current-layer="svg1354"
     inkscape:cx="159.07483"
     inkscape:cy="192.221"
     inkscape:pageopacity="0.0"
     inkscape:pageshadow="2"
     inkscape:window-height="703"
     inkscape:window-width="1017"
     inkscape:window-x="0"
     inkscape:window-y="0"
     inkscape:zoom="1.3075346"
     pagecolor="#ffffff"
     showborder="true"
     showgrid="false"
     inkscape:window-maximized="0"
     fit-margin-top="0"
     fit-margin-left="0"
     fit-margin-right="0"
     fit-margin-bottom="0" />
  <g
     transform="matrix(2.276961,0,0,2.276961,-53.902358,-70.751693)"
     id="g14551">
    <path
       inkscape:connector-curvature="0"
       style="fill:url(#linearGradient8895);fill-opacity:1;fill-rule:evenodd;stroke:none"
       sodipodi:nodetypes="csssssssssssscscsssssss"
       id="path1363"
       d="m 136.55048,70.280418 c -3.43956,-4.574213 -6.15466,-10.644938 -11.39389,-13.244757 -4.95506,-2.458812 -9.29436,-6.680321 -15.26711,-6.788503 -5.59727,-0.101381 -10.514165,2.191007 -15.51891,4.032472 -5.332569,1.962086 -10.930344,2.597351 -16.637551,2.793589 -6.456662,0.222008 -12.909421,0.571746 -19.327275,0.228147 -5.892698,-0.315484 -11.631489,1.265026 -16.764612,4.055954 -4.23816,2.304328 -6.797272,6.418942 -9.231781,10.315413 -2.542181,4.068803 -5.070684,8.419562 -6.160689,13.10583 -1.276525,5.488176 -3.066477,11.084929 -2.450454,16.825897 0.65629,6.11624 1.669773,12.20017 4.298715,17.86273 2.140339,4.61015 12.647312,25.43328 16.807764,30.27723 3.40735,3.96712 6.121219,8.10804 10.047804,11.63263 4.449555,3.99401 10.712537,3.53788 16.235779,2.85931 4.879038,1.60282 9.164366,4.51902 14.527567,5.00935 6.1784,0.56486 10.699823,-3.83839 16.543663,-3.78765 5.64359,1.22204 11.0107,-0.14676 15.14789,-3.89002 3.62784,-3.28241 6.42718,-7.56283 9.1404,-11.61876 2.84347,-4.25063 5.52533,-8.7574 7.84964,-13.46736 2.16342,-4.38392 5.80944,-8.41638 5.6682,-13.74449 -0.23344,-8.80654 1.73973,-17.62278 2.16317,-26.498902 0.28575,-5.989784 -1.5125,-11.632605 -2.48376,-17.376447 -0.5229,-3.092303 -1.24766,-5.992521 -3.19456,-8.581663 z" />
    <path
       inkscape:connector-curvature="0"
       style="fill:url(#radialGradient8892);fill-opacity:1;fill-rule:evenodd;stroke:none"
       sodipodi:nodetypes="cscscsc"
       id="path1388"
       d="m 83.26825,142.22766 c -40.920206,-3.66619 -32.242344,15.6248 -28.315759,19.14939 4.449555,3.99401 10.712537,3.53788 16.235779,2.85931 4.879038,1.60282 9.164366,4.51902 14.527567,5.00935 6.1784,0.56486 10.699823,-3.83839 16.543663,-3.78765 5.64359,1.22204 11.0107,-0.14676 15.14789,-3.89002 3.62784,-3.28241 14.30901,-20.91828 -34.13914,-19.34038 z" />
    <path
       inkscape:connector-curvature="0"
       style="fill:url(#radialGradient8889);fill-opacity:1;fill-rule:evenodd;stroke:none"
       sodipodi:nodetypes="ccsscscscccc"
       id="path1372"
       d="m 64.65804,122.37019 c -6.974448,-16.77315 -33.167377,-15.59559 -36.561117,-2.903 -2.628942,-5.66256 -3.642425,-11.74649 -4.298715,-17.86273 -0.616023,-5.740968 1.173929,-11.337721 2.450454,-16.825897 1.090005,-4.686268 3.618508,-9.037027 6.160689,-13.10583 5.080934,-1.2562 8.859198,-1.150841 12.218905,0.305647 5.01969,2.176116 13.184042,6.558497 17.355552,6.88282 3.311111,0.03752 10.126561,-3.058664 12.572626,-3.260851 2.643404,-0.218498 11.148266,-0.494443 18.23288,-0.202643 5.203313,2.696796 9.066516,7.270144 12.465416,11.926836 6.72028,7.136154 7.36362,18.679688 2.33289,26.925928 -3.88724,7.68293 -15.496783,11.1265 -42.92958,8.11972 z" />
    <path
       inkscape:connector-curvature="0"
       style="fill:url(#radialGradient8885);fill-opacity:1;fill-rule:evenodd;stroke:none"
       sodipodi:nodetypes="cccccccccccccsc"
       id="path1390"
       d="m 99.062863,54.139495 c 4.073177,-1.333466 8.494107,-1.702985 12.746507,-1.291262 4.19736,0.302647 6.64398,3.868546 9.86231,5.988125 4.27841,1.9843 2.02281,6.910886 -1.77788,7.749719 -3.3091,1.208812 -4.6649,4.685541 -7.50096,6.552107 -2.52202,2.088047 -6.30237,3.22817 -9.27059,1.376679 -4.142098,-1.419682 -8.260554,1.26383 -12.48173,0.660711 -4.781657,-0.0555 -9.587491,-0.231693 -14.343905,0.380235 -4.20571,-1.198195 -7.377602,3.034516 -11.481296,3.057929 -4.756831,0.720471 -9.465131,-1.0385 -13.410831,-3.56061 -3.796937,-1.362295 -7.372303,-4.814672 -11.599638,-4.064275 -4.028038,1.290403 0.809598,-3.14127 1.406704,-4.593284 2.331949,-3.295732 5.803252,-6.294217 10.09599,-6.097868 10.668635,-0.471024 21.323978,-1.563115 32.00386,-1.617803 0.764478,-0.0039 10.356594,-1.43962 15.751459,-4.540403 z" />
    <path
       inkscape:connector-curvature="0"
       style="fill:url(#linearGradient13977);fill-opacity:1;fill-rule:evenodd;stroke:none"
       sodipodi:nodetypes="cccccccccccccc"
       id="path1460"
       d="m 84.093452,31.072861 c 1.751015,0.49253 2.949451,1.944968 4.299358,3.064091 0.953902,1.086944 -0.07931,2.573751 -1.15946,3.090936 -1.180232,0.843726 -1.924885,2.125756 -2.541518,3.404839 -0.769637,1.096152 -1.577974,2.173914 -2.089679,3.421574 -0.664795,1.214701 -1.223461,2.511447 -1.328248,3.907569 -0.253406,1.501473 -0.373085,2.887225 -0.906193,4.294826 -0.307074,1.328231 -0.487259,3.816483 -0.923092,5.117947 -0.900437,0.524091 -2.40292,0.782097 -3.122999,-0.164336 -0.08032,-2.355907 1.208624,-6.593058 1.821649,-8.8642 0.486972,-1.992448 0.969315,-4.011044 1.974338,-5.818595 0.947375,-1.833911 1.923755,-3.695236 2.277375,-5.751922 0.387316,-1.445002 0.726024,-2.906858 1.001191,-4.373555 0.174807,-0.471131 0.446951,-0.896271 0.697278,-1.329174 z" />
    <path
       inkscape:connector-curvature="0"
       style="opacity:0.6373057;fill:url(#radialGradient8881);fill-opacity:1;fill-rule:evenodd;stroke:none"
       sodipodi:nodetypes="cscss"
       id="path1386"
       d="m 28.096923,119.46719 c 2.140339,4.61015 12.647312,25.43328 16.807764,30.27723 3.40735,3.96712 6.121219,8.10804 10.047804,11.63263 10.127891,-6.55147 11.683821,-31.7266 9.981216,-36.77732 -8.70853,-25.833588 -39.465726,-10.7951 -36.836784,-5.13254 z" />
    <path
       inkscape:connector-curvature="0"
       style="color:#000000;fill:url(#radialGradient8878);fill-opacity:1;fill-rule:evenodd;stroke:none;stroke-width:1px;marker:none;visibility:visible;display:inline;overflow:visible"
       id="path1395"
       d="m 62.70705,62.977431 c -4.507085,-0.902351 -9.129139,-0.907982 -13.663395,-1.615548 -2.352783,0.0097 -4.913323,1.023695 -6.053729,3.196477 -0.867309,2.107408 0.541349,4.59077 2.576356,5.382122 1.956785,1.11358 4.077029,1.908012 6.021554,3.044694 4.015371,1.683388 9.29876,0.254077 11.479602,-3.632324 1.042818,-1.990629 0.75333,-4.479817 -0.360388,-6.375421 z" />
    <path
       inkscape:connector-curvature="0"
       style="fill:url(#radialGradient13987);fill-opacity:1;fill-rule:evenodd;stroke:none"
       id="path13230"
       d="m 88.716583,34.607113 c -0.652448,-1.029747 -1.602407,-1.818011 -2.539034,-2.578082 -0.460007,-0.553914 -1.1693,-0.959879 -1.903799,-0.926717 -0.453146,0.01652 -0.812766,0.400387 -0.881772,0.835009 -0.102002,0.791728 -0.06271,1.609357 0.13052,2.385329 0.215469,0.884221 0.783527,1.705626 1.624157,2.093424 0.898816,0.464585 1.985084,0.631818 2.957215,0.30442 0.498361,-0.561191 0.852274,-1.361712 0.612713,-2.113383 z" />
  </g>
  <g
     transform="matrix(2.276961,0,0,2.276961,-53.902358,-70.751693)"
     id="g19329">
    <path
       inkscape:connector-curvature="0"
       style="fill:url(#linearGradient19339);fill-opacity:1;fill-rule:evenodd;stroke:none"
       sodipodi:nodetypes="ccccccccccccccccc"
       id="path1458"
       d="m 136.4111,71.78284 c -2.88292,-3.13493 -8.28736,-5.29428 -11.2787,-2.26818 -2.39055,-3.80017 -10.4441,-3.28965 -13.61051,0.43032 -4.13643,2.18322 1.16309,9.1483 -5.18443,7.61906 -4.33377,1.44656 -7.860363,5.1264 -7.949903,9.68742 -5.28209,-0.52202 -9.87951,6.51668 -6.1604,10.70579 1.76793,1.42767 0.72812,1.77924 -0.70196,2.75806 -2.14057,2.25732 -3.99739,11.00948 0.59942,14.01152 -2.26307,3.18068 -3.26857,9.96624 1.68441,12.47221 -2.1038,4.43775 1.4772,10.33892 6.925913,8.83302 3.4572,-2.25789 4.16047,5.65775 8.63645,4.16119 4.55387,1.18195 9.88741,-0.69742 11.66852,-5.01171 5.46803,0.29488 10.67545,-0.72372 14.55999,-4.72258 3.16626,-4.39416 4.05735,-10.14297 1.32684,-14.99563 0.0177,-4.4622 3.85259,-8.39414 2.56994,-13.34938 2.90957,-5.34464 0.57823,-11.13754 0.15917,-16.67607 0.0391,-4.69167 -0.0589,-9.8929 -3.24475,-13.65504 z" />
    <path
       inkscape:connector-curvature="0"
       style="color:#000000;fill:url(#radialGradient19341);fill-opacity:1;fill-rule:evenodd;stroke:none;stroke-width:1px;marker:none;visibility:visible;display:inline;overflow:visible"
       id="path16263"
       d="m 105.35638,86.11102 c -3.45172,-2.43055 -6.365233,4.54909 -10.282073,4.91014 -3.89569,3.44656 1.73408,9.98135 4.928483,4.64983 3.45127,-1.47329 9.3651,-4.83463 5.68109,-9.24001 l -0.32751,-0.31996 1e-5,0 z" />
    <path
       inkscape:connector-curvature="0"
       style="color:#000000;fill:url(#radialGradient19343);fill-opacity:1;fill-rule:evenodd;stroke:none;stroke-width:1px;marker:none;visibility:visible;display:inline;overflow:visible"
       sodipodi:nodetypes="cccccccc"
       id="path16272"
       d="m 93.693197,125.54296 c -0.11705,-6.09355 7.807293,0.42989 8.253673,-5.63852 3.71256,-4.24398 0.86942,5.84157 5.1303,3.7425 5.71669,-0.0467 -1.36213,8.69786 5.06169,8.79323 4.3212,-2.58968 10.0713,4.23401 4.31828,6.80775 -4.10188,0.32544 -9.14566,2.58784 -12.91717,-3.88148 -3.12938,-3.22088 -5.543324,4.31477 -8.857944,-1.74545 -0.94885,-2.63414 0.421191,-5.56795 -0.988829,-8.07803 z" />
    <path
       inkscape:connector-curvature="0"
       style="opacity:0.83937833;color:#000000;fill:url(#radialGradient19345);fill-opacity:1;fill-rule:evenodd;stroke:none;stroke-width:1px;marker:none;visibility:visible;display:inline;overflow:visible"
       id="path16274"
       d="m 113.02121,93.969411 c -4.04016,0.02947 -11.46499,3.062036 -11.00326,8.756289 1.59352,2.84899 3.78635,11.51006 8.08201,7.42845 0.96778,-2.77009 4.92501,-5.80837 3.8092,-0.42347 -1.72089,3.76831 -6.79636,10.02221 0.34073,11.37829 6.31423,1.50188 6.97296,-8.40316 6.76294,-12.93222 -0.53423,-5.42454 -2.2131,-12.181783 -7.99162,-14.207339 z" />
    <path
       inkscape:connector-curvature="0"
       style="opacity:0.74093263;color:#000000;fill:url(#radialGradient19347);fill-opacity:1;fill-rule:evenodd;stroke:none;stroke-width:1px;marker:none;visibility:visible;display:inline;overflow:visible"
       id="path16276"
       d="m 125.62353,130.46929 c -3.57871,-2.39723 -3.9977,-7.65529 -6.37985,-10.15431 -6.56493,2.56739 2.87554,7.11479 2.93825,11.11032 0.91036,1.04378 3.61657,0.93423 3.4416,-0.95601 z" />
    <path
       inkscape:connector-curvature="0"
       style="opacity:0.90673577;fill:url(#linearGradient19349);fill-opacity:1;fill-rule:evenodd;stroke:none"
       sodipodi:nodetypes="cssccccc"
       id="path17109"
       d="m 137.76308,75.298 c -10.18363,5.78817 -11.20534,13.625327 -12.08989,16.118814 -1.68152,4.740128 -6.36764,18.857426 -5.55647,24.350486 0.38827,2.62932 10.49386,11.56741 17.08237,10.00212 1.67907,-3.85337 1.10618,-5.31823 -0.27235,-10.30609 0.0177,-4.4622 3.85259,-8.39414 2.56994,-13.34938 2.90957,-5.34464 0.57823,-11.13754 0.15917,-16.67607 0.0391,-4.69167 1.29312,-6.37774 -1.89277,-10.13988 z" />
    <path
       inkscape:connector-curvature="0"
       style="color:#000000;fill:url(#radialGradient19351);fill-opacity:1;fill-rule:evenodd;stroke:none;stroke-width:1px;marker:none;visibility:visible;display:inline;overflow:visible"
       id="path16266"
       d="m 136.95068,76.643832 c -5.16141,1.73861 -8.75711,5.43773 -8.2889,11.11016 -1.90591,3.46036 1.47581,4.20538 1.97932,0.36181 1.71048,-4.55385 7.42855,-5.11552 9.47356,-8.77843 -0.16655,-1.47061 -1.62325,-2.91065 -3.16398,-2.69354 z" />
    <path
       inkscape:connector-curvature="0"
       style="color:#000000;fill:url(#radialGradient19353);fill-opacity:1;fill-rule:evenodd;stroke:none;stroke-width:1px;marker:none;visibility:visible;display:inline;overflow:visible"
       sodipodi:nodetypes="cccccs"
       id="path18565"
       d="m 120.11672,115.7673 c 0.66149,2.66775 8.91787,4.54903 15.50638,2.98374 1.67907,-3.85337 2.68217,1.70015 1.30364,-3.28771 0.0177,-4.4622 3.85259,-8.39414 2.56994,-13.34938 1.45478,-2.67232 -1.09969,3.74221 -6.51511,7.16105 -5.41541,3.41884 -13.53302,3.79759 -12.86485,6.4923 z" />
  </g>
</svg>
