<?xml version="1.0" encoding="utf-8"?>
<!-- Generator: Adobe Illustrator 10.0, SVG Export Plug-In . SVG Version: 3.0.0 Build 77)  --><svg enable-background="new 0 0 358.563 191.644" height="191.644" i:pageBounds="0 792 612 0" i:rulerOrigin="0 0" i:viewOrigin="123 496.0732" overflow="visible" space="preserve" viewBox="0 0 358.563 191.644" width="358.563" xmlns="http://www.w3.org/2000/svg" xmlns:a="http://ns.adobe.com/AdobeSVGViewerExtensions/3.0/" xmlns:graph="http://ns.adobe.com/Graphs/1.0/" xmlns:i="http://ns.adobe.com/AdobeIllustrator/10.0/" xmlns:x="http://ns.adobe.com/Extensibility/1.0/" xmlns:xlink="http://www.w3.org/1999/xlink">
  <metadata>
    <rdf:RDF xmlns:cc="http://web.resource.org/cc/" xmlns:dc="http://purl.org/dc/elements/1.1/" xmlns:rdf="http://www.w3.org/1999/02/22-rdf-syntax-ns#">
      <cc:Work rdf:about="">
        <dc:title>R16 sibmission</dc:title>
        <dc:description></dc:description>
        <dc:subject>
          <rdf:Bag>
            <rdf:li>food</rdf:li>
            <rdf:li>fruit</rdf:li>
          </rdf:Bag>
        </dc:subject>
        <dc:publisher>
          <cc:Agent rdf:about="http://www.openclipart.org/">
            <dc:title>Open Clip Art Library</dc:title>
          </cc:Agent>
        </dc:publisher>
        <dc:creator>
          <cc:Agent>
            <dc:title>Gerald G.</dc:title>
          </cc:Agent>
        </dc:creator>
        <dc:rights>
          <cc:Agent>
            <dc:title>Gerald G.</dc:title>
          </cc:Agent>
        </dc:rights>
        <dc:date></dc:date>
        <dc:format>image/svg+xml</dc:format>
        <dc:type rdf:resource="http://purl.org/dc/dcmitype/StillImage"/>
        <cc:license rdf:resource="http://web.resource.org/cc/PublicDomain"/>
        <dc:language>en</dc:language>
      </cc:Work>
      <cc:License rdf:about="http://web.resource.org/cc/PublicDomain">
        <cc:permits rdf:resource="http://web.resource.org/cc/Reproduction"/>
        <cc:permits rdf:resource="http://web.resource.org/cc/Distribution"/>
        <cc:permits rdf:resource="http://web.resource.org/cc/DerivativeWorks"/>
      </cc:License>
    </rdf:RDF>
  </metadata>
  <switch>
    <foreignObject height="1" requiredExtensions="http://ns.adobe.com/AdobeIllustrator/10.0/" width="1" x="0" y="0">
      <i:pgfRef xlink:href="#adobe_illustrator_pgf"></i:pgfRef>
    </foreignObject>
    <g i:extraneous="self">
      <g i:dimmedPercent="50" i:layer="yes" i:rgbTrio="#4F008000FFFF" id="Layer_1">
        <g>
          <path clip-rule="evenodd" d="M323.734,2.405c4.204,0.604,7.82,3.602,13.198,9.011       c4.822,4.806,10.818,9.604,15.641,21.62c2.998,10.811,8.407,24.024,4.789,42.043c-5.996,17.417-16.226,38.442-30.63,55.843       c-13.816,13.815-31.835,24.634-54.059,34.834c-26.426,10.818-60.054,21.637-91.882,25.84       c-33.042,1.206-70.875-6.614-97.3-14.403c-28.831-10.231-54.061-25.839-66.67-39.655c-14.419-15.022-10.81-30.63-12.61-44.438       C0.604,79.282,0,68.472,0,58.265c6.606-4.806,21.026-9.009,43.248-12.618c22.223-5.402,55.851-12.612,87.085-14.411       c28.235-3.006,58.263-4.204,83.492-6.004c24.634-3.608,42.653-10.215,60.674-13.221C290.106,7.807,299.1,1.803,308.127,1.2       C315.914-1.204,321.943,0.002,323.734,2.405z" fill-rule="evenodd" i:knockout="Off"/>
          <path clip-rule="evenodd" d="       M2.403,70.273c1.809,7.208,2.403,13.816,4.204,22.223c0.604,7.209,0,18.027,3.006,25.816       c0.602,7.233,4.203,11.436,10.81,19.225c5.409,7.2,18.02,13.816,31.233,22.224c13.816,7.82,33.033,15.021,52.853,21.637       c19.219,4.789,40.244,4.789,60.668,6.582c18.01-1.173,36.037-0.587,51.646-4.791c15.021-2.411,29.426-12.023,43.242-15.021       c11.402-5.409,26.426-11.405,36.037-15.609c6.616-5.409,12.611-10.198,18.021-14.403c5.409-6.613,11.405-9.611,18.021-18.019       c5.995-9.613,13.228-24.634,19.223-33.645c3.587-10.81,1.794-16.219,3.587-23.429c-1.173-9.002-0.589-14.411-2.998-21.018       c-1.207-6.606-5.411-12.016-7.789-16.219c2.378,9.009,2.378,19.82-2.411,30.035c-7.202,10.81-17.432,22.223-28.219,34.231       c-11.438,8.407-21.637,16.227-33.042,23.427c-10.2,7.203-22.843,11.405-35.452,17.401c-17.401,4.204-33.011,5.409-54.044,8.406       c-21.024,2.412-49.855,1.825-67.865,3.032c-18.021-1.207-30.63-0.62-42.647-3.032c-13.213-2.997-30.027-8.406-39.037-13.782       c-12.017-6.029-21.628-15.022-26.427-20.432C10.215,97.905,9.01,92.496,9.01,86.492C5.409,80.488,5.409,75.079,2.403,70.273z" fill="#E2391C" fill-rule="evenodd" i:knockout="Off" stroke="#000000" stroke-miterlimit="10" stroke-width="0.036"/>
          <path clip-rule="evenodd" d="       M4.212,61.263c20.414-7.202,41.441-15.616,65.464-18.614c24.023-6.013,48.649-6.607,73.87-8.416       c22.223-2.396,39.045-1.198,64.283-3.601c25.808-4.204,52.235-10.81,85.863-19.82c13.228-6.606,24.046-7.208,32.455-1.799       c6.58,4.203,14.989,19.82,16.194,30.63c0,7.804-4.203,16.219-10.198,25.229c-5.411,7.2-12.612,15.014-24.017,25.823       c-16.228,10.803-32.455,23.412-55.265,33.026c-23.428,4.822-47.444,9.024-72.07,10.231       c-24.626,1.791-52.854,2.378-70.875,1.791c-17.415-1.204-29.432-4.822-40.845-8.407c-16.21-4.202-31.834-8.407-42.043-15.021       c-10.207-8.407-9.009-22.223-12.609-30.028C10.81,73.873,6.606,66.069,4.212,61.263z" fill="#FBDF99" fill-rule="evenodd" i:knockout="Off" stroke="#000000" stroke-miterlimit="10" stroke-width="0.036"/>
          <path clip-rule="evenodd" d="       M116.525,39.039c2.998,1.801,6.608,4.807,10.81,9.011c1.8,3.006,6.607,11.413,12.008,16.219       c4.806,3.602,12.618,7.21,21.025,8.407c7.211,0.604,16.21-1.801,24.626-4.806c-7.812,1.205-16.82,2.403-22.223,1.205       c-6.01-0.603-13.213-3.609-16.822-6.606c-5.401-5.409-9.008-14.418-13.213-18.02C127.938,40.245,122.529,38.444,116.525,39.039       z" fill-rule="evenodd" i:knockout="Off" stroke="#000000" stroke-miterlimit="10" stroke-width="0.036"/>
          <path clip-rule="evenodd" d="       M201.213,63.666c4.792,0,8.409,1.8,13.198-1.197c3.616-3.609,8.407-7.812,12.025-12.619c2.409-6.003,5.996-12.609,8.405-19.819       c-1.205,12.619-3.616,25.229-7.201,31.233c-5.995,5.409-11.404,8.407-16.227,9.01       C206.005,69.669,204.211,69.075,201.213,63.666z" fill-rule="evenodd" i:knockout="Off" stroke="#000000" stroke-miterlimit="10" stroke-width="0.036"/>
          <path clip-rule="evenodd" d="       M169.974,42.045c-3.602-1.8-10.81,6.004-12.008,9.613c-1.205,2.403,5.401,6.606,8.407,6.004       C166.976,54.656,171.178,43.243,169.974,42.045z" fill-rule="evenodd" i:knockout="Off" stroke="#000000" stroke-miterlimit="10" stroke-width="0.036"/>
          <path clip-rule="evenodd" d="       M192.8,38.444c-1.802,1.801,3.599,9.605,7.2,12.008c3.006,0,6.005-5.401,6.625-7.21C204.211,39.643,193.401,37.24,192.8,38.444       z" fill-rule="evenodd" i:knockout="Off" stroke="#000000" stroke-miterlimit="10" stroke-width="0.036"/>
        </g>
      </g>
    </g>
  </switch>
</svg>
