<?xml version="1.0" encoding="UTF-8" standalone="no"?>
<!-- Created with Inkscape (http://www.inkscape.org/) -->
<svg
   xmlns:dc="http://purl.org/dc/elements/1.1/"
   xmlns:cc="http://creativecommons.org/ns#"
   xmlns:rdf="http://www.w3.org/1999/02/22-rdf-syntax-ns#"
   xmlns:svg="http://www.w3.org/2000/svg"
   xmlns="http://www.w3.org/2000/svg"
   xmlns:xlink="http://www.w3.org/1999/xlink"
   xmlns:sodipodi="http://sodipodi.sourceforge.net/DTD/sodipodi-0.dtd"
   xmlns:inkscape="http://www.inkscape.org/namespaces/inkscape"
   height="594.12555"
   id="svg1"
   inkscape:version="0.46"
   sodipodi:docbase="/home/kurumin/docs/inkscape"
   sodipodi:docname="phone_sergio_luiz_araujo_01.svg"
   sodipodi:version="0.32"
   width="535.30463"
   inkscape:output_extension="org.inkscape.output.svg.inkscape"
   version="1.0">
  <metadata
     id="metadata3">
    <rdf:RDF>
      <cc:Work
         rdf:about="">
        <dc:title>phone</dc:title>
        <dc:description>um telefone legal</dc:description>
        <dc:subject>
          <rdf:Bag>
            <rdf:li>hash</rdf:li>
            <rdf:li>computer</rdf:li>
            <rdf:li>work</rdf:li>
          </rdf:Bag>
        </dc:subject>
        <dc:publisher>
          <cc:Agent
             rdf:about="http://www.openclipart.org">
            <dc:title>Sergio Luiz Araujo Silva</dc:title>
          </cc:Agent>
        </dc:publisher>
        <dc:creator>
          <cc:Agent>
            <dc:title>Sergio Luiz Araujo Silva</dc:title>
          </cc:Agent>
        </dc:creator>
        <dc:rights>
          <cc:Agent>
            <dc:title>Sergio Luiz Araujo Silva</dc:title>
          </cc:Agent>
        </dc:rights>
        <dc:date />
        <dc:format>image/svg+xml</dc:format>
        <dc:type
           rdf:resource="http://purl.org/dc/dcmitype/StillImage" />
        <cc:license
           rdf:resource="http://web.resource.org/cc/PublicDomain" />
        <dc:language>en</dc:language>
      </cc:Work>
      <cc:License
         rdf:about="http://web.resource.org/cc/PublicDomain">
        <cc:permits
           rdf:resource="http://web.resource.org/cc/Reproduction" />
        <cc:permits
           rdf:resource="http://web.resource.org/cc/Distribution" />
        <cc:permits
           rdf:resource="http://web.resource.org/cc/DerivativeWorks" />
      </cc:License>
    </rdf:RDF>
  </metadata>
  <defs
     id="defs3">
    <inkscape:perspective
       sodipodi:type="inkscape:persp3d"
       inkscape:vp_x="0 : 526.18109 : 1"
       inkscape:vp_y="0 : 1000 : 0"
       inkscape:vp_z="744.09448 : 526.18109 : 1"
       inkscape:persp3d-origin="372.04724 : 350.78739 : 1"
       id="perspective124" />
    <linearGradient
       id="linearGradient30915">
      <stop
         id="stop30916"
         offset="0.0000000"
         style="stop-color:#ffffff;stop-opacity:1.0000000;" />
      <stop
         id="stop30917"
         offset="1.0000000"
         style="stop-color:#ffffff;stop-opacity:0.29729730;" />
    </linearGradient>
    <linearGradient
       gradientTransform="matrix(11.99415,0,0,0.478841,-516.29161,-1723.4664)"
       gradientUnits="userSpaceOnUse"
       id="linearGradient30918"
       inkscape:collect="always"
       x1="71.582832"
       x2="71.631721"
       xlink:href="#linearGradient30915"
       y1="3841.3286"
       y2="4079.323" />
  </defs>
  <sodipodi:namedview
     bordercolor="#666666"
     borderopacity="1.0"
     id="base"
     inkscape:current-layer="svg1"
     inkscape:cx="356.06623"
     inkscape:cy="647.89016"
     inkscape:guide-bbox="true"
     inkscape:pageopacity="0.0"
     inkscape:pageshadow="2"
     inkscape:window-height="699"
     inkscape:window-width="1018"
     inkscape:window-x="0"
     inkscape:window-y="0"
     inkscape:zoom="0.71571992"
     pagecolor="#ffffff"
     showguides="true"
     showgrid="false" />
  <path
     d="M 48.282667,48.515402 L 55.862497,30.837422 L 69.053027,22.177089 L 85.215907,18.959543 L 114.86589,18.429282 L 213.4861,19.20631 L 222.11812,16.604831 L 225.57552,12.531347 L 238.17831,12.132115 L 244.30003,9.736012 L 475.89145,14.165854 L 478.65845,17.098363 L 491.04442,21.77108 L 502.38059,29.056734 L 507.27549,42.555292 L 509.75129,65.096622 L 511.53671,94.643902 L 517.96565,165.50836 L 519.13498,187.52476 L 521.64449,256.81454 L 521.25596,306.12463 L 520.7878,339.01515 L 528.47268,340.2818 L 529.93319,342.6894 L 528.66656,350.37431 L 527.02903,361.24841 L 525.81373,369.56088 L 526.675,387.81186 L 525.77924,392.30755 L 518.35103,394.17877 L 510.96189,473.75493 L 507.7152,511.29515 L 501.76436,538.94822 L 495.92771,560.27421 L 490.67876,573.33908 L 483.66129,580.2309 L 472.35346,588.73724 L 448.97923,588.75408 L 113.95236,586.46822 L 41.638897,582.90735 L 24.243857,571.06316 L 13.649437,557.39908 L 8.2296266,545.20698 L 5.3714666,533.43711 L 7.5170066,497.88226 L 14.803457,417.05099 L 28.526607,229.55521 L 38.117997,146.00824 L 47.041997,54.302852 L 48.282667,48.515402 z"
     id="path29672"
     sodipodi:nodetypes="cccccccccccccccccccccccccccccccccccccccccccccccccc"
     style="fill:#d6d6d6;fill-opacity:1;fill-rule:evenodd;stroke:#e5e3e5;stroke-width:10.74293327;stroke-linecap:butt;stroke-linejoin:miter;stroke-miterlimit:4;stroke-opacity:1" />
  <g
     id="layer1"
     inkscape:groupmode="layer"
     inkscape:label="Layer 1"
     transform="translate(-102.94091,-69.960398)" />
  <path
     d="M 44.511737,39.088092 L 52.091577,21.410117 L 65.282097,12.749782 L 81.444987,9.532237 L 111.09497,9.001975 L 209.71517,9.779003 L 218.3472,7.177524 L 221.80459,3.104041 L 234.40738,2.704809 L 240.52911,0.30870497 L 472.12052,4.738547 L 474.88753,7.671057 L 487.2735,12.343773 L 498.60966,19.629428 L 503.50457,33.127982 L 505.98037,55.669312 L 507.76578,85.216602 L 514.19473,156.08105 L 515.36405,178.09746 L 517.87356,247.38723 L 517.48504,296.69732 L 517.01688,329.58785 L 524.70176,330.8545 L 526.16227,333.2621 L 524.89564,340.947 L 523.25811,351.8211 L 522.04281,360.13358 L 522.90408,378.38455 L 522.00831,382.88024 L 514.58011,384.75146 L 507.19097,464.32762 L 503.94428,501.86784 L 497.99344,529.52091 L 492.15679,550.8469 L 486.90784,563.91177 L 479.89037,570.80359 L 468.58254,579.30994 L 445.20831,579.32677 L 110.18144,577.04091 L 37.867977,573.48005 L 20.472937,561.63585 L 9.8785166,547.97177 L 4.4587066,535.77967 L 1.6005466,524.0098 L 3.7460866,488.45495 L 11.032537,407.62368 L 24.755687,220.1279 L 34.347077,136.58094 L 43.271067,44.875552 L 44.511737,39.088092 z"
     id="path13256"
     sodipodi:nodetypes="cccccccccccccccccccccccccccccccccccccccccccccccccc"
     style="fill:#eeedeb;fill-opacity:1;fill-rule:evenodd;stroke:#000000;stroke-width:0.49392796pt;stroke-linecap:butt;stroke-linejoin:miter;stroke-opacity:1" />
  <path
     d="M 63.260457,33.584572 L 86.196667,13.259002 L 153.79399,12.648883 L 192.44617,34.085852 L 195.8892,46.103672 L 198.51026,63.108542 L 194.40038,88.043742 L 191.29,125.19669 L 184.43675,146.66649 L 174.04048,154.89665 L 157.03562,157.51773 L 148.38171,292.29018 L 151.70243,317.84748 L 167.11853,355.94471 L 171.96088,385.06736 L 171.61626,410.9245 L 170.64958,444.21223 L 170.30496,470.06933 L 169.16076,486.1523 L 165.27316,498.76981 L 153.75509,508.32172 L 140.41552,510.64295 L 117.20184,512.54198 L 90.122927,512.29733 L 65.287677,509.40921 L 41.574227,505.19941 L 28.357017,493.98116 L 22.370487,480.94144 L 22.460007,421.89656 L 26.492297,380.97832 L 30.502247,354.82136 L 37.655367,337.0169 L 46.030257,319.11248 L 56.960597,227.20202 L 61.215177,173.96614 L 62.881517,149.23083 L 54.051627,131.50393 L 49.908947,110.93369 L 55.262987,71.137302 L 59.672697,49.867402 L 63.260457,33.584572 z"
     id="path13257"
     style="fill:none;fill-opacity:0.75;fill-rule:evenodd;stroke:#000000;stroke-width:0.49392796pt;stroke-linecap:butt;stroke-linejoin:miter;stroke-opacity:1" />
  <path
     d="M 25.345197,481.04661 L 33.364237,458.73276 L 40.467477,449.29164 L 51.722297,442.46423 L 60.196307,281.30615 L 65.629117,191.27703 L 69.772357,145.65354 L 76.467257,83.085672 L 81.010527,42.351672 L 83.740047,15.548338 L 63.666187,34.910532 L 52.223867,111.64901 L 54.561767,128.19337 L 60.731247,143.43982 L 63.327057,151.10303 L 63.070767,180.14611 L 48.133437,319.9162 L 30.991747,357.5288 L 26.466397,386.44796 L 24.136857,418.14085 L 23.203117,442.8284 L 22.749397,473.38339 L 25.345197,481.04661 z"
     id="path13258"
     sodipodi:nodetypes="ccccccccccccccccccccccc"
     style="fill:#faf6f7;fill-opacity:1;fill-rule:evenodd;stroke:#c3c4c4;stroke-width:0.49392796pt;stroke-linecap:butt;stroke-linejoin:miter;stroke-opacity:1" />
  <path
     d="M 51.882287,444.42005 L 63.119227,449.40748 L 76.809847,448.28749 L 104.43113,448.98122 L 118.20176,448.83912 L 124.88708,446.32333 L 128.47869,442.09173 L 130.98614,400.53983 L 132.90734,315.72021 L 139.67388,205.89305 L 150.78787,77.005742 L 154.77112,29.426449 L 153.65113,15.735833 L 151.45532,12.962112 L 84.717947,15.468342 L 74.813527,98.972112 L 64.677477,227.77942 L 58.444657,308.02951 L 53.891847,408.81555 L 51.882287,444.42005 z"
     id="path13259"
     style="fill:none;fill-opacity:0.75;fill-rule:evenodd;stroke:#000000;stroke-width:0.49392796pt;stroke-linecap:butt;stroke-linejoin:miter;stroke-opacity:1" />
  <path
     d="M 167.78107,477.26997 L 129.4566,442.01174 L 133.64663,346.28763 L 137.10577,269.27881 L 149.18379,104.78701 L 154.31045,47.416232 L 155.49658,24.469349 L 152.35325,11.904197 L 191.67351,35.267602 L 197.0251,52.549842 L 195.69137,72.347902 L 192.24186,90.350132 L 190.4102,116.09557 L 174.84376,118.35347 L 161.63314,125.34087 L 154.47615,170.2265 L 147.19379,297.81589 L 149.3717,312.40443 L 165.92437,358.30377 L 169.88016,382.59133 L 170.98223,408.09679 L 167.78107,477.26997 z"
     id="path13260"
     sodipodi:nodetypes="cccccccccccccccccccccc"
     style="fill:#f1f1f0;fill-opacity:1;fill-rule:evenodd;stroke:#aaaaab;stroke-width:0.49392796pt;stroke-linecap:butt;stroke-linejoin:miter;stroke-opacity:1" />
  <path
     d="M 222.28935,156.80331 L 467.54705,158.3974 L 467.03957,224.39686 C 466.13246,229.81679 463.1618,231.7975 459.36572,231.9898 L 439.0804,231.60635 L 221.20398,227.77228 C 218.79649,227.40087 217.80309,225.61534 217.87026,223.12278 L 222.28935,156.80331 z"
     id="path13261"
     sodipodi:nodetypes="cccccccc"
     style="fill:#000000;fill-opacity:1;fill-rule:evenodd;stroke:#000000;stroke-width:0.49392796pt;stroke-linecap:butt;stroke-linejoin:miter;stroke-opacity:1" />
  <g
     id="g29668"
     transform="matrix(1.975712,0,0,1.975712,-516.29161,-1114.7324)">
    <path
       d="M 577.99112,279.26985 C 575.0638,284.34011 549.79584,291.11064 544.72558,288.18332 C 539.65532,285.256 532.88478,259.98804 535.8121,254.91778 C 538.73942,249.84752 564.00738,243.07698 569.07765,246.0043 C 574.14791,248.93162 580.91844,274.19958 577.99112,279.26985 z"
       id="path13263"
       inkscape:flatsided="true"
       inkscape:randomized="0"
       inkscape:rounded="0.17"
       sodipodi:arg1="0.52359878"
       sodipodi:arg2="1.3089969"
       sodipodi:cx="556.90161"
       sodipodi:cy="267.09381"
       sodipodi:r1="24.352068"
       sodipodi:r2="12.176032"
       sodipodi:sides="4"
       sodipodi:type="star"
       style="fill:#3b3b5d;fill-opacity:1;fill-rule:evenodd;stroke:#000000;stroke-width:1.55774367;stroke-linecap:butt;stroke-linejoin:miter;stroke-miterlimit:4;stroke-dashoffset:0;stroke-opacity:1"
       transform="matrix(0.781647,0.115846,-0.209441,0.432342,10.1537,529.7486)" />
    <path
       d="M 556.58674,275.7358 C 553.6976,277.40522 553.70433,287.55454 556.61397,289.16391 C 559.53388,290.77896 577.98994,290.77895 580.90986,289.16391 C 581.56472,288.8017 582.04681,287.96299 582.40793,286.93043 C 582.38737,286.94283 582.37431,286.97336 582.35345,286.9849 C 579.43352,288.59996 560.97747,288.59996 558.05756,286.9849 C 555.7796,285.72493 555.31042,279.2947 556.58674,275.7358 z"
       id="path13264"
       style="fill:#ffffff;fill-opacity:0.43773582;fill-rule:evenodd;stroke:none;stroke-width:1.55774367;stroke-linecap:butt;stroke-linejoin:miter;stroke-miterlimit:4;stroke-dashoffset:0;stroke-opacity:1"
       transform="translate(-179.2987,426.5701)" />
    <path
       d="M 570.00593,275.13913 C 564.80861,275.13913 559.60864,275.51941 558.18841,276.30498 C 555.37216,276.8834 558.61893,276.42835 562.71019,275.90256 C 566.33885,275.51369 583.66236,275.5137 582.1679,278.42471 C 582.82266,278.78687 583.29881,279.60493 583.65171,280.65043 C 583.37093,278.66769 582.85837,276.87742 581.82344,276.30498 C 580.4032,275.51941 575.20324,275.13913 570.00593,275.13913 z"
       id="path13265"
       sodipodi:nodetypes="ccccccc"
       style="fill:#ffffff;fill-opacity:0.43396229;fill-rule:evenodd;stroke:none;stroke-width:1.55774367;stroke-linecap:butt;stroke-linejoin:miter;stroke-miterlimit:4;stroke-dashoffset:0;stroke-opacity:1"
       transform="translate(-179.2987,426.5701)" />
  </g>
  <path
     style="font-size:36px;font-style:normal;font-variant:normal;font-weight:normal;font-stretch:condensed;line-height:100%;writing-mode:lr-tb;text-anchor:start;fill:#ffffff;fill-opacity:1;stroke:none;stroke-width:1pt;stroke-linecap:butt;stroke-linejoin:miter;stroke-opacity:1;font-family:Impact"
     d="M 256.65648,274.69308 L 256.65648,295.37992 L 251.49435,295.37992 L 251.49435,284.28901 C 251.49435,282.68758 251.45602,281.725 251.37936,281.40129 C 251.30269,281.07761 251.08973,280.83483 250.74048,280.67298 C 250.39975,280.50262 249.63309,280.41743 248.44052,280.41742 L 247.92942,280.41742 L 247.92942,278.00247 C 250.4253,277.46583 252.32063,276.3627 253.61543,274.69308 L 256.65648,274.69308"
     id="text13266" />
  <g
     id="g21476"
     transform="matrix(1.975712,0,0,1.975712,-516.29161,-1114.7324)">
    <path
       d="M 577.99112,279.26985 C 575.0638,284.34011 549.79584,291.11064 544.72558,288.18332 C 539.65532,285.256 532.88478,259.98804 535.8121,254.91778 C 538.73942,249.84752 564.00738,243.07698 569.07765,246.0043 C 574.14791,248.93162 580.91844,274.19958 577.99112,279.26985 z"
       id="path13270"
       inkscape:flatsided="true"
       inkscape:randomized="0"
       inkscape:rounded="0.17"
       sodipodi:arg1="0.52359878"
       sodipodi:arg2="1.3089969"
       sodipodi:cx="556.90161"
       sodipodi:cy="267.09381"
       sodipodi:r1="24.352068"
       sodipodi:r2="12.176032"
       sodipodi:sides="4"
       sodipodi:type="star"
       style="fill:#3b3b5d;fill-opacity:1;fill-rule:evenodd;stroke:#000000;stroke-width:1.55774367;stroke-linecap:butt;stroke-linejoin:miter;stroke-miterlimit:4;stroke-dashoffset:0;stroke-opacity:1"
       transform="matrix(0.781647,0.115846,-0.209441,0.432342,54.2365,530.3943)" />
    <path
       d="M 556.58674,275.7358 C 553.6976,277.40522 553.70433,287.55454 556.61397,289.16391 C 559.53388,290.77896 577.98994,290.77895 580.90986,289.16391 C 581.56472,288.8017 582.04681,287.96299 582.40793,286.93043 C 582.38737,286.94283 582.37431,286.97336 582.35345,286.9849 C 579.43352,288.59996 560.97747,288.59996 558.05756,286.9849 C 555.7796,285.72493 555.31042,279.2947 556.58674,275.7358 z"
       id="path13271"
       style="fill:#ffffff;fill-opacity:0.43773582;fill-rule:evenodd;stroke:none;stroke-width:1.55774367;stroke-linecap:butt;stroke-linejoin:miter;stroke-miterlimit:4;stroke-dashoffset:0;stroke-opacity:1"
       transform="translate(-135.2159,427.2158)" />
    <path
       d="M 570.00593,275.13913 C 564.80861,275.13913 559.60864,275.51941 558.18841,276.30498 C 555.37216,276.8834 558.61893,276.42835 562.71019,275.90256 C 566.33885,275.51369 583.66236,275.5137 582.1679,278.42471 C 582.82266,278.78687 583.29881,279.60493 583.65171,280.65043 C 583.37093,278.66769 582.85837,276.87742 581.82344,276.30498 C 580.4032,275.51941 575.20324,275.13913 570.00593,275.13913 z"
       id="path13272"
       sodipodi:nodetypes="ccccccc"
       style="fill:#ffffff;fill-opacity:0.43396229;fill-rule:evenodd;stroke:none;stroke-width:1.55774367;stroke-linecap:butt;stroke-linejoin:miter;stroke-miterlimit:4;stroke-dashoffset:0;stroke-opacity:1"
       transform="translate(-135.2159,427.2158)" />
  </g>
  <path
     style="font-size:36px;font-style:normal;font-variant:normal;font-weight:normal;font-stretch:condensed;line-height:100%;writing-mode:lr-tb;text-anchor:start;fill:#ffffff;fill-opacity:1;stroke:none;stroke-width:1pt;stroke-linecap:butt;stroke-linejoin:miter;stroke-opacity:1;font-family:Impact"
     d="M 346.92026,293.12902 L 346.92026,296.65562 L 335.56103,296.65562 L 335.56103,293.70401 C 338.92578,288.20116 340.92333,284.79807 341.5537,283.49476 C 342.19256,282.18294 342.512,281.16074 342.51201,280.42815 C 342.512,279.86595 342.41404,279.44855 342.21813,279.17594 C 342.03072,278.89486 341.74109,278.75431 341.34926,278.75428 C 340.95741,278.75431 340.66352,278.90764 340.46761,279.21428 C 340.2802,279.52096 340.18649,280.13002 340.1865,281.04147 L 340.1865,283.00921 L 335.56103,283.00921 L 335.56103,282.25533 C 335.56103,281.09685 335.62066,280.18539 335.73992,279.52094 C 335.85917,278.848 336.15306,278.18783 336.62156,277.54042 C 337.09007,276.89304 337.69914,276.40324 338.44875,276.07101 C 339.19837,275.73881 340.09705,275.5727 341.14482,275.57268 C 343.19773,275.5727 344.74807,276.0838 345.79584,277.10599 C 346.8521,278.11969 347.38024,279.40596 347.38025,280.9648 C 347.38024,282.14887 347.0821,283.40107 346.48582,284.7214 C 345.89804,286.04175 344.15604,288.84429 341.25981,293.12902 L 346.92026,293.12902"
     id="text13273" />
  <g
     id="g25238"
     transform="matrix(1.975712,0,0,1.975712,-516.29161,-1114.7324)">
    <path
       d="M 577.99112,279.26985 C 575.0638,284.34011 549.79584,291.11064 544.72558,288.18332 C 539.65532,285.256 532.88478,259.98804 535.8121,254.91778 C 538.73942,249.84752 564.00738,243.07698 569.07765,246.0043 C 574.14791,248.93162 580.91844,274.19958 577.99112,279.26985 z"
       id="path13277"
       inkscape:flatsided="true"
       inkscape:randomized="0"
       inkscape:rounded="0.17"
       sodipodi:arg1="0.52359878"
       sodipodi:arg2="1.3089969"
       sodipodi:cx="556.90161"
       sodipodi:cy="267.09381"
       sodipodi:r1="24.352068"
       sodipodi:r2="12.176032"
       sodipodi:sides="4"
       sodipodi:type="star"
       style="fill:#3b3b5d;fill-opacity:1;fill-rule:evenodd;stroke:#000000;stroke-width:1.55774367;stroke-linecap:butt;stroke-linejoin:miter;stroke-miterlimit:4;stroke-dashoffset:0;stroke-opacity:1"
       transform="matrix(0.781647,0.115846,-0.209441,0.432342,96.3819,531.0401)" />
    <path
       d="M 556.58674,275.7358 C 553.6976,277.40522 553.70433,287.55454 556.61397,289.16391 C 559.53388,290.77896 577.98994,290.77895 580.90986,289.16391 C 581.56472,288.8017 582.04681,287.96299 582.40793,286.93043 C 582.38737,286.94283 582.37431,286.97336 582.35345,286.9849 C 579.43352,288.59996 560.97747,288.59996 558.05756,286.9849 C 555.7796,285.72493 555.31042,279.2947 556.58674,275.7358 z"
       id="path13278"
       style="fill:#ffffff;fill-opacity:0.43773582;fill-rule:evenodd;stroke:none;stroke-width:1.55774367;stroke-linecap:butt;stroke-linejoin:miter;stroke-miterlimit:4;stroke-dashoffset:0;stroke-opacity:1"
       transform="translate(-93.07045,427.8616)" />
    <path
       d="M 570.00593,275.13913 C 564.80861,275.13913 559.60864,275.51941 558.18841,276.30498 C 555.37216,276.8834 558.61893,276.42835 562.71019,275.90256 C 566.33885,275.51369 583.66236,275.5137 582.1679,278.42471 C 582.82266,278.78687 583.29881,279.60493 583.65171,280.65043 C 583.37093,278.66769 582.85837,276.87742 581.82344,276.30498 C 580.4032,275.51941 575.20324,275.13913 570.00593,275.13913 z"
       id="path13279"
       sodipodi:nodetypes="ccccccc"
       style="fill:#ffffff;fill-opacity:0.43396229;fill-rule:evenodd;stroke:none;stroke-width:1.55774367;stroke-linecap:butt;stroke-linejoin:miter;stroke-miterlimit:4;stroke-dashoffset:0;stroke-opacity:1"
       transform="translate(-93.07045,427.8616)" />
    <path
       transform="matrix(0.367918,0,0,0.367918,270.036,596.2722)"
       style="font-size:36px;font-style:normal;font-variant:normal;font-weight:normal;font-stretch:condensed;line-height:100%;writing-mode:lr-tb;text-anchor:start;fill:#ffffff;fill-opacity:1;stroke:none;stroke-width:1pt;stroke-linecap:butt;stroke-linejoin:miter;stroke-opacity:1;font-family:Impact"
       d="M 566.15027,306.62363 C 567.22838,306.98692 568.03111,307.58458 568.55847,308.4166 C 569.0858,309.23692 569.34947,311.17051 569.34949,314.21738 C 569.34947,316.4791 569.09166,318.23691 568.57605,319.49081 C 568.06041,320.733 567.16978,321.68222 565.90417,322.33847 C 564.63854,322.983 563.01549,323.30527 561.03503,323.30527 C 558.78503,323.30527 557.0155,322.93027 555.72644,322.18027 C 554.44909,321.41855 553.60534,320.49277 553.19519,319.40292 C 552.79675,318.30137 552.59753,316.39707 552.59753,313.69003 L 552.59753,311.44003 L 559.6991,311.44003 L 559.6991,316.06308 C 559.69909,317.29355 559.7694,318.07871 559.91003,318.41855 C 560.06237,318.74668 560.39049,318.91074 560.89441,318.91074 C 561.44518,318.91074 561.80846,318.6998 561.98425,318.27792 C 562.16002,317.85605 562.24791,316.75449 562.24792,314.97324 L 562.24792,313.00449 C 562.24791,311.91465 562.12487,311.11778 561.87878,310.61386 C 561.63268,310.10997 561.2694,309.78184 560.78894,309.62949 C 560.30846,309.46544 559.37682,309.37169 557.99402,309.34824 L 557.99402,305.21738 C 559.68151,305.21739 560.72448,305.15294 561.12292,305.02402 C 561.52135,304.89513 561.80846,304.61388 561.98425,304.18027 C 562.16002,303.74669 562.24791,303.06701 562.24792,302.1412 L 562.24792,300.55917 C 562.24791,299.5631 562.14245,298.90685 561.93152,298.59042 C 561.73229,298.27404 561.41588,298.11584 560.9823,298.11581 C 560.4901,298.11584 560.15026,298.28576 559.96277,298.62558 C 559.78698,298.95373 559.69909,299.66271 559.6991,300.75253 L 559.6991,303.09042 L 552.59753,303.09042 L 552.59753,300.66464 C 552.59753,297.94592 553.21863,296.11193 554.46082,295.16269 C 555.703,294.20178 557.67761,293.72131 560.38464,293.72128 C 563.77135,293.72131 566.06822,294.38342 567.27527,295.70761 C 568.48228,297.03186 569.0858,298.8717 569.08582,301.22714 C 569.0858,302.82091 568.869,303.97521 568.43542,304.69003 C 568.00181,305.39318 567.2401,306.03771 566.15027,306.62363"
       id="text13280" />
  </g>
  <g
     id="g22728"
     transform="matrix(1.975712,0,0,1.975712,-516.29161,-1114.7324)">
    <path
       d="M 577.99112,279.26985 C 575.0638,284.34011 549.79584,291.11064 544.72558,288.18332 C 539.65532,285.256 532.88478,259.98804 535.8121,254.91778 C 538.73942,249.84752 564.00738,243.07698 569.07765,246.0043 C 574.14791,248.93162 580.91844,274.19958 577.99112,279.26985 z"
       id="path13284"
       inkscape:flatsided="true"
       inkscape:randomized="0"
       inkscape:rounded="0.17"
       sodipodi:arg1="0.52359878"
       sodipodi:arg2="1.3089969"
       sodipodi:cx="556.90161"
       sodipodi:cy="267.09381"
       sodipodi:r1="24.352068"
       sodipodi:r2="12.176032"
       sodipodi:sides="4"
       sodipodi:type="star"
       style="fill:#3b3b5d;fill-opacity:1;fill-rule:evenodd;stroke:#000000;stroke-width:1.55774367;stroke-linecap:butt;stroke-linejoin:miter;stroke-miterlimit:4;stroke-dashoffset:0;stroke-opacity:1"
       transform="matrix(0.781647,0.115846,-0.209441,0.432342,8.8622,555.0223)" />
    <path
       d="M 556.58674,275.7358 C 553.6976,277.40522 553.70433,287.55454 556.61397,289.16391 C 559.53388,290.77896 577.98994,290.77895 580.90986,289.16391 C 581.56472,288.8017 582.04681,287.96299 582.40793,286.93043 C 582.38737,286.94283 582.37431,286.97336 582.35345,286.9849 C 579.43352,288.59996 560.97747,288.59996 558.05756,286.9849 C 555.7796,285.72493 555.31042,279.2947 556.58674,275.7358 z"
       id="path13285"
       style="fill:#ffffff;fill-opacity:0.43773582;fill-rule:evenodd;stroke:none;stroke-width:1.55774367;stroke-linecap:butt;stroke-linejoin:miter;stroke-miterlimit:4;stroke-dashoffset:0;stroke-opacity:1"
       transform="translate(-180.5902,451.8438)" />
    <path
       d="M 570.00593,275.13913 C 564.80861,275.13913 559.60864,275.51941 558.18841,276.30498 C 555.37216,276.8834 558.61893,276.42835 562.71019,275.90256 C 566.33885,275.51369 583.66236,275.5137 582.1679,278.42471 C 582.82266,278.78687 583.29881,279.60493 583.65171,280.65043 C 583.37093,278.66769 582.85837,276.87742 581.82344,276.30498 C 580.4032,275.51941 575.20324,275.13913 570.00593,275.13913 z"
       id="path13286"
       sodipodi:nodetypes="ccccccc"
       style="fill:#ffffff;fill-opacity:0.43396229;fill-rule:evenodd;stroke:none;stroke-width:1.55774367;stroke-linecap:butt;stroke-linejoin:miter;stroke-miterlimit:4;stroke-dashoffset:0;stroke-opacity:1"
       transform="translate(-180.5902,451.8438)" />
  </g>
  <path
     style="font-size:36px;font-style:normal;font-variant:normal;font-weight:normal;font-stretch:condensed;line-height:100%;writing-mode:lr-tb;text-anchor:start;fill:#ffffff;fill-opacity:1;stroke:none;stroke-width:1pt;stroke-linecap:butt;stroke-linejoin:miter;stroke-opacity:1;font-family:Impact"
     d="M 256.67317,324.62658 L 256.67317,338.14522 L 258.14258,338.14522 L 258.14258,341.67182 L 256.67317,341.67182 L 256.67317,345.31342 L 251.51104,345.31342 L 251.51104,341.67182 L 245.37782,341.67182 L 245.37782,338.14522 L 249.83718,324.62658 L 256.67317,324.62658 M 251.51104,338.14522 L 251.51104,329.34149 L 249.23664,338.14522 L 251.51104,338.14522"
     id="text13287" />
  <g
     id="g23980"
     transform="matrix(1.975712,0,0,1.975712,-516.29161,-1114.7324)">
    <path
       d="M 577.99112,279.26985 C 575.0638,284.34011 549.79584,291.11064 544.72558,288.18332 C 539.65532,285.256 532.88478,259.98804 535.8121,254.91778 C 538.73942,249.84752 564.00738,243.07698 569.07765,246.0043 C 574.14791,248.93162 580.91844,274.19958 577.99112,279.26985 z"
       id="path13291"
       inkscape:flatsided="true"
       inkscape:randomized="0"
       inkscape:rounded="0.17"
       sodipodi:arg1="0.52359878"
       sodipodi:arg2="1.3089969"
       sodipodi:cx="556.90161"
       sodipodi:cy="267.09381"
       sodipodi:r1="24.352068"
       sodipodi:r2="12.176032"
       sodipodi:sides="4"
       sodipodi:type="star"
       style="fill:#3b3b5d;fill-opacity:1;fill-rule:evenodd;stroke:#000000;stroke-width:1.55774367;stroke-linecap:butt;stroke-linejoin:miter;stroke-miterlimit:4;stroke-dashoffset:0;stroke-opacity:1"
       transform="matrix(0.781647,0.115846,-0.209441,0.432342,52.2993,554.807)" />
    <path
       d="M 556.58674,275.7358 C 553.6976,277.40522 553.70433,287.55454 556.61397,289.16391 C 559.53388,290.77896 577.98994,290.77895 580.90986,289.16391 C 581.56472,288.8017 582.04681,287.96299 582.40793,286.93043 C 582.38737,286.94283 582.37431,286.97336 582.35345,286.9849 C 579.43352,288.59996 560.97747,288.59996 558.05756,286.9849 C 555.7796,285.72493 555.31042,279.2947 556.58674,275.7358 z"
       id="path13292"
       style="fill:#ffffff;fill-opacity:0.43773582;fill-rule:evenodd;stroke:none;stroke-width:1.55774367;stroke-linecap:butt;stroke-linejoin:miter;stroke-miterlimit:4;stroke-dashoffset:0;stroke-opacity:1"
       transform="translate(-137.1531,451.6285)" />
    <path
       d="M 570.00593,275.13913 C 564.80861,275.13913 559.60864,275.51941 558.18841,276.30498 C 555.37216,276.8834 558.61893,276.42835 562.71019,275.90256 C 566.33885,275.51369 583.66236,275.5137 582.1679,278.42471 C 582.82266,278.78687 583.29881,279.60493 583.65171,280.65043 C 583.37093,278.66769 582.85837,276.87742 581.82344,276.30498 C 580.4032,275.51941 575.20324,275.13913 570.00593,275.13913 z"
       id="path13293"
       sodipodi:nodetypes="ccccccc"
       style="fill:#ffffff;fill-opacity:0.43396229;fill-rule:evenodd;stroke:none;stroke-width:1.55774367;stroke-linecap:butt;stroke-linejoin:miter;stroke-miterlimit:4;stroke-dashoffset:0;stroke-opacity:1"
       transform="translate(-137.1531,451.6285)" />
  </g>
  <path
     style="font-size:36px;font-style:normal;font-variant:normal;font-weight:normal;font-stretch:condensed;line-height:100%;writing-mode:lr-tb;text-anchor:start;fill:#ffffff;fill-opacity:1;stroke:none;stroke-width:1pt;stroke-linecap:butt;stroke-linejoin:miter;stroke-opacity:1;font-family:Impact"
     d="M 343.23347,324.20128 L 343.23347,327.51067 L 336.83192,327.51067 L 336.83192,331.02449 C 337.63264,330.07897 338.66336,329.6062 339.92408,329.60618 C 341.34664,329.6062 342.41995,330.00656 343.14402,330.80727 C 343.87659,331.5995 344.24288,333.12854 344.24289,335.39441 L 344.24289,338.34602 C 344.24288,339.81118 344.17047,340.88875 344.02567,341.57873 C 343.88936,342.26021 343.59122,342.89482 343.13124,343.48259 C 342.67124,344.06184 342.02811,344.50905 341.20184,344.82423 C 340.38406,345.13089 339.38316,345.28422 338.19912,345.28422 C 336.87024,345.28422 335.69897,345.05423 334.68529,344.59424 C 333.6716,344.12573 332.9518,343.43148 332.52589,342.5115 C 332.09997,341.59152 331.88701,340.16896 331.88701,338.2438 L 331.88701,337.11938 L 337.04914,337.11938 L 337.04914,338.40991 C 337.04913,339.7473 337.09598,340.69709 337.18968,341.2593 C 337.28338,341.82151 337.60708,342.10262 338.16078,342.10262 C 338.41632,342.10262 338.62076,342.02169 338.7741,341.85984 C 338.93595,341.698 339.02113,341.52337 339.02965,341.33596 C 339.04668,341.14856 339.06372,340.33506 339.08077,338.89546 L 339.08077,334.79386 C 339.08076,334.01871 338.99983,333.49057 338.83799,333.20945 C 338.67614,332.92836 338.40781,332.7878 338.033,332.78779 C 337.79449,332.7878 337.59431,332.86021 337.43246,333.00501 C 337.2706,333.14983 337.16413,333.30742 337.11303,333.47778 C 337.07042,333.63963 337.04913,334.02297 337.04914,334.62775 L 331.93812,334.62775 L 332.15534,324.20128 L 343.23347,324.20128"
     id="text13294" />
  <g
     id="g25245"
     transform="matrix(1.975712,0,0,1.975712,-516.29161,-1114.7324)">
    <path
       d="M 577.99112,279.26985 C 575.0638,284.34011 549.79584,291.11064 544.72558,288.18332 C 539.65532,285.256 532.88478,259.98804 535.8121,254.91778 C 538.73942,249.84752 564.00738,243.07698 569.07765,246.0043 C 574.14791,248.93162 580.91844,274.19958 577.99112,279.26985 z"
       id="path13298"
       inkscape:flatsided="true"
       inkscape:randomized="0"
       inkscape:rounded="0.17"
       sodipodi:arg1="0.52359878"
       sodipodi:arg2="1.3089969"
       sodipodi:cx="556.90161"
       sodipodi:cy="267.09381"
       sodipodi:r1="24.352068"
       sodipodi:r2="12.176032"
       sodipodi:sides="4"
       sodipodi:type="star"
       style="fill:#3b3b5d;fill-opacity:1;fill-rule:evenodd;stroke:#000000;stroke-width:1.55774367;stroke-linecap:butt;stroke-linejoin:miter;stroke-miterlimit:4;stroke-dashoffset:0;stroke-opacity:1"
       transform="matrix(0.781647,0.115846,-0.209441,0.432342,97.6733,555.2375)" />
    <path
       d="M 556.58674,275.7358 C 553.6976,277.40522 553.70433,287.55454 556.61397,289.16391 C 559.53388,290.77896 577.98994,290.77895 580.90986,289.16391 C 581.56472,288.8017 582.04681,287.96299 582.40793,286.93043 C 582.38737,286.94283 582.37431,286.97336 582.35345,286.9849 C 579.43352,288.59996 560.97747,288.59996 558.05756,286.9849 C 555.7796,285.72493 555.31042,279.2947 556.58674,275.7358 z"
       id="path13299"
       style="fill:#ffffff;fill-opacity:0.43773582;fill-rule:evenodd;stroke:none;stroke-width:1.55774367;stroke-linecap:butt;stroke-linejoin:miter;stroke-miterlimit:4;stroke-dashoffset:0;stroke-opacity:1"
       transform="translate(-91.77905,452.059)" />
    <path
       d="M 570.00593,275.13913 C 564.80861,275.13913 559.60864,275.51941 558.18841,276.30498 C 555.37216,276.8834 558.61893,276.42835 562.71019,275.90256 C 566.33885,275.51369 583.66236,275.5137 582.1679,278.42471 C 582.82266,278.78687 583.29881,279.60493 583.65171,280.65043 C 583.37093,278.66769 582.85837,276.87742 581.82344,276.30498 C 580.4032,275.51941 575.20324,275.13913 570.00593,275.13913 z"
       id="path13300"
       sodipodi:nodetypes="ccccccc"
       style="fill:#ffffff;fill-opacity:0.43396229;fill-rule:evenodd;stroke:none;stroke-width:1.55774367;stroke-linecap:butt;stroke-linejoin:miter;stroke-miterlimit:4;stroke-dashoffset:0;stroke-opacity:1"
       transform="translate(-91.77905,452.059)" />
    <path
       transform="matrix(0.367918,0,0,0.367918,271.3274,620.4696)"
       style="font-size:36px;font-style:normal;font-variant:normal;font-weight:normal;font-stretch:condensed;line-height:100%;writing-mode:lr-tb;text-anchor:start;fill:#ffffff;fill-opacity:1;stroke:none;stroke-width:1pt;stroke-linecap:butt;stroke-linejoin:miter;stroke-opacity:1;font-family:Impact"
       d="M 569.85925,301.84238 L 562.75769,301.84238 C 562.75768,300.51818 562.7401,299.68615 562.70496,299.34628 C 562.68151,298.99474 562.54088,298.70178 562.28308,298.46738 C 562.03698,298.23303 561.69713,298.11584 561.26355,298.11581 C 560.90026,298.11584 560.60143,298.22717 560.36707,298.4498 C 560.13268,298.67248 559.99792,298.95959 559.96277,299.31113 C 559.9276,299.66271 559.91003,300.3717 559.91003,301.43808 L 559.91003,305.97324 C 560.27331,305.21153 560.80651,304.64318 561.50964,304.26816 C 562.21276,303.88146 563.07994,303.6881 564.11121,303.68808 C 565.41197,303.6881 566.56041,304.03966 567.55652,304.74277 C 568.5526,305.44591 569.18541,306.28966 569.45496,307.27402 C 569.72447,308.25841 569.85923,309.58848 569.85925,311.26425 L 569.85925,313.53183 C 569.85923,315.52402 569.78306,317.00644 569.63074,317.9791 C 569.47838,318.95176 569.06822,319.8541 568.40027,320.68613 C 567.744,321.50644 566.8358,322.14511 565.67566,322.60214 C 564.52721,323.05917 563.18541,323.28769 561.65027,323.28769 C 559.7401,323.28769 558.17565,323.02402 556.95691,322.49667 C 555.73815,321.96933 554.7948,321.21347 554.12683,320.2291 C 553.47058,319.23301 553.08386,318.19004 552.96667,317.10019 C 552.8612,316.01035 552.80847,313.89512 552.80847,310.75449 L 552.80847,306.81699 C 552.80847,303.43029 552.85535,301.16857 552.9491,300.03183 C 553.05456,298.88342 553.46472,297.79943 554.17957,296.77988 C 554.89441,295.76037 555.86706,294.99865 557.09753,294.49472 C 558.33971,293.97912 559.7694,293.72131 561.3866,293.72128 C 563.37877,293.72131 565.01354,294.04358 566.29089,294.68808 C 567.56822,295.33264 568.48228,296.24084 569.03308,297.41269 C 569.58384,298.58459 569.85923,300.06115 569.85925,301.84238 M 562.75769,310.71933 C 562.75768,309.71153 562.64635,309.02012 562.42371,308.64511 C 562.20104,308.27013 561.83776,308.08263 561.33386,308.08261 C 560.84167,308.08263 560.47838,308.26427 560.24402,308.62753 C 560.02135,308.97911 559.91003,309.67637 559.91003,310.71933 L 559.91003,315.86972 C 559.91003,317.12363 560.01549,317.94394 560.22644,318.33066 C 560.44909,318.71738 560.81237,318.91074 561.31628,318.91074 C 561.62096,318.91074 561.93737,318.76426 562.2655,318.47128 C 562.59362,318.1666 562.75768,317.35801 562.75769,316.0455 L 562.75769,310.71933"
       id="text13301" />
  </g>
  <g
     id="g25879"
     transform="matrix(1.975712,0,0,1.975712,-516.29161,-1114.7324)">
    <path
       d="M 577.99112,279.26985 C 575.0638,284.34011 549.79584,291.11064 544.72558,288.18332 C 539.65532,285.256 532.88478,259.98804 535.8121,254.91778 C 538.73942,249.84752 564.00738,243.07698 569.07765,246.0043 C 574.14791,248.93162 580.91844,274.19958 577.99112,279.26985 z"
       id="path13305"
       inkscape:flatsided="true"
       inkscape:randomized="0"
       inkscape:rounded="0.17"
       sodipodi:arg1="0.52359878"
       sodipodi:arg2="1.3089969"
       sodipodi:cx="556.90161"
       sodipodi:cy="267.09381"
       sodipodi:r1="24.352068"
       sodipodi:r2="12.176032"
       sodipodi:sides="4"
       sodipodi:type="star"
       style="fill:#3b3b5d;fill-opacity:1;fill-rule:evenodd;stroke:#000000;stroke-width:1.55774367;stroke-linecap:butt;stroke-linejoin:miter;stroke-miterlimit:4;stroke-dashoffset:0;stroke-opacity:1"
       transform="matrix(0.781647,0.115846,-0.209441,0.432342,7.5707,578.3588)" />
    <path
       d="M 556.58674,275.7358 C 553.6976,277.40522 553.70433,287.55454 556.61397,289.16391 C 559.53388,290.77896 577.98994,290.77895 580.90986,289.16391 C 581.56472,288.8017 582.04681,287.96299 582.40793,286.93043 C 582.38737,286.94283 582.37431,286.97336 582.35345,286.9849 C 579.43352,288.59996 560.97747,288.59996 558.05756,286.9849 C 555.7796,285.72493 555.31042,279.2947 556.58674,275.7358 z"
       id="path13306"
       style="fill:#ffffff;fill-opacity:0.43773582;fill-rule:evenodd;stroke:none;stroke-width:1.55774367;stroke-linecap:butt;stroke-linejoin:miter;stroke-miterlimit:4;stroke-dashoffset:0;stroke-opacity:1"
       transform="translate(-181.8817,475.1803)" />
    <path
       d="M 570.00593,275.13913 C 564.80861,275.13913 559.60864,275.51941 558.18841,276.30498 C 555.37216,276.8834 558.61893,276.42835 562.71019,275.90256 C 566.33885,275.51369 583.66236,275.5137 582.1679,278.42471 C 582.82266,278.78687 583.29881,279.60493 583.65171,280.65043 C 583.37093,278.66769 582.85837,276.87742 581.82344,276.30498 C 580.4032,275.51941 575.20324,275.13913 570.00593,275.13913 z"
       id="path13307"
       sodipodi:nodetypes="ccccccc"
       style="fill:#ffffff;fill-opacity:0.43396229;fill-rule:evenodd;stroke:none;stroke-width:1.55774367;stroke-linecap:butt;stroke-linejoin:miter;stroke-miterlimit:4;stroke-dashoffset:0;stroke-opacity:1"
       transform="translate(-181.8817,475.1803)" />
  </g>
  <path
     style="font-size:36px;font-style:normal;font-variant:normal;font-weight:normal;font-stretch:condensed;line-height:100%;writing-mode:lr-tb;text-anchor:start;fill:#ffffff;fill-opacity:1;stroke:none;stroke-width:1pt;stroke-linecap:butt;stroke-linejoin:miter;stroke-opacity:1;font-family:Impact"
     d="M 252.69048,370.73278 L 252.69048,375.24325 L 249.39388,391.41962 L 244.2573,391.41962 L 247.92446,374.45105 L 242.82622,374.45105 L 242.82622,370.73278 L 252.69048,370.73278"
     id="text13308" />
  <g
     id="g26510"
     transform="matrix(1.975712,0,0,1.975712,-516.29161,-1114.7324)">
    <path
       d="M 577.99112,279.26985 C 575.0638,284.34011 549.79584,291.11064 544.72558,288.18332 C 539.65532,285.256 532.88478,259.98804 535.8121,254.91778 C 538.73942,249.84752 564.00738,243.07698 569.07765,246.0043 C 574.14791,248.93162 580.91844,274.19958 577.99112,279.26985 z"
       id="path13312"
       inkscape:flatsided="true"
       inkscape:randomized="0"
       inkscape:rounded="0.17"
       sodipodi:arg1="0.52359878"
       sodipodi:arg2="1.3089969"
       sodipodi:cx="556.90161"
       sodipodi:cy="267.09381"
       sodipodi:r1="24.352068"
       sodipodi:r2="12.176032"
       sodipodi:sides="4"
       sodipodi:type="star"
       style="fill:#3b3b5d;fill-opacity:1;fill-rule:evenodd;stroke:#000000;stroke-width:1.55774367;stroke-linecap:butt;stroke-linejoin:miter;stroke-miterlimit:4;stroke-dashoffset:0;stroke-opacity:1"
       transform="matrix(0.781647,0.115846,-0.209441,0.432342,51.6535,579.8655)" />
    <path
       d="M 556.58674,275.7358 C 553.6976,277.40522 553.70433,287.55454 556.61397,289.16391 C 559.53388,290.77896 577.98994,290.77895 580.90986,289.16391 C 581.56472,288.8017 582.04681,287.96299 582.40793,286.93043 C 582.38737,286.94283 582.37431,286.97336 582.35345,286.9849 C 579.43352,288.59996 560.97747,288.59996 558.05756,286.9849 C 555.7796,285.72493 555.31042,279.2947 556.58674,275.7358 z"
       id="path13313"
       style="fill:#ffffff;fill-opacity:0.43773582;fill-rule:evenodd;stroke:none;stroke-width:1.55774367;stroke-linecap:butt;stroke-linejoin:miter;stroke-miterlimit:4;stroke-dashoffset:0;stroke-opacity:1"
       transform="translate(-137.7989,476.687)" />
    <path
       d="M 570.00593,275.13913 C 564.80861,275.13913 559.60864,275.51941 558.18841,276.30498 C 555.37216,276.8834 558.61893,276.42835 562.71019,275.90256 C 566.33885,275.51369 583.66236,275.5137 582.1679,278.42471 C 582.82266,278.78687 583.29881,279.60493 583.65171,280.65043 C 583.37093,278.66769 582.85837,276.87742 581.82344,276.30498 C 580.4032,275.51941 575.20324,275.13913 570.00593,275.13913 z"
       id="path13314"
       sodipodi:nodetypes="ccccccc"
       style="fill:#ffffff;fill-opacity:0.43396229;fill-rule:evenodd;stroke:none;stroke-width:1.55774367;stroke-linecap:butt;stroke-linejoin:miter;stroke-miterlimit:4;stroke-dashoffset:0;stroke-opacity:1"
       transform="translate(-137.7989,476.687)" />
  </g>
  <path
     style="font-size:36px;font-style:normal;font-variant:normal;font-weight:normal;font-stretch:condensed;line-height:100%;writing-mode:lr-tb;text-anchor:start;fill:#ffffff;fill-opacity:1;stroke:none;stroke-width:1pt;stroke-linecap:butt;stroke-linejoin:miter;stroke-opacity:1;font-family:Impact"
     d="M 340.53924,382.66664 C 341.29736,382.97331 341.88086,383.4333 342.28976,384.04662 C 342.69863,384.65143 342.90307,386.09955 342.90308,388.39098 C 342.90307,390.06058 342.74122,391.29148 342.41754,392.08369 C 342.09382,392.87589 341.46346,393.52755 340.52646,394.03865 C 339.58943,394.54123 338.33298,394.79252 336.75708,394.79252 C 335.22378,394.79252 334.00991,394.54975 333.11549,394.06421 C 332.22105,393.57866 331.57792,392.93552 331.18608,392.1348 C 330.80275,391.33407 330.61109,390.00095 330.61109,388.13543 C 330.61109,386.88323 330.70479,385.79714 330.89219,384.87715 C 331.08812,383.95718 331.69292,383.22034 332.70661,382.66664 C 332.06773,382.35999 331.58644,381.87444 331.26275,381.21 C 330.94756,380.53706 330.78998,379.68523 330.78998,378.65449 C 330.78998,376.87417 331.28404,375.54105 332.27217,374.65512 C 333.2603,373.76071 334.73823,373.3135 336.70598,373.31348 C 338.98037,373.3135 340.552,373.78627 341.42089,374.73178 C 342.28975,375.67734 342.72419,377.0275 342.7242,378.78227 C 342.72419,379.89818 342.57937,380.70317 342.28976,381.19722 C 342.00864,381.6913 341.42514,382.18111 340.53924,382.66664 M 337.63873,378.22005 C 337.63873,377.52157 337.57484,377.06157 337.44707,376.84008 C 337.32781,376.6101 337.09355,376.49511 336.74431,376.49508 C 336.40356,376.49511 336.17357,376.61862 336.05432,376.86564 C 335.93506,377.10417 335.87543,377.55564 335.87544,378.22005 L 335.87544,379.79169 C 335.87543,380.41355 335.94357,380.84372 336.07988,381.08222 C 336.21616,381.32075 336.44616,381.44001 336.76986,381.44 C 337.11059,381.44001 337.34059,381.32501 337.45985,381.095 C 337.5791,380.8565 337.63873,380.37095 337.63873,379.63836 L 337.63873,378.22005 M 337.74096,386.81934 C 337.74095,386.02714 337.66003,385.50326 337.49818,385.2477 C 337.33633,384.98364 337.08077,384.85161 336.73153,384.8516 C 336.39079,384.85161 336.14376,384.97938 335.99043,385.23492 C 335.84562,385.48197 335.77321,386.0101 335.77322,386.81934 L 335.77322,389.50263 C 335.77321,390.39705 335.85414,390.97204 336.01599,391.22759 C 336.18635,391.48314 336.45042,391.61092 336.80819,391.61092 C 337.17448,391.61092 337.42151,391.48314 337.54929,391.22759 C 337.67706,390.96353 337.74095,390.37576 337.74096,389.46429 L 337.74096,386.81934"
     id="text13315" />
  <g
     id="g27141"
     transform="matrix(1.975712,0,0,1.975712,-516.29161,-1114.7324)">
    <path
       d="M 577.99112,279.26985 C 575.0638,284.34011 549.79584,291.11064 544.72558,288.18332 C 539.65532,285.256 532.88478,259.98804 535.8121,254.91778 C 538.73942,249.84752 564.00738,243.07698 569.07765,246.0043 C 574.14791,248.93162 580.91844,274.19958 577.99112,279.26985 z"
       id="path13319"
       inkscape:flatsided="true"
       inkscape:randomized="0"
       inkscape:rounded="0.17"
       sodipodi:arg1="0.52359878"
       sodipodi:arg2="1.3089969"
       sodipodi:cx="556.90161"
       sodipodi:cy="267.09381"
       sodipodi:r1="24.352068"
       sodipodi:r2="12.176032"
       sodipodi:sides="4"
       sodipodi:type="star"
       style="fill:#3b3b5d;fill-opacity:1;fill-rule:evenodd;stroke:#000000;stroke-width:1.55774367;stroke-linecap:butt;stroke-linejoin:miter;stroke-miterlimit:4;stroke-dashoffset:0;stroke-opacity:1"
       transform="matrix(0.781647,0.115846,-0.209441,0.432342,97.6733,580.7265)" />
    <path
       d="M 556.58674,275.7358 C 553.6976,277.40522 553.70433,287.55454 556.61397,289.16391 C 559.53388,290.77896 577.98994,290.77895 580.90986,289.16391 C 581.56472,288.8017 582.04681,287.96299 582.40793,286.93043 C 582.38737,286.94283 582.37431,286.97336 582.35345,286.9849 C 579.43352,288.59996 560.97747,288.59996 558.05756,286.9849 C 555.7796,285.72493 555.31042,279.2947 556.58674,275.7358 z"
       id="path13320"
       style="fill:#ffffff;fill-opacity:0.43773582;fill-rule:evenodd;stroke:none;stroke-width:1.55774367;stroke-linecap:butt;stroke-linejoin:miter;stroke-miterlimit:4;stroke-dashoffset:0;stroke-opacity:1"
       transform="translate(-91.77905,477.548)" />
    <path
       d="M 570.00593,275.13913 C 564.80861,275.13913 559.60864,275.51941 558.18841,276.30498 C 555.37216,276.8834 558.61893,276.42835 562.71019,275.90256 C 566.33885,275.51369 583.66236,275.5137 582.1679,278.42471 C 582.82266,278.78687 583.29881,279.60493 583.65171,280.65043 C 583.37093,278.66769 582.85837,276.87742 581.82344,276.30498 C 580.4032,275.51941 575.20324,275.13913 570.00593,275.13913 z"
       id="path13321"
       sodipodi:nodetypes="ccccccc"
       style="fill:#ffffff;fill-opacity:0.43396229;fill-rule:evenodd;stroke:none;stroke-width:1.55774367;stroke-linecap:butt;stroke-linejoin:miter;stroke-miterlimit:4;stroke-dashoffset:0;stroke-opacity:1"
       transform="translate(-91.77905,477.548)" />
    <path
       transform="matrix(0.367918,0,0,0.367918,271.3274,645.9586)"
       style="font-size:36px;font-style:normal;font-variant:normal;font-weight:normal;font-stretch:condensed;line-height:100%;writing-mode:lr-tb;text-anchor:start;fill:#ffffff;fill-opacity:1;stroke:none;stroke-width:1pt;stroke-linecap:butt;stroke-linejoin:miter;stroke-opacity:1;font-family:Impact"
       d="M 552.80847,315.18417 L 559.91003,315.18417 C 559.91003,316.5084 559.9276,317.34629 559.96277,317.69785 C 559.99792,318.03769 560.13854,318.3248 560.38464,318.55917 C 560.64245,318.79355 560.98815,318.91074 561.42175,318.91074 C 561.78502,318.91074 562.08385,318.79941 562.31824,318.57675 C 562.5526,318.3541 562.68151,318.06699 562.70496,317.71542 C 562.7401,317.36387 562.75768,316.65488 562.75769,315.58847 L 562.75769,311.05331 C 562.40612,311.81504 561.87877,312.38926 561.17566,312.77597 C 560.47253,313.15098 559.59948,313.33848 558.55652,313.33847 C 557.25573,313.33848 556.1073,312.98692 555.11121,312.28378 C 554.11511,311.58067 553.4823,310.73692 553.21277,309.75253 C 552.94324,308.76817 552.80847,307.4381 552.80847,305.7623 L 552.80847,303.49472 C 552.80847,301.50255 552.88464,300.02013 553.03699,299.04745 C 553.20105,298.07482 553.6112,297.17834 554.26746,296.358 C 554.9237,295.526 555.8319,294.88147 556.99207,294.42441 C 558.15222,293.96741 559.49987,293.73889 561.03503,293.73886 C 562.93346,293.73889 564.49205,294.00256 565.71082,294.52988 C 566.92955,295.05725 567.87291,295.81897 568.54089,296.81503 C 569.20884,297.79943 569.59556,298.83654 569.70105,299.92636 C 569.8065,301.01623 569.85923,303.1256 569.85925,306.25449 L 569.85925,310.20956 C 569.85923,313.59629 569.81236,315.86387 569.71863,317.0123 C 569.62486,318.14902 569.2147,319.22715 568.48816,320.24667 C 567.7733,321.26621 566.80064,322.03378 565.57019,322.54941 C 564.33971,323.05331 562.91588,323.30527 561.29871,323.30527 C 559.29479,323.30527 557.65417,322.983 556.37683,322.33847 C 555.1112,321.69394 554.19714,320.78574 553.63464,319.61386 C 553.08386,318.44199 552.80847,316.96543 552.80847,315.18417 M 559.91003,306.30722 C 559.91003,307.50255 560.06237,308.24083 560.36707,308.52206 C 560.68346,308.80333 561.00573,308.94395 561.33386,308.94394 C 561.82604,308.94395 562.18346,308.76817 562.40613,308.4166 C 562.64049,308.05333 562.75768,307.3502 562.75769,306.30722 L 562.75769,301.15683 C 562.75768,299.90295 562.64635,299.08263 562.42371,298.69589 C 562.21276,298.3092 561.85534,298.11584 561.35144,298.11581 C 561.04674,298.11584 560.73034,298.26818 560.40222,298.57285 C 560.07409,298.86584 559.91003,299.66857 559.91003,300.98105 L 559.91003,306.30722"
       id="text13322" />
  </g>
  <g
     id="g28396"
     transform="matrix(1.975712,0,0,1.975712,-516.29161,-1114.7324)">
    <path
       d="M 577.99112,279.26985 C 575.0638,284.34011 549.79584,291.11064 544.72558,288.18332 C 539.65532,285.256 532.88478,259.98804 535.8121,254.91778 C 538.73942,249.84752 564.00738,243.07698 569.07765,246.0043 C 574.14791,248.93162 580.91844,274.19958 577.99112,279.26985 z"
       id="path13326"
       inkscape:flatsided="true"
       inkscape:randomized="0"
       inkscape:rounded="0.17"
       sodipodi:arg1="0.52359878"
       sodipodi:arg2="1.3089969"
       sodipodi:cx="556.90161"
       sodipodi:cy="267.09381"
       sodipodi:r1="24.352068"
       sodipodi:r2="12.176032"
       sodipodi:sides="4"
       sodipodi:type="star"
       style="fill:#3b3b5d;fill-opacity:1;fill-rule:evenodd;stroke:#000000;stroke-width:1.55774367;stroke-linecap:butt;stroke-linejoin:miter;stroke-miterlimit:4;stroke-dashoffset:0;stroke-opacity:1"
       transform="matrix(0.781647,0.115846,-0.209441,0.432342,6.2793,604.2783)" />
    <path
       d="M 556.58674,275.7358 C 553.6976,277.40522 553.70433,287.55454 556.61397,289.16391 C 559.53388,290.77896 577.98994,290.77895 580.90986,289.16391 C 581.56472,288.8017 582.04681,287.96299 582.40793,286.93043 C 582.38737,286.94283 582.37431,286.97336 582.35345,286.9849 C 579.43352,288.59996 560.97747,288.59996 558.05756,286.9849 C 555.7796,285.72493 555.31042,279.2947 556.58674,275.7358 z"
       id="path13327"
       style="fill:#ffffff;fill-opacity:0.43773582;fill-rule:evenodd;stroke:none;stroke-width:1.55774367;stroke-linecap:butt;stroke-linejoin:miter;stroke-miterlimit:4;stroke-dashoffset:0;stroke-opacity:1"
       transform="translate(-183.1731,501.0998)" />
    <path
       d="M 570.00593,275.13913 C 564.80861,275.13913 559.60864,275.51941 558.18841,276.30498 C 555.37216,276.8834 558.61893,276.42835 562.71019,275.90256 C 566.33885,275.51369 583.66236,275.5137 582.1679,278.42471 C 582.82266,278.78687 583.29881,279.60493 583.65171,280.65043 C 583.37093,278.66769 582.85837,276.87742 581.82344,276.30498 C 580.4032,275.51941 575.20324,275.13913 570.00593,275.13913 z"
       id="path13328"
       sodipodi:nodetypes="ccccccc"
       style="fill:#ffffff;fill-opacity:0.43396229;fill-rule:evenodd;stroke:none;stroke-width:1.55774367;stroke-linecap:butt;stroke-linejoin:miter;stroke-miterlimit:4;stroke-dashoffset:0;stroke-opacity:1"
       transform="translate(-183.1731,501.0998)" />
  </g>
  <path
     style="font-size:36px;font-style:normal;font-variant:normal;font-weight:normal;font-stretch:condensed;line-height:100%;writing-mode:lr-tb;text-anchor:start;fill:#ffffff;fill-opacity:1;stroke:none;stroke-width:1pt;stroke-linecap:butt;stroke-linejoin:miter;stroke-opacity:1;font-family:Impact"
     d="M 247.969,423.58418 L 247.969,429.90494 L 253.77938,427.90272 L 255.54604,432.53533 L 249.73566,434.9694 L 253.38679,440.15162 L 249.46086,443.05681 L 245.49565,437.83532 L 241.60898,443.05681 L 237.48676,440.15162 L 241.17713,434.7731 L 235.32749,432.53533 L 237.01564,427.90272 L 243.02231,429.90494 L 243.02231,423.58418 L 247.969,423.58418"
     id="text13329" />
  <g
     id="g29027"
     transform="matrix(1.975712,0,0,1.975712,-516.29161,-1114.7324)">
    <path
       d="M 577.99112,279.26985 C 575.0638,284.34011 549.79584,291.11064 544.72558,288.18332 C 539.65532,285.256 532.88478,259.98804 535.8121,254.91778 C 538.73942,249.84752 564.00738,243.07698 569.07765,246.0043 C 574.14791,248.93162 580.91844,274.19958 577.99112,279.26985 z"
       id="path13333"
       inkscape:flatsided="true"
       inkscape:randomized="0"
       inkscape:rounded="0.17"
       sodipodi:arg1="0.52359878"
       sodipodi:arg2="1.3089969"
       sodipodi:cx="556.90161"
       sodipodi:cy="267.09381"
       sodipodi:r1="24.352068"
       sodipodi:r2="12.176032"
       sodipodi:sides="4"
       sodipodi:type="star"
       style="fill:#3b3b5d;fill-opacity:1;fill-rule:evenodd;stroke:#000000;stroke-width:1.55774367;stroke-linecap:butt;stroke-linejoin:miter;stroke-miterlimit:4;stroke-dashoffset:0;stroke-opacity:1"
       transform="matrix(0.781647,0.115846,-0.209441,0.432342,51.65352,605.5698)" />
    <path
       d="M 556.58674,275.7358 C 553.6976,277.40522 553.70433,287.55454 556.61397,289.16391 C 559.53388,290.77896 577.98994,290.77895 580.90986,289.16391 C 581.56472,288.8017 582.04681,287.96299 582.40793,286.93043 C 582.38737,286.94283 582.37431,286.97336 582.35345,286.9849 C 579.43352,288.59996 560.97747,288.59996 558.05756,286.9849 C 555.7796,285.72493 555.31042,279.2947 556.58674,275.7358 z"
       id="path13334"
       style="fill:#ffffff;fill-opacity:0.43773582;fill-rule:evenodd;stroke:none;stroke-width:1.55774367;stroke-linecap:butt;stroke-linejoin:miter;stroke-miterlimit:4;stroke-dashoffset:0;stroke-opacity:1"
       transform="translate(-137.7989,502.3912)" />
    <path
       d="M 570.00593,275.13913 C 564.80861,275.13913 559.60864,275.51941 558.18841,276.30498 C 555.37216,276.8834 558.61893,276.42835 562.71019,275.90256 C 566.33885,275.51369 583.66236,275.5137 582.1679,278.42471 C 582.82266,278.78687 583.29881,279.60493 583.65171,280.65043 C 583.37093,278.66769 582.85837,276.87742 581.82344,276.30498 C 580.4032,275.51941 575.20324,275.13913 570.00593,275.13913 z"
       id="path13335"
       sodipodi:nodetypes="ccccccc"
       style="fill:#ffffff;fill-opacity:0.43396229;fill-rule:evenodd;stroke:none;stroke-width:1.55774367;stroke-linecap:butt;stroke-linejoin:miter;stroke-miterlimit:4;stroke-dashoffset:0;stroke-opacity:1"
       transform="translate(-137.7989,502.3912)" />
  </g>
  <path
     style="font-size:36px;font-style:normal;font-variant:normal;font-weight:normal;font-stretch:condensed;line-height:100%;writing-mode:lr-tb;text-anchor:start;fill:#ffffff;fill-opacity:1;stroke:none;stroke-width:1pt;stroke-linecap:butt;stroke-linejoin:miter;stroke-opacity:1;font-family:Impact"
     d="M 342.86475,431.49598 L 342.86475,438.39584 C 342.86474,439.96323 342.77955,441.10469 342.6092,441.82023 C 342.43882,442.53577 342.08531,443.20446 341.54866,443.8263 C 341.01199,444.44814 340.3646,444.89536 339.60647,445.16794 C 338.84833,445.44053 338.00076,445.57682 337.06375,445.57682 C 335.82858,445.57682 334.80212,445.43627 333.98436,445.15516 C 333.16659,444.86554 332.51494,444.41833 332.02939,443.81352 C 331.54385,443.20872 331.19885,442.5741 330.99442,441.90967 C 330.78998,441.23672 330.68775,440.17193 330.68775,438.71529 L 330.68775,431.49598 C 330.68775,429.5964 330.84961,428.17383 331.1733,427.22828 C 331.50552,426.28276 332.15717,425.52463 333.12826,424.95388 C 334.10787,424.38317 335.29192,424.0978 336.68042,424.09778 C 337.81335,424.0978 338.82703,424.29798 339.72148,424.69832 C 340.61589,425.09019 341.28458,425.57147 341.72755,426.14219 C 342.17049,426.71293 342.46864,427.35607 342.62198,428.0716 C 342.78381,428.78716 342.86474,429.92861 342.86475,431.49598 M 337.70262,429.75823 C 337.70261,428.65937 337.64725,427.97365 337.53652,427.70104 C 337.43429,427.41996 337.18726,427.27941 336.79542,427.27938 C 336.41208,427.27941 336.15653,427.42848 336.02877,427.7266 C 335.90951,428.01624 335.84988,428.69345 335.84988,429.75823 L 335.84988,439.85249 C 335.84988,441.05358 335.90525,441.77764 336.01599,442.02467 C 336.13524,442.2717 336.38653,442.39522 336.76986,442.39522 C 337.15318,442.39522 337.40448,442.25041 337.52374,441.96078 C 337.64299,441.67116 337.70261,441.0195 337.70262,440.00582 L 337.70262,429.75823"
     id="text13336" />
  <g
     id="g29658"
     transform="matrix(1.975712,0,0,1.975712,-516.29161,-1114.7324)">
    <path
       d="M 577.99112,279.26985 C 575.0638,284.34011 549.79584,291.11064 544.72558,288.18332 C 539.65532,285.256 532.88478,259.98804 535.8121,254.91778 C 538.73942,249.84752 564.00738,243.07698 569.07765,246.0043 C 574.14791,248.93162 580.91844,274.19958 577.99112,279.26985 z"
       id="path13340"
       inkscape:flatsided="true"
       inkscape:randomized="0"
       inkscape:rounded="0.17"
       sodipodi:arg1="0.52359878"
       sodipodi:arg2="1.3089969"
       sodipodi:cx="556.90161"
       sodipodi:cy="267.09381"
       sodipodi:r1="24.352068"
       sodipodi:r2="12.176032"
       sodipodi:sides="4"
       sodipodi:type="star"
       style="fill:#3b3b5d;fill-opacity:1;fill-rule:evenodd;stroke:#000000;stroke-width:1.55774367;stroke-linecap:butt;stroke-linejoin:miter;stroke-miterlimit:4;stroke-dashoffset:0;stroke-opacity:1"
       transform="matrix(0.781647,0.115846,-0.209441,0.432342,97.0276,605.5698)" />
    <path
       d="M 556.58674,275.7358 C 553.6976,277.40522 553.70433,287.55454 556.61397,289.16391 C 559.53388,290.77896 577.98994,290.77895 580.90986,289.16391 C 581.56472,288.8017 582.04681,287.96299 582.40793,286.93043 C 582.38737,286.94283 582.37431,286.97336 582.35345,286.9849 C 579.43352,288.59996 560.97747,288.59996 558.05756,286.9849 C 555.7796,285.72493 555.31042,279.2947 556.58674,275.7358 z"
       id="path13341"
       style="fill:#ffffff;fill-opacity:0.43773582;fill-rule:evenodd;stroke:none;stroke-width:1.55774367;stroke-linecap:butt;stroke-linejoin:miter;stroke-miterlimit:4;stroke-dashoffset:0;stroke-opacity:1"
       transform="translate(-92.42475,502.3913)" />
    <path
       d="M 570.00593,275.13913 C 564.80861,275.13913 559.60864,275.51941 558.18841,276.30498 C 555.37216,276.8834 558.61893,276.42835 562.71019,275.90256 C 566.33885,275.51369 583.66236,275.5137 582.1679,278.42471 C 582.82266,278.78687 583.29881,279.60493 583.65171,280.65043 C 583.37093,278.66769 582.85837,276.87742 581.82344,276.30498 C 580.4032,275.51941 575.20324,275.13913 570.00593,275.13913 z"
       id="path13342"
       sodipodi:nodetypes="ccccccc"
       style="fill:#ffffff;fill-opacity:0.43396229;fill-rule:evenodd;stroke:none;stroke-width:1.55774367;stroke-linecap:butt;stroke-linejoin:miter;stroke-miterlimit:4;stroke-dashoffset:0;stroke-opacity:1"
       transform="translate(-92.42475,502.3913)" />
    <path
       transform="matrix(0.367918,0,0,0.367918,270.6817,670.8019)"
       style="font-size:36px;font-style:normal;font-variant:normal;font-weight:normal;font-stretch:condensed;line-height:100%;writing-mode:lr-tb;text-anchor:start;fill:#ffffff;fill-opacity:1;stroke:none;stroke-width:1pt;stroke-linecap:butt;stroke-linejoin:miter;stroke-opacity:1;font-family:Impact"
       d="M 552.17566,304.09238 L 557.58972,304.09238 L 559.06628,297.35995 L 562.38855,297.35995 L 560.91199,304.09238 L 567.15222,304.09238 L 568.59363,297.35995 L 571.91589,297.35995 L 570.47449,304.09238 L 573.46277,304.09238 L 573.46277,307.43222 L 569.84167,307.43222 L 568.73425,312.74081 L 573.46277,312.74081 L 573.46277,316.06308 L 568.10144,316.06308 L 566.66003,322.74277 L 563.32019,322.74277 L 564.77917,316.06308 L 558.46863,316.06308 L 557.09753,322.74277 L 553.74011,322.74277 L 555.16394,316.06308 L 552.17566,316.06308 L 552.17566,312.74081 L 555.84949,312.74081 L 556.95691,307.43222 L 552.17566,307.43222 L 552.17566,304.09238 M 560.27917,307.43222 L 559.17175,312.72324 L 565.42957,312.72324 L 566.51941,307.43222 L 560.27917,307.43222"
       id="text13343" />
  </g>
  <rect
     height="13.682558"
     id="rect13346"
     ry="6.841279"
     style="fill:#eeebec;fill-opacity:1;fill-rule:evenodd;stroke:#000000;stroke-width:0.80853045;stroke-linecap:butt;stroke-linejoin:miter;stroke-miterlimit:4;stroke-dashoffset:0;stroke-opacity:1"
     width="35.672386"
     x="206.00336"
     y="479.57129" />
  <path
     d="M 225.99334,241.8375 C 221.67311,241.8375 218.21399,245.35831 218.21397,249.6786 C 218.21397,253.99885 221.67311,257.45795 225.99334,257.45797 L 252.35674,257.45797 L 252.35674,241.8375 L 225.99334,241.8375 z M 260.75352,241.8375 L 260.75352,257.45797 L 293.1058,257.45797 L 293.1058,241.8375 L 260.75352,241.8375 z M 301.50258,241.8375 L 301.50258,257.45797 L 333.85486,257.45797 L 333.85486,241.8375 L 301.50258,241.8375 z M 342.25163,241.8375 L 342.25163,257.45797 L 374.54217,257.45797 L 374.54217,241.8375 L 342.25163,241.8375 z M 382.93895,241.8375 L 382.93895,257.45797 L 415.29123,257.45797 L 415.29123,241.8375 L 382.93895,241.8375 z M 423.688,241.8375 L 423.688,257.45797 L 460.23867,257.45797 C 464.55892,257.45797 468.01806,253.99883 468.01804,249.6786 C 468.01804,245.35833 464.5589,241.8375 460.23867,241.8375 L 423.688,241.8375 z"
     id="path13347"
     style="fill:#eeebec;fill-opacity:1;fill-rule:evenodd;stroke:#000000;stroke-width:0.92163414;stroke-linecap:butt;stroke-linejoin:miter;stroke-miterlimit:4;stroke-dashoffset:0;stroke-opacity:1" />
  <path
     d="M 231.3394,9.493493 L 223.21255,148.81091 L 467.01805,151.13286 L 469.34001,9.493493 L 231.3394,9.493493 z"
     id="path13348"
     style="fill:none;fill-opacity:0.75;fill-rule:evenodd;stroke:#000000;stroke-width:0.49392796pt;stroke-linecap:butt;stroke-linejoin:miter;stroke-opacity:1" />
  <path
     d="M 527.68766,202.06813 A 2.3505018,2.3505018 0 1 1 522.98666,202.06813 A 2.3505018,2.3505018 0 1 1 527.68766,202.06813 z"
     id="path13349"
     sodipodi:cx="525.33716"
     sodipodi:cy="202.06813"
     sodipodi:rx="2.3505018"
     sodipodi:ry="2.3505018"
     sodipodi:type="arc"
     style="fill:#000000;fill-opacity:1;fill-rule:evenodd;stroke:#000000;stroke-width:0.6875;stroke-linecap:butt;stroke-linejoin:miter;stroke-miterlimit:4;stroke-dashoffset:0;stroke-opacity:1"
     transform="matrix(1.975712,0,0,1.975712,-548.83831,-331.686)" />
  <path
     style="font-size:12px;font-style:normal;font-weight:normal;fill:#000000;fill-opacity:1;stroke:none;stroke-width:1pt;stroke-linecap:butt;stroke-linejoin:miter;stroke-opacity:1;font-family:Bitstream Vera Sans"
     d="M 474.79152,74.886473 L 474.79152,77.116383 L 475.80114,77.116383 C 476.17477,77.116383 476.46361,77.019659 476.66766,76.826212 C 476.8717,76.632772 476.97372,76.357181 476.97372,75.999437 C 476.97372,75.644352 476.8717,75.370083 476.66766,75.176636 C 476.46361,74.983196 476.17477,74.886473 475.80114,74.886473 L 474.79152,74.886473 M 473.98859,74.22664 L 475.80114,74.22664 C 476.46626,74.226647 476.96842,74.377688 477.30761,74.679777 C 477.64945,74.979221 477.82037,75.41911 477.82037,75.999437 C 477.82037,76.585075 477.64945,77.02761 477.30761,77.327047 C 476.96842,77.626491 476.46626,77.776216 475.80114,77.776209 L 474.79152,77.776209 L 474.79152,80.161142 L 473.98859,80.161142 L 473.98859,74.22664 M 481.31032,74.771196 C 480.72733,74.771203 480.2636,74.988495 479.91911,75.423078 C 479.57727,75.857669 479.40635,76.449929 479.40635,77.199851 C 479.40635,77.947134 479.57727,78.538064 479.91911,78.972647 C 480.2636,79.407238 480.72733,79.62453 481.31032,79.62453 C 481.8933,79.62453 482.35439,79.407238 482.69358,78.972647 C 483.03541,78.538064 483.20634,77.947134 483.20634,77.199851 C 483.20634,76.449929 483.03541,75.857669 482.69358,75.423078 C 482.35439,74.988495 481.8933,74.771203 481.31032,74.771196 M 481.31032,74.11932 C 482.14239,74.119327 482.80753,74.398887 483.30571,74.958015 C 483.80389,75.514504 484.05298,76.261787 484.05299,77.199851 C 484.05298,78.135276 483.80389,78.882552 483.30571,79.441686 C 482.80753,79.998168 482.14239,80.276412 481.31032,80.276412 C 480.47559,80.276412 479.80782,79.998168 479.30698,79.441686 C 478.80879,78.885204 478.5597,78.137928 478.5597,77.199851 C 478.5597,76.261787 478.80879,75.514504 479.30698,74.958015 C 479.80782,74.398887 480.47559,74.119327 481.31032,74.11932 M 484.7804,74.22664 L 485.59127,74.22664 L 486.83938,79.242941 L 488.08352,74.22664 L 488.98582,74.22664 L 490.23393,79.242941 L 491.47807,74.22664 L 492.29292,74.22664 L 490.80234,80.161142 L 489.79272,80.161142 L 488.54063,75.009694 L 487.27662,80.161142 L 486.267,80.161142 L 484.7804,74.22664 M 493.35422,74.22664 L 497.10651,74.22664 L 497.10651,74.902367 L 494.15714,74.902367 L 494.15714,76.65927 L 496.98329,76.65927 L 496.98329,77.334997 L 494.15714,77.334997 L 494.15714,79.485408 L 497.17806,79.485408 L 497.17806,80.161142 L 493.35422,80.161142 L 493.35422,74.22664 M 501.30398,77.378719 C 501.47622,77.437026 501.64317,77.56157 501.80482,77.752364 C 501.96911,77.943158 502.1334,78.205501 502.2977,78.539387 L 503.11255,80.161142 L 502.25,80.161142 L 501.4908,78.638762 C 501.2947,78.241272 501.10391,77.977606 500.91842,77.847758 C 500.73557,77.717916 500.48515,77.652988 500.16717,77.652988 L 499.29269,77.652988 L 499.29269,80.161142 L 498.48976,80.161142 L 498.48976,74.22664 L 500.30231,74.22664 C 500.98069,74.226647 501.48682,74.368415 501.82072,74.65195 C 502.1546,74.9355 502.32155,75.363462 502.32155,75.935839 C 502.32155,76.309484 502.2341,76.619524 502.05921,76.865959 C 501.88696,77.112407 501.63522,77.283325 501.30398,77.378719 M 499.29269,74.886473 L 499.29269,76.993155 L 500.30231,76.993155 C 500.68919,76.993162 500.98069,76.904389 501.17679,76.726843 C 501.37553,76.546652 501.4749,76.282986 501.4749,75.935839 C 501.4749,75.588705 501.37553,75.327685 501.17679,75.152785 C 500.98069,74.975246 500.68919,74.886473 500.30231,74.886473 L 499.29269,74.886473"
     id="text13350" />
  <path
     style="font-size:12px;font-style:normal;font-weight:normal;fill:#000000;fill-opacity:1;stroke:none;stroke-width:1pt;stroke-linecap:butt;stroke-linejoin:miter;stroke-opacity:1;font-family:Bitstream Vera Sans"
     d="M 481.46421,258.56212 L 481.46421,259.34517 C 481.15946,259.19943 480.87195,259.09078 480.60166,259.01923 C 480.33136,258.94769 480.07034,258.91191 479.8186,258.9119 C 479.38137,258.91191 479.0435,258.99671 478.80501,259.1663 C 478.56916,259.3359 478.45124,259.57704 478.45125,259.88973 C 478.45124,260.15208 478.52942,260.35082 478.68576,260.48596 C 478.84476,260.61846 479.1442,260.72578 479.58409,260.80793 L 480.06902,260.9073 C 480.6679,261.02125 481.10911,261.22264 481.39266,261.51148 C 481.67884,261.79767 481.82194,262.18191 481.82195,262.66419 C 481.82194,263.23923 481.6285,263.67514 481.24162,263.97193 C 480.85737,264.26873 480.29294,264.41712 479.54831,264.41712 C 479.26742,264.41712 478.96798,264.38532 478.64999,264.32172 C 478.33465,264.25812 478.00738,264.16405 477.66819,264.03951 L 477.66819,263.21273 C 477.99414,263.39558 478.31345,263.53338 478.62614,263.62612 C 478.93883,263.71886 479.24622,263.76524 479.54831,263.76524 C 480.00675,263.76524 480.36051,263.67514 480.60961,263.49495 C 480.8587,263.31475 480.98324,263.05771 480.98325,262.72382 C 480.98324,262.43233 480.89314,262.20444 480.71295,262.04014 C 480.53541,261.87585 480.24259,261.75263 479.83451,261.67048 L 479.3456,261.57508 C 478.74671,261.45584 478.31345,261.26902 478.04581,261.01462 C 477.77817,260.76023 477.64434,260.40646 477.64434,259.95333 C 477.64434,259.42865 477.82852,259.01526 478.19686,258.71317 C 478.56784,258.41108 479.07795,258.26004 479.72719,258.26003 C 480.00542,258.26004 480.28897,258.2852 480.57781,258.33555 C 480.86665,258.3859 481.16211,258.46143 481.46421,258.56212 M 483.08994,258.36735 L 483.89286,258.36735 L 483.89286,264.30185 L 483.08994,264.30185 L 483.08994,258.36735 M 489.53719,263.4552 L 489.53719,261.86127 L 488.22548,261.86127 L 488.22548,261.20144 L 490.33217,261.20144 L 490.33217,263.74934 C 490.02212,263.96928 489.68028,264.13623 489.30665,264.25017 C 488.93301,264.36147 488.53419,264.41712 488.11021,264.41712 C 487.18274,264.41712 486.45666,264.14683 485.93198,263.60625 C 485.40994,263.06301 485.14892,262.30779 485.14892,261.34056 C 485.14892,260.37069 485.40994,259.61547 485.93198,259.07488 C 486.45666,258.53165 487.18274,258.26004 488.11021,258.26003 C 488.4971,258.26004 488.86411,258.30773 489.21126,258.40312 C 489.56104,258.49853 489.883,258.63897 490.17715,258.82446 L 490.17715,259.67906 C 489.88036,259.42732 489.56501,259.23785 489.23113,259.11065 C 488.89724,258.98346 488.54612,258.91986 488.17779,258.91986 C 487.4517,258.91986 486.90582,259.12258 486.54014,259.52802 C 486.17709,259.93346 485.99557,260.53764 485.99557,261.34056 C 485.99557,262.14084 486.17709,262.74369 486.54014,263.14913 C 486.90582,263.55457 487.4517,263.75729 488.17779,263.75729 C 488.46132,263.75729 488.71439,263.73344 488.93699,263.68574 C 489.15958,263.6354 489.35965,263.55854 489.53719,263.4552 M 491.80288,258.36735 L 492.88405,258.36735 L 495.51542,263.33198 L 495.51542,258.36735 L 496.29449,258.36735 L 496.29449,264.30185 L 495.21333,264.30185 L 492.58196,259.33722 L 492.58196,264.30185 L 491.80288,264.30185 L 491.80288,258.36735 M 499.87587,259.15835 L 498.78675,262.11169 L 500.96896,262.11169 L 499.87587,259.15835 M 499.42273,258.36735 L 500.33298,258.36735 L 502.59468,264.30185 L 501.75996,264.30185 L 501.21938,262.77947 L 498.54428,262.77947 L 498.00369,264.30185 L 497.15705,264.30185 L 499.42273,258.36735 M 503.45724,258.36735 L 504.26016,258.36735 L 504.26016,263.62612 L 507.1499,263.62612 L 507.1499,264.30185 L 503.45724,264.30185 L 503.45724,258.36735"
     id="text13353" />
  <path
     d="M 527.68766,202.06813 A 2.3505018,2.3505018 0 1 1 522.98666,202.06813 A 2.3505018,2.3505018 0 1 1 527.68766,202.06813 z"
     id="path13356"
     sodipodi:cx="525.33716"
     sodipodi:cy="202.06813"
     sodipodi:rx="2.3505018"
     sodipodi:ry="2.3505018"
     sodipodi:type="arc"
     style="fill:#ff0000;fill-opacity:1;fill-rule:evenodd;stroke:#000000;stroke-width:0.6875;stroke-linecap:butt;stroke-linejoin:miter;stroke-miterlimit:4;stroke-dashoffset:0;stroke-opacity:1"
     transform="matrix(1.975712,0,0,1.975712,-554.06211,-147.54519)" />
  <path
     d="M 23.093227,485.46096 L 22.741137,503.76941 L 27.318247,511.51528 L 36.824557,519.26116 C 36.824557,519.26116 43.866277,520.31741 45.274617,520.31741 C 46.682967,520.31741 52.316337,520.31741 53.724657,520.31741 C 55.133007,520.31741 44.570437,518.557 44.570437,518.557 L 35.064147,515.03614 L 30.487007,508.69861 L 28.374497,502.71315 L 28.374497,496.02351 L 23.093227,485.46096 z"
     id="path13357"
     style="fill:#c2bec0;fill-opacity:1;fill-rule:evenodd;stroke:none;stroke-width:0.25pt;stroke-linecap:butt;stroke-linejoin:miter;stroke-opacity:1" />
  <path
     d="M 124.49387,521.37369 L 156.53367,521.37369 L 168.50457,513.62779 L 172.72961,504.47357 L 176.25047,447.08363 L 179.77133,389.34157 L 178.01089,377.72275"
     id="path13358"
     style="fill:none;fill-opacity:0.75;fill-rule:evenodd;stroke:#000000;stroke-width:0.49392796pt;stroke-linecap:butt;stroke-linejoin:miter;stroke-opacity:1" />
  <path
     d="M 173.0817,373.14563 L 176.95463,378.77902 L 179.06714,390.74992 L 177.94725,398.43941 L 176.12317,386.94063 L 174.49003,378.77902 L 173.0817,373.14563 z"
     id="path13359"
     sodipodi:nodetypes="ccccccc"
     style="fill:#b4b1b1;fill-opacity:1;fill-rule:evenodd;stroke:none;stroke-width:0.25pt;stroke-linecap:butt;stroke-linejoin:miter;stroke-opacity:1" />
  <path
     d="M 155.11725,190.53103 L 173.69767,190.90264 L 178.52858,191.64586 L 182.24468,194.99033 L 182.61627,204.28054 L 175.55571,307.5877 L 173.32606,314.27665 L 167.38033,316.87791 L 152.14437,316.87791"
     id="path13360"
     style="fill:none;fill-opacity:0.75;fill-rule:evenodd;stroke:#000000;stroke-width:0.49392796pt;stroke-linecap:butt;stroke-linejoin:miter;stroke-opacity:1" />
  <rect
     height="13.682558"
     id="rect13361"
     ry="6.841279"
     style="fill:#eeebec;fill-opacity:1;fill-rule:evenodd;stroke:#000000;stroke-width:0.80853045;stroke-linecap:butt;stroke-linejoin:miter;stroke-miterlimit:4;stroke-dashoffset:0;stroke-opacity:1"
     width="35.672386"
     x="206.00336"
     y="508.91486" />
  <rect
     height="13.682558"
     id="rect13362"
     ry="6.841279"
     style="fill:#eeebec;fill-opacity:1;fill-rule:evenodd;stroke:#000000;stroke-width:0.80853045;stroke-linecap:butt;stroke-linejoin:miter;stroke-miterlimit:4;stroke-dashoffset:0;stroke-opacity:1"
     width="35.672386"
     x="250.65671"
     y="482.12292" />
  <rect
     height="13.682558"
     id="rect13363"
     ry="6.841279"
     style="fill:#eeebec;fill-opacity:1;fill-rule:evenodd;stroke:#000000;stroke-width:0.80853045;stroke-linecap:butt;stroke-linejoin:miter;stroke-miterlimit:4;stroke-dashoffset:0;stroke-opacity:1"
     width="35.672386"
     x="250.65671"
     y="511.46655" />
  <rect
     height="13.682558"
     id="rect13364"
     ry="6.841279"
     style="fill:#eeebec;fill-opacity:1;fill-rule:evenodd;stroke:#000000;stroke-width:0.80853045;stroke-linecap:butt;stroke-linejoin:miter;stroke-miterlimit:4;stroke-dashoffset:0;stroke-opacity:1"
     width="35.672386"
     x="383.34088"
     y="483.39874" />
  <rect
     height="13.682558"
     id="rect13365"
     ry="6.841279"
     style="fill:#eeebec;fill-opacity:1;fill-rule:evenodd;stroke:#000000;stroke-width:0.80853045;stroke-linecap:butt;stroke-linejoin:miter;stroke-miterlimit:4;stroke-dashoffset:0;stroke-opacity:1"
     width="35.672386"
     x="383.34088"
     y="512.74237" />
  <rect
     height="13.682558"
     id="rect13366"
     ry="6.841279"
     style="fill:#eeebec;fill-opacity:1;fill-rule:evenodd;stroke:#000000;stroke-width:0.80853045;stroke-linecap:butt;stroke-linejoin:miter;stroke-miterlimit:4;stroke-dashoffset:0;stroke-opacity:1"
     width="35.672386"
     x="426.71838"
     y="483.39874" />
  <rect
     height="13.682558"
     id="rect13367"
     ry="6.841279"
     style="fill:#eeebec;fill-opacity:1;fill-rule:evenodd;stroke:#000000;stroke-width:0.80853045;stroke-linecap:butt;stroke-linejoin:miter;stroke-miterlimit:4;stroke-dashoffset:0;stroke-opacity:1"
     width="35.672386"
     x="426.71838"
     y="512.74237" />
  <path
     d="M 237.11152,174.85022 L 235.78888,213.86851 L 450.72013,216.51381 L 451.0508,176.50353 L 237.11152,174.85022 z"
     id="path13368"
     sodipodi:nodetypes="ccccc"
     style="fill:#d6dce3;fill-opacity:1;fill-rule:evenodd;stroke:#000000;stroke-width:0.49392796pt;stroke-linecap:butt;stroke-linejoin:miter;stroke-opacity:1" />
  <path
     d="M 237.06019,168.18867 L 451.35579,169.6519 L 451.35579,175.23222 L 236.72952,173.76901 L 237.06019,168.18867 z"
     id="path13369"
     sodipodi:nodetypes="ccccc"
     style="fill:url(#linearGradient30918);fill-opacity:1;fill-rule:evenodd;stroke:none;stroke-width:0.25pt;stroke-linecap:butt;stroke-linejoin:miter;stroke-opacity:1" />
  <path
     d="M 9.6636966,546.05819 L 18.900587,553.97552 L 27.477707,558.59397 L 49.250347,559.91352 L 64.425237,559.91352 L 450.395,566.5113 L 463.59055,566.5113 L 473.48722,563.87218 L 478.76544,559.91352 L 482.72411,555.95485 L 479.4252,561.23306 L 467.54922,567.17106 L 449.73523,568.49062 L 34.075477,561.89285 L 27.477707,559.91352 L 17.581027,555.29508 L 12.962607,551.33641 L 9.6636966,546.05819 z"
     id="path13370"
     style="fill:#ffffff;fill-opacity:1;fill-rule:evenodd;stroke:none;stroke-width:0.25pt;stroke-linecap:butt;stroke-linejoin:miter;stroke-opacity:1" />
  <path
     d="M 474.7316,570.46995 L 462.19583,575.08839 L 400.17676,575.08839 L 307.14815,573.10907 L 35.319857,568.49062 L 22.784087,561.23306 L 35.979627,565.19174 L 64.350057,567.17106 L 465.49472,572.44928 L 474.7316,570.46995 z"
     id="path13371"
     style="fill:#a3a4a6;fill-opacity:1;fill-rule:evenodd;stroke:none;stroke-width:0.25pt;stroke-linecap:butt;stroke-linejoin:miter;stroke-opacity:1" />
  <path
     d="M 176.47463,551.4116 L 184.39196,547.45295 L 187.03108,543.49427 L 189.67017,536.8965 L 218.70039,3.79637 L 213.42216,7.755044 L 155.36176,5.115928 L 70.910257,7.755044 L 53.756037,16.991932 L 41.880057,42.063462 L 2.2934066,513.14451 L 4.9325066,535.57694 L 20.767157,547.52814 L 45.122527,550.84582 L 91.344547,551.4868 L 176.47463,551.4116 z"
     id="path13372"
     sodipodi:nodetypes="cccccccccccccccc"
     style="fill:none;fill-opacity:0.75;fill-rule:evenodd;stroke:#000000;stroke-width:0.49392796pt;stroke-linecap:butt;stroke-linejoin:miter;stroke-opacity:1" />
  <path
     d="M 101.65194,38.899952 L 104.14141,45.261952 L 101.65194,46.091772 L 101.65194,47.474812 L 102.75837,48.581252 L 104.69463,50.794132 L 107.46071,51.900562 L 110.78002,53.836822 L 112.99288,54.390042 L 114.37592,54.390042 L 115.20575,53.836822 L 115.20575,51.900562 L 116.31219,51.347342 L 119.35489,51.347342 L 125.99348,52.730382 L 126.5467,53.836822 L 126.5467,54.943262 L 125.16366,56.049682 L 123.2274,57.156122 L 121.29114,57.985952 L 118.24845,58.262552 L 115.75897,58.815772 L 113.2695,58.539152 L 110.78002,57.432732 L 108.29055,56.602902 L 105.24785,55.496462 L 101.65194,53.560202 L 98.885837,51.623942 L 97.226177,49.411092 L 94.736707,46.921592 L 93.906887,44.432122 L 94.183507,42.772482 L 95.566547,40.836222 L 97.502797,39.176562 L 99.715677,38.899952 L 101.65194,38.899952 z"
     id="path13373"
     style="fill:#131116;fill-opacity:1;fill-rule:evenodd;stroke:#000000;stroke-width:0.49392796pt;stroke-linecap:butt;stroke-linejoin:miter;stroke-opacity:1" />
  <path
     d="M 105.24785,39.729782 L 106.90749,41.112822 L 107.18411,42.495862 L 107.18411,44.432122 L 109.39696,44.155522 L 109.39696,41.942642 L 108.56715,39.453162 L 106.63089,38.070132 L 105.24785,39.729782 z"
     id="path13374"
     style="fill:#131116;fill-opacity:1;fill-rule:evenodd;stroke:#000000;stroke-width:0.49392796pt;stroke-linecap:butt;stroke-linejoin:miter;stroke-opacity:1" />
  <path
     d="M 112.16306,36.133872 L 110.2268,36.963692 L 111.33322,38.623352 L 112.71628,40.006382 L 112.99288,41.389422 L 112.71628,43.325702 L 112.71628,43.878922 L 114.65254,43.878922 L 115.20575,42.772482 L 115.20575,40.559602 L 115.20575,39.176562 L 113.82272,38.070132 L 112.16306,36.133872 z"
     id="path13375"
     style="fill:#131116;fill-opacity:1;fill-rule:evenodd;stroke:#000000;stroke-width:0.49392796pt;stroke-linecap:butt;stroke-linejoin:miter;stroke-opacity:1" />
  <path
     d="M 116.03557,34.750832 L 118.52505,35.857252 L 119.63149,37.240312 L 120.18471,38.899952 L 120.18471,40.559602 L 120.18471,41.666042 L 119.07827,43.878922 L 122.12096,43.602302 L 122.12096,41.112822 L 122.12096,38.899952 L 122.12096,37.516912 L 119.90809,35.027432 L 118.80167,34.197612 L 117.41861,33.367772 L 116.03557,34.750832 z"
     id="path13376"
     style="fill:#131116;fill-opacity:1;fill-rule:evenodd;stroke:#000000;stroke-width:0.49392796pt;stroke-linecap:butt;stroke-linejoin:miter;stroke-opacity:1" />
  <path
     d="M 123.78062,30.048482 L 122.39758,31.154922 L 125.16366,33.644392 L 126.82332,35.304052 L 127.65313,36.963692 L 127.37653,38.899952 L 127.37653,41.112822 L 125.99348,43.602302 L 129.03617,43.878922 L 129.58939,40.283002 L 129.58939,37.240312 L 129.58939,35.580652 L 128.75957,34.197612 L 127.92975,32.814562 L 126.82332,31.708142 L 123.78062,30.048482 z"
     id="path13377"
     style="fill:#131116;fill-opacity:1;fill-rule:evenodd;stroke:#000000;stroke-width:0.49392796pt;stroke-linecap:butt;stroke-linejoin:miter;stroke-opacity:1" />
  <path
     d="M 128.48295,28.942044 L 131.52565,31.154922 L 133.73852,32.814562 L 134.56834,34.474212 L 135.39818,36.410472 L 135.67478,38.346732 L 135.67478,39.729782 L 135.67478,40.559602 L 135.12156,41.666042 L 133.1853,43.325702 L 135.67478,44.432122 L 137.33444,42.219262 L 137.88766,39.176562 L 137.88766,36.410472 L 137.33444,33.367772 L 135.67478,30.878302 L 134.01514,28.665445 L 132.35549,27.559007 L 130.41923,27.005788 L 128.48295,28.942044 z"
     id="path13378"
     style="fill:#131116;fill-opacity:1;fill-rule:evenodd;stroke:#000000;stroke-width:0.49392796pt;stroke-linecap:butt;stroke-linejoin:miter;stroke-opacity:1" />
  <path
     d="M 494.40855,525.9004 L 490.72373,534.4983 L 485.1965,540.02554 L 474.14205,550.46585 L 461.85935,553.53652 L 445.27767,554.15065 L 370.96726,552.30824 L 273.93381,549.8517 L 191.63962,548.00929 L 186.11239,552.30824 L 176.28623,553.53652 L 162.77524,554.15065 L 55.915627,552.30824 L 25.822967,551.07998 L 12.926117,542.48208 L 2.4857966,528.35696 L 9.8554466,546.78103 L 19.067477,552.30824 L 31.964327,557.83547 L 51.002527,557.83547 L 444.04941,563.36268 L 465.54417,562.74855 L 480.89756,554.15065 L 490.1096,543.09621 L 493.7944,531.42763 L 494.40855,525.9004 z"
     id="path14627"
     style="fill:#dfdfdf;fill-opacity:1;fill-rule:evenodd;stroke:none;stroke-width:0.25pt;stroke-linecap:butt;stroke-linejoin:miter;stroke-opacity:1" />
  <path
     d="M 192.83787,531.67452 L 314.17181,538.41529 L 354.61647,539.76344 L 404.49819,539.76344 L 435.50576,541.1116 L 466.51334,539.76344 L 479.99488,535.71898 L 494.82457,516.8448 L 489.43197,534.37081 L 477.29857,545.15606 L 462.46886,551.89684 L 440.89839,554.59315 L 264.29008,547.85238 L 229.23805,549.20052 L 195.53419,547.85238 L 186.0971,547.85238 L 192.83787,531.67452 z"
     id="path18975"
     style="fill:#ffffff;fill-opacity:1;fill-rule:evenodd;stroke:none;stroke-width:0.25pt;stroke-linecap:butt;stroke-linejoin:miter;stroke-opacity:1" />
</svg>
