<?xml version="1.0" encoding="utf-8"?>
<!-- Generator: Adobe Illustrator 12.0.1, SVG Export Plug-In . SVG Version: 6.00 Build 51448)  -->
<!DOCTYPE svg PUBLIC "-//W3C//DTD SVG 1.1//EN" "http://www.w3.org/Graphics/SVG/1.1/DTD/svg11.dtd" [
	<!ENTITY ns_svg "http://www.w3.org/2000/svg">
	<!ENTITY ns_xlink "http://www.w3.org/1999/xlink">
]>
<svg  version="1.1" id="Layer_1" xmlns="&ns_svg;" xmlns:xlink="&ns_xlink;" width="216.83" height="503.769"
	 viewBox="0 0 216.83 503.769" overflow="visible" enable-background="new 0 0 216.83 503.769" xml:space="preserve">
<g>
	<path fill-rule="evenodd" clip-rule="evenodd" fill="#A99A6F" d="M68.119,30.691c1.366,17.295,0.572,36.123,0.452,52.461
		C67.351,66.236,68.441,49.574,68.119,30.691z"/>
	<path fill-rule="evenodd" clip-rule="evenodd" fill="#EE3224" d="M109.725,46.067c-1.773,2.221-5.758-0.202-8.14,0.905
		C103.478,44.957,106.574,46.128,109.725,46.067z"/>
	<path fill-rule="evenodd" clip-rule="evenodd" fill="#EE3224" d="M102.037,50.138c1.99,5.048,1.117,10.392,0.453,16.281
		C100.061,62.28,102.736,55.549,102.037,50.138z"/>
	<path fill-rule="evenodd" clip-rule="evenodd" fill="#EE3224" d="M104.751,51.495c1.802,3.347,0.951,10.134,0.452,14.924
		C103.885,62.861,105.13,57.149,104.751,51.495z"/>
	<path fill-rule="evenodd" clip-rule="evenodd" fill="#EE3224" d="M107.464,52.399c1.745,3.107,1.639,9.231,0.904,14.02
		C106.104,63.423,108.325,55.564,107.464,52.399z"/>
	<path fill-rule="evenodd" clip-rule="evenodd" fill="#EE3224" d="M110.63,54.208c0.891,3.631,1.502,8.514,0.452,12.663
		C109.67,62.143,110.588,59.312,110.63,54.208z"/>
	<path fill-rule="evenodd" clip-rule="evenodd" fill="#EE3224" d="M97.515,56.469c1.44,0.013,0.688,1.76,0.453,3.166
		C96.956,59.44,97.784,57.406,97.515,56.469z"/>
	<path fill-rule="evenodd" clip-rule="evenodd" fill="#EE3224" d="M99.324,59.183c1.318,0.518,0.691,1.746,0.452,3.618
		C99.262,66.832,99.493,65.847,99.324,59.183z"/>
	<path fill-rule="evenodd" clip-rule="evenodd" fill="#EE3224" d="M97.515,60.54c0.109,0.286,0.654,4.854-0.904,4.975
		C97.084,64.028,96.827,61.811,97.515,60.54z"/>
	<path fill-rule="evenodd" clip-rule="evenodd" fill="#A99A6F" d="M119.223,70.489c-9.02,0.21-14.859-0.736-24.422-0.452
		c-0.032-1.54,1.331-1.685,2.261-2.261C104.377,68.752,115.314,66.106,119.223,70.489z"/>
	<path fill-rule="evenodd" clip-rule="evenodd" fill="#A99A6F" d="M127.816,74.107c-13.009,1.348-25.484-0.248-39.798,0
		c3.052-3.833,12.218-2.838,20.351-2.714C116.518,71.518,121.875,70.917,127.816,74.107z"/>
	<path fill-rule="evenodd" clip-rule="evenodd" fill="#A99A6F" d="M130.529,77.725c-1.427,4.472-8.388,1.862-11.759,1.809
		c-10.364-0.164-23.08,0.53-34.371-0.452c0.141-1.367-0.502-3.517,0.905-3.618c10.152,0.477,25.971,0.643,35.728,0.905
		C124.32,76.457,128.371,75.176,130.529,77.725z"/>
	<path fill-rule="evenodd" clip-rule="evenodd" fill="#A99A6F" d="M186.156,79.082c0.402,0.2,0.809,0.397,0.904,0.904
		c-0.828,8.252,1.092,14.334-0.904,22.16C186.156,94.458,186.156,86.77,186.156,79.082z"/>
	<path fill-rule="evenodd" clip-rule="evenodd" fill="#A99A6F" d="M99.324,92.649c1.219-1.042,4.362-0.161,6.332-0.452
		C104.436,93.239,101.293,92.357,99.324,92.649z"/>
	<path fill-rule="evenodd" clip-rule="evenodd" d="M157.211,92.197c0.526-0.074,0.805,0.1,0.904,0.452
		c-0.183,11.042,0.315,23.838,0,31.205C157.029,113.23,158.125,100.715,157.211,92.197z"/>
	<path fill-rule="evenodd" clip-rule="evenodd" d="M154.499,93.101c-3.923,1.053-9.797,0.153-14.473,0.453
		C145.318,91.691,149.675,93.246,154.499,93.101z"/>
	<path fill-rule="evenodd" clip-rule="evenodd" fill="#A99A6F" d="M102.49,94.91c3.316,0.302,6.603,0.633,10.401,0.452
		c-1.96,9.292-0.241,25.708-0.904,36.18c0.677,0.679,0.809,1.904,1.809,2.261c0.942-1.119-1.937-2.264-0.904-4.975
		c1.578,0.382,1.111,2.809,2.714,3.166c4.522,0,9.045,0,13.567,0c-2.771,2.355-10.496-0.245-14.02,1.357
		c3.108,1.414,9.755-0.71,12.21,1.356c-0.015,3.483-0.136,7.071,0.453,9.95c-12.513,0-25.025,0-37.537,0
		c0.071-3.84,0.043-7.581-0.452-10.854c3.166,0,6.332,0,9.497,0c-4.418-1.189-7.979-0.121-11.306-0.905
		c2.811-2.013,9.276-0.372,13.567-0.904C103.334,117.818,102.674,107.188,102.49,94.91z"/>
	<path fill-rule="evenodd" clip-rule="evenodd" d="M88.922,102.599c-1.999,1.022-5.354-0.311-8.592,0
		c-2.848,0.273-5.487,2.182-7.688,0.904c0.191-0.945-0.31-1.197-0.452-1.809C74.594,96.628,88.021,94.957,88.922,102.599z
		 M73.998,101.694c2.178-0.837,5.042-0.988,6.332-2.713C77.377,99.043,74.779,99.46,73.998,101.694z"/>
	<path fill-rule="evenodd" clip-rule="evenodd" d="M146.81,102.599c-0.842,3.956-5.815,0.297-9.497,0.452
		c-3.252,0.137-6.736,2.87-9.045,0.452C129.614,96.252,144.063,97.715,146.81,102.599z M130.077,103.051
		c2.988-1.662,6.851-2.307,10.401-2.261C138.346,97.695,129.29,100.341,130.077,103.051z"/>
	<path fill-rule="evenodd" clip-rule="evenodd" fill="#A99A6F" d="M80.33,98.98c-1.29,1.726-4.154,1.876-6.332,2.713
		C74.779,99.46,77.377,99.043,80.33,98.98z"/>
	<path fill-rule="evenodd" clip-rule="evenodd" fill="#A99A6F" d="M140.478,100.79c-3.551-0.046-7.413,0.6-10.401,2.261
		C129.29,100.341,138.346,97.695,140.478,100.79z"/>
	<path fill-rule="evenodd" clip-rule="evenodd" fill="#A99A6F" d="M56.812,100.337c0.108,4.736,0.49,10.049,0,14.02
		c-4.547-0.732-8.3-0.111-12.663-0.452c-0.404-3.867-0.136-8.602-0.904-13.115C46.9,99.772,52.413,100.611,56.812,100.337z"/>
	<path fill-rule="evenodd" clip-rule="evenodd" fill="#A99A6F" d="M41.888,103.503c1.628,0.694,0.295,2.673,0.905,4.975
		C41.937,107.374,41.822,105.529,41.888,103.503z"/>
	<path fill-rule="evenodd" clip-rule="evenodd" d="M135.956,105.764c3.581-0.787,8.928,1.319,8.141,7.688
		c-0.359,2.91-3.396,5.514-4.975,5.879C130.775,121.264,125.409,108.083,135.956,105.764z M141.835,116.166
		c3.051-4.049,1.232-10.701-7.236-9.498C125.831,110.872,135.893,124.052,141.835,116.166z"/>
	<path fill-rule="evenodd" clip-rule="evenodd" fill="#A99A6F" d="M193.843,105.764c-0.656,1.604-0.201,4.321-1.356,5.427
		c-4.371,0-8.743,0-13.115,0c3.489-1.989,7.903-0.256,12.663-0.905c-3.621-1.052-9.193-0.153-13.567-0.452
		c-0.952-1.006,0.477-2.181,0-4.07C184.813,105.991,188.948,105.109,193.843,105.764z"/>
	<path fill-rule="evenodd" clip-rule="evenodd" fill="#A99A6F" d="M23.346,107.121c5.729,0,11.457,0,17.186,0
		c0,1.055,0,2.11,0,3.166c-4.713,0.748-12.473,0.748-17.186,0C23.346,109.231,23.346,108.176,23.346,107.121z"/>
	<path fill-rule="evenodd" clip-rule="evenodd" fill="#A99A6F" d="M194.296,107.573c1.722,0.371,1.722,3.247,0,3.618
		C194.296,109.985,194.296,108.779,194.296,107.573z"/>
	<path fill-rule="evenodd" clip-rule="evenodd" d="M135.051,116.166c4.315-0.436,5.603-3.649,5.427-6.332
		C145.396,112.105,138.487,121.081,135.051,116.166z"/>
	<path fill-rule="evenodd" clip-rule="evenodd" fill="#A99A6F" d="M36.914,111.191c-1.284,2.032-6.274,0.358-9.045,0.904
		C29.816,110.61,34.509,112.219,36.914,111.191z"/>
	<path fill-rule="evenodd" clip-rule="evenodd" fill="#A99A6F" d="M173.493,112.096c-1.189,2.642-8.67,1.194-11.307,0.904
		C164.215,111.198,171.387,112.336,173.493,112.096z"/>
	<path fill-rule="evenodd" clip-rule="evenodd" fill="#A99A6F" d="M162.638,114.357c3.468,0,6.935,0,10.402,0
		C170.126,115.834,164.75,116.134,162.638,114.357z"/>
	<path fill-rule="evenodd" clip-rule="evenodd" fill="#A99A6F" d="M56.812,114.809c-1.144,2.568-11.792,1.52-12.211,0.452
		C47.813,114.251,52.859,115.077,56.812,114.809z"/>
	<path fill-rule="evenodd" clip-rule="evenodd" fill="#A99A6F" d="M126.006,146.014c-10.931,1.172-18.017-0.359-29.396,0
		C103.56,145.263,117.549,145.263,126.006,146.014z"/>
	<path fill-rule="evenodd" clip-rule="evenodd" fill="#A99A6F" d="M195.653,157.773c-42.972,2.5-92,0.887-139.745,1.356
		c36.356-1.264,68.97-1.356,99.947-1.356C168.638,157.773,185.385,157.718,195.653,157.773z"/>
	<path fill-rule="evenodd" clip-rule="evenodd" d="M121.032,160.938c1.274,0.982,1.203,6.38,0.452,9.045
		C120.602,167.904,121.085,162.374,121.032,160.938z"/>
	<path fill-rule="evenodd" clip-rule="evenodd" d="M118.318,161.391c1.154,1.959,0.62,5.219,0.452,7.236
		C117.725,167.109,118.612,163.66,118.318,161.391z"/>
	<path fill-rule="evenodd" clip-rule="evenodd" d="M126.458,161.391c2.372,5.768-0.256,16.537,1.357,23.065
		C125.574,176.284,127.292,170.18,126.458,161.391z"/>
	<path fill-rule="evenodd" clip-rule="evenodd" d="M131.885,161.391c1.051,12.518,0.367,29.884,0.905,37.537
		C130.909,187.97,132.158,170.635,131.885,161.391z"/>
	<path fill-rule="evenodd" clip-rule="evenodd" d="M34.652,162.295c1.755,0.113,0.874,4.563,0.452,5.427
		C34.067,166.8,34.941,163.966,34.652,162.295z"/>
	<path fill-rule="evenodd" clip-rule="evenodd" d="M134.147,165.461c0.525-0.073,0.805,0.1,0.904,0.452
		c-0.192,21.062,0.369,40.073,0,55.174c-1.434-17.094-0.438-30.377-0.904-54.27C134.147,166.366,134.147,165.913,134.147,165.461z"
		/>
	<path fill-rule="evenodd" clip-rule="evenodd" d="M37.818,165.913c1.02,0.337,0.177,2.537,0.452,3.618
		C36.745,168.717,37.886,167.312,37.818,165.913z"/>
	<path fill-rule="evenodd" clip-rule="evenodd" d="M55.908,165.913c0.849,7.845,1.12,22.451-0.452,32.562
		C56.047,186.407,55.708,177.728,55.908,165.913z"/>
	<path fill-rule="evenodd" clip-rule="evenodd" d="M45.958,166.366c0.519,1.289,1.26,6.675-0.452,7.236
		C45.771,170.313,45.201,168.691,45.958,166.366z"/>
	<path fill-rule="evenodd" clip-rule="evenodd" d="M50.933,166.366c1.724,2.835,0.517,9.218,0.905,14.472
		C49.761,177.789,51.511,170.913,50.933,166.366z"/>
	<path fill-rule="evenodd" clip-rule="evenodd" d="M42.793,169.531c1.134,3.115,0.837,5.492,0.452,8.593
		C42.197,176.157,43.089,172.25,42.793,169.531z"/>
	<path fill-rule="evenodd" clip-rule="evenodd" d="M140.93,173.149c-0.651,3.039,0.384,9.065,0,14.472
		C139.542,184.162,139.435,176.904,140.93,173.149z"/>
	<path fill-rule="evenodd" clip-rule="evenodd" d="M58.169,174.958c1.589,6.361,1.008,17.319,0.452,26.23
		C57.509,195.044,58.512,183.333,58.169,174.958z"/>
	<path fill-rule="evenodd" clip-rule="evenodd" d="M60.883,187.169c0.675,2.823,1.205,11.213-0.452,14.472
		C61.268,197.035,60.652,192.89,60.883,187.169z"/>
	<path fill-rule="evenodd" clip-rule="evenodd" d="M140.026,188.526c1.492,1.304,1.492,8.645,0,9.949
		C140.375,194.035,140.151,192.798,140.026,188.526z"/>
	<path fill-rule="evenodd" clip-rule="evenodd" d="M62.692,193.5c2.008,0.856,0.376,5.352,0.904,7.688
		C61.588,200.332,63.22,195.836,62.692,193.5z"/>
	<path fill-rule="evenodd" clip-rule="evenodd" d="M140.026,199.379c2.008,0.856,0.377,5.353,0.904,7.688
		C138.923,206.211,140.554,201.716,140.026,199.379z"/>
	<path fill-rule="evenodd" clip-rule="evenodd" d="M32.843,199.832c1.004,15.627,0.482,33.646-0.452,48.843
		C32.038,233.286,32.454,212.738,32.843,199.832z"/>
	<path fill-rule="evenodd" clip-rule="evenodd" d="M200.175,200.736c0.525-0.074,0.805,0.1,0.904,0.452
		c0.286,11.35,1.366,25.767-0.904,36.18C200.815,227.568,200.997,211.928,200.175,200.736z"/>
	<path fill-rule="evenodd" clip-rule="evenodd" fill="#A99A6F" d="M35.557,202.998c0.758,0.654,1.325,2.692,0.453,3.618
		C34.989,206.279,35.832,204.079,35.557,202.998z"/>
	<path fill-rule="evenodd" clip-rule="evenodd" d="M41.888,206.616c1.982,19.138,0.67,41.911-2.261,57.436
		C41.536,245.927,42.647,222.464,41.888,206.616z"/>
	<path fill-rule="evenodd" clip-rule="evenodd" fill="#A99A6F" d="M167.161,207.52c1.52-0.464,0.704,1.407,0.905,2.261
		C167.146,209.452,166.219,208.42,167.161,207.52z"/>
	<path fill-rule="evenodd" clip-rule="evenodd" fill="#A99A6F" d="M38.723,210.233c0.802-1.207,0.33,2.65,0.452,3.618
		C38.373,215.058,38.845,211.202,38.723,210.233z"/>
	<path fill-rule="evenodd" clip-rule="evenodd" fill="#A99A6F" d="M35.557,210.233c0.526-0.073,0.805,0.1,0.905,0.453
		c0.081,16.474-0.116,26.277-1.357,41.154C34.409,239.66,36.016,225.937,35.557,210.233z"/>
	<path fill-rule="evenodd" clip-rule="evenodd" fill="#A99A6F" d="M205.602,211.59c1.745,11.867,0.75,21.495-0.452,34.371
		C204.478,236.396,206.177,223.784,205.602,211.59z"/>
	<path fill-rule="evenodd" clip-rule="evenodd" fill="#A99A6F" d="M38.723,215.208c0.943,0.754,0.449,4.667,0.452,7.236
		C38.322,224.182,38.88,217.135,38.723,215.208z"/>
	<path fill-rule="evenodd" clip-rule="evenodd" d="M164.448,214.756c0.302,0,0.603,0,0.904,0c0,1.206,0,2.412,0,3.618
		c-0.302,0-0.603,0-0.904,0C164.448,217.168,164.448,215.962,164.448,214.756z"/>
	<path fill-rule="evenodd" clip-rule="evenodd" d="M162.186,215.661c0.403,0.2,0.81,0.397,0.904,0.904
		c-0.596,9.504,1.197,21.397-0.904,29.396C162.212,234.911,162.226,226.645,162.186,215.661z"/>
	<path fill-rule="evenodd" clip-rule="evenodd" d="M159.925,218.826c1.087,13.691,0.244,23.922,0.452,37.989
		c0.186,1.631-0.826,0.62-0.452-0.452c0-0.753,0-1.507,0-2.261c0-1.658,0-3.316,0-4.975
		C159.966,238.318,159.815,227.64,159.925,218.826z"/>
	<path fill-rule="evenodd" clip-rule="evenodd" d="M157.211,222.444c0.816,10.968,0.95,18.443,0.452,28.04
		C156.909,240.194,156.9,230.71,157.211,222.444z"/>
	<path fill-rule="evenodd" clip-rule="evenodd" fill="#A99A6F" d="M38.723,224.253c0.445,1.271,1.345,10.639-0.453,12.663
		C38.773,232.866,38.681,229.469,38.723,224.253z"/>
	<path fill-rule="evenodd" clip-rule="evenodd" d="M134.599,227.419c1.787,3.696,0.028,8.332,0.452,15.829
		C133.156,239.998,135.296,234.147,134.599,227.419z"/>
	<path fill-rule="evenodd" clip-rule="evenodd" d="M154.499,227.419c1.337,1.725,1.476,7.062,0,9.045
		C154.695,232.779,154.503,231.408,154.499,227.419z"/>
	<path fill-rule="evenodd" clip-rule="evenodd" fill="#A99A6F" d="M208.316,227.419c0.713,2.621,1.214,8.64-0.452,11.306
		C208.781,235.723,208.114,231.136,208.316,227.419z"/>
	<path fill-rule="evenodd" clip-rule="evenodd" fill="#A99A6F" d="M167.614,229.228c1.049,1.051,1.109,5.451,0.452,8.593
		C167.018,235.854,167.91,231.947,167.614,229.228z"/>
	<path fill-rule="evenodd" clip-rule="evenodd" d="M151.785,229.68c1.627,3.131,0.883,15.203,0.452,20.351
		C151.183,244.151,152.085,236.314,151.785,229.68z"/>
	<path fill-rule="evenodd" clip-rule="evenodd" d="M123.293,235.56c2.523,11.002-20.835,18.836-26.683,7.236
		C103.876,251.47,122.737,247.759,123.293,235.56z"/>
	<path fill-rule="evenodd" clip-rule="evenodd" d="M149.523,235.56c0,2.412,0,4.824,0,7.236c-0.301,0-0.603,0-0.904,0
		C149.139,240.603,147.527,236.276,149.523,235.56z"/>
	<path fill-rule="evenodd" clip-rule="evenodd" d="M164.448,235.56c1.634-0.428,0.631,1.781,0.904,2.713
		C163.717,238.701,164.721,236.492,164.448,235.56z"/>
	<path fill-rule="evenodd" clip-rule="evenodd" d="M117.866,236.917c0.521,6.44-12.548,9.049-17.185,4.07
		c1.615-1.45,3.306,1.452,5.879,1.809C111.774,243.52,116.01,240.701,117.866,236.917z"/>
	<path fill-rule="evenodd" clip-rule="evenodd" d="M154.499,236.917c1.833-0.176,0.498,2.818,0.904,4.07
		C153.569,241.162,154.905,238.168,154.499,236.917z"/>
	<path fill-rule="evenodd" clip-rule="evenodd" fill="#A99A6F" d="M38.27,237.369c1.275,0.953,0.298,3.806,0.453,5.879
		C37.682,242.177,38.561,239.189,38.27,237.369z"/>
	<path fill-rule="evenodd" clip-rule="evenodd" fill="#A99A6F" d="M129.172,237.821c1.291,2.854,1.975,12.789-0.452,14.924
		C128.96,247.86,128.202,241.975,129.172,237.821z"/>
	<path fill-rule="evenodd" clip-rule="evenodd" fill="#A99A6F" d="M167.614,238.725c1.939,1.234-0.078,5.179,0.904,7.688
		C166.51,245.557,168.141,241.062,167.614,238.725z"/>
	<path fill-rule="evenodd" clip-rule="evenodd" d="M200.175,238.725c0.824,4.668,0.47,15.791-1.356,20.804
		C199.402,252.726,200.151,246.088,200.175,238.725z"/>
	<path fill-rule="evenodd" clip-rule="evenodd" fill="#A99A6F" d="M207.864,239.177c0.525-0.073,0.805,0.1,0.904,0.453
		c-0.37,12.98-1.514,22.331-2.714,33.014C205.775,261.642,207.533,250.018,207.864,239.177z"/>
	<path fill-rule="evenodd" clip-rule="evenodd" d="M118.318,240.534c0.77-0.167,0.854,0.353,0.905,0.905
		c-3.692,5.353-15.609,6.651-20.352,1.356c3.375,0.484,6.386,3.052,10.854,2.713C112.981,245.263,116.756,243.193,118.318,240.534z"
		/>
	<path fill-rule="evenodd" clip-rule="evenodd" d="M142.288,241.891c2.256,6.354,0.296,11.429,1.356,16.281
		C141.46,254.526,143.625,244.976,142.288,241.891z"/>
	<path fill-rule="evenodd" clip-rule="evenodd" d="M154.499,241.891c1.634-0.429,0.631,1.781,0.904,2.713
		C154.248,244.554,154.505,243.09,154.499,241.891z"/>
	<path fill-rule="evenodd" clip-rule="evenodd" d="M145.906,242.795c1.045,1.518,0.158,4.967,0.452,7.236
		C145.577,247.055,145.49,245.258,145.906,242.795z"/>
	<path fill-rule="evenodd" clip-rule="evenodd" d="M148.619,243.248c1.5,0.159,0.71,2.607,0.904,4.07
		C147.69,247.493,149.025,244.5,148.619,243.248z"/>
	<path fill-rule="evenodd" clip-rule="evenodd" fill="#A99A6F" d="M38.27,244.152c1.034,1.422-0.037,8.341-0.452,11.306
		C37.383,252.906,38.054,247.56,38.27,244.152z"/>
	<path fill-rule="evenodd" clip-rule="evenodd" d="M154.499,245.057c1.63,2.173,0.904,7.707,0.452,11.306
		C153.9,253.494,154.796,248.678,154.499,245.057z"/>
	<path fill-rule="evenodd" clip-rule="evenodd" d="M162.186,246.414c2.064,2.307,0.336,8.408,0.904,12.21
		C161.097,256.247,162.705,250.267,162.186,246.414z"/>
	<path fill-rule="evenodd" clip-rule="evenodd" d="M125.102,249.127c1.873-0.064,0.471,3.147,0.904,4.522
		C124.188,252.829,126.142,250.887,125.102,249.127z"/>
	<path fill-rule="evenodd" clip-rule="evenodd" d="M145.906,250.484c0.747,0.343,0.747,3.727,0,4.07
		C146.295,252.751,145.23,251.212,145.906,250.484z"/>
	<path fill-rule="evenodd" clip-rule="evenodd" d="M151.785,250.484c1.726,1.418-0.046,4.457,0.904,6.784
		C150.705,256.689,152.296,252.535,151.785,250.484z"/>
	<path fill-rule="evenodd" clip-rule="evenodd" d="M157.211,251.84c0.962-0.785,0.013,4.189,0.904,4.975
		C156.211,256.76,157.667,253.345,157.211,251.84z"/>
	<path fill-rule="evenodd" clip-rule="evenodd" fill="#A99A6F" d="M34.652,252.292c0.208,13.591-1.105,26.993-4.07,40.25
		C31.185,280.18,33.843,265.956,34.652,252.292z"/>
	<path fill-rule="evenodd" clip-rule="evenodd" d="M157.211,257.72c1.581,2.849,0.029,6.769,0.904,9.498
		C156.21,267.455,157.667,260.438,157.211,257.72z"/>
	<path fill-rule="evenodd" clip-rule="evenodd" d="M159.925,258.172c0.999,0.057,0.191,1.918,0.452,2.713
		C159.138,260.876,159.303,258.752,159.925,258.172z"/>
	<path fill-rule="evenodd" clip-rule="evenodd" fill="#A99A6F" d="M36.914,259.529c2.036,0.286-0.366,2.993,0.452,4.975
		C35.567,263.98,37.573,261.669,36.914,259.529z"/>
	<path fill-rule="evenodd" clip-rule="evenodd" d="M154.499,259.529c1.978,2.093,0.396,7.743,0.904,11.306
		C153.345,268.822,155.062,263.035,154.499,259.529z"/>
	<path fill-rule="evenodd" clip-rule="evenodd" d="M162.186,259.529c1.552,7.393,1.441,23.004,0,28.943
		C162,276.884,162.595,268.613,162.186,259.529z"/>
	<path fill-rule="evenodd" clip-rule="evenodd" d="M159.925,261.79c1.045,1.518,0.158,4.967,0.452,7.236
		C159.458,268.391,159.836,263.269,159.925,261.79z"/>
	<path fill-rule="evenodd" clip-rule="evenodd" d="M133.695,262.694c0.891,0.577,0.503,4.521,0.452,6.784
		C133.103,268.11,133.988,264.813,133.695,262.694z"/>
	<path fill-rule="evenodd" clip-rule="evenodd" d="M151.785,265.408c2.058,2.013,0.341,7.8,0.904,11.307
		C150.662,273.666,152.486,269.472,151.785,265.408z"/>
	<path fill-rule="evenodd" clip-rule="evenodd" fill="#A99A6F" d="M167.614,265.86c1.365,0.521,0.473,3.044,0.904,5.428
		C167.097,270.597,167.765,267.819,167.614,265.86z"/>
	<path fill-rule="evenodd" clip-rule="evenodd" fill="#A99A6F" d="M36.009,269.478c1.251,3.52-0.394,8.043-0.905,11.307
		C34.465,277.876,36.05,273.293,36.009,269.478z"/>
	<path fill-rule="evenodd" clip-rule="evenodd" d="M159.925,270.382c0.866-0.982,0.285,3.307,0.452,4.522
		C159.51,275.888,160.092,271.598,159.925,270.382z"/>
	<path fill-rule="evenodd" clip-rule="evenodd" d="M154.499,272.644c1.914,2.79,0.259,7.577,0.904,12.211
		C153.338,282.547,155.067,276.447,154.499,272.644z"/>
	<path fill-rule="evenodd" clip-rule="evenodd" d="M157.211,272.644c1.151,0.476,0.771,2.046,0.452,3.166
		C156.653,275.615,157.481,273.581,157.211,272.644z"/>
	<path fill-rule="evenodd" clip-rule="evenodd" fill="#A99A6F" d="M167.614,279.427c1.271-1.675,0.87,2.109,0.904,3.166
		C166.987,282.288,168.193,279.57,167.614,279.427z"/>
	<path fill-rule="evenodd" clip-rule="evenodd" d="M164.448,279.879c0.771,0.678,0.921,3.484,0.452,5.428
		C163.862,284.385,164.736,281.551,164.448,279.879z"/>
	<path fill-rule="evenodd" clip-rule="evenodd" d="M159.925,280.785c1.015,1.403,0.18,8.558,0.452,12.21
		C159.071,290.197,160.182,285.284,159.925,280.785z"/>
	<path fill-rule="evenodd" clip-rule="evenodd" d="M22.894,286.664c2.372-1.319,4.588,0.496,4.975,1.809
		C30.125,296.144,16.005,292.241,22.894,286.664z M22.441,290.734C29.963,295.853,24.892,281.359,22.441,290.734L22.441,290.734z"/>
	<path fill-rule="evenodd" clip-rule="evenodd" d="M197.461,288.924c0,1.206,0,2.412,0,3.618
		C189.541,298.644,190.318,281.838,197.461,288.924z M192.487,292.09c1.23,0.9,4.349,0.666,4.07-1.356
		C196.281,286.859,190.522,288.914,192.487,292.09z"/>
	<path fill-rule="evenodd" clip-rule="evenodd" fill="#A99A6F" d="M38.723,292.09c2.537,2.18,4.503,7.195,4.07,10.854
		c-4.523,0-9.045,0-13.568,0C33.543,300.479,36.876,297.029,38.723,292.09z"/>
	<path fill-rule="evenodd" clip-rule="evenodd" fill="#A99A6F" d="M167.614,292.09c1.07,0.889,0.92,3,0.904,4.975
		C166.613,297.01,168.069,293.595,167.614,292.09z"/>
	<path fill-rule="evenodd" clip-rule="evenodd" fill="#A99A6F" d="M208.316,292.09c2.545,2.583,4.304,6.8,4.522,10.402
		c-3.236,1.519-8.271,0.914-12.211,0.452C204.357,300.493,206.916,296.871,208.316,292.09z"/>
	<path fill-rule="evenodd" clip-rule="evenodd" fill="#A99A6F" d="M10.683,293.448c2.708,2.87,4.21,6.945,8.141,8.592
		c-3.043,1.732-8.053,0.753-11.306,0.453C7.547,298.453,8.925,295.759,10.683,293.448z"/>
	<path fill-rule="evenodd" clip-rule="evenodd" fill="#A99A6F" d="M179.372,293.448c3.401,2.779,5.218,7.144,8.593,9.949
		c-5.442-0.021-8.432-0.359-12.211,0C175.749,298.869,177.889,296.488,179.372,293.448z"/>
	<path fill-rule="evenodd" clip-rule="evenodd" d="M164.448,295.256c0.907,1.345,0.644,2.516,0.452,4.07
		C163.874,298.845,164.728,296.484,164.448,295.256z"/>
	<path fill-rule="evenodd" clip-rule="evenodd" d="M162.186,295.708c1.64,0.637,0.158,4.009,0.452,4.975
		C161.604,299.909,162.473,297.231,162.186,295.708z"/>
	<path fill-rule="evenodd" clip-rule="evenodd" fill="#A99A6F" d="M167.614,300.683c2.268,5.462,0.335,14.004,0.904,21.708
		C166.45,316.922,168.185,307.649,167.614,300.683z"/>
	<path fill-rule="evenodd" clip-rule="evenodd" d="M164.448,302.04c1.351,1.965,0.605,5.693,0.452,7.688
		C163.854,308.061,164.743,304.458,164.448,302.04z"/>
	<path fill-rule="evenodd" clip-rule="evenodd" fill="#A99A6F" d="M32.843,304.301c0.402,0.2,0.809,0.397,0.904,0.904
		c-1.176,15.334-1.054,29.321-2.713,44.32C30.809,334.693,32.067,318.01,32.843,304.301z"/>
	<path fill-rule="evenodd" clip-rule="evenodd" fill="#A99A6F" d="M39.627,304.301c1.206,0,2.412,0,3.618,0
		c0.57,13.212-1.828,29.9-2.713,43.416c-0.258,3.929,1.793,11.418-3.618,12.211c-2.338-1.636-0.599-5.792-0.452-8.593
		C37.229,336.697,37.902,318.75,39.627,304.301z"/>
	<path fill-rule="evenodd" clip-rule="evenodd" fill="#A99A6F" d="M210.125,304.301c1.056,0,2.11,0,3.166,0
		c-0.041,13.154-1.357,29.573-1.81,44.772c-0.113,3.835,0.791,9.742-3.617,10.854c-1.903-3.095-1.124-8.576-0.905-13.568
		C207.539,333.176,207.971,315.444,210.125,304.301z"/>
	<path fill-rule="evenodd" clip-rule="evenodd" fill="#A99A6F" d="M204.246,304.753c0.525-0.073,0.805,0.1,0.904,0.452
		c-0.804,9.831,0.3,21.124-1.809,32.109C203.669,327.305,203.895,316.677,204.246,304.753z"/>
	<path fill-rule="evenodd" clip-rule="evenodd" fill="#A99A6F" d="M151.333,322.843c-17.508,1.85-39.113,0.445-62.863,0.904
		c-1.959,0-3.919,0-5.879,0c-0.905,0-1.809,0-2.714,0c-1.072,0.374-2.083-0.637-0.452-0.452
		C101.314,323.023,123.014,322.686,151.333,322.843z"/>
	<path fill-rule="evenodd" clip-rule="evenodd" fill="#A99A6F" d="M152.689,323.295c1.668-1.046,5.27-0.157,7.688-0.452
		C159.012,324.573,153.553,323.572,152.689,323.295z"/>
	<path fill-rule="evenodd" clip-rule="evenodd" fill="#A99A6F" d="M73.545,323.748c0.627-1.031,3.148-0.168,4.522-0.452
		C77.441,324.327,74.92,323.464,73.545,323.748z"/>
	<path fill-rule="evenodd" clip-rule="evenodd" fill="#A99A6F" d="M147.714,328.27c0.594,0.16,0.711,0.797,1.356,0.905
		c-1.215,36.6,0.902,88.156,0.452,131.151c-0.022,2.163,1.108,5.551-1.356,6.784C147.552,420.077,146.628,376.878,147.714,328.27z"
		/>
	<path fill-rule="evenodd" clip-rule="evenodd" fill="#A99A6F" d="M92.54,329.627c0.526-0.074,0.805,0.1,0.905,0.452
		c0.328,46.116,2.223,93.109,0.904,137.483c0.597,1.514,5.085-0.864,4.975,1.356c-11.833-0.269-27.032,0.559-36.632-0.452
		c9.347-1.055,20.652-0.151,30.753-0.452c-0.265-39.479-1.261-85.648-0.905-137.031C92.54,330.532,92.54,330.08,92.54,329.627z"/>
	<path fill-rule="evenodd" clip-rule="evenodd" fill="#A99A6F" d="M150.428,330.08c1.557,42.019,1.123,94.374,1.356,136.579
		C149.594,420.524,150.691,382.896,150.428,330.08z"/>
	<path fill-rule="evenodd" clip-rule="evenodd" fill="#A99A6F" d="M153.141,330.08c1.39-0.692,1.39,2.953,0,2.261
		C153.141,331.586,153.141,330.833,153.141,330.08z"/>
	<path fill-rule="evenodd" clip-rule="evenodd" fill="#A99A6F" d="M97.967,331.888c1.994,5.191,0.787,10.489,0.904,16.281
		C96.891,344.421,98.476,337.108,97.967,331.888z"/>
	<path fill-rule="evenodd" clip-rule="evenodd" fill="#A99A6F" d="M33.295,332.792c0.91-0.732,0.256,3.946,0.452,5.428
		C32.203,337.889,33.875,334.946,33.295,332.792z"/>
	<path fill-rule="evenodd" clip-rule="evenodd" fill="#A99A6F" d="M153.593,334.602c1.349,30.24,0.575,58.775,0.905,91.354
		C152.749,398.293,153.176,356.932,153.593,334.602z"/>
	<path fill-rule="evenodd" clip-rule="evenodd" fill="#A99A6F" d="M95.253,337.315c0.803,1.033,0.954,2.396,0.452,3.618
		C94.686,340.596,95.529,338.397,95.253,337.315z"/>
	<path fill-rule="evenodd" clip-rule="evenodd" fill="#A99A6F" d="M203.341,338.672c1.512,0.854,0.285,1.826,0.452,3.618
		C202.773,341.954,203.617,339.753,203.341,338.672z"/>
	<path fill-rule="evenodd" clip-rule="evenodd" fill="#A99A6F" d="M98.419,349.526c1.218,2.683,0.313,9.78,0.452,13.115
		C97.561,358.221,98.425,352.614,98.419,349.526z"/>
	<path fill-rule="evenodd" clip-rule="evenodd" fill="#A99A6F" d="M30.582,350.43c0.802-1.206,0.33,2.65,0.452,3.618
		C30.232,355.255,30.705,351.399,30.582,350.43z"/>
	<path fill-rule="evenodd" clip-rule="evenodd" fill="#A99A6F" d="M95.253,354.5c1.984,0.579,0.393,4.732,0.905,6.784
		C94.349,360.531,95.645,356.672,95.253,354.5z"/>
	<path fill-rule="evenodd" clip-rule="evenodd" d="M88.47,356.762c1.426,1.243,0.286,2.365,0.452,4.522
		C87.891,360.658,88.753,358.136,88.47,356.762z"/>
	<path fill-rule="evenodd" clip-rule="evenodd" fill="#A99A6F" d="M207.412,361.737c-0.053,3.113-0.524,5.808-0.905,8.593
		c-1.169-2.158,0.625-4.748-0.452-7.236c-2.603,13.076-8.134,23.222-16.28,30.753c7.056-4.1,13.429-12.801,15.828-23.064
		c0.402,3.838-1.587,8.958-4.07,13.115c-3.185,5.331-8.37,11.106-14.02,14.472c-2.961,1.765-16.089,7.594-16.281,1.81
		c-0.066-2.009,3.939-3.215,5.88-4.522c8.599-5.799,17.569-20.832,8.141-33.919C191.361,361.546,199.955,361.865,207.412,361.737z"
		/>
	<path fill-rule="evenodd" clip-rule="evenodd" d="M88.47,362.189c0.658-0.276,0.904,3.282,0.452,4.522
		C87.891,366.084,88.753,363.564,88.47,362.189z"/>
	<path fill-rule="evenodd" clip-rule="evenodd" fill="#A99A6F" d="M33.748,362.189c-3.406,5.201-7.657,11.921-5.879,20.804
		c0.737-4.237,0.621-9.328,2.261-12.663c-4.276,15.575,6.46,25.471,17.186,30.301c-2.228,5.963-12.41,2.03-15.376,0.452
		c-11.102-5.906-18.2-20.981-18.09-37.537c-0.127-0.73,0.428-0.778,0.453-1.356C20.783,362.189,27.266,362.189,33.748,362.189z"/>
	<path fill-rule="evenodd" clip-rule="evenodd" fill="#A99A6F" d="M98.419,364.903c0.802-1.207,0.33,2.649,0.452,3.617
		C98.069,369.727,98.542,365.871,98.419,364.903z"/>
	<path fill-rule="evenodd" clip-rule="evenodd" fill="#A99A6F" d="M95.253,368.52c1.508,0.448,0.63,2.873,0.452,4.07
		C94.679,372.11,95.534,369.748,95.253,368.52z"/>
	<path fill-rule="evenodd" clip-rule="evenodd" fill="#A99A6F" d="M98.419,370.33c0.802-1.207,0.33,2.649,0.452,3.618
		C98.069,375.154,98.542,371.297,98.419,370.33z"/>
	<path fill-rule="evenodd" clip-rule="evenodd" d="M88.47,371.686c0.736,0.555,0.797,4.674,0.452,5.88
		C87.882,376.496,88.76,373.506,88.47,371.686z"/>
	<path fill-rule="evenodd" clip-rule="evenodd" fill="#A99A6F" d="M95.253,379.827c1.719-0.362,0.575,2.139,0.905,3.166
		C95.238,382.556,95.181,381.255,95.253,379.827z"/>
	<path fill-rule="evenodd" clip-rule="evenodd" d="M88.47,380.731c0.961-0.036,0.277,3.408,0.905,4.522
		C87.501,385.318,88.903,382.107,88.47,380.731z"/>
	<path fill-rule="evenodd" clip-rule="evenodd" fill="#A99A6F" d="M98.419,383.897c1.207,1.668,0.631,4.286,0.452,5.879
		C97.832,388.706,98.709,385.717,98.419,383.897z"/>
	<path fill-rule="evenodd" clip-rule="evenodd" d="M88.47,388.872c1.751,1.264-0.069,3.812,0.905,5.427
		C87.444,394.119,88.943,390.509,88.47,388.872z"/>
	<path fill-rule="evenodd" clip-rule="evenodd" fill="#A99A6F" d="M95.706,392.942c0.935,4.841,0.343,11.899,0.453,16.281
		C95.105,404.698,96.006,398.22,95.706,392.942z"/>
	<path fill-rule="evenodd" clip-rule="evenodd" fill="#A99A6F" d="M98.419,393.394c1.833,22.803,0.941,45.752,1.356,69.646
		c0.127,0.808-0.427,0.928-0.452,0.452C98.558,436.545,98.402,421.118,98.419,393.394z"/>
	<path fill-rule="evenodd" clip-rule="evenodd" d="M143.644,404.701c1.035,0.377,1.238,2.778,0.452,3.618
		C143.077,407.982,143.919,405.782,143.644,404.701z"/>
	<path fill-rule="evenodd" clip-rule="evenodd" d="M143.644,408.771c1.155,0.05,0.897,1.514,0.904,2.713
		C142.915,411.913,143.917,409.703,143.644,408.771z"/>
	<path fill-rule="evenodd" clip-rule="evenodd" fill="#A99A6F" d="M95.706,412.841c1.5,0.158,0.71,2.606,0.905,4.069
		C94.777,417.086,96.112,414.092,95.706,412.841z"/>
	<path fill-rule="evenodd" clip-rule="evenodd" fill="#A99A6F" d="M95.706,417.364c1.39-0.692,1.39,2.953,0,2.261
		C95.706,418.871,95.706,418.117,95.706,417.364z"/>
	<path fill-rule="evenodd" clip-rule="evenodd" fill="#A99A6F" d="M95.706,424.147c1.64,0.32,0.624,3.296,0.905,4.975
		C95.754,428.018,95.639,426.173,95.706,424.147z"/>
	<path fill-rule="evenodd" clip-rule="evenodd" fill="#A99A6F" d="M154.045,429.122c1.234,6.323,0.735,14.607,0.905,23.97
		C152.875,446.875,154.624,436.835,154.045,429.122z"/>
	<path fill-rule="evenodd" clip-rule="evenodd" fill="#A99A6F" d="M96.158,431.383c1.311,2.458-0.392,7.93,0.904,10.401
		c-0.127,1.531-0.719,2.597-0.452,4.522c-1.253-1.466,0.332-9.674-0.905-12.663C96.687,433.72,95.911,432.041,96.158,431.383z"/>
	<path fill-rule="evenodd" clip-rule="evenodd" fill="#A99A6F" d="M96.158,447.664c1.157,0.954,0.885,3.337,0.904,5.428
		C95.37,452.673,96.473,449.459,96.158,447.664z"/>
	<path fill-rule="evenodd" clip-rule="evenodd" fill="#A99A6F" d="M154.045,453.543c1.952,0.31,0.417,4.106,0.905,5.879
		C153.212,458.899,154.39,455.46,154.045,453.543z"/>
	<path fill-rule="evenodd" clip-rule="evenodd" fill="#A99A6F" d="M96.158,454.448c1.833-0.176,0.498,2.818,0.904,4.07
		C95.126,457.886,97.007,455.491,96.158,454.448z"/>
	<path fill-rule="evenodd" clip-rule="evenodd" fill="#A99A6F" d="M96.61,460.327c1.398,5.211-0.473,9.542,0,1.357
		C96.067,461.09,96.434,460.972,96.61,460.327z"/>
	<path fill-rule="evenodd" clip-rule="evenodd" fill="#A99A6F" d="M146.81,468.015c-8.722,0.576-19.966,1.278-26.683,1.356
		c-0.592,0.007-0.713-0.922-1.357-0.904C126.975,466.731,137.654,467.566,146.81,468.015z"/>
	<path fill-rule="evenodd" clip-rule="evenodd" fill="#A99A6F" d="M154.499,468.015c-3.074,1.085-9.662,0.105-3.166,0
		C152.525,467.996,153.438,468.03,154.499,468.015z"/>
	<path fill-rule="evenodd" clip-rule="evenodd" fill="#A99A6F" d="M120.58,470.277c2.718-1.051,7.383-0.155,10.854-0.453
		C128.715,470.875,124.05,469.978,120.58,470.277z"/>
	<path fill-rule="evenodd" clip-rule="evenodd" fill="#A99A6F" d="M75.807,472.538c2.864,0,5.728,0,8.592,0
		c0.652,1.006,1.136,2.181,0.905,4.07c-3.474,1.004-7.766,0.136-9.497,0C74.984,475.064,75.868,474.435,75.807,472.538z"/>
	<path fill-rule="evenodd" clip-rule="evenodd" fill="#A99A6F" d="M133.243,472.538c3.165,0,6.331,0,9.497,0
		c-0.123,1.535,0.35,3.667-0.452,4.522c-2.52-1.176-7.062,0.188-9.045-0.452C133.243,475.251,133.243,473.894,133.243,472.538z"/>
	<path fill-rule="evenodd" clip-rule="evenodd" fill="#A99A6F" d="M104.751,500.577c-3.021-1.081-1.85-5.265-2.714-7.688
		c-6.223-17.445-34.899-16.757-41.154,1.356c-0.856,2.478,0.866,6.277-3.166,6.331c-2.348-2.158-1.528-6.944-1.356-9.949
		c0.336-5.906,1.093-11.412,6.784-12.663c9.718-2.135,27.122,1.266,37.084,0.452C106.337,481.328,107.158,494.53,104.751,500.577z"
		/>
	<path fill-rule="evenodd" clip-rule="evenodd" fill="#A99A6F" d="M159.021,501.03c-2.211-2.555-1.543-6.439-3.166-9.95
		c-6.67-14.426-31.248-14.05-37.085,2.714c-0.671,2.927,1.261,6.97-3.165,6.783c-1.697-8.772-1.929-20.422,4.975-22.16
		c4.298-1.082,31.77-1.875,35.728,0.453c2.827,1.662,3.71,7.716,4.07,12.662C160.599,494.578,161.318,498.761,159.021,501.03z"/>
	<path fill-rule="evenodd" clip-rule="evenodd" fill="#A99A6F" d="M76.711,482.939c0.301,0,0.603,0,0.904,0
		c1.766,6.134,0.971,15.185,0,17.638C74.39,496.819,77.483,488.125,76.711,482.939z"/>
	<path fill-rule="evenodd" clip-rule="evenodd" fill="#A99A6F" d="M75.807,483.391c-0.04,7.648-0.119,13.415-0.453,17.186
		c-3.78-1.238,0.318-10.961-1.809-15.828c-1.604,4.124,0.983,12.439-1.356,15.828c-2.08-3.347-0.324-10.529-0.904-15.376
		C72.607,484.413,73.857,483.553,75.807,483.391z"/>
	<path fill-rule="evenodd" clip-rule="evenodd" fill="#A99A6F" d="M69.476,486.105c1.798,2.919,0.898,10.801,0.452,14.472
		c-2.927-1.596-0.624-8.421-1.357-12.21c-2.363,2.008,0.264,9.007-1.356,11.758c-2.033-1.284-0.359-6.274-0.905-9.045
		c-2.246,2.092-0.573,6.444-1.356,9.045c-1.028-1.384,0.184-5.008-1.809-5.427C64.306,490.885,66.532,488.136,69.476,486.105z"/>
	<path fill-rule="evenodd" clip-rule="evenodd" fill="#A99A6F" d="M62.692,497.412c0.69,0.007,0.991,3.352-0.453,2.713
		C62.18,499.01,62.171,497.946,62.692,497.412z"/>
	<path fill-rule="evenodd" clip-rule="evenodd" fill="#A99A6F" d="M66.31,2.199c1.383,0.328,1.331-0.78,2.713-0.452
		c0.261,0.946,1.122,1.291,0.905,2.713c-1.234,0.041-0.911-0.753-1.809,0c1.247,3.192-0.683,5.764-0.452,8.141
		C64.865,11.884,65.472,5.233,66.31,2.199z"/>
	<path fill-rule="evenodd" clip-rule="evenodd" fill="#EE3224" d="M134.599,106.668c8.469-1.204,10.287,5.448,7.236,9.498
		C135.893,124.052,125.831,110.872,134.599,106.668z M140.478,109.834c0.176,2.683-1.111,5.896-5.427,6.332
		C138.487,121.081,145.396,112.105,140.478,109.834z"/>
	<path fill-rule="evenodd" clip-rule="evenodd" d="M158.116,155.512c0.486-8.995-2.054-21.621-0.452-29.849
		c0.568-2.918,0.882,2.559,0.905,4.07C158.665,136.085,158.825,148.812,158.116,155.512z"/>
	<path fill-rule="evenodd" clip-rule="evenodd" d="M70.38,15.767c0,22.161,0,44.32,0,66.48c3.625,0.399,8.437-1.77,12.211-2.713
		c0.66-1.902,0.74-4.385,1.809-5.879c4.353-1.376,8.045-3.412,10.854-6.332c0.77-7.83,1.365-15.271,2.261-20.804
		c4.475-3.101,15.488-3.174,19.447,0.453c2.373,5.898,0.799,13.225,2.714,18.542c0.773,2.149,2.901,3.04,2.713,5.427
		c3.999,0.524,6.617,2.428,9.497,4.07c1.19,0.92,0.555,3.667,1.357,4.975c11.907,1.057,21.171,4.757,28.491,10.402
		c0.325,2.238,0.621,4.504,0.452,7.236c5.335,1.549,10.746-1.041,14.925,0.905c0.866,1.093,0.285,3.634,0.452,5.427
		c1.763,0.951,5.2,0.227,7.688,0.453c1.196-8.906-0.571-16.277,0.452-25.326c0.515-2.26-3.512-1.586-1.81-3.618
		c-0.016-2.862,4.612-1.855,5.427-0.452c-2.397,8.563-0.856,18.288-0.904,28.944c1.687,1.027,5.489-0.062,6.784,1.357
		c1.7,1.791,1.932,6.85,0,8.593c-6.178,1.421-11.793-0.157-17.186,0.904c-0.8,2.215-0.1,5.931-2.262,6.784
		c-3.507,1.016-8.864,0.18-13.115,0.453c-0.812,5.045-0.452,11.458-0.452,17.637c0,6.097-1.031,12.661,1.357,16.733
		c11.054,2.211,28.902-2.371,37.084,2.713c-2.261,8.292-8.462,12.643-12.211,19.447c14.476,2.624,26.062,10.974,27.588,26.23
		c2.626,26.263-1.348,61.811-7.236,84.118c6.285,7.025,5.998,15.054,5.427,28.04c-0.559,12.717-0.777,28.312-1.809,38.441
		c-0.382,3.747-2.638,4.903-3.618,7.688c-0.789,2.241,0.155,3.727-0.452,6.784c-2.698,13.571-12.437,26.304-25.326,31.657
		c-3.377,1.402-11.64,4.585-13.115,0c-1.177-3.658,5.641-5.966,9.045-8.593c9.486-7.318,14.367-26.889-0.904-33.014
		c-0.354-10.18-1.633-20.387-2.262-30.301c-0.933-14.717-4.696-28.958,3.618-37.989c-3.798-9.016-6.452-19.175-7.688-30.753
		c-0.942,14.608-1.007,26.681-0.904,45.678c0.043,7.926,1.57,16.111-3.618,20.803c-3.589,0.267-7.084-0.154-9.949,0.452
		c-0.528,42.792-0.732,81.306,0,123.464c0.146,8.386,2.12,15.398-3.166,21.256c-3.015,0-6.029,0-9.045,0c0,1.356,0,2.714,0,4.07
		c4.585,1.125,10.092-1.518,14.021,1.809c5.428,4.598,2.559,15.657,3.617,24.874c-20.438,0.499-32.341,0.349-49.295,0
		c0.39-12.523-2.862-31.271,18.995-26.683c1.613-7.46-8.877-2.418-12.663-4.975c-4.423-2.986-2.102-26.249-2.262-36.18
		c-0.49-30.472-0.3-80.283-0.904-107.184c-4.073-1.053-10.098-0.152-14.924-0.452c-1.521,45.153,0.453,87.588,0.452,129.344
		c0,5.23,1.289,11.809-3.166,14.924c-2.326,1.292-7.638-0.402-9.95,0.904c-0.623,0.583-0.447,1.965-0.452,3.166
		c6.107,2.791,13.556-1.546,17.186,3.166c4.083,5.301,1.664,15.705,1.809,24.421c-17.074-0.125-39.352,0.346-51.557-0.452
		c-0.735-7.89-2.292-18.039,1.809-23.517c3.728-4.979,11.597-1.601,16.733-4.07c0-0.604,0-1.206,0-1.81
		c-0.905-2.713-6.464-0.771-9.497-1.356c-7.114-5.458-4.263-15.718-4.522-23.969c-1.304-41.436-0.767-81.024-1.357-120.299
		c-1.486-0.925-4.58-0.244-6.784-0.452c-6.1-4.491-3.96-15.894-4.07-23.969c-0.271-19.793-1.249-35.33-0.904-56.531
		c-2.792,13.941-3.468,29.999-8.141,42.06c12.351,14.404,1.279,48.517,2.261,69.646c-4.939,6.842-10.911,13.038-9.95,22.16
		c0.563,5.342,4.656,11.53,9.498,14.473c2.391,1.453,6.225,1.327,7.236,3.165c0.987,1.796-0.044,4.605-1.809,6.332
		c-20.129-0.019-31.395-15.354-33.918-34.823c-0.252-1.947,0.366-4.473,0-6.331c-0.328-1.666-1.858-3.197-2.261-4.976
		c-1.477-6.511-1.425-17.352-2.261-27.587c-1.282-15.692-4.349-30.856,2.261-39.798c-4.26-10.979-6.406-25.76-7.688-41.154
		c-1.24-14.891-3.294-30.707-2.261-44.32c1.249-16.459,13.122-25.109,28.492-28.04c-2.748-6.9-8.15-11.146-11.306-17.638
		c5.062-4.458,12.883-3.09,19.447-3.166c6.83-0.079,13.742,0.925,19.899-0.452c1.186-12.234-0.131-24.291,0.452-33.466
		c-4.332-1.246-11.625,0.47-15.376-1.356c-1.126-1.286-1.175-3.648-1.356-5.879c-5.22-1.263-13.323,0.358-18.542-0.905
		c-1.484-1.852-2.019-6.816-0.452-9.045c2.189-0.977,6.124-0.208,9.045-0.452c-0.143-7.217,1.757-17.747,0.452-24.421
		c-0.491-2.513-2.364-2.451-1.809-4.522c1.222-1.687,5.064-1.753,6.332,0c-2.239,6.627-1.401,20.191-0.904,28.944
		c1.658,0,3.316,0,4.975,0c1.528-1.487,0.717-5.313,2.713-6.332c3.361-0.718,9.604-0.179,14.472-0.452
		c-1.257-7.933,3.596-13.148,10.402-14.472c0-22.763,0-45.526,0-68.289c-2.796-2.722-3.474-9.668-2.261-14.924
		C72.625-4.648,72.905,11.551,70.38,15.767z M128.268,255.006c-4.728,6.561-9.317,13.465-13.115,20.351
		c5.378-6.229,9.095-14.121,15.376-19.446c-0.382-1.889,0.879-2.136,0.904-3.618c22.643-30.723,45.835-60.896,67.386-92.711
		c-23.453-0.238-43.68,0.615-68.742,0.453c-0.406,9.615,0.769,20.872-0.452,28.492c-0.254-6.391-0.582-17.302-0.452-28.492
		c-1.535,0.123-3.667-0.35-4.522,0.452c-0.497,8.292,1.08,13.432-0.452,18.995c0-6.482,0-12.965,0-19.447c-2.563,0-5.126,0-7.688,0
		c-1.219,1.193,0.347,5.171-0.904,6.332c0-2.111,0-4.221,0-6.332c-24.267,0.095-36.589,0.184-61.054,0
		c-1.245,8.882,0.395,20.522-0.904,30.3c-0.3-7.798-0.337-14.778-0.453-22.16c-0.041-2.607,1.081-5.968-0.904-8.14
		c-1.426,0.985,0.82,5.645-1.357,5.879c-0.183-1.927,0.438-4.659-0.452-5.879c-3.317,2.562,0.042,11.8-1.809,15.829
		c-1.44-4.219,0.577-12.996-0.904-15.829c-3.045-0.483,0.195,5.32-2.261,5.427c-0.487-2.876,1.833-5.254-1.357-5.427
		c-1.409,1.595,0.317,6.893-1.356,8.592c-0.239-2.776,0.517-6.547-0.453-8.592c-3.264,1.71,0.003,9.953-1.809,13.115
		c-0.883-2.928-0.092-9.427-0.453-13.115c-3.75-0.586-4.478,2.075-6.784,0c-0.794,0.616,1.148,4.93-0.904,5.427
		c0-1.658,0-3.316,0-4.975c-2.242-0.151-10.307-1.454-13.115,0.452c27.885,39.055,56.914,79.239,86.379,118.037
		c0.969-0.287,6.055,1.18,7.236-0.904c-0.532-0.07-1.283,0.078-1.356-0.452c6.092-7.928,11.774-16.266,17.638-24.421
		c-2.599-0.984-0.652-5.91-1.356-10.402c-3.059-0.345-0.952,4.476-2.262,5.879c-1.285,0.079,0.547-2.958-1.356-2.261
		c-2.486,2.063-0.046,5.32-1.81,7.236c-1.276-0.803,1.225-3.326-0.904-4.07c-1.817-0.008,0.009,3.626-1.809,3.618
		c0-0.754,0-1.508,0-2.261c-9.9,5.865-22.034,2.027-27.135-4.975c-10.242-14.06-1.971-34.143,14.472-35.275
		c13.327-0.918,21.945,8.9,22.612,23.969c-0.18,1.084,2.06-0.25,1.356,1.357c-0.17,5.006,0.036,8.076,0,13.567
		c3.222-3.965-0.136-12.096,1.81-17.638c0.53,3.51-0.199,9.713,0,14.472c2.111,0.482,3.266-3.579,4.975-4.975
		c-0.604-23.449-0.791-45.883,0-71.003c0.541,21.844,0.479,43.979,0.452,69.194c3.526-1.547,1.809-7.798,1.809-13.568
		c0-6.28-0.364-13.065,0.452-18.09c1.055,8.443,0.151,18.843,0.452,28.04c3.26-1.128,2.459-3.612,2.262-6.332
		c-1.043-14.368,0.429-37.027,0.452-51.556c0.31,14.776,0.575,31.72,0.452,53.365c3.261-1.505,2.254-6.193,2.262-9.497
		c0.024-11.438-0.438-25.745,0.452-38.441c0.338,16.526,0.243,29.207,0,43.868c2.177,0.067,2.005-2.215,3.166-3.166
		c-1.368-7.381-1.549-21.135,0-29.396c0,9.498,0,18.995,0,28.492c3.155-2.163,1.809-8.736,1.809-14.02
		c0-5.528-0.65-11.395,0.904-14.02c0.051,6.406-0.036,16.528,0,24.421c5.078-3.427-0.486-17.098,2.714-19.899
		c0.28,5.146-0.575,11.429,0.452,15.829c4.107-2.32-0.565-8.886,2.261-12.211c0.541,2.625-1.12,7.453,0.905,8.593
		c2.197-2.174-0.148-8.891,1.356-11.758c1.37,2.222-0.399,6.89,0.452,8.593c3.581-0.675,0.004-6.013,2.261-7.236
		c0.373,1.135-0.879,3.894,0.905,3.618c1.436-1.126-0.746-5.871,1.356-6.332c0.28,1.228-0.574,3.589,0.452,4.07
		c1.823-2.102,3.911-6.333,5.879-6.784C157.265,215.486,142.209,235.657,128.268,255.006z M67.667,12.601
		c-0.231-2.376,1.699-4.949,0.452-8.141c0.898-0.753,0.575,0.041,1.809,0c0.217-1.423-0.644-1.768-0.905-2.713
		c-1.383-0.328-1.33,0.78-2.713,0.452C65.472,5.233,64.865,11.884,67.667,12.601z M68.571,83.152
		c0.12-16.338,0.914-35.166-0.452-52.461C68.441,49.574,67.351,66.236,68.571,83.152z M101.585,46.972
		c2.382-1.107,6.367,1.316,8.14-0.905C106.574,46.128,103.478,44.957,101.585,46.972z M102.49,66.418
		c0.664-5.889,1.537-11.233-0.453-16.281C102.736,55.549,100.061,62.28,102.49,66.418z M105.203,66.418
		c0.499-4.79,1.35-11.577-0.452-14.924C105.13,57.149,103.885,62.861,105.203,66.418z M108.369,66.418
		c0.735-4.788,0.84-10.912-0.904-14.02C108.325,55.564,106.104,63.423,108.369,66.418z M111.083,66.871
		c1.05-4.149,0.438-9.031-0.452-12.663C110.588,59.312,109.67,62.143,111.083,66.871z M97.967,59.635
		c0.235-1.405,0.988-3.152-0.453-3.166C97.784,57.406,96.956,59.44,97.967,59.635z M99.776,62.801
		c0.239-1.872,0.866-3.101-0.452-3.618C99.493,65.847,99.262,66.832,99.776,62.801z M96.61,65.514
		c1.558-0.12,1.014-4.689,0.904-4.975C96.827,61.811,97.084,64.028,96.61,65.514z M97.062,67.775
		c-0.931,0.577-2.293,0.721-2.261,2.261c9.562-0.284,15.402,0.662,24.422,0.452C115.314,66.106,104.377,68.752,97.062,67.775z
		 M108.369,71.393c-8.133-0.124-17.299-1.119-20.351,2.714c14.314-0.248,26.79,1.348,39.798,0
		C121.875,70.917,116.518,71.518,108.369,71.393z M121.032,76.368c-9.757-0.262-25.575-0.428-35.728-0.905
		c-1.407,0.101-0.764,2.251-0.905,3.618c11.291,0.982,24.006,0.289,34.371,0.452c3.371,0.053,10.332,2.663,11.759-1.809
		C128.371,75.176,124.32,76.457,121.032,76.368z M186.156,102.146c1.996-7.826,0.076-13.908,0.904-22.16
		c-0.096-0.507-0.502-0.704-0.904-0.904C186.156,86.77,186.156,94.458,186.156,102.146z M158.569,90.388
		c-9.845-9.247-25.987-9.49-42.964-9.497c-21.794-0.01-43.867-2.198-56.983,9.949c-1.466,27.524,0.651,45.001-0.452,66.48
		c29.594-0.103,76.617,0.409,101.304-0.452C158.903,134.34,160.715,111.264,158.569,90.388z M162.638,99.433
		c-0.783,2.902-0.711,8.846,0,11.759c3.618,0,7.236,0,10.854,0c0.293-2.119-0.592-5.416,0.452-6.784
		c0.561,4.135,0.487,11.17,0.452,15.376c-3.623-0.156-6.132,0.803-9.949,0.453c-2.795,0.539,1.775,0.424,3.618,0.452
		c2.808,0.042,5.874,0.221,6.783-0.452c0.812-8.269,1.481-12.745,0-20.804C171.76,98.69,165.727,98.69,162.638,99.433z
		 M43.245,100.79c0.768,4.513,0.5,9.248,0.904,13.115c4.363,0.341,8.116-0.28,12.663,0.452c0.49-3.971,0.108-9.283,0-14.02
		C52.413,100.611,46.9,99.772,43.245,100.79z M42.793,108.478c-0.61-2.302,0.723-4.281-0.905-4.975
		C41.822,105.529,41.937,107.374,42.793,108.478z M178.467,105.764c0.477,1.89-0.952,3.064,0,4.07
		c4.374,0.299,9.946-0.6,13.567,0.452c-4.76,0.648-9.174-1.084-12.663,0.905c4.372,0,8.744,0,13.115,0
		c1.155-1.106,0.7-3.823,1.356-5.427C188.948,105.109,184.813,105.991,178.467,105.764z M23.346,110.287
		c4.713,0.748,12.472,0.748,17.186,0c0-1.055,0-2.11,0-3.166c-5.729,0-11.457,0-17.186,0
		C23.346,108.176,23.346,109.231,23.346,110.287z M194.296,111.191c1.722-0.371,1.722-3.247,0-3.618
		C194.296,108.779,194.296,109.985,194.296,111.191z M27.869,112.096c2.771-0.546,7.761,1.128,9.045-0.904
		C34.509,112.219,29.816,110.61,27.869,112.096z M162.186,113c2.637,0.29,10.117,1.737,11.307-0.904
		C171.387,112.336,164.215,111.198,162.186,113z M173.041,114.357c-3.468,0-6.935,0-10.402,0
		C164.75,116.134,170.126,115.834,173.041,114.357z M44.602,115.261c0.418,1.068,11.067,2.116,12.211-0.452
		C52.859,115.077,47.813,114.251,44.602,115.261z M155.855,157.773c-30.978,0-63.591,0.093-99.947,1.356
		c47.745-0.47,96.773,1.143,139.745-1.356C185.385,157.718,168.638,157.773,155.855,157.773z M42.34,195.762
		c-4.394-4.952-7.273-11.42-12.21-15.829c-12.655,0.598-27.394,10.165-28.492,25.326c-1.079,14.902,0.14,29.265,1.809,45.225
		c1.585,15.161,3.184,32.419,8.593,42.511c3.932,7.337,14.307,12.327,21.255,5.88c3.388-3.144,5.971-12.41,7.688-19.447
		c3.881-15.901,4.975-32.055,4.975-48.842c0-12.86,1.866-26.875-3.166-33.467c-0.611,1.596,0.801,6.458-0.453,8.593
		C41.702,203.246,41.534,198.198,42.34,195.762z M179.372,191.239c-2.678,3.702-6.215,6.724-7.235,10.402
		c-1.896,6.827-1.306,19.56-1.357,28.039c-0.115,19.137,1.847,37.306,6.784,52.913c3.262,10.312,8.873,25.045,22.16,19.446
		c5.501-2.317,8.165-12.142,9.949-20.351c4.111-18.916,5.427-35.207,5.427-55.174c0-10.637,0.923-19.626-1.356-27.587
		c-3.378-11.797-13.729-17.064-26.23-18.994C184.797,182.617,182.42,187.026,179.372,191.239z M66.762,231.489
		c-2.895-4.133-5.857-8.751-9.045-13.115c-3.066-4.198-6.395-8.775-9.949-11.306c1.359,33.132-0.352,56.738,0.904,89.997
		c0.314,8.324-1.168,25.116,3.618,28.492c1.527-0.184-1.204-1.754,0.904-1.357c6.932-0.16,12.862-0.517,19.447-0.452
		c0.476-0.024,0.356-0.579-0.452-0.452c-6.634-0.3-14.471,0.602-20.351-0.452c4.323-0.036,9.528-0.232,15.829-0.452
		c22.759-0.793,63.275,0.63,98.59,0c0.198-42.088,0.461-74.842,0-112.158c-10.298,9.751-16.734,23.365-26.23,33.919
		c0.073,6.262,0.628,11.041-0.452,18.542c-0.246-5.181,0.527-11.381-0.452-15.829c-3.387,1.154-1.329,5.529-2.261,7.236
		c-1.307-0.201,0.401-3.417-0.905-3.618c-0.709,1.117-2.741,3.265-2.261,4.07c1.003-2.793,0.602,5.902,0,7.236
		c-0.255-2.308,0.69-5.816-0.904-6.784c-2.954,3.153-6.334,8.993-10.402,14.472c-5.093,6.858-10.677,17.076-18.09,11.307
		c-11.095-15.89-22.818-33.562-34.823-47.034c3.559,4.883,7.414,9.47,10.401,14.924c-3.62-5.496-9.563-10.841-11.306-16.733
		C68.541,234.054,67.537,231.412,66.762,231.489z M59.074,219.731c3.071,3.863,5.59,8.279,9.045,11.758
		C65.463,227.51,62.377,221.555,59.074,219.731z M54.551,213.399c1.648,1.667,2.29,4.343,4.522,5.427
		C57.954,216.924,55.985,213.484,54.551,213.399z M168.066,209.781c-0.201-0.854,0.614-2.726-0.905-2.261
		C166.219,208.42,167.146,209.452,168.066,209.781z M168.066,237.821c0.657-3.142,0.597-7.542-0.452-8.593
		C167.91,231.947,167.018,235.854,168.066,237.821z M168.518,246.414c-0.982-2.51,1.035-6.455-0.904-7.688
		C168.141,241.062,166.51,245.557,168.518,246.414z M168.518,271.288c-0.432-2.384,0.461-4.906-0.904-5.428
		C167.765,267.819,167.097,270.597,168.518,271.288z M168.518,282.593c-0.034-1.057,0.366-4.841-0.904-3.166
		C168.193,279.57,166.987,282.288,168.518,282.593z M29.225,302.945c4.522,0,9.045,0,13.568,0c0.433-3.659-1.533-8.675-4.07-10.854
		C36.876,297.029,33.543,300.479,29.225,302.945z M168.518,297.065c0.016-1.975,0.166-4.086-0.904-4.975
		C168.069,293.595,166.613,297.01,168.518,297.065z M200.627,302.945c3.94,0.462,8.975,1.066,12.211-0.452
		c-0.219-3.603-1.978-7.819-4.522-10.402C206.916,296.871,204.357,300.493,200.627,302.945z M7.518,302.493
		c3.253,0.3,8.263,1.279,11.306-0.453c-3.931-1.646-5.433-5.722-8.141-8.592C8.925,295.759,7.547,298.453,7.518,302.493z
		 M175.753,303.397c3.779-0.359,6.769-0.021,12.211,0c-3.375-2.806-5.191-7.17-8.593-9.949
		C177.889,296.488,175.749,298.869,175.753,303.397z M168.518,322.391c-0.569-7.704,1.363-16.246-0.904-21.708
		C168.185,307.649,166.45,316.922,168.518,322.391z M7.518,305.658c1.744,19.242,2.016,39.005,4.975,54.723
		c5.152-0.039,12.082-1.176,17.186-1.81c-0.067-16.718,2.999-37.632,1.356-54.27c-1.03,4.85,0.016,11.774-1.356,16.281
		c-0.272-5.842,0.445-12.919,0-16.281c-7.387,0-14.773,0-22.16,0C7.518,304.753,7.518,305.206,7.518,305.658z M31.034,349.526
		c1.66-14.999,1.538-28.986,2.713-44.32c-0.095-0.507-0.502-0.704-0.904-0.904C32.067,318.01,30.809,334.693,31.034,349.526z
		 M36.461,351.335c-0.147,2.801-1.886,6.957,0.452,8.593c5.412-0.793,3.36-8.282,3.618-12.211
		c0.885-13.516,3.284-30.204,2.713-43.416c-1.206,0-2.412,0-3.618,0C37.902,318.75,37.229,336.697,36.461,351.335z M175.301,304.753
		c1.083,16.9,2.488,38.224,4.07,54.722c6.229,1.926,9.91-1.857,17.638-0.904c0.502-8.453,0.005-17.659,1.356-27.135
		c-0.179,5.408,0.196,9.924,0,14.02c-0.156,3.265-1.955,10.774,0.453,13.115c1.717-9.375,0.254-19.15,1.809-28.039
		c0.783,10.122-1.968,19.021,0.452,28.039c1.464-18.661,1.26-36.93,1.81-54.27c-2.558,2.59-1.17,7.296-1.357,11.307
		c-0.214,4.587-0.337,9.831-1.356,12.21c-0.175-7.43,1.598-17.673,0-23.517c-2.625,7.022-0.023,17.066-2.262,24.874
		c-0.078-8.521,0.789-16.096,0.452-24.874C190.819,304.592,182.099,303.712,175.301,304.753z M206.958,346.36
		c-0.219,4.992-0.998,10.474,0.905,13.568c4.408-1.112,3.504-7.02,3.617-10.854c0.452-15.199,1.769-31.618,1.81-44.772
		c-1.056,0-2.11,0-3.166,0C207.971,315.444,207.539,333.176,206.958,346.36z M203.341,337.315
		c2.108-10.985,1.005-22.278,1.809-32.109c-0.1-0.353-0.379-0.525-0.904-0.452C203.895,316.677,203.669,327.305,203.341,337.315z
		 M33.748,331.436c0.984-7.004,0.397-10.705,1.357-17.638C33.493,318.219,33.449,326.612,33.748,331.436z M79.425,323.295
		c-1.631-0.185-0.62,0.826,0.452,0.452c0.905,0,1.809,0,2.714,0c1.959,0,3.919,0,5.879,0c23.75-0.459,45.355,0.945,62.863-0.904
		C123.014,322.686,101.314,323.023,79.425,323.295z M160.377,322.843c-2.419,0.295-6.021-0.594-7.688,0.452
		C153.553,323.572,159.012,324.573,160.377,322.843z M78.068,323.295c-1.375,0.284-3.895-0.579-4.522,0.452
		C74.92,323.464,77.441,324.327,78.068,323.295z M118.318,328.27c-0.828,11.094-0.452,24.596-0.452,36.181
		c0,37.93,0.276,69.681,0.904,102.66c9.498,0,18.995,0,28.492,0c-0.996-43.223,0.053-91.843-1.809-139.293
		c-2.482,1.773-1.357,5.555-1.357,8.141c0,21.619,0.386,46.283-0.452,65.124c-0.232-27.768,0.26-52.545-0.452-73.265
		c-10.353-0.762-15.86,0.375-23.517-0.452C119.14,327.585,118.65,327.848,118.318,328.27z M60.883,327.818
		c-0.568,0.186-0.924,0.583-0.905,1.357c1.042,44.795-0.29,97.338,2.261,137.936c9.777,0.109,19.552-0.058,30.301,0
		c-0.401-52.675-0.904-86.381-0.904-130.248c0-2.245,1.491-6.81-1.809-8.14c-2.401,6.945,0.293,18.985-1.357,26.683
		c0-8.895,0-17.789,0-26.683C80.712,326.983,70.034,328.165,60.883,327.818z M148.167,467.111c2.465-1.233,1.334-4.621,1.356-6.784
		c0.45-42.995-1.667-94.552-0.452-131.151c-0.646-0.108-0.763-0.745-1.356-0.905C146.628,376.878,147.552,420.077,148.167,467.111z
		 M92.54,330.984c-0.356,51.383,0.64,97.553,0.905,137.031c-10.101,0.301-21.406-0.603-30.753,0.452
		c9.6,1.011,24.798,0.184,36.632,0.452c0.11-2.221-4.378,0.157-4.975-1.356c1.318-44.374-0.577-91.367-0.904-137.483
		c-0.1-0.353-0.379-0.526-0.905-0.452C92.54,330.08,92.54,330.532,92.54,330.984z M151.785,466.659
		c-0.233-42.205,0.2-94.561-1.356-136.579C150.691,382.896,149.594,420.524,151.785,466.659z M153.141,332.34
		c1.39,0.692,1.39-2.953,0-2.261C153.141,330.833,153.141,331.586,153.141,332.34z M98.872,348.169
		c-0.117-5.792,1.09-11.09-0.904-16.281C98.476,337.108,96.891,344.421,98.872,348.169z M33.748,338.22
		c-0.196-1.481,0.458-6.16-0.452-5.428C33.875,334.946,32.203,337.889,33.748,338.22z M154.499,425.956
		c-0.33-32.578,0.443-61.113-0.905-91.354C153.176,356.932,152.749,398.293,154.499,425.956z M95.706,340.933
		c0.502-1.223,0.351-2.585-0.452-3.618C95.529,338.397,94.686,340.596,95.706,340.933z M203.793,342.291
		c-0.167-1.792,1.06-2.765-0.452-3.618C203.617,339.753,202.773,341.954,203.793,342.291z M98.872,362.641
		c-0.139-3.335,0.766-10.433-0.452-13.115C98.425,352.614,97.561,358.221,98.872,362.641z M31.034,354.048
		c-0.123-0.968,0.35-4.824-0.452-3.618C30.705,351.399,30.232,355.255,31.034,354.048z M96.158,361.285
		c-0.512-2.052,1.08-6.205-0.905-6.784C95.645,356.672,94.349,360.531,96.158,361.285z M185.251,361.737
		c9.429,13.087,0.458,28.12-8.141,33.919c-1.94,1.308-5.946,2.514-5.88,4.522c0.192,5.784,13.32-0.045,16.281-1.81
		c5.649-3.365,10.835-9.141,14.02-14.472c2.483-4.157,4.473-9.277,4.07-13.115c-2.399,10.264-8.772,18.965-15.828,23.064
		c8.146-7.531,13.678-17.677,16.28-30.753c1.077,2.488-0.717,5.078,0.452,7.236c0.381-2.785,0.853-5.479,0.905-8.593
		C199.955,361.865,191.361,361.546,185.251,361.737z M96.158,366.259c0.008-1.983,0.017-4.235-0.453-4.522
		C95.294,362.375,94.42,366.371,96.158,366.259z M14.301,362.189c-0.025,0.578-0.58,0.626-0.453,1.356
		c-0.11,16.556,6.989,31.631,18.09,37.537c2.966,1.578,13.149,5.511,15.376-0.452C36.59,395.8,25.854,385.905,30.13,370.33
		c-1.64,3.335-1.524,8.426-2.261,12.663c-1.778-8.883,2.473-15.603,5.879-20.804C27.266,362.189,20.783,362.189,14.301,362.189z
		 M98.872,368.52c-0.123-0.968,0.35-4.824-0.452-3.617C98.542,365.871,98.069,369.727,98.872,368.52z M95.706,372.59
		c0.178-1.197,1.056-3.622-0.452-4.07C95.534,369.748,94.679,372.11,95.706,372.59z M98.872,373.948
		c-0.123-0.969,0.35-4.825-0.452-3.618C98.542,371.297,98.069,375.154,98.872,373.948z M96.158,382.993
		c-0.33-1.027,0.814-3.528-0.905-3.166C95.181,381.255,95.238,382.556,96.158,382.993z M98.872,389.776
		c0.179-1.593,0.755-4.211-0.452-5.879C98.709,385.717,97.832,388.706,98.872,389.776z M96.158,409.223
		c-0.109-4.382,0.482-11.44-0.453-16.281C96.006,398.22,95.105,404.698,96.158,409.223z M99.324,463.493
		c0.025,0.476,0.58,0.355,0.452-0.452c-0.416-23.895,0.477-46.844-1.356-69.646C98.402,421.118,98.558,436.545,99.324,463.493z
		 M96.61,416.911c-0.195-1.463,0.595-3.911-0.905-4.069C96.112,414.092,94.777,417.086,96.61,416.911z M95.706,419.625
		c1.39,0.692,1.39-2.953,0-2.261C95.706,418.117,95.706,418.871,95.706,419.625z M96.61,429.122
		c-0.281-1.679,0.735-4.654-0.905-4.975C95.639,426.173,95.754,428.018,96.61,429.122z M154.951,453.091
		c-0.17-9.362,0.329-17.646-0.905-23.97C154.624,436.835,152.875,446.875,154.951,453.091z M95.706,433.644
		c1.237,2.989-0.348,11.197,0.905,12.663c-0.267-1.926,0.325-2.991,0.452-4.522c-1.296-2.472,0.406-7.943-0.904-10.401
		C95.911,432.041,96.687,433.72,95.706,433.644z M97.062,453.091c-0.02-2.091,0.252-4.474-0.904-5.428
		C96.473,449.459,95.37,452.673,97.062,453.091z M154.951,459.422c-0.488-1.772,1.047-5.569-0.905-5.879
		C154.39,455.46,153.212,458.899,154.951,459.422z M97.062,458.518c-0.406-1.252,0.929-4.246-0.904-4.07
		C97.007,455.491,95.126,457.886,97.062,458.518z M96.61,461.684c-0.473,8.185,1.398,3.854,0-1.357
		C96.434,460.972,96.067,461.09,96.61,461.684z M118.77,468.467c0.645-0.018,0.766,0.911,1.357,0.904
		c6.717-0.078,17.961-0.78,26.683-1.356C137.654,467.566,126.975,466.731,118.77,468.467z M151.333,468.015
		c-6.496,0.105,0.092,1.085,3.166,0C153.438,468.03,152.525,467.996,151.333,468.015z M131.433,469.824
		c-3.471,0.298-8.136-0.598-10.854,0.453C124.05,469.978,128.715,470.875,131.433,469.824z M75.807,476.608
		c1.731,0.136,6.023,1.004,9.497,0c0.231-1.89-0.252-3.064-0.905-4.07c-2.864,0-5.728,0-8.592,0
		C75.868,474.435,74.984,475.064,75.807,476.608z M133.243,476.608c1.982,0.64,6.525-0.724,9.045,0.452
		c0.802-0.855,0.329-2.987,0.452-4.522c-3.166,0-6.332,0-9.497,0C133.243,473.894,133.243,475.251,133.243,476.608z
		 M100.229,478.417c-9.963,0.813-27.366-2.587-37.084-0.452c-5.69,1.251-6.447,6.757-6.784,12.663
		c-0.171,3.005-0.992,7.791,1.356,9.949c4.032-0.054,2.31-3.854,3.166-6.331c6.255-18.113,34.932-18.802,41.154-1.356
		c0.864,2.423-0.307,6.606,2.714,7.688C107.158,494.53,106.337,481.328,100.229,478.417z M160.377,491.532
		c-0.36-4.946-1.243-11-4.07-12.662c-3.958-2.328-31.43-1.535-35.728-0.453c-6.903,1.738-6.672,13.388-4.975,22.16
		c4.426,0.187,2.494-3.856,3.165-6.783c5.837-16.764,30.415-17.14,37.085-2.714c1.623,3.511,0.955,7.396,3.166,9.95
		C161.318,498.761,160.599,494.578,160.377,491.532z M85.304,500.577c0.301,0,0.603,0,0.904,0c1.035-2.81,0.128-8.149,0.905-9.949
		c1.812,3.457-1.318,8.119,0.904,9.949c0.301,0,0.603,0,0.904,0c1.342-1.521-0.438-6.166,0.905-7.688c0,2.562,0,5.125,0,7.688
		c3.083-0.489,8.26,0.527,11.306,0c-0.121-11.276-8.875-19.569-21.708-18.09c1.017,7.499-2.078,14.308,0.905,18.09
		c1.881-2.518-0.425-10.709,1.809-14.924c0.282,4.157-1.732,10.079,0.453,14.924c3.09-1.38,0.248-9.731,1.809-11.306
		C86.132,491.603,82.876,497.973,85.304,500.577z M134.147,482.939c0.814,5.668-1.686,14.65,1.356,18.091
		c2.605-3.274-0.812-12.572,1.81-15.829c-0.287,3.533-0.048,7.137,0,10.854c0.018,1.421-1.891,4.364,0.904,4.976
		c2.136-3.161,0.471-7.349,1.809-11.307c0.508,3.563-1.073,9.214,0.904,11.307c2.17-1.298-0.124-7.06,1.357-9.046
		c1.529,2.766-2.19,8.018,1.809,9.046c1.683-0.685-0.005-4.04,1.357-5.88c0,1.81,0,3.618,0,5.427c2.099,0.324,7.311,0.966,10.401,0
		C155.767,487.944,146.591,480.282,134.147,482.939z M77.616,500.577c0.971-2.453,1.766-11.504,0-17.638c-0.301,0-0.603,0-0.904,0
		C77.483,488.125,74.39,496.819,77.616,500.577z M71.285,485.201c0.58,4.847-1.176,12.029,0.904,15.376
		c2.34-3.389-0.248-11.704,1.356-15.828c2.127,4.867-1.971,14.59,1.809,15.828c0.334-3.771,0.413-9.537,0.453-17.186
		C73.857,483.553,72.607,484.413,71.285,485.201z M120.58,493.793c2.466,1.022-0.592,5.643,2.261,6.783
		c0.297-3.02-0.597-7.229,0.453-9.497c1.604,2.014-0.985,8.222,1.356,9.497c2.253-1.333-0.597-9.745,1.809-12.21
		c0.331,3.519-2.156,10.357,0.904,12.21c1.209-3.515-0.554-10.837,0.905-14.02c0.988,4.687-1.142,10.506,0.904,14.02
		c0.302,0,0.603,0,0.904,0c1.353-4.074-0.448-11.302,0.904-15.376c2.027,4.238-1.782,14.328,1.81,15.829
		c1.112-7.242,0.231-11.541,0.904-17.639C126.721,484.257,123.643,489.017,120.58,493.793z M63.144,494.698
		c1.993,0.419,0.781,4.043,1.809,5.427c0.784-2.601-0.89-6.953,1.356-9.045c0.546,2.771-1.128,7.761,0.905,9.045
		c1.621-2.751-1.007-9.75,1.356-11.758c0.733,3.789-1.57,10.614,1.357,12.21c0.446-3.671,1.346-11.553-0.452-14.472
		C66.532,488.136,64.306,490.885,63.144,494.698z M62.239,500.125c1.444,0.639,1.143-2.706,0.453-2.713
		C62.171,497.946,62.18,499.01,62.239,500.125z M124.65,242.343c8.252-12.45-0.372-28.618-13.115-30.301
		c-20.737-2.738-30.133,23.485-14.924,35.275c0.071-0.532-0.078-1.284,0.452-1.356c9.666,8.664,27.119,1.787,28.944-9.498
		C126.948,239.529,124.05,241.123,124.65,242.343z M128.72,252.745c2.427-2.136,1.743-12.071,0.452-14.924
		C128.202,241.975,128.96,247.86,128.72,252.745z M119.223,248.223c1.859-1.608,3.939-2.995,4.975-5.427
		C122.571,244.342,119.583,246.916,119.223,248.223z M112.439,251.388c-0.076-0.611,2.3-0.904,0.904-1.357
		C110.757,251.153,105.878,251.361,112.439,251.388z"/>
	<path fill-rule="evenodd" clip-rule="evenodd" d="M194.749,163.652c-3.82,7.487-11.166,15.366-16.281,23.065
		C182.305,179.247,189.703,171.42,194.749,163.652z"/>
	<path fill-rule="evenodd" clip-rule="evenodd" d="M177.111,187.169c0.636,1.609-3.349,6.25-5.428,8.141
		C173.372,192.475,175.768,190.349,177.111,187.169z"/>
	<path fill-rule="evenodd" clip-rule="evenodd" fill="#A99A6F" d="M187.512,179.933c12.502,1.93,22.853,7.197,26.23,18.994
		c2.279,7.961,1.356,16.95,1.356,27.587c0,19.967-1.315,36.258-5.427,55.174c-1.784,8.209-4.448,18.033-9.949,20.351
		c-13.287,5.599-18.898-9.135-22.16-19.446c-4.938-15.607-6.899-33.776-6.784-52.913c0.052-8.479-0.538-21.212,1.357-28.039
		c1.021-3.678,4.558-6.7,7.235-10.402C182.42,187.026,184.797,182.617,187.512,179.933z M201.08,192.596
		c5.911,13.978,3.513,34.868,2.714,52.461c-0.837,18.411-2.908,36.548-5.428,52.46c1.855-1.78,0.875-0.648,3.166,0
		c7.394-23.102,9.346-58.834,7.688-84.118c-0.733,3.572,1.432,9.5-0.904,10.402c0.169-4.675,0.535-6.712,0-11.307
		c0.986-0.288,1.438,1.282,1.356-0.452c-0.072-5.958-0.032-12.028-2.714-15.376c0.906,3.769,3.039,10.103,1.357,13.567
		c-0.368-7.471-1.684-13.995-5.427-18.09c2.444,4.06,3.364,9.276,2.713,14.924C205.183,202.654,204.653,195.275,201.08,192.596z
		 M202.889,235.56c0.461-9.25,1.084-20.852,0.452-30.753c-0.185-2.882-0.12-6.64-2.262-8.593
		C204.389,206.511,202.117,226.906,202.889,235.56z M200.175,237.369c2.271-10.413,1.19-24.83,0.904-36.18
		c-0.1-0.352-0.379-0.526-0.904-0.452C200.997,211.928,200.815,227.568,200.175,237.369z M202.889,244.604
		c0.102-1.992,1.2-4.193,0-8.141c0.595,1.956-0.544,4.65-0.453,3.618c-1.124,12.656-1.557,30.949-3.617,43.416
		c0.077,0.677-0.162,1.669,0.452,1.81C200.856,273.155,202.358,254.971,202.889,244.604z M198.819,259.529
		c1.826-5.013,2.181-16.135,1.356-20.804C200.151,246.088,199.402,252.726,198.819,259.529z M197.461,292.542
		c0-1.206,0-2.412,0-3.618C190.318,281.838,189.541,298.644,197.461,292.542z"/>
	<path fill-rule="evenodd" clip-rule="evenodd" d="M201.08,196.214c2.142,1.953,2.077,5.711,2.262,8.593
		c0.632,9.901,0.009,21.503-0.452,30.753C202.117,226.906,204.389,206.511,201.08,196.214z"/>
	<path fill-rule="evenodd" clip-rule="evenodd" fill="#A99A6F" d="M68.571,231.941c1.743,5.892,7.686,11.237,11.306,16.733
		c-2.987-5.455-6.842-10.042-10.401-14.924c12.004,13.473,23.728,31.144,34.823,47.034c7.413,5.77,12.997-4.448,18.09-11.307
		c4.068-5.479,7.448-11.319,10.402-14.472c1.595,0.968,0.649,4.476,0.904,6.784c0.602-1.334,1.003-10.03,0-7.236
		c-0.48-0.805,1.552-2.953,2.261-4.07c1.307,0.201-0.401,3.417,0.905,3.618c0.932-1.707-1.126-6.082,2.261-7.236
		c0.979,4.447,0.206,10.648,0.452,15.829c1.08-7.501,0.525-12.28,0.452-18.542c9.496-10.554,15.933-24.167,26.23-33.919
		c0.461,37.315,0.198,70.07,0,112.158c-35.314,0.63-75.831-0.793-98.59,0c-6.3,0.22-11.506,0.416-15.829,0.452
		c5.88,1.054,13.717,0.152,20.351,0.452c0.808-0.127,0.928,0.428,0.452,0.452c-6.584-0.064-12.515,0.292-19.447,0.452
		c-2.108-0.396,0.623,1.174-0.904,1.357c-4.786-3.376-3.304-20.168-3.618-28.492c-1.256-33.259,0.455-56.865-0.904-89.997
		c3.555,2.531,6.883,7.108,9.949,11.306c3.188,4.364,6.15,8.982,9.045,13.115C67.537,231.412,68.541,234.054,68.571,231.941z
		 M143.644,258.172c-1.061-4.852,0.899-9.927-1.356-16.281C143.625,244.976,141.46,254.526,143.644,258.172z M164.448,218.374
		c0.302,0,0.603,0,0.904,0c0-1.206,0-2.412,0-3.618c-0.302,0-0.603,0-0.904,0C164.448,215.962,164.448,217.168,164.448,218.374z
		 M162.186,245.961c2.102-7.999,0.309-19.893,0.904-29.396c-0.095-0.507-0.501-0.704-0.904-0.904
		C162.226,226.645,162.212,234.911,162.186,245.961z M159.925,249.127c0,1.658,0,3.316,0,4.975c0,0.754,0,1.508,0,2.261
		c-0.374,1.072,0.638,2.083,0.452,0.452c-0.208-14.067,0.635-24.297-0.452-37.989C159.815,227.64,159.966,238.318,159.925,249.127z
		 M164.9,226.515c0.399-3.101,0.01-4.122,0.452-6.784C163.92,220.511,164.309,224.455,164.9,226.515z M157.664,250.484
		c0.498-9.597,0.364-17.071-0.452-28.04C156.9,230.71,156.909,240.194,157.664,250.484z M154.499,236.464
		c1.476-1.983,1.337-7.32,0-9.045C154.503,231.408,154.695,232.779,154.499,236.464z M152.237,250.031
		c0.431-5.148,1.175-17.22-0.452-20.351C152.085,236.314,151.183,244.151,152.237,250.031z M148.619,242.795
		c0.302,0,0.604,0,0.904,0c0-2.412,0-4.824,0-7.236C147.527,236.276,149.139,240.603,148.619,242.795z M165.352,238.273
		c-0.273-0.932,0.729-3.142-0.904-2.713C164.721,236.492,163.717,238.701,165.352,238.273z M155.403,240.986
		c-0.406-1.251,0.929-4.246-0.904-4.07C154.905,238.168,153.569,241.162,155.403,240.986z M164.448,278.523
		c1.4-10.08,1.483-28.771,0-39.798C164.296,253.609,164.761,266.508,164.448,278.523z M155.403,244.604
		c-0.273-0.932,0.729-3.142-0.904-2.713C154.505,243.09,154.248,244.554,155.403,244.604z M146.358,250.031
		c-0.294-2.269,0.593-5.718-0.452-7.236C145.49,245.258,145.577,247.055,146.358,250.031z M149.523,247.318
		c-0.194-1.463,0.596-3.912-0.904-4.07C149.025,244.5,147.69,247.493,149.523,247.318z M154.951,256.363
		c0.452-3.6,1.178-9.133-0.452-11.306C154.796,248.678,153.9,253.494,154.951,256.363z M163.09,258.624
		c-0.568-3.803,1.16-9.903-0.904-12.21C162.705,250.267,161.097,256.247,163.09,258.624z M145.906,254.554
		c0.747-0.343,0.747-3.727,0-4.07C145.23,251.212,146.295,252.751,145.906,254.554z M152.689,257.268
		c-0.95-2.327,0.821-5.366-0.904-6.784C152.296,252.535,150.705,256.689,152.689,257.268z M158.116,256.815
		c-0.892-0.785,0.058-5.759-0.904-4.975C157.667,253.345,156.211,256.76,158.116,256.815z M89.827,261.79
		c-2.678-2.146-3.584-6.064-6.332-8.141C84.98,256.69,87.627,260.969,89.827,261.79z M158.116,267.217
		c-0.875-2.729,0.677-6.648-0.904-9.498C157.667,260.438,156.21,267.455,158.116,267.217z M160.377,260.885
		c-0.261-0.795,0.547-2.657-0.452-2.713C159.303,258.752,159.138,260.876,160.377,260.885z M155.403,270.834
		c-0.508-3.562,1.073-9.213-0.904-11.306C155.062,263.035,153.345,268.822,155.403,270.834z M162.186,288.472
		c1.441-5.939,1.552-21.551,0-28.943C162.595,268.613,162,276.884,162.186,288.472z M160.377,269.026
		c-0.294-2.269,0.593-5.718-0.452-7.236C159.836,263.269,159.458,268.391,160.377,269.026z M122.388,271.288
		c1.455-2.812,6.051-7.155,5.428-9.045C126.747,265.699,122.474,268.353,122.388,271.288z M134.147,269.478
		c0.051-2.263,0.438-6.207-0.452-6.784C133.988,264.813,133.103,268.11,134.147,269.478z M152.689,276.714
		c-0.563-3.507,1.153-9.294-0.904-11.307C152.486,269.472,150.662,273.666,152.689,276.714z M160.377,274.905
		c-0.167-1.216,0.414-5.505-0.452-4.522C160.092,271.598,159.51,275.888,160.377,274.905z M155.403,284.855
		c-0.646-4.634,1.01-9.421-0.904-12.211C155.067,276.447,153.338,282.547,155.403,284.855z M157.664,275.81
		c0.319-1.12,0.699-2.69-0.452-3.166C157.481,273.581,156.653,275.615,157.664,275.81z M111.987,283.95
		c2.724-2.254,6.109-6.247,6.783-9.045C117.304,278.417,112.778,281.27,111.987,283.95z M164.9,285.307
		c0.469-1.943,0.318-4.75-0.452-5.428C164.736,281.551,163.862,284.385,164.9,285.307z M160.377,292.995
		c-0.272-3.652,0.562-10.807-0.452-12.21C160.182,285.284,159.071,290.197,160.377,292.995z M164.9,299.327
		c0.191-1.555,0.455-2.726-0.452-4.07C164.728,296.484,163.874,298.845,164.9,299.327z M162.638,300.683
		c-0.294-0.966,1.188-4.338-0.452-4.975C162.473,297.231,161.604,299.909,162.638,300.683z M164.9,309.728
		c0.153-1.995,0.898-5.724-0.452-7.688C164.743,304.458,163.854,308.061,164.9,309.728z"/>
	<path fill-rule="evenodd" clip-rule="evenodd" fill="#A99A6F" d="M68.119,231.489c-3.455-3.479-5.974-7.895-9.045-11.758
		C62.377,221.555,65.463,227.51,68.119,231.489z"/>
	<path fill-rule="evenodd" clip-rule="evenodd" fill="#A99A6F" d="M59.074,218.826c-2.232-1.084-2.874-3.759-4.522-5.427
		C55.985,213.484,57.954,216.924,59.074,218.826z"/>
	<path fill-rule="evenodd" clip-rule="evenodd" fill="#A99A6F" d="M126.006,236.464c-1.825,11.285-19.278,18.161-28.944,9.498
		c-0.53,0.073-0.381,0.824-0.452,1.356c-15.208-11.79-5.813-38.014,14.924-35.275c12.743,1.683,21.367,17.851,13.115,30.301
		C124.05,241.123,126.948,239.529,126.006,236.464z M111.987,237.369c4.368-4.864,0.132-12.641-5.879-10.854
		c-5.091,1.513-3.648,9.381,0.905,11.306c1.567,0.332,4.289-0.494,4.522,0c-2.809,2.33-6.036-0.255-8.593-0.904
		c0.758,1.467,1.155,1.459-0.452,2.261c3.212,3.081,12.341,2.392,13.115-2.261c-1.779,1.98-7.012,4.854-10.402,2.261
		c3.936,1.492,9.646-1.072,9.044-4.07C113.671,236.038,113.527,237.401,111.987,237.369z M96.61,242.795
		c5.848,11.601,29.207,3.767,26.683-7.236C122.737,247.759,103.876,251.47,96.61,242.795z M106.56,242.795
		c-2.573-0.357-4.264-3.259-5.879-1.809c4.637,4.979,17.706,2.371,17.185-4.07C116.01,240.701,111.774,243.52,106.56,242.795z
		 M109.725,245.509c-4.468,0.338-7.479-2.229-10.854-2.713c4.742,5.294,16.659,3.996,20.352-1.356
		c-0.052-0.552-0.136-1.071-0.905-0.905C116.756,243.193,112.981,245.263,109.725,245.509z"/>
	<path fill-rule="evenodd" clip-rule="evenodd" d="M165.352,219.731c-0.442,2.662-0.053,3.683-0.452,6.784
		C164.309,224.455,163.92,220.511,165.352,219.731z"/>
	<path fill-rule="evenodd" clip-rule="evenodd" d="M114.248,235.107c0.602,2.998-5.109,5.562-9.044,4.07
		c3.39,2.593,8.623-0.281,10.402-2.261c-0.774,4.652-9.903,5.342-13.115,2.261c1.607-0.802,1.21-0.794,0.452-2.261
		c2.557,0.649,5.784,3.234,8.593,0.904c-0.233-0.494-2.955,0.332-4.522,0c-4.553-1.925-5.996-9.793-0.905-11.306
		c6.011-1.787,10.248,5.99,5.879,10.854C113.527,237.401,113.671,236.038,114.248,235.107z M106.56,235.107
		c1.348-1.631,4.411-3.056,3.166-5.879c1.125-0.07,1.4,0.71,2.262,0.904C109.299,222.775,99.419,232.509,106.56,235.107z"/>
	<path fill-rule="evenodd" clip-rule="evenodd" d="M199.271,285.307c-0.614-0.141-0.375-1.133-0.452-1.81
		c2.061-12.467,2.493-30.76,3.617-43.416c-0.091,1.032,1.048-1.663,0.453-3.618c1.2,3.948,0.102,6.149,0,8.141
		C202.358,254.971,200.856,273.155,199.271,285.307z"/>
	<path fill-rule="evenodd" clip-rule="evenodd" d="M164.448,238.725c1.483,11.026,1.4,29.718,0,39.798
		C164.761,266.508,164.296,253.609,164.448,238.725z"/>
	<path fill-rule="evenodd" clip-rule="evenodd" fill="#A99A6F" d="M124.198,242.795c-1.035,2.433-3.115,3.819-4.975,5.427
		C119.583,246.916,122.571,244.342,124.198,242.795z"/>
	<path fill-rule="evenodd" clip-rule="evenodd" fill="#A99A6F" d="M113.343,250.031c1.396,0.453-0.98,0.746-0.904,1.357
		C105.878,251.361,110.757,251.153,113.343,250.031z"/>
	<path fill-rule="evenodd" clip-rule="evenodd" d="M83.495,253.649c2.748,2.076,3.654,5.994,6.332,8.141
		C87.627,260.969,84.98,256.69,83.495,253.649z"/>
	<path fill-rule="evenodd" clip-rule="evenodd" d="M127.816,262.242c0.623,1.891-3.973,6.233-5.428,9.045
		C122.474,268.353,126.747,265.699,127.816,262.242z"/>
	<path fill-rule="evenodd" clip-rule="evenodd" d="M118.77,274.905c-0.674,2.798-4.06,6.791-6.783,9.045
		C112.778,281.27,117.304,278.417,118.77,274.905z"/>
	<path fill-rule="evenodd" clip-rule="evenodd" fill="#A99A6F" d="M35.104,313.798c-0.96,6.933-0.373,10.634-1.357,17.638
		C33.449,326.612,33.493,318.219,35.104,313.798z"/>
	<path fill-rule="evenodd" clip-rule="evenodd" fill="#A99A6F" d="M95.706,361.737c0.47,0.287,0.461,2.539,0.453,4.522
		C94.42,366.371,95.294,362.375,95.706,361.737z"/>
	<path fill-rule="evenodd" clip-rule="evenodd" fill="#A99A6F" d="M133.695,483.391c-0.673,6.098,0.208,10.396-0.904,17.639
		c-3.592-1.501,0.218-11.591-1.81-15.829c-1.353,4.074,0.448,11.302-0.904,15.376c-0.302,0-0.603,0-0.904,0
		c-2.046-3.514,0.084-9.333-0.904-14.02c-1.459,3.183,0.304,10.505-0.905,14.02c-3.061-1.853-0.573-8.691-0.904-12.21
		c-2.405,2.465,0.444,10.877-1.809,12.21c-2.342-1.275,0.247-7.483-1.356-9.497c-1.05,2.268-0.156,6.478-0.453,9.497
		c-2.853-1.141,0.205-5.761-2.261-6.783C123.643,489.017,126.721,484.257,133.695,483.391z"/>
	<path fill-rule="evenodd" clip-rule="evenodd" d="M76.259,89.483c23.599-0.044,45.318,1.914,68.289,0.904
		c4.005-0.176,8.667-1.916,12.211,0.905c-10.595,2.06-28.502,0.337-42.059,0.904c7.388,1.054,16.732,0.151,24.873,0.452
		c-7.276,1.857-15.014,0.167-23.969,0.452c1.533,9.793,0.049,25.062,0.904,37.537c6.838,0.194,10.28-0.262,15.376,0.453
		c0.527,4.641,1.24,13.267-0.452,17.185c-11.241,0.097-29.677-0.069-43.868,0c-1.476-4.093,0.486-11.97-0.905-17.185
		c4.486-0.764,9.873,0.911,14.924-0.905c0.814-10.957-1.06-23.204,0-32.562c0.188-1.664-0.08-3,1.357-4.07
		c-14.476-0.871-29.328,0.041-43.416,0c-1.128-4.239,6.954-2.55,3.618-4.975c2.898-0.417,7.581,0.948,9.045-0.904
		c25.333,2.103,54.565,0.307,81.404,0.904c2.617-0.242,1.567,0.808-0.452,0.452C128.689,89.166,100.393,88.801,76.259,89.483z
		 M105.655,92.197c-1.97,0.292-5.112-0.59-6.332,0.452C101.293,92.357,104.436,93.239,105.655,92.197z M101.585,131.995
		c-4.292,0.532-10.757-1.109-13.567,0.904c3.327,0.784,6.888-0.284,11.306,0.905c-3.166,0-6.332,0-9.497,0
		c0.496,3.273,0.523,7.014,0.452,10.854c12.512,0,25.024,0,37.537,0c-0.589-2.879-0.468-6.467-0.453-9.95
		c-2.455-2.067-9.102,0.058-12.21-1.356c3.523-1.602,11.249,0.998,14.02-1.357c-4.522,0-9.045,0-13.567,0
		c-1.603-0.357-1.136-2.784-2.714-3.166c-1.032,2.711,1.847,3.856,0.904,4.975c-1-0.357-1.132-1.582-1.809-2.261
		c0.663-10.472-1.056-26.889,0.904-36.18c-3.798,0.181-7.085-0.15-10.401-0.452C102.674,107.188,103.334,117.818,101.585,131.995z
		 M96.61,146.014c11.379-0.359,18.465,1.172,29.396,0C117.549,145.263,103.56,145.263,96.61,146.014z"/>
	<path fill-rule="evenodd" clip-rule="evenodd" fill="#A99A6F" d="M174.849,99.433c1.481,8.059,0.812,12.535,0,20.804
		c-0.909,0.673-3.976,0.494-6.783,0.452c-1.843-0.028-6.413,0.086-3.618-0.452c3.817,0.35,6.326-0.608,9.949-0.453
		c0.035-4.206,0.108-11.241-0.452-15.376c-1.044,1.368-0.159,4.665-0.452,6.784c-3.618,0-7.236,0-10.854,0
		c-0.711-2.913-0.783-8.857,0-11.759C165.727,98.69,171.76,98.69,174.849,99.433z"/>
	<path fill-rule="evenodd" clip-rule="evenodd" fill="#EE3224" d="M86.661,112.096c-1.027-0.33-1.353-1.361-1.809-2.261
		c-0.822,0.535-0.355,2.358-0.905,3.166c-2.285,2.382-6.834,0.203-8.593,1.357C70.941,105.05,87.843,102.081,86.661,112.096z"/>
	<path fill-rule="evenodd" clip-rule="evenodd" d="M81.234,119.784c-1.504-2.252-2.708-0.885-4.07-1.809
		c-3.463-2.349-4.905-8.322-1.809-11.759c5.296-5.879,16.252,1.278,11.306,9.498C85.408,117.796,82.671,117.133,81.234,119.784z
		 M75.354,114.357c1.759-1.154,6.308,1.025,8.593-1.357c0.549-0.808,0.083-2.631,0.905-3.166c0.456,0.9,0.782,1.932,1.809,2.261
		C87.843,102.081,70.941,105.05,75.354,114.357z"/>
	<path fill-rule="evenodd" clip-rule="evenodd" fill="#A99A6F" d="M159.473,156.868c-24.687,0.861-71.71,0.35-101.304,0.452
		c1.103-21.479-1.014-38.956,0.452-66.48c13.116-12.147,35.189-9.959,56.983-9.949c16.977,0.007,33.119,0.25,42.964,9.497
		C160.715,111.264,158.903,134.34,159.473,156.868z M153.141,89.031c2.02,0.355,3.069-0.694,0.452-0.452
		c-26.839-0.597-56.071,1.199-81.404-0.904c-1.464,1.853-6.146,0.487-9.045,0.904c3.336,2.425-4.746,0.736-3.618,4.975
		c14.088,0.041,28.94-0.871,43.416,0c-1.437,1.07-1.168,2.406-1.357,4.07c-1.06,9.358,0.814,21.605,0,32.562
		c-5.052,1.816-10.438,0.141-14.924,0.905c1.391,5.215-0.571,13.092,0.905,17.185c14.191-0.069,32.626,0.097,43.868,0
		c1.692-3.918,0.979-12.544,0.452-17.185c-5.096-0.715-8.538-0.259-15.376-0.453c-0.855-12.474,0.629-27.743-0.904-37.537
		c8.955-0.286,16.692,1.405,23.969-0.452c-8.141-0.301-17.485,0.602-24.873-0.452c13.557-0.567,31.464,1.156,42.059-0.904
		c-3.544-2.82-8.206-1.081-12.211-0.905c-22.971,1.01-44.69-0.949-68.289-0.904C100.393,88.801,128.689,89.166,153.141,89.031z
		 M158.116,123.854c0.315-7.367-0.183-20.163,0-31.205c-0.1-0.353-0.378-0.526-0.904-0.452
		C158.125,100.715,157.029,113.23,158.116,123.854z M140.026,93.554c4.676-0.3,10.55,0.6,14.473-0.453
		C149.675,93.246,145.318,91.691,140.026,93.554z M72.189,101.694c0.142,0.612,0.644,0.864,0.452,1.809
		c2.201,1.278,4.841-0.631,7.688-0.904c3.239-0.311,6.594,1.022,8.592,0C88.021,94.957,74.594,96.628,72.189,101.694z
		 M128.268,103.503c2.309,2.417,5.793-0.315,9.045-0.452c3.682-0.155,8.655,3.503,9.497-0.452
		C144.063,97.715,129.614,96.252,128.268,103.503z M86.661,115.714c4.946-8.22-6.01-15.376-11.306-9.498
		c-3.096,3.437-1.654,9.41,1.809,11.759c1.362,0.923,2.566-0.443,4.07,1.809C82.671,117.133,85.408,117.796,86.661,115.714z
		 M139.122,119.332c1.578-0.365,4.615-2.969,4.975-5.879c0.787-6.369-4.56-8.476-8.141-7.688
		C125.409,108.083,130.775,121.264,139.122,119.332z M158.569,129.733c-0.023-1.512-0.337-6.988-0.905-4.07
		c-1.602,8.228,0.938,20.854,0.452,29.849C158.825,148.812,158.665,136.085,158.569,129.733z"/>
	<path fill-rule="evenodd" clip-rule="evenodd" fill="#A99A6F" d="M171.683,196.214c-1.968,0.451-4.056,4.682-5.879,6.784
		c-1.026-0.481-0.172-2.843-0.452-4.07c-2.103,0.46,0.079,5.205-1.356,6.332c-1.784,0.276-0.532-2.483-0.905-3.618
		c-2.257,1.223,1.32,6.561-2.261,7.236c-0.852-1.703,0.918-6.371-0.452-8.593c-1.505,2.867,0.841,9.584-1.356,11.758
		c-2.025-1.14-0.364-5.968-0.905-8.593c-2.826,3.325,1.847,9.891-2.261,12.211c-1.027-4.4-0.172-10.683-0.452-15.829
		c-3.2,2.801,2.364,16.472-2.714,19.899c-0.036-7.894,0.051-18.016,0-24.421c-1.555,2.625-0.904,8.491-0.904,14.02
		c0,5.283,1.347,11.857-1.809,14.02c0-9.497,0-18.994,0-28.492c-1.549,8.262-1.368,22.016,0,29.396
		c-1.161,0.95-0.989,3.232-3.166,3.166c0.243-14.662,0.338-27.342,0-43.868c-0.89,12.696-0.428,27.003-0.452,38.441
		c-0.008,3.304,0.999,7.992-2.262,9.497c0.123-21.645-0.143-38.589-0.452-53.365c-0.023,14.529-1.495,37.188-0.452,51.556
		c0.197,2.72,0.998,5.203-2.262,6.332c-0.301-9.196,0.603-19.597-0.452-28.04c-0.816,5.024-0.452,11.81-0.452,18.09
		c0,5.77,1.718,12.021-1.809,13.568c0.026-25.215,0.089-47.35-0.452-69.194c-0.791,25.121-0.604,47.555,0,71.003
		c-1.709,1.396-2.863,5.457-4.975,4.975c-0.199-4.759,0.53-10.962,0-14.472c-1.945,5.542,1.412,13.672-1.81,17.638
		c0.036-5.491-0.17-8.561,0-13.567c0.703-1.607-1.536-0.273-1.356-1.357c-0.667-15.068-9.285-24.887-22.612-23.969
		c-16.443,1.132-24.714,21.216-14.472,35.275c5.101,7.002,17.235,10.84,27.135,4.975c0,0.753,0,1.507,0,2.261
		c1.817,0.008-0.009-3.626,1.809-3.618c2.129,0.744-0.372,3.268,0.904,4.07c1.764-1.916-0.677-5.173,1.81-7.236
		c1.903-0.697,0.071,2.34,1.356,2.261c1.31-1.404-0.797-6.224,2.262-5.879c0.704,4.492-1.242,9.418,1.356,10.402
		c-5.863,8.156-11.546,16.494-17.638,24.421c0.073,0.53,0.824,0.382,1.356,0.452c-1.181,2.084-6.267,0.617-7.236,0.904
		c-29.466-38.797-58.495-78.981-86.379-118.037c2.808-1.906,10.873-0.604,13.115-0.452c0,1.658,0,3.316,0,4.975
		c2.053-0.497,0.11-4.811,0.904-5.427c2.306,2.075,3.033-0.586,6.784,0c0.361,3.688-0.43,10.187,0.453,13.115
		c1.812-3.163-1.455-11.405,1.809-13.115c0.97,2.045,0.213,5.816,0.453,8.592c1.673-1.699-0.053-6.998,1.356-8.592
		c3.19,0.173,0.87,2.55,1.357,5.427c2.457-0.106-0.784-5.91,2.261-5.427c1.481,2.833-0.536,11.61,0.904,15.829
		c1.851-4.029-1.508-13.267,1.809-15.829c0.89,1.22,0.269,3.952,0.452,5.879c2.177-0.234-0.069-4.894,1.357-5.879
		c1.985,2.172,0.864,5.533,0.904,8.14c0.115,7.382,0.152,14.362,0.453,22.16c1.299-9.778-0.341-21.418,0.904-30.3
		c24.465,0.184,36.787,0.095,61.054,0c0,2.11,0,4.221,0,6.332c1.251-1.161-0.314-5.138,0.904-6.332c2.562,0,5.125,0,7.688,0
		c0,6.482,0,12.964,0,19.447c1.532-5.562-0.045-10.702,0.452-18.995c0.855-0.802,2.987-0.33,4.522-0.452
		c-0.13,11.19,0.198,22.101,0.452,28.492c1.221-7.62,0.046-18.877,0.452-28.492c25.062,0.163,45.289-0.69,68.742-0.453
		c-21.551,31.814-44.743,61.988-67.386,92.711c-0.025,1.482-1.286,1.729-0.904,3.618c-6.281,5.326-9.998,13.217-15.376,19.446
		c3.798-6.886,8.388-13.79,13.115-20.351C142.209,235.657,157.265,215.486,171.683,196.214z M121.484,169.983
		c0.751-2.665,0.822-8.063-0.452-9.045C121.085,162.374,120.602,167.904,121.484,169.983z M118.77,168.626
		c0.168-2.017,0.702-5.276-0.452-7.236C118.612,163.66,117.725,167.109,118.77,168.626z M127.816,184.456
		c-1.613-6.528,1.015-17.297-1.357-23.065C127.292,170.18,125.574,176.284,127.816,184.456z M132.791,198.927
		c-0.538-7.653,0.146-25.019-0.905-37.537C132.158,170.635,130.909,187.97,132.791,198.927z M35.104,167.722
		c0.421-0.863,1.303-5.314-0.452-5.427C34.941,163.966,34.067,166.8,35.104,167.722z M178.467,186.717
		c5.115-7.699,12.461-15.578,16.281-23.065C189.703,171.42,182.305,179.247,178.467,186.717z M134.147,166.818
		c0.467,23.893-0.529,37.176,0.904,54.27c0.369-15.101-0.192-34.112,0-55.174c-0.1-0.352-0.379-0.525-0.904-0.452
		C134.147,165.913,134.147,166.366,134.147,166.818z M38.27,169.531c-0.275-1.082,0.568-3.281-0.452-3.618
		C37.886,167.312,36.745,168.717,38.27,169.531z M55.456,198.475c1.572-10.111,1.301-24.717,0.452-32.562
		C55.708,177.728,56.047,186.407,55.456,198.475z M45.506,173.602c1.712-0.561,0.971-5.947,0.452-7.236
		C45.201,168.691,45.771,170.313,45.506,173.602z M51.838,180.837c-0.388-5.253,0.819-11.637-0.905-14.472
		C51.511,170.913,49.761,177.789,51.838,180.837z M43.245,178.124c0.385-3.101,0.682-5.478-0.452-8.593
		C43.089,172.25,42.197,176.157,43.245,178.124z M140.93,187.621c0.384-5.407-0.651-11.433,0-14.472
		C139.435,176.904,139.542,184.162,140.93,187.621z M58.622,201.188c0.556-8.911,1.137-19.869-0.452-26.23
		C58.512,183.333,57.509,195.044,58.622,201.188z M60.431,201.641c1.657-3.259,1.127-11.649,0.452-14.472
		C60.652,192.89,61.268,197.035,60.431,201.641z M171.683,195.31c2.079-1.891,6.063-6.532,5.428-8.141
		C175.768,190.349,173.372,192.475,171.683,195.31z M140.026,198.475c1.492-1.305,1.492-8.645,0-9.949
		C140.151,192.798,140.375,194.035,140.026,198.475z M63.596,201.188c-0.528-2.336,1.104-6.832-0.904-7.688
		C63.22,195.836,61.588,200.332,63.596,201.188z M140.93,207.068c-0.527-2.336,1.104-6.832-0.904-7.688
		C140.554,201.716,138.923,206.211,140.93,207.068z M135.051,243.248c-0.424-7.497,1.335-12.132-0.452-15.829
		C135.296,234.147,133.156,239.998,135.051,243.248z M126.006,253.649c-0.434-1.375,0.969-4.586-0.904-4.522
		C126.142,250.887,124.188,252.829,126.006,253.649z"/>
	<path fill-rule="evenodd" clip-rule="evenodd" fill="#A99A6F" d="M42.34,205.711c1.254-2.134-0.159-6.997,0.453-8.593
		c5.031,6.591,3.166,20.607,3.166,33.467c0,16.787-1.094,32.941-4.975,48.842c-1.718,7.037-4.3,16.304-7.688,19.447
		c-6.948,6.447-17.323,1.457-21.255-5.88c-5.409-10.092-7.008-27.35-8.593-42.511c-1.669-15.96-2.888-30.323-1.809-45.225
		c1.098-15.161,15.837-24.728,28.492-25.326c4.938,4.409,7.816,10.876,12.21,15.829C41.534,198.198,41.702,203.246,42.34,205.711z
		 M35.557,198.927c-0.062-0.842-0.297-1.511-0.904-1.809c0.26,35.784-0.173,68.296-6.332,99.042
		c1.803-1.056,1.295,0.535,1.357,2.262c1.746-0.091,1.216-2.133,3.166-0.905c6.855-29.784,9.292-71.939,6.784-102.208
		c-0.847,3.962,0.695,5.477-0.904,8.14c-0.266-3.653,0.458-8.297-2.261-9.497C36.352,195.802,36.902,198.312,35.557,198.927z
		 M32.391,248.675c0.934-15.197,1.457-33.215,0.452-48.843C32.454,212.738,32.038,233.286,32.391,248.675z M39.627,264.051
		c2.931-15.524,4.244-38.297,2.261-57.436C42.647,222.464,41.536,245.927,39.627,264.051z M27.869,288.472
		c-0.386-1.312-2.603-3.128-4.975-1.809C16.005,292.241,30.125,296.144,27.869,288.472z"/>
	<path fill-rule="evenodd" clip-rule="evenodd" d="M36.461,193.953c2.719,1.2,1.995,5.844,2.261,9.497
		c1.6-2.663,0.057-4.178,0.904-8.14c2.508,30.268,0.072,72.423-6.784,102.208c-1.95-1.228-1.42,0.814-3.166,0.905
		c-0.062-1.727,0.446-3.317-1.357-2.262c6.158-30.747,6.592-63.259,6.332-99.042c0.607,0.298,0.842,0.967,0.904,1.809
		C36.902,198.312,36.352,195.802,36.461,193.953z M36.009,206.616c0.873-0.926,0.306-2.964-0.453-3.618
		C35.832,204.079,34.989,206.279,36.009,206.616z M39.175,213.852c-0.123-0.968,0.35-4.825-0.452-3.618
		C38.845,211.202,38.373,215.058,39.175,213.852z M35.104,251.84c1.241-14.877,1.438-24.68,1.357-41.154
		c-0.1-0.353-0.379-0.526-0.905-0.453C36.016,225.937,34.409,239.66,35.104,251.84z M39.175,222.444
		c-0.003-2.569,0.491-6.481-0.452-7.236C38.88,217.135,38.322,224.182,39.175,222.444z M38.27,236.917
		c1.798-2.024,0.898-11.392,0.453-12.663C38.681,229.469,38.773,232.866,38.27,236.917z M38.723,243.248
		c-0.155-2.073,0.823-4.926-0.453-5.879C38.561,239.189,37.682,242.177,38.723,243.248z M37.818,255.458
		c0.415-2.965,1.486-9.884,0.452-11.306C38.054,247.56,37.383,252.906,37.818,255.458z M30.582,292.542
		c2.965-13.257,4.279-26.659,4.07-40.25C33.843,265.956,31.185,280.18,30.582,292.542z M37.366,264.503
		c-0.818-1.982,1.584-4.689-0.452-4.975C37.573,261.669,35.567,263.98,37.366,264.503z M35.104,280.785
		c0.511-3.264,2.156-7.787,0.905-11.307C36.05,273.293,34.465,277.876,35.104,280.785z"/>
	<path fill-rule="evenodd" clip-rule="evenodd" d="M205.602,207.068c0.651-5.648-0.269-10.864-2.713-14.924
		c3.743,4.095,5.059,10.619,5.427,18.09c1.682-3.464-0.451-9.798-1.357-13.567c2.682,3.349,2.642,9.419,2.714,15.376
		c0.082,1.734-0.37,0.164-1.356,0.452c0.535,4.595,0.169,6.632,0,11.307c2.336-0.902,0.171-6.83,0.904-10.402
		c1.657,25.284-0.295,61.016-7.688,84.118c-2.291-0.648-1.311-1.78-3.166,0c2.52-15.912,4.591-34.049,5.428-52.46
		c0.799-17.593,3.197-38.483-2.714-52.461C204.653,195.275,205.183,202.654,205.602,207.068z M205.15,245.961
		c1.202-12.876,2.197-22.504,0.452-34.371C206.177,223.784,204.478,236.396,205.15,245.961z M207.864,238.725
		c1.666-2.667,1.165-8.685,0.452-11.306C208.114,231.136,208.781,235.723,207.864,238.725z M206.054,272.644
		c1.2-10.683,2.344-20.034,2.714-33.014c-0.1-0.353-0.379-0.526-0.904-0.453C207.533,250.018,205.775,261.642,206.054,272.644z"/>
	<path fill-rule="evenodd" clip-rule="evenodd" fill="#EE3224" d="M111.987,230.132c-0.861-0.194-1.137-0.974-2.262-0.904
		c1.245,2.823-1.817,4.248-3.166,5.879C99.419,232.509,109.299,222.775,111.987,230.132z"/>
	<path fill-rule="evenodd" clip-rule="evenodd" fill="#A99A6F" d="M22.441,290.734C24.892,281.359,29.963,295.853,22.441,290.734
		L22.441,290.734z"/>
	<path fill-rule="evenodd" clip-rule="evenodd" fill="#A99A6F" d="M196.557,290.734c0.278,2.022-2.84,2.257-4.07,1.356
		C190.522,288.914,196.281,286.859,196.557,290.734z"/>
	<path fill-rule="evenodd" clip-rule="evenodd" fill="#A99A6F" d="M7.518,304.301c7.387,0,14.773,0,22.16,0
		c0.445,3.362-0.272,10.439,0,16.281c1.373-4.507,0.327-11.432,1.356-16.281c1.642,16.638-1.423,37.552-1.356,54.27
		c-5.104,0.634-12.034,1.771-17.186,1.81c-2.959-15.718-3.23-35.48-4.975-54.723C7.518,305.206,7.518,304.753,7.518,304.301z"/>
	<path fill-rule="evenodd" clip-rule="evenodd" fill="#A99A6F" d="M198.366,304.301c0.337,8.778-0.53,16.354-0.452,24.874
		c2.238-7.808-0.363-17.852,2.262-24.874c1.598,5.844-0.175,16.087,0,23.517c1.02-2.379,1.143-7.623,1.356-12.21
		c0.188-4.011-1.2-8.717,1.357-11.307c-0.55,17.34-0.346,35.608-1.81,54.27c-2.42-9.018,0.331-17.917-0.452-28.039
		c-1.555,8.889-0.092,18.664-1.809,28.039c-2.408-2.341-0.609-9.851-0.453-13.115c0.196-4.096-0.179-8.611,0-14.02
		c-1.352,9.476-0.854,18.682-1.356,27.135c-7.728-0.953-11.408,2.83-17.638,0.904c-1.582-16.498-2.987-37.821-4.07-54.722
		C182.099,303.712,190.819,304.592,198.366,304.301z"/>
	<path fill-rule="evenodd" clip-rule="evenodd" fill="#A99A6F" d="M88.47,328.723c0,8.894,0,17.788,0,26.683
		c1.65-7.697-1.044-19.737,1.357-26.683c3.3,1.33,1.809,5.895,1.809,8.14c0,43.867,0.503,77.573,0.904,130.248
		c-10.749-0.058-20.524,0.109-30.301,0c-2.551-40.598-1.22-93.141-2.261-137.936c-0.02-0.774,0.336-1.172,0.905-1.357
		C70.034,328.165,80.712,326.983,88.47,328.723z M88.922,361.285c-0.166-2.157,0.974-3.279-0.452-4.522
		C88.753,358.136,87.891,360.658,88.922,361.285z M88.922,366.711c0.452-1.24,0.206-4.799-0.452-4.522
		C88.753,363.564,87.891,366.084,88.922,366.711z M88.922,377.566c0.345-1.206,0.284-5.325-0.452-5.88
		C88.76,373.506,87.882,376.496,88.922,377.566z M89.375,385.253c-0.628-1.114,0.057-4.559-0.905-4.522
		C88.903,382.107,87.501,385.318,89.375,385.253z M89.375,394.298c-0.974-1.615,0.846-4.163-0.905-5.427
		C88.943,390.509,87.444,394.119,89.375,394.298z"/>
	<path fill-rule="evenodd" clip-rule="evenodd" fill="#A99A6F" d="M119.675,327.366c7.656,0.827,13.164-0.31,23.517,0.452
		c0.712,20.72,0.22,45.497,0.452,73.265c0.838-18.841,0.452-43.505,0.452-65.124c0-2.586-1.125-6.367,1.357-8.141
		c1.861,47.45,0.812,96.07,1.809,139.293c-9.497,0-18.994,0-28.492,0c-0.628-32.979-0.904-64.73-0.904-102.66
		c0-11.585-0.376-25.087,0.452-36.181C118.65,327.848,119.14,327.585,119.675,327.366z M144.096,408.319
		c0.786-0.84,0.583-3.241-0.452-3.618C143.919,405.782,143.077,407.982,144.096,408.319z M144.548,411.484
		c-0.007-1.199,0.251-2.663-0.904-2.713C143.917,409.703,142.915,411.913,144.548,411.484z"/>
	<path fill-rule="evenodd" clip-rule="evenodd" fill="#A99A6F" d="M84.399,489.271c-1.561,1.574,1.282,9.926-1.809,11.306
		c-2.185-4.845-0.17-10.767-0.453-14.924c-2.234,4.215,0.072,12.406-1.809,14.924c-2.982-3.782,0.112-10.591-0.905-18.09
		c12.833-1.479,21.587,6.813,21.708,18.09c-3.046,0.527-8.223-0.489-11.306,0c0-2.562,0-5.125,0-7.688
		c-1.342,1.521,0.438,6.166-0.905,7.688c-0.301,0-0.603,0-0.904,0c-2.222-1.83,0.907-6.492-0.904-9.949
		c-0.777,1.8,0.13,7.14-0.905,9.949c-0.301,0-0.603,0-0.904,0C82.876,497.973,86.132,491.603,84.399,489.271z"/>
	<path fill-rule="evenodd" clip-rule="evenodd" fill="#A99A6F" d="M155.855,500.577c-3.091,0.966-8.303,0.324-10.401,0
		c0-1.809,0-3.617,0-5.427c-1.362,1.84,0.325,5.195-1.357,5.88c-3.999-1.028-0.279-6.28-1.809-9.046
		c-1.481,1.986,0.812,7.748-1.357,9.046c-1.978-2.093-0.396-7.743-0.904-11.307c-1.338,3.958,0.327,8.146-1.809,11.307
		c-2.795-0.611-0.887-3.555-0.904-4.976c-0.048-3.717-0.287-7.32,0-10.854c-2.622,3.257,0.796,12.555-1.81,15.829
		c-3.042-3.44-0.542-12.423-1.356-18.091C146.591,480.282,155.767,487.944,155.855,500.577z"/>
</g>
</svg>
