<?xml version="1.0" encoding="UTF-8" standalone="no"?>
<!-- Created with Inkscape (http://www.inkscape.org/) -->

<svg
   xmlns:dc="http://purl.org/dc/elements/1.1/"
   xmlns:cc="http://creativecommons.org/ns#"
   xmlns:rdf="http://www.w3.org/1999/02/22-rdf-syntax-ns#"
   xmlns:svg="http://www.w3.org/2000/svg"
   xmlns="http://www.w3.org/2000/svg"
   xmlns:sodipodi="http://sodipodi.sourceforge.net/DTD/sodipodi-0.dtd"
   xmlns:inkscape="http://www.inkscape.org/namespaces/inkscape"
   width="509.94614"
   height="413.65756"
   id="svg15884"
   version="1.1"
   inkscape:version="0.47 r22583"
   sodipodi:docname="Neues Dokument 45">
  <defs
     id="defs15886">
    <inkscape:perspective
       sodipodi:type="inkscape:persp3d"
       inkscape:vp_x="0 : 526.18109 : 1"
       inkscape:vp_y="0 : 1000 : 0"
       inkscape:vp_z="744.09448 : 526.18109 : 1"
       inkscape:persp3d-origin="372.04724 : 350.78739 : 1"
       id="perspective15892" />
    <inkscape:perspective
       id="perspective15845"
       inkscape:persp3d-origin="0.5 : 0.33333333 : 1"
       inkscape:vp_z="1 : 0.5 : 1"
       inkscape:vp_y="0 : 1000 : 0"
       inkscape:vp_x="0 : 0.5 : 1"
       sodipodi:type="inkscape:persp3d" />
  </defs>
  <sodipodi:namedview
     id="base"
     pagecolor="#ffffff"
     bordercolor="#666666"
     borderopacity="1.0"
     inkscape:pageopacity="1"
     inkscape:pageshadow="2"
     inkscape:zoom="0.98994949"
     inkscape:cx="496.5303"
     inkscape:cy="163.48608"
     inkscape:document-units="px"
     inkscape:current-layer="layer1"
     showgrid="false"
     inkscape:window-width="1920"
     inkscape:window-height="1153"
     inkscape:window-x="-4"
     inkscape:window-y="-4"
     inkscape:window-maximized="1" />
  <metadata
     id="metadata15889">
    <rdf:RDF>
      <cc:Work
         rdf:about="">
        <dc:format>image/svg+xml</dc:format>
        <dc:type
           rdf:resource="http://purl.org/dc/dcmitype/StillImage" />
        <dc:title></dc:title>
      </cc:Work>
    </rdf:RDF>
  </metadata>
  <g
     inkscape:label="Ebene 1"
     inkscape:groupmode="layer"
     id="layer1"
     transform="translate(-127.88408,-276.96197)">
    <g
       style="display:inline"
       id="g15564"
       transform="matrix(1.3030762,-0.14583696,0.14583696,1.3030762,-160.14524,-166.58198)">
      <path
         sodipodi:nodetypes="czsc"
         id="path15220"
         d="m 194,590.36218 c -82.71778,43.66159 -22.58435,99.33568 36,84.5 58.58435,-14.83568 53.5,-33 110,-43.5 51.44742,-9.56102 82.5,-41.5 82.5,-41.5"
         style="color:#000000;fill:none;stroke:#000000;stroke-width:7.08661413;stroke-linecap:round;stroke-linejoin:miter;stroke-miterlimit:4;stroke-opacity:1;stroke-dasharray:none;stroke-dashoffset:0;marker:none;visibility:visible;display:inline;overflow:visible;enable-background:accumulate" />
      <path
         transform="matrix(0.90420188,-0.42710533,0.42710533,0.90420188,0,0)"
         sodipodi:nodetypes="ccccccccc"
         id="rect15201"
         d="m -76.452005,583.67108 384.636315,5.81136 c 2.02655,0 3.65804,1.115 3.65804,2.5 l 8.80571,45.18008 c 0,1.385 -1.63149,2.5 -3.65804,2.5 l -393.442025,0 c -2.026559,0 -3.658049,-1.115 -3.658049,-2.5 l 0,-50.99144 c 0,-1.385 1.63149,-2.5 3.658049,-2.5 z"
         style="color:#000000;fill:#1a1f22;fill-opacity:1;fill-rule:nonzero;stroke:#1a1f22;stroke-width:1.77165353;stroke-linecap:round;stroke-linejoin:miter;stroke-miterlimit:4;stroke-opacity:1;stroke-dashoffset:0;marker:none;visibility:visible;display:inline;overflow:visible;enable-background:accumulate" />
      <path
         style="color:#000000;fill:#d9d6d2;fill-opacity:1;fill-rule:nonzero;stroke:#1a1f22;stroke-width:1.77165353;stroke-linecap:round;stroke-linejoin:miter;stroke-miterlimit:4;stroke-opacity:1;stroke-dashoffset:0;marker:none;visibility:visible;display:inline;overflow:visible;enable-background:accumulate"
         d="M 526.47655,409.83463 202.01162,557.15933 219.5349,593.03004 547.73162,438.85172 526.47655,409.83463 z"
         id="path15216"
         sodipodi:nodetypes="ccccc" />
      <path
         sodipodi:nodetypes="ccccc"
         id="path15206"
         d="M 416.875,458.625 202.01162,557.15933 219.5349,593.03004 438.83718,490.47051 416.875,458.625 z"
         style="color:#000000;fill:#a2a6a1;fill-opacity:1;fill-rule:nonzero;stroke:#1a1f22;stroke-width:1.77165353;stroke-linecap:round;stroke-linejoin:miter;stroke-miterlimit:4;stroke-opacity:1;stroke-dashoffset:0;marker:none;visibility:visible;display:inline;overflow:visible;enable-background:accumulate" />
      <path
         sodipodi:nodetypes="cccscc"
         id="path15218"
         d="m 561.625,440.73718 -3.625,17.25 -349.625,167 c 0,0 -1.625,1.125 -2.875,-0.5 -1.25,-1.625 -5.875,-14.125 -5.875,-14.125 l 362,-169.625 z"
         style="color:#000000;fill:#d9d6d2;fill-opacity:1;fill-rule:nonzero;stroke:#1a1f22;stroke-width:1.77165353;stroke-linecap:round;stroke-linejoin:miter;stroke-miterlimit:4;stroke-opacity:1;stroke-dasharray:none;stroke-dashoffset:0;marker:none;visibility:visible;display:inline;overflow:visible;enable-background:accumulate" />
      <path
         id="path14832-2"
         d="m 433.45445,602.42653 c 0,0 2.21533,-11.89913 10.36393,-16.86082 8.14861,-4.96171 20.11283,-5.5863 20.11283,-5.5863 L 445.9375,555.86184 c 0,0 -0.81162,7.52188 -7.53784,12.30145 -6.72621,4.77958 -23.03725,10.0785 -23.03725,10.0785 l 18.09204,24.18474 z"
         style="color:#000000;fill:#000000;fill-opacity:1;fill-rule:nonzero;stroke:none;stroke-width:7.08661413;marker:none;visibility:visible;display:inline;overflow:visible;enable-background:accumulate" />
      <path
         id="rect14790-8"
         d="m 431.6201,603.88804 -17.98333,-24.61328 c -0.55042,-0.75336 -0.38705,-1.80297 0.36631,-2.3534 l 1.35985,-0.99356 c 0.75335,-0.55043 1.80296,-0.38706 2.35339,0.3663 l 17.98334,24.61327 c 0.55042,0.75336 0.38706,1.80298 -0.3663,2.35341 l -1.35985,0.99355 c -0.75336,0.55043 -1.80298,0.38706 -2.35341,-0.36629 z"
         style="color:#000000;fill:#313940;fill-opacity:1;fill-rule:nonzero;stroke:none;stroke-width:7.08661413;marker:none;visibility:visible;display:inline;overflow:visible;enable-background:accumulate" />
      <path
         id="rect14792-6"
         d="m 435.35883,596.42093 -14.5881,-19.96633 c -0.4465,-0.61112 -0.31398,-1.46257 0.29715,-1.90908 l 1.1031,-0.80597 c 0.61114,-0.44651 1.46259,-0.31399 1.9091,0.29713 l 14.5881,19.96633 c 0.44651,0.61113 0.31398,1.46257 -0.29714,1.90909 l -1.10312,0.80596 c -0.61113,0.44652 -1.46257,0.314 -1.90909,-0.29713 z"
         style="color:#000000;fill:#313940;fill-opacity:1;fill-rule:nonzero;stroke:none;stroke-width:7.08661413;marker:none;visibility:visible;display:inline;overflow:visible;enable-background:accumulate" />
      <path
         id="rect14794-0"
         d="m 439.64956,590.18516 -11.37565,-15.56953 c -0.34818,-0.47655 -0.24484,-1.1405 0.23171,-1.48869 l 0.8602,-0.62849 c 0.47654,-0.34818 1.1405,-0.24484 1.48868,0.23171 l 11.37565,15.56953 c 0.34818,0.47655 0.24484,1.14051 -0.2317,1.48869 l -0.8602,0.62848 c -0.47655,0.34819 -1.14051,0.24485 -1.48869,-0.2317 z"
         style="color:#000000;fill:#313940;fill-opacity:1;fill-rule:nonzero;stroke:none;stroke-width:7.08661413;marker:none;visibility:visible;display:inline;overflow:visible;enable-background:accumulate" />
      <path
         id="rect14796-2"
         d="M 444.47836,586.7054 433.1027,571.13586 c -0.34817,-0.47654 -0.24484,-1.1405 0.23171,-1.48868 l 0.86019,-0.62849 c 0.47655,-0.34818 1.14052,-0.24484 1.48869,0.23171 l 11.37566,15.56953 c 0.34818,0.47655 0.24483,1.14051 -0.23172,1.48869 l -0.86019,0.62849 c -0.47655,0.34818 -1.1405,0.24484 -1.48868,-0.23171 z"
         style="color:#000000;fill:#313940;fill-opacity:1;fill-rule:nonzero;stroke:none;stroke-width:7.08661413;marker:none;visibility:visible;display:inline;overflow:visible;enable-background:accumulate" />
      <path
         id="rect14798-4"
         d="m 450.86709,584.40852 -13.34246,-18.26145 c -0.40838,-0.55894 -0.28717,-1.33769 0.27177,-1.74607 l 1.00892,-0.73716 c 0.55894,-0.40838 1.33769,-0.28717 1.74607,0.27177 l 13.34246,18.26145 c 0.40838,0.55895 0.28718,1.33769 -0.27176,1.74607 l -1.00892,0.73716 c -0.55894,0.40838 -1.33769,0.28717 -1.74608,-0.27177 z"
         style="color:#000000;fill:#313940;fill-opacity:1;fill-rule:nonzero;stroke:none;stroke-width:7.08661413;marker:none;visibility:visible;display:inline;overflow:visible;enable-background:accumulate" />
      <path
         id="rect14800-8"
         d="m 456.95584,582.49626 -15.50595,-21.22254 c -0.4746,-0.64958 -0.33374,-1.5546 0.31584,-2.02921 l 1.17251,-0.85667 c 0.64958,-0.47461 1.5546,-0.33374 2.0292,0.31583 l 15.50595,21.22255 c 0.4746,0.64958 0.33373,1.5546 -0.31584,2.0292 l -1.17251,0.85668 c -0.64958,0.47461 -1.5546,0.33374 -2.0292,-0.31584 z"
         style="color:#000000;fill:#313940;fill-opacity:1;fill-rule:nonzero;stroke:none;stroke-width:7.08661413;marker:none;visibility:visible;display:inline;overflow:visible;enable-background:accumulate" />
      <path
         id="rect14800-2-6"
         d="m 498.31357,555.32655 -21.51823,15.09295 c -0.65861,0.46195 -1.56074,0.30364 -2.02271,-0.35499 l -0.83386,-1.18886 c -0.46196,-0.65861 -0.30364,-1.56074 0.35499,-2.02271 l 21.51821,-15.09296 c 0.65864,-0.46196 1.56077,-0.30364 2.02274,0.35499 l 0.83385,1.18885 c 0.46197,0.65864 0.30364,1.56075 -0.35499,2.02273 z"
         style="color:#000000;fill:#000000;fill-opacity:1;fill-rule:nonzero;stroke:none;stroke-width:7.08661413;marker:none;visibility:visible;display:inline;overflow:visible;enable-background:accumulate" />
      <path
         style="color:#000000;fill:#000000;fill-opacity:1;fill-rule:nonzero;stroke:none;stroke-width:7.08661413;marker:none;visibility:visible;display:inline;overflow:visible;enable-background:accumulate"
         d="m 485.24828,536.79208 -21.15548,15.59736 c -0.6475,0.47738 -1.55312,0.34044 -2.03053,-0.30709 l -0.86173,-1.16881 c -0.4774,-0.64751 -0.34044,-1.55313 0.30708,-2.03054 l 21.15545,-15.59735 c 0.64754,-0.47741 1.55315,-0.34046 2.03057,0.30707 l 0.86172,1.16881 c 0.47741,0.64753 0.34044,1.55314 -0.30708,2.03055 z"
         id="path15277" />
      <path
         id="rect14790-1-0"
         d="M 465.83306,584.2424 442.2923,552.02282 c -0.80539,-1.10232 -0.84729,-2.43288 -0.0939,-2.98331 l 20.04932,-14.64874 c 0.75336,-0.55043 2.00824,-0.10612 2.81364,0.9962 l 23.54075,32.21957 c 0.8054,1.10233 0.84729,2.43288 0.0939,2.98331 l -20.04933,14.64875 c -0.75336,0.55042 -2.00824,0.10612 -2.81363,-0.9962 z"
         style="color:#000000;fill:#313940;fill-opacity:1;fill-rule:nonzero;stroke:none;stroke-width:7.08661413;marker:none;visibility:visible;display:inline;overflow:visible;enable-background:accumulate" />
      <path
         sodipodi:type="arc"
         style="opacity:0.54275094;color:#000000;fill:#d9d6d2;fill-opacity:1;fill-rule:nonzero;stroke:#000000;stroke-width:5.88904524;stroke-linecap:square;stroke-linejoin:miter;stroke-miterlimit:4;stroke-opacity:1;stroke-dasharray:none;stroke-dashoffset:0;marker:none;visibility:visible;display:inline;overflow:visible;enable-background:accumulate"
         id="path14673-8"
         sodipodi:cx="2320.8254"
         sodipodi:cy="504.1019"
         sodipodi:rx="96.0868"
         sodipodi:ry="119.45054"
         d="m 2416.9122,504.1019 c 0,65.97071 -43.0195,119.45054 -96.0868,119.45054 -53.0672,0 -96.0868,-53.47983 -96.0868,-119.45054 0,-65.97071 43.0196,-119.45054 96.0868,-119.45054 53.0673,0 96.0868,53.47983 96.0868,119.45054 z"
         transform="matrix(0.03676509,-0.15948675,0.14716624,0.03878396,214.5581,849.65604)" />
      <path
         style="opacity:0.54275094;color:#000000;fill:#1a1f22;fill-opacity:1;fill-rule:nonzero;stroke:none;stroke-width:7.08661413;marker:none;visibility:visible;display:inline;overflow:visible;enable-background:accumulate"
         d="m 356.51733,499.7749 c 0.008,-0.0163 0.009,-0.0366 0.0179,-0.053 2.98477,-5.16287 12.83109,-9.0796 20.27874,-7.1682 8.71843,2.23745 11.80809,11.11677 10.14554,18.14014 -0.005,0.0243 -0.0123,0.0468 -0.0182,0.0706 2.37072,-1.81965 4.07697,-4.29608 4.76178,-7.26677 1.85624,-8.05238 -4.51191,-16.66674 -14.22058,-19.22534 -9.70867,-2.55858 -19.0819,1.90358 -20.93813,9.95595 -0.42595,1.84774 -0.40798,3.72052 -0.027,5.54652 l -5e-5,10e-5 z"
         id="path14675-9"
         sodipodi:nodetypes="ccsscssscc" />
      <path
         transform="matrix(0.03676509,-0.15948675,0.14716624,0.03878396,250.0581,835.40604)"
         d="m 2416.9122,504.1019 c 0,65.97071 -43.0195,119.45054 -96.0868,119.45054 -53.0672,0 -96.0868,-53.47983 -96.0868,-119.45054 0,-65.97071 43.0196,-119.45054 96.0868,-119.45054 53.0673,0 96.0868,53.47983 96.0868,119.45054 z"
         sodipodi:ry="119.45054"
         sodipodi:rx="96.0868"
         sodipodi:cy="504.1019"
         sodipodi:cx="2320.8254"
         id="path15373"
         style="opacity:0.54275094;color:#000000;fill:#d9d6d2;fill-opacity:1;fill-rule:nonzero;stroke:#000000;stroke-width:5.88904524;stroke-linecap:square;stroke-linejoin:miter;stroke-miterlimit:4;stroke-opacity:1;stroke-dasharray:none;stroke-dashoffset:0;marker:none;visibility:visible;display:inline;overflow:visible;enable-background:accumulate"
         sodipodi:type="arc" />
      <path
         sodipodi:nodetypes="ccsscssscc"
         id="path15375"
         d="m 392.01733,485.5249 c 0.008,-0.0163 0.009,-0.0366 0.0179,-0.053 2.98477,-5.16287 12.83109,-9.0796 20.27874,-7.1682 8.71843,2.23745 11.80809,11.11677 10.14554,18.14014 -0.005,0.0243 -0.0123,0.0468 -0.0182,0.0706 2.37072,-1.81965 4.07697,-4.29608 4.76178,-7.26677 1.85624,-8.05238 -4.51191,-16.66674 -14.22058,-19.22534 -9.70867,-2.55858 -19.0819,1.90358 -20.93813,9.95595 -0.42595,1.84774 -0.40798,3.72052 -0.027,5.54652 l -5e-5,10e-5 z"
         style="opacity:0.54275094;color:#000000;fill:#1a1f22;fill-opacity:1;fill-rule:nonzero;stroke:none;stroke-width:7.08661413;marker:none;visibility:visible;display:inline;overflow:visible;enable-background:accumulate" />
      <path
         sodipodi:type="arc"
         style="opacity:0.54275094;color:#000000;fill:#d9d6d2;fill-opacity:1;fill-rule:nonzero;stroke:#000000;stroke-width:5.88904524;stroke-linecap:square;stroke-linejoin:miter;stroke-miterlimit:4;stroke-opacity:1;stroke-dasharray:none;stroke-dashoffset:0;marker:none;visibility:visible;display:inline;overflow:visible;enable-background:accumulate"
         id="path15377"
         sodipodi:cx="2320.8254"
         sodipodi:cy="504.1019"
         sodipodi:rx="96.0868"
         sodipodi:ry="119.45054"
         d="m 2416.9122,504.1019 c 0,65.97071 -43.0195,119.45054 -96.0868,119.45054 -53.0672,0 -96.0868,-53.47983 -96.0868,-119.45054 0,-65.97071 43.0196,-119.45054 96.0868,-119.45054 53.0673,0 96.0868,53.47983 96.0868,119.45054 z"
         transform="matrix(0.03676509,-0.15948675,0.14716624,0.03878396,180.0581,865.65604)" />
      <path
         style="opacity:0.54275094;color:#000000;fill:#1a1f22;fill-opacity:1;fill-rule:nonzero;stroke:none;stroke-width:7.08661413;marker:none;visibility:visible;display:inline;overflow:visible;enable-background:accumulate"
         d="m 322.01733,515.7749 c 0.008,-0.0163 0.009,-0.0366 0.0179,-0.053 2.98477,-5.16287 12.83109,-9.0796 20.27874,-7.1682 8.71843,2.23745 11.80809,11.11677 10.14554,18.14014 -0.005,0.0243 -0.0123,0.0468 -0.0182,0.0706 2.37072,-1.81965 4.07697,-4.29608 4.76178,-7.26677 1.85624,-8.05238 -4.51191,-16.66674 -14.22058,-19.22534 -9.70867,-2.55858 -19.0819,1.90358 -20.93813,9.95595 -0.42595,1.84774 -0.40798,3.72052 -0.027,5.54652 l -5e-5,10e-5 z"
         id="path15379"
         sodipodi:nodetypes="ccsscssscc" />
      <path
         transform="matrix(0.03676509,-0.15948675,0.14716624,0.03878396,145.0581,882.65604)"
         d="m 2416.9122,504.1019 c 0,65.97071 -43.0195,119.45054 -96.0868,119.45054 -53.0672,0 -96.0868,-53.47983 -96.0868,-119.45054 0,-65.97071 43.0196,-119.45054 96.0868,-119.45054 53.0673,0 96.0868,53.47983 96.0868,119.45054 z"
         sodipodi:ry="119.45054"
         sodipodi:rx="96.0868"
         sodipodi:cy="504.1019"
         sodipodi:cx="2320.8254"
         id="path15381"
         style="opacity:0.54275094;color:#000000;fill:#d9d6d2;fill-opacity:1;fill-rule:nonzero;stroke:#000000;stroke-width:5.88904524;stroke-linecap:square;stroke-linejoin:miter;stroke-miterlimit:4;stroke-opacity:1;stroke-dasharray:none;stroke-dashoffset:0;marker:none;visibility:visible;display:inline;overflow:visible;enable-background:accumulate"
         sodipodi:type="arc" />
      <path
         sodipodi:nodetypes="ccsscssscc"
         id="path15383"
         d="m 287.01733,532.7749 c 0.008,-0.0163 0.009,-0.0366 0.0179,-0.053 2.98477,-5.16287 12.83109,-9.0796 20.27874,-7.1682 8.71843,2.23745 11.80809,11.11677 10.14554,18.14014 -0.005,0.0243 -0.0123,0.0468 -0.0182,0.0706 2.37072,-1.81965 4.07697,-4.29608 4.76178,-7.26677 1.85624,-8.05238 -4.51191,-16.66674 -14.22058,-19.22534 -9.70867,-2.55858 -19.0819,1.90358 -20.93813,9.95595 -0.42595,1.84774 -0.40798,3.72052 -0.027,5.54652 l -5e-5,10e-5 z"
         style="opacity:0.54275094;color:#000000;fill:#1a1f22;fill-opacity:1;fill-rule:nonzero;stroke:none;stroke-width:7.08661413;marker:none;visibility:visible;display:inline;overflow:visible;enable-background:accumulate" />
      <path
         sodipodi:type="arc"
         style="opacity:0.54275094;color:#000000;fill:#d9d6d2;fill-opacity:1;fill-rule:nonzero;stroke:#000000;stroke-width:5.88904524;stroke-linecap:square;stroke-linejoin:miter;stroke-miterlimit:4;stroke-opacity:1;stroke-dasharray:none;stroke-dashoffset:0;marker:none;visibility:visible;display:inline;overflow:visible;enable-background:accumulate"
         id="path15385"
         sodipodi:cx="2320.8254"
         sodipodi:cy="504.1019"
         sodipodi:rx="96.0868"
         sodipodi:ry="119.45054"
         d="m 2416.9122,504.1019 c 0,65.97071 -43.0195,119.45054 -96.0868,119.45054 -53.0672,0 -96.0868,-53.47983 -96.0868,-119.45054 0,-65.97071 43.0196,-119.45054 96.0868,-119.45054 53.0673,0 96.0868,53.47983 96.0868,119.45054 z"
         transform="matrix(0.03676509,-0.15948675,0.14716624,0.03878396,109.0581,899.65604)" />
      <path
         style="opacity:0.54275094;color:#000000;fill:#1a1f22;fill-opacity:1;fill-rule:nonzero;stroke:none;stroke-width:7.08661413;marker:none;visibility:visible;display:inline;overflow:visible;enable-background:accumulate"
         d="m 251.01733,549.7749 c 0.008,-0.0163 0.009,-0.0366 0.0179,-0.053 2.98477,-5.16287 12.83109,-9.0796 20.27874,-7.1682 8.71843,2.23745 11.80809,11.11677 10.14554,18.14014 -0.005,0.0243 -0.0123,0.0468 -0.0182,0.0706 2.37072,-1.81965 4.07697,-4.29608 4.76178,-7.26677 1.85624,-8.05238 -4.51191,-16.66674 -14.22058,-19.22534 -9.70867,-2.55858 -19.0819,1.90358 -20.93813,9.95595 -0.42595,1.84774 -0.40798,3.72052 -0.027,5.54652 l -5e-5,10e-5 z"
         id="path15387"
         sodipodi:nodetypes="ccsscssscc" />
      <path
         transform="matrix(0.03676509,-0.15948675,0.14716624,0.03878396,71.5581,915.65604)"
         d="m 2416.9122,504.1019 c 0,65.97071 -43.0195,119.45054 -96.0868,119.45054 -53.0672,0 -96.0868,-53.47983 -96.0868,-119.45054 0,-65.97071 43.0196,-119.45054 96.0868,-119.45054 53.0673,0 96.0868,53.47983 96.0868,119.45054 z"
         sodipodi:ry="119.45054"
         sodipodi:rx="96.0868"
         sodipodi:cy="504.1019"
         sodipodi:cx="2320.8254"
         id="path15389"
         style="opacity:0.54275094;color:#000000;fill:#d9d6d2;fill-opacity:1;fill-rule:nonzero;stroke:#000000;stroke-width:5.88904524;stroke-linecap:square;stroke-linejoin:miter;stroke-miterlimit:4;stroke-opacity:1;stroke-dasharray:none;stroke-dashoffset:0;marker:none;visibility:visible;display:inline;overflow:visible;enable-background:accumulate"
         sodipodi:type="arc" />
      <path
         sodipodi:nodetypes="ccsscssscc"
         id="path15391"
         d="m 213.51733,565.7749 c 0.008,-0.0163 0.009,-0.0366 0.0179,-0.053 2.98477,-5.16287 12.83109,-9.0796 20.27874,-7.1682 8.71843,2.23745 11.80809,11.11677 10.14554,18.14014 -0.005,0.0243 -0.0123,0.0468 -0.0182,0.0706 2.37072,-1.81965 4.07697,-4.29608 4.76178,-7.26677 1.85624,-8.05238 -4.51191,-16.66674 -14.22058,-19.22534 -9.70867,-2.55858 -19.0819,1.90358 -20.93813,9.95595 -0.42595,1.84774 -0.40798,3.72052 -0.027,5.54652 l -5e-5,10e-5 z"
         style="opacity:0.54275094;color:#000000;fill:#1a1f22;fill-opacity:1;fill-rule:nonzero;stroke:none;stroke-width:7.08661413;marker:none;visibility:visible;display:inline;overflow:visible;enable-background:accumulate" />
      <path
         id="path15393"
         d="m 500.5,430.11218 11.875,14.375 12.75,-6 -8,-15.5 -3.25,-0.25 -12.625,5.75 -0.75,1.625 z"
         style="color:#000000;fill:#ff0045;fill-opacity:1;fill-rule:nonzero;stroke:#000000;stroke-width:0.53149605;stroke-linecap:round;stroke-linejoin:miter;stroke-miterlimit:4;stroke-opacity:1;stroke-dasharray:none;stroke-dashoffset:0;marker:none;visibility:visible;display:inline;overflow:visible;enable-background:accumulate" />
      <path
         id="path15395"
         d="m 500.5,430.11218 3.5,-0.75 13.125,-6.125"
         style="color:#000000;fill:#ff0045;fill-opacity:1;fill-rule:nonzero;stroke:#000000;stroke-width:0.53149605;stroke-linecap:round;stroke-linejoin:miter;stroke-miterlimit:4;stroke-opacity:1;stroke-dasharray:none;stroke-dashoffset:0;marker:none;visibility:visible;display:inline;overflow:visible;enable-background:accumulate" />
      <path
         id="path15397"
         d="m 504.125,429.48718 8.25,14.625"
         style="color:#000000;fill:#ff0045;fill-opacity:1;fill-rule:nonzero;stroke:#000000;stroke-width:0.53149605;stroke-linecap:round;stroke-linejoin:miter;stroke-miterlimit:4;stroke-opacity:1;stroke-dasharray:none;stroke-dashoffset:0;marker:none;visibility:visible;display:inline;overflow:visible;enable-background:accumulate" />
      <path
         transform="matrix(0.03509176,-0.15222783,0.14046808,0.03701874,292.91053,801.9952)"
         d="m 2416.9122,504.1019 c 0,65.97071 -43.0195,119.45054 -96.0868,119.45054 -53.0672,0 -96.0868,-53.47983 -96.0868,-119.45054 0,-65.97071 43.0196,-119.45054 96.0868,-119.45054 53.0673,0 96.0868,53.47983 96.0868,119.45054 z"
         sodipodi:ry="119.45054"
         sodipodi:rx="96.0868"
         sodipodi:cy="504.1019"
         sodipodi:cx="2320.8254"
         id="path15373-3"
         style="opacity:0.54275094;color:#000000;fill:#d9d6d2;fill-opacity:1;fill-rule:nonzero;stroke:#000000;stroke-width:5.88904524;stroke-linecap:square;stroke-linejoin:miter;stroke-miterlimit:4;stroke-opacity:1;stroke-dasharray:none;stroke-dashoffset:0;marker:none;visibility:visible;display:inline;overflow:visible;enable-background:accumulate"
         sodipodi:type="arc" />
      <path
         sodipodi:nodetypes="ccsscssscc"
         id="path15375-4"
         d="m 428.4086,468.03863 c 0.008,-0.0156 0.009,-0.0349 0.0171,-0.0506 2.84892,-4.92789 12.2471,-8.66635 19.35577,-6.84195 8.32162,2.13562 11.27066,10.6108 9.68378,17.31451 -0.005,0.0232 -0.0117,0.0447 -0.0174,0.0674 2.26282,-1.73683 3.89141,-4.10054 4.54506,-6.93603 1.77175,-7.68588 -4.30656,-15.90816 -13.57335,-18.35031 -9.26678,-2.44213 -18.2134,1.81694 -19.98514,9.50281 -0.40657,1.76365 -0.38941,3.55119 -0.0258,5.29408 l -5e-5,9e-5 z"
         style="opacity:0.54275094;color:#000000;fill:#1a1f22;fill-opacity:1;fill-rule:nonzero;stroke:none;stroke-width:7.08661413;marker:none;visibility:visible;display:inline;overflow:visible;enable-background:accumulate" />
      <path
         transform="matrix(0.03509176,-0.15222783,0.14046808,0.03701874,327.16053,785.9952)"
         d="m 2416.9122,504.1019 c 0,65.97071 -43.0195,119.45054 -96.0868,119.45054 -53.0672,0 -96.0868,-53.47983 -96.0868,-119.45054 0,-65.97071 43.0196,-119.45054 96.0868,-119.45054 53.0673,0 96.0868,53.47983 96.0868,119.45054 z"
         sodipodi:ry="119.45054"
         sodipodi:rx="96.0868"
         sodipodi:cy="504.1019"
         sodipodi:cx="2320.8254"
         id="path15373-6"
         style="opacity:0.54275094;color:#000000;fill:#d9d6d2;fill-opacity:1;fill-rule:nonzero;stroke:#000000;stroke-width:5.88904524;stroke-linecap:square;stroke-linejoin:miter;stroke-miterlimit:4;stroke-opacity:1;stroke-dasharray:none;stroke-dashoffset:0;marker:none;visibility:visible;display:inline;overflow:visible;enable-background:accumulate"
         sodipodi:type="arc" />
      <path
         sodipodi:nodetypes="ccsscssscc"
         id="path15375-0"
         d="m 462.6586,452.03863 c 0.008,-0.0156 0.009,-0.0349 0.0171,-0.0506 2.84892,-4.92789 12.2471,-8.66635 19.35577,-6.84195 8.32162,2.13562 11.27066,10.6108 9.68378,17.31451 -0.005,0.0232 -0.0117,0.0447 -0.0174,0.0674 2.26282,-1.73683 3.89141,-4.10054 4.54506,-6.93603 1.77175,-7.68588 -4.30656,-15.90816 -13.57335,-18.35031 -9.26678,-2.44213 -18.2134,1.81694 -19.98514,9.50281 -0.40657,1.76365 -0.38941,3.55119 -0.0258,5.29408 l -5e-5,9e-5 z"
         style="opacity:0.54275094;color:#000000;fill:#1a1f22;fill-opacity:1;fill-rule:nonzero;stroke:none;stroke-width:7.08661413;marker:none;visibility:visible;display:inline;overflow:visible;enable-background:accumulate" />
    </g>
  </g>
</svg>
