<?xml version="1.0" encoding="utf-8"?>
<!-- Generator: Adobe Illustrator 10.0, SVG Export Plug-In . SVG Version: 3.0.0 Build 77)  --><svg enable-background="new 0 0 202.142 93.46" height="93.46" i:pageBounds="0 792 612 0" i:rulerOrigin="0 0" i:viewOrigin="204 442" overflow="visible" space="preserve" viewBox="0 0 202.142 93.46" width="202.142" xmlns="http://www.w3.org/2000/svg" xmlns:a="http://ns.adobe.com/AdobeSVGViewerExtensions/3.0/" xmlns:graph="http://ns.adobe.com/Graphs/1.0/" xmlns:i="http://ns.adobe.com/AdobeIllustrator/10.0/" xmlns:x="http://ns.adobe.com/Extensibility/1.0/" xmlns:xlink="http://www.w3.org/1999/xlink">
  <metadata>
    <rdf:RDF xmlns:cc="http://web.resource.org/cc/" xmlns:dc="http://purl.org/dc/elements/1.1/" xmlns:rdf="http://www.w3.org/1999/02/22-rdf-syntax-ns#">
      <cc:Work rdf:about="">
        <dc:title>Bacon</dc:title>
        <dc:description>Bacon</dc:description>
        <dc:subject>
          <rdf:Bag>
            <rdf:li>protein</rdf:li>
            <rdf:li>food</rdf:li>
            <rdf:li>bacon</rdf:li>
            <rdf:li>menu</rdf:li>
          </rdf:Bag>
        </dc:subject>
        <dc:publisher>
          <cc:Agent rdf:about="http://www.openclipart.org/">
            <dc:title>Open Clip Art Project</dc:title>
          </cc:Agent>
        </dc:publisher>
        <dc:creator>
          <cc:Agent rdf:about="http://web.resource.org/cc/PublicDomain">
            <dc:title>Gerald G.</dc:title>
          </cc:Agent>
        </dc:creator>
        <dc:rights>
          <cc:Agent rdf:about="http://web.resource.org/cc/PublicDomain">
            <dc:title>Public Domain</dc:title>
          </cc:Agent>
        </dc:rights>
        <dc:date>2005/05/30</dc:date>
        <dc:format>image/svg+xml</dc:format>
        <dc:type rdf:resource="http://purl.org/dc/dcmitype/StillImage"/>
        <cc:license rdf:resource="http://web.resource.org/cc/PublicDomain"/>
        <dc:language>en</dc:language>
      </cc:Work>
      <cc:License rdf:about="http://web.resource.org/cc/PublicDomain">
        <cc:permits rdf:resource="http://web.resource.org/cc/Reproduction"/>
        <cc:permits rdf:resource="http://web.resource.org/cc/Distribution"/>
        <cc:permits rdf:resource="http://web.resource.org/cc/DerivativeWorks"/>
      </cc:License>
    </rdf:RDF>
  </metadata>
  <g i:dimmedPercent="50" i:layer="yes" i:rgbTrio="#4F008000FFFF" id="Layer_1">
    <g>
      <path clip-rule="evenodd" d="     M25.94,72.957c3.888-4.141,10.764-8.388,20.772-12.888c10.08-4.645,23.94-9.685,39.096-14.148     c15.12-4.392,36.181-7.164,50.399-12.348c13.969-5.364,25.74-15.084,33.373-19.44c7.523-4.392,11.412-6.66,11.809-6.804     c1.979,2.124,4.428,4.176,7.344,6.3c2.807,2.088,7.703,4.284,9.971,6.048c2.197,1.656,3.385,2.916,3.42,3.924     c-6.551,4.572-14.291,9.072-23.615,13.644c-9.396,4.392-20.447,8.676-32.041,13.392c-11.662,4.752-24.191,10.116-37.008,14.977     c-12.923,4.716-28.691,8.676-39.383,13.392C59.42,83.685,51.464,88.4,45.92,93.44c-5.436-1.296-9.864-3.708-13.14-7.092     C29.396,82.821,27.164,78.537,25.94,72.957z" fill-rule="evenodd" i:knockout="Off" stroke="#000000" stroke-miterlimit="10" stroke-width="0.036"/>
      <path clip-rule="evenodd" d="     M27.272,73.461c3.924-4.104,10.656-8.388,20.736-12.852c10.044-4.572,24.012-9.757,39.132-14.185     c15.12-4.464,36.181-7.092,50.399-12.312c14.076-5.436,25.885-15.3,33.336-19.44c7.236-4.212,10.693-5.832,10.225-5.256     c3.42,2.628,6.66,5.04,9.721,7.092c2.988,2.052,6.947,3.852,8.424,5.256c1.367,1.26,1.367,2.052,0,2.376     c-4.752,3.492-11.449,7.236-20.232,11.52c-8.965,4.176-20.699,8.928-32.291,13.68c-11.664,4.752-23.977,9.756-36.506,14.437     c-12.635,4.535-27.071,8.172-38.051,12.852c-10.98,4.608-19.764,9.648-27.036,14.976c-4.392-0.468-8.064-2.268-11.016-5.256     C31.124,83.289,28.892,79.041,27.272,73.461z" fill="#804000" fill-rule="evenodd" i:knockout="Off" stroke="#000000" stroke-miterlimit="10" stroke-width="0.036"/>
      <path clip-rule="evenodd" d="     M29.108,76.089c1.764-1.979,5.652-4.248,11.808-6.804c6.12-2.628,18.648-6.12,24.948-8.676c6.228-2.736,6.732-5.148,12.06-6.805     c5.184-1.691,13.248-1.368,19.188-2.916c5.76-1.656,10.404-5.04,16.019-6.552c5.652-1.584,11.557-0.324,17.857-2.628     c6.191-2.52,13.031-8.172,19.152-11.556c5.902-3.456,11.23-5.688,16.811-8.64c5.545-3.024,11.053-6.048,16.525-9.216l5.795,4.212     c-11.916,3.744-21.924,7.848-30.996,12.6c-8.963,4.716-15.191,12.42-22.572,15.48c-7.596,2.916-15.371,0.144-22.066,2.376     c-6.625,2.196-12.061,8.568-17.569,10.512c-5.58,1.692-10.044-1.691-16.02,0.252c-6.084,1.98-12.492,7.452-20.484,11.557     c-8.1,3.996-17.28,8.063-27.828,12.348c-0.108-0.792-0.324-1.764-0.792-2.628C30.476,78.069,29.864,77.097,29.108,76.089z" fill-rule="evenodd" i:knockout="Off" stroke="#000000" stroke-miterlimit="10" stroke-width="0.036"/>
      <path clip-rule="evenodd" d="     M31.196,76.377c2.376-2.124,6.012-4.176,11.052-6.3c5.04-2.269,13.608-4.464,18.9-6.588c5.148-2.196,9.216-4.572,12.06-6.013     c2.772-1.548,1.296-2.195,4.464-2.916c3.096-0.792,10.008-1.26,13.932-1.836c3.708-0.647,5.292-0.972,8.64-2.088     c3.42-1.296,8.065-4.212,11.303-5.256c3.098-1.116,3.889-0.72,7.094-1.044c3.131-0.36,7.02,0.36,11.268-1.044     c4.176-1.584,8.639-5.184,13.391-7.884c4.5-2.664,7.561-4.86,14.186-8.388c6.73-3.78,15.084-8.208,25.74-13.68l4.463,2.916     c-2.736,0.828-6.156,2.052-10.26,3.672c-4.176,1.62-10.008,3.78-14.436,6.048c-4.5,2.124-8.461,4.428-12.313,7.056     c-3.996,2.592-7.668,6.588-11.305,8.676c-3.814,1.98-6.66,2.7-10.764,3.42c-4.176,0.648-9.504-0.612-13.645,0.504     c-4.211,1.008-7.883,3.78-11.303,5.796c-3.457,1.908-6.192,4.896-9.18,5.76c-3.132,0.648-6.048-1.367-9.18-1.044     c-3.204,0.288-6.12,1.116-9.72,2.916c-3.636,1.62-5.292,3.744-12.348,7.345c-7.272,3.563-17.316,8.279-30.708,14.147     C32.096,79.185,31.664,77.781,31.196,76.377z" fill="#FFD028" fill-rule="evenodd" i:knockout="Off" stroke="#000000" stroke-miterlimit="10" stroke-width="0.036"/>
      <path clip-rule="evenodd" d="     M33.572,83.973c0.288,0.721,1.08,1.513,2.376,2.376c1.296,0.864,2.988,1.692,5.22,2.628c4.968-3.779,10.404-6.804,16.308-9.468     c5.832-2.7,14.4-4.428,18.9-6.3c4.356-1.944,2.916-3.6,7.344-4.968c4.32-1.477,12.024-1.225,18.648-3.42     c6.515-2.269,13.789-7.633,20.449-9.973c6.551-2.34,12.168-1.332,18.936-4.212c6.732-3.204,11.592-9.18,21.24-13.896     c9.576-4.68,21.42-9.324,35.963-13.932c-0.971-0.468-2.016-1.08-3.131-1.836c-1.188-0.864-3.061-2.376-3.672-2.88     c-0.684-0.504,2.23-0.828,0,0c-2.34,0.756-10.404,2.7-13.645,4.464c-3.313,1.692-2.699,4.212-5.797,5.76     c-3.131,1.404-8.207,0.648-12.852,3.168c-4.824,2.556-10.512,9.036-15.516,12.06c-5.148,2.844-9.396,4.176-14.688,5.508     c-5.436,1.296-12.096,0.468-17.064,2.376c-5.004,1.8-7.271,6.444-12.348,8.388c-5.148,1.837-13.176,1.513-17.856,2.629     c-4.752,0.972-6.732,1.836-9.972,3.42c-3.204,1.548-3.06,2.916-9.432,6.048C56.396,74.9,46.82,78.969,33.572,83.973z" fill-rule="evenodd" i:knockout="Off" stroke="#000000" stroke-miterlimit="10" stroke-width="0.036"/>
      <path clip-rule="evenodd" d="     M40.916,87.645c-0.432,0.145-1.26-0.071-2.088-0.504c-1.008-0.504-2.016-1.296-3.42-2.376c4.572-2.052,8.64-3.672,12.348-5.256     c3.528-1.656,5.976-2.088,9.72-3.924c3.78-1.944,8.712-5.004,12.852-7.092c4.068-2.16,6.12-3.96,11.304-5.256     c5.004-1.332,13.932-0.864,19.152-2.628c5.113-1.908,7.38-6.696,11.808-8.389c4.32-1.764,10.367-1.08,14.688-1.836     c4.32-0.828,7.309-1.476,11.053-2.916c3.635-1.584,7.271-3.996,10.764-6.264c3.385-2.448,6.947-6.192,9.721-7.884     c2.627-1.692,3.707-1.656,6.299-2.376c2.592-0.828,6.588-1.512,8.928-2.628c2.232-1.26,1.404-3.204,4.465-4.716     c3.023-1.548,7.344-2.988,13.393-4.464l4.463,3.42c-3.816,1.656-7.631,3.132-11.844,4.716c-4.283,1.404-8.748,2.7-13.104,4.464     c-4.465,1.764-9.541,4.464-12.889,6.3c-3.383,1.692-4.68,2.952-6.803,4.464c-2.088,1.548-3.961,3.168-6.049,4.716     c-2.268,1.404-3.42,2.772-7.344,3.96c-4.141,1.116-10.729,0.828-16.561,2.88c-5.832,2.053-13.715,7.236-18.107,9.181     c-4.5,1.764-5.22,1.26-8.388,1.836c-3.276,0.468-7.74,0.54-10.764,1.584c-3.06,1.08-5.004,3.168-7.632,4.716     c-2.736,1.26-5.148,2.304-8.64,3.672c-3.708,1.332-8.28,2.592-12.888,4.752C50.744,81.849,46.028,84.513,40.916,87.645z" fill="#FFD028" fill-rule="evenodd" i:knockout="Off" stroke="#000000" stroke-miterlimit="10" stroke-width="0.036"/>
      <path clip-rule="evenodd" d="     M13.34,68.961c3.924-4.104,10.656-8.388,20.736-12.852c10.08-4.572,23.94-9.756,39.096-14.185     c15.048-4.392,36.252-7.164,50.436-12.348c14.004-5.4,25.668-15.012,33.336-19.404c7.525-4.392,11.412-6.624,11.809-6.84     c1.98,2.124,4.428,4.176,7.344,6.3c2.809,2.088,7.703,4.284,9.973,6.048c2.195,1.656,3.383,2.916,3.42,3.924     c-6.553,4.572-14.293,9.072-23.617,13.644c-9.395,4.392-20.447,8.676-32.039,13.392c-11.664,4.751-24.191,10.116-37.008,14.976     C83.9,66.333,68.132,70.293,57.44,75.009c-10.656,4.68-18.612,9.396-24.156,14.437c-5.436-1.297-9.864-3.708-13.14-7.093     C16.724,78.825,14.6,74.541,13.34,68.961z" fill-rule="evenodd" i:knockout="Off" stroke="#000000" stroke-miterlimit="10" stroke-width="0.036"/>
      <path clip-rule="evenodd" d="     M14.636,69.501c3.924-4.14,10.656-8.388,20.736-12.888c10.044-4.645,24.012-9.685,39.132-14.148     c15.12-4.392,36.18-7.164,50.4-12.348c14.076-5.436,25.883-15.3,33.336-19.44c7.236-4.068,10.656-5.94,10.26-5.22     c3.492,2.664,6.588,4.968,9.684,7.056c2.988,2.052,6.947,3.852,8.424,5.256c1.369,1.26,1.369,2.052,0,2.376     c-4.752,3.564-11.447,7.236-20.232,11.556c-8.891,4.212-20.807,8.856-32.291,13.644c-11.52,4.645-24.049,9.828-36.468,14.437     c-12.6,4.535-27.144,8.172-38.088,12.852c-10.98,4.608-19.764,9.648-27.036,14.977c-4.392-0.469-8.064-2.269-11.016-5.257     C18.488,79.221,16.256,75.117,14.636,69.501z" fill="#804000" fill-rule="evenodd" i:knockout="Off" stroke="#000000" stroke-miterlimit="10" stroke-width="0.036"/>
      <path clip-rule="evenodd" d="     M16.472,72.129c1.764-2.016,5.652-4.248,11.808-6.84c6.12-2.7,18.648-6.048,24.948-8.641c6.156-2.663,6.804-5.22,12.096-6.84     c5.22-1.584,13.176-1.439,19.152-2.88c5.76-1.692,10.404-5.004,16.02-6.588c5.653-1.584,11.557-0.324,17.856-2.628     c6.191-2.448,13.031-8.136,19.152-11.52c5.904-3.384,11.232-5.76,16.813-8.676c5.543-3.096,11.051-5.976,16.523-9.18l5.797,4.176     c-11.916,3.744-21.926,7.848-30.996,12.6c-8.965,4.68-15.193,12.492-22.572,15.516c-7.596,2.808-15.373,0.252-22.069,2.34     c-6.624,2.196-12.06,8.568-17.568,10.512c-5.58,1.692-10.044-1.691-16.02,0.252c-6.084,1.98-12.492,7.452-20.484,11.557     c-8.1,3.996-17.28,8.063-27.828,12.348c-0.108-0.899-0.324-1.728-0.792-2.628C17.84,74.073,17.228,73.064,16.472,72.129z" fill-rule="evenodd" i:knockout="Off" stroke="#000000" stroke-miterlimit="10" stroke-width="0.036"/>
      <path clip-rule="evenodd" d="     M18.596,72.381c2.412-2.124,5.904-4.176,11.016-6.3c5.04-2.196,13.608-4.428,18.9-6.552c5.148-2.196,9.216-4.536,12.06-6.049     c2.772-1.512,1.296-2.195,4.464-2.88c3.096-0.792,10.008-1.26,13.932-1.836c3.708-0.684,5.292-0.936,8.64-2.124     c3.42-1.332,8.064-4.14,11.304-5.22c3.096-1.08,3.888-0.792,7.092-1.08c3.096-0.36,7.092,0.36,11.305-1.044     c4.176-1.584,8.676-5.184,13.355-7.884c4.5-2.772,7.561-4.788,14.184-8.388c6.732-3.708,15.084-8.208,25.74-13.644l4.465,2.88     c-2.736,0.828-6.156,2.052-10.262,3.672c-4.176,1.62-10.008,3.78-14.436,6.048c-4.5,2.232-8.459,4.32-12.313,7.092     c-3.996,2.628-7.668,6.48-11.303,8.64c-3.816,1.98-6.66,2.7-10.764,3.42c-4.178,0.576-9.504-0.54-13.645,0.54     c-4.212,1.044-7.884,3.708-11.304,5.76c-3.456,2.017-6.192,4.824-9.18,5.796c-3.132,0.648-6.048-1.332-9.18-1.08     c-3.204,0.288-6.12,1.116-9.72,2.916c-3.636,1.62-5.292,3.744-12.348,7.345c-7.272,3.563-17.316,8.244-30.708,14.184     C19.46,75.188,19.028,73.785,18.596,72.381z" fill="#FFD028" fill-rule="evenodd" i:knockout="Off" stroke="#000000" stroke-miterlimit="10" stroke-width="0.036"/>
      <path clip-rule="evenodd" d="     M20.936,79.977c0.288,0.721,1.08,1.513,2.376,2.376c1.296,0.864,2.952,1.692,5.256,2.628c5.04-3.708,10.332-6.804,16.272-9.432     c5.832-2.664,14.4-4.5,18.9-6.336c4.356-1.944,2.916-3.6,7.344-4.968c4.32-1.477,12.024-1.225,18.648-3.42     c6.48-2.269,13.86-7.632,20.483-9.973c6.48-2.34,12.133-1.332,18.9-4.211c6.625-3.204,11.664-9.18,21.24-13.896     c9.611-4.68,21.385-9.324,36-13.932c-1.008-0.468-2.016-1.08-3.168-1.836c-1.295-0.864-3.023-2.376-3.672-2.88     c-0.684-0.504,2.232-0.828,0,0c-2.34,0.828-10.404,2.592-13.645,4.464c-3.311,1.8-2.699,4.104-5.795,5.796     c-3.133,1.332-8.209,0.612-12.852,3.132c-4.752,2.556-10.514,9.036-15.48,12.06c-5.076,2.952-9.469,4.104-14.725,5.544     c-5.436,1.368-12.096,0.396-17.064,2.34c-4.932,1.765-7.38,6.517-12.348,8.424c-5.04,1.765-13.248,1.62-17.82,2.629     c-4.716,0.899-6.804,1.8-10.008,3.384c-3.204,1.548-3.06,2.916-9.432,6.048C43.76,70.905,34.184,74.973,20.936,79.977z" fill-rule="evenodd" i:knockout="Off" stroke="#000000" stroke-miterlimit="10" stroke-width="0.036"/>
      <path clip-rule="evenodd" d="     M28.28,83.685c-0.432,0.108-1.26-0.071-2.088-0.54c-1.008-0.504-2.016-1.296-3.42-2.376c4.572-1.979,8.64-3.672,12.348-5.22     c3.528-1.62,5.976-2.16,9.72-3.96c3.78-1.944,8.712-5.004,12.852-7.092c4.068-2.16,6.12-3.96,11.304-5.256     c5.004-1.368,13.932-0.792,19.152-2.593c5.148-1.979,7.272-6.731,11.808-8.424c4.464-1.764,10.296-1.08,14.724-1.836     c4.283-0.756,7.309-1.44,11.016-2.88c3.637-1.692,7.271-3.888,10.764-6.3c3.385-2.448,6.949-6.192,9.721-7.884     c2.629-1.692,3.709-1.656,6.301-2.376c2.592-0.792,6.588-1.476,8.928-2.592c2.232-1.224,1.404-3.312,4.463-4.752     c3.025-1.548,7.344-2.988,13.393-4.464l4.465,3.42c-3.816,1.656-7.633,3.132-11.846,4.716c-4.283,1.404-8.746,2.7-13.104,4.464     c-4.463,1.764-9.539,4.464-12.887,6.3c-3.385,1.692-4.682,2.952-6.805,4.464c-2.088,1.548-3.961,3.132-6.049,4.752     c-2.268,1.44-3.42,2.7-7.344,3.924c-4.139,1.116-10.729,0.828-16.559,2.88c-5.832,2.053-13.717,7.236-18.109,9.181     c-4.5,1.764-5.22,1.26-8.388,1.836c-3.276,0.468-7.74,0.54-10.764,1.584c-3.06,1.08-5.004,3.168-7.632,4.716     c-2.736,1.368-5.148,2.232-8.64,3.708c-3.708,1.404-8.28,2.52-12.888,4.716C38.108,77.853,33.392,80.48,28.28,83.685z" fill="#FFD028" fill-rule="evenodd" i:knockout="Off" stroke="#000000" stroke-miterlimit="10" stroke-width="0.036"/>
      <path clip-rule="evenodd" d="     M0.02,65.648c3.924-4.104,10.656-8.388,20.736-12.852c10.044-4.572,24.012-9.756,39.132-14.184     c15.12-4.392,36.18-7.164,50.399-12.348c14.004-5.364,25.668-15.084,33.336-19.44c7.525-4.392,11.412-6.66,11.809-6.804     c1.943,2.124,4.535,4.176,7.381,6.3c2.916,2.088,7.668,4.284,9.971,6.048c2.197,1.656,3.385,2.916,3.42,3.924     c-6.623,4.572-14.328,9.072-23.65,13.644c-9.396,4.392-20.484,8.676-32.006,13.392c-11.627,4.752-24.299,10.116-37.043,14.976     C70.58,63.021,54.812,66.98,44.12,71.697c-10.656,4.68-18.612,9.396-24.156,14.436c-5.472-1.296-9.792-3.708-13.104-7.092     C3.476,75.513,1.244,71.229,0.02,65.648z" fill-rule="evenodd" i:knockout="Off" stroke="#000000" stroke-miterlimit="10" stroke-width="0.036"/>
      <path clip-rule="evenodd" d="     M1.352,66.153c3.924-4.104,10.656-8.389,20.736-12.853c10.08-4.572,23.94-9.756,39.096-14.184     c15.12-4.464,36.18-7.092,50.4-12.312c14.004-5.436,25.955-15.3,33.371-19.44c7.236-4.212,10.693-5.832,10.225-5.256     c3.42,2.628,6.66,5.04,9.721,7.092c3.059,2.052,6.875,3.852,8.387,5.256c1.369,1.296,1.369,1.98,0,2.34     c-4.824,3.564-11.375,7.236-20.195,11.556c-8.965,4.176-20.699,8.928-32.293,13.68c-11.662,4.752-23.975,9.756-36.503,14.436     c-12.636,4.536-27.072,8.172-38.052,12.853c-10.98,4.607-19.764,9.647-27.036,14.976c-4.464-0.468-8.1-2.268-11.052-5.256     C5.168,75.98,2.9,71.732,1.352,66.153z" fill="#804000" fill-rule="evenodd" i:knockout="Off" stroke="#000000" stroke-miterlimit="10" stroke-width="0.036"/>
      <path clip-rule="evenodd" d="     M3.188,68.781c1.764-1.98,5.652-4.248,11.808-6.805c6.12-2.628,18.648-6.12,24.948-8.676c6.228-2.736,6.732-5.147,12.06-6.804     c5.22-1.692,13.176-1.368,19.152-2.916c5.76-1.656,10.404-5.04,16.02-6.552c5.652-1.584,11.556-0.324,17.855-2.628     c6.156-2.52,13.105-8.172,19.189-11.556c5.939-3.456,11.158-5.688,16.775-8.64c5.543-3.024,11.016-6.048,16.561-9.216l5.76,4.212     c-11.809,3.744-21.996,7.848-30.961,12.6c-9,4.716-15.191,12.42-22.607,15.48c-7.632,2.916-15.3,0.144-22.032,2.376     c-6.66,2.196-12.024,8.568-17.604,10.512c-5.688,1.692-10.008-1.692-16.02,0.252c-6.12,1.979-12.42,7.452-20.448,11.556     c-8.1,4.032-17.28,7.956-27.828,12.313c-0.108-0.828-0.324-1.692-0.792-2.592C4.556,70.761,3.944,69.789,3.188,68.781z" fill-rule="evenodd" i:knockout="Off" stroke="#000000" stroke-miterlimit="10" stroke-width="0.036"/>
      <path clip-rule="evenodd" d="     M5.276,69.069c2.412-2.124,5.904-4.177,11.016-6.301c5.04-2.268,13.608-4.464,18.9-6.588c5.184-2.195,9.216-4.571,12.096-6.012     c2.772-1.548,1.296-2.196,4.464-2.916c3.168-0.792,9.936-1.26,13.896-1.836c3.744-0.648,5.292-0.972,8.676-2.088     c3.42-1.296,8.064-4.212,11.304-5.256c2.988-1.116,3.996-0.72,7.056-1.044c3.096-0.36,7.092,0.36,11.305-1.044     c4.176-1.584,8.639-5.184,13.391-7.884c4.5-2.664,7.561-4.86,14.186-8.388c6.695-3.78,15.119-8.208,25.703-13.68l4.5,2.916     c-2.736,0.828-6.156,2.052-10.26,3.672c-4.176,1.656-10.008,3.708-14.436,6.012c-4.465,2.124-8.533,4.392-12.348,7.092     c-4.033,2.7-7.598,6.516-11.27,8.676c-3.707,1.98-6.695,2.7-10.763,3.42c-4.14,0.648-9.576-0.612-13.68,0.504     c-4.212,1.008-7.92,3.78-11.268,5.796c-3.42,1.908-6.264,4.896-9.216,5.76c-3.132,0.612-6.048-1.26-9.18-1.044     c-3.204,0.36-6.12,1.044-9.72,2.88c-3.708,1.692-5.22,3.78-12.312,7.38C30.044,62.661,20,67.377,6.608,73.245     C6.176,71.877,5.744,70.473,5.276,69.069z" fill="#FFD028" fill-rule="evenodd" i:knockout="Off" stroke="#000000" stroke-miterlimit="10" stroke-width="0.036"/>
      <path clip-rule="evenodd" d="     M7.652,76.665c0.324,0.72,1.008,1.512,2.34,2.376c1.296,0.864,2.952,1.691,5.256,2.628c5.04-3.78,10.332-6.804,16.272-9.468     c5.832-2.7,14.4-4.429,18.9-6.301c4.32-1.943,3.024-3.6,7.38-4.968c4.284-1.476,12.06-1.224,18.612-3.42     c6.48-2.268,13.86-7.632,20.484-9.972c6.479-2.34,12.131-1.332,18.899-4.212c6.732-3.204,11.557-9.18,21.277-13.896     c9.576-4.68,21.42-9.324,35.963-13.932c-1.008-0.468-2.016-1.08-3.168-1.836c-1.295-0.864-3.023-2.376-3.672-2.88     c-0.684-0.504,2.232-0.828,0,0c-2.34,0.756-10.404,2.7-13.643,4.464c-3.277,1.692-2.736,4.212-5.762,5.76     c-3.238,1.404-8.135,0.648-12.887,3.168c-4.861,2.556-10.441,9.036-15.48,12.06c-5.148,2.844-9.396,4.176-14.688,5.508     c-5.437,1.296-12.097,0.468-17.064,2.376c-5.004,1.8-7.272,6.443-12.348,8.388c-5.148,1.836-13.176,1.512-17.856,2.628     c-4.752,0.973-6.732,1.836-9.972,3.42c-3.168,1.548-3.132,2.916-9.468,6.048C30.44,67.593,20.828,71.661,7.652,76.665z" fill-rule="evenodd" i:knockout="Off" stroke="#000000" stroke-miterlimit="10" stroke-width="0.036"/>
      <path clip-rule="evenodd" d="     M14.996,80.337c-0.576,0.144-1.152-0.072-2.124-0.504c-0.972-0.504-2.052-1.296-3.384-2.376c4.5-2.052,8.604-3.672,12.312-5.256     c3.528-1.656,5.976-2.088,9.72-3.924c3.852-1.944,8.748-5.005,12.888-7.093c3.996-2.16,6.084-3.96,11.268-5.256     c5.076-1.332,13.968-0.864,19.188-2.628c5.112-1.908,7.38-6.696,11.808-8.388c4.428-1.764,10.296-1.08,14.688-1.836     c4.285-0.9,7.308-1.368,11.015-2.916c3.637-1.692,7.273-3.888,10.766-6.3c3.383-2.484,6.947-6.12,9.719-7.848     c2.629-1.692,3.709-1.656,6.301-2.376c2.592-0.828,6.588-1.512,8.928-2.628c2.232-1.26,1.404-3.204,4.465-4.716     c3.023-1.548,7.344-2.988,13.391-4.464l4.465,3.42c-3.744,1.656-7.633,3.132-11.809,4.716c-4.248,1.404-8.82,2.7-13.141,4.464     c-4.463,1.764-9.576,4.464-12.852,6.3c-3.313,1.692-4.752,2.952-6.84,4.464c-2.123,1.548-3.852,3.168-6.012,4.716     c-2.195,1.404-3.492,2.772-7.381,3.96c-4.066,1.116-10.727,0.828-16.523,2.88c-5.832,2.052-13.716,7.236-18.108,9.18     c-4.464,1.765-5.328,1.26-8.424,1.836c-3.276,0.468-7.74,0.54-10.764,1.584c-3.096,1.08-4.932,3.168-7.596,4.716     c-2.7,1.261-5.22,2.305-8.676,3.673c-3.6,1.403-8.388,2.52-12.852,4.716C24.824,74.505,20.108,77.133,14.996,80.337z" fill="#FFD028" fill-rule="evenodd" i:knockout="Off" stroke="#000000" stroke-miterlimit="10" stroke-width="0.036"/>
    </g>
  </g>
</svg>
