<?xml version="1.0" encoding="utf-8"?>
<!-- Generator: Adobe Illustrator 10.0, SVG Export Plug-In . SVG Version: 3.0.0 Build 77)  --><svg enable-background="new 0 0 428.848 206.696" height="206.696" i:pageBounds="0 792 612 0" i:rulerOrigin="0 0" i:viewOrigin="102 555" overflow="visible" space="preserve" viewBox="0 0 428.848 206.696" width="428.848" xmlns="http://www.w3.org/2000/svg" xmlns:a="http://ns.adobe.com/AdobeSVGViewerExtensions/3.0/" xmlns:graph="http://ns.adobe.com/Graphs/1.0/" xmlns:i="http://ns.adobe.com/AdobeIllustrator/10.0/" xmlns:x="http://ns.adobe.com/Extensibility/1.0/" xmlns:xlink="http://www.w3.org/1999/xlink">
  <metadata>
    <rdf:RDF xmlns:cc="http://web.resource.org/cc/" xmlns:dc="http://purl.org/dc/elements/1.1/" xmlns:rdf="http://www.w3.org/1999/02/22-rdf-syntax-ns#">
      <cc:Work rdf:about="">
        <dc:title>Large basic Plate</dc:title>
        <dc:description>Large basic Plate</dc:description>
        <dc:subject>
          <rdf:Bag>
            <rdf:li>food</rdf:li>
            <rdf:li>menu</rdf:li>
            <rdf:li>plate</rdf:li>
          </rdf:Bag>
        </dc:subject>
        <dc:publisher>
          <cc:Agent rdf:about="http://www.openclipart.org/">
            <dc:title>Open Clip Art Project</dc:title>
          </cc:Agent>
        </dc:publisher>
        <dc:creator>
          <cc:Agent rdf:about="http://web.resource.org/cc/PublicDomain">
            <dc:title>Gerald G.</dc:title>
          </cc:Agent>
        </dc:creator>
        <dc:rights>
          <cc:Agent rdf:about="http://web.resource.org/cc/PublicDomain">
            <dc:title>Public Domain</dc:title>
          </cc:Agent>
        </dc:rights>
        <dc:date>2005/06/21</dc:date>
        <dc:format>image/svg+xml</dc:format>
        <dc:type rdf:resource="http://purl.org/dc/dcmitype/StillImage"/>
        <cc:license rdf:resource="http://web.resource.org/cc/PublicDomain"/>
        <dc:language>en</dc:language>
      </cc:Work>
      <cc:License rdf:about="http://web.resource.org/cc/PublicDomain">
        <cc:permits rdf:resource="http://web.resource.org/cc/Reproduction"/>
        <cc:permits rdf:resource="http://web.resource.org/cc/Distribution"/>
        <cc:permits rdf:resource="http://web.resource.org/cc/DerivativeWorks"/>
      </cc:License>
    </rdf:RDF>
  </metadata>
  <switch>
    <foreignObject height="1" requiredExtensions="http://ns.adobe.com/AdobeIllustrator/10.0/" width="1" x="0" y="0">
      <i:pgfRef xlink:href="#adobe_illustrator_pgf"></i:pgfRef>
    </foreignObject>
    <g i:extraneous="self">
      <g i:dimmedPercent="50" i:layer="yes" i:rgbTrio="#4F008000FFFF" id="Layer_1">
        <g>
          <path clip-rule="evenodd" d="M214.421,0c118.365,0,214.427,46.299,214.427,103.348       c0,57.049-96.062,103.348-214.427,103.348C96.062,206.696,0,160.397,0,103.348C0,46.299,96.062,0,214.421,0" fill-rule="evenodd" i:knockout="Off"/>
          <path clip-rule="evenodd" d="M214.421,0.812       c117.39,0,212.66,45.607,212.66,101.799c0,56.199-95.271,101.803-212.66,101.803c-117.387,0-212.657-45.604-212.657-101.803       C1.764,46.419,97.034,0.812,214.421,0.812" fill="#D18836" fill-rule="evenodd" i:knockout="Off"/>
          <path clip-rule="evenodd" d="M215.157,6.404       c114.461,0,207.358,43.433,207.358,96.944c0,53.515-92.897,96.945-207.358,96.945c-114.46,0-207.355-43.43-207.355-96.945       C7.802,49.836,100.697,6.404,215.157,6.404" fill="#184180" fill-rule="evenodd" i:knockout="Off"/>
          <path clip-rule="evenodd" d="M216.632,24.072       c88.372,0,160.1,33.537,160.1,74.861s-71.728,74.858-160.1,74.858c-88.376,0-160.102-33.534-160.102-74.858       S128.256,24.072,216.632,24.072" fill="#1C0A7F" fill-rule="evenodd" i:knockout="Off"/>
          <path clip-rule="evenodd" d="M217.365,30.991       c85.086,0,154.137,30.767,154.137,68.676c0,37.913-69.051,68.68-154.137,68.68c-85.084,0-154.138-30.767-154.138-68.68       C63.228,61.758,132.281,30.991,217.365,30.991" fill="#FFFFFF" fill-rule="evenodd" i:knockout="Off"/>
          <path clip-rule="evenodd" d="M88.993,112.672       c-4.858-6.182-5.301-22.302-0.443-31.356c4.858-8.833,13.912-17.446,28.93-23.407c14.575-7.291,34.008-13.913,59.181-16.342       c24.953-2.872,61.167-2.872,88.993,2.429c27.382,5.299,57.639,17.888,73.759,29.149c14.796,10.819,19.654,22.303,18.109,32.68       c-1.546,9.717-10.825,23.854-26.059,24.513c-16.121-0.443-39.752-20.092-65.81-24.957c-26.28-5.516-64.04-8.167-88.553-6.178       c-24.509,1.102-43.941,13.469-58.298,15.901C103.788,117.087,93.851,117.974,88.993,112.672z" fill="#E0DBDC" fill-rule="evenodd" i:knockout="Off"/>
          <path clip-rule="evenodd" d="M18.105,114.217l29.371-17.665       L25.614,77.119l37.32-13.028l-6.625-18.549l39.75-2.873l3.754-16.341l2.208,18.108l-34.89,4.196L70,64.752L38.2,78.225       l15.458,18.768c-15.458,8.617-26.055,14.355-31.797,17.225C15.455,117.087,15.014,117.087,18.105,114.217z" fill="#F8F6F7" fill-rule="evenodd" i:knockout="Off"/>
          <path clip-rule="evenodd" d="M351.117,34.058l-0.443,13.029l39.523,8.39       l-6.403,21.643l31.139,12.586l-26.496,15.904l24.729,18.103l-33.121-17.223l22.745-16.563l-26.944-12.808l7.949-19.21       l-38.865-11.265L351.117,34.058z" fill="#F8F6F7" fill-rule="evenodd" i:knockout="Off"/>
          <path clip-rule="evenodd" d="M378.276,142.264l-22.085,2.426       l-5.518,24.29l-37.764,1.109l-14.13,20.313l-32.684-11.482l-25.179,17.886l22.087-22.524l32.685,9.275l15.453-18.104       l34.008,0.438l10.825-24.513L378.276,142.264z" fill="#F8F6F7" fill-rule="evenodd" i:knockout="Off"/>
          <path clip-rule="evenodd" d="M181.959,189.959l-13.247-10.596       l-40.193,7.282l-17.444-19.432l-37.981,1.108l4.636-22.086l-38.646-5.739l44.389,1.989l-0.884,21.2l34.668,0.659l13.913,18.109       l42.621-4.638L181.959,189.959z" fill="#F8F6F7" fill-rule="evenodd" i:knockout="Off"/>
          <path clip-rule="evenodd" d="M158.112,13.298l36.875,7.953l26.72-12.589       l31.138,12.146l29.371-6.404l15.018,15.018l28.262-1.767l-29.585,4.414l-16.127-12.807l-25.837,4.418l-30.915-9.938       l-26.939,9.938c-18.549-4.858-30.916-7.068-37.098-9.054C152.37,12.637,152.37,12.196,158.112,13.298z" fill="#F8F6F7" fill-rule="evenodd" i:knockout="Off"/>
        </g>
      </g>
    </g>
  </switch>
</svg>
