<?xml version="1.0" encoding="UTF-8" standalone="no"?>
<!-- Created with Inkscape (http://www.inkscape.org/) -->
<svg
   xmlns:dc="http://purl.org/dc/elements/1.1/"
   xmlns:cc="http://creativecommons.org/ns#"
   xmlns:rdf="http://www.w3.org/1999/02/22-rdf-syntax-ns#"
   xmlns:svg="http://www.w3.org/2000/svg"
   xmlns="http://www.w3.org/2000/svg"
   xmlns:sodipodi="http://sodipodi.sourceforge.net/DTD/sodipodi-0.dtd"
   xmlns:inkscape="http://www.inkscape.org/namespaces/inkscape"
   width="134"
   height="204"
   id="svg2"
   sodipodi:version="0.32"
   inkscape:version="0.46"
   sodipodi:docbase="/datas/Projs/Cliparts Stocker"
   sodipodi:docname="glace_2.svg"
   inkscape:export-filename="/datas/Projs/Cliparts Stocker/glace_2.png"
   inkscape:export-xdpi="90.000000"
   inkscape:export-ydpi="90.000000"
   inkscape:output_extension="org.inkscape.output.svg.inkscape"
   version="1.0">
  <defs
     id="defs4" />
  <sodipodi:namedview
     id="base"
     pagecolor="#ffffff"
     bordercolor="#666666"
     borderopacity="1.0"
     inkscape:pageopacity="0.0"
     inkscape:pageshadow="2"
     inkscape:zoom="3.9558824"
     inkscape:cx="101.75836"
     inkscape:cy="102"
     inkscape:document-units="px"
     inkscape:current-layer="layer1"
     inkscape:window-width="1680"
     inkscape:window-height="1003"
     inkscape:window-x="-4"
     inkscape:window-y="-4"
     showgrid="false" />
  <metadata
     id="metadata7">
    <rdf:RDF>
      <cc:Work
         rdf:about="">
        <dc:format>image/svg+xml</dc:format>
        <dc:type
           rdf:resource="http://purl.org/dc/dcmitype/StillImage" />
        <dc:title>Glace (N° 2)</dc:title>
        <dc:creator>
          <cc:Agent>
            <dc:title>Jean-Victor Balin</dc:title>
          </cc:Agent>
        </dc:creator>
        <dc:date>2005-08-08</dc:date>
        <cc:license
           rdf:resource="http://creativecommons.org/licenses/publicdomain/" />
        <dc:description>jean.victor.balin@gmail.com</dc:description>
        <dc:language>fr-FR</dc:language>
        <dc:subject>
          <rdf:Bag>
            <rdf:li>food</rdf:li>
            <rdf:li>dessert</rdf:li>
            <rdf:li>ice cream</rdf:li>
          </rdf:Bag>
        </dc:subject>
      </cc:Work>
      <cc:License
         rdf:about="http://creativecommons.org/licenses/publicdomain/">
        <cc:permits
           rdf:resource="http://creativecommons.org/ns#Reproduction" />
        <cc:permits
           rdf:resource="http://creativecommons.org/ns#Distribution" />
        <cc:permits
           rdf:resource="http://creativecommons.org/ns#DerivativeWorks" />
      </cc:License>
    </rdf:RDF>
  </metadata>
  <g
     inkscape:label="Calque 1"
     inkscape:groupmode="layer"
     id="layer1">
    <path
       style="fill:#000000"
       d=""
       id="path1504" />
    <path
       style="fill:#000000"
       d=""
       id="path1488" />
    <g
       id="g2397"
       transform="translate(-1.4047009e-6,6.0323731e-7)">
      <path
         sodipodi:nodetypes="cccccccccccccc"
         id="path1520"
         d="M 94.903577,0.249254 C 84.944737,1.687082 79.318167,9.158652 74.264587,17.491453 C 64.651257,32.384145 14.007427,111.95396 9.358267,122.72447 C 6.527817,130.28437 9.674577,137.86894 16.946475,143.18105 C 22.140174,146.32153 23.400407,150.24484 19.901397,156.15342 C 11.923337,168.78806 0.469237,184.4201 0.564757,189.5992 C -0.307913,201.20571 11.217387,206.95161 18.569727,202.17184 C 26.186027,197.32885 32.012707,180.60032 37.452297,169.06859 C 39.629717,164.30188 41.439837,159.09082 47.648847,162.71955 C 56.888907,167.78265 66.990417,162.27117 71.520377,153.74183 C 78.517537,141.52114 112.83836,76.035395 123.55377,54.833865 C 128.12125,44.517925 134.53915,36.934595 133.33414,26.151335 C 132.32678,15.817682 125.70946,12.501203 117.59341,7.278193 C 109.75151,3.016355 104.08893,-0.530429 94.903577,0.249254 z"
         style="fill:#000000;fill-opacity:1" />
      <path
         id="path4316"
         d="M 96.931407,2.444811 C 109.02031,3.119501 114.78221,8.631385 122.85904,13.27946 C 131.87857,19.32415 133.13358,29.379245 129.15282,37.909005 C 116.09568,65.560185 77.270247,136.4693 73.097767,145.12129 C 69.425837,151.49305 65.502647,160.7548 57.156327,161.5802 C 46.589407,162.08313 18.905367,144.49114 12.938627,134.33606 C 8.497917,125.67847 13.425287,120.09537 17.455767,113.36377 C 23.959117,103.21557 63.798597,37.706085 78.065637,16.228115 C 82.211537,8.974004 89.453937,2.342024 96.931407,2.444811 z"
         style="fill:#8d4024;fill-opacity:1" />
      <path
         id="path4314"
         d="M 26.043847,151.15891 C 31.052097,154.72425 40.849067,156.87976 36.415217,164.98739 C 30.778607,176.05952 28.003587,189.46338 19.035047,198.37288 C 11.363357,206.09575 -1.245393,195.18434 3.529747,186.52891 L 26.043847,151.15891 C 26.043847,151.15891 22.756387,155.31284 26.043847,151.15891 z"
         style="fill:#ebbd7a;fill-opacity:1" />
      <path
         id="path3190"
         d="M 12.146057,175.37964 C 12.544417,177.98066 15.832967,172.31142 16.820877,170.2497 C 19.010287,166.23847 21.365347,162.11722 24.929457,159.16172 C 26.582687,157.85792 29.931137,156.72613 31.863767,158.1182 C 33.064217,158.70694 35.511897,162.56226 34.799627,159.37199 C 34.116637,157.55412 32.122347,156.482 30.304737,156.07153 C 27.207397,155.36747 24.854397,156.99738 22.328467,159.54708 C 18.198667,164.33082 15.593017,170.13436 12.146057,175.37964 z"
         style="fill:#e08e42;fill-opacity:1" />
      <path
         id="path3192"
         d="M 28.302085,177.43962 C 27.599035,174.90393 25.003725,180.92217 24.266475,183.08621 C 22.566595,187.32812 20.715235,191.6989 17.525505,195.05498 C 16.037995,196.54507 12.846815,198.06477 10.763175,196.91093 C 9.501545,196.46824 6.615275,192.92929 7.699685,196.01298 C 8.592785,197.73737 10.699825,198.56621 12.553215,198.75895 C 15.712065,199.09191 17.855895,197.19529 20.062695,194.36486 C 23.598035,189.12646 25.499355,183.05559 28.302085,177.43962 z"
         style="fill:#e08e42;fill-opacity:1" />
      <path
         sodipodi:nodetypes="cccccccccc"
         id="path5774"
         d="M 65.737666,43.031154 C 59.167841,52.689944 55.146218,58.768473 48.860705,70.95473 C 39.657344,90.091805 17.575319,115.28751 17.188253,126.03979 C 16.259258,133.7676 22.739583,139.86103 29.016654,143.141 C 37.913551,148.66566 48.170238,152.34803 58.716158,152.49767 C 58.1861,149.09978 50.233175,147.30506 45.497006,147.06539 C 32.1235,146.22198 20.537545,131.9309 24.405105,118.66138 C 28.249225,106.63662 36.827808,98.181475 43.858825,87.016435 C 51.549931,74.928193 59.014349,62.694406 66.171006,50.281809 C 67.681956,47.659536 70.665563,35.695743 65.737666,43.031154 z"
         style="fill:#b17c69;fill-opacity:1;fill-rule:evenodd;stroke:none;stroke-width:1px;stroke-linecap:butt;stroke-linejoin:miter;stroke-opacity:1" />
      <path
         sodipodi:nodetypes="cccccccccc"
         id="path6550"
         d="M 93.265287,6.913807 C 96.718457,6.332115 103.75094,7.039757 109.03322,9.778332 C 116.33291,13.536198 124.26563,16.90594 125.77018,26.769856 C 126.23913,36.219341 122.9357,37.950075 117.51923,46.093959 C 109.31762,56.886317 108.14557,66.315105 106.7812,63.725554 C 105.54417,60.292913 109.86952,52.610347 114.36665,46.993005 C 118.31712,42.006237 123.41761,35.012687 122.40359,27.071929 C 121.76288,21.957454 115.88292,17.751571 110.34828,15.827596 C 104.86823,13.921785 103.14132,15.32141 92.762847,12.033111 C 90.346957,11.259239 89.845877,7.322533 93.265287,6.913807 z"
         style="fill:#b17c69;fill-opacity:1;fill-rule:evenodd;stroke:none;stroke-width:1px;stroke-linecap:butt;stroke-linejoin:miter;stroke-opacity:1" />
    </g>
  </g>
</svg>
