<?xml version="1.0" encoding="UTF-8" standalone="no"?>
<svg
   xmlns:dc="http://purl.org/dc/elements/1.1/"
   xmlns:cc="http://creativecommons.org/ns#"
   xmlns:rdf="http://www.w3.org/1999/02/22-rdf-syntax-ns#"
   xmlns:svg="http://www.w3.org/2000/svg"
   xmlns="http://www.w3.org/2000/svg"
   xmlns:xlink="http://www.w3.org/1999/xlink"
   xmlns:sodipodi="http://sodipodi.sourceforge.net/DTD/sodipodi-0.dtd"
   xmlns:inkscape="http://www.inkscape.org/namespaces/inkscape"
   sodipodi:docbase="/datas/Projs/Cliparts Stocker"
   sodipodi:docname="mcoon.svg"
   inkscape:version="0.46"
   sodipodi:version="0.32"
   id="svg1"
   height="572"
   width="320"
   inkscape:output_extension="org.inkscape.output.svg.inkscape"
   version="1.0">
  <defs
     id="defs9">
    <linearGradient
       id="linearGradient6038">
      <stop
         id="stop6039"
         offset="0.00000000"
         style="stop-color:#bb681f;stop-opacity:1.0000000;" />
      <stop
         id="stop6040"
         offset="1.0000000"
         style="stop-color:#7e3c07;stop-opacity:1.0000000;" />
    </linearGradient>
    <linearGradient
       id="linearGradient4791">
      <stop
         id="stop4792"
         offset="0.00000000"
         style="stop-color:#326cb3;stop-opacity:1.0000000;" />
      <stop
         id="stop4793"
         offset="1.0000000"
         style="stop-color:#323c81;stop-opacity:1.0000000;" />
    </linearGradient>
    <linearGradient
       id="linearGradient4164">
      <stop
         id="stop4165"
         offset="0.00000000"
         style="stop-color:#f1dcc5;stop-opacity:1.0000000;" />
      <stop
         id="stop4166"
         offset="1.0000000"
         style="stop-color:#e9b68b;stop-opacity:1.0000000;" />
    </linearGradient>
    <linearGradient
       y2="218.90957"
       x2="280.35353"
       y1="150.57979"
       x1="165.31011"
       id="linearGradient4168"
       xlink:href="#linearGradient4164"
       inkscape:collect="always"
       gradientTransform="scale(1.0953205,0.9129748)"
       gradientUnits="userSpaceOnUse" />
    <linearGradient
       y2="441.96684"
       x2="292.59246"
       y1="354.80745"
       x1="135.00397"
       id="linearGradient4790"
       xlink:href="#linearGradient4791"
       inkscape:collect="always"
       gradientTransform="scale(1.0265368,0.9741492)"
       gradientUnits="userSpaceOnUse" />
    <linearGradient
       y2="1364.8902"
       x2="127.61944"
       y1="1353.3168"
       x1="94.655074"
       id="linearGradient5415"
       xlink:href="#linearGradient4791"
       inkscape:collect="always"
       gradientTransform="scale(2.2576824,0.4429321)"
       gradientUnits="userSpaceOnUse" />
    <linearGradient
       y2="1171.1079"
       x2="137.22827"
       y1="1159.5633"
       x1="111.63761"
       id="linearGradient6037"
       xlink:href="#linearGradient6038"
       inkscape:collect="always"
       gradientTransform="scale(2.040133,0.4901641)"
       gradientUnits="userSpaceOnUse" />
    <linearGradient
       inkscape:collect="always"
       xlink:href="#linearGradient4791"
       id="linearGradient2399"
       gradientUnits="userSpaceOnUse"
       gradientTransform="matrix(2.2576824,0,0,0.4429321,-91.625,-82.546875)"
       x1="94.655074"
       y1="1353.3168"
       x2="127.61944"
       y2="1364.8902" />
    <linearGradient
       inkscape:collect="always"
       xlink:href="#linearGradient6038"
       id="linearGradient2402"
       gradientUnits="userSpaceOnUse"
       gradientTransform="matrix(2.040133,0,0,0.4901641,-91.625,-82.546875)"
       x1="111.63761"
       y1="1159.5633"
       x2="137.22827"
       y2="1171.1079" />
    <linearGradient
       inkscape:collect="always"
       xlink:href="#linearGradient4791"
       id="linearGradient2405"
       gradientUnits="userSpaceOnUse"
       gradientTransform="matrix(1.0265368,0,0,0.9741492,-91.625,-82.546875)"
       x1="135.00397"
       y1="354.80745"
       x2="292.59246"
       y2="441.96684" />
    <linearGradient
       inkscape:collect="always"
       xlink:href="#linearGradient4164"
       id="linearGradient2408"
       gradientUnits="userSpaceOnUse"
       gradientTransform="matrix(1.0953205,0,0,0.9129748,-91.625,-82.546875)"
       x1="165.31011"
       y1="150.57979"
       x2="280.35353"
       y2="218.90957" />
  </defs>
  <sodipodi:namedview
     inkscape:current-layer="svg1"
     inkscape:window-y="-4"
     inkscape:window-x="-4"
     inkscape:window-height="1003"
     inkscape:window-width="1680"
     inkscape:cy="286"
     inkscape:cx="257.45973"
     inkscape:zoom="1.4108392"
     inkscape:pageshadow="2"
     inkscape:pageopacity="0.0"
     borderopacity="1.0"
     bordercolor="#666666"
     pagecolor="#ffffff"
     id="base"
     showgrid="false" />
  <g
     id="g2411">
    <path
       id="path3"
       d="M 160,0.359375 C 157.13502,0.530314 154.21019,0.806683 151.15625,1.265625 C 108.94025,8.657326 82.98075,38.885165 63.09375,74.421875 C 56.07175,86.970865 49.987,99.111375 45.75,112.98438 C 40.11499,131.43837 35.4905,157.04887 31.9375,175.79688 C 29.6795,187.71287 7.243,177.65912 2.75,187.95312 C -0.971,196.48113 2.15625,212.53713 2.15625,221.82812 C 2.156247,264.04811 15.3065,300.59813 32.3125,338.82812 C 42.1535,360.95111 63.172,381.83337 81.25,397.35937 C 95.08999,409.24637 110.69275,419.24112 112.84375,438.82812 C 115.43675,462.43712 89.3145,473.24613 75.1875,485.07812 C 66.07949,492.70515 61.16925,501.05037 50.15625,506.85937 C 35.86225,514.39835 18.41725,521.32212 16.28125,539.82812 C 15.15125,549.61911 22.66325,554.02012 31.15625,556.32812 C 45.55525,560.24013 59.64125,561.80487 74.15625,564.92188 C 101.62925,570.8219 130.79225,571.64062 158.78125,571.64062 C 159.18097,571.62105 159.59958,571.59721 160,571.57812 C 160.40042,571.59721 160.81903,571.62105 161.21875,571.64062 C 189.20775,571.64062 218.37075,570.8219 245.84375,564.92188 C 260.35875,561.80487 274.44475,560.24013 288.84375,556.32812 C 297.33675,554.02012 304.84875,549.61911 303.71875,539.82812 C 301.58275,521.32212 284.13775,514.39835 269.84375,506.85937 C 258.83075,501.05037 253.92051,492.70515 244.8125,485.07812 C 230.6855,473.24613 204.56325,462.43712 207.15625,438.82812 C 209.30725,419.24112 224.91001,409.24637 238.75,397.35937 C 256.828,381.83337 277.8465,360.95111 287.6875,338.82812 C 304.6935,300.59813 317.84376,264.04811 317.84375,221.82812 C 317.84375,212.53713 320.971,196.48113 317.25,187.95312 C 312.757,177.65912 290.3205,187.71287 288.0625,175.79688 C 284.5095,157.04887 279.88501,131.43837 274.25,112.98438 C 270.013,99.111375 263.92825,86.970865 256.90625,74.421875 C 237.01925,38.885165 211.05975,8.657325 168.84375,1.265625 C 165.78981,0.806685 162.86498,0.530315 160,0.359375 z"
       style="fill:#000000;stroke:none" />
    <path
       id="path4"
       d="M 159.625,10.140625 C 153.44572,10.412665 147.34144,11.071256 142.15625,12.265625 C 130.67025,14.911324 116.75225,24.413375 107.3125,32.890625 C 97.18049,39.757025 87.8155,53.831225 80.9375,63.828125 C 69.6015,80.302335 57.393,102.52412 51.875,121.82812 C 47.94999,135.56114 44.77764,148.1013 41.90625,163.82812 C 40.36286,173.83234 37.79539,183.75373 36.8125,198.26562 C 36.6765,200.16577 38.61884,200.45319 39.53125,201.54687 C 61.60324,212.26389 80.19625,211.84337 104.15625,213.48437 C 122.75654,214.75758 141.04108,215.02416 159.625,214.82812 C 178.20892,215.02416 196.49346,214.75758 215.09375,213.48437 C 239.05375,211.84337 257.64676,212.26389 279.71875,201.54687 C 280.63116,200.45319 282.5735,200.16577 282.4375,198.26562 C 281.45461,183.75373 278.88714,173.83234 277.34375,163.82812 C 274.47236,148.1013 271.30001,135.56114 267.375,121.82812 C 261.857,102.52412 249.6485,80.302335 238.3125,63.828125 C 231.4345,53.831225 222.06951,39.757025 211.9375,32.890625 C 202.49775,24.413375 188.57975,14.911324 177.09375,12.265625 C 171.90856,11.071256 165.80428,10.412665 159.625,10.140625 z"
       style="fill:url(#linearGradient2408);fill-opacity:1;stroke:none" />
    <path
       id="path5"
       d="M 9.72921,198.29164 C 9.72921,217.04364 8.014211,236.77063 11.35421,255.29164 C 14.69521,273.82464 19.38821,287.92089 26.10421,305.0729 C 31.58421,319.07189 38.94095,336.01389 48.07296,348.1979 C 59.28896,363.16289 71.98745,377.25914 86.01046,389.60415 C 96.45846,398.80115 108.05197,406.24565 115.69796,418.29164 C 122.38596,428.82864 122.65372,446.49763 116.66671,457.29164 C 114.84371,460.57864 103.9562,471.35618 108.35421,475.10414 C 113.12421,479.16814 124.75421,478.46513 130.72921,479.72915 C 140.78227,481.8556 150.02542,484.00417 159.97921,484.29164 C 169.933,484.00417 179.17615,481.8556 189.22921,479.72915 C 195.20421,478.46513 206.83421,479.16814 211.60421,475.10414 C 216.00222,471.35618 205.11471,460.57864 203.29171,457.29164 C 197.3047,446.49763 197.57246,428.82864 204.26046,418.29164 C 211.90645,406.24565 223.49996,398.80115 233.94796,389.60415 C 247.97097,377.25914 260.66946,363.16289 271.88546,348.1979 C 281.01747,336.01389 288.37421,319.07189 293.85421,305.0729 C 300.57021,287.92089 305.26321,273.82464 308.60421,255.29164 C 311.94421,236.77063 310.22921,217.04364 310.22921,198.29164 C 280.31421,214.77163 251.41321,216.28989 218.22921,219.44789 C 198.35738,221.33899 179.16192,221.96539 159.97921,221.79164 C 140.7965,221.96539 121.60104,221.33899 101.72921,219.44789 C 68.54521,216.28989 39.64421,214.77163 9.72921,198.29164 z"
       style="fill:url(#linearGradient2405);stroke:none" />
    <path
       id="path6"
       d="M 70.15302,506.81688 C 89.83102,506.88388 109.40602,518.26988 129.15302,520.63289 C 156.41902,523.89488 189.35102,524.83488 216.15302,518.48088 C 227.58302,515.77088 238.13502,509.73689 249.15302,505.81688 C 244.46102,495.74089 229.68002,482.44588 218.15302,480.88988 C 212.94902,480.18789 207.24402,483.00689 202.15302,483.70289 C 183.76602,486.21789 167.03702,491.24289 148.15302,489.72389 C 133.80702,488.56988 115.59902,476.90588 101.15302,481.06189 C 88.93802,484.57588 75.90802,495.72088 70.15302,506.81688 z"
       style="fill:url(#linearGradient2402);stroke:none" />
    <path
       sodipodi:nodetypes="cccccccccs"
       id="path7"
       d="M 65.77367,509.57558 C 49.91777,516.3855 28.81302,522.63089 25.15302,543.81688 C 81.17802,564.01888 149.23302,564.87888 208.15302,558.98789 C 238.14502,555.98888 266.51902,554.14189 295.15302,543.81688 C 292.42302,528.01189 280.01902,522.84988 267.15302,516.18389 C 262.99902,514.03189 258.16002,509.92088 253.15302,510.67489 C 238.58202,512.86888 225.09302,522.71289 210.15302,525.35289 C 178.77802,530.89888 142.05302,527.97988 111.15302,522.19189 C 100.77702,520.24889 94.76915,517.34653 85.6812,514.22518 C 79.0648,511.9108 69.58163,507.94011 65.77367,509.57558 z"
       style="fill:url(#linearGradient2399);stroke:none" />
  </g>
  <metadata
     id="metadata10">
    <rdf:RDF>
      <cc:Work
         rdf:about="">
        <dc:format>image/svg+xml</dc:format>
        <dc:type
           rdf:resource="http://purl.org/dc/dcmitype/StillImage" />
        <dc:description>jean.victor.balin@gmail.com</dc:description>
        <dc:creator>
          <cc:Agent>
            <dc:title>Jean-Victor Balin</dc:title>
          </cc:Agent>
        </dc:creator>
        <dc:date>2004-08-10</dc:date>
        <dc:title>Mcoon</dc:title>
        <cc:license
           rdf:resource="http://creativecommons.org/licenses/publicdomain/" />
        <dc:language>fr-FR</dc:language>
        <dc:subject>
          <rdf:Bag>
            <rdf:li>food</rdf:li>
            <rdf:li>egg</rdf:li>
          </rdf:Bag>
        </dc:subject>
      </cc:Work>
      <cc:License
         rdf:about="http://creativecommons.org/licenses/publicdomain/">
        <cc:permits
           rdf:resource="http://creativecommons.org/ns#Reproduction" />
        <cc:permits
           rdf:resource="http://creativecommons.org/ns#Distribution" />
        <cc:permits
           rdf:resource="http://creativecommons.org/ns#DerivativeWorks" />
      </cc:License>
    </rdf:RDF>
  </metadata>
</svg>
