<?xml version="1.0" encoding="UTF-8" standalone="no"?>
<!-- Created with Inkscape (http://www.inkscape.org/) -->

<svg
   xmlns:dc="http://purl.org/dc/elements/1.1/"
   xmlns:cc="http://creativecommons.org/ns#"
   xmlns:rdf="http://www.w3.org/1999/02/22-rdf-syntax-ns#"
   xmlns:svg="http://www.w3.org/2000/svg"
   xmlns="http://www.w3.org/2000/svg"
   xmlns:xlink="http://www.w3.org/1999/xlink"
   xmlns:sodipodi="http://sodipodi.sourceforge.net/DTD/sodipodi-0.dtd"
   xmlns:inkscape="http://www.inkscape.org/namespaces/inkscape"
   id="svg1"
   sodipodi:version="0.32"
   inkscape:version="0.48.1 r9760"
   width="132.25876"
   height="129.09497"
   sodipodi:docname="nicubunu_Chocolate_birthday_cake.svg"
   version="1.1">
  <metadata
     id="metadata3251" />
  <defs
     id="defs3">
    <linearGradient
       id="linearGradient930">
      <stop
         style="stop-color:#000;stop-opacity:1;"
         offset="0"
         id="stop931" />
      <stop
         style="stop-color:#fff;stop-opacity:1;"
         offset="1"
         id="stop932" />
    </linearGradient>
    <linearGradient
       xlink:href="#linearGradient930"
       id="linearGradient933" />
  </defs>
  <sodipodi:namedview
     id="base"
     pagecolor="#ffffff"
     bordercolor="#666666"
     borderopacity="1.0"
     inkscape:pageopacity="0.0"
     inkscape:pageshadow="2"
     inkscape:zoom="1"
     inkscape:cx="38.364511"
     inkscape:cy="40.009425"
     inkscape:window-width="736"
     inkscape:window-height="748"
     inkscape:window-x="239"
     inkscape:window-y="32"
     showgrid="false"
     fit-margin-top="0"
     fit-margin-left="0"
     fit-margin-right="0"
     fit-margin-bottom="0"
     inkscape:window-maximized="0"
     inkscape:current-layer="svg1" />
  <path
     style="fill:#e6b100;fill-rule:evenodd;stroke:#000000;stroke-width:1.41592035pt"
     d="m 131.37381,105.61788 c 0,12.47085 -29.2295,22.59213 -65.244425,22.59213 -36.014928,0 -65.24443478,-10.12128 -65.24443478,-22.59213 0,-12.470856 29.22950678,-22.592129 65.24443478,-22.592129 36.014925,0 65.244425,10.121273 65.244425,22.592129 z"
     id="path850"
     inkscape:connector-curvature="0" />
  <path
     style="fill:#441b13;fill-rule:evenodd;stroke:#000000;stroke-width:1.16247969pt"
     d="m 66.129369,39.93532 c -31.240969,0 -56.5959578,9.065328 -56.5959578,20.235107 0,0.518247 0.215194,39.443837 0.215194,39.697887 0,11.169766 25.3549888,20.235106 56.5959568,20.235106 31.240971,0 56.595958,-9.06534 56.595958,-20.235106 l -0.2152,-38.925555 c 0,0 0,-0.508131 0,-0.772332 0,-11.169779 -25.354987,-20.235107 -56.595951,-20.235107 z"
     id="path829"
     sodipodi:nodetypes="cccccccc"
     inkscape:connector-curvature="0" />
  <path
     style="fill:#954a3d;fill-rule:evenodd;stroke:#000000;stroke-width:1.31491146pt"
     d="m 7.8118612,55.794003 c -0.462313,4.153769 -4.421156,15.395348 3.5646488,13.637598 7.970673,0.627043 -0.124026,13.693595 8.24583,14.206497 6.80119,0.516291 1.069714,-10.291799 7.242601,-7.014693 6.293956,1.262529 5.483315,7.471404 6.338606,11.670555 4.158203,3.326514 5.508386,-2.501963 4.234105,-5.192618 3.122027,-4.528645 11.81426,-2.601486 16.329369,-0.912438 2.515595,4.58598 4.296656,14.0477 12.238936,11.48211 5.293528,-1.60666 7.61108,-11.265456 12.999993,-12.126282 4.850543,0.04786 5.204319,11.750962 10.576623,6.451036 1.46465,-4.321055 9.30145,-12.10706 14.099957,-6.909797 4.83396,4.445041 12.2242,1.106206 10.42736,-6.526668 2.59123,-4.517272 10.15027,1.838094 10.16605,-10.589555 1.163,-5.864934 0.21075,-11.300338 -7.85986,-16.026309 C 111.53257,45.60616 104.29053,44.489831 97.190143,41.581853 89.491513,38.877036 82.265719,37.4212 74.148009,36.283592 59.983595,36.042399 48.199662,37.714014 34.285188,40.360684 c -6.569463,0.784368 -11.244735,4.882681 -17.235716,6.899252 -3.773426,1.734762 -7.6542798,5.225577 -9.2376108,8.534067 z"
     id="path833"
     sodipodi:nodetypes="ccccccccccccccccccc"
     inkscape:connector-curvature="0" />
  <path
     style="fill:#ffffff;fill-opacity:0.8;fill-rule:evenodd;stroke:none"
     d="m 11.254961,61.678707 c 0,5.147904 5.118071,4.272991 8.177363,7.061645 2.989667,1.362595 5.00613,2.353882 8.60775,2.353882 5.106273,0 -0.650302,-1.669485 -2.151937,-2.353882 -3.543263,0 -9.038138,-1.870266 -9.038138,-5.100077 -2.123422,-1.935575 -2.47551,-1.961568 -5.595038,-1.961568 z"
     id="path835"
     inkscape:connector-curvature="0" />
  <path
     style="fill:#ffffff;fill-opacity:0.8;fill-rule:evenodd;stroke:none"
     d="m 40.951699,72.663489 c 1.344492,2.451105 7.797524,3.530822 13.342013,3.530822 2.936943,1.338564 15.493951,2.446135 15.493951,-1.569254 0,-3.017911 -7.943519,-0.784627 -9.468526,-0.784627 -2.707801,0 -13.789438,-3.515293 -15.49395,-1.961569 -1.657755,0 -2.047514,0.118851 -3.873488,0.784628 z"
     id="path836"
     inkscape:connector-curvature="0" />
  <path
     style="fill:#ffffff;fill-opacity:0.8;fill-rule:evenodd;stroke:none"
     d="m 78.8258,73.84043 c 3.129446,2.852602 13.670443,1.027252 18.506663,-1.176941 1.90983,-1.160588 9.038137,-1.898565 9.038137,-4.31545 1.68004,-1.531414 -6.20023,-0.625284 -7.316587,0.392313 -5.41543,0 -13.112312,1.176941 -19.367438,1.176941 -2.613997,0 -1.310944,2.897275 -0.860775,3.923137 z"
     id="path837"
     inkscape:connector-curvature="0" />
  <path
     style="fill:#ffffff;fill-opacity:0.8;fill-rule:evenodd;stroke:none"
     d="m 114.80887,68.525526 c 1.43362,-1.565784 4.77873,-5.210951 6.25907,-8.44455 0,-1.358044 2.08317,-6.031822 -0.36818,-6.031822 -2.07673,0 -4.41817,3.021392 -4.41817,5.227579 -0.96895,1.058275 -0.0242,6.031822 -2.20908,6.031822 0,3.175818 -2.44034,3.216971 0.73636,3.216971 z"
     id="path838"
     inkscape:connector-curvature="0" />
  <path
     style="fill:#ffffff;fill-opacity:0.8;fill-rule:evenodd;stroke:none"
     d="m 105.94021,46.770789 c -3.47338,0 -6.812807,-1.731962 -10.759687,-3.530823 -4.74258,-1.080758 -9.459303,-3.138509 -14.202785,-3.138509 0,5.63867 8.885295,9.092876 14.202785,6.669332 3.97815,0 6.400607,1.98673 10.759687,0 z"
     id="path839"
     inkscape:connector-curvature="0" />
  <path
     style="fill:#ffffff;fill-opacity:0.8;fill-rule:evenodd;stroke:none"
     d="m 69.169784,40.052164 c -1.26424,-0.373185 -8.099676,-0.864568 -12.237266,-0.29273 -2.652788,0.366631 -5.2603,1.1238 -8.020446,1.505267 -4.190022,0.579085 -4.512663,3.004458 -0.03842,2.386094 4.428785,-0.612082 8.774202,-0.02225 13.384805,-0.659461 2.282745,1.532899 5.990164,-1.487063 6.911326,-2.93917 z"
     id="path840"
     inkscape:connector-curvature="0" />
  <path
     style="fill:#ffffff;fill-opacity:0.8;fill-rule:evenodd;stroke:none"
     d="m 33.635112,45.593848 c -1.91122,0 -6.761804,2.353882 -9.898913,2.353882 -2.157198,0 -9.468525,1.641586 -9.468525,3.530823 -2.768864,2.523918 7.704698,-1.569255 11.620463,-1.569255 2.268342,0 6.455812,0.106107 6.455812,-1.961568 1.598557,0 1.291163,-1.080827 1.291163,-2.353882 z"
     id="path841"
     inkscape:connector-curvature="0" />
  <path
     style="fill:#ffffff;fill-opacity:0.8;fill-rule:evenodd;stroke:none"
     d="m 19.862712,58.932512 c 2.58893,0 8.042508,0.784627 12.05085,0.784627 2.038636,-1.85829 7.316587,0.726823 7.316587,-3.138509 0,-0.813617 -9.119433,-1.569255 -10.3293,-1.569255 -1.66364,0 -6.093883,0.84703 -9.038137,3.923137 z"
     id="path842"
     inkscape:connector-curvature="0" />
  <path
     style="fill:#ffffff;fill-opacity:0.8;fill-rule:evenodd;stroke:none"
     d="m 36.217437,67.563411 c 3.279396,-2.989286 5.896318,-5.374705 9.038138,-8.238586 1.676603,-1.528284 6.25403,0.288123 1.72155,2.353882 0,2.40434 -2.211723,4.31545 -4.734263,4.31545 -2.112401,1.925529 -2.817761,1.569254 -6.025425,1.569254 z"
     id="path843"
     inkscape:connector-curvature="0" />
  <path
     style="fill:#ffffff;fill-opacity:0.8;fill-rule:evenodd;stroke:none"
     d="m 40.951699,47.163103 c 0,2.255773 10.329301,2.924593 10.329301,5.100077 3.185115,0 1.668344,-4.31545 -1.291163,-4.31545 -3.764162,0 -5.354315,-1.456214 -9.038138,-0.784627 z"
     id="path844"
     inkscape:connector-curvature="0" />
  <path
     style="fill:#ffffff;fill-opacity:0.8;fill-rule:evenodd;stroke:none"
     d="m 74.091538,43.239966 c -2.252408,2.05315 -2.409654,7.061646 -5.595038,7.061646 0,4.579283 5.595038,2.231148 5.595038,-0.784627 1.163653,-1.060712 2.151937,-5.05831 0,-6.277019 z"
     id="path845"
     inkscape:connector-curvature="0" />
  <path
     style="fill:#ffffff;fill-opacity:0.8;fill-rule:evenodd;stroke:none"
     d="m 67.635725,61.678707 c 0,0.863791 1.72155,5.997391 1.72155,6.669332 3.483057,1.587465 4.734263,-1.318757 4.734263,-3.923137 -3.243169,-2.956264 0.179407,-7.930402 -6.455813,-2.746195 z"
     id="path846"
     inkscape:connector-curvature="0" />
  <path
     style="fill:#ffffff;fill-opacity:0.8;fill-rule:evenodd;stroke:none"
     d="m 108.52254,49.909298 c -1.83925,0 -14.328787,1.798957 -15.493947,3.923136 0,6.227694 8.742277,0.784628 12.911617,0.784628 2.43277,0 2.97555,-2.557126 2.58233,-4.707764 z"
     id="path847"
     inkscape:connector-curvature="0" />
  <path
     style="fill:#ffffff;fill-opacity:0.8;fill-rule:evenodd;stroke:none"
     d="M 108.52254,62.855648 C 105.737,60.31653 100.84142,60.89408 96.902073,60.89408 c -2.93599,0 -5.28351,2.746195 -1.29116,2.746195 3.41258,0 6.101707,0.784627 9.898907,0.784627 1.77939,0 0.63673,0.163385 3.01272,-1.569254 z"
     id="path848"
     inkscape:connector-curvature="0" />
  <g
     id="g862"
     transform="matrix(1.37724,0,0,1.255404,-103.59064,-16.690206)">
    <path
       style="fill:#0075ff;fill-rule:evenodd;stroke:#000000;stroke-width:0.71048145pt;stroke-linejoin:round"
       d="m 116.37367,29.656913 c 1.05136,1.837947 2.82903,0.862798 4.75806,1.006969 1.95751,0.16542 2.81379,-1.109382 4.00714,-1.503338 3.47583,2.100869 0.39681,4.957194 1.07957,8.574987 0.0472,2.63899 0.47596,6.87373 0.87924,9.674267 0.16399,2.295112 -5.92762,2.471674 -7.08646,1.450133 -0.95726,-0.584012 -1.70146,-2.451135 -1.10222,-4.614278 0.16157,-2.664695 -0.67876,-4.053045 -1.16996,-6.677835 0.13565,-3.223974 -3.38558,-4.167721 -1.36537,-7.910905 z"
       id="path857"
       sodipodi:nodetypes="ccccccccc"
       inkscape:connector-curvature="0" />
    <path
       style="fill:#00ffff;fill-rule:evenodd;stroke:#000000;stroke-width:0.71048145pt;stroke-linejoin:round"
       d="m 116.36976,29.313863 c 0.77672,0.214067 2.40574,0.41147 3.18848,0.08788 0.87582,0 2.12326,0.265608 2.76335,-0.263628 0.5009,0 1.91373,-0.175752 2.55079,-0.175752 0.80359,0 -0.42513,-0.273912 -0.42513,0.43938 -0.58964,0 -1.07103,0.446159 -1.48796,0.790885 -0.36302,0.600302 -1.41196,0.615133 -2.12566,0.615133 -0.83169,0 -1.80931,-0.08788 -2.65707,-0.08788 -0.78406,0 -1.48795,-0.136224 -1.8068,-1.406018 z"
       id="path858"
       sodipodi:nodetypes="ccccccccc"
       inkscape:connector-curvature="0" />
    <path
       style="fill:#ffa800;fill-rule:evenodd;stroke:#000000;stroke-width:0.71048145pt"
       d="m 118.28285,13.759789 c 1.48796,1.669647 9.67172,12.829914 1.48796,13.445047 -11.05341,1.318142 -0.53141,-9.578497 -1.48796,-13.445047 z"
       id="path860"
       sodipodi:nodetypes="ccc"
       inkscape:connector-curvature="0" />
    <path
       style="fill:#ffff00;fill-opacity:1;fill-rule:evenodd;stroke:none"
       d="m 119.33474,18.318327 c 0.7773,1.041841 4.52103,8.181478 0.24588,8.565313 -5.77424,0.822506 0.25381,-6.152629 -0.24588,-8.565313 z"
       id="path861"
       sodipodi:nodetypes="ccc"
       inkscape:connector-curvature="0" />
    <path
       style="fill:none;stroke:#000000;stroke-width:0.71048145pt"
       d="m 120.93991,30.2805 c -1.61536,-0.972156 -2.27205,-2.666878 -1.7336,-3.582395 0.41654,-0.998228 0.59511,-3.252373 0.59511,-4.657258"
       id="path859"
       sodipodi:nodetypes="ccc"
       inkscape:connector-curvature="0" />
  </g>
  <g
     id="g868"
     transform="matrix(1.37724,0,0,1.255404,-61.495337,-2.7982834)">
    <path
       style="fill:#0075ff;fill-rule:evenodd;stroke:#000000;stroke-width:0.71048145pt;stroke-linejoin:round"
       d="m 116.37367,29.656913 c 1.05136,1.837947 2.82903,0.862798 4.75806,1.006969 1.95751,0.16542 2.81379,-1.109382 4.00714,-1.503338 3.47583,2.100869 0.39681,4.957194 1.07957,8.574987 0.0472,2.63899 0.47596,6.87373 0.87924,9.674267 0.16399,2.295112 -5.92762,2.471674 -7.08646,1.450133 -0.95726,-0.584012 -1.70146,-2.451135 -1.10222,-4.614278 0.16157,-2.664695 -0.67876,-4.053045 -1.16996,-6.677835 0.13565,-3.223974 -3.38558,-4.167721 -1.36537,-7.910905 z"
       id="path869"
       sodipodi:nodetypes="ccccccccc"
       inkscape:connector-curvature="0" />
    <path
       style="fill:#00ffff;fill-rule:evenodd;stroke:#000000;stroke-width:0.71048145pt;stroke-linejoin:round"
       d="m 116.36976,29.313863 c 0.77672,0.214067 2.40574,0.41147 3.18848,0.08788 0.87582,0 2.12326,0.265608 2.76335,-0.263628 0.5009,0 1.91373,-0.175752 2.55079,-0.175752 0.80359,0 -0.42513,-0.273912 -0.42513,0.43938 -0.58964,0 -1.07103,0.446159 -1.48796,0.790885 -0.36302,0.600302 -1.41196,0.615133 -2.12566,0.615133 -0.83169,0 -1.80931,-0.08788 -2.65707,-0.08788 -0.78406,0 -1.48795,-0.136224 -1.8068,-1.406018 z"
       id="path870"
       sodipodi:nodetypes="ccccccccc"
       inkscape:connector-curvature="0" />
    <path
       style="fill:#ffa800;fill-rule:evenodd;stroke:#000000;stroke-width:0.71048145pt"
       d="m 118.28285,13.759789 c 1.48796,1.669647 9.67172,12.829914 1.48796,13.445047 -11.05341,1.318142 -0.53141,-9.578497 -1.48796,-13.445047 z"
       id="path871"
       sodipodi:nodetypes="ccc"
       inkscape:connector-curvature="0" />
    <path
       style="fill:#ffff00;fill-opacity:1;fill-rule:evenodd;stroke:none"
       d="m 119.33474,18.318327 c 0.7773,1.041841 4.52103,8.181478 0.24588,8.565313 -5.77424,0.822506 0.25381,-6.152629 -0.24588,-8.565313 z"
       id="path872"
       sodipodi:nodetypes="ccc"
       inkscape:connector-curvature="0" />
    <path
       style="fill:none;stroke:#000000;stroke-width:0.71048145pt"
       d="m 120.93991,30.2805 c -1.61536,-0.972156 -2.27205,-2.666878 -1.7336,-3.582395 0.41654,-0.998228 0.59511,-3.252373 0.59511,-4.657258"
       id="path873"
       sodipodi:nodetypes="ccc"
       inkscape:connector-curvature="0" />
  </g>
  <g
     id="g874"
     transform="matrix(-1.342944,0.278415,0.305435,1.224142,171.66192,-35.467366)">
    <path
       style="fill:#0075ff;fill-rule:evenodd;stroke:#000000;stroke-width:0.71048145pt;stroke-linejoin:round"
       d="m 116.37367,29.656913 c 1.05136,1.837947 2.82903,0.862798 4.75806,1.006969 1.95751,0.16542 2.81379,-1.109382 4.00714,-1.503338 3.47583,2.100869 0.39681,4.957194 1.07957,8.574987 0.0472,2.63899 0.47596,6.87373 0.87924,9.674267 0.16399,2.295112 -5.92762,2.471674 -7.08646,1.450133 -0.95726,-0.584012 -1.70146,-2.451135 -1.10222,-4.614278 0.16157,-2.664695 -0.67876,-4.053045 -1.16996,-6.677835 0.13565,-3.223974 -3.38558,-4.167721 -1.36537,-7.910905 z"
       id="path875"
       sodipodi:nodetypes="ccccccccc"
       inkscape:connector-curvature="0" />
    <path
       style="fill:#00ffff;fill-rule:evenodd;stroke:#000000;stroke-width:0.71048145pt;stroke-linejoin:round"
       d="m 116.36976,29.313863 c 0.77672,0.214067 2.40574,0.41147 3.18848,0.08788 0.87582,0 2.12326,0.265608 2.76335,-0.263628 0.5009,0 1.91373,-0.175752 2.55079,-0.175752 0.80359,0 -0.42513,-0.273912 -0.42513,0.43938 -0.58964,0 -1.07103,0.446159 -1.48796,0.790885 -0.36302,0.600302 -1.41196,0.615133 -2.12566,0.615133 -0.83169,0 -1.80931,-0.08788 -2.65707,-0.08788 -0.78406,0 -1.48795,-0.136224 -1.8068,-1.406018 z"
       id="path876"
       sodipodi:nodetypes="ccccccccc"
       inkscape:connector-curvature="0" />
    <path
       style="fill:#ffa800;fill-rule:evenodd;stroke:#000000;stroke-width:0.71048145pt"
       d="m 118.28285,13.759789 c 1.48796,1.669647 9.67172,12.829914 1.48796,13.445047 -11.05341,1.318142 -0.53141,-9.578497 -1.48796,-13.445047 z"
       id="path877"
       sodipodi:nodetypes="ccc"
       inkscape:connector-curvature="0" />
    <path
       style="fill:#ffff00;fill-opacity:1;fill-rule:evenodd;stroke:none"
       d="m 119.33474,18.318327 c 0.7773,1.041841 4.52103,8.181478 0.24588,8.565313 -5.77424,0.822506 0.25381,-6.152629 -0.24588,-8.565313 z"
       id="path878"
       sodipodi:nodetypes="ccc"
       inkscape:connector-curvature="0" />
    <path
       style="fill:none;stroke:#000000;stroke-width:0.71048145pt"
       d="m 120.93991,30.2805 c -1.61536,-0.972156 -2.27205,-2.666878 -1.7336,-3.582395 0.41654,-0.998228 0.59511,-3.252373 0.59511,-4.657258"
       id="path879"
       sodipodi:nodetypes="ccc"
       inkscape:connector-curvature="0" />
  </g>
  <g
     id="g880"
     transform="matrix(-1.344416,0.272448,0.298889,1.225484,199.49272,-23.435776)">
    <path
       style="fill:#0075ff;fill-rule:evenodd;stroke:#000000;stroke-width:0.71048145pt;stroke-linejoin:round"
       d="m 116.37367,29.656913 c 1.05136,1.837947 2.82903,0.862798 4.75806,1.006969 1.95751,0.16542 2.81379,-1.109382 4.00714,-1.503338 3.47583,2.100869 0.39681,4.957194 1.07957,8.574987 0.0472,2.63899 0.47596,6.87373 0.87924,9.674267 0.16399,2.295112 -5.92762,2.471674 -7.08646,1.450133 -0.95726,-0.584012 -1.70146,-2.451135 -1.10222,-4.614278 0.16157,-2.664695 -0.67876,-4.053045 -1.16996,-6.677835 0.13565,-3.223974 -3.38558,-4.167721 -1.36537,-7.910905 z"
       id="path881"
       sodipodi:nodetypes="ccccccccc"
       inkscape:connector-curvature="0" />
    <path
       style="fill:#00ffff;fill-rule:evenodd;stroke:#000000;stroke-width:0.71048145pt;stroke-linejoin:round"
       d="m 116.36976,29.313863 c 0.77672,0.214067 2.40574,0.41147 3.18848,0.08788 0.87582,0 2.12326,0.265608 2.76335,-0.263628 0.5009,0 1.91373,-0.175752 2.55079,-0.175752 0.80359,0 -0.42513,-0.273912 -0.42513,0.43938 -0.58964,0 -1.07103,0.446159 -1.48796,0.790885 -0.36302,0.600302 -1.41196,0.615133 -2.12566,0.615133 -0.83169,0 -1.80931,-0.08788 -2.65707,-0.08788 -0.78406,0 -1.48795,-0.136224 -1.8068,-1.406018 z"
       id="path882"
       sodipodi:nodetypes="ccccccccc"
       inkscape:connector-curvature="0" />
    <path
       style="fill:#ffa800;fill-rule:evenodd;stroke:#000000;stroke-width:0.71048145pt"
       d="m 118.28285,13.759789 c 1.48796,1.669647 9.67172,12.829914 1.48796,13.445047 -11.05341,1.318142 -0.53141,-9.578497 -1.48796,-13.445047 z"
       id="path883"
       sodipodi:nodetypes="ccc"
       inkscape:connector-curvature="0" />
    <path
       style="fill:#ffff00;fill-opacity:1;fill-rule:evenodd;stroke:none"
       d="m 119.33474,18.318327 c 0.7773,1.041841 4.52103,8.181478 0.24588,8.565313 -5.77424,0.822506 0.25381,-6.152629 -0.24588,-8.565313 z"
       id="path884"
       sodipodi:nodetypes="ccc"
       inkscape:connector-curvature="0" />
    <path
       style="fill:none;stroke:#000000;stroke-width:0.71048145pt"
       d="m 120.93991,30.2805 c -1.61536,-0.972156 -2.27205,-2.666878 -1.7336,-3.582395 0.41654,-0.998228 0.59511,-3.252373 0.59511,-4.657258"
       id="path885"
       sodipodi:nodetypes="ccc"
       inkscape:connector-curvature="0" />
  </g>
  <g
     id="g886"
     transform="matrix(-1.335718,0.305938,0.335629,1.217554,234.18222,-28.495166)">
    <path
       style="fill:#0075ff;fill-rule:evenodd;stroke:#000000;stroke-width:0.71048145pt;stroke-linejoin:round"
       d="m 116.37367,29.656913 c 1.05136,1.837947 2.82903,0.862798 4.75806,1.006969 1.95751,0.16542 2.81379,-1.109382 4.00714,-1.503338 3.47583,2.100869 0.39681,4.957194 1.07957,8.574987 0.0472,2.63899 0.47596,6.87373 0.87924,9.674267 0.16399,2.295112 -5.92762,2.471674 -7.08646,1.450133 -0.95726,-0.584012 -1.70146,-2.451135 -1.10222,-4.614278 0.16157,-2.664695 -0.67876,-4.053045 -1.16996,-6.677835 0.13565,-3.223974 -3.38558,-4.167721 -1.36537,-7.910905 z"
       id="path887"
       sodipodi:nodetypes="ccccccccc"
       inkscape:connector-curvature="0" />
    <path
       style="fill:#00ffff;fill-rule:evenodd;stroke:#000000;stroke-width:0.71048145pt;stroke-linejoin:round"
       d="m 116.36976,29.313863 c 0.77672,0.214067 2.40574,0.41147 3.18848,0.08788 0.87582,0 2.12326,0.265608 2.76335,-0.263628 0.5009,0 1.91373,-0.175752 2.55079,-0.175752 0.80359,0 -0.42513,-0.273912 -0.42513,0.43938 -0.58964,0 -1.07103,0.446159 -1.48796,0.790885 -0.36302,0.600302 -1.41196,0.615133 -2.12566,0.615133 -0.83169,0 -1.80931,-0.08788 -2.65707,-0.08788 -0.78406,0 -1.48795,-0.136224 -1.8068,-1.406018 z"
       id="path888"
       sodipodi:nodetypes="ccccccccc"
       inkscape:connector-curvature="0" />
    <path
       style="fill:#ffa800;fill-rule:evenodd;stroke:#000000;stroke-width:0.71048145pt"
       d="m 118.28285,13.759789 c 1.48796,1.669647 9.67172,12.829914 1.48796,13.445047 -11.05341,1.318142 -0.53141,-9.578497 -1.48796,-13.445047 z"
       id="path889"
       sodipodi:nodetypes="ccc"
       inkscape:connector-curvature="0" />
    <path
       style="fill:#ffff00;fill-opacity:1;fill-rule:evenodd;stroke:none"
       d="m 119.33474,18.318327 c 0.7773,1.041841 4.52103,8.181478 0.24588,8.565313 -5.77424,0.822506 0.25381,-6.152629 -0.24588,-8.565313 z"
       id="path890"
       sodipodi:nodetypes="ccc"
       inkscape:connector-curvature="0" />
    <path
       style="fill:none;stroke:#000000;stroke-width:0.71048145pt"
       d="m 120.93991,30.2805 c -1.61536,-0.972156 -2.27205,-2.666878 -1.7336,-3.582395 0.41654,-0.998228 0.59511,-3.252373 0.59511,-4.657258"
       id="path891"
       sodipodi:nodetypes="ccc"
       inkscape:connector-curvature="0" />
  </g>
  <path
     style="fill:#ffffff;fill-opacity:0.3;fill-rule:evenodd;stroke:none"
     d="m 57.255178,22.585852 c -1.79451,2.579265 1.960341,4.207679 2.413258,6.552732 1.002539,2.946436 1.400963,7.127235 1.587886,10.195121 -0.936836,2.097791 1.559362,7.11337 2.533541,3.469523 0.234414,-4.462659 -0.96407,-10.878941 -1.748667,-15.244576 -0.685416,-2.334959 -2.111893,-4.580487 -4.786018,-4.9728 z"
     id="path901"
     sodipodi:nodetypes="cccccc"
     inkscape:connector-curvature="0" />
  <path
     style="fill:#ffffff;fill-opacity:0.3;fill-rule:evenodd;stroke:none"
     d="m 98.958153,36.009103 c -1.79451,2.579265 1.960337,4.20768 2.413257,6.552732 1.00254,2.946436 1.40096,7.127235 1.58789,10.195122 -0.93684,2.09779 1.55936,7.113369 2.53354,3.469522 0.23441,-4.462658 -0.96407,-10.878941 -1.74867,-15.244576 -0.68542,-2.334959 -2.11189,-4.580487 -4.786017,-4.9728 z"
     id="path902"
     sodipodi:nodetypes="cccccc"
     inkscape:connector-curvature="0" />
  <path
     style="fill:#ffffff;fill-opacity:0.3;fill-rule:evenodd;stroke:none"
     d="m 76.816816,47.151593 c -1.794509,2.579266 1.960341,4.20768 2.413258,6.552733 1.00254,2.946436 1.400963,7.127235 1.587886,10.195121 -0.936836,2.097791 1.559362,7.113369 2.533542,3.469523 0.234413,-4.462659 -0.964071,-10.878942 -1.748668,-15.244576 -0.685415,-2.334959 -2.111893,-4.580487 -4.786018,-4.972801 z"
     id="path903"
     sodipodi:nodetypes="cccccc"
     inkscape:connector-curvature="0" />
  <path
     style="fill:#ffffff;fill-opacity:0.3;fill-rule:evenodd;stroke:none"
     d="m 11.77663,36.429574 c -1.7945098,2.579265 1.960341,4.20768 2.413257,6.552732 1.00254,2.946436 1.400963,7.127235 1.587887,10.195122 -0.936836,2.09779 1.559362,7.113369 2.533541,3.469522 0.234414,-4.462658 -0.96407,-10.878941 -1.748668,-15.244576 -0.685415,-2.334959 -2.111892,-4.580487 -4.786017,-4.9728 z"
     id="path904"
     sodipodi:nodetypes="cccccc"
     inkscape:connector-curvature="0" />
  <path
     style="fill:#ffffff;fill-opacity:0.3;fill-rule:evenodd;stroke:none"
     d="m 39.683943,48.202772 c -1.794509,2.579265 1.960342,4.207679 2.413258,6.552732 1.00254,2.946436 1.400963,7.127235 1.587886,10.195121 -0.936836,2.097791 1.559362,7.11337 2.533542,3.469523 0.234413,-4.462659 -0.964071,-10.878941 -1.748668,-15.244576 -0.685415,-2.334959 -2.111893,-4.580487 -4.786018,-4.9728 z"
     id="path905"
     sodipodi:nodetypes="cccccc"
     inkscape:connector-curvature="0" />
  <path
     style="fill:#ffffff;fill-opacity:0.8;fill-rule:evenodd;stroke:none"
     d="m 62.559871,92.804564 c 2.050071,1.67018 7.611086,-2.60682 7.611086,-3.574003 0,-1.383657 0.922555,-1.976125 0.922555,-3.363772 -1.523415,-1.388647 -3.325634,2.733064 -5.074057,2.733064 -1.07055,0.975846 -4.017764,1.660711 -3.459584,4.204711 z"
     id="path906"
     sodipodi:nodetypes="ccccc"
     inkscape:connector-curvature="0" />
  <path
     style="fill:#ffffff;fill-opacity:0.8;fill-rule:evenodd;stroke:none"
     d="m 87.238238,88.810089 c 2.253265,-1.164563 3.492975,-4.055347 4.612785,-6.096835 1.41654,-1.291232 -0.20968,-1.051178 -1.61448,-1.051178 -1.500599,1.367853 -2.98726,1.251348 -4.382137,2.522829 0,1.73505 -0.480408,3.945456 1.383832,4.625184 z"
     id="path907"
     sodipodi:nodetypes="ccccc"
     inkscape:connector-curvature="0" />
  <path
     style="fill:#ffffff;fill-opacity:0.8;fill-rule:evenodd;stroke:none"
     d="m 107.99574,82.292783 c 1.32109,-0.401407 4.1515,-0.64325 4.1515,-2.312591 1.07019,-0.975515 1.1532,-2.439611 1.1532,-3.784242 -1.17881,-2.149062 -3.43946,-0.438814 -4.84342,0.840942 -0.85513,1.558955 -1.37049,4.841503 -0.46128,5.255891 z"
     id="path909"
     sodipodi:nodetypes="ccccc"
     inkscape:connector-curvature="0" />
  <path
     style="fill:#ffffff;fill-opacity:0.8;fill-rule:evenodd;stroke:none"
     d="m 119.52769,71.570765 c 1.8596,-0.759592 2.45065,-1.961087 2.87569,-3.975373 0.5242,-1.660698 0.7897,-2.245314 -0.85586,-1.138286 -1.6465,0.939137 -3.57239,2.03253 -3.45279,3.947445 0.0458,0.838765 0.36706,1.527429 1.43296,1.166214 z"
     id="path929"
     sodipodi:nodetypes="ccccc"
     inkscape:connector-curvature="0" />
  <path
     style="fill:#ffffff;fill-opacity:0.8;fill-rule:evenodd;stroke:none"
     d="m 33.96064,88.599853 c 1.482861,0.397905 3.882238,-0.87615 3.228947,-3.784242 -2.523418,0 -3.228947,1.673503 -3.228947,3.784242 z"
     id="path911"
     sodipodi:nodetypes="ccc"
     inkscape:connector-curvature="0" />
  <path
     style="fill:#ffffff;fill-opacity:0.8;fill-rule:evenodd;stroke:none"
     d="m 17.815914,81.872312 c 1.615786,1.577366 3.082515,2.025598 4.612779,-0.840942 0,-1.568902 0.283148,-2.522829 -1.614472,-2.522829 -1.544612,0 -2.882246,0.83959 -3.459585,1.892122 0,0.654251 0.07393,0.588955 0.461278,1.471649 z"
     id="path912"
     sodipodi:nodetypes="ccccc"
     inkscape:connector-curvature="0" />
  <path
     style="fill:#ffffff;fill-opacity:0.8;fill-rule:evenodd;stroke:none"
     d="m 7.2065222,66.735343 c 1.678815,1.892121 2.767667,3.75688 2.767667,-0.210234 -0.159391,-2.037411 -2.767667,-1.960771 -2.767667,0.210234 z"
     id="path913"
     sodipodi:nodetypes="ccc"
     inkscape:connector-curvature="0" />
  <path
     style="fill:#954a3d;fill-rule:evenodd;stroke:#000000;stroke-width:1.31491146pt"
     d="m 9.2822742,84.605371 c 7.1695108,-0.318427 8.9550438,4.833656 15.5587748,6.785513 6.993576,0.84506 14.44395,3.72412 20.756525,5.00255 6.853072,1.30216 15.421127,2.13667 22.985582,1.76489 9.009912,-1.0564 24.543807,-3.39042 30.639997,-5.69866 7.018307,-2.32073 18.017737,-7.78745 22.933877,-11.552699 3.9943,-0.08707 1.65693,5.904302 0.23511,8.757113 0.16314,3.749356 -1.4458,6.902556 -6.34705,5.641376 -5.64138,-1.38028 -4.14588,8.518136 -10.22467,5.051366 -5.33703,-3.159746 -7.692137,2.28983 -7.769797,6.19832 -5.26332,2.14101 -12.299453,6.45651 -17.734412,2.40818 -2.820297,-4.74869 -12.892909,-7.35713 -14.119056,-0.27561 -3.62236,5.0941 -11.443319,3.63789 -13.565561,-1.5401 -4.552723,-2.3544 -10.087217,-1.27748 -14.875872,-2.94747 -2.654227,2.75566 -9.789107,5.19062 -9.908299,-0.49131 C 26.06922,98.037254 14.416616,92.489414 12.028512,99.242094 5.0941562,99.982764 6.4509042,93.980704 7.0918932,88.257055 c -0.281994,-1.752381 0.07737,-3.211925 2.190381,-3.651684 z"
     id="path937"
     sodipodi:nodetypes="cccccccccccccccccc"
     inkscape:connector-curvature="0" />
  <path
     style="fill:#ffffff;fill-opacity:0.8;fill-rule:evenodd;stroke:none"
     d="m 7.8227892,96.24135 c 1.269144,2.910634 2.7467428,2.941714 6.3457208,0 0,-2.420588 -4.4806458,1.973614 -6.3457208,0 z"
     id="path938"
     sodipodi:nodetypes="ccc"
     inkscape:connector-curvature="0" />
  <path
     style="fill:#ffffff;fill-opacity:0.8;fill-rule:evenodd;stroke:none"
     d="m 28.636756,103.60238 c 1.991511,5.79895 6.612376,1.26915 7.868695,0.25383 0.507658,-4.116486 -5.362604,2.03707 -7.868695,-0.25383 z"
     id="path939"
     sodipodi:nodetypes="ccc"
     inkscape:connector-curvature="0" />
  <path
     style="fill:#ffffff;fill-opacity:0.8;fill-rule:evenodd;stroke:none"
     d="m 55.542617,108.67896 c 3.553604,4.43788 9.391668,0.97117 9.391668,-0.76149 0,-1.89982 0.342514,-2.28446 -2.030631,-2.28446 -0.504189,4.82275 -6.749918,2.74039 -7.361037,3.04595 z"
     id="path940"
     sodipodi:nodetypes="cccc"
     inkscape:connector-curvature="0" />
  <path
     style="fill:#ffffff;fill-opacity:0.8;fill-rule:evenodd;stroke:none"
     d="m 82.956135,108.93279 c 3.050457,1.7768 12.400458,-0.50765 9.391668,-1.52297 -0.99974,-0.50766 -9.466585,0.27523 -9.391668,1.52297 z"
     id="path941"
     sodipodi:nodetypes="ccc"
     inkscape:connector-curvature="0" />
  <path
     style="fill:#ffffff;fill-opacity:0.8;fill-rule:evenodd;stroke:none"
     d="m 96.155233,105.12536 c 1.76491,1.53486 3.921857,-5.584236 2.5383,-5.584236 -2.94888,0.41058 -4.89722,5.112446 -2.5383,5.584236 z"
     id="path942"
     sodipodi:nodetypes="ccc"
     inkscape:connector-curvature="0" />
  <path
     style="fill:#ffffff;fill-opacity:0.8;fill-rule:evenodd;stroke:none"
     d="m 108.59285,99.794954 c 1.94602,-0.33844 3.86264,-4.822748 2.53829,-4.822748 -1.53048,0 -2.83943,4.069898 -2.53829,4.822748 z"
     id="path943"
     sodipodi:nodetypes="ccc"
     inkscape:connector-curvature="0" />
  <path
     style="fill:#ffffff;fill-opacity:0.8;fill-rule:evenodd;stroke:none"
     d="m 119.76132,93.703062 c 2.51636,0.02193 1.18435,-3.299776 2.28445,-3.299776 0,-1.201025 0.50767,-3.174294 0.50767,-5.076577 -1.12746,-1.127461 -3.29978,1.153798 -3.29978,2.28446 0,1.729795 -1.88161,6.083694 0.50766,6.091893 z"
     id="path944"
     sodipodi:nodetypes="ccccc"
     inkscape:connector-curvature="0" />
  <metadata
     id="metadata3253">
    <rdf:RDF>
      <cc:Work
         rdf:about="">
        <dc:title>Clipart by Nicu Buculei - birthday_cake</dc:title>
        <dc:rights>
          <cc:Agent>
            <dc:title>Nicu Buculei</dc:title>
          </cc:Agent>
        </dc:rights>
        <dc:type
           rdf:resource="http://purl.org/dc/dcmitype/StillImage" />
        <cc:license
           rdf:resource="http://web.resource.org/cc/PublicDomain" />
        <dc:format>image/svg+xml</dc:format>
      </cc:Work>
      <cc:License
         rdf:about="http://web.resource.org/cc/PublicDomain">
        <cc:permits
           rdf:resource="http://web.resource.org/cc/Reproduction" />
        <cc:permits
           rdf:resource="http://web.resource.org/cc/Distribution" />
        <cc:permits
           rdf:resource="http://web.resource.org/cc/DerivativeWorks" />
      </cc:License>
    </rdf:RDF>
  </metadata>
</svg>
