<?xml version="1.0" encoding="UTF-8" standalone="no"?>
<!-- Created with Inkscape (http://www.inkscape.org/) -->

<svg
   xmlns:dc="http://purl.org/dc/elements/1.1/"
   xmlns:cc="http://creativecommons.org/ns#"
   xmlns:rdf="http://www.w3.org/1999/02/22-rdf-syntax-ns#"
   xmlns:svg="http://www.w3.org/2000/svg"
   xmlns="http://www.w3.org/2000/svg"
   xmlns:xlink="http://www.w3.org/1999/xlink"
   xmlns:sodipodi="http://sodipodi.sourceforge.net/DTD/sodipodi-0.dtd"
   xmlns:inkscape="http://www.inkscape.org/namespaces/inkscape"
   width="273.16434"
   height="230.85008"
   id="svg2"
   version="1.1"
   inkscape:version="0.48.1 r9760"
   sodipodi:docname="totote.svg"
   inkscape:export-filename="/home/olivier/Images/Creations/Svg/totote.png"
   inkscape:export-xdpi="90"
   inkscape:export-ydpi="90">
  <title
     id="title4003">Totote</title>
  <defs
     id="defs4">
    <linearGradient
       id="linearGradient3974">
      <stop
         style="stop-color:#ffff00;stop-opacity:1;"
         offset="0"
         id="stop3976" />
      <stop
         style="stop-color:#ffff8a;stop-opacity:1;"
         offset="1"
         id="stop3978" />
    </linearGradient>
    <linearGradient
       inkscape:collect="always"
       id="linearGradient3940">
      <stop
         style="stop-color:#ffffff;stop-opacity:1;"
         offset="0"
         id="stop3942" />
      <stop
         style="stop-color:#ffffff;stop-opacity:0;"
         offset="1"
         id="stop3944" />
    </linearGradient>
    <linearGradient
       id="linearGradient3920">
      <stop
         style="stop-color:#ffffff;stop-opacity:1;"
         offset="0"
         id="stop3922" />
      <stop
         style="stop-color:#fffff2;stop-opacity:1;"
         offset="1"
         id="stop3924" />
    </linearGradient>
    <linearGradient
       id="linearGradient3912">
      <stop
         style="stop-color:#deaa87;stop-opacity:1;"
         offset="0"
         id="stop3914" />
      <stop
         style="stop-color:#e6aa37;stop-opacity:1;"
         offset="1"
         id="stop3916" />
    </linearGradient>
    <linearGradient
       id="linearGradient3726">
      <stop
         style="stop-color:#f30000;stop-opacity:1;"
         offset="0"
         id="stop3728" />
      <stop
         style="stop-color:#fe003f;stop-opacity:1;"
         offset="1"
         id="stop3730" />
    </linearGradient>
    <inkscape:perspective
       sodipodi:type="inkscape:persp3d"
       inkscape:vp_x="0 : 526.18109 : 1"
       inkscape:vp_y="0 : 1000 : 0"
       inkscape:vp_z="744.09448 : 526.18109 : 1"
       inkscape:persp3d-origin="372.04724 : 350.78739 : 1"
       id="perspective10" />
    <inkscape:perspective
       id="perspective2884"
       inkscape:persp3d-origin="0.5 : 0.33333333 : 1"
       inkscape:vp_z="1 : 0.5 : 1"
       inkscape:vp_y="0 : 1000 : 0"
       inkscape:vp_x="0 : 0.5 : 1"
       sodipodi:type="inkscape:persp3d" />
    <linearGradient
       inkscape:collect="always"
       xlink:href="#linearGradient3726"
       id="linearGradient3732"
       x1="250.01784"
       y1="308.62897"
       x2="478.65479"
       y2="308.62897"
       gradientUnits="userSpaceOnUse" />
    <linearGradient
       inkscape:collect="always"
       xlink:href="#linearGradient3726"
       id="linearGradient3740"
       x1="286.13776"
       y1="369.75247"
       x2="446.22095"
       y2="369.75247"
       gradientUnits="userSpaceOnUse" />
    <filter
       id="filter3866"
       inkscape:label="HSL Bumps"
       inkscape:menu="Bumps"
       inkscape:menu-tooltip="Highly flexible bump combining diffuse and specular lightings"
       color-interpolation-filters="sRGB">
      <feColorMatrix
         id="feColorMatrix3868"
         result="fbSourceGraphicAlpha"
         in="SourceGraphic"
         values="1 0 0 -1 0 1 0 1 -1 0 1 0 0 -1 0 -0.8 -1 0 3.7 -2.4 " />
      <feGaussianBlur
         id="feGaussianBlur3870"
         stdDeviation="0.5"
         in="fbSourceGraphicAlpha"
         result="result0" />
      <feSpecularLighting
         id="feSpecularLighting3872"
         result="result8"
         specularConstant="0.75"
         specularExponent="6"
         in="result0"
         surfaceScale="7">
        <feDistantLight
           id="feDistantLight3874"
           azimuth="235"
           elevation="15" />
      </feSpecularLighting>
      <feDiffuseLighting
         id="feDiffuseLighting3876"
         surfaceScale="20"
         diffuseConstant="0.2"
         result="result6"
         lighting-color="#ffffff"
         in="result0">
        <feDistantLight
           id="feDistantLight3878"
           azimuth="235"
           elevation="25" />
      </feDiffuseLighting>
      <feBlend
         id="feBlend3880"
         in2="SourceGraphic"
         result="result7"
         mode="screen" />
      <feComposite
         id="feComposite3882"
         in2="result7"
         operator="arithmetic"
         k2="1"
         k3="1"
         in="result8"
         result="result9"
         k1="0"
         k4="0" />
      <feComposite
         id="feComposite3884"
         in2="SourceGraphic"
         operator="in"
         result="result2"
         in="result9" />
    </filter>
    <filter
       id="filter3886"
       inkscape:menu-tooltip="Highly flexible specular bump with transparency"
       inkscape:menu="Bumps"
       inkscape:label="HSL Bumps, transparent"
       color-interpolation-filters="sRGB">
      <feGaussianBlur
         id="feGaussianBlur3888"
         result="result0"
         in="SourceGraphic"
         stdDeviation="0.5" />
      <feComposite
         id="feComposite3890"
         in2="result0"
         k3="0.5"
         k1="0.5"
         in="result0"
         result="result2"
         operator="arithmetic"
         k2="0"
         k4="0" />
      <feColorMatrix
         id="feColorMatrix3892"
         values="1 0 0 -1 0 1 0 1 -1 0 1 0 0 -1 0 -0.8 -1 0 4.4 -2.9 "
         in="result2"
         result="fbSourceGraphicAlpha" />
      <feGaussianBlur
         id="feGaussianBlur3894"
         stdDeviation="0.7"
         in="fbSourceGraphicAlpha"
         result="result0" />
      <feSpecularLighting
         id="feSpecularLighting3896"
         in="result0"
         result="result1"
         lighting-color="#ffffff"
         surfaceScale="8"
         specularConstant="1.39999998"
         specularExponent="25">
        <feDistantLight
           id="feDistantLight3898"
           elevation="50"
           azimuth="235" />
      </feSpecularLighting>
      <feBlend
         id="feBlend3900"
         in2="SourceGraphic"
         in="result1"
         result="result5"
         mode="screen" />
      <feComposite
         id="feComposite3902"
         in2="fbSourceGraphicAlpha"
         result="result4"
         operator="atop"
         in="result5" />
    </filter>
    <radialGradient
       inkscape:collect="always"
       xlink:href="#linearGradient3912"
       id="radialGradient3918"
       cx="367.27475"
       cy="258.04419"
       fx="367.27475"
       fy="258.04419"
       r="43.804668"
       gradientTransform="matrix(0.98858581,-0.80387884,1.721068,2.1165172,-439.91945,7.1336142)"
       gradientUnits="userSpaceOnUse" />
    <radialGradient
       inkscape:collect="always"
       xlink:href="#linearGradient3940"
       id="radialGradient3946"
       cx="438.91852"
       cy="321.09329"
       fx="438.91852"
       fy="321.09329"
       r="32.471134"
       gradientTransform="matrix(1,0,0,0.38033053,0,198.97172)"
       gradientUnits="userSpaceOnUse" />
    <filter
       inkscape:collect="always"
       id="filter3952"
       x="-0.21328184"
       width="1.4265637"
       y="-0.56078023"
       height="2.1215606"
       color-interpolation-filters="sRGB">
      <feGaussianBlur
         inkscape:collect="always"
         stdDeviation="5.7712526"
         id="feGaussianBlur3954" />
    </filter>
    <linearGradient
       inkscape:collect="always"
       xlink:href="#linearGradient3726"
       id="linearGradient3960"
       gradientUnits="userSpaceOnUse"
       x1="261.63458"
       y1="224.28123"
       x2="291.77655"
       y2="254.5858" />
    <linearGradient
       inkscape:collect="always"
       xlink:href="#linearGradient3974"
       id="linearGradient3980"
       x1="320.18118"
       y1="348.15598"
       x2="410.11685"
       y2="348.15598"
       gradientUnits="userSpaceOnUse" />
    <linearGradient
       inkscape:collect="always"
       xlink:href="#linearGradient3726"
       id="linearGradient3670"
       gradientUnits="userSpaceOnUse"
       x1="250.01784"
       y1="308.62897"
       x2="478.65479"
       y2="308.62897" />
  </defs>
  <sodipodi:namedview
     id="base"
     pagecolor="#ffffff"
     bordercolor="#666666"
     borderopacity="1.0"
     inkscape:pageopacity="0.0"
     inkscape:pageshadow="2"
     inkscape:zoom="1.4"
     inkscape:cx="143.74999"
     inkscape:cy="127.84599"
     inkscape:document-units="px"
     inkscape:current-layer="g2894"
     showgrid="false"
     inkscape:window-width="1680"
     inkscape:window-height="1026"
     inkscape:window-x="0"
     inkscape:window-y="0"
     inkscape:window-maximized="1"
     fit-margin-top="0"
     fit-margin-left="0"
     fit-margin-right="0"
     fit-margin-bottom="0" />
  <metadata
     id="metadata7">
    <rdf:RDF>
      <cc:Work
         rdf:about="">
        <dc:format>image/svg+xml</dc:format>
        <dc:type
           rdf:resource="http://purl.org/dc/dcmitype/StillImage" />
        <dc:title>Totote</dc:title>
        <dc:date>20 juin 2010</dc:date>
        <dc:creator>
          <cc:Agent>
            <dc:title>Coudurier Olivier</dc:title>
          </cc:Agent>
        </dc:creator>
        <dc:rights>
          <cc:Agent>
            <dc:title>Libre</dc:title>
          </cc:Agent>
        </dc:rights>
        <cc:license
           rdf:resource="http://creativecommons.org/licenses/publicdomain/" />
      </cc:Work>
      <cc:License
         rdf:about="http://creativecommons.org/licenses/publicdomain/">
        <cc:permits
           rdf:resource="http://creativecommons.org/ns#Reproduction" />
        <cc:permits
           rdf:resource="http://creativecommons.org/ns#Distribution" />
        <cc:permits
           rdf:resource="http://creativecommons.org/ns#DerivativeWorks" />
      </cc:License>
    </rdf:RDF>
  </metadata>
  <g
     inkscape:label="Calque 1"
     inkscape:groupmode="layer"
     id="layer1"
     transform="translate(-227.75414,-198.77198)">
    <g
       id="g2894">
      <path
         style="fill:url(#linearGradient3740);fill-opacity:1;stroke:none"
         d="m 364.15904,334.63163 c -41.5812,0 -75.27813,21.24729 -75.27813,47.48386 0,26.23657 33.69693,47.50657 75.27813,47.50657 41.58121,0 75.27815,-21.27 75.27815,-47.50657 0,-26.23657 -33.69694,-47.48386 -75.27815,-47.48386 z m 0,9.48316 c 33.26497,0 60.22927,17.01146 60.22927,38.0007 0,20.98926 -26.9643,38.0234 -60.22927,38.0234 -33.26495,0 -60.22925,-17.03414 -60.22925,-38.0234 0,-20.98924 26.9643,-38.0007 60.22925,-38.0007 z"
         id="path3688"
         inkscape:connector-curvature="0" />
      <path
         style="fill:url(#linearGradient3980);fill-opacity:1;stroke:none"
         d="m 409.61686,330.60819 c -21.49136,-20.40351 -67.39755,-19.13606 -88.89343,1.26269 -2.27488,70.18707 88.09893,59.33314 88.89343,-1.26269 z"
         id="path3680"
         sodipodi:nodetypes="ccc"
         inkscape:connector-curvature="0" />
      <g
         id="g3696"
         style="fill:url(#linearGradient3732);fill-opacity:1;stroke:none;filter:url(#filter3866)">
        <g
           id="g3676"
           style="fill:url(#linearGradient3670);fill-opacity:1;stroke:none">
          <path
             id="path3674"
             style="fill:url(#linearGradient3960);fill-opacity:1;stroke:none"
             d="m 364.15999,296.01046 c 11.88093,-2.05004 25.57668,-2.10529 35.35534,-9.84898 11.40135,-6.27892 23.95543,-9.09635 36.87057,-7.32361 13.67421,2.71822 24.9823,9.63701 34.09265,19.95051 6.11366,7.04486 12.11312,21.45743 3.03045,28.53681 -60.91781,16.86223 -157.95588,18.83342 -218.3454,0 -9.08267,-7.07938 -3.08321,-21.49195 3.03045,-28.53681 9.11035,-10.3135 20.41844,-17.23229 34.09265,-19.95051 12.91514,-1.77274 25.46922,1.04469 36.87057,7.32361 9.77866,7.74369 23.47441,7.79894 35.35534,9.84898"
             sodipodi:nodetypes="cccccccccc"
             inkscape:connector-curvature="0" />
        </g>
      </g>
      <path
         id="path2892"
         style="fill:url(#radialGradient3918);fill-opacity:1;stroke:none"
         d="m 367.18546,317.29764 c -9.21633,-0.47427 -18.95569,1.46882 -27.18546,-3.50689 -9.26449,-16.34067 -1.915,-27.23828 -2.85714,-35 -19.12947,-41.44529 -20.17375,-78.7834 30.13187,-80 42.62383,-1.03083 56.23742,40.57469 30.13191,80 -0.94214,7.76172 6.40735,18.65933 -2.85714,35 l -27.36404,3.50689 z"
         sodipodi:nodetypes="cccsccc"
         inkscape:connector-curvature="0" />
      <path
         id="path3928"
         style="opacity:0.92542372;fill:url(#radialGradient3946);fill-opacity:1;stroke:none;filter:url(#filter3952)"
         d="m 471.26749,312.15685 c 1.54327,6.57326 -11.71436,14.50863 -29.61175,17.72415 -17.89738,3.21552 -34.40349,8.29553 -35.20042,-6.07974 -0.37158,-6.70258 12.35066,-7.40608 30.24804,-10.6216 17.89739,-3.21552 33.02086,-7.59607 34.56413,-1.02281 z"
         sodipodi:nodetypes="csssc"
         inkscape:transform-center-x="7.0710678"
         inkscape:connector-curvature="0" />
      <path
         inkscape:transform-center-x="5.2824288"
         sodipodi:nodetypes="csssc"
         d="m 336.9172,297.50964 c -8.96099,-26.36325 -18.03129,-16.15403 -35.92868,-12.93851 -17.89738,3.21552 -28.07363,38.95747 -28.88349,24.58292 -0.37797,-6.70871 6.72417,-31.14935 27.35447,-36.25728 33.86755,-8.38539 37.11797,3.477 37.4577,24.61287 z"
         style="opacity:0.59610171;fill:#ffffff;fill-opacity:1;stroke:none;filter:url(#filter3952)"
         id="path3956"
         transform="matrix(0.87043143,0.49228969,-0.49228969,0.87043143,179.11709,-102.59935)"
         inkscape:transform-center-y="-4.9444275"
         inkscape:connector-curvature="0" />
    </g>
  </g>
</svg>
