<?xml version="1.0" encoding="UTF-8" standalone="no"?>
<!-- Created with Inkscape (http://www.inkscape.org/) -->

<svg
   xmlns:dc="http://purl.org/dc/elements/1.1/"
   xmlns:cc="http://creativecommons.org/ns#"
   xmlns:rdf="http://www.w3.org/1999/02/22-rdf-syntax-ns#"
   xmlns:svg="http://www.w3.org/2000/svg"
   xmlns="http://www.w3.org/2000/svg"
   xmlns:xlink="http://www.w3.org/1999/xlink"
   xmlns:sodipodi="http://sodipodi.sourceforge.net/DTD/sodipodi-0.dtd"
   xmlns:inkscape="http://www.inkscape.org/namespaces/inkscape"
   height="251.2049"
   id="svg1"
   inkscape:version="0.48.1 r9760"
   sodipodi:docname="turkey_platter_01_with_fruit_and_vegitables_01.svg"
   sodipodi:version="0.32"
   width="485.27454"
   version="1.1">
  <metadata
     id="metadata3476">
    <rdf:RDF>
      <cc:Work
         rdf:about="">
        <dc:title>Turkey Platter 01 With Fruit And Vegitables</dc:title>
        <dc:description />
        <dc:subject>
          <rdf:Bag>
            <rdf:li>holiday</rdf:li>
            <rdf:li />
            <rdf:li>vegitable</rdf:li>
            <rdf:li>turkey</rdf:li>
            <rdf:li>meal</rdf:li>
            <rdf:li>fruit</rdf:li>
            <rdf:li>thanksgiving</rdf:li>
            <rdf:li>food</rdf:li>
            <rdf:li>meat</rdf:li>
            <rdf:li>recreation</rdf:li>
          </rdf:Bag>
        </dc:subject>
        <dc:publisher>
          <cc:Agent
             rdf:about="http://www.openclipart.org">
            <dc:title>Nathan Eady</dc:title>
          </cc:Agent>
        </dc:publisher>
        <dc:creator>
          <cc:Agent>
            <dc:title>Nathan Eady</dc:title>
          </cc:Agent>
        </dc:creator>
        <dc:rights>
          <cc:Agent>
            <dc:title>Nathan Eady</dc:title>
          </cc:Agent>
        </dc:rights>
        <dc:date />
        <dc:format>image/svg+xml</dc:format>
        <dc:type
           rdf:resource="http://purl.org/dc/dcmitype/StillImage" />
        <cc:license
           rdf:resource="http://web.resource.org/cc/PublicDomain" />
        <dc:language>en</dc:language>
      </cc:Work>
      <cc:License
         rdf:about="http://web.resource.org/cc/PublicDomain">
        <cc:permits
           rdf:resource="http://web.resource.org/cc/Reproduction" />
        <cc:permits
           rdf:resource="http://web.resource.org/cc/Distribution" />
        <cc:permits
           rdf:resource="http://web.resource.org/cc/DerivativeWorks" />
      </cc:License>
    </rdf:RDF>
  </metadata>
  <defs
     id="defs3">
    <linearGradient
       id="linearGradient2187">
      <stop
         id="stop2188"
         offset="0.0000000"
         style="stop-color:#ffa200;stop-opacity:1.0000000;" />
      <stop
         id="stop2189"
         offset="1.0000000"
         style="stop-color:#ff8800;stop-opacity:1.0000000;" />
    </linearGradient>
    <linearGradient
       id="linearGradient2190"
       inkscape:collect="always"
       spreadMethod="reflect"
       x1="522.08544"
       x2="594.47577"
       xlink:href="#linearGradient2187"
       y1="562.18493"
       y2="637.59151"
       gradientTransform="scale(0.78855777,1.2681379)"
       gradientUnits="userSpaceOnUse" />
    <linearGradient
       id="linearGradient2122">
      <stop
         id="stop2123"
         offset="0.0000000"
         style="stop-color:#ffffff;stop-opacity:0.0000000;" />
      <stop
         id="stop2124"
         offset="1.0000000"
         style="stop-color:#17ff17;stop-opacity:0.68354428;" />
    </linearGradient>
    <linearGradient
       id="linearGradient2012">
      <stop
         id="stop2013"
         offset="0.0000000"
         style="stop-color:#ffffff;stop-opacity:0.34166667;" />
      <stop
         id="stop2014"
         offset="1.0000000"
         style="stop-color:#ffffff;stop-opacity:0.0000000;" />
    </linearGradient>
    <linearGradient
       id="linearGradient2008">
      <stop
         id="stop2009"
         offset="0.0000000"
         style="stop-color:#f15a27;stop-opacity:0.34117648;" />
      <stop
         id="stop2010"
         offset="1.0000000"
         style="stop-color:#f15a27;stop-opacity:0.0000000;" />
    </linearGradient>
    <linearGradient
       id="linearGradient854"
       x1="157.80581"
       x2="155.40575"
       xlink:href="#linearGradient855"
       y1="120.96176"
       y2="231.63491"
       gradientTransform="scale(1.4586159,0.68558144)"
       gradientUnits="userSpaceOnUse" />
    <linearGradient
       id="linearGradient855">
      <stop
         id="stop856"
         offset="0.0000000"
         style="stop-color:#ffffff;stop-opacity:0.0000000;" />
      <stop
         id="stop857"
         offset="1.0000000"
         style="stop-color:#ffa617;stop-opacity:0.73333335;" />
    </linearGradient>
    <linearGradient
       id="linearGradient850"
       spreadMethod="pad"
       x1="465.29425"
       x2="463.27056"
       xlink:href="#linearGradient855"
       y1="248.24467"
       y2="405.7687"
       gradientTransform="scale(0.74491357,1.3424376)"
       gradientUnits="userSpaceOnUse" />
    <radialGradient
       cx="360.85146"
       cy="167.47372"
       fx="360.85146"
       fy="167.47372"
       id="radialGradient832"
       r="46.394721"
       xlink:href="#linearGradient829"
       gradientTransform="scale(1.007004,0.99304475)"
       gradientUnits="userSpaceOnUse" />
    <linearGradient
       id="linearGradient829">
      <stop
         id="stop830"
         offset="0.0000000"
         style="stop-color:#ffffff;stop-opacity:0.34166667;" />
      <stop
         id="stop831"
         offset="1.0000000"
         style="stop-color:#ffffff;stop-opacity:0.0000000;" />
    </linearGradient>
    <radialGradient
       cx="555.02549"
       cy="244.07333"
       fx="555.02549"
       fy="244.07333"
       id="radialGradient874"
       r="10.146761"
       xlink:href="#linearGradient829"
       gradientTransform="scale(0.88069198,1.1354708)"
       gradientUnits="userSpaceOnUse" />
    <linearGradient
       id="linearGradient3410">
      <stop
         id="stop3411"
         offset="0.0000000"
         style="stop-color:#ffc596;stop-opacity:0.42616034;" />
      <stop
         id="stop3412"
         offset="1.0000000"
         style="stop-color:#f6ceac;stop-opacity:0.0000000;" />
    </linearGradient>
    <linearGradient
       id="linearGradient2778">
      <stop
         id="stop2779"
         offset="0.0000000"
         style="stop-color:#b66c2e;stop-opacity:1.0000000;" />
      <stop
         id="stop2780"
         offset="1.0000000"
         style="stop-color:#f4a059;stop-opacity:1.0000000;" />
    </linearGradient>
    <linearGradient
       id="linearGradient2774">
      <stop
         id="stop2775"
         offset="0.0000000"
         style="stop-color:#fff5b3;stop-opacity:1.0000000;" />
      <stop
         id="stop2776"
         offset="1.0000000"
         style="stop-color:#ffffff;stop-opacity:1.0000000;" />
    </linearGradient>
    <linearGradient
       id="linearGradient2777"
       inkscape:collect="always"
       x1="140.76351"
       x2="427.21809"
       xlink:href="#linearGradient2778"
       y1="505.6655"
       y2="786.77039"
       gradientTransform="scale(1.3166705,0.75949145)"
       gradientUnits="userSpaceOnUse" />
    <linearGradient
       id="linearGradient3405"
       inkscape:collect="always"
       spreadMethod="reflect"
       x1="241.13106"
       x2="202.46727"
       xlink:href="#linearGradient2778"
       y1="533.23065"
       y2="581.5483"
       gradientTransform="scale(1.1757615,0.8505126)"
       gradientUnits="userSpaceOnUse" />
    <linearGradient
       id="linearGradient3407"
       inkscape:collect="always"
       spreadMethod="reflect"
       x1="196.41105"
       x2="168.84906"
       xlink:href="#linearGradient2774"
       y1="545.16363"
       y2="583.24271"
       gradientTransform="scale(1.2197416,0.8198458)"
       gradientUnits="userSpaceOnUse" />
    <radialGradient
       cx="289.69602"
       cy="620.83517"
       fx="289.69602"
       fy="620.83517"
       id="radialGradient3409"
       inkscape:collect="always"
       r="53.602688"
       xlink:href="#linearGradient3410"
       gradientTransform="scale(1.4230801,0.70270111)"
       gradientUnits="userSpaceOnUse" />
    <radialGradient
       cx="495.40593"
       cy="277.81562"
       fx="495.40593"
       fy="277.81562"
       id="radialGradient2011"
       inkscape:collect="always"
       r="23.763009"
       xlink:href="#linearGradient2012"
       gradientTransform="scale(1.0079619,0.99210097)"
       gradientUnits="userSpaceOnUse" />
    <linearGradient
       id="linearGradient2125"
       inkscape:collect="always"
       x1="465.29425"
       x2="463.27056"
       xlink:href="#linearGradient2122"
       y1="248.24467"
       y2="405.7687"
       gradientTransform="scale(0.74491357,1.3424376)"
       gradientUnits="userSpaceOnUse" />
    <radialGradient
       inkscape:collect="always"
       xlink:href="#linearGradient829"
       id="radialGradient3634"
       cx="180.2453"
       cy="198.41902"
       fx="180.2453"
       fy="198.41902"
       r="101.58017"
       gradientTransform="scale(0.79354273,1.2601716)"
       gradientUnits="userSpaceOnUse" />
    <radialGradient
       inkscape:collect="always"
       xlink:href="#linearGradient829"
       id="radialGradient3636"
       cx="360.85146"
       cy="167.47372"
       fx="360.85146"
       fy="167.47372"
       r="46.394721"
       gradientTransform="scale(1.007004,0.99304475)"
       gradientUnits="userSpaceOnUse" />
    <linearGradient
       inkscape:collect="always"
       xlink:href="#linearGradient855"
       id="linearGradient3638"
       spreadMethod="pad"
       x1="465.29425"
       y1="248.24467"
       x2="463.27056"
       y2="405.7687"
       gradientTransform="scale(0.74491357,1.3424376)"
       gradientUnits="userSpaceOnUse" />
    <linearGradient
       inkscape:collect="always"
       xlink:href="#linearGradient855"
       id="linearGradient3640"
       x1="157.80581"
       y1="120.96176"
       x2="155.40575"
       y2="231.63491"
       gradientTransform="scale(1.4586159,0.68558144)"
       gradientUnits="userSpaceOnUse" />
    <radialGradient
       inkscape:collect="always"
       xlink:href="#linearGradient829"
       id="radialGradient3642"
       cx="180.2453"
       cy="198.41902"
       fx="180.2453"
       fy="198.41902"
       r="101.58017"
       gradientTransform="scale(0.79354273,1.2601716)"
       gradientUnits="userSpaceOnUse" />
    <radialGradient
       inkscape:collect="always"
       xlink:href="#linearGradient829"
       id="radialGradient3644"
       cx="360.85146"
       cy="167.47372"
       fx="360.85146"
       fy="167.47372"
       r="46.394721"
       gradientTransform="scale(1.007004,0.99304475)"
       gradientUnits="userSpaceOnUse" />
    <linearGradient
       inkscape:collect="always"
       xlink:href="#linearGradient855"
       id="linearGradient3646"
       spreadMethod="pad"
       x1="465.29425"
       y1="248.24467"
       x2="463.27056"
       y2="405.7687"
       gradientTransform="scale(0.74491357,1.3424376)"
       gradientUnits="userSpaceOnUse" />
    <linearGradient
       inkscape:collect="always"
       xlink:href="#linearGradient855"
       id="linearGradient3648"
       x1="157.80581"
       y1="120.96176"
       x2="155.40575"
       y2="231.63491"
       gradientTransform="scale(1.4586159,0.68558144)"
       gradientUnits="userSpaceOnUse" />
    <radialGradient
       inkscape:collect="always"
       xlink:href="#linearGradient829"
       id="radialGradient3650"
       cx="180.2453"
       cy="198.41902"
       fx="180.2453"
       fy="198.41902"
       r="101.58017"
       gradientTransform="scale(0.79354273,1.2601716)"
       gradientUnits="userSpaceOnUse" />
    <radialGradient
       inkscape:collect="always"
       xlink:href="#linearGradient829"
       id="radialGradient3652"
       cx="360.85146"
       cy="167.47372"
       fx="360.85146"
       fy="167.47372"
       r="46.394721"
       gradientTransform="scale(1.007004,0.99304475)"
       gradientUnits="userSpaceOnUse" />
    <linearGradient
       inkscape:collect="always"
       xlink:href="#linearGradient2122"
       id="linearGradient3654"
       x1="465.29425"
       y1="248.24467"
       x2="463.27056"
       y2="405.7687"
       gradientTransform="scale(0.74491357,1.3424376)"
       gradientUnits="userSpaceOnUse" />
    <linearGradient
       inkscape:collect="always"
       xlink:href="#linearGradient855"
       id="linearGradient3656"
       x1="157.80581"
       y1="120.96176"
       x2="155.40575"
       y2="231.63491"
       gradientTransform="scale(1.4586159,0.68558144)"
       gradientUnits="userSpaceOnUse" />
    <radialGradient
       inkscape:collect="always"
       xlink:href="#linearGradient2012"
       id="radialGradient3658"
       cx="495.40593"
       cy="277.81562"
       fx="495.40593"
       fy="277.81562"
       r="23.763009"
       gradientTransform="scale(1.0079619,0.99210097)"
       gradientUnits="userSpaceOnUse" />
    <radialGradient
       inkscape:collect="always"
       xlink:href="#linearGradient829"
       id="radialGradient3660"
       cx="555.02549"
       cy="244.07333"
       fx="555.02549"
       fy="244.07333"
       r="10.146761"
       gradientTransform="scale(0.88069198,1.1354708)"
       gradientUnits="userSpaceOnUse" />
    <radialGradient
       inkscape:collect="always"
       xlink:href="#linearGradient829"
       id="radialGradient3662"
       cx="180.2453"
       cy="198.41902"
       fx="180.2453"
       fy="198.41902"
       r="101.58017"
       gradientTransform="scale(0.79354273,1.2601716)"
       gradientUnits="userSpaceOnUse" />
    <radialGradient
       inkscape:collect="always"
       xlink:href="#linearGradient829"
       id="radialGradient3664"
       cx="360.85146"
       cy="167.47372"
       fx="360.85146"
       fy="167.47372"
       r="46.394721"
       gradientTransform="scale(1.007004,0.99304475)"
       gradientUnits="userSpaceOnUse" />
    <linearGradient
       inkscape:collect="always"
       xlink:href="#linearGradient855"
       id="linearGradient3666"
       x1="157.80581"
       y1="120.96176"
       x2="155.40575"
       y2="231.63491"
       gradientTransform="scale(1.4586159,0.68558144)"
       gradientUnits="userSpaceOnUse" />
    <radialGradient
       inkscape:collect="always"
       xlink:href="#linearGradient829"
       id="radialGradient3668"
       cx="180.2453"
       cy="198.41902"
       fx="180.2453"
       fy="198.41902"
       r="101.58017"
       gradientTransform="scale(0.79354273,1.2601716)"
       gradientUnits="userSpaceOnUse" />
  </defs>
  <sodipodi:namedview
     bordercolor="#666666"
     borderopacity="1.0"
     id="base"
     inkscape:cx="198.32907"
     inkscape:cy="98.493495"
     inkscape:pageopacity="0.0000000"
     inkscape:pageshadow="2"
     inkscape:window-height="849"
     inkscape:window-width="1178"
     inkscape:window-x="61"
     inkscape:window-y="25"
     inkscape:zoom="2.4559706"
     pagecolor="#ffffff"
     showgrid="false"
     fit-margin-top="0"
     fit-margin-left="0"
     fit-margin-right="0"
     fit-margin-bottom="0"
     inkscape:window-maximized="0"
     inkscape:current-layer="svg1" />
  <path
     d="m 613.8103,585.13348 a 242.01227,29.010935 0 1 1 -484.02453,0 242.01227,29.010935 0 1 1 484.02453,0 z"
     id="path908"
     sodipodi:cx="371.79803"
     sodipodi:cy="585.13348"
     sodipodi:rx="242.01227"
     sodipodi:ry="29.010935"
     sodipodi:type="arc"
     style="fill:#ffffff;fill-opacity:1;fill-rule:evenodd;stroke:#000000;stroke-width:1.02719247;stroke-linecap:butt;stroke-linejoin:miter;stroke-miterlimit:4;stroke-opacity:1"
     transform="matrix(1,0,0,1.480868,-129.16077,-660.87405)" />
  <g
     id="g851"
     transform="matrix(0.119727,0,0,0.12108,404.05983,139.88235)">
    <path
       d="m 198.4515,81.882366 c 0,0 93.52249,-19.120668 110.90279,-16.626672 69.52114,6.650675 120.00674,63.181306 139.86993,133.844626 16.55266,117.21794 -73.69352,223.66457 -81.10801,240.25523 -9.47503,14.96999 -76.1422,26.60267 -94.35014,39.07264 -11.58684,9.14467 -89.43565,-1.21999 -107.59225,-13.30132 C -32.458054,287.22161 47.822326,120.95501 118.17112,99.34035 162.03566,84.376361 198.4515,81.882366 198.4515,81.882366 z"
       id="path866"
       sodipodi:nodetypes="cccccccc"
       style="fill:#df3511;fill-rule:evenodd;stroke:#000000;stroke-width:10;stroke-linejoin:round"
       inkscape:connector-curvature="0" />
    <path
       d="M 168.72512,143.36499 C 81.886907,52.156992 36.047337,278.22698 78.410525,355.16429 135.5172,430.81558 312.28701,308.28697 168.72512,143.36499 z"
       id="path868"
       sodipodi:nodetypes="ccc"
       style="fill:url(#radialGradient3634);fill-opacity:1;fill-rule:evenodd;stroke-width:1pt"
       inkscape:connector-curvature="0" />
    <path
       d="m 394.90829,132.13899 c -22.02633,-28.71399 -102.03826,-4.16267 -71.31324,59.51534 19.06976,31.21399 125.41719,38.32532 71.31324,-59.51534 z"
       id="path869"
       sodipodi:nodetypes="ccc"
       style="fill:url(#radialGradient3636);fill-rule:evenodd;stroke-width:1pt"
       inkscape:connector-curvature="0" />
    <path
       d="m 274.99898,470.9342 c 35.5882,-69.00064 47.17506,-142.15794 63.72772,-152.13394 10.75922,6.65067 5.79343,84.79595 20.69083,118.88062 -12.41451,9.14466 -63.72775,24.10865 -84.41855,33.25332 z"
       id="path870"
       sodipodi:nodetypes="cccc"
       style="fill:url(#linearGradient3638);fill-opacity:1;fill-rule:evenodd;stroke-width:1pt"
       inkscape:connector-curvature="0" />
    <path
       d="m 196.79623,128.43701 c 0,0 -20.69082,-11.63866 -19.03555,-18.28932 14.06974,4.98799 22.34608,12.46999 27.31187,9.14465 4.96581,-3.32534 4.96579,9.14467 9.10396,-6.65066 4.13816,-15.79533 15.72504,-33.25331 14.06977,-15.79533 -1.65527,20.78332 6.62106,24.93999 24.00135,9.14466 17.38028,-15.795316 24.00134,-11.63865 19.03555,9.14467 -24.829,27.43398 -80.28038,19.12066 -74.48695,13.30133 z"
       id="path873"
       sodipodi:nodetypes="cccccccc"
       style="fill:url(#linearGradient3640);fill-opacity:1;fill-rule:evenodd;stroke-width:1pt"
       inkscape:connector-curvature="0" />
    <path
       d="m 163.69092,120.12368 c 75.31458,26.60266 62.90009,13.30132 144.0081,-8.31334"
       id="path871"
       sodipodi:nodetypes="cc"
       style="fill:none;stroke:#000000;stroke-width:10;stroke-linejoin:round"
       inkscape:connector-curvature="0" />
    <path
       d="m 225.44369,132.32102 c -3.31054,-19.95199 35.07144,-111.237777 46.65829,-112.900432 7.4487,-0.831342 40.55035,16.107851 21.10491,26.714453 0,8.838835 -7.44869,-1.662668 -12.41449,1.662669 -11.58685,12.469993 -30.94379,51.43754 -37.56484,82.19687 l -17.78387,2.32644 z"
       id="path867"
       sodipodi:nodetypes="cccccc"
       style="fill:#4a2a00;fill-rule:evenodd;stroke:#000000;stroke-width:10;stroke-linejoin:round"
       inkscape:connector-curvature="0" />
  </g>
  <g
     id="g1015"
     transform="matrix(0.119727,0,0,0.12108,34.065843,140.53845)">
    <path
       d="m 198.4515,81.882366 c 0,0 93.52249,-19.120668 110.90279,-16.626672 69.52114,6.650675 120.00674,63.181306 139.86993,133.844626 16.55266,117.21794 -73.69352,223.66457 -81.10801,240.25523 -9.47503,14.96999 -76.1422,26.60267 -94.35014,39.07264 -11.58684,9.14467 -89.43565,-1.21999 -107.59225,-13.30132 C -32.458054,287.22161 47.822326,120.95501 118.17112,99.34035 162.03566,84.376361 198.4515,81.882366 198.4515,81.882366 z"
       id="path1016"
       sodipodi:nodetypes="cccccccc"
       style="fill:#df3511;fill-rule:evenodd;stroke:#000000;stroke-width:10;stroke-linejoin:round"
       inkscape:connector-curvature="0" />
    <path
       d="M 168.72512,143.36499 C 81.886907,52.156992 36.047337,278.22698 78.410525,355.16429 135.5172,430.81558 312.28701,308.28697 168.72512,143.36499 z"
       id="path1017"
       sodipodi:nodetypes="ccc"
       style="fill:url(#radialGradient3642);fill-opacity:1;fill-rule:evenodd;stroke-width:1pt"
       inkscape:connector-curvature="0" />
    <path
       d="m 394.90829,132.13899 c -22.02633,-28.71399 -102.03826,-4.16267 -71.31324,59.51534 19.06976,31.21399 125.41719,38.32532 71.31324,-59.51534 z"
       id="path1018"
       sodipodi:nodetypes="ccc"
       style="fill:url(#radialGradient3644);fill-rule:evenodd;stroke-width:1pt"
       inkscape:connector-curvature="0" />
    <path
       d="m 274.99898,470.9342 c 35.5882,-69.00064 47.17506,-142.15794 63.72772,-152.13394 10.75922,6.65067 5.79343,84.79595 20.69083,118.88062 -12.41451,9.14466 -63.72775,24.10865 -84.41855,33.25332 z"
       id="path1019"
       sodipodi:nodetypes="cccc"
       style="fill:url(#linearGradient3646);fill-opacity:1;fill-rule:evenodd;stroke-width:1pt"
       inkscape:connector-curvature="0" />
    <path
       d="m 196.79623,128.43701 c 0,0 -20.69082,-11.63866 -19.03555,-18.28932 14.06974,4.98799 22.34608,12.46999 27.31187,9.14465 4.96581,-3.32534 4.96579,9.14467 9.10396,-6.65066 4.13816,-15.79533 15.72504,-33.25331 14.06977,-15.79533 -1.65527,20.78332 6.62106,24.93999 24.00135,9.14466 17.38028,-15.795316 24.00134,-11.63865 19.03555,9.14467 -24.829,27.43398 -80.28038,19.12066 -74.48695,13.30133 z"
       id="path1020"
       sodipodi:nodetypes="cccccccc"
       style="fill:url(#linearGradient3648);fill-opacity:1;fill-rule:evenodd;stroke-width:1pt"
       inkscape:connector-curvature="0" />
    <path
       d="m 163.69092,120.12368 c 75.31458,26.60266 62.90009,13.30132 144.0081,-8.31334"
       id="path1021"
       sodipodi:nodetypes="cc"
       style="fill:none;stroke:#000000;stroke-width:10;stroke-linejoin:round"
       inkscape:connector-curvature="0" />
    <path
       d="m 225.44369,132.32102 c -3.31054,-19.95199 35.07144,-111.237777 46.65829,-112.900432 7.4487,-0.831342 40.55035,16.107851 21.10491,26.714453 0,8.838835 -7.44869,-1.662668 -12.41449,1.662669 -11.58685,12.469993 -30.94379,51.43754 -37.56484,82.19687 l -17.78387,2.32644 z"
       id="path1022"
       sodipodi:nodetypes="cccccc"
       style="fill:#4a2a00;fill-rule:evenodd;stroke:#000000;stroke-width:10;stroke-linejoin:round"
       inkscape:connector-curvature="0" />
  </g>
  <g
     id="g3413"
     transform="translate(-128.65177,-380.51975)">
    <path
       d="m 427.02059,381.54795 c -75.3751,-6.34008 -130.12506,30.96197 -171.52078,51.91431 -41.39572,20.95234 -68.34341,64.79026 -73.79975,89.57762 -5.93791,26.97508 7.24295,45.67895 26.46612,60.56668 19.93441,15.43857 49.06628,23.17781 77.87145,22.39441 l 243.28468,-6.61653 c 21.57614,-0.5868 46.09491,-23.09779 41.22606,-44.78881 -15.09926,-67.26804 -42.0589,-78.14209 -49.87844,-94.1583 -15.77468,-32.31015 -23.78422,-73.01277 -93.64934,-78.88938 z"
       id="path2152"
       sodipodi:nodetypes="csssssssz"
       style="fill:url(#linearGradient2777);fill-opacity:1;fill-rule:evenodd;stroke:#000000;stroke-width:0.625;stroke-linecap:butt;stroke-linejoin:miter;stroke-miterlimit:4;stroke-opacity:1"
       inkscape:connector-curvature="0" />
    <path
       d="m 494.20381,436.26157 c 0,22.34688 -36.6872,40.46262 -81.94316,40.46262 -45.25596,0 -81.94316,-18.11574 -81.94316,-40.46262 0,-22.34689 36.6872,-40.46262 81.94316,-40.46262 45.25596,0 81.94316,18.11573 81.94316,40.46262 z"
       id="path3408"
       sodipodi:cx="412.26065"
       sodipodi:cy="436.26157"
       sodipodi:rx="81.943161"
       sodipodi:ry="40.46262"
       sodipodi:type="arc"
       style="fill:url(#radialGradient3409);fill-opacity:1;fill-rule:evenodd;stroke:none"
       transform="matrix(1.120201,0,0,1.117679,-58.97006,-57.70093)" />
  </g>
  <g
     id="g3416"
     transform="translate(-128.65177,-380.51975)">
    <path
       d="m 286.46701,521.78318 c 3.62612,1.84085 -0.58288,12.25268 4.81755,15.56636 5.99517,3.67861 10.33665,-2.30386 12.32179,-5.20086 1.98513,-2.897 0.10319,-9.24667 -2.95578,-12.18114 3.0486,1.13724 9.02225,0.44647 11.06809,-3.38981 2.58114,-4.84006 -0.33083,-9.41412 -4.74261,-11.90851 -3.81174,-2.15513 -10.60431,3.84256 -14.09364,2.0318 L 166.97186,441.36085 c -4.43141,-2.29964 1.00671,-10.41128 -3.24397,-14.6222 -4.00446,-3.967 -9.22303,-0.55424 -11.57188,3.09871 -2.39774,3.72898 -0.88278,8.90976 0.53257,11.18453 -2.91084,0.23892 -7.3869,1.57933 -8.83628,7.04479 -1.18046,4.45138 0.20132,12.13215 4.72072,13.5328 4.751,1.47243 9.09177,-5.20468 13.09704,-3.17134 l 124.79695,63.35504 z"
       id="path3406"
       sodipodi:nodetypes="czzczzzzzzczzzz"
       style="fill:url(#linearGradient3407);fill-opacity:1;fill-rule:evenodd;stroke:#000000;stroke-width:0.625;stroke-linecap:butt;stroke-linejoin:miter;stroke-miterlimit:4;stroke-opacity:1"
       inkscape:connector-curvature="0" />
    <path
       d="m 167.44907,462.98215 c 2.88413,-0.50896 5.76826,-1.01793 8.65239,-1.52689 -1.52689,-2.88413 -3.05379,-5.76825 -4.58068,-8.65238 2.20551,-1.18758 4.41102,-2.37517 6.61653,-3.56275 0.16965,-1.01793 0.33931,-2.03585 0.50896,-3.05378 14.75995,6.61653 24.1575,12.1006 44.27985,19.84958 27.31439,10.51858 51.6195,-3.94186 71.76389,-1.52689 29.01093,3.47792 41.77502,31.36232 41.22606,46.82467 -1.01793,28.67163 -17.30476,45.7219 -37.66331,53.95015 -14.84006,5.99786 -40.3778,1.52689 -50.38742,-12.21513 -9.1504,-12.56241 -16.96334,-33.35352 -23.41233,-45.80673 -4.91998,-9.50065 -11.87582,-19.08614 -24.93922,-27.99301 -9.93971,-6.77707 -21.37648,-10.85789 -32.06472,-16.28684 z"
       id="path2783"
       sodipodi:nodetypes="cccccsssssssc"
       style="fill:url(#linearGradient3405);fill-opacity:1;fill-rule:evenodd;stroke:#000000;stroke-width:0.625;stroke-linecap:butt;stroke-linejoin:miter;stroke-miterlimit:4;stroke-opacity:1"
       inkscape:connector-curvature="0" />
  </g>
  <g
     id="g2126"
     transform="translate(-146.99457,-178.39185)">
    <path
       d="m 198.4515,81.882366 c 0,0 93.52249,-19.120668 110.90279,-16.626672 69.52114,6.650675 120.00674,63.181306 139.86993,133.844626 16.55266,117.21794 -73.69352,223.66457 -81.10801,240.25523 -9.47503,14.96999 -76.1422,26.60267 -94.35014,39.07264 -11.58684,9.14467 -89.43565,-1.21999 -107.59225,-13.30132 C -32.458054,287.22161 47.822326,120.95501 118.17112,99.34035 162.03566,84.376361 198.4515,81.882366 198.4515,81.882366 z"
       id="path1024"
       sodipodi:nodetypes="cccccccc"
       style="fill:#f8f812;fill-opacity:1;fill-rule:evenodd;stroke:#000000;stroke-width:10;stroke-linejoin:round"
       transform="matrix(0.110688,0,0,0.111939,177.1361,344.9083)"
       inkscape:connector-curvature="0" />
    <path
       d="M 168.72512,143.36499 C 81.886907,52.156992 36.047337,278.22698 78.410525,355.16429 135.5172,430.81558 312.28701,308.28697 168.72512,143.36499 z"
       id="path1025"
       sodipodi:nodetypes="ccc"
       style="fill:url(#radialGradient3650);fill-opacity:1;fill-rule:evenodd;stroke-width:1pt"
       transform="matrix(0.110688,0,0,0.111939,177.1361,344.9083)"
       inkscape:connector-curvature="0" />
    <path
       d="m 394.90829,132.13899 c -22.02633,-28.71399 -102.03826,-4.16267 -71.31324,59.51534 19.06976,31.21399 125.41719,38.32532 71.31324,-59.51534 z"
       id="path1026"
       sodipodi:nodetypes="ccc"
       style="fill:url(#radialGradient3652);fill-rule:evenodd;stroke-width:1pt"
       transform="matrix(0.110688,0,0,0.111939,177.1361,344.9083)"
       inkscape:connector-curvature="0" />
    <path
       d="m 274.99898,470.9342 c 35.5882,-69.00064 47.17506,-142.15794 63.72772,-152.13394 10.75922,6.65067 5.79343,84.79595 20.69083,118.88062 -12.41451,9.14466 -63.72775,24.10865 -84.41855,33.25332 z"
       id="path1027"
       sodipodi:nodetypes="cccc"
       style="fill:url(#linearGradient3654);fill-opacity:1;fill-rule:evenodd;stroke-width:1pt"
       transform="matrix(0.110688,0,0,0.111939,177.1361,344.9083)"
       inkscape:connector-curvature="0" />
    <path
       d="m 196.79623,128.43701 c 0,0 -20.69082,-11.63866 -19.03555,-18.28932 14.06974,4.98799 22.34608,12.46999 27.31187,9.14465 4.96581,-3.32534 4.96579,9.14467 9.10396,-6.65066 4.13816,-15.79533 15.72504,-33.25331 14.06977,-15.79533 -1.65527,20.78332 6.62106,24.93999 24.00135,9.14466 17.38028,-15.795316 24.00134,-11.63865 19.03555,9.14467 -24.829,27.43398 -80.28038,19.12066 -74.48695,13.30133 z"
       id="path1028"
       sodipodi:nodetypes="cccccccc"
       style="fill:url(#linearGradient3656);fill-opacity:1;fill-rule:evenodd;stroke-width:1pt"
       transform="matrix(0.110688,0,0,0.111939,177.1361,344.9083)"
       inkscape:connector-curvature="0" />
    <path
       d="m 163.69092,120.12368 c 75.31458,26.60266 62.90009,13.30132 144.0081,-8.31334"
       id="path1029"
       sodipodi:nodetypes="cc"
       style="fill:none;stroke:#000000;stroke-width:10;stroke-linejoin:round"
       transform="matrix(0.110688,0,0,0.111939,177.1361,344.9083)"
       inkscape:connector-curvature="0" />
    <path
       d="m 225.44369,132.32102 c -3.31054,-19.95199 35.07144,-111.237777 46.65829,-112.900432 7.4487,-0.831342 40.55035,16.107851 21.10491,26.714453 0,8.838835 -7.44869,-1.662668 -12.41449,1.662669 -11.58685,12.469993 -30.94379,51.43754 -37.56484,82.19687 l -17.78387,2.32644 z"
       id="path1030"
       sodipodi:nodetypes="cccccc"
       style="fill:#4a2a00;fill-rule:evenodd;stroke:#000000;stroke-width:10;stroke-linejoin:round"
       transform="matrix(0.110688,0,0,0.111939,177.1361,344.9083)"
       inkscape:connector-curvature="0" />
  </g>
  <g
     id="g2082"
     transform="translate(-19.244667,-141.74645)">
    <path
       d="m 495.84045,253.13984 c -27.66562,6.74612 -21.56809,37.0128 -11.25069,41.63319 29.32556,12.5285 37.07193,-8.48084 37.99411,-14.45597 2.23543,-18.38251 -13.64837,-30.64665 -26.74342,-27.17722 z"
       id="path2015"
       sodipodi:nodetypes="cccc"
       style="fill:#ff4a13;fill-opacity:1;fill-rule:evenodd;stroke:#000000;stroke-width:1.01323998;stroke-linejoin:round"
       transform="translate(-46.36557,69.09792)"
       inkscape:connector-curvature="0" />
    <path
       d="m 495.84045,253.13984 c -27.66562,6.74612 -21.56809,37.0128 -11.25069,41.63319 29.32556,12.5285 37.07193,-8.48084 37.99411,-14.45597 2.23543,-18.38251 -13.64837,-30.64665 -26.74342,-27.17722 z"
       id="path982"
       sodipodi:nodetypes="cccc"
       style="fill:url(#radialGradient3658);fill-opacity:1;fill-rule:evenodd;stroke:#000000;stroke-width:1.01323998;stroke-linejoin:round"
       transform="translate(-46.36557,69.09792)"
       inkscape:connector-curvature="0" />
    <path
       d="m 480.16327,263.35539 c 11.06624,-4.43317 13.8328,-5.58964 18.81261,-5.0114 2.58213,1.73471 11.98844,1.34922 19.1815,13.29949 -6.08644,-11.37203 -8.29969,-12.52851 -12.91062,-13.10675 -4.61094,0 4.42649,-1.54197 10.69737,1.15648 -5.902,-3.85493 -14.38612,-1.92746 -10.3285,-5.78239 -2.951,0.3855 -3.13544,1.34923 -5.16425,2.8912 -4.4265,-1.34923 -2.76656,-3.27669 -10.51293,-1.54197 5.71756,-0.3855 4.61094,0.19274 7.3775,1.15647 -11.06625,1.54197 -14.57056,5.20415 -17.15268,6.93887 z"
       id="path983"
       sodipodi:nodetypes="cccccccccc"
       style="fill:#ffffff;fill-opacity:0.1;fill-rule:evenodd;stroke-width:1pt"
       transform="translate(-46.36557,69.09792)"
       inkscape:connector-curvature="0" />
    <path
       d="m 499.99495,257.91841 c 0.20575,1.13164 0.36063,4.93589 0.72568,4.93589 0.79095,-0.31791 1.79648,-4.07931 2.22237,-4.4608 0.42589,-0.3815 4.26107,2.88981 4.56528,2.76264 0.30421,-0.12716 -2.67035,-5.43526 -2.54867,-5.81676 -0.85178,-0.0636 -1.9978,0.81729 -2.36285,0.18147 -0.36505,-0.63583 -1.08518,-0.29363 -2.05865,-1.1202 -1.59514,1.74674 -4.28985,2.53045 -5.01995,3.61135 0.7301,0.50866 3.65379,0.11216 4.47679,-0.0936 z"
       id="path984"
       sodipodi:nodetypes="ccccccccc"
       style="fill:#009900;fill-rule:evenodd;stroke:#000000;stroke-width:1.01323998;stroke-linejoin:round"
       transform="translate(-46.36557,69.09792)"
       inkscape:connector-curvature="0" />
    <path
       d="m 500.95403,256.34742 c 0.30421,0.82657 1.03431,0.63583 1.39936,0.25433 0.7301,-0.19075 0.23895,-1.13305 0.4447,-2.62189 -0.66926,-0.38149 -0.70687,-0.29362 -1.43698,-0.10287 -0.12168,0.38149 -0.65045,2.08893 -0.40708,2.47043 z"
       id="path985"
       sodipodi:nodetypes="ccccc"
       style="fill:#009900;fill-rule:evenodd;stroke:#000000;stroke-width:1.01323998;stroke-linejoin:round"
       transform="translate(-46.36557,69.09792)"
       inkscape:connector-curvature="0" />
    <path
       d="m 501.70736,254.87574 c 0,0 -0.93585,1.47168 -0.0841,1.66243 0.66926,-0.25433 0.87501,-1.66243 0.0841,-1.66243 z"
       id="path986"
       sodipodi:nodetypes="ccc"
       style="fill:#00eb00;fill-rule:evenodd;stroke-width:1pt"
       transform="translate(-46.36557,69.09792)"
       inkscape:connector-curvature="0" />
    <path
       d="m 500.5516,256.56639 c -0.10288,0 -3.53211,0.81157 -3.2279,1.12949 0.97347,0 2.55864,-0.23933 3.2279,-1.12949 z"
       id="path987"
       sodipodi:nodetypes="ccc"
       style="fill:#00ea00;fill-rule:evenodd;stroke-width:1pt"
       transform="translate(-46.36557,69.09792)"
       inkscape:connector-curvature="0" />
    <path
       d="m 500.60559,256.95145 c 0.3042,0.95374 -0.29424,3.73139 0.01,4.0493 0.97346,0 1.02433,-3.54063 -0.01,-4.0493 z"
       id="path988"
       sodipodi:nodetypes="ccc"
       style="fill:#00ea00;fill-rule:evenodd;stroke-width:1pt"
       transform="translate(-46.36557,69.09792)"
       inkscape:connector-curvature="0" />
    <path
       d="m 491.22951,265.86109 c -9.77518,-2.31296 -16.23049,12.33576 -6.63975,21.20209 13.2795,7.13161 18.25931,-11.37203 6.63975,-21.20209 z"
       id="path989"
       sodipodi:nodetypes="ccc"
       style="fill:url(#radialGradient3660);fill-opacity:1;fill-rule:evenodd;stroke-width:1pt"
       transform="translate(-46.36557,69.09792)"
       inkscape:connector-curvature="0" />
    <path
       d="m 527.80313,210.12061 c 0,2.96052 -2.21536,5.3605 -4.94815,5.3605 -2.73279,0 -4.94815,-2.39998 -4.94815,-5.3605 0,-2.96053 2.21536,-5.36051 4.94815,-5.36051 2.73279,0 4.94815,2.39998 4.94815,5.36051 z"
       id="path1954"
       sodipodi:cx="522.85498"
       sodipodi:cy="210.12061"
       sodipodi:rx="4.9481544"
       sodipodi:ry="5.3605008"
       sodipodi:type="arc"
       style="fill:#db6422;fill-opacity:0.83333333;fill-rule:evenodd;stroke:#d55f00;stroke-width:1.25;stroke-opacity:0.74166667"
       transform="matrix(0.101324,0,0,0.101324,415.7018,338.4516)" />
    <path
       d="m 527.80313,210.12061 c 0,2.96052 -2.21536,5.3605 -4.94815,5.3605 -2.73279,0 -4.94815,-2.39998 -4.94815,-5.3605 0,-2.96053 2.21536,-5.36051 4.94815,-5.36051 2.73279,0 4.94815,2.39998 4.94815,5.36051 z"
       id="path874"
       sodipodi:cx="522.85498"
       sodipodi:cy="210.12061"
       sodipodi:rx="4.9481544"
       sodipodi:ry="5.3605008"
       sodipodi:type="arc"
       style="fill:#db6422;fill-opacity:0.83333333;fill-rule:evenodd;stroke:#d55f00;stroke-width:1.25;stroke-opacity:0.74166667"
       transform="matrix(0.101324,0,0,0.101324,408.912,343.6982)" />
    <path
       d="m 527.80313,210.12061 c 0,2.96052 -2.21536,5.3605 -4.94815,5.3605 -2.73279,0 -4.94815,-2.39998 -4.94815,-5.3605 0,-2.96053 2.21536,-5.36051 4.94815,-5.36051 2.73279,0 4.94815,2.39998 4.94815,5.36051 z"
       id="path875"
       sodipodi:cx="522.85498"
       sodipodi:cy="210.12061"
       sodipodi:rx="4.9481544"
       sodipodi:ry="5.3605008"
       sodipodi:type="arc"
       style="fill:#db6422;fill-opacity:0.83333333;fill-rule:evenodd;stroke:#d55f00;stroke-width:1.25;stroke-opacity:0.74166667"
       transform="matrix(0.101324,0,0,0.101324,400.3733,345.1385)" />
    <path
       d="m 527.80313,210.12061 c 0,2.96052 -2.21536,5.3605 -4.94815,5.3605 -2.73279,0 -4.94815,-2.39998 -4.94815,-5.3605 0,-2.96053 2.21536,-5.36051 4.94815,-5.36051 2.73279,0 4.94815,2.39998 4.94815,5.36051 z"
       id="path876"
       sodipodi:cx="522.85498"
       sodipodi:cy="210.12061"
       sodipodi:rx="4.9481544"
       sodipodi:ry="5.3605008"
       sodipodi:type="arc"
       style="fill:#db6422;fill-opacity:0.83333333;fill-rule:evenodd;stroke:#d55f00;stroke-width:1.25;stroke-opacity:0.74166667"
       transform="matrix(0.101324,0,0,0.101324,419.4925,331.112)" />
    <path
       d="m 527.80313,210.12061 c 0,2.96052 -2.21536,5.3605 -4.94815,5.3605 -2.73279,0 -4.94815,-2.39998 -4.94815,-5.3605 0,-2.96053 2.21536,-5.36051 4.94815,-5.36051 2.73279,0 4.94815,2.39998 4.94815,5.36051 z"
       id="path877"
       sodipodi:cx="522.85498"
       sodipodi:cy="210.12061"
       sodipodi:rx="4.9481544"
       sodipodi:ry="5.3605008"
       sodipodi:type="arc"
       style="fill:#db6422;fill-opacity:0.83333333;fill-rule:evenodd;stroke:#d55f00;stroke-width:1.25;stroke-opacity:0.74166667"
       transform="matrix(0.101324,0,0,0.101324,422.0801,322.5058)" />
    <path
       d="m 527.80313,210.12061 c 0,2.96052 -2.21536,5.3605 -4.94815,5.3605 -2.73279,0 -4.94815,-2.39998 -4.94815,-5.3605 0,-2.96053 2.21536,-5.36051 4.94815,-5.36051 2.73279,0 4.94815,2.39998 4.94815,5.36051 z"
       id="path878"
       sodipodi:cx="522.85498"
       sodipodi:cy="210.12061"
       sodipodi:rx="4.9481544"
       sodipodi:ry="5.3605008"
       sodipodi:type="arc"
       style="fill:#db6422;fill-opacity:0.83333333;fill-rule:evenodd;stroke:#d55f00;stroke-width:1.25;stroke-opacity:0.74166667"
       transform="matrix(0.101324,0,0,0.101324,419.4054,325.9007)" />
    <path
       d="m 527.80313,210.12061 c 0,2.96052 -2.21536,5.3605 -4.94815,5.3605 -2.73279,0 -4.94815,-2.39998 -4.94815,-5.3605 0,-2.96053 2.21536,-5.36051 4.94815,-5.36051 2.73279,0 4.94815,2.39998 4.94815,5.36051 z"
       id="path879"
       sodipodi:cx="522.85498"
       sodipodi:cy="210.12061"
       sodipodi:rx="4.9481544"
       sodipodi:ry="5.3605008"
       sodipodi:type="arc"
       style="fill:#db6422;fill-opacity:0.83333333;fill-rule:evenodd;stroke:#d55f00;stroke-width:1.25;stroke-opacity:0.74166667"
       transform="matrix(0.101324,0,0,0.101324,415.9076,333.4106)" />
    <path
       d="m 527.80313,210.12061 c 0,2.96052 -2.21536,5.3605 -4.94815,5.3605 -2.73279,0 -4.94815,-2.39998 -4.94815,-5.3605 0,-2.96053 2.21536,-5.36051 4.94815,-5.36051 2.73279,0 4.94815,2.39998 4.94815,5.36051 z"
       id="path880"
       sodipodi:cx="522.85498"
       sodipodi:cy="210.12061"
       sodipodi:rx="4.9481544"
       sodipodi:ry="5.3605008"
       sodipodi:type="arc"
       style="fill:#db6422;fill-opacity:0.83333333;fill-rule:evenodd;stroke:#d55f00;stroke-width:1.25;stroke-opacity:0.74166667"
       transform="matrix(0.101324,0,0,0.101324,411.1596,338.3134)" />
    <path
       d="m 527.80313,210.12061 c 0,2.96052 -2.21536,5.3605 -4.94815,5.3605 -2.73279,0 -4.94815,-2.39998 -4.94815,-5.3605 0,-2.96053 2.21536,-5.36051 4.94815,-5.36051 2.73279,0 4.94815,2.39998 4.94815,5.36051 z"
       id="path881"
       sodipodi:cx="522.85498"
       sodipodi:cy="210.12061"
       sodipodi:rx="4.9481544"
       sodipodi:ry="5.3605008"
       sodipodi:type="arc"
       style="fill:#db6422;fill-opacity:0.83333333;fill-rule:evenodd;stroke:#d55f00;stroke-width:1.25;stroke-opacity:0.74166667"
       transform="matrix(0.101324,0,0,0.101324,404.4884,342.3608)" />
    <path
       d="m 527.80313,210.12061 c 0,2.96052 -2.21536,5.3605 -4.94815,5.3605 -2.73279,0 -4.94815,-2.39998 -4.94815,-5.3605 0,-2.96053 2.21536,-5.36051 4.94815,-5.36051 2.73279,0 4.94815,2.39998 4.94815,5.36051 z"
       id="path882"
       sodipodi:cx="522.85498"
       sodipodi:cy="210.12061"
       sodipodi:rx="4.9481544"
       sodipodi:ry="5.3605008"
       sodipodi:type="arc"
       style="fill:#db6422;fill-opacity:0.83333333;fill-rule:evenodd;stroke:#d55f00;stroke-width:1.25;stroke-opacity:0.74166667"
       transform="matrix(0.101324,0,0,0.101324,418.9938,318.2879)" />
    <path
       d="m 527.80313,210.12061 c 0,2.96052 -2.21536,5.3605 -4.94815,5.3605 -2.73279,0 -4.94815,-2.39998 -4.94815,-5.3605 0,-2.96053 2.21536,-5.36051 4.94815,-5.36051 2.73279,0 4.94815,2.39998 4.94815,5.36051 z"
       id="path883"
       sodipodi:cx="522.85498"
       sodipodi:cy="210.12061"
       sodipodi:rx="4.9481544"
       sodipodi:ry="5.3605008"
       sodipodi:type="arc"
       style="fill:#db6422;fill-opacity:0.83333333;fill-rule:evenodd;stroke:#d55f00;stroke-width:1.25;stroke-opacity:0.74166667"
       transform="matrix(0.101324,0,0,0.101324,415.4961,327.6496)" />
    <path
       d="m 527.80313,210.12061 c 0,2.96052 -2.21536,5.3605 -4.94815,5.3605 -2.73279,0 -4.94815,-2.39998 -4.94815,-5.3605 0,-2.96053 2.21536,-5.36051 4.94815,-5.36051 2.73279,0 4.94815,2.39998 4.94815,5.36051 z"
       id="path884"
       sodipodi:cx="522.85498"
       sodipodi:cy="210.12061"
       sodipodi:rx="4.9481544"
       sodipodi:ry="5.3605008"
       sodipodi:type="arc"
       style="fill:#db6422;fill-opacity:0.83333333;fill-rule:evenodd;stroke:#d55f00;stroke-width:1.25;stroke-opacity:0.74166667"
       transform="matrix(0.101324,0,0,0.101324,409.8222,333.7868)" />
    <path
       d="m 527.80313,210.12061 c 0,2.96052 -2.21536,5.3605 -4.94815,5.3605 -2.73279,0 -4.94815,-2.39998 -4.94815,-5.3605 0,-2.96053 2.21536,-5.36051 4.94815,-5.36051 2.73279,0 4.94815,2.39998 4.94815,5.36051 z"
       id="path885"
       sodipodi:cx="522.85498"
       sodipodi:cy="210.12061"
       sodipodi:rx="4.9481544"
       sodipodi:ry="5.3605008"
       sodipodi:type="arc"
       style="fill:#db6422;fill-opacity:0.83333333;fill-rule:evenodd;stroke:#d55f00;stroke-width:1.25;stroke-opacity:0.74166667"
       transform="matrix(0.101324,0,0,0.101324,409.0149,336.4969)" />
    <path
       d="m 527.80313,210.12061 c 0,2.96052 -2.21536,5.3605 -4.94815,5.3605 -2.73279,0 -4.94815,-2.39998 -4.94815,-5.3605 0,-2.96053 2.21536,-5.36051 4.94815,-5.36051 2.73279,0 4.94815,2.39998 4.94815,5.36051 z"
       id="path886"
       sodipodi:cx="522.85498"
       sodipodi:cy="210.12061"
       sodipodi:rx="4.9481544"
       sodipodi:ry="5.3605008"
       sodipodi:type="arc"
       style="fill:#db6422;fill-opacity:0.83333333;fill-rule:evenodd;stroke:#d55f00;stroke-width:1.25;stroke-opacity:0.74166667"
       transform="matrix(0.101324,0,0,0.101324,406.6488,338.8631)" />
    <path
       d="m 527.80313,210.12061 c 0,2.96052 -2.21536,5.3605 -4.94815,5.3605 -2.73279,0 -4.94815,-2.39998 -4.94815,-5.3605 0,-2.96053 2.21536,-5.36051 4.94815,-5.36051 2.73279,0 4.94815,2.39998 4.94815,5.36051 z"
       id="path887"
       sodipodi:cx="522.85498"
       sodipodi:cy="210.12061"
       sodipodi:rx="4.9481544"
       sodipodi:ry="5.3605008"
       sodipodi:type="arc"
       style="fill:#db6422;fill-opacity:0.83333333;fill-rule:evenodd;stroke:#d55f00;stroke-width:1.25;stroke-opacity:0.74166667"
       transform="matrix(0.101324,0,0,0.101324,398.6244,342.3608)" />
    <path
       d="m 527.80313,210.12061 c 0,2.96052 -2.21536,5.3605 -4.94815,5.3605 -2.73279,0 -4.94815,-2.39998 -4.94815,-5.3605 0,-2.96053 2.21536,-5.36051 4.94815,-5.36051 2.73279,0 4.94815,2.39998 4.94815,5.36051 z"
       id="path888"
       sodipodi:cx="522.85498"
       sodipodi:cy="210.12061"
       sodipodi:rx="4.9481544"
       sodipodi:ry="5.3605008"
       sodipodi:type="arc"
       style="fill:#db6422;fill-opacity:0.83333333;fill-rule:evenodd;stroke:#d55f00;stroke-width:1.25;stroke-opacity:0.74166667"
       transform="matrix(0.101324,0,0,0.101324,418.1708,312.424)" />
    <path
       d="m 527.80313,210.12061 c 0,2.96052 -2.21536,5.3605 -4.94815,5.3605 -2.73279,0 -4.94815,-2.39998 -4.94815,-5.3605 0,-2.96053 2.21536,-5.36051 4.94815,-5.36051 2.73279,0 4.94815,2.39998 4.94815,5.36051 z"
       id="path889"
       sodipodi:cx="522.85498"
       sodipodi:cy="210.12061"
       sodipodi:rx="4.9481544"
       sodipodi:ry="5.3605008"
       sodipodi:type="arc"
       style="fill:#db6422;fill-opacity:0.83333333;fill-rule:evenodd;stroke:#d55f00;stroke-width:1.25;stroke-opacity:0.74166667"
       transform="matrix(0.101324,0,0,0.101324,415.7018,320.8598)" />
    <path
       d="m 527.80313,210.12061 c 0,2.96052 -2.21536,5.3605 -4.94815,5.3605 -2.73279,0 -4.94815,-2.39998 -4.94815,-5.3605 0,-2.96053 2.21536,-5.36051 4.94815,-5.36051 2.73279,0 4.94815,2.39998 4.94815,5.36051 z"
       id="path890"
       sodipodi:cx="522.85498"
       sodipodi:cy="210.12061"
       sodipodi:rx="4.9481544"
       sodipodi:ry="5.3605008"
       sodipodi:type="arc"
       style="fill:#db6422;fill-opacity:0.83333333;fill-rule:evenodd;stroke:#d55f00;stroke-width:1.25;stroke-opacity:0.74166667"
       transform="matrix(0.101324,0,0,0.101324,413.0271,324.3576)" />
    <path
       d="m 527.80313,210.12061 c 0,2.96052 -2.21536,5.3605 -4.94815,5.3605 -2.73279,0 -4.94815,-2.39998 -4.94815,-5.3605 0,-2.96053 2.21536,-5.36051 4.94815,-5.36051 2.73279,0 4.94815,2.39998 4.94815,5.36051 z"
       id="path891"
       sodipodi:cx="522.85498"
       sodipodi:cy="210.12061"
       sodipodi:rx="4.9481544"
       sodipodi:ry="5.3605008"
       sodipodi:type="arc"
       style="fill:#db6422;fill-opacity:0.83333333;fill-rule:evenodd;stroke:#d55f00;stroke-width:1.25;stroke-opacity:0.74166667"
       transform="matrix(0.101324,0,0,0.101324,411.1753,328.8841)" />
    <path
       d="m 527.80313,210.12061 c 0,2.96052 -2.21536,5.3605 -4.94815,5.3605 -2.73279,0 -4.94815,-2.39998 -4.94815,-5.3605 0,-2.96053 2.21536,-5.36051 4.94815,-5.36051 2.73279,0 4.94815,2.39998 4.94815,5.36051 z"
       id="path892"
       sodipodi:cx="522.85498"
       sodipodi:cy="210.12061"
       sodipodi:rx="4.9481544"
       sodipodi:ry="5.3605008"
       sodipodi:type="arc"
       style="fill:#db6422;fill-opacity:0.83333333;fill-rule:evenodd;stroke:#d55f00;stroke-width:1.25;stroke-opacity:0.74166667"
       transform="matrix(0.101324,0,0,0.101324,406.2373,333.7193)" />
    <path
       d="m 527.80313,210.12061 c 0,2.96052 -2.21536,5.3605 -4.94815,5.3605 -2.73279,0 -4.94815,-2.39998 -4.94815,-5.3605 0,-2.96053 2.21536,-5.36051 4.94815,-5.36051 2.73279,0 4.94815,2.39998 4.94815,5.36051 z"
       id="path893"
       sodipodi:cx="522.85498"
       sodipodi:cy="210.12061"
       sodipodi:rx="4.9481544"
       sodipodi:ry="5.3605008"
       sodipodi:type="arc"
       style="fill:#db6422;fill-opacity:0.83333333;fill-rule:evenodd;stroke:#d55f00;stroke-width:1.25;stroke-opacity:0.74166667"
       transform="matrix(0.101324,0,0,0.101324,402.0193,336.1883)" />
    <path
       d="m 527.80313,210.12061 c 0,2.96052 -2.21536,5.3605 -4.94815,5.3605 -2.73279,0 -4.94815,-2.39998 -4.94815,-5.3605 0,-2.96053 2.21536,-5.36051 4.94815,-5.36051 2.73279,0 4.94815,2.39998 4.94815,5.36051 z"
       id="path894"
       sodipodi:cx="522.85498"
       sodipodi:cy="210.12061"
       sodipodi:rx="4.9481544"
       sodipodi:ry="5.3605008"
       sodipodi:type="arc"
       style="fill:#db6422;fill-opacity:0.83333333;fill-rule:evenodd;stroke:#d55f00;stroke-width:1.25;stroke-opacity:0.74166667"
       transform="matrix(0.101324,0,0,0.101324,397.0813,338.4516)" />
    <path
       d="m 527.80313,210.12061 c 0,2.96052 -2.21536,5.3605 -4.94815,5.3605 -2.73279,0 -4.94815,-2.39998 -4.94815,-5.3605 0,-2.96053 2.21536,-5.36051 4.94815,-5.36051 2.73279,0 4.94815,2.39998 4.94815,5.36051 z"
       id="path895"
       sodipodi:cx="522.85498"
       sodipodi:cy="210.12061"
       sodipodi:rx="4.9481544"
       sodipodi:ry="5.3605008"
       sodipodi:type="arc"
       style="fill:#db6422;fill-opacity:0.83333333;fill-rule:evenodd;stroke:#d55f00;stroke-width:1.25;stroke-opacity:0.74166667"
       transform="matrix(0.101324,0,0,0.101324,392.1433,342.6695)" />
  </g>
  <g
     id="g1007"
     transform="matrix(0.1437,0,0,0.136314,351.34903,167.67055)">
    <path
       d="m 198.4515,81.882366 c 0,0 93.52249,-19.120668 110.90279,-16.626672 69.52114,6.650675 120.00674,63.181306 139.86993,133.844626 16.55266,117.21794 -73.69352,223.66457 -81.10801,240.25523 -9.47503,14.96999 -76.1422,26.60267 -94.35014,39.07264 -11.58684,9.14467 -89.43565,-1.21999 -107.59225,-13.30132 C -32.458054,287.22161 47.822326,120.95501 118.17112,99.34035 162.03566,84.376361 198.4515,81.882366 198.4515,81.882366 z"
       id="path1008"
       sodipodi:nodetypes="cccccccc"
       style="fill:#df3511;fill-rule:evenodd;stroke:#000000;stroke-width:10;stroke-linejoin:round"
       inkscape:connector-curvature="0" />
    <path
       d="M 168.72512,143.36499 C 81.886907,52.156992 36.047337,278.22698 78.410525,355.16429 135.5172,430.81558 312.28701,308.28697 168.72512,143.36499 z"
       id="path1009"
       sodipodi:nodetypes="ccc"
       style="fill:url(#radialGradient3662);fill-opacity:1;fill-rule:evenodd;stroke-width:1pt"
       inkscape:connector-curvature="0" />
    <path
       d="m 394.90829,132.13899 c -22.02633,-28.71399 -102.03826,-4.16267 -71.31324,59.51534 19.06976,31.21399 125.41719,38.32532 71.31324,-59.51534 z"
       id="path1010"
       sodipodi:nodetypes="ccc"
       style="fill:url(#radialGradient3664);fill-rule:evenodd;stroke-width:1pt"
       inkscape:connector-curvature="0" />
    <path
       d="m 274.99898,470.9342 c 35.5882,-69.00064 47.17506,-142.15794 63.72772,-152.13394 10.75922,6.65067 5.79343,84.79595 20.69083,118.88062 -12.41451,9.14466 -63.72775,24.10865 -84.41855,33.25332 z"
       id="path1011"
       sodipodi:nodetypes="cccc"
       style="fill:url(#linearGradient850);fill-opacity:1;fill-rule:evenodd;stroke-width:1pt"
       inkscape:connector-curvature="0" />
    <path
       d="m 196.79623,128.43701 c 0,0 -20.69082,-11.63866 -19.03555,-18.28932 14.06974,4.98799 22.34608,12.46999 27.31187,9.14465 4.96581,-3.32534 4.96579,9.14467 9.10396,-6.65066 4.13816,-15.79533 15.72504,-33.25331 14.06977,-15.79533 -1.65527,20.78332 6.62106,24.93999 24.00135,9.14466 17.38028,-15.795316 24.00134,-11.63865 19.03555,9.14467 -24.829,27.43398 -80.28038,19.12066 -74.48695,13.30133 z"
       id="path1012"
       sodipodi:nodetypes="cccccccc"
       style="fill:url(#linearGradient3666);fill-opacity:1;fill-rule:evenodd;stroke-width:1pt"
       inkscape:connector-curvature="0" />
    <path
       d="m 163.69092,120.12368 c 75.31458,26.60266 62.90009,13.30132 144.0081,-8.31334"
       id="path1013"
       sodipodi:nodetypes="cc"
       style="fill:none;stroke:#000000;stroke-width:10;stroke-linejoin:round"
       inkscape:connector-curvature="0" />
    <path
       d="m 225.44369,132.32102 c -3.31054,-19.95199 35.07144,-111.237777 46.65829,-112.900432 7.4487,-0.831342 40.55035,16.107851 21.10491,26.714453 0,8.838835 -7.44869,-1.662668 -12.41449,1.662669 -11.58685,12.469993 -30.94379,51.43754 -37.56484,82.19687 l -17.78387,2.32644 z"
       id="path1014"
       sodipodi:nodetypes="cccccc"
       style="fill:#4a2a00;fill-rule:evenodd;stroke:#000000;stroke-width:10;stroke-linejoin:round"
       inkscape:connector-curvature="0" />
  </g>
  <g
     id="g2134"
     transform="matrix(1.139228,0,0,1.149705,106.73613,-220.84475)">
    <path
       d="m 198.4515,81.882366 c 0,0 93.52249,-19.120668 110.90279,-16.626672 69.52114,6.650675 120.00674,63.181306 139.86993,133.844626 16.55266,117.21794 -73.69352,223.66457 -81.10801,240.25523 -9.47503,14.96999 -76.1422,26.60267 -94.35014,39.07264 -11.58684,9.14467 -89.43565,-1.21999 -107.59225,-13.30132 C -32.458054,287.22161 47.822326,120.95501 118.17112,99.34035 162.03566,84.376361 198.4515,81.882366 198.4515,81.882366 z"
       id="path2135"
       sodipodi:nodetypes="cccccccc"
       style="fill:#f8f812;fill-opacity:1;fill-rule:evenodd;stroke:#000000;stroke-width:10;stroke-linejoin:round"
       transform="matrix(0.110688,0,0,0.111939,177.1361,344.9083)"
       inkscape:connector-curvature="0" />
    <path
       d="M 168.72512,143.36499 C 81.886907,52.156992 36.047337,278.22698 78.410525,355.16429 135.5172,430.81558 312.28701,308.28697 168.72512,143.36499 z"
       id="path2136"
       sodipodi:nodetypes="ccc"
       style="fill:url(#radialGradient3668);fill-opacity:1;fill-rule:evenodd;stroke-width:1pt"
       transform="matrix(0.110688,0,0,0.111939,177.1361,344.9083)"
       inkscape:connector-curvature="0" />
    <path
       d="m 394.90829,132.13899 c -22.02633,-28.71399 -102.03826,-4.16267 -71.31324,59.51534 19.06976,31.21399 125.41719,38.32532 71.31324,-59.51534 z"
       id="path2137"
       sodipodi:nodetypes="ccc"
       style="fill:url(#radialGradient832);fill-rule:evenodd;stroke-width:1pt"
       transform="matrix(0.110688,0,0,0.111939,177.1361,344.9083)"
       inkscape:connector-curvature="0" />
    <path
       d="m 274.99898,470.9342 c 35.5882,-69.00064 47.17506,-142.15794 63.72772,-152.13394 10.75922,6.65067 5.79343,84.79595 20.69083,118.88062 -12.41451,9.14466 -63.72775,24.10865 -84.41855,33.25332 z"
       id="path2138"
       sodipodi:nodetypes="cccc"
       style="fill:url(#linearGradient2125);fill-opacity:1;fill-rule:evenodd;stroke-width:1pt"
       transform="matrix(0.110688,0,0,0.111939,177.1361,344.9083)"
       inkscape:connector-curvature="0" />
    <path
       d="m 196.79623,128.43701 c 0,0 -20.69082,-11.63866 -19.03555,-18.28932 14.06974,4.98799 22.34608,12.46999 27.31187,9.14465 4.96581,-3.32534 4.96579,9.14467 9.10396,-6.65066 4.13816,-15.79533 15.72504,-33.25331 14.06977,-15.79533 -1.65527,20.78332 6.62106,24.93999 24.00135,9.14466 17.38028,-15.795316 24.00134,-11.63865 19.03555,9.14467 -24.829,27.43398 -80.28038,19.12066 -74.48695,13.30133 z"
       id="path2139"
       sodipodi:nodetypes="cccccccc"
       style="fill:url(#linearGradient854);fill-opacity:1;fill-rule:evenodd;stroke-width:1pt"
       transform="matrix(0.110688,0,0,0.111939,177.1361,344.9083)"
       inkscape:connector-curvature="0" />
    <path
       d="m 163.69092,120.12368 c 75.31458,26.60266 62.90009,13.30132 144.0081,-8.31334"
       id="path2140"
       sodipodi:nodetypes="cc"
       style="fill:none;stroke:#000000;stroke-width:10;stroke-linejoin:round"
       transform="matrix(0.110688,0,0,0.111939,177.1361,344.9083)"
       inkscape:connector-curvature="0" />
    <path
       d="m 225.44369,132.32102 c -3.31054,-19.95199 35.07144,-111.237777 46.65829,-112.900432 7.4487,-0.831342 40.55035,16.107851 21.10491,26.714453 0,8.838835 -7.44869,-1.662668 -12.41449,1.662669 -11.58685,12.469993 -30.94379,51.43754 -37.56484,82.19687 l -17.78387,2.32644 z"
       id="path2141"
       sodipodi:nodetypes="cccccc"
       style="fill:#4a2a00;fill-rule:evenodd;stroke:#000000;stroke-width:10;stroke-linejoin:round"
       transform="matrix(0.110688,0,0,0.111939,177.1361,344.9083)"
       inkscape:connector-curvature="0" />
  </g>
  <g
     id="g2142"
     transform="translate(-345.80327,-133.48715)">
    <path
       d="m 495.84045,253.13984 c -27.66562,6.74612 -21.56809,37.0128 -11.25069,41.63319 29.32556,12.5285 37.07193,-8.48084 37.99411,-14.45597 2.23543,-18.38251 -13.64837,-30.64665 -26.74342,-27.17722 z"
       id="path2143"
       sodipodi:nodetypes="cccc"
       style="fill:#ff4a13;fill-opacity:1;fill-rule:evenodd;stroke:#000000;stroke-width:1.01323998;stroke-linejoin:round"
       transform="translate(-46.36557,69.09792)"
       inkscape:connector-curvature="0" />
    <path
       d="m 495.84045,253.13984 c -27.66562,6.74612 -21.56809,37.0128 -11.25069,41.63319 29.32556,12.5285 37.07193,-8.48084 37.99411,-14.45597 2.23543,-18.38251 -13.64837,-30.64665 -26.74342,-27.17722 z"
       id="path2144"
       sodipodi:nodetypes="cccc"
       style="fill:url(#radialGradient2011);fill-opacity:1;fill-rule:evenodd;stroke:#000000;stroke-width:1.01323998;stroke-linejoin:round"
       transform="translate(-46.36557,69.09792)"
       inkscape:connector-curvature="0" />
    <path
       d="m 480.16327,263.35539 c 11.06624,-4.43317 13.8328,-5.58964 18.81261,-5.0114 2.58213,1.73471 11.98844,1.34922 19.1815,13.29949 -6.08644,-11.37203 -8.29969,-12.52851 -12.91062,-13.10675 -4.61094,0 4.42649,-1.54197 10.69737,1.15648 -5.902,-3.85493 -14.38612,-1.92746 -10.3285,-5.78239 -2.951,0.3855 -3.13544,1.34923 -5.16425,2.8912 -4.4265,-1.34923 -2.76656,-3.27669 -10.51293,-1.54197 5.71756,-0.3855 4.61094,0.19274 7.3775,1.15647 -11.06625,1.54197 -14.57056,5.20415 -17.15268,6.93887 z"
       id="path2145"
       sodipodi:nodetypes="cccccccccc"
       style="fill:#ffffff;fill-opacity:0.1;fill-rule:evenodd;stroke-width:1pt"
       transform="translate(-46.36557,69.09792)"
       inkscape:connector-curvature="0" />
    <path
       d="m 499.99495,257.91841 c 0.20575,1.13164 0.36063,4.93589 0.72568,4.93589 0.79095,-0.31791 1.79648,-4.07931 2.22237,-4.4608 0.42589,-0.3815 4.26107,2.88981 4.56528,2.76264 0.30421,-0.12716 -2.67035,-5.43526 -2.54867,-5.81676 -0.85178,-0.0636 -1.9978,0.81729 -2.36285,0.18147 -0.36505,-0.63583 -1.08518,-0.29363 -2.05865,-1.1202 -1.59514,1.74674 -4.28985,2.53045 -5.01995,3.61135 0.7301,0.50866 3.65379,0.11216 4.47679,-0.0936 z"
       id="path2146"
       sodipodi:nodetypes="ccccccccc"
       style="fill:#009900;fill-rule:evenodd;stroke:#000000;stroke-width:1.01323998;stroke-linejoin:round"
       transform="translate(-46.36557,69.09792)"
       inkscape:connector-curvature="0" />
    <path
       d="m 500.95403,256.34742 c 0.30421,0.82657 1.03431,0.63583 1.39936,0.25433 0.7301,-0.19075 0.23895,-1.13305 0.4447,-2.62189 -0.66926,-0.38149 -0.70687,-0.29362 -1.43698,-0.10287 -0.12168,0.38149 -0.65045,2.08893 -0.40708,2.47043 z"
       id="path2147"
       sodipodi:nodetypes="ccccc"
       style="fill:#009900;fill-rule:evenodd;stroke:#000000;stroke-width:1.01323998;stroke-linejoin:round"
       transform="translate(-46.36557,69.09792)"
       inkscape:connector-curvature="0" />
    <path
       d="m 501.70736,254.87574 c 0,0 -0.93585,1.47168 -0.0841,1.66243 0.66926,-0.25433 0.87501,-1.66243 0.0841,-1.66243 z"
       id="path2148"
       sodipodi:nodetypes="ccc"
       style="fill:#00eb00;fill-rule:evenodd;stroke-width:1pt"
       transform="translate(-46.36557,69.09792)"
       inkscape:connector-curvature="0" />
    <path
       d="m 500.5516,256.56639 c -0.10288,0 -3.53211,0.81157 -3.2279,1.12949 0.97347,0 2.55864,-0.23933 3.2279,-1.12949 z"
       id="path2149"
       sodipodi:nodetypes="ccc"
       style="fill:#00ea00;fill-rule:evenodd;stroke-width:1pt"
       transform="translate(-46.36557,69.09792)"
       inkscape:connector-curvature="0" />
    <path
       d="m 500.60559,256.95145 c 0.3042,0.95374 -0.29424,3.73139 0.01,4.0493 0.97346,0 1.02433,-3.54063 -0.01,-4.0493 z"
       id="path2150"
       sodipodi:nodetypes="ccc"
       style="fill:#00ea00;fill-rule:evenodd;stroke-width:1pt"
       transform="translate(-46.36557,69.09792)"
       inkscape:connector-curvature="0" />
    <path
       d="m 491.22951,265.86109 c -9.77518,-2.31296 -16.23049,12.33576 -6.63975,21.20209 13.2795,7.13161 18.25931,-11.37203 6.63975,-21.20209 z"
       id="path2151"
       sodipodi:nodetypes="ccc"
       style="fill:url(#radialGradient874);fill-opacity:1;fill-rule:evenodd;stroke-width:1pt"
       transform="translate(-46.36557,69.09792)"
       inkscape:connector-curvature="0" />
    <path
       d="m 527.80313,210.12061 c 0,2.96052 -2.21536,5.3605 -4.94815,5.3605 -2.73279,0 -4.94815,-2.39998 -4.94815,-5.3605 0,-2.96053 2.21536,-5.36051 4.94815,-5.36051 2.73279,0 4.94815,2.39998 4.94815,5.36051 z"
       id="path2153"
       sodipodi:cx="522.85498"
       sodipodi:cy="210.12061"
       sodipodi:rx="4.9481544"
       sodipodi:ry="5.3605008"
       sodipodi:type="arc"
       style="fill:#db6422;fill-opacity:0.83333333;fill-rule:evenodd;stroke:#d55f00;stroke-width:1.25;stroke-opacity:0.74166667"
       transform="matrix(0.101324,0,0,0.101324,415.7018,338.4516)" />
    <path
       d="m 527.80313,210.12061 c 0,2.96052 -2.21536,5.3605 -4.94815,5.3605 -2.73279,0 -4.94815,-2.39998 -4.94815,-5.3605 0,-2.96053 2.21536,-5.36051 4.94815,-5.36051 2.73279,0 4.94815,2.39998 4.94815,5.36051 z"
       id="path2154"
       sodipodi:cx="522.85498"
       sodipodi:cy="210.12061"
       sodipodi:rx="4.9481544"
       sodipodi:ry="5.3605008"
       sodipodi:type="arc"
       style="fill:#db6422;fill-opacity:0.83333333;fill-rule:evenodd;stroke:#d55f00;stroke-width:1.25;stroke-opacity:0.74166667"
       transform="matrix(0.101324,0,0,0.101324,408.912,343.6982)" />
    <path
       d="m 527.80313,210.12061 c 0,2.96052 -2.21536,5.3605 -4.94815,5.3605 -2.73279,0 -4.94815,-2.39998 -4.94815,-5.3605 0,-2.96053 2.21536,-5.36051 4.94815,-5.36051 2.73279,0 4.94815,2.39998 4.94815,5.36051 z"
       id="path2155"
       sodipodi:cx="522.85498"
       sodipodi:cy="210.12061"
       sodipodi:rx="4.9481544"
       sodipodi:ry="5.3605008"
       sodipodi:type="arc"
       style="fill:#db6422;fill-opacity:0.83333333;fill-rule:evenodd;stroke:#d55f00;stroke-width:1.25;stroke-opacity:0.74166667"
       transform="matrix(0.101324,0,0,0.101324,400.3733,345.1385)" />
    <path
       d="m 527.80313,210.12061 c 0,2.96052 -2.21536,5.3605 -4.94815,5.3605 -2.73279,0 -4.94815,-2.39998 -4.94815,-5.3605 0,-2.96053 2.21536,-5.36051 4.94815,-5.36051 2.73279,0 4.94815,2.39998 4.94815,5.36051 z"
       id="path2156"
       sodipodi:cx="522.85498"
       sodipodi:cy="210.12061"
       sodipodi:rx="4.9481544"
       sodipodi:ry="5.3605008"
       sodipodi:type="arc"
       style="fill:#db6422;fill-opacity:0.83333333;fill-rule:evenodd;stroke:#d55f00;stroke-width:1.25;stroke-opacity:0.74166667"
       transform="matrix(0.101324,0,0,0.101324,419.4925,331.112)" />
    <path
       d="m 527.80313,210.12061 c 0,2.96052 -2.21536,5.3605 -4.94815,5.3605 -2.73279,0 -4.94815,-2.39998 -4.94815,-5.3605 0,-2.96053 2.21536,-5.36051 4.94815,-5.36051 2.73279,0 4.94815,2.39998 4.94815,5.36051 z"
       id="path2157"
       sodipodi:cx="522.85498"
       sodipodi:cy="210.12061"
       sodipodi:rx="4.9481544"
       sodipodi:ry="5.3605008"
       sodipodi:type="arc"
       style="fill:#db6422;fill-opacity:0.83333333;fill-rule:evenodd;stroke:#d55f00;stroke-width:1.25;stroke-opacity:0.74166667"
       transform="matrix(0.101324,0,0,0.101324,422.0801,322.5058)" />
    <path
       d="m 527.80313,210.12061 c 0,2.96052 -2.21536,5.3605 -4.94815,5.3605 -2.73279,0 -4.94815,-2.39998 -4.94815,-5.3605 0,-2.96053 2.21536,-5.36051 4.94815,-5.36051 2.73279,0 4.94815,2.39998 4.94815,5.36051 z"
       id="path2158"
       sodipodi:cx="522.85498"
       sodipodi:cy="210.12061"
       sodipodi:rx="4.9481544"
       sodipodi:ry="5.3605008"
       sodipodi:type="arc"
       style="fill:#db6422;fill-opacity:0.83333333;fill-rule:evenodd;stroke:#d55f00;stroke-width:1.25;stroke-opacity:0.74166667"
       transform="matrix(0.101324,0,0,0.101324,419.4054,325.9007)" />
    <path
       d="m 527.80313,210.12061 c 0,2.96052 -2.21536,5.3605 -4.94815,5.3605 -2.73279,0 -4.94815,-2.39998 -4.94815,-5.3605 0,-2.96053 2.21536,-5.36051 4.94815,-5.36051 2.73279,0 4.94815,2.39998 4.94815,5.36051 z"
       id="path2159"
       sodipodi:cx="522.85498"
       sodipodi:cy="210.12061"
       sodipodi:rx="4.9481544"
       sodipodi:ry="5.3605008"
       sodipodi:type="arc"
       style="fill:#db6422;fill-opacity:0.83333333;fill-rule:evenodd;stroke:#d55f00;stroke-width:1.25;stroke-opacity:0.74166667"
       transform="matrix(0.101324,0,0,0.101324,415.9076,333.4106)" />
    <path
       d="m 527.80313,210.12061 c 0,2.96052 -2.21536,5.3605 -4.94815,5.3605 -2.73279,0 -4.94815,-2.39998 -4.94815,-5.3605 0,-2.96053 2.21536,-5.36051 4.94815,-5.36051 2.73279,0 4.94815,2.39998 4.94815,5.36051 z"
       id="path2160"
       sodipodi:cx="522.85498"
       sodipodi:cy="210.12061"
       sodipodi:rx="4.9481544"
       sodipodi:ry="5.3605008"
       sodipodi:type="arc"
       style="fill:#db6422;fill-opacity:0.83333333;fill-rule:evenodd;stroke:#d55f00;stroke-width:1.25;stroke-opacity:0.74166667"
       transform="matrix(0.101324,0,0,0.101324,411.1596,338.3134)" />
    <path
       d="m 527.80313,210.12061 c 0,2.96052 -2.21536,5.3605 -4.94815,5.3605 -2.73279,0 -4.94815,-2.39998 -4.94815,-5.3605 0,-2.96053 2.21536,-5.36051 4.94815,-5.36051 2.73279,0 4.94815,2.39998 4.94815,5.36051 z"
       id="path2161"
       sodipodi:cx="522.85498"
       sodipodi:cy="210.12061"
       sodipodi:rx="4.9481544"
       sodipodi:ry="5.3605008"
       sodipodi:type="arc"
       style="fill:#db6422;fill-opacity:0.83333333;fill-rule:evenodd;stroke:#d55f00;stroke-width:1.25;stroke-opacity:0.74166667"
       transform="matrix(0.101324,0,0,0.101324,404.4884,342.3608)" />
    <path
       d="m 527.80313,210.12061 c 0,2.96052 -2.21536,5.3605 -4.94815,5.3605 -2.73279,0 -4.94815,-2.39998 -4.94815,-5.3605 0,-2.96053 2.21536,-5.36051 4.94815,-5.36051 2.73279,0 4.94815,2.39998 4.94815,5.36051 z"
       id="path2162"
       sodipodi:cx="522.85498"
       sodipodi:cy="210.12061"
       sodipodi:rx="4.9481544"
       sodipodi:ry="5.3605008"
       sodipodi:type="arc"
       style="fill:#db6422;fill-opacity:0.83333333;fill-rule:evenodd;stroke:#d55f00;stroke-width:1.25;stroke-opacity:0.74166667"
       transform="matrix(0.101324,0,0,0.101324,418.9938,318.2879)" />
    <path
       d="m 527.80313,210.12061 c 0,2.96052 -2.21536,5.3605 -4.94815,5.3605 -2.73279,0 -4.94815,-2.39998 -4.94815,-5.3605 0,-2.96053 2.21536,-5.36051 4.94815,-5.36051 2.73279,0 4.94815,2.39998 4.94815,5.36051 z"
       id="path2163"
       sodipodi:cx="522.85498"
       sodipodi:cy="210.12061"
       sodipodi:rx="4.9481544"
       sodipodi:ry="5.3605008"
       sodipodi:type="arc"
       style="fill:#db6422;fill-opacity:0.83333333;fill-rule:evenodd;stroke:#d55f00;stroke-width:1.25;stroke-opacity:0.74166667"
       transform="matrix(0.101324,0,0,0.101324,415.4961,327.6496)" />
    <path
       d="m 527.80313,210.12061 c 0,2.96052 -2.21536,5.3605 -4.94815,5.3605 -2.73279,0 -4.94815,-2.39998 -4.94815,-5.3605 0,-2.96053 2.21536,-5.36051 4.94815,-5.36051 2.73279,0 4.94815,2.39998 4.94815,5.36051 z"
       id="path2164"
       sodipodi:cx="522.85498"
       sodipodi:cy="210.12061"
       sodipodi:rx="4.9481544"
       sodipodi:ry="5.3605008"
       sodipodi:type="arc"
       style="fill:#db6422;fill-opacity:0.83333333;fill-rule:evenodd;stroke:#d55f00;stroke-width:1.25;stroke-opacity:0.74166667"
       transform="matrix(0.101324,0,0,0.101324,409.8222,333.7868)" />
    <path
       d="m 527.80313,210.12061 c 0,2.96052 -2.21536,5.3605 -4.94815,5.3605 -2.73279,0 -4.94815,-2.39998 -4.94815,-5.3605 0,-2.96053 2.21536,-5.36051 4.94815,-5.36051 2.73279,0 4.94815,2.39998 4.94815,5.36051 z"
       id="path2165"
       sodipodi:cx="522.85498"
       sodipodi:cy="210.12061"
       sodipodi:rx="4.9481544"
       sodipodi:ry="5.3605008"
       sodipodi:type="arc"
       style="fill:#db6422;fill-opacity:0.83333333;fill-rule:evenodd;stroke:#d55f00;stroke-width:1.25;stroke-opacity:0.74166667"
       transform="matrix(0.101324,0,0,0.101324,409.0149,336.4969)" />
    <path
       d="m 527.80313,210.12061 c 0,2.96052 -2.21536,5.3605 -4.94815,5.3605 -2.73279,0 -4.94815,-2.39998 -4.94815,-5.3605 0,-2.96053 2.21536,-5.36051 4.94815,-5.36051 2.73279,0 4.94815,2.39998 4.94815,5.36051 z"
       id="path2166"
       sodipodi:cx="522.85498"
       sodipodi:cy="210.12061"
       sodipodi:rx="4.9481544"
       sodipodi:ry="5.3605008"
       sodipodi:type="arc"
       style="fill:#db6422;fill-opacity:0.83333333;fill-rule:evenodd;stroke:#d55f00;stroke-width:1.25;stroke-opacity:0.74166667"
       transform="matrix(0.101324,0,0,0.101324,406.6488,338.8631)" />
    <path
       d="m 527.80313,210.12061 c 0,2.96052 -2.21536,5.3605 -4.94815,5.3605 -2.73279,0 -4.94815,-2.39998 -4.94815,-5.3605 0,-2.96053 2.21536,-5.36051 4.94815,-5.36051 2.73279,0 4.94815,2.39998 4.94815,5.36051 z"
       id="path2167"
       sodipodi:cx="522.85498"
       sodipodi:cy="210.12061"
       sodipodi:rx="4.9481544"
       sodipodi:ry="5.3605008"
       sodipodi:type="arc"
       style="fill:#db6422;fill-opacity:0.83333333;fill-rule:evenodd;stroke:#d55f00;stroke-width:1.25;stroke-opacity:0.74166667"
       transform="matrix(0.101324,0,0,0.101324,398.6244,342.3608)" />
    <path
       d="m 527.80313,210.12061 c 0,2.96052 -2.21536,5.3605 -4.94815,5.3605 -2.73279,0 -4.94815,-2.39998 -4.94815,-5.3605 0,-2.96053 2.21536,-5.36051 4.94815,-5.36051 2.73279,0 4.94815,2.39998 4.94815,5.36051 z"
       id="path2168"
       sodipodi:cx="522.85498"
       sodipodi:cy="210.12061"
       sodipodi:rx="4.9481544"
       sodipodi:ry="5.3605008"
       sodipodi:type="arc"
       style="fill:#db6422;fill-opacity:0.83333333;fill-rule:evenodd;stroke:#d55f00;stroke-width:1.25;stroke-opacity:0.74166667"
       transform="matrix(0.101324,0,0,0.101324,418.1708,312.424)" />
    <path
       d="m 527.80313,210.12061 c 0,2.96052 -2.21536,5.3605 -4.94815,5.3605 -2.73279,0 -4.94815,-2.39998 -4.94815,-5.3605 0,-2.96053 2.21536,-5.36051 4.94815,-5.36051 2.73279,0 4.94815,2.39998 4.94815,5.36051 z"
       id="path2169"
       sodipodi:cx="522.85498"
       sodipodi:cy="210.12061"
       sodipodi:rx="4.9481544"
       sodipodi:ry="5.3605008"
       sodipodi:type="arc"
       style="fill:#db6422;fill-opacity:0.83333333;fill-rule:evenodd;stroke:#d55f00;stroke-width:1.25;stroke-opacity:0.74166667"
       transform="matrix(0.101324,0,0,0.101324,415.7018,320.8598)" />
    <path
       d="m 527.80313,210.12061 c 0,2.96052 -2.21536,5.3605 -4.94815,5.3605 -2.73279,0 -4.94815,-2.39998 -4.94815,-5.3605 0,-2.96053 2.21536,-5.36051 4.94815,-5.36051 2.73279,0 4.94815,2.39998 4.94815,5.36051 z"
       id="path2170"
       sodipodi:cx="522.85498"
       sodipodi:cy="210.12061"
       sodipodi:rx="4.9481544"
       sodipodi:ry="5.3605008"
       sodipodi:type="arc"
       style="fill:#db6422;fill-opacity:0.83333333;fill-rule:evenodd;stroke:#d55f00;stroke-width:1.25;stroke-opacity:0.74166667"
       transform="matrix(0.101324,0,0,0.101324,413.0271,324.3576)" />
    <path
       d="m 527.80313,210.12061 c 0,2.96052 -2.21536,5.3605 -4.94815,5.3605 -2.73279,0 -4.94815,-2.39998 -4.94815,-5.3605 0,-2.96053 2.21536,-5.36051 4.94815,-5.36051 2.73279,0 4.94815,2.39998 4.94815,5.36051 z"
       id="path2171"
       sodipodi:cx="522.85498"
       sodipodi:cy="210.12061"
       sodipodi:rx="4.9481544"
       sodipodi:ry="5.3605008"
       sodipodi:type="arc"
       style="fill:#db6422;fill-opacity:0.83333333;fill-rule:evenodd;stroke:#d55f00;stroke-width:1.25;stroke-opacity:0.74166667"
       transform="matrix(0.101324,0,0,0.101324,411.1753,328.8841)" />
    <path
       d="m 527.80313,210.12061 c 0,2.96052 -2.21536,5.3605 -4.94815,5.3605 -2.73279,0 -4.94815,-2.39998 -4.94815,-5.3605 0,-2.96053 2.21536,-5.36051 4.94815,-5.36051 2.73279,0 4.94815,2.39998 4.94815,5.36051 z"
       id="path2172"
       sodipodi:cx="522.85498"
       sodipodi:cy="210.12061"
       sodipodi:rx="4.9481544"
       sodipodi:ry="5.3605008"
       sodipodi:type="arc"
       style="fill:#db6422;fill-opacity:0.83333333;fill-rule:evenodd;stroke:#d55f00;stroke-width:1.25;stroke-opacity:0.74166667"
       transform="matrix(0.101324,0,0,0.101324,406.2373,333.7193)" />
    <path
       d="m 527.80313,210.12061 c 0,2.96052 -2.21536,5.3605 -4.94815,5.3605 -2.73279,0 -4.94815,-2.39998 -4.94815,-5.3605 0,-2.96053 2.21536,-5.36051 4.94815,-5.36051 2.73279,0 4.94815,2.39998 4.94815,5.36051 z"
       id="path2173"
       sodipodi:cx="522.85498"
       sodipodi:cy="210.12061"
       sodipodi:rx="4.9481544"
       sodipodi:ry="5.3605008"
       sodipodi:type="arc"
       style="fill:#db6422;fill-opacity:0.83333333;fill-rule:evenodd;stroke:#d55f00;stroke-width:1.25;stroke-opacity:0.74166667"
       transform="matrix(0.101324,0,0,0.101324,402.0193,336.1883)" />
    <path
       d="m 527.80313,210.12061 c 0,2.96052 -2.21536,5.3605 -4.94815,5.3605 -2.73279,0 -4.94815,-2.39998 -4.94815,-5.3605 0,-2.96053 2.21536,-5.36051 4.94815,-5.36051 2.73279,0 4.94815,2.39998 4.94815,5.36051 z"
       id="path2174"
       sodipodi:cx="522.85498"
       sodipodi:cy="210.12061"
       sodipodi:rx="4.9481544"
       sodipodi:ry="5.3605008"
       sodipodi:type="arc"
       style="fill:#db6422;fill-opacity:0.83333333;fill-rule:evenodd;stroke:#d55f00;stroke-width:1.25;stroke-opacity:0.74166667"
       transform="matrix(0.101324,0,0,0.101324,397.0813,338.4516)" />
    <path
       d="m 527.80313,210.12061 c 0,2.96052 -2.21536,5.3605 -4.94815,5.3605 -2.73279,0 -4.94815,-2.39998 -4.94815,-5.3605 0,-2.96053 2.21536,-5.36051 4.94815,-5.36051 2.73279,0 4.94815,2.39998 4.94815,5.36051 z"
       id="path2175"
       sodipodi:cx="522.85498"
       sodipodi:cy="210.12061"
       sodipodi:rx="4.9481544"
       sodipodi:ry="5.3605008"
       sodipodi:type="arc"
       style="fill:#db6422;fill-opacity:0.83333333;fill-rule:evenodd;stroke:#d55f00;stroke-width:1.25;stroke-opacity:0.74166667"
       transform="matrix(0.101324,0,0,0.101324,392.1433,342.6695)" />
  </g>
  <g
     id="g3447"
     transform="matrix(1,0,0,1.077907,-34.513577,-48.922174)">
    <path
       d="m 515.36495,203.01772 c 0.1701,4.08235 9.58547,11.29305 12.9561,8.6374 12.4646,-9.8206 20.62526,-33.95801 34.5496,-46.06614 8.14902,-7.0861 21.83715,-12.55163 31.67048,-11.51654 8.40118,0.88434 19.79118,9.98056 23.03307,17.27481 2.51638,5.66186 -3.32269,14.5912 -5.75827,21.5935 -1.40326,4.03438 -3.14392,10.06411 -5.75827,11.51653 -1.70435,0.94686 -5.45158,-4.81763 -7.19783,-4.3187 -1.61274,0.46079 -3.76382,5.25154 -2.87914,7.19784 1.5146,3.33211 6.80571,8.04263 10.07697,8.6374 2.00715,0.36494 3.72054,-5.50355 5.75827,-5.75827 1.80112,-0.22514 4.20763,4.76174 5.75827,4.3187 1.80835,-0.51667 4.3187,-4.97577 4.3187,-7.19783 0,-1.61679 -4.44636,-2.53144 -4.3187,-4.3187 0.35219,-4.93072 5.19522,-10.48637 5.75826,-15.83524 0.39667,-3.76839 -3.78536,-11.28997 -2.87913,-11.51653 1.01319,-0.2533 7.62421,6.27748 8.6374,10.07696 0.90623,3.39836 -3.65414,8.15818 -2.87913,11.51654 0.66456,2.87977 7.19783,4.79855 7.19783,7.19783 0,2.39928 -7.6707,5.54281 -7.19783,7.19784 0.48685,1.70396 7.19634,3.76548 10.07697,2.87913 3.3575,-1.03308 7.25821,-5.01703 8.6374,-8.6374 2.45966,-6.4566 3.42028,-20.5112 2.87913,-21.5935 -0.41856,-0.83712 -3.51621,13.91347 -5.75827,15.83523 -1.11693,0.95737 -2.87913,-4.79855 -4.3187,-7.19783 -1.43957,-2.39928 -3.94278,-4.56642 -4.3187,-7.19784 -0.58379,-4.08656 -0.9087,-12.9561 1.43957,-12.9561 3.88985,0 13.51931,7.83497 17.2748,12.9561 1.52292,2.07671 -2.04212,6.22721 -1.43957,8.63741 0.35716,1.42864 3.46429,3.73355 4.31871,2.87913 2.02471,-2.02471 3.33115,-7.56633 4.3187,-11.51654 0.93187,-3.72748 2.50935,-10.44674 1.43956,-11.51653 -0.84964,-0.84963 -4.72124,6.25359 -7.19783,5.75827 -4.72124,-0.94425 -9.34973,-7.15564 -14.39567,-10.07697 -4.07132,-2.35708 -13.9339,-4.38935 -12.9561,-5.75827 1.42148,-1.99007 14.56542,-4.69127 20.15393,-4.3187 1.60933,0.10729 0.28864,4.37716 1.43957,5.75827 1.24835,1.49802 5.00926,3.37847 5.75827,2.87913 0.69055,-0.46037 -2.50003,-4.87455 -1.43957,-5.75827 1.81867,-1.51556 8.48948,-3.37982 10.07697,-1.43956 2.73121,3.33815 3.85227,12.4091 2.87913,17.2748 -0.46643,2.33213 -6.64232,2.65216 -7.19783,4.3187 -0.4042,1.21259 2.94985,5.00312 4.3187,4.3187 3.42971,-1.71485 8.65294,-11.23172 10.07697,-11.51653 0.97525,-0.19505 -3.72574,8.38376 -2.87914,10.07696 0.59296,1.18593 6.38759,0.34299 7.19784,-1.43956 1.58903,-3.49586 -2.69431,-12.73763 0,-14.39567 3.54381,-2.18081 16.891,1.35965 18.71437,2.87913 1.05576,0.8798 -7.77762,2.01935 -10.07697,4.3187 -1.5395,1.5395 -2.12202,6.97036 -1.43957,7.19784 0.75711,0.25237 3.48693,-4.49641 5.75827,-5.75827 2.04736,-1.13742 6.71798,-2.87914 7.19784,-1.43957 0.95971,2.87913 -0.32879,11.84532 -2.87914,14.39567 -1.76835,1.76835 -7.71857,-2.11339 -10.07697,-1.43956 -1.00059,0.28588 -1.10736,3.98649 0,4.3187 3.6912,1.10736 12.72284,-1.67283 14.39567,0 1.2063,1.2063 -5.75827,6.50033 -5.75827,8.6374 0,1.22192 4.86857,2.62583 5.75827,1.43956 1.98943,-2.65258 0.31919,-10.39615 2.87914,-12.9561 2.23861,-2.23861 9.602,0.47497 11.51653,-1.43956 1.44446,-1.44446 0.26505,-7.99818 -1.43957,-8.63741 -2.13422,-0.80034 -8.32671,5.31884 -10.07696,4.3187 -1.60873,-0.91928 -1.39134,-7.29428 0,-10.07696 1.96765,-3.9353 9.44352,-7.54321 10.07696,-10.07697 0.32627,-1.30509 -5.01731,-1.92413 -7.19783,-1.43957 -2.13818,0.47515 -3.53402,4.17042 -5.75827,4.3187 -4.97358,0.33157 -14.74465,0.1745 -15.83523,-2.87913 -1.3087,-3.66435 6.02843,-15.31808 8.6374,-17.2748 1.22988,-0.92241 1.13623,7.18498 2.87913,8.6374 1.13623,0.94686 5.75827,-0.14064 5.75827,-1.43957 0,-2.53991 -4.47535,-6.54895 -5.75827,-10.07697 -0.63651,-1.75039 1.19112,-5.41795 0,-5.75827 -2.16787,-0.61939 -6.70199,1.97914 -10.07697,2.87914 -3.82285,1.01943 -9.64978,1.01238 -11.51653,2.87913 -1.01239,1.01239 1.43956,5.27841 2.87913,5.75827 1.43957,0.47986 5.42081,-3.89152 5.75827,-2.87913 0.62225,1.86675 -0.76542,8.4634 -2.87913,11.51653 -2.20499,3.18499 -8.09534,7.94094 -10.07697,7.19783 -1.85722,-0.69646 0.61522,-9.46174 -1.43957,-11.51653 -1.78406,-1.78406 -8.26828,1.5503 -10.07697,0 -1.5503,-1.32883 0.89921,-7.43845 0,-8.6374 -0.54036,-0.72048 -3.01116,1.75838 -4.3187,2.87913 -2.05145,1.75838 -3.2726,5.2059 -5.75827,5.75827 -6.15173,1.36705 -13.58845,1.05895 -20.15393,0 -8.31004,-1.34033 -25.89536,-2.45541 -24.47264,-7.19783 2.89598,-9.65325 26.19286,-31.9034 37.42874,-35.98918 4.59935,-1.67249 10.65266,13.82096 10.07697,18.71437 -0.38402,3.26414 -9.79443,6.07444 -12.9561,5.75827 -1.63688,-0.16369 -0.095,-5.85329 -1.43957,-7.19783 -1.05474,-1.05474 -5.18717,-1.1422 -5.75827,0 -0.86847,1.73693 2.77098,7.08409 1.43957,8.6374 -1.54773,1.80568 -8.9526,0.0341 -10.07697,1.43956 -0.79505,0.99381 2.54654,5.53675 4.3187,5.75827 2.06668,0.25834 5.29684,-4.59027 7.19783,-4.3187 1.458,0.20829 1.43957,5.27842 2.87914,5.75827 1.43957,0.47986 5.00926,-1.38111 5.75827,-2.87914 0.69055,-1.38111 -2.57241,-4.62542 -1.43957,-5.75826 2.70601,-2.70601 9.74179,-6.34269 12.9561,-5.75827 2.0641,0.37529 3.8106,6.54162 2.87914,8.6374 -0.98796,2.22292 -7.75557,2.55502 -8.63741,4.3187 -0.55773,1.11545 2.78881,4.50994 4.3187,4.3187 2.30896,-0.28862 5.39602,-6.55908 7.19784,-5.75827 2.51689,1.11862 5.40375,8.3259 5.75827,11.51654 0.12534,1.12806 -4.09449,0.54272 -4.3187,1.43957 -0.25564,1.02257 1.75838,4.50549 2.87913,4.3187 1.75838,-0.29306 4.10423,-3.63164 5.75827,-5.75827 1.70495,-2.19207 4.57704,-5.13115 4.3187,-7.19783 -0.22152,-1.77217 -3.62009,-3.36841 -5.75827,-4.31871 -2.18052,-0.96912 -7.5241,-0.13448 -7.19783,-1.43956 0.63344,-2.53376 8.66998,-6.91127 10.07696,-10.07697 0.51244,-1.153 -2.93578,-3.22486 -4.3187,-2.87913 -2.45593,0.61398 -5.18864,6.00941 -7.19783,5.75826 -1.82965,-0.22871 -5.06233,-5.15284 -4.3187,-7.19783 1.17579,-3.23342 6.80571,-8.04263 10.07697,-8.6374 2.00715,-0.36494 5.2666,3.54579 5.75826,5.75827 0.46805,2.10622 -3.42981,5.82114 -2.87913,7.19783 0.40903,1.02258 4.41832,0.80397 5.75827,0 1.05932,-0.63559 0.25329,-3.72557 1.43956,-4.3187 2.65258,-1.32629 8.25985,0.37755 10.07697,-1.43957 1.54187,-1.54187 1.61679,-7.82901 0,-8.6374 -2.22206,-1.11103 -8.00505,3.41936 -11.51653,2.87913 -2.72664,-0.41948 -7.02816,-3.21303 -7.19784,-5.75826 -0.31017,-4.6526 3.26903,-14.72891 5.75827,-15.835239 1.82946,-0.813093 4.2499,7.784129 7.19784,10.076969 1.37076,1.06615 6.01735,1.1659 5.75826,0 -0.70062,-3.1528 -9.82696,-10.8149 -8.6374,-12.956103 1.20972,-2.177498 11.90078,1.639358 15.83524,0 1.82381,-0.75992 3.0584,-6.658222 1.43956,-7.197834 -4.13943,-1.37981 -13.25916,3.07613 -18.71437,1.439567 -4.1419,-1.242571 -7.05713,-9.473003 -10.07696,-10.076969 -1.77873,-0.355745 -5.12428,5.385284 -4.3187,7.197835 1.11384,2.50615 9.72511,2.767531 10.07696,5.758267 0.60786,5.166809 -3.73301,13.228407 -7.19783,18.714367 -2.29345,3.63129 -7.18626,9.46332 -10.07697,8.6374 -3.82727,-1.0935 -9.79389,-9.86643 -10.07697,-14.39566 -0.19678,-3.14846 6.36144,-8.890289 8.6374,-8.637406 2.04274,0.22697 2.46966,8.844266 4.31871,10.076966 1.03008,0.68672 4.48415,-2.66419 4.3187,-4.3187 -0.31441,-3.14405 -4.79484,-6.4641 -5.75827,-10.076967 -0.95599,-3.584967 -1.21404,-8.117232 0,-11.516535 1.18524,-3.318675 7.68374,-6.450828 7.19783,-8.637401 -0.47381,-2.132128 -7.94018,-5.600776 -10.07697,-4.318701 -2.66176,1.597058 -1.70351,12.520236 -4.3187,12.956102 -3.14307,0.523845 -8.61964,-8.742673 -12.9561,-10.076968 -1.90166,-0.585127 -6.71634,3.086896 -5.75827,4.318701 2.40092,3.086895 14.02891,4.508647 15.83524,8.637401 1.55266,3.548936 -2.77743,10.297009 -5.75827,14.395669 -4.69685,6.458159 -13.49799,19.163209 -17.2748,17.274799 -4.86059,-2.43029 -9.33982,-22.855503 -8.6374,-30.230901 0.25729,-2.701569 9.84355,-1.911982 11.51653,0 1.68601,1.926863 -2.61535,9.458905 -1.43956,11.516535 0.74363,1.301359 6.33011,0.295867 7.19783,-1.439567 1.53156,-3.063122 1.23391,-9.254359 0,-12.956102 -0.68551,-2.056524 -6.79585,-2.935258 -5.75827,-4.3187 3.28112,-4.374826 15.64049,-8.174517 18.71437,-12.956102 1.24483,-1.936394 -3.59085,-8.010615 -5.75826,-7.197835 -5.51028,2.066353 -10.91854,11.82075 -17.27481,15.835236 -2.76099,1.743781 -7.84607,3.112744 -10.07697,1.439567 -3.52736,-2.645524 -3.9592,-11.804767 -7.19783,-14.395669 -1.55993,-1.247943 -7.33527,0.954965 -7.19783,2.879134 0.34242,4.793809 11.03636,13.215027 8.6374,17.274802 -3.83917,6.497049 -21.54837,15.556348 -27.35177,14.395669 -3.79372,-0.758743 -2.85483,-15.200533 -1.43957,-20.153936 0.50416,-1.764576 5.99819,-1.199639 7.19783,0 1.19964,1.199639 -1.05196,6.145878 0,7.197834 0.86747,0.867466 5.37952,-0.113962 5.75827,-1.439567 0.58097,-2.033384 -2.14532,-5.702159 -2.87913,-8.637401 -0.70576,-2.823026 -0.15412,-6.709234 -1.43957,-8.637401 -0.63398,-0.950966 -3.83884,-0.959711 -4.3187,0 -0.95971,1.919423 1.54187,7.536063 0,8.637401 -1.81712,1.29794 -7.79728,0.333523 -10.07697,-1.439567 -2.03901,-1.585899 -0.90916,-7.159925 -2.87913,-8.637401 -1.86888,-1.401657 -8.6374,-1.540866 -8.6374,0 0,2.777835 10.27367,10.297161 8.6374,12.956102 -2.20257,3.579182 -14.82301,6.113662 -20.15394,5.758267 -1.8669,-0.12446 0.0141,-5.986432 -1.43957,-7.197834 -1.42545,-1.187876 -7.19783,-1.599518 -7.19783,0 0,4.158749 3.91904,13.26739 7.19783,17.274803 1.03991,1.270999 5.03848,-0.239927 5.75827,-1.439567 0.71978,-1.199639 -2.73715,-4.814567 -1.43956,-5.758268 3.98082,-2.895144 13.85035,-7.715095 17.2748,-5.758267 3.29353,1.882017 5.59849,13.390007 2.87913,17.274802 -3.99862,5.712313 -16.41754,11.185753 -23.03307,11.516533 -2.98158,0.14908 -3.16904,-8.638505 -5.75827,-10.076966 -1.72947,-0.960816 -7.70489,1.104443 -7.19783,2.879136 1.41237,4.94329 8.1186,14.16498 12.9561,17.2748 1.88048,1.20888 6.68117,-2.51035 7.19784,-4.3187 0.44304,-1.55064 -5.6472,-4.67132 -4.3187,-5.75827 3.94991,-3.23175 15.00013,-7.84206 20.15393,-7.19783 2.52389,0.31549 3.64506,7.26861 2.87914,10.07697 -0.67365,2.47005 -6.65894,3.60266 -7.19784,5.75826 -0.42081,1.68324 2.44673,6.04627 4.3187,5.75827 4.36615,-0.67171 11.70713,-4.75396 14.39567,-8.6374 1.63016,-2.35468 -0.0341,-8.9526 -1.43957,-10.07697 -0.99381,-0.79505 -4.79855,4.79855 -5.75826,4.3187 -0.95971,-0.47986 -1.78175,-5.95061 0,-7.19783 7.81536,-5.470754 22.67478,-16.014381 28.79133,-12.956104 6.35969,3.179846 11.16812,22.467904 8.63741,31.670474 -2.7477,9.99166 -14.9643,19.3922 -24.47264,25.9122 -7.28661,4.99653 -21.47647,11.90584 -25.91221,8.6374 -4.68152,-3.44954 -5.09566,-22.60409 -1.43956,-28.79133 2.58203,-4.36958 16.04858,-4.93181 20.15393,-2.87914 2.61263,1.30631 -1.06527,10.11538 0,12.9561 0.3743,0.99813 3.9444,-0.1919 4.3187,-1.43956 1.06527,-3.5509 -2.44853,-10.71162 0,-12.95611 3.30974,-3.03393 14.6188,-0.22312 17.27481,-2.87913 1.66269,-1.66269 -2.42347,-6.99723 -4.3187,-10.07697 -1.94362,-3.15838 -5.86455,-9.304043 -7.19784,-8.637399 -1.54584,0.772919 0.16653,9.422709 -1.43956,12.956099 -0.79319,1.74502 -3.69764,2.31715 -5.75827,2.87914 -8.4962,2.31714 -20.10787,7.37058 -25.91221,5.75826 -2.83306,-0.78696 -2.46295,-10.90364 0,-12.9561 3.29532,-2.7461 13.13028,0.79211 17.27481,-1.43956 2.09359,-1.12732 3.65742,-8.34812 1.43956,-8.637406 -8.81882,-1.150284 -24.34533,1.17892 -34.5496,4.318696 -2.27198,0.69907 -4.20575,6.70036 -2.87914,7.19784 2.51223,0.94209 13.00612,-6.353 14.39567,-2.87913 4.36872,10.9218 5.65589,31.87386 2.87914,46.06614 -1.54195,7.88107 -12.2211,23.90708 -15.83524,20.15393 -8.86211,-9.20296 -21.32692,-39.562 -21.5935,-59.02224 -0.21328,-15.569216 11.20519,-40.696895 20.15393,-46.066141 5.44692,-3.268155 20.3741,13.838897 23.03307,20.153937 1.17988,2.802217 -11.25102,5.073722 -11.51653,7.197834 -0.21434,1.714733 7.49336,5.69663 10.07697,4.318701 4.61422,-2.46092 9.83719,-10.461337 11.51653,-15.835236 0.71993,-2.303791 -2.48905,-6.969127 -4.3187,-7.197834 -2.00919,-0.251149 -4.84784,6.747736 -7.19783,5.758267 -6.76727,-2.849376 -20.15394,-12.154908 -20.15394,-17.274802 0,-4.477218 14.45274,-12.884823 20.15394,-11.516535 6.29519,1.510846 10.37289,16.512378 15.83523,20.153936 1.7355,1.156998 6.71798,-3.838845 5.75827,-5.758268 -2.87913,-5.758267 -15.99813,-12.487289 -17.2748,-17.274802 -0.64275,-2.410322 8.55187,-5.458953 11.51653,-4.318701 3.27347,1.259026 4.76764,9.780679 7.19784,11.516535 0.92879,0.663422 3.22486,-2.935785 2.87913,-4.3187 -0.61398,-2.45593 -5.94227,-4.621831 -5.75827,-7.197835 0.29586,-4.141975 7.19784,-9.746925 7.19784,-12.956102 0,-1.58938 -5.65834,-2.594188 -7.19784,-1.439567 -2.29935,1.724513 -2.06386,10.423867 -4.3187,10.076968 -3.98328,-0.612813 -10.07398,-11.155398 -14.39567,-12.956102 -1.43658,-0.598574 -3.66281,4.190908 -2.87913,5.758268 1.6156,3.231196 11.20472,6.381898 10.07697,8.637401 -1.75138,3.502764 -13.69139,9.893147 -18.71437,8.637402 -4.57413,-1.143533 -9.768,-11.20064 -10.07697,-15.835236 -0.17088,-2.563239 7.23193,-3.228432 8.6374,-5.758268 0.99381,-1.788864 0.33476,-7.6907 -1.43956,-7.197834 -6.86308,1.906413 -19.62491,9.17504 -24.47264,14.395669 -1.3904,1.497349 3.64879,5.758267 5.75827,5.758267 2.68907,0 6.534,-6.985253 8.6374,-5.758267 3.65486,2.132003 9.76156,11.338616 8.6374,15.835236 -1.27512,5.100493 -11.14898,14.021161 -15.83524,12.956102 -5.87057,-1.33422 -16.35987,-14.645215 -15.83523,-20.153937 0.43507,-4.568246 16.21723,-5.360148 18.71437,-10.076968 1.82156,-3.440726 -3.13653,-12.101651 -5.75827,-14.395669 -1.21711,-1.064971 -5.53675,2.546536 -5.75827,4.318701 -0.25834,2.06668 5.61154,5.387854 4.3187,7.197834 -3.50571,4.907998 -13.48324,12.956102 -18.71437,12.956102 -3.40627,0 -7.9281,-9.304762 -7.19783,-12.956102 0.7093,-3.546494 9.5271,-5.32168 11.51653,-8.637401 0.8897,-1.482836 -1.39629,-6.054835 -2.87913,-5.758268 -3.31572,0.663144 -8.00607,8.344863 -11.51654,8.637402 -2.2478,0.187316 -3.28821,-6.524184 -5.75826,-7.197835 -2.80836,-0.765916 -10.07697,1.339457 -10.07697,2.879134 0,1.819313 10.87519,5.202282 10.07697,7.197834 -1.1212,2.803004 -12.99401,4.35661 -15.83524,7.197835 -0.99762,0.99762 2.5894,4.66456 4.3187,4.3187 5.46853,-1.093707 13.09646,-10.262309 17.2748,-8.637401 4.45907,1.734082 9.6506,13.3951 8.63741,18.71437 -0.90623,4.757699 -10.44026,11.516535 -14.39567,11.516535 -2.76257,0 -6.2706,-8.186361 -5.75827,-11.516535 0.44738,-2.907949 7.70456,-4.710271 8.6374,-7.197835 0.50673,-1.351281 -2.73376,-4.635689 -4.3187,-4.3187 -3.21361,0.642723 -6.93654,7.439405 -10.07697,7.197834 -3.0977,-0.238284 -5.50887,-7.784164 -8.6374,-8.637401 -2.14988,-0.58633 -7.58555,2.767831 -7.19783,4.3187 0.57199,2.287976 10.5021,4.859576 10.07696,7.197835 -0.53457,2.940153 -11.67466,6.074513 -12.9561,8.637401 -0.63798,1.275957 5.01435,3.550977 7.19784,2.879134 4.05463,-1.24758 8.61547,-9.362665 11.51653,-8.637401 2.85721,0.714303 7.35078,9.771083 5.75827,12.956102 -2.24633,4.492671 -12.4208,9.753368 -17.2748,10.076968 -2.34384,0.156256 -2.18929,-7.572697 -4.3187,-8.637402 -1.70944,-0.854717 -7.38414,1.388712 -7.19784,2.879134 0.29355,2.348423 8.6374,6.225487 8.6374,8.637402 0,1.906786 -8.39189,2.600127 -8.6374,4.3187 -0.23434,1.640416 4.88888,5.469648 7.19784,5.758268 1.52989,0.191236 2.77683,-4.318701 4.3187,-4.318701 1.81711,0 3.679,4.087672 5.75826,4.318701 2.23944,0.248826 7.19784,-1.312467 7.19784,-2.879134 0,-2.272178 -7.86891,-6.400517 -7.19784,-8.637401 0.7685,-2.561672 8.71842,-7.157327 11.51654,-5.758268 3.91986,1.95993 8.92938,11.455495 8.6374,15.835236 -0.18787,2.818093 -8.81935,3.557433 -10.07697,5.758267 -0.6618,1.158155 2.77683,4.318701 4.3187,4.318701 1.81712,0 4.07503,-4.739512 5.75827,-4.318701 2.1556,0.538901 3.60267,6.658937 5.75827,7.197837 1.68324,0.42081 5.49868,-2.761175 5.75827,-4.318703 0.22027,-1.321607 -4.65653,-2.798508 -4.31871,-4.3187 0.62189,-2.798509 6.57595,-5.838892 7.19784,-8.637402 0.33782,-1.52019 -2.70191,-4.3187 -4.3187,-4.3187 -2.22206,0 -5.55304,5.47006 -7.19784,4.3187 -3.15376,-2.20763 -8.86369,-10.508674 -7.19783,-14.395669 2.65285,-6.189973 13.76622,-16.080916 20.15394,-15.835235 6.08853,0.234174 17.10173,10.352154 17.2748,17.274802 0.30679,12.271578 -5.97419,34.907777 -15.83524,40.307877 -10.29289,5.63658 -34.30806,-2.03859 -44.62657,-7.19784 -3.11745,-1.55873 4.94717,-10.12796 4.3187,-12.9561 -0.33124,-1.49056 -5.92992,-1.449034 -7.19783,0 -2.09108,2.389809 -0.55412,9.70818 -2.87914,11.51653 -1.99369,1.55064 -8.25985,-2.737501 -10.07697,-1.43956 -1.54187,1.10134 -1.5503,7.30857 0,8.6374 1.80869,1.5503 8.26828,-1.5503 10.07697,0 1.5503,1.32883 -1.15165,6.90992 0,8.6374 0.76777,1.15165 4.80644,1.1422 5.75827,0 1.44745,-1.73693 -1.03702,-8.47229 1.43957,-8.6374 11.91908,-0.7946 34.11904,-3.20511 41.74744,5.75827 11.56582,13.58984 14.83816,41.62759 15.83523,61.90137 0.4425,8.99741 -11.82629,18.47802 -11.51653,25.91221 z"
       id="path2191"
       sodipodi:nodetypes="csssssssssssssssssssssssssssssssssssssssssssssssssssssssssssssssssssssssssssssssssssssssssssssssssssssssssssssssssssssssssssssssssssssssssssssssssssssssssssssssssssssssssssssssssssssssssssssssssssssssssssssssssssssssssssssssssssssssssssssssssssssssssssssssssssssssssssssssssssssssssssssssssssssssssssssssssssssssssssss"
       style="fill:#00ca1f;fill-opacity:0.95391702;fill-rule:evenodd;stroke:#00720c;stroke-width:2.38213158;stroke-linecap:butt;stroke-linejoin:miter;stroke-miterlimit:4;stroke-opacity:0.83870963"
       transform="matrix(0.08282017,0.133875,-0.133875,0.08282017,305.412,167.1107)"
       inkscape:connector-curvature="0" />
    <path
       d="m 53.263975,1003.4169 c -6.966225,-8.5738 20.633794,-62.86107 28.791334,-74.85746 9.59711,-25.9122 24.952491,-71.97834 46.066141,-103.64882 16.31509,-45.58629 42.70715,-94.0517 66.22008,-132.44015 18.71437,-43.18701 41.74744,-93.57184 69.09921,-129.56102 32.15033,-73.89777 67.17979,-143.47683 109.40709,-204.4185 16.31508,-59.98196 41.03152,-100.4365 83.49487,-149.71496 35.27326,-40.93441 110.23286,1.57937 97.89055,43.18701 -15.48045,52.18674 -39.34816,98.85026 -80.61574,143.95669 -34.54961,71.97834 -74.85748,152.59409 -120.92362,207.29763 -22.07337,48.94528 -44.14672,89.25314 -74.85748,129.56102 -25.43235,45.10642 -65.26037,84.45459 -97.89055,126.68188 -18.71437,29.75105 -46.06614,71.01864 -69.0992,89.25316 -6.23813,11.03668 -51.344561,62.38122 -57.582685,54.70352 z"
       id="path2185"
       sodipodi:nodetypes="ccccccsscccccz"
       style="fill:url(#linearGradient2190);fill-opacity:1;fill-rule:evenodd;stroke:#000000;stroke-width:3.97021937;stroke-linecap:butt;stroke-linejoin:miter;stroke-miterlimit:4;stroke-opacity:1"
       transform="matrix(0.08282017,0.133875,-0.133875,0.08282017,305.412,167.1107)"
       inkscape:connector-curvature="0" />
  </g>
</svg>
