<?xml version="1.0" encoding="UTF-8" standalone="no"?>
<!-- Created with Inkscape (http://www.inkscape.org/) -->
<svg
   xmlns:dc="http://purl.org/dc/elements/1.1/"
   xmlns:cc="http://creativecommons.org/ns#"
   xmlns:rdf="http://www.w3.org/1999/02/22-rdf-syntax-ns#"
   xmlns:svg="http://www.w3.org/2000/svg"
   xmlns="http://www.w3.org/2000/svg"
   xmlns:sodipodi="http://sodipodi.sourceforge.net/DTD/sodipodi-0.dtd"
   xmlns:inkscape="http://www.inkscape.org/namespaces/inkscape"
   height="633.513"
   id="svg13535"
   inkscape:version="0.46"
   sodipodi:docbase="/root/img/svg"
   sodipodi:docname="feet_in_sandals_jonadab__01.svg"
   sodipodi:version="0.32"
   width="635.13635"
   inkscape:output_extension="org.inkscape.output.svg.inkscape"
   version="1.0">
  <metadata
     id="metadata3">
    <rdf:RDF>
      <cc:Work
         rdf:about="">
        <dc:title>Feet in Sandals</dc:title>
        <dc:description />
        <dc:subject>
          <rdf:Bag>
            <rdf:li>feet</rdf:li>
            <rdf:li>people</rdf:li>
            <rdf:li>clothing</rdf:li>
            <rdf:li>sandals</rdf:li>
            <rdf:li>bodypart</rdf:li>
            <rdf:li>shoes</rdf:li>
          </rdf:Bag>
        </dc:subject>
        <dc:publisher>
          <cc:Agent
             rdf:about="http://www.openclipart.org">
            <dc:title>Jonadab the Unsightly One</dc:title>
          </cc:Agent>
        </dc:publisher>
        <dc:creator>
          <cc:Agent>
            <dc:title>Jonadab the Unsightly One</dc:title>
          </cc:Agent>
        </dc:creator>
        <dc:rights>
          <cc:Agent>
            <dc:title>Jonadab the Unsightly One</dc:title>
          </cc:Agent>
        </dc:rights>
        <dc:date />
        <dc:format>image/svg+xml</dc:format>
        <dc:type
           rdf:resource="http://purl.org/dc/dcmitype/StillImage" />
        <cc:license
           rdf:resource="http://web.resource.org/cc/PublicDomain" />
        <dc:language>en</dc:language>
      </cc:Work>
      <cc:License
         rdf:about="http://web.resource.org/cc/PublicDomain">
        <cc:permits
           rdf:resource="http://web.resource.org/cc/Reproduction" />
        <cc:permits
           rdf:resource="http://web.resource.org/cc/Distribution" />
        <cc:permits
           rdf:resource="http://web.resource.org/cc/DerivativeWorks" />
      </cc:License>
    </rdf:RDF>
  </metadata>
  <defs
     id="defs3">
    <inkscape:perspective
       sodipodi:type="inkscape:persp3d"
       inkscape:vp_x="0 : 343.75 : 1"
       inkscape:vp_y="0 : 1000 : 0"
       inkscape:vp_z="744.09448 : 343.75 : 1"
       inkscape:persp3d-origin="372.04724 : 229.16667 : 1"
       id="perspective35" />
  </defs>
  <sodipodi:namedview
     bordercolor="#666666"
     borderopacity="1.0"
     id="base"
     inkscape:current-layer="layer1"
     inkscape:cx="378.96535"
     inkscape:cy="413.24286"
     inkscape:pageopacity="0.0"
     inkscape:pageshadow="2"
     inkscape:window-height="667"
     inkscape:window-width="640"
     inkscape:window-x="96"
     inkscape:window-y="96"
     inkscape:zoom="0.43415836"
     pagecolor="#ffffff"
     showgrid="false" />
  <g
     id="layer1"
     inkscape:groupmode="layer"
     inkscape:label="Layer 1"
     transform="translate(-43.761504,-19.407189)">
    <g
       id="g13500"
       transform="matrix(10.21292,0,0,10.21292,-3713.69,-6100.828)">
      <path
         d="M 371.45203,651.79724 C 369.44488,652.23918 367.90145,653.5522 368.08223,654.44889 C 368.3618,655.83557 370.55522,657.82794 372.28068,658.31588 C 375.0483,659.09853 377.77461,658.13298 381.22999,658.09491 C 383.94831,658.06496 384.81297,655.54514 389.18494,655.00132 C 392.30604,654.6131 395.66602,655.63492 398.85242,655.44326 C 400.56421,655.34029 402.86918,654.87518 403.87951,654.11743 C 404.26866,653.82557 403.32708,652.90209 403.05087,652.29442"
         id="path13358"
         sodipodi:nodetypes="csssssss"
         style="fill:#5d3909;fill-opacity:1;fill-rule:evenodd;stroke:#000000;stroke-width:0.25pt;stroke-linecap:butt;stroke-linejoin:miter;stroke-opacity:1" />
      <path
         d="M 391.50103,599.42024 C 391.33999,612.48052 392.3943,626.09322 392.34375,639.70593 C 392.29167,640.64343 385.57647,644.91534 381.48438,649.23718 C 380.46662,650.31207 377.25593,649.74837 375.78125,650.09656 C 374.64359,650.36517 373.63936,650.68157 372.65659,651.08106 C 372.53374,651.131 370.96406,651.57664 370.82624,651.98078 C 370.69092,652.37761 370.66596,652.78058 372.72605,652.15053 C 370.73549,652.55053 370.17101,652.94698 369.95155,653.54463 C 369.73208,654.14228 370.10622,654.83064 371.29111,655.17916 C 369.73299,655.55124 370.62833,655.19986 370.61484,655.82026 C 370.76517,656.86053 371.01562,657.44031 372.5,657.36218 C 373.86127,657.29053 374.85691,657.19562 376.20342,657.22489 C 377.25275,657.2477 378.70107,657.94539 379.6875,657.51843 C 379.6875,657.51843 386.64062,654.15906 389.6875,654.00281 C 392.57433,653.85477 400.3125,654.54968 400.3125,654.54968 C 404.50521,654.44551 404.50511,652.38434 404.21875,650.48718 C 403.88011,648.24371 403.07884,646.00723 403.125,643.76843 C 403.18301,640.95515 404.0625,638.14343 404.53125,635.33093 C 405.99283,623.67059 405.79714,612.67314 404.05465,599.90794"
         id="path13337"
         sodipodi:nodetypes="ccsssscsccssssssscc"
         style="fill:#c6ac72;fill-opacity:1;fill-rule:evenodd;stroke:#000000;stroke-width:0.25pt;stroke-linecap:butt;stroke-linejoin:miter;stroke-opacity:1" />
      <g
         id="g13355">
        <path
           d="M 371.07087,657.0268 C 370.47191,656.11534 370.24044,655.00437 370.39063,654.30583 C 370.78539,652.46981 372.96609,653.26585 374.29688,652.89958 C 375.80463,652.4846 377.36979,652.27458 378.90625,651.96208"
           id="path13352"
           sodipodi:nodetypes="csss"
           style="fill:#c6ac72;fill-opacity:1;fill-rule:evenodd;stroke:#000000;stroke-width:0.25pt;stroke-linecap:butt;stroke-linejoin:miter;stroke-opacity:1" />
        <path
           d="M 370.65101,653.70311 C 371.43362,653.89646 372.43719,654.11744 373.24742,654.20029 C 373.49602,653.89646 373.63412,653.45452 373.49601,653.06782"
           id="path13354"
           sodipodi:nodetypes="ccc"
           style="fill:none;fill-opacity:0.75;fill-rule:evenodd;stroke:#000000;stroke-width:0.125;stroke-linecap:butt;stroke-linejoin:miter;stroke-miterlimit:4;stroke-opacity:1" />
      </g>
      <path
         d="M 375.81621,649.97423 C 378.06275,650.69239 378.90441,650.98958 378.74407,651.96297 C 380.61308,653.05978 381.43255,654.31999 381.78242,656.49287 C 382.35326,656.25348 382.9241,656.0141 383.49494,655.77471 C 383.36604,654.17267 383.23714,652.68112 381.45096,651.30005 C 382.42692,650.453 383.40287,649.60594 384.37883,648.75889 C 386.79109,649.95581 387.26986,652.20235 387.30669,654.3384 C 388.06167,654.2095 388.81666,654.0806 389.57164,653.9517 C 389.86627,651.46578 388.50361,648.70364 386.14659,647.15685 C 387.47242,646.14407 388.79824,645.13128 390.12407,644.1185 C 392.29695,647.28575 393.58595,650.50824 394.65397,653.9517 C 395.40895,654.04377 396.16394,654.13585 396.91892,654.22792 C 395.94297,649.84533 394.35934,646.73332 392.16805,642.73743 C 394.96701,644.3763 397.82122,644.41313 400.73067,644.5052 C 398.81559,647.72769 397.45294,650.95019 395.81407,654.17268 C 396.7532,654.20951 397.69232,654.24633 398.63145,654.28316 C 400.10459,650.85811 401.57773,647.43307 403.05087,644.00802 C 403.10611,643.34511 403.16135,642.68219 403.21659,642.01928 C 399.3496,642.11135 395.5931,641.81672 391.94708,640.14103 C 388.28265,643.27145 384.61821,646.40187 380.95378,649.53229 C 379.24126,649.6796 377.52873,649.82692 375.81621,649.97423 z"
         id="path13359"
         sodipodi:nodetypes="ccccccccccccccccccccc"
         style="fill:#5d3909;fill-opacity:1;fill-rule:nonzero;stroke:#000000;stroke-width:0.25pt;stroke-linecap:butt;stroke-linejoin:miter;stroke-opacity:1" />
    </g>
    <g
       id="g13437"
       transform="matrix(10.21255,-8.631498e-2,8.631498e-2,10.21255,-3802.942,-6112.528)">
      <path
         d="M 401.65301,658.1154 C 397.76761,658.66783 396.16438,660.63502 396.29447,661.54045 C 396.73977,664.63965 398.76746,664.9195 400.49292,665.40744 C 403.26054,666.19009 405.98685,665.22454 409.44223,665.18647 C 412.16055,665.15652 413.52239,663.96253 417.89436,663.41871 C 421.01546,663.03049 423.87826,662.72648 427.06466,662.53482 C 428.77645,662.43185 431.08142,661.96674 432.09175,661.20899 C 432.4809,660.91713 431.53932,659.99365 431.26311,659.38598"
         id="path13373"
         sodipodi:nodetypes="csssssss"
         style="fill:#5d3909;fill-opacity:1;fill-rule:evenodd;stroke:#000000;stroke-width:0.25pt;stroke-linecap:butt;stroke-linejoin:miter;stroke-opacity:1" />
      <path
         d="M 419.71327,606.5118 C 418.92723,619.57208 420.76279,633.18478 420.55599,646.79749 C 420.50391,647.73499 413.78871,652.0069 409.69662,656.32874 C 408.67886,657.40363 405.46817,656.83993 403.99349,657.18812 C 402.85583,657.45673 406.91331,665.03695 407.89974,664.60999 C 407.89974,664.60999 414.5214,663.46033 417.84449,662.69641 C 420.66164,662.0488 428.52474,661.64124 428.52474,661.64124 C 432.71745,661.53707 432.71735,659.4759 432.43099,657.57874 C 432.09235,655.33527 431.29108,653.09879 431.33724,650.85999 C 431.39525,648.04671 432.27474,645.23499 432.74349,642.42249 C 433.42382,630.6059 434.00938,619.7647 432.26689,606.9995"
         id="path13374"
         sodipodi:nodetypes="ccssssssscc"
         style="fill:#c6ac72;fill-opacity:1;fill-rule:evenodd;stroke:#000000;stroke-width:0.25pt;stroke-linecap:butt;stroke-linejoin:miter;stroke-opacity:1" />
      <g
         id="g13421">
        <g
           id="g13418">
          <path
             d="M 405.28346,657.02911 C 404.16019,657.1396 403.03227,657.21669 401.91366,657.36057 C 401.25809,657.4449 400.73252,657.65783 399.96094,657.71374 C 398.71779,657.80382 396.72535,658.03277 396.71876,658.88562 C 396.70909,660.1381 397.67367,661.56957 398.86719,661.30749 C 402.65685,660.47533 404.81771,659.61478 408.16407,659.15905"
             id="path13403"
             sodipodi:nodetypes="csssss"
             style="fill:#c6ac72;fill-opacity:1;fill-rule:evenodd;stroke:#000000;stroke-width:0.25pt;stroke-linecap:butt;stroke-linejoin:miter;stroke-opacity:1" />
          <path
             d="M 396.71177,659.39312 C 397.789,659.37931 398.8248,659.15834 399.8606,658.81307 C 400.09078,658.55067 400.18285,658.17778 400.13682,657.73584"
             id="path13417"
             sodipodi:nodetypes="ccc"
             style="fill:none;fill-opacity:0.75;fill-rule:evenodd;stroke:#000000;stroke-width:0.14375;stroke-linecap:butt;stroke-linejoin:miter;stroke-miterlimit:4;stroke-opacity:1" />
        </g>
        <g
           id="g13414">
          <path
             d="M 406.69006,661.75993 C 404.22188,662.1353 401.97699,663.23129 399.78269,663.10701 C 398.33766,663.02517 397.58737,661.01357 398.2336,660.77667 C 400.26278,660.0328 403.81969,659.14258 407.469,658.7951"
             id="path13404"
             sodipodi:nodetypes="csss"
             style="fill:#c6ac72;fill-opacity:1;fill-rule:evenodd;stroke:#000000;stroke-width:0.25pt;stroke-linecap:butt;stroke-linejoin:miter;stroke-opacity:1" />
          <path
             d="M 398.06338,661.18825 C 398.64163,661.17941 399.32858,661.07191 399.94115,660.8863 C 400.22239,660.79802 400.32582,660.5641 400.32424,660.27635"
             id="path13413"
             sodipodi:nodetypes="ccc"
             style="fill:none;fill-opacity:0.75;fill-rule:evenodd;stroke:#000000;stroke-width:0.125;stroke-linecap:butt;stroke-linejoin:miter;stroke-miterlimit:4;stroke-opacity:1" />
        </g>
        <g
           id="g13410">
          <path
             d="M 407.23814,662.65934 C 404.76996,663.03471 402.52507,664.1307 400.33077,664.00642 C 398.88574,663.92458 398.13545,661.91298 398.78168,661.67608 C 400.81086,660.93221 404.36777,660.04199 408.01708,659.69451"
             id="path13402"
             sodipodi:nodetypes="csss"
             style="fill:#c6ac72;fill-opacity:1;fill-rule:evenodd;stroke:#000000;stroke-width:0.25pt;stroke-linecap:butt;stroke-linejoin:miter;stroke-opacity:1" />
          <path
             d="M 398.67552,662.22682 C 399.24895,662.15173 399.91904,661.96616 400.50628,661.71154 C 400.77555,661.59159 400.85147,661.34735 400.8169,661.06168"
             id="path13409"
             sodipodi:nodetypes="ccc"
             style="fill:none;fill-opacity:0.75;fill-rule:evenodd;stroke:#000000;stroke-width:0.125;stroke-linecap:butt;stroke-linejoin:miter;stroke-miterlimit:4;stroke-opacity:1" />
        </g>
        <g
           id="g13406">
          <path
             d="M 410.92017,664.1267 C 408.45199,664.50207 406.2071,665.59806 404.0128,665.47378 C 402.56777,665.39194 401.81748,663.38034 402.46371,663.14344 C 404.49289,662.39957 408.0498,661.50935 411.69911,661.16187"
             id="path13398"
             sodipodi:nodetypes="csss"
             style="fill:#c6ac72;fill-opacity:1;fill-rule:evenodd;stroke:#000000;stroke-width:0.25pt;stroke-linecap:butt;stroke-linejoin:miter;stroke-opacity:1"
             transform="translate(-2.427795,-0.864735)" />
          <path
             d="M 399.95184,662.92878 C 400.52527,662.85369 401.19536,662.66812 401.7826,662.4135 C 402.05187,662.29355 402.12779,662.04931 402.09322,661.76364"
             id="path13405"
             sodipodi:nodetypes="ccc"
             style="fill:none;fill-opacity:0.75;fill-rule:evenodd;stroke:#000000;stroke-width:0.125;stroke-linecap:butt;stroke-linejoin:miter;stroke-miterlimit:4;stroke-opacity:1" />
        </g>
        <g
           id="g13394">
          <path
             d="M 410.92017,664.1267 C 408.45199,664.50207 405.70992,665.37709 403.51562,665.25281 C 402.07059,665.17097 401.54127,663.38034 402.1875,663.14344 C 404.21668,662.39957 407.16592,661.61984 410.81523,661.27236"
             id="path13391"
             sodipodi:nodetypes="csss"
             style="fill:#c6ac72;fill-opacity:1;fill-rule:evenodd;stroke:#000000;stroke-width:0.25pt;stroke-linecap:butt;stroke-linejoin:miter;stroke-opacity:1" />
          <path
             d="M 402.0565,663.39821 L 403.93475,663.23248 L 404.32145,662.62481"
             id="path13392"
             style="fill:none;fill-opacity:0.75;fill-rule:evenodd;stroke:#000000;stroke-width:0.125;stroke-linecap:butt;stroke-linejoin:miter;stroke-miterlimit:4;stroke-opacity:1" />
        </g>
      </g>
      <path
         d="M 404.02845,657.06579 C 405.47421,657.49098 405.69871,657.97956 406.09358,658.89435 C 409.34366,659.43873 410.14198,662.1297 410.21563,664.41307 C 410.78647,664.17368 411.13634,664.26576 411.70718,664.02637 C 412.13071,661.65093 411.44938,659.77268 409.6632,658.39161 C 410.63916,657.54456 411.61511,656.6975 412.59107,655.85045 C 415.00333,657.04737 416.20026,660.78546 416.23709,662.92151 C 416.99207,662.79261 417.74706,662.66371 418.50204,662.53481 C 418.79667,660.04889 416.71585,655.7952 414.35883,654.24841 C 415.68466,653.23563 417.01048,652.22284 418.33631,651.21006 C 420.50919,654.37731 421.79819,658.42844 422.86621,661.8719 C 423.62119,661.96397 424.59715,661.83508 425.35213,661.92715 C 424.37618,657.54456 422.57158,653.82488 420.38029,649.82899 C 423.17925,651.46786 426.03346,651.50469 428.94291,651.59676 C 427.02783,654.81925 425.83091,658.48369 424.19204,661.70618 C 425.13117,661.74301 426.12553,661.83507 427.06466,661.8719 C 428.5378,658.44685 429.78997,654.52463 431.26311,651.09958 C 431.31835,650.43667 431.37359,649.77375 431.42883,649.11084 C 427.56184,649.20291 423.80534,648.90828 420.15932,647.23259 C 416.49489,650.36301 412.83045,653.49343 409.16602,656.62385 C 407.4535,656.77116 405.74097,656.91848 404.02845,657.06579 z"
         id="path13378"
         sodipodi:nodetypes="ccccccccccccccccccccc"
         style="fill:#5d3909;fill-opacity:1;fill-rule:nonzero;stroke:#000000;stroke-width:0.25pt;stroke-linecap:butt;stroke-linejoin:miter;stroke-opacity:1" />
    </g>
  </g>
</svg>
