<?xml version="1.0" encoding="UTF-8" standalone="no"?>
<!-- Created with Inkscape (http://www.inkscape.org/) -->

<svg
   xmlns:dc="http://purl.org/dc/elements/1.1/"
   xmlns:cc="http://creativecommons.org/ns#"
   xmlns:rdf="http://www.w3.org/1999/02/22-rdf-syntax-ns#"
   xmlns:svg="http://www.w3.org/2000/svg"
   xmlns="http://www.w3.org/2000/svg"
   xmlns:xlink="http://www.w3.org/1999/xlink"
   xmlns:sodipodi="http://sodipodi.sourceforge.net/DTD/sodipodi-0.dtd"
   xmlns:inkscape="http://www.inkscape.org/namespaces/inkscape"
   width="299.87506"
   height="470.88226"
   id="svg3827"
   version="1.1"
   inkscape:version="0.48.1 r9760"
   sodipodi:docname="Nouveau document 7">
  <defs
     id="defs3829">
    <linearGradient
       id="linearGradient4380">
      <stop
         id="stop4388"
         offset="0"
         style="stop-color:#ffa1a1;stop-opacity:1;" />
      <stop
         style="stop-color:#e13434;stop-opacity:1;"
         offset="1"
         id="stop4384" />
    </linearGradient>
    <radialGradient
       inkscape:collect="always"
       xlink:href="#linearGradient4380"
       id="radialGradient4386"
       cx="661.90778"
       cy="324.83282"
       fx="661.90778"
       fy="324.83282"
       r="50.5509"
       gradientTransform="matrix(-0.88365878,-0.94320909,0.59406881,-0.55656177,1061.5955,1139.6632)"
       gradientUnits="userSpaceOnUse" />
  </defs>
  <sodipodi:namedview
     id="base"
     pagecolor="#ffffff"
     bordercolor="#666666"
     borderopacity="1.0"
     inkscape:pageopacity="0.0"
     inkscape:pageshadow="2"
     inkscape:zoom="0.7"
     inkscape:cx="-361.00693"
     inkscape:cy="151.75739"
     inkscape:document-units="px"
     inkscape:current-layer="layer1"
     showgrid="false"
     fit-margin-top="0"
     fit-margin-left="0"
     fit-margin-right="0"
     fit-margin-bottom="0"
     inkscape:window-width="1680"
     inkscape:window-height="1026"
     inkscape:window-x="0"
     inkscape:window-y="0"
     inkscape:window-maximized="1" />
  <metadata
     id="metadata3832">
    <rdf:RDF>
      <cc:Work
         rdf:about="">
        <dc:format>image/svg+xml</dc:format>
        <dc:type
           rdf:resource="http://purl.org/dc/dcmitype/StillImage" />
        <dc:title></dc:title>
      </cc:Work>
    </rdf:RDF>
  </metadata>
  <g
     inkscape:label="Calque 1"
     inkscape:groupmode="layer"
     id="layer1"
     transform="translate(-609.48186,-273.37003)">
    <path
       inkscape:connector-curvature="0"
       id="path3860"
       d="m 820.56644,739.00231 c -1.61549,-2.8875 -5.77693,-10.65 -9.24765,-17.25 -8.85594,-16.84066 -28.3292,-50.65378 -33.97858,-59 -2.60599,-3.85 -8.18109,-10.825 -12.38913,-15.5 -14.69446,-16.32509 -27.81913,-38.80755 -33.67095,-57.67806 -4.37623,-14.11213 -6.34196,-19.01102 -14.37394,-35.82194 -9.71928,-20.34246 -20.68085,-40.39585 -27.18744,-49.73745 -12.84904,-18.44757 -25.51623,-42.08928 -33.62808,-62.76255 -2.48183,-6.325 -11.89192,-26.35 -20.91133,-44.5 -16.5407,-33.28531 -20.81664,-43.76059 -20.8294,-51.02821 -0.004,-2.18449 -1.17209,-7.34679 -2.59611,-11.47179 -2.38146,-6.89841 -2.54488,-8.42244 -2.03732,-19 0.81187,-16.91945 4.87298,-27.51381 13.43618,-35.05144 6.09828,-5.36792 12.51305,-7.30343 22.32326,-6.73553 14.68525,0.85012 29.59391,10.68968 39.45131,26.03746 1.61131,2.50877 4.24476,5.35002 5.85211,6.31387 10.86395,6.5146 16.00373,14.84521 38.53283,62.45436 5.86083,12.38529 12.65601,25.34847 15.10039,28.80706 10.38495,14.69384 12.22926,17.64607 17.73238,28.38457 3.18206,6.20931 8.43237,17.29913 11.66735,24.64404 10.11386,22.96319 34.79993,63.23079 56.48992,92.14561 17.80565,23.73663 27.18775,40.54197 34.13633,61.14545 4.75459,14.09798 12.3379,30.71385 31.4885,68.99479 7.38641,14.76501 13.42984,27.3296 13.42984,27.9213 0,0.59171 -10.6875,6.2612 -23.75,12.59887 -13.0625,6.33768 -29.15,14.14223 -35.75,17.34346 -6.6,3.20123 -14.82768,7.65995 -18.28374,9.90827 -3.45606,2.24832 -6.68553,4.08786 -7.17661,4.08786 -0.49108,0 -2.21463,-2.3625 -3.83012,-5.25 z"
       style="fill:#e5b2b2" />
    <path
       inkscape:connector-curvature="0"
       id="path3850"
       d="m 812.83392,724.00231 c -12.02131,-22.60656 -29.09741,-52.33466 -35.57946,-61.94097 -2.34144,-3.46996 -7.92196,-10.43425 -12.40116,-15.4762 -17.64308,-19.85966 -27.79932,-38.44705 -36.5178,-66.83283 -5.0747,-16.52231 -25.40219,-56.16354 -40.51014,-79 -10.76952,-16.27869 -21.64039,-36.12559 -27.4633,-50.13959 -2.25338,-5.42323 -5.51096,-13.23541 -7.23907,-17.36041 -1.72811,-4.125 -10.16387,-21.675 -18.74614,-39 -16.66032,-33.63213 -18.78765,-38.83367 -20.04009,-49 -0.44043,-3.575 -1.774,-9.65 -2.96351,-13.5 -1.81524,-5.87527 -2.07346,-8.52642 -1.60709,-16.5 1.18565,-20.27105 7.48266,-32.8534 19.36116,-38.68644 4.98138,-2.44614 6.83958,-2.80306 14.22959,-2.73316 15.20135,0.14378 26.8934,6.78629 37.91739,21.5417 3.72139,4.98102 8.52938,9.99973 11.85816,12.3779 8.99017,6.4228 13.06025,13.47063 41.0065,71.00744 4.00513,8.24591 9.95537,18.59256 13.22276,22.99256 6.89005,9.2784 15.91003,25.51522 22.49883,40.5 13.64153,31.02467 37.02764,69.75405 61.89295,102.5 13.87274,18.26947 24.36239,36.33547 29.61211,51 8.00857,22.37106 12.38569,32.33406 29.61762,67.41428 10.10815,20.57785 18.23154,37.5612 18.05197,37.74077 -0.17957,0.17957 -15.14315,7.54575 -33.25239,16.36929 -37.32412,18.18578 -39.05449,19.07713 -45.91255,23.65036 -2.74266,1.82892 -5.27499,3.3253 -5.62741,3.3253 -0.35241,0 -5.48643,-9.1125 -11.40893,-20.25 z m 16.84281,14.41319 c 5.94793,-4.03648 10.42644,-6.337 45.10551,-23.16976 17.00893,-8.25591 31.07345,-15.15888 31.2545,-15.33992 0.18104,-0.18105 -7.50759,-16.26465 -17.08584,-35.74134 -18.45381,-37.52449 -23.09204,-47.93933 -27.7951,-62.41217 -5.86304,-18.04248 -15.21441,-34.25244 -35.47873,-61.5 -21.81936,-29.33847 -44.66915,-67.25913 -55.93573,-92.82885 -8.34252,-18.93352 -16.13417,-33.31173 -23.25956,-42.92174 -6.70615,-9.04459 -9.26007,-13.79929 -27.52798,-51.24941 -13.91892,-28.53449 -19.7808,-38.57064 -24.48446,-41.91994 -2.40921,-1.71551 -1.66186,0.22515 5.86389,15.22692 13.04525,26.00429 14.48804,32.41557 9.17877,40.78742 -8.13341,12.82505 -38.18066,30.64384 -52.656,31.22636 -3.03997,0.12233 -4.92225,-0.54174 -7.83693,-2.76487 -7.8708,-6.00336 -20.01921,-22.99152 -27.84951,-38.94439 -2.49776,-5.08876 -3.72994,-6.88163 -3.30653,-4.81115 1.17303,5.73617 5.2003,14.62514 20.41965,45.07003 8.14649,16.29629 16.93763,35.02962 19.53587,41.62962 8.21483,20.8672 22.27507,47.42103 32.77859,61.90487 6.14974,8.4802 18.72659,31.20786 27.99792,50.59513 8.31202,17.38124 10.65045,23.21672 14.8108,36.95982 5.55071,18.33591 18.62378,40.8521 32.72344,56.36064 4.09006,4.49875 9.67284,11.47116 12.40618,15.49425 7.13525,10.50208 22.72953,37.46503 35.24251,60.93529 5.93787,11.1375 11.00367,20.25 11.25734,20.25 0.25368,0 2.34231,-1.27657 4.6414,-2.83681 z M 779.02358,629.58564 c -1.39764,-1.39763 -0.56433,-2.33358 2.08333,-2.33992 3.78604,-0.009 6.60334,-2.07525 17.03516,-12.49341 24.93436,-24.90171 27.92224,-27.63508 31.58435,-28.89406 3.88795,-1.33661 8.63049,-1.05601 8.63049,0.51064 0,0.48588 -1.32071,0.88342 -2.9349,0.88342 -6.51776,0 -5.78565,-0.60042 -36.5651,29.98778 -11.52844,11.45682 -17.1949,14.98399 -19.83333,12.34555 z m -20.98754,-21.98753 c -1.12032,-1.12033 2.40327,-7.8301 6.1197,-11.6534 4.42402,-4.55123 15.6932,-11.91727 26.70117,-17.45309 4.4,-2.21272 10.42552,-5.65875 13.39005,-7.65784 2.96452,-1.99909 5.64066,-3.38409 5.94697,-3.07779 1.27244,1.27244 -5.13724,5.78689 -17.83702,12.56293 -7.425,3.96165 -16.34075,9.21023 -19.81278,11.66352 -6.11885,4.32349 -12.18722,11.22523 -12.18722,13.86089 0,1.51542 -1.45791,2.61773 -2.32087,1.75478 z m 28.32087,-4.43942 c 0,-0.60149 0.94319,-1.34027 2.09598,-1.64173 4.16471,-1.0891 17.51461,-8.09167 22.43624,-11.76874 2.76773,-2.06783 6.34155,-5.50034 7.94183,-7.6278 3.11458,-4.14061 4.52595,-4.84486 4.52595,-2.25839 0,0.88534 -2.7841,4.292 -6.1869,7.57034 -4.58319,4.41557 -9.04774,7.36805 -17.22368,11.39028 -11.23935,5.52932 -13.58942,6.27917 -13.58942,4.33604 z m -28,-16.03367 c 0,-4.18005 6.3609,-15.07361 12.22697,-20.93968 10.38942,-10.38942 25.51668,-15.61213 37.77303,-13.04119 5.77155,1.21067 17.09639,6.89732 17.77195,8.92401 0.6223,1.86691 -1.37475,1.39342 -5.26891,-1.24922 -9.59799,-6.51338 -24.74432,-7.42116 -35.79688,-2.14547 -8.53212,4.07262 -16.9444,12.3327 -21.17769,20.79455 -1.94066,3.87915 -3.52847,7.66754 -3.52847,8.41865 0,0.7511 -0.45,1.36564 -1,1.36564 -0.55,0 -1,-0.95728 -1,-2.12729 z m -60.25,-106.58896 c -5.69828,-0.86322 -2.41735,-2.1039 6.5,-2.45797 6.47087,-0.25693 10.45179,-0.94606 13.25,-2.2937 2.24491,-1.08116 10.1428,-8.10606 18,-16.01037 14.06591,-14.15026 21.08719,-20.26785 22.09972,-19.25533 0.74676,0.74677 -31.81423,32.582 -36.72794,35.90929 -5.85072,3.96179 -14.24374,5.45299 -23.12178,4.10808 z m 11.25,-18.7344 c 0,-0.70918 2.1375,-1.87297 4.75,-2.58618 9.43312,-2.57524 19.49796,-8.20218 26.48164,-14.80505 4.78616,-4.52518 6.23686,-3.28254 1.70001,1.45618 -6.12618,6.39875 -18.5524,13.2972 -29.18165,16.20028 -2.92403,0.79862 -3.75,0.7402 -3.75,-0.26523 z m -23.05249,-8.47564 c 4.28598,-6.01911 18.65055,-14.56469 28.77878,-17.12072 7.54305,-1.90361 24.76825,0.8858 22.07868,3.57537 -0.30893,0.30893 -2.62741,0.0415 -5.15219,-0.59421 -7.71028,-1.94147 -18.18479,-0.84727 -25.68638,2.68327 -7.63283,3.59231 -16.58134,9.79458 -18.02599,12.49392 -0.55592,1.03876 -1.70059,1.88866 -2.54369,1.88866 -1.25173,0 -1.1507,-0.53676 0.55079,-2.92629 z m -28.94797,-62.32371 c 3.05916,-6.4978 14.39711,-17.96852 22.47404,-22.73722 7.05047,-4.16266 18,-7.93245 25.35985,-8.73107 l 5.33343,-0.57874 -0.66994,-3.60148 c -1.74514,-9.3816 -14.27184,-34.99926 -24.98796,-51.10149 -10.14082,-15.23777 -17.7767,-22.10302 -29.08236,-26.14731 -7.47063,-2.67241 -18.1631,-2.8391 -24.17486,-0.37688 -6.18016,2.5312 -13.25866,10.74182 -16.02062,18.58293 -2.65546,7.53874 -4.60317,22.71575 -3.64995,28.44126 1.80648,10.85063 12.47089,35.00105 21.87586,49.53965 4.62615,7.1513 18.17452,21.96035 20.09089,21.96035 0.53896,0 2.09218,-2.3625 3.45162,-5.25 z m 9.00046,3.0215 c 5.08879,-1.525 18.63386,-8.4517 25,-12.78455 9.96336,-6.78115 21.0997,-19.7233 17.92404,-20.83051 -0.54196,-0.18895 -4.37461,0.41048 -8.517,1.33207 -9.77778,2.17535 -23.43103,9.07422 -30.54895,15.43612 -5.88468,5.25965 -12.85809,14.75807 -12.85809,17.51389 0,1.68947 1.51004,1.57756 9,-0.66702 z"
       style="fill:#655656" />
    <path
       inkscape:connector-curvature="0"
       id="path3848"
       d="m 815.35691,727.95974 c -11.09364,-21.07439 -31.23085,-56.20757 -37.6614,-65.70743 -2.79225,-4.125 -8.50981,-11.29302 -12.70569,-15.92893 -14.46751,-15.98475 -27.8763,-39.20698 -33.58061,-58.15712 -4.19828,-13.94701 -6.8358,-20.26995 -17.06663,-40.91395 -11.51029,-23.22572 -17.47925,-33.8082 -26.97669,-47.82746 -10.74549,-15.86151 -22.61851,-38.30479 -29.61039,-55.97179 -3.19125,-8.06362 -10.38606,-23.67004 -15.98848,-34.68094 -12.00481,-23.59408 -22.52953,-46.0153 -24.88796,-53.01981 -0.92593,-2.75 -2.05748,-7.925 -2.51457,-11.5 -0.45708,-3.575 -1.78297,-9.875 -2.94641,-14 -2.22598,-7.89219 -2.1923,-14.87882 0.13013,-26.9984 4.08386,-21.31162 19.34425,-32.62719 38.58987,-28.61437 13.11472,2.7345 23.40528,10.03963 32.94476,23.38704 2.46634,3.45084 6.34946,7.57038 8.62916,9.15453 5.83366,4.05376 9.73792,8.48515 14.60002,16.5712 4.17282,6.93974 7.02814,12.64882 25.34593,50.67805 5.71694,11.86885 11.65051,22.58376 14.95172,27 3.0103,4.02707 6.65989,9.22546 8.11019,11.55198 3.788,6.07654 13.73667,26.17671 18.44693,37.26997 8.47205,19.95274 34.25424,62.27626 54.2143,88.9971 20.10545,26.91549 30.36632,45.09031 36.98061,65.5029 4.09875,12.64927 13.65051,33.56913 31.22569,68.38918 7.60347,15.06405 13.69963,27.5084 13.54701,27.65412 -0.59327,0.56645 -35.04461,17.3286 -49.16995,23.92342 -13.2418,6.18233 -20.87648,10.22902 -32.60754,17.28334 l -3.5,2.10468 -8.5,-16.14731 z m 17.81997,8.62756 c 4.22402,-2.56575 17.35503,-9.24609 29.18003,-14.8452 11.825,-5.59911 26.7474,-12.80834 33.16089,-16.02052 l 11.66089,-5.84031 -12.83892,-25.66322 C 875.51591,636.59178 867.62776,619.32085 862.6646,604.86593 855.30447,583.43 845.94852,566.6731 828.26362,543.25231 815.2111,525.96635 793.37655,492.07409 780.48959,469.09598 c -1.74475,-3.11098 -6.67368,-13.46098 -10.95316,-23 -8.4454,-18.82488 -17.76566,-36.15205 -22.14794,-41.17495 -5.36176,-6.14557 -10.09275,-14.73852 -22.934,-41.6553 -17.9956,-37.7209 -23.99485,-47.95583 -31.05718,-52.98465 -2.57794,-1.83566 -2.04423,-0.42987 5.10595,13.44894 8.62389,16.73935 13.85365,29.79745 13.85365,34.59092 0,4.52743 -3.23323,9.9849 -9.47967,16.00102 -11.65566,11.22589 -32.7641,22.35937 -44.77157,23.6144 l -5.88715,0.61533 -7.2425,-7.39969 c -9.05273,-9.24921 -16.29457,-19.93659 -23.22244,-34.27127 -2.95807,-6.12063 -5.38244,-10.46612 -5.38749,-9.65663 -0.0289,4.63146 6.22305,19.21312 20.80667,48.52821 9.02923,18.15 18.44483,38.175 20.92355,44.5 8.04943,20.5399 20.32919,43.58819 32.76618,61.5 12.45345,17.93551 34.18384,61.26605 39.61872,79 8.07805,26.35862 19.48035,46.65182 37.36487,66.5 3.71689,4.125 8.51623,10.0832 10.66518,13.24044 6.06872,8.91616 22.50116,37.40942 33.32749,57.78867 10.81381,20.35566 12.30651,22.97089 13.11118,22.97089 0.3008,0 4.00293,-2.09925 8.22695,-4.66501 z M 778.35691,628.28369 c 0,-0.53273 0.5974,-0.73937 1.32755,-0.45918 2.89272,1.11004 7.60917,-2.0557 17.17245,-11.52638 5.5,-5.44674 13.87631,-13.72967 18.61403,-18.4065 4.73772,-4.67684 10.13772,-9.43225 12,-10.56759 3.48295,-2.12338 10.88597,-2.85221 10.88597,-1.07173 0,0.55 -2.07101,1 -4.60225,1 -5.02039,0 -5.301,0.23689 -33.75967,28.5 -4.98425,4.95 -10.40426,10.0125 -12.04446,11.25 -2.98893,2.2551 -9.59362,3.13726 -9.59362,1.28138 z m -20,-22.30092 c 0,-2.99908 6.54151,-11.01582 12.39987,-15.19626 3.39316,-2.42131 11.77881,-7.38499 18.63476,-11.03039 6.85595,-3.6454 14.1827,-7.99523 16.28165,-9.66629 2.09895,-1.67106 4.06338,-2.7912 4.36538,-2.48919 1.12467,1.12467 -5.54968,5.76308 -17.68166,12.28805 -6.875,3.6976 -15.02912,8.41919 -18.12026,10.49242 -5.92778,3.97577 -13.87974,12.25614 -13.87974,14.45297 0,0.71511 -0.45,1.57831 -1,1.91823 -0.55,0.33992 -1,-0.006 -1,-0.76954 z m 28.50527,-2.72193 c -0.28643,-0.46345 1.70666,-1.58248 4.42909,-2.48673 10.41042,-3.45779 28.06934,-15.80737 29.62872,-20.72054 0.64128,-2.02049 2.43692,-2.45839 2.43692,-0.59428 0,2.26438 -12.48392,13.30096 -19,16.79722 -9.11069,4.88842 -16.87999,7.999 -17.49473,7.00433 z m -27.99261,-17.25853 c 3.29239,-11.44185 13.91248,-23.68912 25.16206,-29.01731 6.34452,-3.00499 7.56488,-3.23269 17.32528,-3.23269 9.56284,0 10.99089,0.2525 16,2.82898 5.70989,2.93695 9.33843,5.66592 8.56371,6.44065 -0.24671,0.2467 -1.77277,-0.49437 -3.39126,-1.64684 -15.23758,-10.85011 -35.66587,-8.31686 -50.61317,6.27637 -5.07065,4.95054 -11.55626,15.80852 -11.55849,19.35084 -4.3e-4,0.6875 -0.48111,1.25 -1.06818,1.25 -0.63208,0 -0.80335,-0.91759 -0.41995,-2.25 z M 695.35691,479.57293 c 0,-0.5016 3.9375,-0.90684 8.75,-0.90054 7.25571,0.01 9.5116,-0.38867 13.20962,-2.33157 2.45279,-1.28867 12.26714,-9.94574 21.80965,-19.23793 9.54251,-9.29219 17.77125,-16.63456 18.28608,-16.31637 0.51483,0.31818 -1.19951,2.3948 -3.80965,4.6147 -2.61013,2.21991 -10.3707,9.7887 -17.2457,16.81953 -15.41034,15.75965 -18.04212,17.26195 -31.25,17.83854 -5.51725,0.24085 -9.75,0.0297 -9.75,-0.48636 z m 14.3579,-18.09069 c 0.33446,-0.54117 2.75325,-1.52399 5.3751,-2.18405 7.03849,-1.77198 17.79958,-7.76599 23.81892,-13.26733 2.91137,-2.66082 5.54947,-4.42351 5.86246,-3.91709 0.71336,1.15425 -5.30696,6.61438 -12.01911,10.90073 -7.96831,5.08853 -24.76445,11.26221 -23.03737,8.46774 z m -24.3579,-6.13726 c 0,-2.18181 11.21275,-10.73689 18.96885,-14.4728 6.80268,-3.27668 9.83545,-4.15644 15.41512,-4.47172 7.44253,-0.42054 17.61603,1.32964 17.61603,3.03056 0,0.59329 -0.7471,0.72822 -1.75,0.31604 -0.9625,-0.39558 -4.99632,-1.206 -8.96404,-1.80095 -6.18862,-0.92796 -8.03646,-0.8261 -13,0.71664 -8.50813,2.64445 -16.76812,7.31682 -22.57832,12.77171 -5.48725,5.1517 -5.70764,5.3027 -5.70764,3.91052 z m -20.05972,-60.72877 c 10.21967,-2.87489 26.26612,-12.06138 35.38215,-20.25607 3.76268,-3.38239 9.67757,-11.5135 9.67757,-13.30361 0,-0.44232 -1.4625,-0.87624 -3.25,-0.96426 l -3.25,-0.16003 3.25,-0.40333 c 2.42921,-0.30146 3.25,-0.90038 3.25,-2.3715 0,-6.45078 -14.48571,-36.99897 -25.0997,-52.93151 -12.1537,-18.24378 -24.44385,-27.26852 -38.95791,-28.60705 -20.26954,-1.86932 -32.98648,12.68882 -34.62095,39.63346 -0.53586,8.83365 -0.35312,10.16635 2.60519,19 7.73531,23.098 21.09048,45.86995 33.81026,57.65 5.13416,4.75485 8.21852,5.24142 17.20339,2.7139 z m -8.92824,-0.66356 c -0.0442,-2.93175 6.44902,-11.52572 12.98796,-17.19007 3.39266,-2.93888 2.97705,-2.31242 -1.68893,2.54581 -3.40391,3.54415 -7.33599,8.46892 -8.73796,10.94392 -1.40196,2.475 -2.55444,4.14015 -2.56107,3.70034 z m 19.98492,-22.72387 c 2.84068,-2.49944 13.29638,-7.97687 15.22452,-7.97568 0.70319,4.3e-4 -1.58221,1.35413 -5.07866,3.00822 -3.49645,1.65409 -7.77145,3.94277 -9.5,5.08596 l -3.14282,2.07851 2.49696,-2.19701 z m 23.75304,-10.63875 c 0.6875,-0.27741 1.8125,-0.27741 2.5,0 0.6875,0.27741 0.125,0.50439 -1.25,0.50439 -1.375,0 -1.9375,-0.22698 -1.25,-0.50439 z"
       style="fill:#0c0909" />
    <path
       style="fill:url(#radialGradient4386);fill-opacity:1;stroke:#000000;stroke-width:1px;stroke-linecap:butt;stroke-linejoin:miter;stroke-opacity:1"
       d="m 711.14739,359.65007 c -2.41585,-8.46455 -4.27892,-17.1776 -7.82868,-25.25381 -7.49061,-12.69631 -14.02696,-25.96112 -21.97082,-38.3858 -6.88148,-7.7166 -14.75036,-15.04498 -24.255,-19.36602 -5.76636,-1.54599 -11.90809,-1.40628 -17.85573,-1.56307 -5.58029,-0.0573 -11.31993,1.82478 -14.82971,6.37017 -8.83716,8.48935 -14.03009,20.65368 -13.2925,32.95332 0.12057,20.83628 10.00313,39.87389 20.55577,57.2537 5.48618,8.7023 10.72338,18.18953 19.90924,23.53625 5.50006,5.88448 6.35377,-5.20107 9.81742,-8.27062 5.25369,-6.23968 10.97863,-12.32297 17.76084,-16.90581 7.21626,-3.73339 14.37114,-8.18509 22.39272,-9.86323 3.20443,-0.0161 6.40456,-0.23644 9.59645,-0.50508 z"
       id="path3869"
       inkscape:connector-curvature="0" />
  </g>
</svg>
