<?xml version="1.0" encoding="UTF-8" standalone="no"?>
<!-- Created with Inkscape (http://www.inkscape.org/) -->

<svg
   xmlns:dc="http://purl.org/dc/elements/1.1/"
   xmlns:cc="http://creativecommons.org/ns#"
   xmlns:rdf="http://www.w3.org/1999/02/22-rdf-syntax-ns#"
   xmlns:svg="http://www.w3.org/2000/svg"
   xmlns="http://www.w3.org/2000/svg"
   xmlns:sodipodi="http://sodipodi.sourceforge.net/DTD/sodipodi-0.dtd"
   xmlns:inkscape="http://www.inkscape.org/namespaces/inkscape"
   width="300.25992"
   height="204.83836"
   id="svg2"
   version="1.1"
   inkscape:version="0.48.1 r9760"
   sodipodi:docname="alicvb_maman.svg">
  <defs
     id="defs4" />
  <sodipodi:namedview
     id="base"
     pagecolor="#ffffff"
     bordercolor="#666666"
     borderopacity="1.0"
     inkscape:pageopacity="0.0"
     inkscape:pageshadow="2"
     inkscape:zoom="1.4"
     inkscape:cx="366.2099"
     inkscape:cy="-63.577678"
     inkscape:document-units="px"
     inkscape:current-layer="layer1"
     showgrid="false"
     fit-margin-top="0"
     fit-margin-left="0"
     fit-margin-right="0"
     fit-margin-bottom="0"
     inkscape:window-width="1680"
     inkscape:window-height="1026"
     inkscape:window-x="0"
     inkscape:window-y="0"
     inkscape:window-maximized="1" />
  <metadata
     id="metadata7">
    <rdf:RDF>
      <cc:Work
         rdf:about="">
        <dc:format>image/svg+xml</dc:format>
        <dc:type
           rdf:resource="http://purl.org/dc/dcmitype/StillImage" />
        <dc:title></dc:title>
      </cc:Work>
    </rdf:RDF>
  </metadata>
  <g
     inkscape:label="Calque 1"
     inkscape:groupmode="layer"
     id="layer1"
     transform="translate(-372.295,-321.85852)">
    <path
       inkscape:connector-curvature="0"
       id="path3194"
       d="m 476.1244,524.84553 c -1.2004,-0.84081 -2.4756,-3.09081 -2.8338,-5 -0.6481,-3.45462 -0.6772,-3.47126 -6.0713,-3.47126 -3.7294,0 -5.5881,-0.43773 -5.9586,-1.40333 -0.2962,-0.77183 1.5218,-8.75933 4.0398,-17.75 7.8294,-27.95414 7.8712,-28.22308 8.068,-51.84667 0.099,-11.825 0.5134,-22.53828 0.9219,-23.80728 1.0804,-3.35639 4.386,-4.19272 16.5716,-4.19272 11.6956,0 15.3025,0.80438 16.4715,3.6734 0.4094,1.00463 0.6782,10.1516 0.5975,20.3266 -0.1723,21.72835 0.6904,27.59293 7.9343,53.93403 2.7882,10.13872 4.8422,19.02622 4.5644,19.75 -0.3315,0.86398 -2.3666,1.31597 -5.925,1.31597 -5.3942,0 -5.4233,0.0166 -6.0714,3.47126 -0.8721,4.64902 -3.8359,6.52874 -10.2938,6.52874 l -5.2775,0 0,-5.06955 c 0,-4.68533 -0.1706,-5.04533 -2.25,-4.75 -1.9201,0.27269 -2.2947,1.01606 -2.5548,5.06955 l -0.3048,4.75 -4.7227,0 c -2.619,0 -5.695,-0.68098 -6.9053,-1.52874 z M 461.5762,471.7552 c -0.3928,-0.39285 -0.7142,-11.67391 -0.7142,-25.06904 l 0,-24.35477 2.5776,-1.17446 c 1.8336,-0.83541 3.0605,-0.86993 4.25,-0.11957 1.4901,0.93991 1.6724,3.76769 1.6724,25.9459 l 0,24.89101 -3.5358,0.29759 c -1.9446,0.16368 -3.8571,-0.0238 -4.25,-0.41666 z m 51,0 c -0.3928,-0.39285 -0.7142,-11.60916 -0.7142,-24.92515 0,-26.76061 0.2366,-27.81368 5.8097,-25.85373 l 2.6903,0.94611 0,24.97592 0,24.97592 -3.5358,0.29759 c -1.9446,0.16368 -3.8571,-0.0238 -4.25,-0.41666 z m -27.9551,-59.7511 c -5.8927,-2.18621 -8.4643,-4.27062 -11.3555,-9.20404 -6.0574,-10.33614 -1.5232,-24.48548 9.3143,-29.06579 4.149,-1.75353 12.4534,-1.74312 16.5642,0.0208 7.9901,3.42847 13.3638,13.61813 11.7722,22.32232 -2.1951,12.00396 -15.3661,19.98153 -26.2952,15.92675 z"
       style="fill:#ed55ce"
       sodipodi:nodetypes="scsccccscsscscscssscsscscccscsccsscccsccsssscc" />
    <path
       inkscape:connector-curvature="0"
       id="path3192"
       d="m 540.18611,523.73891 c -2.0333,-2.58437 -2.0726,-3.57178 -2.0726,-52.04495 l 0,-49.4106 2.4546,-2.45455 c 2.3312,-2.33128 3.0526,-2.45454 14.3651,-2.45454 10.5354,0 12.2148,0.23929 14.5454,2.07258 l 2.6349,2.07258 0,50.42742 c 0,49.09409 -0.053,50.4803 -2,52.42742 -1.5151,1.51515 -3.3333,2 -7.5,2 l -5.5,0 0,-24 c 0,-23.33333 -0.056,-24 -2,-24 -1.9444,0 -2,0.66667 -2,24 l 0,24 -5.4274,0 c -4.6723,0 -5.7158,-0.36661 -7.5,-2.63486 z m -13.3998,-51.61464 c -1.545,-1.12972 -1.6837,-3.59699 -1.4411,-25.64169 0.2933,-26.65978 0.4138,-27.16706 6.1135,-25.73651 l 2.6548,0.6663 0,24.94577 c 0,23.63969 -0.1013,24.99996 -1.9343,25.98095 -2.4979,1.33684 -3.3154,1.30428 -5.3929,-0.21482 z m 51.0772,0.1699 c -1.5905,-0.9264 -1.75,-3.22902 -1.75,-25.26959 0,-25.46419 0.2003,-26.65031 4.5,-26.65031 4.3,0 4.5,1.18534 4.5,26.66482 0,22.96645 -0.1035,24.3202 -1.9343,25.3 -2.3633,1.26481 -3.0774,1.25877 -5.3157,-0.0449 z m -31.6208,-61.54281 c -12.3094,-6.13405 -15.3324,-22.26968 -6.0075,-32.06632 4.3351,-4.55449 8.5181,-6.31077 15.0305,-6.31077 18.3674,0 27.3826,21.53116 14.4303,34.464 -6.8679,6.85755 -14.8665,8.19208 -23.4533,3.91309 z"
       style="fill:#6a8ae0"
       sodipodi:nodetypes="csccsccscscssscsccssscssscssssccsssss" />
    <path
       inkscape:connector-curvature="0"
       id="path3190"
       d="m 393.98936,523.45119 -2.9231,-2.92307 0,-68.62659 c 0,-76.7008 -0.2914,-73.46086 6.7976,-75.58476 2.3602,-0.70713 9.5462,-1.00403 19.0821,-0.7884 l 15.2962,0.3459 2.412,2.80576 2.4121,2.80577 0,69.85534 0,69.85534 -3.0767,2.5889 c -2.6617,2.23963 -4.0108,2.58889 -10,2.58889 l -6.9233,0 0,-33.5 0,-33.5 -3,0 -3,0 0,33.5 0,33.5 -7.0769,0 c -6.4886,0 -7.32,-0.24303 -10,-2.92308 z m -19.1731,-72.15702 c -1.612,-0.93888 -1.75,-3.6814 -1.75,-34.76959 0,-24.91691 0.3141,-34.06438 1.2,-34.95031 1.5525,-1.55247 8.0475,-1.55247 9.6,0 0.8859,0.88595 1.2,10.03663 1.2,34.96482 0,32.35882 -0.08,33.80792 -1.9343,34.8 -2.431,1.30106 -6.0383,1.28157 -8.3157,-0.0449 z m 69.8214,-0.49133 c -1.3655,-1.36551 -1.5714,-5.92554 -1.5714,-34.8 0,-24.51111 0.3148,-33.54339 1.2,-34.42857 0.66,-0.66 3.1192,-1.2 5.4648,-1.2 3.1931,0 4.525,0.48609 5.3,1.93426 0.6519,1.21798 1.0352,13.80862 1.0352,34 0,30.73241 -0.083,32.1489 -2,34.06574 -2.392,2.39196 -7.2446,2.61253 -9.4286,0.42857 z m -35.3493,-80.53023 c -13.7853,-2.58946 -22.7128,-18.46954 -17.7252,-31.52935 3.8659,-10.12283 11.9371,-15.79055 22.5031,-15.80215 10.1528,-0.0111 18.0636,4.96183 22.1289,13.91097 2.4066,5.29779 2.4092,14.74424 0,20.02219 -4.4451,9.76017 -15.9056,15.46584 -26.9122,13.39834 z"
       style="fill:#4f73d8"
       sodipodi:nodetypes="ccsssccccccscccccccsccsccscccsssscscscsssccc" />
    <path
       inkscape:connector-curvature="0"
       id="path3188"
       d="m 613.06851,524.91651 c -3.7021,-1.6104 -5.3287,-4.19787 -5.3287,-8.4765 l 0,-3.06574 -6.0658,0 c -7.0176,0 -9.9342,-1.2178 -9.9342,-4.1479 0,-1.14265 2.6757,-11.41476 5.946,-22.82691 10.346,-36.10384 10.4236,-36.64971 10.4934,-73.74526 0.076,-40.36019 -1.996,-36.64839 20.7083,-37.10043 17.1585,-0.34162 20.9523,0.3491 23.1104,4.20765 0.8382,1.49865 1.197,11.56055 1.2341,34.61285 0.06,37.21292 -0.1571,35.70284 10.442,72.63728 3.3362,11.6255 6.0658,21.87414 6.0658,22.77475 0,2.2219 -4.0226,3.58797 -10.5651,3.58797 -5.1588,0 -5.4349,0.12953 -5.4349,2.54966 0,6.95797 -4.8956,10.45034 -14.6493,10.45034 l -5.3507,0 0,-6.5 0,-6.5 -3.5,0 -3.5,0 0,6.5 0,6.5 -5.25,-0.0391 c -2.8875,-0.0215 -6.6771,-0.65991 -8.4213,-1.41862 z m -22.8737,-74.79886 c -0.2652,-0.69114 -0.3636,-16.55364 -0.2186,-35.25 l 0.2636,-33.99338 4.3239,-0.31111 c 7.4578,-0.5366 7.1761,-1.91976 7.1761,35.23355 0,24.47144 -0.3149,33.49245 -1.2,34.37756 -1.6063,1.60629 -9.724,1.56186 -10.345,-0.0566 z m 70.745,0.0566 c -1.7181,-1.71809 -1.7181,-66.88191 0,-68.6 1.5524,-1.55247 8.0475,-1.55247 9.6,0 1.718,1.71809 1.718,66.88191 0,68.6 -0.66,0.66 -2.82,1.2 -4.8,1.2 -1.98,0 -4.14,-0.54 -4.8,-1.2 z m -41.0416,-82.35863 c -9.0734,-4.60588 -13.8184,-13.22664 -12.8936,-23.42502 0.5894,-6.50062 2.3988,-10.52613 6.6355,-14.76286 11.5062,-11.50614 30.7011,-8.42875 38.3716,6.15183 2.9583,5.62334 2.9778,15.52986 0.042,21.10779 -4.5556,8.65439 -10.5856,12.5785 -20.3056,13.21418 -5.5985,0.36614 -7.2544,0.0467 -11.8495,-2.28592 z"
       style="fill:#9911a4"
       sodipodi:nodetypes="cscsssssssssssscccccccscccscsssccscccssccsscscc" />
  </g>
</svg>
