<?xml version="1.0" encoding="UTF-8" standalone="no"?>
<!-- Created with Inkscape (http://www.inkscape.org/) -->
<svg
   xmlns:dc="http://purl.org/dc/elements/1.1/"
   xmlns:cc="http://creativecommons.org/ns#"
   xmlns:rdf="http://www.w3.org/1999/02/22-rdf-syntax-ns#"
   xmlns:svg="http://www.w3.org/2000/svg"
   xmlns="http://www.w3.org/2000/svg"
   xmlns:sodipodi="http://sodipodi.sourceforge.net/DTD/sodipodi-0.dtd"
   xmlns:inkscape="http://www.inkscape.org/namespaces/inkscape"
   height="434.55707"
   id="svg2"
   inkscape:version="0.45+devel"
   sodipodi:docbase="/home/illner/s/illner"
   sodipodi:docname="fingerprint_stefan_illne_.svg"
   sodipodi:version="0.32"
   width="358.5202"
   inkscape:output_extension="org.inkscape.output.svg.inkscape"
   version="1.0">
  <metadata
     id="metadata3">
    <rdf:RDF>
      <cc:Work
         rdf:about="">
        <dc:title>Fingerprint</dc:title>
        <dc:description>Fingerprint</dc:description>
        <dc:subject>
          <rdf:Bag>
            <rdf:li>people</rdf:li>
            <rdf:li>bodypart</rdf:li>
          </rdf:Bag>
        </dc:subject>
        <dc:publisher>
          <cc:Agent
             rdf:about="http://www.openclipart.org">
            <dc:title>Open Clip Art Library</dc:title>
          </cc:Agent>
        </dc:publisher>
        <dc:creator>
          <cc:Agent>
            <dc:title>Stefan Illner</dc:title>
          </cc:Agent>
        </dc:creator>
        <dc:rights>
          <cc:Agent>
            <dc:title>Stefan Illner</dc:title>
          </cc:Agent>
        </dc:rights>
        <dc:date />
        <dc:format>image/svg+xml</dc:format>
        <dc:type
           rdf:resource="http://purl.org/dc/dcmitype/StillImage" />
        <cc:license
           rdf:resource="http://web.resource.org/cc/PublicDomain" />
        <dc:language>en</dc:language>
      </cc:Work>
      <cc:License
         rdf:about="http://web.resource.org/cc/PublicDomain">
        <cc:permits
           rdf:resource="http://web.resource.org/cc/Reproduction" />
        <cc:permits
           rdf:resource="http://web.resource.org/cc/Distribution" />
        <cc:permits
           rdf:resource="http://web.resource.org/cc/DerivativeWorks" />
      </cc:License>
    </rdf:RDF>
  </metadata>
  <defs
     id="defs3" />
  <sodipodi:namedview
     bordercolor="#666666"
     borderopacity="1.0"
     id="base"
     inkscape:current-layer="layer1"
     inkscape:cx="361.11453"
     inkscape:cy="592.78777"
     inkscape:document-units="px"
     inkscape:pageopacity="0.0"
     inkscape:pageshadow="2"
     inkscape:window-height="944"
     inkscape:window-width="1272"
     inkscape:window-x="0"
     inkscape:window-y="0"
     inkscape:zoom="1.7604131"
     pagecolor="#ffffff"
     showgrid="false" />
  <g
     id="layer1"
     inkscape:groupmode="layer"
     inkscape:label="Layer 1"
     transform="translate(-181.85443,-242.29589)">
    <path
       d="M 377.66042,670.85297 C 496.19035,594.10253 548.23214,378.88668 531.22963,329.41051 C 514.0536,279.4294 490.69394,257.02082 445.0862,251.16061 C 398.92334,245.22907 365.00423,242.21105 303.21223,308.74907 C 240.89773,375.84971 200.07848,478.63466 193.40049,519.35987 C 186.7225,560.0851 186.12043,589.26055 191.34977,599.8761"
       id="path1293"
       sodipodi:nodetypes="czzzzz"
       style="fill:none;fill-opacity:0.75;fill-rule:evenodd;stroke:#000000;stroke-width:12;stroke-linecap:butt;stroke-linejoin:miter;stroke-miterlimit:4;stroke-dasharray:none;stroke-opacity:1" />
    <path
       d="M 210.33263,597.59062 C 234.67302,599.36572 282.71126,601.70505 317.77211,600.65897 C 340.62949,618.84682 360.10146,635.90621 388.60119,646.75901"
       id="path2055"
       sodipodi:nodetypes="ccc"
       style="fill:none;fill-opacity:0.75;fill-rule:evenodd;stroke:#000000;stroke-width:4;stroke-linecap:butt;stroke-linejoin:miter;stroke-miterlimit:4;stroke-dasharray:none;stroke-opacity:1" />
    <path
       d="M 210.64971,582.31882 C 317.06808,585.66676 330.50737,584.57576 334.45702,582.31882 C 352.37608,597.41503 369.73092,610.25431 394.98504,620.83665"
       id="path2057"
       sodipodi:nodetypes="ccc"
       style="fill:none;fill-opacity:0.75;fill-rule:evenodd;stroke:#000000;stroke-width:4;stroke-linecap:butt;stroke-linejoin:miter;stroke-miterlimit:4;stroke-dasharray:none;stroke-opacity:1" />
    <path
       d="M 210.97181,554.38165 C 260.40247,559.98653 345.56948,547.53589 362.49652,532.30156 C 366.09834,562.84517 404.11849,579.84714 426.90429,600.23453"
       id="path2059"
       sodipodi:nodetypes="ccc"
       style="fill:none;fill-opacity:0.75;fill-rule:evenodd;stroke:#000000;stroke-width:4;stroke-linecap:butt;stroke-linejoin:miter;stroke-miterlimit:4;stroke-dasharray:none;stroke-opacity:1" />
    <path
       d="M 206.98469,566.37541 C 282.93439,570.28759 322.50576,570.14779 346.20362,560.5558 C 361.61858,575.89918 393.39634,603.65573 416.71058,615.04947"
       id="path2061"
       sodipodi:nodetypes="ccc"
       style="fill:none;fill-opacity:0.75;fill-rule:evenodd;stroke:#000000;stroke-width:4;stroke-linecap:butt;stroke-linejoin:miter;stroke-miterlimit:4;stroke-dasharray:none;stroke-opacity:1" />
    <path
       d="M 209.10183,542.84475 C 301.56377,539.61439 401.77493,486.57323 416.90693,469.57125 C 432.82098,451.69059 422.88856,422.53268 410.50783,410.15195 C 398.1271,397.77122 360.32789,382.96772 345.19588,395.34845 C 330.06387,407.72918 310.75136,453.8932 303.94585,468.52793 C 296.92535,483.62498 280.35795,531.56265 242.65655,539.56931"
       id="path4365"
       sodipodi:nodetypes="czzzzc"
       style="fill:none;fill-opacity:0.75;fill-rule:evenodd;stroke:#000000;stroke-width:4;stroke-linecap:butt;stroke-linejoin:miter;stroke-miterlimit:4;stroke-dasharray:none;stroke-opacity:1" />
    <path
       d="M 294.38628,511.7369 C 341.15794,504.85872 407.44792,471.74811 410.83633,458.41558 C 417.65292,431.59409 393.43214,406.44252 375.54886,406.44252 C 357.66558,406.44252 345.8529,411.13748 337.59908,429.02076 C 325.93696,464.51354 294.38628,511.7369 294.38628,511.7369 z"
       id="path5883"
       sodipodi:nodetypes="csccc"
       style="fill:none;fill-opacity:0.75;fill-rule:evenodd;stroke:#000000;stroke-width:4;stroke-linecap:butt;stroke-linejoin:miter;stroke-miterlimit:4;stroke-dasharray:none;stroke-opacity:1" />
    <path
       d="M 323.27466,493.85363 C 365.9194,486.97544 388.8228,465.70091 393.43214,455.33579 C 404.13609,431.26559 385.08935,419.71981 368.58171,421.09544 C 346.96162,423.60718 340.88416,477.94827 323.27466,493.85363 z"
       id="path5885"
       sodipodi:nodetypes="cscc"
       style="fill:none;fill-opacity:0.75;fill-rule:evenodd;stroke:#000000;stroke-width:4;stroke-linecap:butt;stroke-linejoin:miter;stroke-miterlimit:4;stroke-dasharray:none;stroke-opacity:1" />
    <path
       d="M 349.41176,474.59471 C 383.80268,460.83834 391.80886,439.95156 380.48335,435.41986 C 360.79886,427.54346 356.79639,466.07398 349.41176,474.59471 z"
       id="path5887"
       sodipodi:nodetypes="csc"
       style="fill:none;fill-opacity:0.75;fill-rule:evenodd;stroke:#000000;stroke-width:4;stroke-linecap:butt;stroke-linejoin:miter;stroke-miterlimit:4;stroke-dasharray:none;stroke-opacity:1" />
    <path
       d="M 279.33424,541.78619 C 293.36108,540.38017 363.81139,523.73981 375.58129,509.35638 C 372.05607,540.90487 430.64423,586.72533 436.28658,588.41804"
       id="path2847"
       sodipodi:nodetypes="ccc"
       style="fill:none;fill-opacity:0.75;fill-rule:evenodd;stroke:#000000;stroke-width:4;stroke-linecap:butt;stroke-linejoin:miter;stroke-miterlimit:4;stroke-opacity:1" />
    <path
       d="M 396.57037,493.53655 C 387.18809,516.67521 432.86874,571.31373 446.41037,575.26337"
       id="path6649"
       sodipodi:nodetypes="cc"
       style="fill:none;fill-opacity:0.75;fill-rule:evenodd;stroke:#000000;stroke-width:4;stroke-linecap:butt;stroke-linejoin:miter;stroke-miterlimit:4;stroke-dasharray:none;stroke-opacity:1" />
    <path
       d="M 204.83009,521.82323 C 225.46464,523.19887 253.62,515.50388 266.41668,503.05865 C 274.83265,494.87382 291.00088,463.09528 297.87906,445.212 C 304.75725,427.32872 328.7772,378.30014 349.41176,375.54886 C 370.04631,372.79759 404.43723,382.42704 420.94487,403.06159 C 437.45252,423.69615 439.14749,460.55598 438.82816,463.58961 C 436.39622,486.69308 418.1936,481.47289 414.06669,495.22926 C 409.93978,508.98563 448.45761,559.88419 448.45761,559.88419"
       id="path6651"
       sodipodi:nodetypes="csssssss"
       style="fill:none;fill-opacity:0.75;fill-rule:evenodd;stroke:#000000;stroke-width:4;stroke-linecap:butt;stroke-linejoin:miter;stroke-miterlimit:4;stroke-dasharray:none;stroke-opacity:1" />
    <path
       d="M 213.22371,497.98054 C 255.86845,495.22926 269.62482,469.09216 282.00555,441.57943 C 294.38628,414.06669 307.63621,372.2569 335.14894,365.37872 C 362.66168,358.50053 393.73328,357.93249 422.62165,378.56704 C 451.51002,399.20159 456.20499,423.51821 457.75855,446.09644 C 459.29579,468.43736 451.20888,489.72672 442.95506,496.6049 C 434.70124,503.48308 456.71143,547.50346 456.71143,547.50346"
       id="path7416"
       sodipodi:nodetypes="csssssc"
       style="fill:none;fill-opacity:0.75;fill-rule:evenodd;stroke:#000000;stroke-width:4;stroke-linecap:butt;stroke-linejoin:miter;stroke-miterlimit:4;stroke-dasharray:none;stroke-opacity:1" />
    <path
       d="M 215.97498,478.72162 C 251.74154,478.72162 275.69542,414.3336 282.00555,393.43214 C 286.09889,379.8735 323.88828,336.3583 349.47336,328.68824 C 394.35606,315.23301 444.89875,324.56133 461.25582,342.26666 C 479.21183,361.70274 486.97544,403.06159 481.47289,434.70124 C 475.97035,466.34089 456.71143,491.10235 458.08707,500.73181 C 459.4627,510.36127 467.71653,521.36636 467.71653,521.36636"
       id="path7418"
       sodipodi:nodetypes="csssssc"
       style="fill:none;fill-opacity:0.75;fill-rule:evenodd;stroke:#000000;stroke-width:4;stroke-linecap:butt;stroke-linejoin:miter;stroke-miterlimit:4;stroke-dasharray:none;stroke-opacity:1" />
    <path
       d="M 228.11618,449.83325 C 240.49691,449.83325 273.63591,378.1001 293.25019,354.28465 C 314.64088,328.3123 363.7416,308.11993 388.49764,307.60197 C 442.79762,306.46587 479.84717,331.39291 489.30925,350.15774 C 498.67925,368.73998 505.52834,394.37985 502.82607,418.5221 C 499.87559,444.88192 483.01887,476.38086 482.60899,485.5998 C 482.19151,494.98973 480.24783,501.45043 485.36027,504.85872"
       id="path8178"
       sodipodi:nodetypes="cssssss"
       style="fill:none;fill-opacity:0.75;fill-rule:evenodd;stroke:#000000;stroke-width:4;stroke-linecap:butt;stroke-linejoin:miter;stroke-miterlimit:4;stroke-dasharray:none;stroke-opacity:1" />
    <path
       d="M 327.40157,299.88883 C 361.79249,269.62482 391.49815,269.67194 419.56924,273.75173 C 444.40649,277.36152 485.52991,290.89351 496.6049,305.39138 C 508.5614,321.0432 516.99229,341.475 518.61509,359.04122 C 520.40471,378.41317 519.10942,402.92179 517.41672,408.56414"
       id="path8180"
       sodipodi:nodetypes="cssss"
       style="fill:none;fill-opacity:0.75;fill-rule:evenodd;stroke:#000000;stroke-width:4;stroke-linecap:butt;stroke-linejoin:miter;stroke-miterlimit:4;stroke-dasharray:none;stroke-opacity:1" />
    <path
       d="M 317.74475,362.37416 C 352.13567,332.11015 375.04757,335.41154 403.09584,339.64535 C 430.77333,343.82319 449.74286,353.94689 460.81785,368.44476 C 472.77435,384.09658 468.70817,423.84202 470.33097,441.40824"
       id="path2075"
       sodipodi:nodetypes="csss"
       style="fill:none;fill-opacity:0.75;fill-rule:evenodd;stroke:#000000;stroke-width:4;stroke-linecap:butt;stroke-linejoin:miter;stroke-miterlimit:4;stroke-opacity:1" />
    <path
       d="M 308.08792,325.45101 C 342.47884,295.187 385.06731,288.26802 413.32071,290.79319 C 440.9982,293.26688 477.57723,307.36692 488.65222,321.86479 C 500.60872,337.51661 505.63132,348.85963 507.25412,366.42585"
       id="path2077"
       sodipodi:nodetypes="csss"
       style="fill:none;fill-opacity:0.75;fill-rule:evenodd;stroke:#000000;stroke-width:4;stroke-linecap:butt;stroke-linejoin:miter;stroke-miterlimit:4;stroke-opacity:1" />
    <path
       d="M 350.69156,352.14929 C 372.58542,345.74332 389.95511,349.70179 417.29706,357.25486 C 442.70235,364.27294 456.55944,390.302 459.68176,406.50401"
       id="path2079"
       sodipodi:nodetypes="css"
       style="fill:none;fill-opacity:0.75;fill-rule:evenodd;stroke:#000000;stroke-width:4;stroke-linecap:butt;stroke-linejoin:miter;stroke-miterlimit:4;stroke-opacity:1" />
  </g>
</svg>
