<?xml version="1.0" encoding="UTF-8" standalone="no"?>
<!-- Created with Inkscape (http://www.inkscape.org/) -->
<svg
   xmlns:dc="http://purl.org/dc/elements/1.1/"
   xmlns:cc="http://creativecommons.org/ns#"
   xmlns:rdf="http://www.w3.org/1999/02/22-rdf-syntax-ns#"
   xmlns:svg="http://www.w3.org/2000/svg"
   xmlns="http://www.w3.org/2000/svg"
   xmlns:sodipodi="http://sodipodi.sourceforge.net/DTD/sodipodi-0.dtd"
   xmlns:inkscape="http://www.inkscape.org/namespaces/inkscape"
   height="398.2121"
   id="svg1487"
   inkscape:version="0.46"
   sodipodi:docbase="/home/bpcomp/Susan"
   sodipodi:docname="handwithstar_susan_park_01.svg"
   sodipodi:version="0.32"
   width="663.56183"
   inkscape:output_extension="org.inkscape.output.svg.inkscape"
   version="1.0">
  <metadata
     id="metadata3">
    <rdf:RDF>
      <cc:Work
         rdf:about="">
        <dc:title>Handwithstar</dc:title>
        <dc:description>hand star</dc:description>
        <dc:subject>
          <rdf:Bag>
            <rdf:li>icon</rdf:li>
            <rdf:li>shape</rdf:li>
            <rdf:li>appicon</rdf:li>
          </rdf:Bag>
        </dc:subject>
        <dc:publisher>
          <cc:Agent
             rdf:about="http://www.openclipart.org/">
            <dc:title>Open Clip Art Library</dc:title>
          </cc:Agent>
        </dc:publisher>
        <dc:creator>
          <cc:Agent>
            <dc:title>Susan Park</dc:title>
          </cc:Agent>
        </dc:creator>
        <dc:rights>
          <cc:Agent>
            <dc:title>Susan Park</dc:title>
          </cc:Agent>
        </dc:rights>
        <dc:date />
        <dc:format>image/svg+xml</dc:format>
        <dc:type
           rdf:resource="http://purl.org/dc/dcmitype/StillImage" />
        <cc:license
           rdf:resource="http://web.resource.org/cc/PublicDomain" />
        <dc:language>en</dc:language>
      </cc:Work>
      <cc:License
         rdf:about="http://web.resource.org/cc/PublicDomain">
        <cc:permits
           rdf:resource="http://web.resource.org/cc/Reproduction" />
        <cc:permits
           rdf:resource="http://web.resource.org/cc/Distribution" />
        <cc:permits
           rdf:resource="http://web.resource.org/cc/DerivativeWorks" />
      </cc:License>
    </rdf:RDF>
  </metadata>
  <defs
     id="defs3">
    <inkscape:perspective
       sodipodi:type="inkscape:persp3d"
       inkscape:vp_x="0 : 231.25 : 1"
       inkscape:vp_y="0 : 1000 : 0"
       inkscape:vp_z="712.5 : 231.25 : 1"
       inkscape:persp3d-origin="356.25 : 154.16667 : 1"
       id="perspective35" />
  </defs>
  <sodipodi:namedview
     bordercolor="#666666"
     borderopacity="1.0"
     id="base"
     inkscape:current-layer="layer1"
     inkscape:cx="358.71973"
     inkscape:cy="364.96531"
     inkscape:document-units="px"
     inkscape:pageopacity="0.0"
     inkscape:pageshadow="2"
     inkscape:window-height="914"
     inkscape:window-width="1276"
     inkscape:window-x="0"
     inkscape:window-y="46"
     inkscape:zoom="0.85910639"
     pagecolor="#ffffff"
     showgrid="false" />
  <g
     id="layer1"
     inkscape:groupmode="layer"
     inkscape:label="Layer 1"
     transform="translate(-28.507259,-36.118386)">
    <g
       id="g1332"
       transform="matrix(0.942014,0,0,0.942014,-90.30679,-370.3336)">
      <path
         d="M 129.04089,441.90179 L 413.15238,439.37641 L 627.56335,499.48048 L 682.61666,547.2859 L 825.55324,759.74619 L 682.48734,854.19545 L 594.28688,693.32866 L 518.20825,700.14719 L 343.19323,747.62436 L 282.58408,677.59559 L 281.57392,647.63195 L 245.71351,599.31511 L 258.08788,501.41554 L 148.10752,479.73989 L 129.04089,441.90179 z"
         id="rect3967"
         sodipodi:nodetypes="ccccccccccccccc"
         style="fill:#fdf6e0;fill-opacity:1;fill-rule:nonzero;stroke:none;stroke-width:2.3956852;stroke-linecap:round;stroke-linejoin:miter;stroke-miterlimit:4;stroke-dashoffset:0;stroke-opacity:1" />
      <path
         d="M 427.90091,571.35126 C 449.86253,624.72444 437.86144,654.85606 410.20411,665.27017 C 362.34374,670.63351 356.72591,687.7105 338.80489,642.41855 C 331.99554,622.38041 334.90526,572.04573 341.34937,550.51994 C 361.74404,534.70629 381.50223,562.40539 398.50405,557.84977 C 423.04867,551.27306 430.05208,565.87788 427.90091,571.35126 z"
         id="path4030"
         sodipodi:nodetypes="ccccsc"
         style="fill:#ffffff;fill-opacity:1;fill-rule:nonzero;stroke:none;stroke-width:3;stroke-linecap:round;stroke-linejoin:miter;stroke-miterlimit:4;stroke-dashoffset:0;stroke-opacity:1" />
      <path
         d="M 142.57285,441.19173 C 142.35062,445.45097 137.08076,469.87742 160.86354,478.16701 C 210.81603,489.82217 327.37119,501.0088 370.35503,502.83732 C 377.99401,503.18664 364.13682,513.06784 356.78889,512.59085 C 313.76176,510.12531 205.95958,501.63911 145.75648,488.34741 C 127.84753,478.7191 126.11794,453.87722 126.12773,449.57094 L 142.57285,441.19173 z"
         id="path1497"
         sodipodi:nodetypes="ccccccc"
         style="fill:#000000;fill-opacity:1;fill-rule:nonzero;stroke:none;stroke-width:1pt;stroke-linecap:butt;stroke-linejoin:miter;stroke-opacity:1" />
      <path
         d="M 147.38526,431.47128 C 198.39812,438.00091 309.47696,440.95632 375.8733,436.90203 L 361.20661,447.55733 C 306.9371,452.59216 196.08253,451.71525 131.6585,441.10865 L 147.38526,431.47128 z"
         id="path1499"
         sodipodi:nodetypes="ccccc"
         style="fill:#000000;fill-opacity:1;fill-rule:nonzero;stroke:none;stroke-width:1pt;stroke-linecap:butt;stroke-linejoin:miter;stroke-opacity:1" />
      <path
         d="M 380.33305,431.75497 C 390.59143,431.77173 400.80676,432.27552 410.6707,435.27979 C 462.99704,455.91338 529.65237,473.27427 631.08911,490.45202 L 617.69415,499.83882 C 527.75494,485.05723 449.76987,463.6842 396.18711,445.22892 C 386.08692,442.83229 375.76934,441.98997 365.40119,442.6036 L 380.33305,431.75497 z"
         id="path1501"
         sodipodi:nodetypes="ccccccc"
         style="fill:#000000;fill-opacity:1;fill-rule:nonzero;stroke:none;stroke-width:1pt;stroke-linecap:butt;stroke-linejoin:miter;stroke-opacity:1" />
      <path
         d="M 380.96885,503.82119 C 380.46659,521.45023 387.68855,526.70107 390.80295,531.25262 C 394.98348,536.04823 426.2299,540.22716 428.5914,540.69007 L 413.61767,551.02387 C 411.27988,550.74967 387.1067,549.82088 375.26397,540.58722 C 371.88031,535.96149 365.2554,526.47877 364.52373,512.2004 L 380.96885,503.82119 z"
         id="path1521"
         sodipodi:nodetypes="ccccccc"
         style="fill:#000000;fill-opacity:1;fill-rule:nonzero;stroke:none;stroke-width:1pt;stroke-linecap:butt;stroke-linejoin:miter;stroke-opacity:1" />
      <path
         d="M 429.83052,526.70931 C 434.56108,543.27616 433.22021,543.66208 433.45637,560.91899 C 432.86405,584.56736 436.32721,591.32785 440.8131,614.29456 C 438.96034,619.73364 438.76706,623.37713 435.05552,630.10048 C 431.03188,606.79902 419.33916,592.18912 418.66361,568.495 C 418.22507,552.7846 416.09741,545.33347 412.87836,531.49702 L 429.83052,526.70931 z"
         id="path1525"
         sodipodi:nodetypes="ccccccc"
         style="fill:#000000;fill-opacity:1;fill-rule:nonzero;stroke:none;stroke-width:1pt;stroke-linecap:butt;stroke-linejoin:miter;stroke-opacity:1" />
      <path
         d="M 366.52844,732.60286 C 386.09681,719.64963 418.33221,726.86748 441.18644,721.02478 C 460.78186,715.02379 509.68972,692.97862 530.11946,692.11413 L 525.29729,706.17967 C 505.38658,706.44771 458.90435,727.50368 439.64325,732.22578 C 415.78538,738.39384 377.17351,732.2101 356.38765,745.47656 L 366.52844,732.60286 z"
         id="path1539"
         sodipodi:nodetypes="ccccccc"
         style="fill:#000000;fill-opacity:1;fill-rule:nonzero;stroke:none;stroke-width:1pt;stroke-linecap:butt;stroke-linejoin:miter;stroke-opacity:1" />
      <path
         d="M 270.20681,499.31626 C 263.4468,517.03385 268.19407,559.99737 259.63891,594.55392 C 259.68395,596.28946 243.54955,604.50393 243.40517,602.82815 C 249.84105,567.45875 246.26545,518.15583 251.64466,501.96801 L 270.20681,499.31626 z"
         id="path1545"
         sodipodi:nodetypes="ccccc"
         style="fill:#000000;fill-opacity:1;fill-rule:nonzero;stroke:none;stroke-width:1pt;stroke-linecap:butt;stroke-linejoin:miter;stroke-opacity:1" />
      <path
         d="M 260.7957,596.12413 C 268.16379,616.26263 285.69193,620.82581 298.36837,646.00169 L 283.63634,655.374 C 275.10734,631.2076 254.33711,624.57857 244.7639,604.95354 L 260.7957,596.12413 z"
         id="path1549"
         sodipodi:nodetypes="ccccc"
         style="fill:#000000;fill-opacity:1;fill-rule:nonzero;stroke:none;stroke-width:1pt;stroke-linecap:butt;stroke-linejoin:miter;stroke-opacity:1" />
      <path
         d="M 363.41603,525.88804 C 352.00943,523.43479 310.98747,544.65765 298.04304,546.52265 L 299.07708,538.11983 C 302.4124,537.98469 352.31914,516.15521 362.91879,514.58748 C 362.91879,514.58748 360.63938,519.07788 363.41603,525.88804 z"
         id="path1551"
         sodipodi:nodetypes="ccccc"
         style="fill:#000000;fill-opacity:1;fill-rule:nonzero;stroke:none;stroke-width:1pt;stroke-linecap:butt;stroke-linejoin:miter;stroke-opacity:1" />
      <path
         d="M 315.30893,541.19684 C 314.42125,550.60457 308.65231,565.49873 309.17924,574.36655 L 292.89864,582.57791 C 293.06151,580.00477 298.51827,558.8003 298.86381,549.57605 L 315.30893,541.19684 z"
         id="path1555"
         sodipodi:nodetypes="ccccc"
         style="fill:#000000;fill-opacity:1;fill-rule:nonzero;stroke:none;stroke-width:1pt;stroke-linecap:butt;stroke-linejoin:miter;stroke-opacity:1" />
      <path
         d="M 310.98177,575.67917 C 318.44663,580.71132 321.8336,586.6689 326.76223,594.30664 C 331.33816,603.03952 341.65004,633.19289 334.45823,646.10023 L 325.06072,643.97546 C 327.92511,626.05734 319.84154,611.85205 315.15252,603.35823 C 310.43081,595.99226 303.36644,589.75715 295.59309,585.80438 L 310.98177,575.67917 z"
         id="path1565"
         sodipodi:nodetypes="ccccccc"
         style="fill:#000000;fill-opacity:1;fill-rule:nonzero;stroke:none;stroke-width:1pt;stroke-linecap:butt;stroke-linejoin:miter;stroke-opacity:1" />
      <path
         d="M 367.17983,545.63916 C 360.38545,546.28904 339.26179,551.30411 335.26992,551.54795 L 349.88715,540.80152 C 353.73828,540.30838 375.07283,535.26252 382.11169,534.79053 L 367.17983,545.63916 z"
         id="path1567"
         sodipodi:nodetypes="ccccc"
         style="fill:#000000;fill-opacity:1;fill-rule:nonzero;stroke:none;stroke-width:1pt;stroke-linecap:butt;stroke-linejoin:miter;stroke-opacity:1" />
      <path
         d="M 346.11858,543.21714 C 346.07028,548.66185 347.31435,561.2514 337.31214,569.94892 L 324.98032,577.89619 C 335.07917,565.94412 334.1123,557.80352 334.21915,552.6065 L 346.11858,543.21714 z"
         id="path1569"
         sodipodi:nodetypes="ccccc"
         style="fill:#000000;fill-opacity:1;fill-rule:nonzero;stroke:none;stroke-width:1pt;stroke-linecap:butt;stroke-linejoin:miter;stroke-opacity:1" />
      <path
         d="M 338.03736,574.02679 C 339.66399,587.53306 351.57933,601.64495 342.5539,617.37138 L 330.41598,623.25291 C 340.32535,604.80795 329.76549,594.38069 326.13793,580.89077 L 338.03736,574.02679 z"
         id="path1571"
         sodipodi:nodetypes="ccccc"
         style="fill:#000000;fill-opacity:1;fill-rule:nonzero;stroke:none;stroke-width:1pt;stroke-linecap:butt;stroke-linejoin:miter;stroke-opacity:1" />
      <path
         d="M 349.37144,674.59329 C 352.52353,660.0466 333.14032,656.17789 326.79927,653.69406 C 314.05135,650.20546 305.66108,651.10579 293.59897,653.86784 L 281.9203,657.74111 C 282.31751,642.08869 312.95202,632.33744 333.78473,639.08784 C 340.24249,641.74528 362.72421,650.63282 362.28103,667.22423 L 349.37144,674.59329 z"
         id="path1573"
         sodipodi:nodetypes="ccccccc"
         style="fill:#000000;fill-opacity:1;fill-rule:nonzero;stroke:none;stroke-width:1pt;stroke-linecap:butt;stroke-linejoin:miter;stroke-opacity:1" />
      <path
         d="M 292.06251,652.44103 C 289.90731,672.60531 299.4761,682.73566 312.88201,689.82388 L 299.70788,698.69709 C 288.41109,692.7779 277.943,678.58107 278.1686,659.79692 L 292.06251,652.44103 z"
         id="path1579"
         sodipodi:nodetypes="ccccc"
         style="fill:#000000;fill-opacity:1;fill-rule:nonzero;stroke:none;stroke-width:1pt;stroke-linecap:butt;stroke-linejoin:miter;stroke-opacity:1" />
      <path
         d="M 368.47574,665.26628 C 375.84312,663.44144 383.50286,662.1578 391.08637,661.31941 C 397.85253,660.98159 434.35252,655.56523 431.2673,672.1657 L 415.08605,680.58733 C 416.78662,668.63555 383.22362,671.6493 376.54307,672.10858 C 369.01275,672.9729 361.30404,674.09586 354.1389,676.56367 C 336.01221,683.00027 359.24296,668.65289 368.47574,665.26628 z"
         id="path1587"
         sodipodi:nodetypes="ccccccc"
         style="fill:#000000;fill-opacity:1;fill-rule:nonzero;stroke:none;stroke-width:1pt;stroke-linecap:butt;stroke-linejoin:miter;stroke-opacity:1" />
      <path
         d="M 531.85593,694.39463 C 571.2503,697.81707 569.4615,693.95335 604.48884,670.78926 L 608.20671,685.59113 C 555.62842,725.9306 569.12243,712.28841 515.91392,710.29402 L 531.85593,694.39463 z"
         id="path1591"
         sodipodi:nodetypes="ccccc"
         style="fill:#000000;fill-opacity:1;fill-rule:nonzero;stroke:none;stroke-width:1pt;stroke-linecap:butt;stroke-linejoin:miter;stroke-opacity:1" />
      <path
         d="M 628.83058,490.34382 C 639.4081,496.54577 648.98157,505.15194 658.68375,512.79351 C 699.1298,539.73202 723.139,558.1995 737.39266,600.25 C 770.7148,660.26532 792.03165,692.43438 830.53532,755.00483 L 814.8519,763.14537 C 780.71587,704.02003 761.84153,687.6276 723.37522,607.24211 C 704.85232,564.2181 687.43503,548.67053 644.59073,521.68669 C 634.98754,514.5243 624.92543,505.51047 613.89872,501.19245 L 628.83058,490.34382 z"
         id="path1593"
         sodipodi:nodetypes="ccccccccc"
         style="fill:#000000;fill-opacity:1;fill-rule:nonzero;stroke:none;stroke-width:1pt;stroke-linecap:butt;stroke-linejoin:miter;stroke-opacity:1" />
      <path
         d="M 614.3967,698.96602 C 653.49739,755.05783 674.21092,814.74788 677.82445,822.93816 L 668.79916,837.97282 C 665.46925,829.54339 640.84186,763.23543 605.21501,714.91006 L 614.3967,698.96602 z"
         id="path1595"
         sodipodi:nodetypes="ccccc"
         style="fill:#000000;fill-opacity:1;fill-rule:nonzero;stroke:none;stroke-width:1pt;stroke-linecap:butt;stroke-linejoin:miter;stroke-opacity:1" />
      <path
         d="M 337.24961,744.29382 C 330.31258,730.18238 306.24417,702.88024 303.15639,699.69925 L 318.32588,690.50451 C 321.19544,693.88938 345.12356,721.63821 353.69473,735.91461 L 337.24961,744.29382 z"
         id="path1605"
         sodipodi:nodetypes="ccccc"
         style="fill:#000000;fill-opacity:1;fill-rule:nonzero;stroke:none;stroke-width:1pt;stroke-linecap:butt;stroke-linejoin:miter;stroke-opacity:1" />
      <path
         d="M 451.8229,584.54673 C 451.73643,611.03291 447.5175,621.68715 438.99329,638.30977 C 437.05366,642.01504 427.60937,647.73839 429.93832,644.5023 C 440.05046,625.22371 445.36732,610.8932 442.98672,591.78372 L 451.8229,584.54673 z"
         id="path1607"
         sodipodi:nodetypes="ccccc"
         style="fill:#000000;fill-opacity:1;fill-rule:nonzero;stroke:none;stroke-width:1pt;stroke-linecap:butt;stroke-linejoin:miter;stroke-opacity:1" />
      <path
         d="M 488.60299,613.37013 C 479.09939,619.18077 446.51811,639.42985 419.1885,663.04855 C 419.1885,663.04855 419.27201,660.37252 424.84108,652.65842 C 431.21699,645.06031 472.53365,613.54659 488.17771,607.5215 L 488.60299,613.37013 z"
         id="path1527"
         sodipodi:nodetypes="ccccc"
         style="fill:#000000;fill-opacity:1;fill-rule:nonzero;stroke:none;stroke-width:1pt;stroke-linecap:butt;stroke-linejoin:miter;stroke-opacity:1" />
      <path
         d="M 368.60867,541.5779 C 376.14544,548.53192 386.9924,550.99683 396.43655,554.88895 C 401.55664,556.53838 415.05963,554.08711 420.36201,554.05411 C 420.69752,554.05308 421.03304,554.05204 421.36855,554.05101 L 406.61276,564.78054 C 406.27758,564.78213 405.9424,564.78372 405.60723,564.78531 C 400.16535,564.81413 394.65556,565.07606 389.52138,562.91856 C 379.93134,558.5803 370.35627,553.50179 361.97328,547.17466 L 368.60867,541.5779 z"
         id="path3125"
         sodipodi:nodetypes="ccccccccc"
         style="fill:#000000;fill-opacity:1;fill-rule:nonzero;stroke:none;stroke-width:1pt;stroke-linecap:butt;stroke-linejoin:miter;stroke-opacity:1" />
    </g>
  </g>
</svg>
