<?xml version="1.0" encoding="UTF-8" standalone="no"?>
<svg
   xmlns:dc="http://purl.org/dc/elements/1.1/"
   xmlns:cc="http://creativecommons.org/ns#"
   xmlns:rdf="http://www.w3.org/1999/02/22-rdf-syntax-ns#"
   xmlns:svg="http://www.w3.org/2000/svg"
   xmlns="http://www.w3.org/2000/svg"
   xmlns:sodipodi="http://sodipodi.sourceforge.net/DTD/sodipodi-0.dtd"
   xmlns:inkscape="http://www.inkscape.org/namespaces/inkscape"
   height="923.17114"
   id="svg1"
   inkscape:version="0.46"
   sodipodi:docbase="/home/tapio/Desktop/tiedostot/kuvat/clipart/people"
   sodipodi:docname="a_boy_plays_soccer_01.svg"
   sodipodi:version="0.32"
   viewBox="0 0 241 299"
   width="628.82776"
   inkscape:output_extension="org.inkscape.output.svg.inkscape"
   version="1.0">
  <metadata
     id="metadata3">
    <rdf:RDF>
      <cc:Work
         rdf:about="">
        <dc:title>A boy plays soccer</dc:title>
        <dc:description />
        <dc:subject>
          <rdf:Bag>
            <rdf:li />
            <rdf:li>people</rdf:li>
            <rdf:li>sports</rdf:li>
            <rdf:li>recreation</rdf:li>
          </rdf:Bag>
        </dc:subject>
        <dc:publisher>
          <cc:Agent
             rdf:about="http://www.openclipart.org">
            <dc:title>Tapio Kautto</dc:title>
          </cc:Agent>
        </dc:publisher>
        <dc:creator>
          <cc:Agent>
            <dc:title>Tapio Kautto</dc:title>
          </cc:Agent>
        </dc:creator>
        <dc:rights>
          <cc:Agent>
            <dc:title>Tapio Kautto</dc:title>
          </cc:Agent>
        </dc:rights>
        <dc:date />
        <dc:format>image/svg+xml</dc:format>
        <dc:type
           rdf:resource="http://purl.org/dc/dcmitype/StillImage" />
        <cc:license
           rdf:resource="http://web.resource.org/cc/PublicDomain" />
        <dc:language>en</dc:language>
      </cc:Work>
      <cc:License
         rdf:about="http://web.resource.org/cc/PublicDomain">
        <cc:permits
           rdf:resource="http://web.resource.org/cc/Reproduction" />
        <cc:permits
           rdf:resource="http://web.resource.org/cc/Distribution" />
        <cc:permits
           rdf:resource="http://web.resource.org/cc/DerivativeWorks" />
      </cc:License>
    </rdf:RDF>
  </metadata>
  <defs
     id="defs265">
    <inkscape:perspective
       sodipodi:type="inkscape:persp3d"
       inkscape:vp_x="0 : 526.18109 : 1"
       inkscape:vp_y="0 : 1000 : 0"
       inkscape:vp_z="744.09448 : 526.18109 : 1"
       inkscape:persp3d-origin="372.04724 : 350.78739 : 1"
       id="perspective267" />
  </defs>
  <sodipodi:namedview
     bordercolor="#666666"
     borderopacity="1.0"
     id="base"
     inkscape:cx="305.25953"
     inkscape:cy="417.84947"
     inkscape:pageopacity="0.0"
     inkscape:pageshadow="2"
     inkscape:window-height="525"
     inkscape:window-width="640"
     inkscape:window-x="377"
     inkscape:window-y="180"
     inkscape:zoom="0.43415836"
     pagecolor="#ffffff"
     showgrid="false" />
  <path
     d="M 118.0387,31.761075 L 108.81052,8.6906438 L 111.11757,8.6906438 L 111.11757,13.30473 L 116.88517,14.458251 L 118.0387,9.8441654 L 114.57813,9.8441654 L 114.57813,8.6906438 L 114.57813,7.5371226 L 120.34574,7.5371226 L 122.65278,20.225859 L 128.42039,16.765295 L 130.72743,19.072338 L 134.188,27.146988 L 150.3373,23.686424 L 158.41195,23.686424 L 160.71899,25.993467 L 163.02604,19.072338 L 166.4866,24.839945 L 166.4866,17.918816 L 163.02604,17.918816 L 163.02604,4.076558 L 160.71899,8.6906438 L 159.56547,8.6906438 L 159.56547,4.076558 L 154.95139,10.997686 L 154.95139,12.151208 L 156.10491,16.765295 L 153.79786,8.6906438 L 152.64434,4.076558 L 149.18378,8.6906438 L 136.49504,9.8441654 C 137.15832,7.0802127 137.04296,6.9753576 134.188,6.3836011 C 135.17311,3.2722074 135.16964,2.4777771 131.88095,1.7695149 L 141.10913,-6.3051359 L 129.57391,-0.5375282 L 148.03026,-14.379787 L 129.57391,-12.072744 L 127.26687,-16.68683 L 145.72321,-21.300916 C 129.33398,-24.516185 121.78995,-13.091546 113.88948,-0.66118571 C 110.82457,4.1594962 106.31084,9.5542854 106.86799,15.641188 C 107.48743,22.410514 113.3231,27.519807 118.0387,31.761075 z"
     id="path3"
     style="fill:#a4c3e4;stroke:none" />
  <path
     d="M 127.26687,-16.68683 L 129.57391,-12.072744 L 148.03026,-14.379787 L 129.57391,-0.5375282 L 141.10913,-6.3051359 L 131.88095,1.7695149 L 134.188,6.3836011 L 136.49504,9.8441654 L 149.18378,8.6906438 L 152.64434,4.076558 L 153.79786,8.6906438 L 156.10491,16.765295 L 154.95139,12.151208 L 154.95139,10.997686 L 159.56547,4.076558 L 159.56547,8.6906438 L 160.71899,8.6906438 L 163.02604,4.076558 L 163.02604,17.918816 L 166.4866,17.918816 C 166.47161,7.0907098 167.08182,-4.5900801 159.56547,-13.226266 L 161.87251,-1.6910498 L 158.41195,-13.226266 L 151.49082,-15.533309 L 153.79786,-20.147395 L 156.10491,-20.147395 C 158.43156,-17.080435 160.11916,-16.112953 163.02604,-18.993873 L 166.4866,-17.840352 L 165.33308,-12.072744 L 184.94295,-2.8445713 C 174.27979,-25.372455 147.51463,-25.831119 127.26687,-16.68683 z"
     id="path4"
     style="fill:#acc8e6;stroke:none" />
  <path
     d="M 164.17956,-22.454438 L 195.32464,1.7695149 C 190.65057,-12.494679 178.50514,-20.177248 164.17956,-22.454438 z"
     id="path5"
     style="fill:#78708b;stroke:none" />
  <path
     d="M 153.79786,-20.147395 L 151.49082,-15.533309 L 158.41195,-13.226266 L 161.87251,-1.6910498 L 159.56547,-13.226266 C 167.5663,-1.9285598 166.4866,11.609168 166.4866,24.839945 L 163.02604,19.072338 L 160.71899,25.993467 L 158.41195,23.686424 L 150.3373,23.686424 L 134.188,27.146988 L 128.42039,16.765295 L 122.65278,20.225859 L 121.49926,14.458251 C 117.72378,16.972006 118.53702,19.92975 122.65278,21.379381 L 120.34574,24.839945 L 133.03448,25.993467 L 142.26265,34.068118 L 143.41617,34.068118 L 150.3373,32.914596 L 151.49082,29.454032 L 153.79786,31.761075 L 154.95139,31.761075 L 156.10491,31.761075 C 166.55466,27.571023 181.57236,25.852391 191.86407,30.607553 L 183.78942,7.5371226 L 195.32464,23.686424 L 188.40351,4.076558 L 194.17112,8.6906438 C 192.87571,-2.6853853 186.67323,-10.020513 176.86829,-15.533309 L 184.94295,-2.8445713 L 165.33308,-12.072744 L 163.02604,-18.993873 L 156.10491,-20.147395 L 153.79786,-20.147395 z"
     id="path7"
     style="fill:#95b6dc;stroke:none" />
  <path
     d="M 121.49926,-15.533309 L 109.96405,5.2300795 L 121.49926,-15.533309 z"
     id="path8"
     style="fill:#808eb2;stroke:none" />
  <path
     d="M 194.17112,1.7695149 L 194.17112,8.6906438 L 188.40351,4.076558 L 195.32464,23.686424 L 191.86407,20.225859 L 195.32464,31.761075 L 209.1669,32.914596 C 205.64635,45.199255 194.74903,39.444566 186.09647,44.449812 C 190.71632,45.56619 195.26466,47.205113 199.94334,48.043493 C 211.55238,50.123638 220.13112,41.385366 215.66122,29.648861 C 211.91689,19.816359 199.93527,11.227237 194.17112,1.7695149 z"
     id="path9"
     style="fill:#9dabc4;stroke:none" />
  <path
     d="M 196.47816,4.076558 L 198.7852,9.8441654 L 196.47816,4.076558 z"
     id="path10"
     style="fill:#716265;stroke:none" />
  <path
     d="M 115.73165,6.3836011 L 114.57813,9.8441654 L 115.73165,6.3836011 z"
     id="path11"
     style="fill:#e8f2be;stroke:none" />
  <path
     d="M 116.88517,6.3836011 L 116.88517,14.458251 L 111.11757,13.30473 L 111.11757,8.6906438 L 108.81052,8.6906438 C 111.95272,18.608507 118.96613,28.919605 127.26687,35.221639 C 127.90131,31.557593 127.72366,29.135775 123.8063,28.30051 L 124.95983,24.839945 L 120.34574,24.839945 L 122.65278,21.379381 C 119.79897,18.9601 119.54635,17.654083 121.49926,14.458251 L 119.19222,6.3836011 L 116.88517,6.3836011 z"
     id="path12"
     style="fill:#75c8c6;stroke:none" />
  <path
     d="M 121.49926,6.3836011 L 121.49926,8.6906438 L 123.8063,8.6906438 L 123.8063,6.3836011 L 121.49926,6.3836011 z"
     id="path13"
     style="fill:#59bcb8;stroke:none" />
  <path
     d="M 119.57634,8.3061754 L 119.96162,9.0751128 L 119.57634,8.3061754 z"
     id="path14"
     style="fill:#f5fbc5;stroke:none" />
  <path
     d="M 183.78942,7.5371226 L 191.86407,30.607553 C 182.24832,25.323155 165.90753,26.930703 156.10491,31.761075 L 154.95139,31.761075 L 153.79786,31.761075 L 151.49082,29.454032 L 150.3373,32.914596 L 143.41617,34.068118 L 142.26265,34.068118 L 133.03448,25.993467 L 122.65278,23.686424 L 123.8063,28.30051 L 127.26687,35.221639 L 120.34574,27.146988 L 116.88517,31.761075 L 116.88517,32.914596 C 122.11293,39.49336 140.22322,65.740935 146.87673,49.063898 L 149.18378,49.063898 L 149.18378,55.985027 C 160.52059,53.74385 173.54039,49.769161 180.32886,39.835725 L 182.6359,42.142768 L 183.78942,42.142768 C 193.34058,40.470162 207.04903,46.408145 209.1669,32.914596 L 195.32464,31.761075 L 183.78942,7.5371226 z"
     id="path15"
     style="fill:#80a2d2;stroke:none" />
  <path
     d="M 141.10913,14.458251 L 146.87673,13.30473 L 146.87673,10.997686 C 143.25814,10.427385 142.26265,10.956275 141.10913,14.458251 z"
     id="path16"
     style="fill:#85a6da;stroke:none" />
  <path
     d="M 105.34996,10.997686 L 105.34996,35.221639 L 113.42461,31.761075 L 120.34574,36.375161 L 105.34996,10.997686 z"
     id="path17"
     style="fill:#a6815c;stroke:none" />
  <path
     d="M 178.02182,12.151208 L 178.02182,15.611773 L 181.48238,15.611773 L 181.48238,12.151208 L 178.02182,12.151208 z"
     id="path18"
     style="fill:#6989cb;stroke:none" />
  <path
     d="M 198.7852,12.151208 L 213.78098,23.686424 L 198.7852,12.151208 z"
     id="path19"
     style="fill:#74656c;stroke:none" />
  <path
     d="M 121.49926,13.30473 L 121.49926,17.918816 L 123.8063,17.918816 L 123.8063,13.30473 L 121.49926,13.30473 z"
     id="path20"
     style="fill:#e9eeb7;stroke:none" />
  <path
     d="M 213.78098,23.686424 L 219.54859,32.914596 L 213.78098,23.686424 z"
     id="path21"
     style="fill:#7d6f7c;stroke:none" />
  <path
     d="M 113.42461,31.761075 C 98.955289,41.275436 109.63068,54.419237 121.61692,61.200213 C 130.75512,66.369374 141.46441,63.182194 149.18378,57.138549 C 138.5956,56.778881 133.85002,51.342449 124.95983,46.756855 L 124.95983,51.370941 L 115.73165,40.989247 L 121.49926,40.989247 L 113.42461,31.761075 z"
     id="path22"
     style="fill:#885a41;stroke:none" />
  <path
     d="M 217.24155,31.761075 C 215.5874,51.28881 201.82127,49.07601 187.24999,43.29629 L 186.09647,44.449812 L 186.09647,46.756855 C 201.73476,54.257859 221.35501,54.73484 217.24155,31.761075 z"
     id="path23"
     style="fill:#dad0c1;stroke:none" />
  <path
     d="M 218.39507,32.914596 L 217.24155,47.910376 L 218.39507,32.914596 z"
     id="path24"
     style="fill:#b7ab95;stroke:none" />
  <path
     d="M 121.49926,38.682204 L 115.73165,40.989247 L 124.95983,51.370941 L 121.49926,38.682204 z"
     id="path25"
     style="fill:#8287a1;stroke:none" />
  <path
     d="M 180.32886,39.835725 L 171.10069,51.370941 L 181.48238,44.449812 L 184.94295,45.603333 L 188.40351,39.835725 L 180.32886,39.835725 z"
     id="path26"
     style="fill:#868ba6;stroke:none" />
  <path
     d="M 124.95983,44.449812 L 124.95983,46.756855 L 133.03448,50.217419 L 124.95983,44.449812 z"
     id="path27"
     style="fill:#b59c72;stroke:none" />
  <path
     d="M 181.48238,44.449812 L 171.10069,51.370941 L 171.10069,55.985027 L 182.6359,47.910376 L 179.17534,62.906156 L 187.24999,47.910376 L 187.24999,46.756855 L 186.09647,44.449812 L 181.48238,44.449812 z"
     id="path28"
     style="fill:#ba9d84;stroke:none" />
  <path
     d="M 83.433042,55.985027 L 107.657,50.217419 L 106.50348,46.756855 C 97.70937,48.383089 90.510704,50.266675 83.433042,55.985027 z"
     id="path29"
     style="fill:#796965;stroke:none" />
  <path
     d="M 171.10069,52.524462 L 169.94717,52.524462 L 169.94717,55.985027 L 154.95139,62.906156 L 156.10491,55.985027 L 137.64856,66.366721 L 145.72321,66.366721 L 127.26687,88.28363 L 138.80208,91.744195 C 137.49976,72.540253 153.75172,74.81915 166.46468,69.534406 C 176.66989,65.292331 180.79142,58.368433 182.6359,47.910376 C 178.82928,49.97864 174.80811,56.947987 171.10069,52.524462 z"
     id="path30"
     style="fill:#d4b094;stroke:none" />
  <path
     d="M 184.94295,47.910376 L 184.94295,52.524462 L 189.55703,47.910376 L 184.94295,47.910376 z"
     id="path31"
     style="fill:#71635c;stroke:none" />
  <path
     d="M 93.814736,53.677984 L 108.81052,52.524462 C 103.06933,49.968259 99.156578,50.434627 93.814736,53.677984 z"
     id="path32"
     style="fill:#b1a9ba;stroke:none" />
  <path
     d="M 146.87673,49.063898 C 144.39666,53.790222 141.68819,55.135574 136.49504,55.985027 L 136.49504,57.138549 L 157.25843,54.831505 L 149.18378,55.985027 L 149.18378,49.063898 L 146.87673,49.063898 z"
     id="path33"
     style="fill:#7d667a;stroke:none" />
  <path
     d="M 163.02604,52.524462 L 171.10069,49.063898 L 163.02604,52.524462 z"
     id="path34"
     style="fill:#b9aac5;stroke:none" />
  <path
     d="M 189.55703,49.063898 L 194.17112,51.370941 L 189.55703,49.063898 z"
     id="path35"
     style="fill:#7e716d;stroke:none" />
  <path
     d="M 169.94717,50.217419 C 163.28096,53.196504 157.73599,55.830686 154.95139,62.906156 L 169.94717,55.985027 L 169.94717,50.217419 z"
     id="path36"
     style="fill:#f7d7be;stroke:none" />
  <path
     d="M 86.893606,55.985027 L 81.125999,73.28785 L 76.511912,73.28785 L 77.665434,79.055458 L 84.586563,76.748415 C 85.8777,68.338435 88.150483,62.511421 94.968257,57.138549 L 92.661214,65.213199 L 90.354171,61.752635 L 90.354171,69.827286 L 86.893606,69.827286 L 92.661214,75.594893 L 89.200649,72.134329 L 94.968257,73.28785 L 96.121779,59.445592 L 98.428822,61.752635 L 105.34996,51.370941 L 86.893606,55.985027 z"
     id="path37"
     style="fill:#e0c2cb;stroke:none" />
  <path
     d="M 194.17112,51.370941 L 203.39929,53.677984 L 194.17112,51.370941 z"
     id="path38"
     style="fill:#725e54;stroke:none" />
  <path
     d="M 103.04292,62.906156 L 104.19644,62.906156 C 105.75946,56.803681 108.38487,55.301566 114.57813,55.985027 C 107.56703,51.358252 103.8896,55.614054 103.04292,62.906156 z"
     id="path39"
     style="fill:#d2aa94;stroke:none" />
  <path
     d="M 157.25843,55.985027 L 163.02604,52.524462 L 157.25843,55.985027 z"
     id="path40"
     style="fill:#b8a4ad;stroke:none" />
  <path
     d="M 88.047128,53.677984 L 88.047128,55.985027 L 93.814736,53.677984 L 88.047128,53.677984 z"
     id="path41"
     style="fill:#b6aeb8;stroke:none" />
  <path
     d="M 104.19644,65.213199 L 105.34996,65.213199 L 105.34996,57.138549 L 112.27109,64.059678 L 122.65278,65.213199 L 121.49926,69.827286 C 127.44451,72.987012 126.24023,78.884967 127.26687,84.823066 L 122.65278,84.823066 C 132.98141,87.450672 139.99944,73.373903 145.72321,66.366721 C 139.84833,66.064498 133.24672,66.673558 127.62331,64.723645 C 118.40552,61.52666 105.54836,47.166124 104.19644,65.213199 z"
     id="path42"
     style="fill:#e9c8b3;stroke:none" />
  <path
     d="M 101.88939,54.831505 C 98.554325,65.604243 101.62258,74.144225 108.81052,82.516023 L 107.657,72.134329 L 101.88939,54.831505 z"
     id="path43"
     style="fill:#7d7a8f;stroke:none" />
  <path
     d="M 82.27952,55.985027 L 62.669654,72.134329 C 63.732855,85.834012 69.027749,96.397501 77.665434,106.73997 L 75.358391,105.58645 L 76.511912,130.96391 L 105.34996,136.73152 L 93.814736,135.578 L 89.200649,144.80617 L 90.354171,151.7273 L 103.04292,141.34561 L 98.428822,141.34561 L 98.428822,139.03857 L 106.50348,137.88504 L 126.11335,160.95547 L 126.11335,152.88082 C 132.67688,150.57263 130.86816,142.97092 128.42039,137.88504 L 133.03448,143.65265 C 143.77953,119.59481 107.94077,113.08664 95.948981,103.05677 C 87.540617,96.022606 83.343528,85.397289 74.204869,79.055458 L 78.818955,70.980807 L 77.665434,64.059678 L 84.586563,55.985027 L 82.27952,55.985027 z"
     id="path44"
     style="fill:#d51763;stroke:none" />
  <path
     d="M 84.586563,55.985027 L 82.27952,62.906156 L 86.893606,55.985027 L 84.586563,55.985027 z"
     id="path45"
     style="fill:#e58fac;stroke:none" />
  <path
     d="M 59.209089,60.599113 C 61.184841,78.015674 74.82085,62.888161 82.27952,57.138549 L 59.209089,60.599113 z"
     id="path46"
     style="fill:#cc1840;stroke:none" />
  <path
     d="M 84.586563,76.748415 L 78.818955,76.748415 L 83.433042,82.516023 L 85.740085,91.744195 L 96.121779,104.43292 L 86.893606,69.827286 L 90.354171,69.827286 L 90.354171,61.752635 L 92.661214,65.213199 L 94.968257,57.138549 C 87.359052,61.870409 85.325163,68.12365 84.586563,76.748415 z"
     id="path47"
     style="fill:#e5dee6;stroke:none" />
  <path
     d="M 105.34996,57.138549 C 105.9694,71.153143 113.14546,81.636924 127.26687,84.823066 C 126.57245,78.84817 127.96244,72.389488 121.49926,69.827286 L 122.65278,65.213199 L 112.27109,64.059678 L 105.34996,57.138549 z"
     id="path48"
     style="fill:#f8dec9;stroke:none" />
  <path
     d="M 96.121779,59.445592 C 93.339946,77.276036 104.15272,93.360279 108.81052,110.20053 L 118.0387,112.50757 L 99.582343,60.599113 L 96.121779,59.445592 z"
     id="path49"
     style="fill:#f0eff2;stroke:none" />
  <path
     d="M 124.95983,64.059678 L 124.95983,66.366721 C 133.01948,66.123213 140.37318,65.815338 146.87673,60.599113 L 124.95983,64.059678 z"
     id="path50"
     style="fill:#bd8062;stroke:none" />
  <path
     d="M 180.32886,60.599113 L 178.02182,65.213199 L 182.6359,60.599113 L 180.32886,60.599113 z"
     id="path51"
     style="fill:#726c40;stroke:none" />
  <path
     d="M 81.125999,62.906156 L 77.665434,64.059678 L 78.818955,70.980807 L 74.204869,79.055458 L 78.818955,81.362501 L 76.511912,73.28785 L 81.125999,73.28785 L 81.125999,62.906156 z"
     id="path52"
     style="fill:#dd6f8e;stroke:none" />
  <path
     d="M 145.72321,73.28785 C 157.20075,73.277815 170.30014,73.984923 178.02182,64.059678 L 145.72321,73.28785 z"
     id="path53"
     style="fill:#c1957e;stroke:none" />
  <path
     d="M 175.71477,68.673764 L 181.48238,69.827286 L 181.48238,65.213199 L 175.71477,68.673764 z"
     id="path54"
     style="fill:#dab59b;stroke:none" />
  <path
     d="M 143.41617,79.055458 C 154.24658,75.774958 165.69759,77.718296 174.56125,69.827286 C 166.02173,71.420068 147.47195,70.78021 143.41617,79.055458 z"
     id="path55"
     style="fill:#90795a;stroke:none" />
  <path
     d="M 56.902046,72.134329 C 59.026948,86.952928 64.62545,98.594958 77.665434,106.73997 C 69.773501,94.980976 64.978427,84.889508 61.516132,70.980807 L 56.902046,72.134329 z"
     id="path56"
     style="fill:#bf4b7d;stroke:none" />
  <path
     d="M 29.217529,103.2794 L 39.599223,92.897716 L 38.445701,97.511803 L 51.134438,80.208979 L 44.213309,85.976587 L 56.902046,76.748415 L 48.827395,95.20476 L 59.209089,87.130109 C 53.776349,100.12798 41.762883,115.77665 41.906266,129.81039 C 58.429655,125.64503 79.664602,126.13527 75.358391,104.43292 C 64.110172,96.279842 59.220624,85.488648 56.902046,72.134329 C 43.898398,78.991899 35.770339,90.376118 29.217529,103.2794 z"
     id="path57"
     style="fill:#647396;stroke:none" />
  <path
     d="M 89.200649,72.134329 L 107.657,107.89349 C 105.46762,95.505829 101.33478,78.217655 89.200649,72.134329 z"
     id="path58"
     style="fill:#827e9b;stroke:none" />
  <path
     d="M 105.34996,72.134329 L 121.49926,99.818844 L 119.19222,90.590673 L 127.26687,87.130109 L 108.81052,72.134329 L 105.34996,72.134329 z"
     id="path59"
     style="fill:#63667e;stroke:none" />
  <path
     d="M 89.200649,74.441372 C 90.724105,84.77208 94.533841,101.22959 104.19644,106.73997 C 101.13303,95.592343 97.647542,82.726425 89.200649,74.441372 z"
     id="path60"
     style="fill:#fefcfd;stroke:none" />
  <path
     d="M 159.56547,75.594893 L 159.56547,76.748415 L 163.02604,76.748415 L 159.56547,75.594893 z"
     id="path61"
     style="fill:#dab59b;stroke:none" />
  <path
     d="M 44.213309,85.976587 L 51.134438,80.208979 L 38.445701,97.511803 L 39.599223,92.897716 C 31.008141,99.718484 21.956111,108.73325 15.215623,117.37889 C 11.71307,121.8707 9.7411245,127.24381 16.528792,128.65687 L 16.528792,133.27096 L 24.603443,128.65687 L 22.2964,147.11322 C 29.93352,144.2421 34.738283,141.29716 37.29218,133.27096 L 54.595003,126.34983 L 41.906266,129.81039 L 53.441482,97.511803 L 46.520352,107.89349 L 32.678094,111.35405 L 56.902046,76.748415 L 44.213309,85.976587 z"
     id="path62"
     style="fill:#4b597c;stroke:none" />
  <path
     d="M 88.047128,79.055458 L 94.968257,105.58645 L 99.582343,105.58645 L 88.047128,79.055458 z"
     id="path63"
     style="fill:#d786ab;stroke:none" />
  <path
     d="M 141.10913,79.055458 L 138.80208,95.20476 L 131.88095,95.20476 C 141.77125,100.04954 144.98957,91.028896 142.26265,82.516023 L 143.41617,79.055458 L 141.10913,79.055458 z"
     id="path64"
     style="fill:#7c7774;stroke:none" />
  <path
     d="M 55.748525,80.208979 L 32.678094,111.35405 L 46.520352,107.89349 L 59.209089,87.130109 L 48.827395,95.20476 L 55.748525,80.208979 z"
     id="path65"
     style="fill:#40446c;stroke:none" />
  <path
     d="M 79.972477,82.516023 L 83.433042,87.130109 L 83.433042,82.516023 L 79.972477,82.516023 z"
     id="path66"
     style="fill:#e05e99;stroke:none" />
  <path
     d="M 108.81052,82.516023 L 112.27109,91.744195 L 113.42461,84.823066 L 108.81052,82.516023 z"
     id="path67"
     style="fill:#e585a2;stroke:none" />
  <path
     d="M 38.445701,84.823066 L 22.2964,110.20053 C 29.219259,103.36592 36.605489,94.61531 38.445701,84.823066 z"
     id="path68"
     style="fill:#655a62;stroke:none" />
  <path
     d="M 112.27109,85.976587 C 114.34858,95.914175 117.29006,107.99731 123.8063,115.96814 C 122.69892,105.14695 119.15877,94.495344 112.27109,85.976587 z"
     id="path69"
     style="fill:#fcf9fb;stroke:none" />
  <path
     d="M 119.19222,94.051238 L 124.95983,92.897716 L 124.95983,99.818844 L 127.26687,95.20476 L 138.80208,95.20476 L 138.80208,91.744195 C 131.68947,90.890128 123.42103,85.80056 119.19222,94.051238 z"
     id="path70"
     style="fill:#515269;stroke:none" />
  <path
     d="M 112.27109,89.437152 L 116.88517,113.6611 C 123.86283,112.15806 115.0257,93.595597 112.27109,89.437152 z"
     id="path71"
     style="fill:#e8bdd0;stroke:none" />
  <path
     d="M 86.893606,90.590673 L 85.740085,91.744195 L 92.661214,99.818844 L 86.893606,90.590673 z"
     id="path72"
     style="fill:#f2b5d5;stroke:none" />
  <path
     d="M 121.49926,92.897716 L 124.95983,95.20476 L 121.49926,92.897716 z"
     id="path73"
     style="fill:#928d9c;stroke:none" />
  <path
     d="M 121.49926,94.051238 L 123.8063,115.96814 L 124.95983,115.96814 L 123.8063,94.051238 L 121.49926,94.051238 z"
     id="path74"
     style="fill:#dddbdf;stroke:none" />
  <path
     d="M 127.26687,95.20476 L 133.03448,97.511803 L 127.26687,95.20476 z"
     id="path75"
     style="fill:#a1869b;stroke:none" />
  <path
     d="M 119.57634,98.281201 L 119.96162,99.049448 L 119.57634,98.281201 z"
     id="path76"
     style="fill:#bfbac0;stroke:none" />
  <path
     d="M 123.8063,97.511803 L 122.65278,117.12166 L 127.26687,118.27518 L 127.26687,97.511803 L 123.8063,97.511803 z"
     id="path77"
     style="fill:#887fa2;stroke:none" />
  <path
     d="M 127.26687,97.511803 L 127.26687,121.73574 L 135.34152,129.81039 C 137.4986,126.73164 145.63901,112.49373 138.80208,111.35405 L 139.95561,103.2794 L 135.34152,110.20053 C 135.26654,103.38322 134.28374,99.350514 127.26687,97.511803 z"
     id="path78"
     style="fill:#d8cacb;stroke:none" />
  <path
     d="M 135.34152,98.665328 L 135.34152,110.20053 L 139.95561,103.2794 L 138.80208,111.35405 C 146.07504,111.35405 136.43967,127.02925 135.34152,129.81039 L 131.88095,127.50335 L 134.188,135.578 L 136.49504,132.11744 L 137.64856,132.11744 L 139.95561,135.578 L 143.41617,97.511803 L 135.34152,98.665328 z"
     id="path79"
     style="fill:#ac9d99;stroke:none" />
  <path
     d="M 143.41617,102.12588 L 143.41617,121.73574 L 143.41617,102.12588 z"
     id="path80"
     style="fill:#8e8278;stroke:none" />
  <path
     d="M 100.73586,106.73997 L 100.73586,107.89349 L 106.50348,107.89349 L 100.73586,106.73997 z"
     id="path81"
     style="fill:#cd7f99;stroke:none" />
  <path
     d="M 108.04112,107.50937 L 108.4264,108.27761 L 108.04112,107.50937 z"
     id="path82"
     style="fill:#de7cbe;stroke:none" />
  <path
     d="M 111.88697,110.58465 L 112.65521,110.96993 L 111.88697,110.58465 z"
     id="path83"
     style="fill:#ef8cc6;stroke:none" />
  <path
     d="M 181.48238,137.88504 L 182.6359,137.88504 C 184.01205,131.50376 186.11377,127.36031 191.86407,124.04279 C 196.29706,116.04889 202.66334,112.43836 211.47394,115.96814 C 201.54558,98.571888 181.90111,127.06155 181.48238,137.88504 z"
     id="path84"
     style="fill:#afa29e;stroke:none" />
  <path
     d="M 210.32042,111.35405 L 210.32042,112.50757 L 216.08803,112.50757 L 210.32042,111.35405 z"
     id="path85"
     style="fill:#58523c;stroke:none" />
  <path
     d="M 191.86407,124.04279 C 173.21163,132.32392 186.63747,156.26641 199.93873,162.109 C 196.34897,156.12683 193.06374,148.19753 186.09647,145.95969 L 189.55703,128.65687 L 193.0176,128.65687 C 195.2612,118.53472 201.72207,114.96688 211.47394,118.27518 C 205.29799,109.00664 194.71097,115.37177 191.86407,124.04279 z"
     id="path86"
     style="fill:#d6d5d5;stroke:none" />
  <path
     d="M 210.32042,112.50757 L 211.47394,118.27518 L 216.08803,118.27518 L 220.70211,115.96814 L 210.32042,112.50757 z"
     id="path87"
     style="fill:#847a76;stroke:none" />
  <path
     d="M 188.40351,120.58222 L 195.32464,113.6611 L 188.40351,120.58222 z"
     id="path88"
     style="fill:#867677;stroke:none" />
  <path
     d="M 193.0176,128.65687 L 189.55703,128.65687 L 186.09647,145.95969 L 201.09225,157.49491 L 202.24577,162.109 L 204.55281,158.64843 L 205.70633,162.109 L 218.39507,160.95547 L 228.77676,144.80617 L 227.62324,140.19209 L 231.08381,141.34561 C 232.83831,134.38526 230.27057,129.64198 226.27708,124.04279 C 223.93889,120.76332 219.62818,117.13781 218.39507,122.88926 L 216.08803,120.58222 L 213.78098,121.73574 C 204.96231,112.83402 194.9336,116.463 193.0176,128.65687 z"
     id="path89"
     style="fill:#fefefe;stroke:none" />
  <path
     d="M 216.08803,114.81462 L 214.93451,119.4287 L 226.46972,121.73574 L 216.08803,114.81462 z"
     id="path90"
     style="fill:#a59e84;stroke:none" />
  <path
     d="M 213.78098,117.12166 L 212.62746,120.58222 L 218.39507,122.88926 L 221.85563,118.27518 L 213.78098,117.12166 z"
     id="path91"
     style="fill:#cacbd6;stroke:none" />
  <path
     d="M 126.49747,119.04458 L 126.88275,119.81282 L 126.49747,119.04458 z"
     id="path92"
     style="fill:#eb5fa2;stroke:none" />
  <path
     d="M 75.358391,120.58222 L 37.29218,133.27096 L 36.138658,139.03857 L 58.055568,127.50335 L 55.748525,136.73152 L 70.744305,139.03857 L 75.358391,134.42448 L 71.897826,142.49913 L 75.358391,147.11322 C 78.843872,138.50795 77.421118,129.42166 75.358391,120.58222 z"
     id="path93"
     style="fill:#3c3f68;stroke:none" />
  <path
     d="M 128.42039,121.73574 L 130.72743,125.19631 L 130.72743,121.73574 L 128.42039,121.73574 z"
     id="path94"
     style="fill:#d17d9e;stroke:none" />
  <path
     d="M 225.3162,121.73574 L 228.77676,127.50335 L 225.3162,121.73574 z"
     id="path95"
     style="fill:#c4b7a5;stroke:none" />
  <path
     d="M 8.4541405,125.19631 L 1.5330112,143.65265 L 4.9935758,142.49913 L 7.3006189,148.26674 L 7.3006189,143.65265 C 21.345437,151.41354 22.677293,140.69156 24.603443,128.65687 L 16.528792,133.27096 L 16.528792,128.65687 L 8.4541405,125.19631 z"
     id="path96"
     style="fill:#282d50;stroke:none" />
  <path
     d="M 131.11156,125.96571 L 131.49683,126.73395 L 131.11156,125.96571 z"
     id="path97"
     style="fill:#e94e95;stroke:none" />
  <path
     d="M 142.26265,125.19631 C 147.43273,136.04518 157.56988,149.49985 141.10913,155.18787 L 141.10913,156.34139 C 159.59662,153.67906 153.48987,133.82465 142.26265,125.19631 z"
     id="path98"
     style="fill:#887264;stroke:none" />
  <path
     d="M 228.77676,125.19631 L 234.54437,145.95969 C 235.94936,137.8389 233.8488,131.59258 228.77676,125.19631 z"
     id="path99"
     style="fill:#9a8986;stroke:none" />
  <path
     d="M 34.985137,139.03857 L 34.985137,141.34561 L 55.748525,136.73152 L 58.055568,127.50335 L 34.985137,139.03857 z"
     id="path100"
     style="fill:#1b1f40;stroke:none" />
  <path
     d="M 142.26265,129.81039 L 139.95561,135.578 L 137.64856,132.11744 L 136.49504,132.11744 L 141.10913,155.18787 C 155.39664,151.54851 152.26829,137.15256 142.26265,129.81039 z"
     id="path101"
     style="fill:#dca599;stroke:none" />
  <path
     d="M 77.665434,130.96391 C 80.606337,138.12959 87.228243,137.18832 93.814736,139.03857 L 105.34996,136.73152 L 77.665434,130.96391 z"
     id="path102"
     style="fill:#c44573;stroke:none" />
  <path
     d="M 231.08381,132.11744 L 231.08381,141.34561 L 228.77676,140.19209 L 227.62324,140.19209 L 228.77676,144.80617 L 224.16268,154.94217 L 210.32042,162.109 L 211.47394,166.72308 L 204.55281,166.72308 L 219.54859,169.03013 L 220.70211,158.64843 L 221.85563,158.64843 L 221.85563,163.26252 L 228.77676,162.109 C 234.79699,151.83919 236.63109,143.15318 231.08381,132.11744 z"
     id="path103"
     style="fill:#bebec6;stroke:none" />
  <path
     d="M 69.590783,140.19209 L 75.358391,141.34561 L 75.358391,134.42448 L 69.590783,140.19209 z"
     id="path104"
     style="fill:#666f92;stroke:none" />
  <path
     d="M 51.134438,136.73152 L 51.134438,137.88504 L 69.590783,139.03857 L 51.134438,136.73152 z"
     id="path105"
     style="fill:#723c67;stroke:none" />
  <path
     d="M 77.665434,136.73152 L 77.665434,142.49913 L 79.972477,142.49913 L 77.665434,149.42026 L 85.740085,144.80617 L 85.740085,137.88504 L 77.665434,136.73152 z"
     id="path106"
     style="fill:#666892;stroke:none" />
  <path
     d="M 86.893606,136.73152 L 86.893606,137.88504 L 92.661214,141.34561 L 92.661214,136.73152 L 86.893606,136.73152 z"
     id="path107"
     style="fill:#7b3f69;stroke:none" />
  <path
     d="M 28.064008,151.7273 C 7.1270139,147.68075 22.452702,169.13856 36.138658,159.80195 L 26.910486,158.64843 L 29.217529,150.57378 L 32.678094,152.88082 L 48.827395,149.42026 L 48.827395,148.26674 L 36.138658,148.26674 C 42.193493,142.02734 49.683539,140.30167 58.055568,139.03857 C 46.405692,137.00029 33.153921,140.38819 28.064008,151.7273 z"
     id="path108"
     style="fill:#960320;stroke:none" />
  <path
     d="M 36.138658,148.26674 C 49.193292,148.25405 61.232135,147.36353 73.051348,141.34561 C 61.500444,136.83649 44.232688,137.73163 36.138658,148.26674 z"
     id="path109"
     style="fill:#bd0c38;stroke:none" />
  <path
     d="M 85.740085,137.88504 L 85.740085,145.95969 L 91.507692,137.88504 L 85.740085,137.88504 z"
     id="path110"
     style="fill:#44486c;stroke:none" />
  <path
     d="M 106.50348,137.88504 L 122.65278,157.49491 L 106.50348,137.88504 z"
     id="path111"
     style="fill:#7f3f62;stroke:none" />
  <path
     d="M 128.42039,137.88504 C 129.89805,143.83606 130.10915,147.99105 126.11335,152.88082 C 127.29225,168.91477 139.85756,188.95375 146.87673,203.63577 L 150.3373,192.10056 C 145.12684,173.41581 143.03551,152.04337 128.42039,137.88504 z"
     id="path112"
     style="fill:#c70526;stroke:none" />
  <path
     d="M 181.48238,137.88504 L 183.78942,147.11322 L 181.48238,137.88504 z"
     id="path113"
     style="fill:#7f6f81;stroke:none" />
  <path
     d="M 98.428822,139.03857 L 98.428822,141.34561 L 103.04292,141.34561 C 99.554082,144.71389 95.031585,147.50887 92.179734,151.45161 C 82.516223,164.814 91.010986,178.81314 94.968257,192.10056 C 98.429398,190.03114 101.89574,186.55558 105.73062,185.29363 C 109.72988,183.97746 114.49623,187.91327 111.54091,191.91253 C 108.21415,196.41473 101.18378,197.02609 96.121779,196.71464 L 94.968257,207.09634 L 88.047128,204.78929 L 85.740085,212.86394 L 88.047128,216.32451 L 98.428822,217.47803 L 106.50348,199.02169 C 116.54835,200.00333 119.45407,195.08472 126.11335,188.63999 C 123.91012,182.86777 120.35958,181.04405 114.57813,179.41182 L 121.49926,184.02591 L 120.34574,187.48647 C 115.14797,183.60487 109.11044,179.13613 113.42461,172.49069 L 119.19222,177.10478 L 120.34574,171.33717 L 113.42461,171.33717 L 119.19222,158.64843 C 114.93572,147.85724 110.51312,140.7354 98.428822,139.03857 z"
     id="path114"
     style="fill:#c60522;stroke:none" />
  <path
     d="M 134.188,140.19209 C 135.90213,147.90684 138.9209,157.53298 145.72321,162.109 L 145.72321,156.34139 L 141.10913,156.34139 L 137.64856,140.19209 L 134.188,140.19209 z"
     id="path115"
     style="fill:#6b5d71;stroke:none" />
  <path
     d="M 236.08202,142.11501 L 236.46729,142.88325 L 236.08202,142.11501 z"
     id="path116"
     style="fill:#59545f;stroke:none" />
  <path
     d="M 2.6865327,142.49913 L 7.3006189,156.34139 L 14.221749,155.18787 L 14.221749,150.57378 L 6.1470974,148.26674 L 4.9935758,142.49913 L 2.6865327,142.49913 z"
     id="path117"
     style="fill:#572238;stroke:none" />
  <path
     d="M 24.603443,173.64421 L 44.213309,171.33717 L 31.524572,167.8766 L 34.985137,169.03013 L 33.831615,165.56956 L 71.897826,142.49913 C 55.38828,147.87454 32.275861,156.89277 24.603443,173.64421 z"
     id="path118"
     style="fill:#720f21;stroke:none" />
  <path
     d="M 77.665434,142.49913 L 76.511912,147.11322 L 73.051348,145.95969 C 67.644562,163.07103 65.558187,179.77633 54.595003,194.4076 L 54.595003,195.56112 L 58.055568,207.09634 L 59.209089,199.02169 L 59.209089,203.63577 L 60.362611,203.63577 L 68.437262,174.79773 L 69.590783,174.79773 L 70.744305,178.2583 L 70.744305,171.33717 L 74.204869,177.10478 L 75.358391,173.64421 L 79.972477,175.95126 L 81.125999,165.56956 L 74.204869,172.49069 L 79.972477,149.42026 L 71.897826,160.95547 L 79.972477,142.49913 L 77.665434,142.49913 z"
     id="path119"
     style="fill:#b57798;stroke:none" />
  <path
     d="M 197.63168,142.49913 L 199.93873,149.42026 L 197.63168,142.49913 z"
     id="path120"
     style="fill:#b6bed5;stroke:none" />
  <path
     d="M 7.3006189,143.65265 L 15.375271,150.57378 L 7.3006189,143.65265 z"
     id="path121"
     style="fill:#1b1b3c;stroke:none" />
  <path
     d="M 71.897826,143.65265 L 66.130218,165.56956 L 74.204869,143.65265 L 71.897826,143.65265 z"
     id="path122"
     style="fill:#fdf2f7;stroke:none" />
  <path
     d="M 82.27952,143.65265 L 74.204869,172.49069 L 84.586563,143.65265 L 82.27952,143.65265 z"
     id="path123"
     style="fill:#fcf8f6;stroke:none" />
  <path
     d="M 17.682314,149.42026 L 28.064008,151.7273 L 30.371051,144.80617 L 17.682314,149.42026 z"
     id="path124"
     style="fill:#92214b;stroke:none" />
  <path
     d="M 66.130218,159.80195 L 67.28374,159.80195 L 71.897826,144.80617 C 66.233343,148.5482 66.199545,153.4299 66.130218,159.80195 z"
     id="path125"
     style="fill:#8b5a7c;stroke:none" />
  <path
     d="M 84.586563,144.80617 L 75.358391,172.49069 L 89.200649,145.95969 L 84.586563,144.80617 z"
     id="path126"
     style="fill:#9f96ab;stroke:none" />
  <path
     d="M 32.678094,152.88082 L 29.217529,150.57378 L 26.910486,158.64843 C 39.117397,159.82272 49.096397,153.81056 58.055568,145.95969 L 32.678094,152.88082 z"
     id="path127"
     style="fill:#b7011c;stroke:none" />
  <path
     d="M 89.200649,145.95969 L 79.972477,177.10478 C 89.430777,171.54019 90.575301,155.9192 89.200649,145.95969 z"
     id="path128"
     style="fill:#c86a81;stroke:none" />
  <path
     d="M 59.209089,154.03435 L 64.976697,154.03435 L 64.976697,162.109 L 66.130218,162.109 L 66.130218,147.11322 L 59.209089,154.03435 z"
     id="path129"
     style="fill:#d52a5d;stroke:none" />
  <path
     d="M 76.511912,148.26674 L 71.897826,160.95547 L 76.511912,148.26674 z"
     id="path130"
     style="fill:#cbc7c7;stroke:none" />
  <path
     d="M 58.055568,150.57378 L 52.28796,156.34139 L 58.055568,156.34139 L 52.28796,157.49491 C 44.419213,171.99929 39.748489,184.6292 40.752745,201.32873 L 41.906266,197.86816 L 49.980917,200.17521 L 46.520352,170.18365 L 59.209089,178.2583 L 60.362611,178.2583 C 65.515045,170.71542 64.974159,162.84956 64.976697,154.03435 L 58.055568,150.57378 z"
     id="path131"
     style="fill:#cb0c3a;stroke:none" />
  <path
     d="M 184.94295,150.57378 C 189.53627,165.01818 204.52397,175.42756 219.54859,170.18365 C 202.84214,170.04176 195.8045,162.43314 184.94295,150.57378 z"
     id="path132"
     style="fill:#5c5a5a;stroke:none" />
  <path
     d="M 233.39085,152.88082 L 233.39085,155.18787 L 235.69789,155.18787 L 235.69789,152.88082 L 233.39085,152.88082 z"
     id="path133"
     style="fill:#8c7e75;stroke:none" />
  <path
     d="M 13.068227,155.18787 L 28.064008,166.72308 L 13.068227,155.18787 z"
     id="path134"
     style="fill:#dbc3b8;stroke:none" />
  <path
     d="M 33.831615,165.56956 C 38.943792,176.70104 49.862335,164.12997 52.28796,157.49491 C 55.170034,159.32324 56.204858,159.24134 58.055568,156.34139 C 48.682974,156.67822 41.797028,161.03737 33.831615,165.56956 z"
     id="path135"
     style="fill:#920113;stroke:none" />
  <path
     d="M 227.62324,165.56956 L 234.54437,155.18787 L 227.62324,165.56956 z"
     id="path136"
     style="fill:#6e5d65;stroke:none" />
  <path
     d="M 120.34574,158.64843 L 126.11335,169.03013 L 118.0387,163.26252 C 120.59029,168.50297 123.96664,169.57689 129.57391,170.18365 L 135.34152,177.10478 L 123.8063,157.49491 L 120.34574,158.64843 z"
     id="path137"
     style="fill:#554564;stroke:none" />
  <path
     d="M 199.93873,157.49491 L 197.63168,166.72308 L 204.55281,165.56956 L 199.93873,157.49491 z"
     id="path138"
     style="fill:#c0bbbc;stroke:none" />
  <path
     d="M 15.375271,158.64843 L 23.449921,165.56956 L 15.375271,158.64843 z"
     id="path139"
     style="fill:#7a2253;stroke:none" />
  <path
     d="M 116.88517,162.109 L 120.34574,158.64843 L 116.88517,162.109 z"
     id="path140"
     style="fill:#590d23;stroke:none" />
  <path
     d="M 204.55281,158.64843 L 202.24577,166.72308 L 211.47394,166.72308 L 212.62746,160.95547 L 205.70633,162.109 L 204.55281,158.64843 z"
     id="path141"
     style="fill:#d8d5d2;stroke:none" />
  <path
     d="M 220.70211,158.64843 L 217.24155,167.8766 L 228.77676,162.109 L 221.85563,163.26252 L 220.70211,158.64843 z"
     id="path142"
     style="fill:#969295;stroke:none" />
  <path
     d="M 115.73165,159.80195 L 113.42461,171.33717 L 129.57391,172.49069 L 115.73165,170.18365 L 115.73165,159.80195 z"
     id="path143"
     style="fill:#682344;stroke:none" />
  <path
     d="M 119.19222,159.80195 L 118.0387,162.109 L 118.0387,163.26252 L 126.11335,169.03013 L 119.19222,159.80195 z"
     id="path144"
     style="fill:#17081b;stroke:none" />
  <path
     d="M 194.17112,159.80195 L 197.63168,162.109 L 194.17112,159.80195 z"
     id="path145"
     style="fill:#9ba1a5;stroke:none" />
  <path
     d="M 52.28796,160.95547 C 52.691,167.41174 57.65518,167.38866 60.362611,162.109 L 52.28796,160.95547 z"
     id="path146"
     style="fill:#d32255;stroke:none" />
  <path
     d="M 64.976697,162.109 L 62.669654,180.56534 C 66.345927,174.77005 66.579746,168.67023 64.976697,162.109 z"
     id="path147"
     style="fill:#e9c0c7;stroke:none" />
  <path
     d="M 143.41617,162.109 L 146.87673,174.79773 L 145.72321,162.109 L 143.41617,162.109 z"
     id="path148"
     style="fill:#965b66;stroke:none" />
  <path
     d="M 218.39507,165.56956 L 217.24155,170.18365 L 224.16268,170.18365 L 224.16268,165.56956 L 218.39507,165.56956 z"
     id="path149"
     style="fill:#767172;stroke:none" />
  <path
     d="M 223.00916,169.03013 L 227.62324,165.56956 L 223.00916,169.03013 z"
     id="path150"
     style="fill:#57454e;stroke:none" />
  <path
     d="M 26.526017,167.10721 L 27.294955,167.49248 L 26.526017,167.10721 z"
     id="path151"
     style="fill:#92506e;stroke:none" />
  <path
     d="M 45.366831,166.72308 L 43.059788,171.33717 L 45.366831,166.72308 z"
     id="path152"
     style="fill:#bb9e99;stroke:none" />
  <path
     d="M 116.88517,166.72308 L 115.73165,170.18365 L 120.34574,170.18365 L 116.88517,166.72308 z"
     id="path153"
     style="fill:#211d3d;stroke:none" />
  <path
     d="M 198.7852,166.72308 L 214.93451,170.18365 L 198.7852,166.72308 z"
     id="path154"
     style="fill:#969288;stroke:none" />
  <path
     d="M 31.524572,167.8766 L 43.059788,171.33717 L 43.059788,170.18365 L 31.524572,167.8766 z"
     id="path155"
     style="fill:#e1ccc1;stroke:none" />
  <path
     d="M 46.520352,170.18365 L 52.28796,195.56112 L 60.362611,179.41182 L 46.520352,170.18365 z"
     id="path156"
     style="fill:#d41756;stroke:none" />
  <path
     d="M 34.985137,171.33717 L 34.985137,172.49069 L 39.599223,172.49069 L 34.985137,171.33717 z"
     id="path157"
     style="fill:#876287;stroke:none" />
  <path
     d="M 70.744305,171.33717 L 70.744305,178.2583 L 69.590783,174.79773 L 68.437262,174.79773 L 68.437262,189.79351 L 70.744305,171.33717 z"
     id="path158"
     style="fill:#a590b6;stroke:none" />
  <path
     d="M 85.740085,171.33717 L 78.818955,175.95126 C 78.144261,186.69977 78.700835,196.54046 70.744305,204.78929 L 82.27952,227.85972 L 78.818955,229.01325 L 89.200649,245.16255 L 106.50348,238.24142 C 105.79176,234.68396 101.51657,233.51659 99.582343,235.93438 L 107.657,215.17099 L 99.582343,230.16677 C 89.535401,229.25087 85.846901,226.05331 91.507692,216.32451 L 85.740085,212.86394 L 88.047128,204.78929 L 94.968257,207.09634 L 96.121779,196.71464 L 98.428822,199.02169 C 102.88742,197.51173 109.72181,195.99946 112.59753,191.91253 C 115.67052,187.54415 110.06556,182.85623 105.74908,184.31198 C 101.78223,185.65006 98.278172,189.62741 94.968257,192.10056 L 85.740085,171.33717 z"
     id="path159"
     style="fill:#c90937;stroke:none" />
  <path
     d="M 118.0387,172.49069 L 119.19222,177.10478 L 113.42461,172.49069 C 103.37317,176.02739 115.16873,185.44243 120.34574,187.48647 L 121.49926,184.02591 L 114.57813,179.41182 C 120.01929,181.36935 123.44987,183.4007 126.11335,188.63999 L 129.57391,188.63999 C 129.59352,179.00117 129.64543,171.48367 118.0387,172.49069 z"
     id="path160"
     style="fill:#d1184c;stroke:none" />
  <path
     d="M 75.358391,173.64421 L 77.665434,185.17943 L 78.818955,173.64421 L 75.358391,173.64421 z"
     id="path161"
     style="fill:#725f79;stroke:none" />
  <path
     d="M 73.051348,174.79773 L 60.362611,203.63577 C 66.245686,194.69021 74.286539,186.15415 73.051348,174.79773 z"
     id="path162"
     style="fill:#f0e5e4;stroke:none" />
  <path
     d="M 129.57391,174.79773 L 129.57391,193.25408 L 130.72743,193.25408 L 129.57391,174.79773 z"
     id="path163"
     style="fill:#fcdde6;stroke:none" />
  <path
     d="M 61.516132,175.95126 C 55.607449,184.09858 51.457771,191.28617 49.980917,201.32873 L 63.823175,175.95126 L 61.516132,175.95126 z"
     id="path164"
     style="fill:#c33268;stroke:none" />
  <path
     d="M 130.72743,175.95126 L 130.72743,193.25408 L 131.88095,193.25408 L 130.72743,175.95126 z"
     id="path165"
     style="fill:#934656;stroke:none" />
  <path
     d="M 135.34152,175.95126 L 148.03026,210.5569 L 148.03026,193.25408 L 146.87673,193.25408 L 146.87673,203.63577 L 135.34152,175.95126 z"
     id="path166"
     style="fill:#8b3753;stroke:none" />
  <path
     d="M 74.204869,177.10478 C 72.772426,184.83799 56.802151,204.58973 66.130218,208.24986 L 63.823175,205.94282 L 68.437262,202.48225 L 67.28374,199.02169 C 74.03634,192.71423 77.209332,186.16223 74.204869,177.10478 z"
     id="path167"
     style="fill:#958d9e;stroke:none" />
  <path
     d="M 131.88095,177.10478 L 131.88095,195.56112 L 138.80208,188.63999 C 137.60242,200.06216 134.25259,213.26422 128.09856,223.06454 C 123.76708,229.96375 117.36158,233.74961 114.57813,241.70198 L 119.19222,240.54846 C 116.65908,244.07939 113.0451,248.26206 113.13046,252.88999 C 113.24581,259.10055 124.56301,267.81886 130.60747,265.3088 C 136.32432,262.93485 140.42163,252.73888 142.73444,247.46959 C 151.5508,227.38678 148.95192,192.51582 131.88095,177.10478 z"
     id="path168"
     style="fill:#c7062e;stroke:none" />
  <path
     d="M 62.669654,180.56534 L 59.209089,187.48647 L 62.669654,180.56534 z"
     id="path169"
     style="fill:#fef1f5;stroke:none" />
  <path
     d="M 76.511912,186.33295 L 67.28374,199.02169 C 73.320234,210.19008 80.970389,193.15026 76.511912,186.33295 z"
     id="path170"
     style="fill:#ce6e83;stroke:none" />
  <path
     d="M 52.28796,203.63577 L 60.362611,187.48647 C 54.981202,192.07749 53.184477,196.7158 52.28796,203.63577 z"
     id="path171"
     style="fill:#ecbbe2;stroke:none" />
  <path
     d="M 122.65278,188.63999 L 124.95983,190.94704 L 124.95983,200.17521 L 126.11335,200.17521 L 126.11335,188.63999 L 122.65278,188.63999 z"
     id="path172"
     style="fill:#911e4e;stroke:none" />
  <path
     d="M 126.11335,188.63999 L 124.95983,207.09634 L 129.57391,188.63999 L 126.11335,188.63999 z"
     id="path173"
     style="fill:#92768f;stroke:none" />
  <path
     d="M 136.49504,188.63999 C 135.44303,191.97021 134.33565,195.96024 130.72743,193.25408 L 119.19222,231.32029 C 133.28479,224.76713 137.74661,202.85368 138.80208,188.63999 L 136.49504,188.63999 z"
     id="path174"
     style="fill:#cf184e;stroke:none" />
  <path
     d="M 121.49926,190.94704 C 118.6293,200.70352 115.06838,210.25929 111.34135,219.78507 C 109.81985,223.67475 106.78494,228.99133 112.27109,230.16677 L 111.11757,240.54846 C 118.04446,231.26607 121.87992,220.94667 122.65278,209.40338 L 115.73165,229.01325 L 113.42461,229.01325 L 124.95983,190.94704 L 121.49926,190.94704 z"
     id="path175"
     style="fill:#484c6a;stroke:none" />
  <path
     d="M 128.42039,190.94704 L 130.72743,195.56112 L 128.42039,190.94704 z"
     id="path176"
     style="fill:#c8aaa8;stroke:none" />
  <path
     d="M 148.03026,192.10056 L 148.03026,211.71042 L 149.18378,211.71042 L 150.3373,192.10056 L 148.03026,192.10056 z"
     id="path177"
     style="fill:#9e57a5;stroke:none" />
  <path
     d="M 66.130218,193.25408 L 62.669654,199.02169 C 65.840685,197.78972 66.996975,196.67081 66.130218,193.25408 z"
     id="path178"
     style="fill:#b8adbc;stroke:none" />
  <path
     d="M 149.18378,193.25408 C 149.35796,199.52808 149.41217,204.98078 156.10491,207.09634 L 153.79786,211.71042 L 156.10491,215.17099 L 174.56125,218.63155 C 170.27938,205.92897 160.09725,200.07139 149.18378,193.25408 z"
     id="path179"
     style="fill:#5495cf;stroke:none" />
  <path
     d="M 128.42039,194.4076 L 128.42039,199.02169 L 129.57391,199.02169 L 128.42039,194.4076 z"
     id="path180"
     style="fill:#f1e1e9;stroke:none" />
  <path
     d="M 54.595003,195.56112 C 54.875655,206.55995 58.614564,228.78254 70.744305,232.47381 L 73.051348,235.93438 L 59.209089,199.02169 L 58.055568,207.09634 L 56.902046,195.56112 L 54.595003,195.56112 z"
     id="path181"
     style="fill:#816b83;stroke:none" />
  <path
     d="M 122.65278,195.56112 L 113.42461,229.01325 L 115.73165,229.01325 L 124.95983,195.56112 L 122.65278,195.56112 z"
     id="path182"
     style="fill:#c21c44;stroke:none" />
  <path
     d="M 152.64434,195.56112 L 160.71899,200.17521 L 152.64434,195.56112 z"
     id="path183"
     style="fill:#60666b;stroke:none" />
  <path
     d="M 39.599223,197.86816 L 40.752745,218.63155 L 41.906266,218.63155 L 39.599223,197.86816 z"
     id="path184"
     style="fill:#913126;stroke:none" />
  <path
     d="M 41.906266,197.86816 C 40.911354,212.11416 48.53094,220.3676 54.595003,232.47381 L 64.976697,235.93438 C 61.156003,225.43272 52.170762,202.30576 41.906266,197.86816 z"
     id="path185"
     style="fill:#b00326;stroke:none" />
  <path
     d="M 127.26687,197.86816 L 127.26687,205.94282 L 127.26687,197.86816 z"
     id="path186"
     style="fill:#cbaec9;stroke:none" />
  <path
     d="M 106.50348,199.02169 L 98.428822,217.47803 L 86.893606,219.78507 L 86.893606,222.09212 L 92.661214,226.7062 L 86.893606,223.24564 C 88.735896,230.36979 93.008539,230.03988 99.582343,230.16677 L 107.657,215.17099 L 99.582343,235.93438 L 101.88939,233.62733 L 111.11757,238.24142 L 107.657,235.93438 L 119.19222,199.02169 L 106.50348,199.02169 z"
     id="path187"
     style="fill:#d01748;stroke:none" />
  <path
     d="M 53.441482,200.17521 L 54.595003,207.09634 L 53.441482,200.17521 z"
     id="path188"
     style="fill:#b18787;stroke:none" />
  <path
     d="M 160.71899,200.17521 L 164.17956,202.48225 L 160.71899,200.17521 z"
     id="path189"
     style="fill:#68707d;stroke:none" />
  <path
     d="M 49.980917,201.32873 L 51.134438,212.86394 L 54.595003,212.86394 L 52.28796,201.32873 L 49.980917,201.32873 z"
     id="path190"
     style="fill:#850e3a;stroke:none" />
  <path
     d="M 66.130218,202.48225 L 63.823175,207.09634 L 71.897826,210.5569 L 66.130218,202.48225 z"
     id="path191"
     style="fill:#60566a;stroke:none" />
  <path
     d="M 164.17956,202.48225 L 169.94717,207.09634 L 164.17956,202.48225 z"
     id="path192"
     style="fill:#636c77;stroke:none" />
  <path
     d="M 123.8063,203.63577 L 122.65278,209.40338 L 123.8063,203.63577 z"
     id="path193"
     style="fill:#704c72;stroke:none" />
  <path
     d="M 126.11335,204.78929 L 118.0387,230.16677 C 122.80966,222.64119 126.46286,213.82137 126.11335,204.78929 z"
     id="path194"
     style="fill:#e4d3d7;stroke:none" />
  <path
     d="M 149.18378,205.94282 L 149.18378,238.24142 L 165.33308,233.62733 L 160.71899,239.39494 L 172.25421,249.77663 L 149.18378,250.93016 L 149.18378,254.39072 L 178.02182,254.39072 C 178.02182,250.56218 168.03347,224.78559 175.71477,226.7062 L 173.40773,223.24564 L 173.40773,222.09212 L 175.71477,217.47803 L 172.25421,216.32451 L 156.10491,215.17099 L 153.79786,211.71042 L 156.10491,207.09634 L 149.18378,205.94282 z"
     id="path195"
     style="fill:#397eba;stroke:none" />
  <path
     d="M 123.8063,207.09634 L 122.65278,212.86394 L 123.8063,207.09634 z"
     id="path196"
     style="fill:#877aa1;stroke:none" />
  <path
     d="M 171.10069,207.09634 L 173.40773,222.09212 L 173.40773,223.24564 L 175.71477,226.7062 C 171.45828,227.34179 172.65333,232.42536 173.10897,235.93438 C 174.02486,243.00431 176.60298,260.70394 183.78942,262.46537 C 183.55526,253.2695 180.14199,244.94569 178.77853,235.93438 C 177.07708,224.69215 179.40835,216.13995 171.10069,207.09634 z"
     id="path197"
     style="fill:#557394;stroke:none" />
  <path
     d="M 54.595003,208.24986 L 52.28796,212.86394 L 59.209089,224.39916 L 54.595003,208.24986 z"
     id="path198"
     style="fill:#752e61;stroke:none" />
  <path
     d="M 55.748525,208.24986 L 55.748525,211.71042 L 58.055568,210.5569 L 58.055568,209.40338 L 55.748525,208.24986 z"
     id="path199"
     style="fill:#d4b1d7;stroke:none" />
  <path
     d="M 64.976697,208.24986 L 74.204869,239.39494 L 67.28374,208.24986 L 64.976697,208.24986 z"
     id="path200"
     style="fill:#d2c5c6;stroke:none" />
  <path
     d="M 56.902046,210.5569 L 56.902046,216.32451 L 58.055568,216.32451 L 56.902046,210.5569 z"
     id="path201"
     style="fill:#f7edec;stroke:none" />
  <path
     d="M 58.055568,210.5569 L 60.362611,224.39916 L 58.055568,210.5569 z"
     id="path202"
     style="fill:#cbc0b8;stroke:none" />
  <path
     d="M 67.28374,210.5569 C 67.788752,219.26022 69.603472,225.86875 77.665434,230.16677 L 73.051348,210.5569 L 67.28374,210.5569 z"
     id="path203"
     style="fill:#8f8a97;stroke:none" />
  <path
     d="M 73.051348,210.5569 L 74.204869,224.39916 L 79.972477,223.24564 C 78.710524,217.86215 77.956583,213.61027 73.051348,210.5569 z"
     id="path204"
     style="fill:#b54d61;stroke:none" />
  <path
     d="M 148.03026,211.71042 L 148.03026,222.09212 L 149.18378,222.09212 L 148.03026,211.71042 z"
     id="path205"
     style="fill:#a92050;stroke:none" />
  <path
     d="M 149.18378,211.71042 L 146.87673,244.00903 L 148.03026,244.00903 L 149.18378,211.71042 z"
     id="path206"
     style="fill:#675082;stroke:none" />
  <path
     d="M 41.906266,214.01747 C 42.262012,221.07356 47.348696,230.92925 54.595003,232.47381 L 41.906266,214.01747 z"
     id="path207"
     style="fill:#701d25;stroke:none" />
  <path
     d="M 86.893606,222.09212 L 92.661214,226.7062 L 86.893606,222.09212 z"
     id="path208"
     style="fill:#d65f75;stroke:none" />
  <path
     d="M 75.358391,223.24564 L 82.27952,227.85972 L 75.358391,223.24564 z"
     id="path209"
     style="fill:#da5679;stroke:none" />
  <path
     d="M 60.362611,224.39916 L 62.669654,227.85972 L 60.362611,224.39916 z"
     id="path210"
     style="fill:#b37697;stroke:none" />
  <path
     d="M 60.362611,226.7062 L 62.669654,230.16677 L 60.362611,226.7062 z"
     id="path211"
     style="fill:#8a1b51;stroke:none" />
  <path
     d="M 62.669654,227.85972 L 66.130218,233.62733 L 62.669654,227.85972 z"
     id="path212"
     style="fill:#a57094;stroke:none" />
  <path
     d="M 73.051348,229.01325 L 78.818955,233.62733 L 78.818955,229.01325 L 73.051348,229.01325 z"
     id="path213"
     style="fill:#665b6b;stroke:none" />
  <path
     d="M 107.657,229.01325 C 107.672,232.69759 107.19213,235.09346 111.11757,235.93438 L 107.657,229.01325 z"
     id="path214"
     style="fill:#6c2147;stroke:none" />
  <path
     d="M 54.595003,232.47381 L 54.595003,233.62733 L 66.130218,242.8555 L 66.130218,233.62733 L 63.823175,235.93438 L 54.595003,232.47381 z"
     id="path215"
     style="fill:#d01b51;stroke:none" />
  <path
     d="M 108.81052,230.16677 L 108.81052,234.78085 L 112.27109,230.16677 L 108.81052,230.16677 z"
     id="path216"
     style="fill:#2a2a4c;stroke:none" />
  <path
     d="M 116.88517,230.16677 L 113.42461,239.39494 L 119.19222,230.16677 L 116.88517,230.16677 z"
     id="path217"
     style="fill:#d6b1b4;stroke:none" />
  <path
     d="M 78.818955,231.32029 L 75.358391,232.47381 L 77.665434,248.62311 L 82.27952,245.16255 L 78.818955,231.32029 z"
     id="path218"
     style="fill:#9a7f8a;stroke:none" />
  <path
     d="M 52.28796,232.47381 L 59.209089,239.39494 L 52.28796,232.47381 z"
     id="path219"
     style="fill:#983142;stroke:none" />
  <path
     d="M 66.130218,232.47381 L 68.437262,235.93438 L 66.130218,232.47381 z"
     id="path220"
     style="fill:#c2b2a8;stroke:none" />
  <path
     d="M 69.590783,232.47381 L 69.590783,252.08368 L 70.744305,246.31607 L 75.358391,246.31607 L 74.204869,233.62733 L 71.897826,235.93438 L 69.590783,232.47381 z"
     id="path221"
     style="fill:#a95370;stroke:none" />
  <path
     d="M 79.972477,233.62733 C 80.880991,240.64766 82.148134,245.00221 89.200649,247.46959 C 88.334009,240.56 85.94968,237.16518 79.972477,233.62733 z"
     id="path222"
     style="fill:#d05970;stroke:none" />
  <path
     d="M 148.03026,234.78085 L 145.72321,269.3865 C 155.53391,261.87361 165.77949,258.38306 178.02182,261.31185 C 174.74466,248.78461 159.12021,254.34112 149.18378,254.39072 L 149.18378,250.93016 L 172.25421,249.77663 L 160.71899,239.39494 L 165.33308,233.62733 L 148.03026,234.78085 z"
     id="path223"
     style="fill:#266298;stroke:none" />
  <path
     d="M 66.130218,235.93438 L 66.130218,241.70198 L 67.28374,241.70198 L 66.130218,235.93438 z"
     id="path224"
     style="fill:#da66a4;stroke:none" />
  <path
     d="M 67.28374,235.93438 L 67.28374,244.00903 L 68.437262,244.00903 L 67.28374,235.93438 z"
     id="path225"
     style="fill:#fee3e4;stroke:none" />
  <path
     d="M 75.358391,235.93438 L 75.358391,245.16255 L 76.511912,245.16255 L 75.358391,235.93438 z"
     id="path226"
     style="fill:#f4eae8;stroke:none" />
  <path
     d="M 145.72321,235.93438 L 141.10913,255.54424 C 145.50981,249.25986 147.13051,243.52801 145.72321,235.93438 z"
     id="path227"
     style="fill:#532c4d;stroke:none" />
  <path
     d="M 92.661214,244.00903 C 95.006323,243.98596 97.363775,244.01133 99.703694,243.82216 C 114.42933,242.63172 102.60273,234.99195 92.661214,244.00903 z"
     id="path228"
     style="fill:#b4011b;stroke:none" />
  <path
     d="M 68.437262,238.24142 L 69.590783,249.77663 L 68.437262,238.24142 z"
     id="path229"
     style="fill:#b6858a;stroke:none" />
  <path
     d="M 76.511912,238.24142 L 78.818955,250.93016 L 76.511912,238.24142 z"
     id="path230"
     style="fill:#cec0bb;stroke:none" />
  <path
     d="M 74.204869,239.39494 L 74.204869,244.00903 L 75.358391,244.00903 L 74.204869,239.39494 z"
     id="path231"
     style="fill:#b890b4;stroke:none" />
  <path
     d="M 112.27109,239.39494 L 111.11757,245.16255 L 114.57813,239.39494 L 112.27109,239.39494 z"
     id="path232"
     style="fill:#946475;stroke:none" />
  <path
     d="M 113.42461,240.54846 L 116.88517,245.16255 L 119.19222,240.54846 L 113.42461,240.54846 z"
     id="path233"
     style="fill:#902844;stroke:none" />
  <path
     d="M 66.130218,241.70198 L 61.516132,242.8555 L 62.669654,246.31607 L 67.28374,247.46959 L 66.130218,241.70198 z"
     id="path234"
     style="fill:#c94f63;stroke:none" />
  <path
     d="M 109.96405,241.70198 L 89.200649,245.16255 C 96.721033,250.3061 106.00631,247.78104 114.57813,247.46959 L 115.73165,242.8555 L 111.11757,245.16255 L 109.96405,241.70198 z"
     id="path235"
     style="fill:#5e2d44;stroke:none" />
  <path
     d="M 62.669654,246.31607 L 63.823175,250.93016 L 68.437262,250.93016 L 66.130218,245.16255 L 62.669654,246.31607 z"
     id="path236"
     style="fill:#732645;stroke:none" />
  <path
     d="M 70.744305,246.31607 L 70.744305,252.08368 L 64.976697,250.93016 L 64.976697,256.69776 C 76.404289,260.4444 88.14287,261.1642 93.814736,248.62311 L 79.972477,246.31607 L 78.818955,250.93016 L 76.511912,250.93016 L 70.744305,246.31607 z"
     id="path237"
     style="fill:#4c495f;stroke:none" />
  <path
     d="M 94.968257,248.62311 L 111.11757,255.54424 L 113.42461,246.31607 L 94.968257,248.62311 z"
     id="path238"
     style="fill:#32334b;stroke:none" />
  <path
     d="M 93.814736,248.62311 L 98.867506,266.08974 L 94.968257,308.60623 L 98.428822,301.6851 L 101.88939,302.83862 L 101.88939,297.07102 C 109.56839,301.01952 116.46529,301.89043 124.95983,300.53158 L 116.88517,294.76397 L 128.42039,288.99637 L 129.57391,292.45693 L 142.26265,284.38228 L 141.10913,280.92172 L 144.56969,282.07524 L 142.26265,265.92594 L 136.49504,275.15411 L 93.814736,248.62311 z"
     id="path239"
     style="fill:#347cc0;stroke:none" />
  <path
     d="M 139.95561,252.08368 L 129.57391,269.3865 C 136.5481,265.87633 139.85063,259.82957 139.95561,252.08368 z"
     id="path240"
     style="fill:#7e395e;stroke:none" />
  <path
     d="M 92.661214,253.2372 L 75.358391,260.15833 L 75.358391,261.31185 L 91.507692,261.31185 C 86.296544,275.62705 66.080732,272.39142 67.28374,256.69776 L 61.516132,270.54002 L 70.744305,276.30763 C 73.246062,282.22635 78.841334,282.14906 84.586563,283.22876 L 90.354171,270.54002 C 97.040097,267.89154 95.61446,258.57685 92.661214,253.2372 z"
     id="path241"
     style="fill:#d8a288;stroke:none" />
  <path
     d="M 141.10913,255.54424 L 130.72743,274.00059 L 136.49504,275.15411 L 142.26265,265.92594 L 144.56969,282.07524 L 141.10913,280.92172 L 142.26265,284.38228 L 128.42039,288.99637 L 116.88517,294.76397 L 124.95983,300.53158 C 116.48144,301.73932 109.6722,300.6181 101.88939,297.07102 L 101.88939,302.83862 L 98.428822,301.6851 L 94.968257,308.60623 L 98.428822,270.54002 L 97.2753,270.54002 L 85.740085,322.44849 L 143.41617,322.44849 C 138.39143,310.94557 147.49387,300.56157 148.75697,288.99637 C 150.0443,277.22122 144.99765,266.97218 143.41617,255.54424 L 141.10913,255.54424 z"
     id="path242"
     style="fill:#377ec4;stroke:none" />
  <path
     d="M 67.28374,256.69776 C 64.646098,272.76747 87.455256,276.37915 91.507692,261.31185 L 67.28374,256.69776 z"
     id="path243"
     style="fill:#e2b699;stroke:none" />
  <path
     d="M 111.11757,256.69776 C 115.04877,264.31793 125.12709,273.79295 134.188,269.3865 L 111.11757,256.69776 z"
     id="path244"
     style="fill:#9a5a95;stroke:none" />
  <path
     d="M 94.968257,257.85128 L 97.2753,277.46115 C 97.834181,270.74419 103.05641,261.56562 94.968257,257.85128 z"
     id="path245"
     style="fill:#6f7aa7;stroke:none" />
  <path
     d="M 146.87673,298.22454 L 160.71899,299.37806 C 159.62545,285.1263 179.77863,282.45359 178.49476,268.3391 C 177.31932,255.41389 156.63207,259.07171 150.67413,266.13588 C 145.27911,272.53215 148.79619,289.71155 146.87673,298.22454 z"
     id="path246"
     style="fill:#133c74;stroke:none" />
  <path
     d="M 178.02182,260.15833 C 179.76825,273.38922 173.73302,278.58237 165.33308,287.84284 C 173.70995,284.3246 178.71278,279.66668 180.32886,270.54002 L 184.94295,274.00059 L 183.78942,262.46537 L 178.02182,260.15833 z"
     id="path247"
     style="fill:#3e5b7e;stroke:none" />
  <path
     d="M 62.669654,261.31185 C 59.695529,267.31016 60.538523,272.32683 66.130218,276.30763 L 61.516132,270.54002 L 62.669654,261.31185 z"
     id="path248"
     style="fill:#8f646a;stroke:none" />
  <path
     d="M 90.354171,270.54002 L 97.2753,280.92172 L 93.814736,270.54002 L 90.354171,270.54002 z"
     id="path249"
     style="fill:#60577c;stroke:none" />
  <path
     d="M 180.32886,270.54002 C 177.65961,281.3739 163.36286,286.72854 166.4866,298.22454 L 167.64012,298.22454 C 177.47159,291.50643 188.19588,282.83425 180.32886,270.54002 z"
     id="path250"
     style="fill:#848790;stroke:none" />
  <path
     d="M 183.78942,274.00059 L 189.55703,292.45693 C 192.00596,284.84254 190.37719,278.66889 183.78942,274.00059 z"
     id="path251"
     style="fill:#685658;stroke:none" />
  <path
     d="M 66.130218,276.30763 L 69.590783,278.61467 L 71.897826,283.22876 L 70.744305,276.30763 L 66.130218,276.30763 z"
     id="path252"
     style="fill:#715654;stroke:none" />
  <path
     d="M 86.893606,278.61467 L 84.586563,283.22876 C 87.642126,282.57356 88.456397,281.39697 86.893606,278.61467 z"
     id="path253"
     style="fill:#af7465;stroke:none" />
  <path
     d="M 184.94295,278.61467 L 167.64012,298.22454 L 188.40351,293.61045 C 189.68507,287.45295 188.78879,283.58174 184.94295,278.61467 z"
     id="path254"
     style="fill:#a8a390;stroke:none" />
  <path
     d="M 71.897826,282.07524 L 71.897826,283.22876 L 81.125999,283.22876 L 71.897826,282.07524 z"
     id="path255"
     style="fill:#9b6b64;stroke:none" />
  <path
     d="M 92.661214,285.5358 L 86.893606,310.91328 C 92.02943,303.30003 94.314441,294.61748 94.968257,285.5358 L 92.661214,285.5358 z"
     id="path256"
     style="fill:#675963;stroke:none" />
  <path
     d="M 160.71899,301.6851 L 166.4866,299.37806 L 165.33308,287.84284 C 159.70159,291.51566 159.57009,295.37995 160.71899,301.6851 z"
     id="path257"
     style="fill:#5a6671;stroke:none" />
  <path
     d="M 161.87251,299.37806 L 161.87251,301.6851 C 171.81587,301.47055 180.19505,299.94905 187.24999,292.45693 L 161.87251,299.37806 z"
     id="path258"
     style="fill:#bfc2b6;stroke:none" />
  <path
     d="M 188.40351,292.45693 L 187.24999,294.76397 L 189.55703,294.76397 L 188.40351,292.45693 z"
     id="path259"
     style="fill:#544b60;stroke:none" />
  <path
     d="M 186.09647,294.76397 L 171.10069,302.83862 C 177.10015,302.16497 183.70637,300.95608 186.09647,294.76397 z"
     id="path260"
     style="fill:#484653;stroke:none" />
  <path
     d="M 152.64434,302.83862 L 163.02604,302.83862 C 159.01293,300.24551 156.56055,299.97674 152.64434,302.83862 z"
     id="path261"
     style="fill:#242130;stroke:none" />
  <path
     d="M 163.02604,301.6851 L 163.02604,302.83862 L 171.10069,302.83862 L 163.02604,301.6851 z"
     id="path262"
     style="fill:#958290;stroke:none" />
  <path
     d="M 85.740085,313.22032 L 83.433042,322.44849 L 85.740085,313.22032 z"
     id="path263"
     style="fill:#4c5566;stroke:none" />
</svg>
