<?xml version="1.0" encoding="UTF-8" standalone="no"?>
<!-- Created with Inkscape (http://www.inkscape.org/) -->
<svg
   xmlns:dc="http://purl.org/dc/elements/1.1/"
   xmlns:cc="http://creativecommons.org/ns#"
   xmlns:rdf="http://www.w3.org/1999/02/22-rdf-syntax-ns#"
   xmlns:svg="http://www.w3.org/2000/svg"
   xmlns="http://www.w3.org/2000/svg"
   xmlns:xlink="http://www.w3.org/1999/xlink"
   xmlns:sodipodi="http://sodipodi.sourceforge.net/DTD/sodipodi-0.dtd"
   xmlns:inkscape="http://www.inkscape.org/namespaces/inkscape"
   height="544.27191"
   id="svg2"
   inkscape:version="0.45+devel"
   sodipodi:docbase="C:\Dokumente und Einstellungen\seitz\Eigene Dateien\Eigene Bilder"
   sodipodi:docname="shadow_babe_robert_seitz_01.svg"
   sodipodi:version="0.32"
   width="940.10004"
   inkscape:output_extension="org.inkscape.output.svg.inkscape"
   version="1.0">
  <metadata
     id="metadata3">
    <rdf:RDF>
      <cc:Work
         rdf:about="">
        <dc:title>Shadow Babe</dc:title>
        <dc:description />
        <dc:subject>
          <rdf:Bag>
            <rdf:li>girls</rdf:li>
            <rdf:li>woman</rdf:li>
            <rdf:li>erotik</rdf:li>
            <rdf:li>shape</rdf:li>
          </rdf:Bag>
        </dc:subject>
        <dc:publisher>
          <cc:Agent
             rdf:about="http://www.openclipart.org/">
            <dc:title>Open Clip Art Library</dc:title>
          </cc:Agent>
        </dc:publisher>
        <dc:creator>
          <cc:Agent>
            <dc:title>Robert Seitz</dc:title>
          </cc:Agent>
        </dc:creator>
        <dc:rights>
          <cc:Agent>
            <dc:title>Public Domain</dc:title>
          </cc:Agent>
        </dc:rights>
        <dc:date>26.07.2005</dc:date>
        <dc:format>image/svg+xml</dc:format>
        <dc:type
           rdf:resource="http://purl.org/dc/dcmitype/StillImage" />
        <cc:license
           rdf:resource="http://web.resource.org/cc/PublicDomain" />
        <dc:language>en</dc:language>
      </cc:Work>
      <cc:License
         rdf:about="http://web.resource.org/cc/PublicDomain">
        <cc:permits
           rdf:resource="http://web.resource.org/cc/Reproduction" />
        <cc:permits
           rdf:resource="http://web.resource.org/cc/Distribution" />
        <cc:permits
           rdf:resource="http://web.resource.org/cc/DerivativeWorks" />
      </cc:License>
    </rdf:RDF>
  </metadata>
  <defs
     id="defs4" />
  <sodipodi:namedview
     bordercolor="#666666"
     borderopacity="1.0"
     id="base"
     inkscape:current-layer="layer2"
     inkscape:cx="506.63805"
     inkscape:cy="364.89113"
     inkscape:document-units="px"
     inkscape:pageopacity="0.0"
     inkscape:pageshadow="2"
     inkscape:window-height="952"
     inkscape:window-width="1280"
     inkscape:window-x="-4"
     inkscape:window-y="-4"
     inkscape:zoom="1.5678425"
     pagecolor="#ffffff"
     showborder="true"
     showgrid="false" />
  <g
     id="layer1"
     inkscape:groupmode="layer"
     inkscape:label="Ebene 1"
     sodipodi:insensitive="true"
     style="display:none"
     transform="translate(-39.685709,-132.53093)">
    <image
       height="768"
       id="image1313"
       sodipodi:absref="C:\Dokumente und Einstellungen\seitz\Lokale Einstellungen\Temporary Internet Files\Content.IE5\S9IZ85QB\Aria_Giovanni_0007_1024[1].jpg"
       width="1024"
       x="19.428572"
       xlink:href="C:\Dokumente und Einstellungen\seitz\Lokale Einstellungen\Temporary Internet Files\Content.IE5\S9IZ85QB\Aria_Giovanni_0007_1024[1].jpg"
       y="-22.762661" />
  </g>
  <g
     id="layer2"
     inkscape:groupmode="layer"
     inkscape:label="Zeichnung"
     style="display:inline"
     transform="translate(-39.685709,-132.53093)">
    <path
       d="M 979.28572,578.3802 C 974.58016,594.80877 952.12105,618.94726 937.85714,620.52305 C 929.37114,610.01778 933.87587,615.71208 933.87587,615.71208 C 933.87587,615.71208 878.93903,586.39501 871.6176,594.43073 C 864.29617,602.46644 906.42857,648.3802 906.42857,648.3802 L 902.14286,654.09448 C 902.14286,654.09448 864.65558,609.50343 818.11977,592.21426 C 798.60791,582.08992 803.61164,562.96103 802.14286,555.52305 C 745.78404,527.07453 678.49827,537.3015 640.74609,499.1681 C 641.60078,510.14683 640.55366,503.65079 654.28571,526.95163 C 661.45197,550.51511 669.58016,576.16373 675.45166,595.52305 C 681.06053,597.28604 683.50827,600.43945 691.42857,603.86366 C 698.03571,608.86366 702.14286,615.52305 702.14286,615.52305 C 705.47619,615.52305 707.759,614.73515 711.35496,615.78568 C 710.88746,623.83185 709.61014,632.66591 706.42857,641.23734 C 699.69959,645.07681 692.34317,647.71969 685.14722,649.47252 C 672.90622,651.18493 661.19048,651.32155 650,649.09448 C 643.22519,632.49143 641.17775,604.33258 617.85714,581.95163 C 611.77481,587.86039 613.57143,625.28496 611.42857,646.95163 C 609.04762,647.18972 606.66666,647.42782 604.28571,647.66591 C 602.99436,616.171 601.17775,606.21189 580.71429,547.66591 C 580.92058,537.61684 578.23791,540.96198 590.7879,519.88238 C 592.58452,514.71062 585.71429,512.42781 583.57143,509.09448 C 562.71174,553.65282 500.61887,623.42382 471.35496,656.42637 C 466.91567,663.7245 385.26263,664.53999 342.21647,658.49561 C 328.58869,657.14852 319.16303,644.24564 310,627.66591 C 300.74609,611.23734 288.3406,593.75824 273.57143,578.3802 C 273.09524,591.95163 271.04326,605.26042 272.14286,619.09448 C 288.36969,619.15355 286.21229,626.82894 281.95383,632.66591 C 279.64649,636.95889 277.07652,638.36293 272.14286,638.97907 L 255,639.61974 C 247.36369,642.04644 235,641.05892 225,639.80877 C 219.28571,637.66591 214.35932,633.15937 207.85714,633.3802 C 202.56997,636.09739 199.12123,638.81459 193.57143,638.3802 C 188.15431,638.50288 188.25246,636.52451 190.71429,634.80877 C 195.95238,630.76115 201.56189,627.64207 206.42857,622.66591 C 211.27612,623.65155 210.18099,620.73731 212.80004,619.30874 C 221.27141,619.30874 227.14286,619.49445 233.57143,618.3802 C 235.47619,617.42782 237.38095,616.47543 239.28571,615.52305 C 239.28571,586.47543 236.50008,557.42782 239.28571,528.3802 C 224.62858,508.83255 210.89999,485.94214 195.12861,465.83737 C 193.7333,514.27935 189.73807,505.52305 185.92854,524.80877 C 181.73328,543.61829 177.1666,564.65632 170,581.23734 C 163.56672,600.83737 158.80481,622.66591 155.71429,643.3802 C 154.41904,652.6515 154.42375,655.98012 151.64283,657.45166 C 151.1428,666.03722 151.94273,670.16577 146.42857,670.39444 C 140.47619,670.87063 134.52381,670.04686 128.57143,670.52305 C 125.51416,674.09919 115.02855,676.37537 107.88569,676.23734 C 104.01907,675.07541 103.49521,673.17065 102.0428,671.08018 C 79.97173,668.47554 80,673.85638 70,675.52305 C 65.528577,676.82301 60.500028,676.26588 57.142857,675.52305 C 57.857143,673.61829 58.942846,672.64207 59.657131,670.73731 C 56.561893,672.88017 53.838073,675.39444 50,676.23734 C 46.109541,676.50398 43.519042,674.35642 40.185709,673.88023 C 45.700151,666.01837 67.185541,659.08506 73.071401,655.12309 C 80.690448,653.21832 92.209379,652.98494 95,650.52305 C 103.33333,649.09448 112.22379,649.15158 120,646.23734 C 127.04751,643.33252 127.78092,641.17054 130,631.95163 C 133.01436,624.22807 135.76608,514.86602 149.28571,489.80877 C 141.90476,447.18972 132.68539,404.57067 127.14286,361.95162 C 125.02726,338.03668 141.03326,315.69753 146.27135,295.45944 C 151.14201,281.59751 151.02266,269.31137 152.74173,256.23734 C 161.3795,227.70771 171.33042,203.38019 182.85714,176.95162 C 189.99273,161.10738 199.22937,150.51578 212.14286,141.23734 C 220.07361,137.2806 226.16594,134.63701 233.57143,134.09448 C 246.43584,130.1232 259.56288,138.23298 264.28571,142.66591 C 272.0029,146.59085 277.09378,152.87947 283.23518,158.3802 C 288.33333,165.52306 293.69411,172.66591 296.42857,179.80877 C 299.12123,191.14646 300.50073,205.11048 298.99128,214.87238 C 292.8008,236.30095 288.44875,251.68899 283.57143,273.3802 C 283.09524,276.95163 282.61905,280.52305 282.14286,284.09448 C 287.14286,287.18972 301.47764,293.12029 303.3824,304.54614 C 303.85859,308.59375 303.80952,312.904 304.28571,316.95162 C 304.04762,319.80876 303.80952,322.66591 303.57143,325.52305 C 305.06634,329.02814 309.71283,329.11902 313.57143,330.52305 C 333.83134,336.26187 347.00019,342.00069 350.71429,346.95162 C 352.38096,347.18972 354.04762,347.42781 355.71429,347.66591 C 356.31316,349.33258 354.28572,350.99924 353.57143,352.66591 C 357.21374,377.45689 349.56288,391.74261 340.8615,397.88674 C 336.16594,401.171 333.57143,403.1421 330.71429,406.95162 C 331.42857,409.33257 337.65812,417.75406 338.37241,420.13501 C 352.81988,444.25624 353.34788,459.44799 354.66376,482.51869 C 359.38659,490.76115 376.19048,497.42781 386.42857,504.09448 C 391.04326,479.80877 398.28426,481.5236 405,431.23734 C 415.46165,375.74934 434.32752,336.28187 452.14286,303.3802 C 464.59742,288.49834 474.16303,287.53596 487.14286,285.52305 C 497.46183,285.56485 502.52817,287.70771 507.85714,291.95162 C 529.79098,303.78277 537.01745,318.76551 542.14286,329.80877 C 554.62196,348.09303 566.31316,367.16518 576.42857,386.23734 C 583.88313,383.47834 592.12559,376.51724 599.05489,374.80877 C 616.80389,370.92836 626.4113,377.81586 637.85714,388.3802 C 656.6494,401.38456 679.1185,417.80313 687.14286,422.66591 C 723.08797,439.52433 777.4173,488.94908 802.85714,497.66591 C 819.80371,508.55195 836.99405,513.05282 860,524.80877 C 883.00595,536.56472 898.55657,544.58276 912.29008,555.52305 C 923.60702,560.06464 919.41149,558.3773 928.57143,561.23734 C 947.77886,559.67034 955.44211,563.78959 956.42857,564.80877 C 964.50609,560.31268 960.41985,559.03223 969.02309,556.64719 C 972.37369,569.23216 977.95075,570.88111 979.28572,578.3802 z M 507.38202,422.75253 C 507.42431,429.75018 507.227,433.81628 507.49478,436.16997 C 509.39746,434.74648 510.72229,433.63306 513.69611,431.60353 C 511.48336,430.36326 509.31289,426.01528 507.38202,422.75253 z"
       id="path1317"
       style="fill:#000000;fill-opacity:1;fill-rule:evenodd;stroke:#000000;stroke-width:1px;stroke-linecap:butt;stroke-linejoin:miter;stroke-opacity:1" />
  </g>
</svg>
