<?xml version="1.0" encoding="UTF-8" standalone="no"?>
<!-- Created with Inkscape (http://www.inkscape.org/) -->
<svg
   xmlns:dc="http://purl.org/dc/elements/1.1/"
   xmlns:cc="http://creativecommons.org/ns#"
   xmlns:rdf="http://www.w3.org/1999/02/22-rdf-syntax-ns#"
   xmlns:svg="http://www.w3.org/2000/svg"
   xmlns="http://www.w3.org/2000/svg"
   xmlns:xlink="http://www.w3.org/1999/xlink"
   xmlns:sodipodi="http://sodipodi.sourceforge.net/DTD/sodipodi-0.dtd"
   xmlns:inkscape="http://www.inkscape.org/namespaces/inkscape"
   height="500.198"
   id="svg2"
   version="1.0"
   width="293.99075"
   x="0.00000000"
   y="0.00000000"
   sodipodi:version="0.32"
   inkscape:version="0.46"
   sodipodi:docname="bride1_jarno_vasamaa_01.svg"
   inkscape:output_extension="org.inkscape.output.svg.inkscape">
  <sodipodi:namedview
     inkscape:window-height="715"
     inkscape:window-width="687"
     inkscape:pageshadow="2"
     inkscape:pageopacity="0.0"
     guidetolerance="10.0"
     gridtolerance="10.0"
     objecttolerance="10.0"
     borderopacity="1.0"
     bordercolor="#666666"
     pagecolor="#ffffff"
     id="base"
     showgrid="false"
     inkscape:zoom="0.98760891"
     inkscape:cx="146.99538"
     inkscape:cy="250.099"
     inkscape:window-x="0"
     inkscape:window-y="25"
     inkscape:current-layer="svg2" />
  <metadata
     id="metadata3">
    <rdf:RDF>
      <cc:Work
         rdf:about="">
        <dc:title>bride1</dc:title>
        <dc:description>bride</dc:description>
        <dc:subject>
          <rdf:Bag>
            <rdf:li>people</rdf:li>
            <rdf:li>woman</rdf:li>
            <rdf:li>wedding</rdf:li>
            <rdf:li>bride</rdf:li>
          </rdf:Bag>
        </dc:subject>
        <dc:publisher>
          <cc:Agent
             rdf:about="http://www.openclipart.org/">
            <dc:title>Open Clip Art Library</dc:title>
          </cc:Agent>
        </dc:publisher>
        <dc:creator>
          <cc:Agent>
            <dc:title>Jarno Vasamaa</dc:title>
          </cc:Agent>
        </dc:creator>
        <dc:rights>
          <cc:Agent>
            <dc:title>Jarno Vasamaa</dc:title>
          </cc:Agent>
        </dc:rights>
        <dc:date />
        <dc:format>image/svg+xml</dc:format>
        <dc:type
           rdf:resource="http://purl.org/dc/dcmitype/StillImage" />
        <cc:license
           rdf:resource="http://creativecommons.org/licenses/publicdomain/" />
        <dc:language>en</dc:language>
      </cc:Work>
      <cc:License
         rdf:about="http://creativecommons.org/licenses/publicdomain/">
        <cc:permits
           rdf:resource="http://creativecommons.org/ns#Reproduction" />
        <cc:permits
           rdf:resource="http://creativecommons.org/ns#Distribution" />
        <cc:permits
           rdf:resource="http://creativecommons.org/ns#DerivativeWorks" />
      </cc:License>
    </rdf:RDF>
  </metadata>
  <defs
     id="defs3">
    <inkscape:perspective
       sodipodi:type="inkscape:persp3d"
       inkscape:vp_x="0 : 526.18109 : 1"
       inkscape:vp_y="0 : 1000 : 0"
       inkscape:vp_z="744.09448 : 526.18109 : 1"
       inkscape:persp3d-origin="372.04724 : 350.78739 : 1"
       id="perspective51" />
    <linearGradient
       id="linearGradient2170">
      <stop
         id="stop2172"
         offset="0.00000000"
         style="stop-color:#000007;stop-opacity:1.0000000;" />
      <stop
         id="stop2180"
         offset="0.27000001"
         style="stop-color:#6db9ff;stop-opacity:1.0000000;" />
      <stop
         id="stop2182"
         offset="0.57579190"
         style="stop-color:#4168ff;stop-opacity:1.0000000;" />
      <stop
         id="stop2178"
         offset="0.60491496"
         style="stop-color:#ffffff;stop-opacity:1.0000000;" />
      <stop
         id="stop2174"
         offset="1.0000000"
         style="stop-color:#ffffff;stop-opacity:1.0000000;" />
    </linearGradient>
    <radialGradient
       cx="177.45016"
       cy="497.86371"
       fx="177.45016"
       fy="497.86371"
       gradientTransform="scale(1.190672,0.839862)"
       gradientUnits="userSpaceOnUse"
       id="radialGradient2176"
       r="2.9030735"
       xlink:href="#linearGradient2170" />
    <radialGradient
       cx="145.90445"
       cy="574.54547"
       fx="145.90445"
       fy="574.54547"
       gradientTransform="scale(1.354717,0.738161)"
       gradientUnits="userSpaceOnUse"
       id="radialGradient2190"
       r="1.925083"
       xlink:href="#linearGradient2170" />
    <radialGradient
       cx="177.45016"
       cy="497.86371"
       fx="177.45016"
       fy="497.86371"
       gradientTransform="scale(1.190672,0.839862)"
       gradientUnits="userSpaceOnUse"
       id="radialGradient2245"
       r="2.9030735"
       xlink:href="#linearGradient2170" />
    <radialGradient
       cx="145.90445"
       cy="574.54547"
       fx="145.90445"
       fy="574.54547"
       gradientTransform="scale(1.354717,0.738161)"
       gradientUnits="userSpaceOnUse"
       id="radialGradient2247"
       r="1.925083"
       xlink:href="#linearGradient2170" />
    <radialGradient
       cx="145.90445"
       cy="574.54547"
       fx="145.90445"
       fy="574.54547"
       gradientTransform="matrix(2.749175,0,0,1.497976,-204.6729,-697.4828)"
       gradientUnits="userSpaceOnUse"
       id="radialGradient2274"
       r="1.925083"
       xlink:href="#linearGradient2170" />
    <radialGradient
       cx="177.45016"
       cy="497.86371"
       fx="177.45016"
       fy="497.86371"
       gradientTransform="matrix(2.416272,0,0,1.704361,-204.6729,-697.4828)"
       gradientUnits="userSpaceOnUse"
       id="radialGradient2277"
       r="2.9030735"
       xlink:href="#linearGradient2170" />
  </defs>
  <g
     id="layer1"
     transform="matrix(0.5307786,0,0,0.5307786,-55.224192,-31.125694)">
    <path
       d="M 266.91417,110.86241 C 266.91417,110.86241 279.06847,108.43155 287.57648,115.72413 C 296.08451,123.01671 333.76284,174.06479 350.77888,203.23512 C 367.79491,232.40546 390.40944,257.41557 455.28385,433.36843 C 449.2067,443.09187 450.44419,428.08979 440.72075,440.2441 C 430.99729,452.3984 432.21272,448.75211 415.19671,448.75211 C 398.18067,448.75211 370.22577,446.32125 366.57948,453.61383 C 362.93318,460.90643 349.56345,466.98357 342.27087,463.33728 C 334.97827,459.69098 311.88509,454.82926 303.37708,459.69098 C 294.86908,464.55271 274.20675,313.83932 259.62158,305.33129 C 245.03642,296.82329 183.04945,245.7752 176.9723,250.63692 C 170.89515,255.49864 193.98834,234.83634 197.63463,219.03573 C 201.28091,203.23512 196.4192,154.6179 203.71177,149.75618 C 211.00435,144.89446 266.91417,110.86241 266.91417,110.86241 z"
       id="path2152"
       style="fill:#ffffff;fill-opacity:1;fill-rule:evenodd;stroke:#000000;stroke-width:2.02933502;stroke-linecap:butt;stroke-linejoin:miter;stroke-miterlimit:4;stroke-opacity:0.19459456" />
    <path
       d="M 301.83018,380.90898 L 341.60791,377.37319 L 354.86714,381.79294 L 341.60791,410.07932 L 293.87462,419.80277 L 277.96354,399.47192 L 301.83018,380.90898 z"
       id="path2162"
       style="fill:#ffffff;fill-opacity:1;fill-rule:evenodd;stroke:#000000;stroke-width:2.02933502px;stroke-linecap:butt;stroke-linejoin:miter;stroke-opacity:1" />
    <path
       d="M 173.48034,374.12687 L 172.62092,346.62481 L 160.58877,328.5766 L 164.02653,293.33959 L 182.07474,275.29135 L 296.38016,278.72911 L 315.28782,306.23116 L 316.14726,325.13884 C 316.14726,325.13884 304.97456,356.93807 302.39622,368.97022 C 299.81791,381.00237 291.22352,398.19117 293.80185,403.34781 C 296.38016,408.50443 310.99062,407.64501 318.72557,414.52052 C 326.46053,421.39602 334.19548,453.19528 337.63323,464.36798 C 341.07101,475.54069 353.96258,560.62517 359.97867,579.53285 C 365.99473,598.44051 377.16744,675.79003 405.52894,705.01097 C 433.89044,734.2319 486.31622,778.92274 524.13155,800.40871 C 561.94687,821.8947 642.73417,832.20797 649.60968,859.71002 C 656.48519,887.21208 665.07958,895.80647 641.01528,915.57358 C 616.95098,935.34068 596.32444,934.48123 564.52518,945.65394 C 532.72595,956.82665 441.62539,980.89095 410.68558,984.3287 C 379.74577,987.76646 399.51287,988.6259 378.02688,995.50141 C 356.54091,1002.3769 274.89417,1001.5175 243.95436,992.06366 C 213.01455,982.60984 202.70129,974.01544 178.63699,978.31264 C 154.57269,982.60984 105.05841,971.43711 105.05841,971.43711 C 105.05841,971.43711 134.66172,710.16759 134.66172,677.50892 C 134.66172,644.85022 141.68111,532.02516 151.13493,505.38255 C 160.58877,478.73992 173.48034,461.78967 175.19923,435.14704 C 176.91812,408.50443 173.48034,374.12687 173.48034,374.12687 z"
       id="path2154"
       style="fill:#ffffff;fill-opacity:1;fill-rule:evenodd;stroke:#000000;stroke-width:2.02933502px;stroke-linecap:butt;stroke-linejoin:miter;stroke-opacity:1" />
    <path
       d="M 151.55876,479.91133 C 151.55876,479.91133 145.37111,497.59033 145.37111,513.50141 C 145.37111,529.41251 146.25505,524.10881 153.32665,511.73352 C 160.39826,499.35822 160.39826,460.46444 151.55876,479.91133 z"
       id="path2166"
       style="fill:#ffffff;fill-opacity:1;fill-rule:evenodd;stroke:#000000;stroke-width:2.02933502px;stroke-linecap:butt;stroke-linejoin:miter;stroke-opacity:1" />
    <path
       d="M 178.18773,130.30931 C 178.18773,130.30931 175.75687,120.58585 180.61859,110.86241 C 185.48031,101.13896 201.28091,95.061808 202.49634,87.769231 C 203.71177,80.476653 197.63463,71.968625 206.14263,68.322336 C 214.65066,64.676048 231.66668,58.5989 234.09753,59.814329 C 236.52839,61.029759 249.89814,63.460618 254.75986,70.753196 C 259.62158,78.045773 272.99132,81.692062 275.42218,98.708097 C 272.99132,102.35439 266.91417,108.43155 265.69875,112.07784 C 264.48332,115.72413 269.34503,127.87843 269.34503,127.87843 L 257.19072,144.89446 L 206.14263,123.01671 L 178.18773,130.30931 z"
       id="path2146"
       style="fill:#450000;fill-opacity:1;fill-rule:evenodd;stroke:#000000;stroke-width:2.02933502px;stroke-linecap:butt;stroke-linejoin:miter;stroke-opacity:1" />
    <path
       d="M 308.90177,442.78546 C 309.78572,449.85704 315.08941,504.66191 310.66966,523.22487 C 306.24991,541.7878 299.17833,566.53839 317.74126,545.3236 C 336.3042,524.10881 348.67949,520.57301 342.49185,501.12612 C 336.3042,481.67923 320.39312,424.22252 320.39312,424.22252 C 320.39312,424.22252 306.24991,420.68671 308.90177,442.78546 z"
       id="path2164"
       style="fill:#ffffff;fill-opacity:1;fill-rule:evenodd;stroke:#000000;stroke-width:2.02933502px;stroke-linecap:butt;stroke-linejoin:miter;stroke-opacity:1" />
    <path
       d="M 142.33896,438.80628 C 142.33896,438.80628 135.75014,428.92303 134.652,420.13792 C 133.55385,411.35282 130.25945,393.7826 132.45571,384.99749 C 134.652,376.21237 141.24083,358.64215 142.33896,353.15146 C 143.4371,347.66077 143.4371,338.87565 145.63338,331.18867 C 147.82965,323.50172 154.4185,302.63707 155.51663,293.85195 C 156.61476,285.06686 159.90919,262.00594 163.20361,254.31897 C 166.49801,246.63199 179.67568,237.84687 186.26453,236.74874 C 192.85335,235.65061 225.79751,219.17851 225.79751,219.17851 L 226.89565,208.19713 C 226.89565,208.19713 200.54033,190.62691 198.34404,185.13622 C 196.14777,179.64553 195.04964,174.15484 192.85335,169.76228 C 190.65708,165.36972 186.26453,164.27159 184.06824,158.7809 C 181.87197,153.29019 177.47941,145.60323 177.47941,137.91625 C 177.47941,130.22927 179.67568,120.34602 184.06824,121.44418 C 188.46079,122.54231 193.95148,114.85533 204.93289,112.65906 C 215.91427,110.46278 232.38636,113.7572 240.07332,120.34602 C 247.7603,126.93487 252.15285,141.21067 255.44726,136.81812 C 258.74168,132.42556 259.83981,134.62183 259.83981,134.62183 C 259.83981,134.62183 258.74168,124.73858 262.0361,122.54231 C 265.33052,120.34602 268.62492,119.24789 269.72308,124.73858 C 270.82121,130.22927 275.21377,141.21067 273.01748,146.70136 C 270.82121,152.19205 271.91935,162.0753 271.91935,162.0753 L 282.90073,208.19713 C 282.90073,208.19713 292.78398,221.3748 305.96164,227.96363 C 319.13931,234.55247 337.80767,240.04316 343.29836,245.53385 C 348.78906,251.02454 358.67232,264.20221 359.77046,275.18359 C 360.86859,286.165 368.55557,327.89427 371.84997,341.07194 C 375.14439,354.24959 378.43882,378.40864 377.34068,388.29191 C 376.24253,398.17516 369.6537,411.35282 360.86859,419.03978 C 352.08348,426.72676 327.92443,437.70814 320.23745,438.80628 C 312.55049,439.90443 305.96164,441.00257 302.66724,445.39512 C 299.37282,449.78768 270.82121,464.06348 264.23237,464.06348 C 257.64354,464.06348 248.85843,459.67093 248.85843,459.67093 C 248.85843,459.67093 257.64354,460.76906 264.23237,456.3765 C 270.82121,451.98395 271.91935,450.88581 271.91935,450.88581 C 271.91935,450.88581 269.72308,451.00311 263.13423,453.19938 C 256.54541,455.39567 248.85843,457.47464 245.56401,457.47464 C 242.26961,457.47464 238.97518,453.08208 238.97518,453.08208 C 238.97518,453.08208 242.92532,450.3954 252.80857,448.19912 C 262.69182,446.00285 266.42866,441.00257 266.42866,441.00257 C 266.42866,441.00257 242.26961,450.88581 237.87705,449.78768 C 233.48449,448.68954 233.48449,445.39512 233.48449,445.39512 C 233.48449,445.39512 244.46587,439.90443 248.85843,437.70814 C 253.25099,435.51188 263.13423,428.92303 263.13423,428.92303 L 248.27747,435.20802 C 245.23889,436.42345 239.25779,439.26996 231.2882,443.19883 C 229.09194,437.70814 234.58263,433.31559 243.36774,427.8249 C 252.15285,422.33421 262.0361,413.54909 268.62492,414.64723 C 275.21377,415.74536 285.09702,419.03978 290.58771,416.84352 C 296.0784,414.64723 344.3965,392.68446 344.3965,392.68446 C 344.3965,392.68446 340.00396,366.32913 336.70954,354.24959 C 333.41512,342.17008 321.3356,330.09054 320.23745,321.30543 C 319.13931,312.52031 319.13931,308.12776 319.13931,308.12776 L 316.94305,326.79612 C 316.94305,326.79612 309.25607,298.24451 296.0784,292.75382 C 282.90073,287.26313 288.39144,285.06686 273.01748,283.96871 C 257.64354,282.87057 234.58263,290.55755 222.50309,291.65569 C 210.42358,292.75382 193.95148,282.87057 182.9701,282.87057 C 171.98872,282.87057 168.6943,293.85195 168.6943,293.85195 C 168.6943,293.85195 159.90919,312.52031 164.30174,327.89427 C 168.6943,343.26821 171.98872,345.46448 171.98872,345.46448 L 171.98872,372.91795 C 171.98872,372.91795 163.20361,381.70306 163.20361,390.48818 C 163.20361,399.27329 163.20361,425.62863 166.49801,430.02118 C 169.79243,434.41372 174.18499,444.29699 174.18499,444.29699 C 174.18499,444.29699 190.64777,465.52456 188.21265,472.91528 L 176.38128,478.33929 L 162.10546,483.82998 C 162.10546,483.82998 154.4185,480.53555 150.02594,476.143 C 145.63338,471.75044 146.73152,467.3579 145.63338,457.47464 C 144.53525,447.59139 142.33896,438.80628 142.33896,438.80628 z"
       id="path1358"
       style="fill:#ffb86b;fill-opacity:1;fill-rule:evenodd;stroke:#000000;stroke-width:2.02933502px;stroke-linecap:butt;stroke-linejoin:miter;stroke-opacity:1" />
    <path
       d="M 217.68922,154.6179 C 217.68922,154.6179 218.90465,152.18704 221.33551,150.36391 C 223.76637,148.54075 224.98182,147.32532 228.02039,147.32532 C 231.05897,147.32532 230.45125,146.71762 230.45125,146.71762 C 230.45125,146.71762 229.84354,150.36391 227.41268,152.18704 C 224.98182,154.0102 223.76637,154.6179 221.33551,155.22562 C 218.90465,155.83335 217.68922,154.6179 217.68922,154.6179 z"
       id="path1360"
       style="fill:url(#radialGradient2277);fill-opacity:1;fill-rule:evenodd;stroke:#000000;stroke-width:1.21760106;stroke-linecap:butt;stroke-linejoin:miter;stroke-miterlimit:4;stroke-opacity:1" />
    <path
       d="M 191.55748,164.94906 C 191.55748,164.94906 193.38061,160.69507 197.0269,160.69507 C 200.67321,160.69507 201.28091,161.9105 201.28091,161.9105 C 201.28091,161.9105 201.88864,164.34136 198.85006,164.94906 C 195.81147,165.55679 195.20377,166.16449 191.55748,164.94906 z"
       id="path1362"
       style="fill:url(#radialGradient2274);fill-opacity:1;fill-rule:evenodd;stroke:#000000;stroke-width:0.81173402;stroke-linecap:butt;stroke-linejoin:miter;stroke-miterlimit:4;stroke-opacity:1" />
    <path
       d="M 209.78892,147.32532 C 209.78892,147.32532 212.82751,142.4636 216.4738,140.03274 C 220.12008,137.60189 224.98182,136.99416 224.98182,136.99416"
       id="path1364"
       style="fill:none;fill-opacity:0.75;fill-rule:evenodd;stroke:#000000;stroke-width:2.02933502px;stroke-linecap:butt;stroke-linejoin:miter;stroke-opacity:1" />
    <path
       d="M 195.20377,155.22562 C 195.20377,155.22562 190.34205,154.0102 187.30346,155.22562 C 184.26488,156.44105 184.26488,155.83335 184.26488,155.83335"
       id="path1366"
       style="fill:none;fill-opacity:0.75;fill-rule:evenodd;stroke:#000000;stroke-width:2.02933502px;stroke-linecap:butt;stroke-linejoin:miter;stroke-opacity:1" />
    <path
       d="M 202.49634,155.83335 C 202.49634,155.83335 205.53493,158.26421 206.75036,165.55679 C 207.96579,172.84936 205.53493,179.53424 207.96579,180.14194 C 210.39665,180.74967 214.65066,181.35739 217.08152,178.92651 C 219.51238,176.49565 220.72781,175.28022 220.72781,175.28022"
       id="path1368"
       style="fill:none;fill-opacity:0.75;fill-rule:evenodd;stroke:#000000;stroke-width:1.42053449;stroke-linecap:butt;stroke-linejoin:miter;stroke-miterlimit:4;stroke-opacity:1" />
    <path
       d="M 211.8574,192.66261 C 211.8574,192.66261 215.03822,190.31258 218.07679,189.09715 C 221.11537,187.88172 223.2618,187.13178 226.30036,185.91635 C 229.33895,184.70092 236.32767,181.20657 236.32767,181.20657 C 236.32767,181.20657 234.80839,187.13178 229.33895,190.77807 C 223.8695,194.42436 219.33106,197.77652 211.8574,192.66261 z"
       id="path1370"
       style="fill:#cf0000;fill-opacity:1;fill-rule:evenodd;stroke:none;stroke-width:1px;stroke-linecap:butt;stroke-linejoin:miter;stroke-opacity:1" />
    <path
       d="M 265.69875,133.34787 C 265.69875,133.34787 269.34503,133.9556 268.1296,139.42502 C 266.91417,144.89446 265.69875,142.4636 265.69875,142.4636"
       id="path1372"
       style="fill:none;fill-opacity:0.75;fill-rule:evenodd;stroke:#000000;stroke-width:2.02933502px;stroke-linecap:butt;stroke-linejoin:miter;stroke-opacity:1" />
    <path
       d="M 267.52188,152.18704 C 267.52188,152.18704 264.48332,158.26421 268.1296,160.69507 C 271.77589,163.12593 269.34503,155.22562 267.52188,152.18704 z"
       id="path1374"
       style="fill:#acf0ff;fill-opacity:1;fill-rule:evenodd;stroke:#000000;stroke-width:0.60880053;stroke-linecap:butt;stroke-linejoin:miter;stroke-miterlimit:4;stroke-opacity:1" />
    <path
       d="M 227.41268,208.09686 C 227.41268,208.09686 232.2744,211.13543 237.74384,206.88143 C 243.21327,202.62742 257.79844,191.08083 259.01387,186.21911 C 260.2293,181.35739 259.62158,175.88795 259.62158,175.88795 C 259.62158,175.88795 262.05244,182.57282 260.83701,187.43454 C 259.62158,192.29626 246.25185,208.09686 243.21327,208.70457 C 240.1747,209.31229 232.2744,213.56629 227.41268,208.09686 z"
       id="path1376"
       style="fill:#000000;fill-opacity:0.2162162;fill-rule:evenodd;stroke:none;stroke-width:1px;stroke-linecap:butt;stroke-linejoin:miter;stroke-opacity:1" />
    <path
       d="M 223.76637,220.25116 C 223.76637,220.25116 223.15867,225.7206 226.80496,229.9746 C 230.45125,234.22861 234.70526,239.09033 241.39013,239.69805 C 248.07499,240.30576 251.11357,240.91348 260.2293,235.44404 C 269.34503,229.9746 276.02991,223.89745 280.2839,217.8203 C 284.53791,211.74315 284.53791,211.13543 284.53791,211.13543"
       id="path1378"
       style="fill:none;fill-opacity:0.75;fill-rule:evenodd;stroke:#00e7e0;stroke-width:3.04400253;stroke-linecap:round;stroke-linejoin:round;stroke-miterlimit:4;stroke-dasharray:3.0440025, 6.088005;stroke-dashoffset:0;stroke-opacity:1" />
    <path
       d="M 193.38061,236.65947 C 193.38061,236.65947 218.90465,239.69805 226.19725,243.95207 C 233.48983,248.20606 233.48983,246.99063 234.09753,248.20606 C 234.70526,249.42149 232.88211,254.89093 232.88211,254.89093 C 232.88211,254.89093 238.95927,249.42149 236.52839,246.38293 C 234.09753,243.34434 198.24233,233.62091 193.38061,236.65947 z"
       id="path1382"
       style="fill:#000000;fill-opacity:0.26486481;fill-rule:evenodd;stroke:none;stroke-width:1px;stroke-linecap:butt;stroke-linejoin:miter;stroke-opacity:1" />
    <path
       d="M 310.06196,234.22861 C 310.06196,234.22861 263.87559,240.30576 257.19072,243.95207 C 250.50586,247.59836 248.07499,248.20606 248.07499,248.20606 C 248.07499,248.20606 266.30645,237.26719 271.77589,236.65947 C 277.24534,236.05176 310.06196,234.22861 310.06196,234.22861 z"
       id="path2142"
       style="fill:#000000;fill-opacity:0.26486481;fill-rule:evenodd;stroke:none;stroke-width:1px;stroke-linecap:butt;stroke-linejoin:miter;stroke-opacity:1" />
    <path
       d="M 318.56996,308.36988 C 318.56996,308.36988 321.00082,301.685 319.17769,294.39243 C 317.35453,287.09985 323.43168,301.0773 322.21625,306.54672 C 321.00082,312.01617 321.00082,322.95505 321.00082,324.77819 C 321.00082,326.60134 318.56996,308.36988 318.56996,308.36988 z"
       id="path2144"
       style="fill:#000000;fill-opacity:0.26486481;fill-rule:evenodd;stroke:none;stroke-width:1px;stroke-linecap:butt;stroke-linejoin:miter;stroke-opacity:1" />
    <path
       d="M 189.12662,96.277238 C 189.12662,96.277238 185.48031,91.415519 190.34205,85.338371 C 195.20377,79.261223 193.98834,75.614914 201.28091,74.399485 C 208.57349,73.184055 223.15867,74.399485 231.66668,79.261223 C 240.1747,84.122942 262.05244,96.277238 263.26789,101.13896 C 264.48332,106.0007 265.69875,108.43155 265.69875,108.43155 C 265.69875,108.43155 252.329,95.061808 245.03642,92.630949 C 237.74382,90.20009 225.58953,84.122942 217.08152,85.338371 C 208.57349,86.553801 204.9272,88.98466 197.63463,92.630949 C 190.34205,96.277238 189.12662,96.277238 189.12662,96.277238 z"
       id="path2150"
       style="fill:#ffffff;fill-opacity:1;fill-rule:evenodd;stroke:#000000;stroke-width:2.02933502px;stroke-linecap:butt;stroke-linejoin:miter;stroke-opacity:1" />
    <path
       d="M 165.70194,423.33856 C 165.70194,423.33856 163.05009,408.31142 155.09455,404.77563 C 147.13901,401.23982 131.22793,388.86453 131.22793,394.16823 C 131.22793,399.47192 125.92422,395.05217 129.46001,384.44478 C 132.99582,373.8374 141.83532,351.73865 141.83532,351.73865 C 141.83532,351.73865 141.83532,358.81026 142.71926,363.23001 C 143.60322,367.64974 159.5143,371.18555 163.05009,380.02505 C 166.5859,388.86453 168.3538,390.63244 169.23774,400.35588 C 170.12169,410.07932 165.70194,421.57067 165.70194,423.33856 z"
       id="path2156"
       style="fill:#ffffff;fill-opacity:1;fill-rule:evenodd;stroke:#000000;stroke-width:2.02933502px;stroke-linecap:butt;stroke-linejoin:miter;stroke-opacity:1" />
    <path
       d="M 311.55362,405.65957 C 311.55362,405.65957 327.4647,391.51638 344.25974,383.56084 C 361.05478,375.6053 369.89428,375.6053 373.43009,372.95344 C 376.96588,370.30159 381.38563,371.18555 380.50168,380.90898 C 379.61774,390.63244 384.92143,393.28428 378.73378,404.77563 C 372.54613,416.26696 370.77824,422.45461 363.70664,425.99042 C 356.63505,429.52621 351.33135,426.87436 351.33135,426.87436 C 351.33135,426.87436 358.40295,426.87436 361.05478,421.57067 C 363.70664,416.26696 366.35849,407.42748 356.63505,403.89167 C 346.9116,400.35588 332.76841,398.58798 327.4647,400.35588 C 322.16101,402.12377 311.55362,405.65957 311.55362,405.65957 z"
       id="path2160"
       style="fill:#ffffff;fill-opacity:1;fill-rule:evenodd;stroke:#000000;stroke-width:2.02933502px;stroke-linecap:butt;stroke-linejoin:miter;stroke-opacity:1" />
    <path
       d="M 213.3203,569.5661 C 213.3203,576.00293 206.04661,581.22102 197.07405,581.22102 C 188.10149,581.22102 180.8278,576.00293 180.8278,569.5661 C 180.8278,563.12927 188.10149,557.91118 197.07405,557.91118 C 206.04661,557.91118 213.3203,563.12927 213.3203,569.5661 z"
       id="path2192"
       style="fill:#389c25;fill-opacity:1;fill-rule:evenodd;stroke:#000000;stroke-width:1.70000005;stroke-linecap:round;stroke-linejoin:round;stroke-miterlimit:4;stroke-dasharray:1.7, 3.4;stroke-dashoffset:0;stroke-opacity:1"
       transform="matrix(2.029335,0,1.079348,2.029335,-829.467,-703.2166)" />
    <path
       d="M 197.38485,564.32487 C 196.50252,565.5013 198.1456,567.03283 197.02361,567.98343 C 195.90163,568.93403 194.66079,567.06171 193.35541,567.73881 C 192.05002,568.41592 192.86588,570.50868 191.44255,570.87833 C 190.01923,571.24798 189.71364,569.0227 188.24375,569.06636 C 186.77386,569.11003 186.6009,571.34953 185.15814,571.06502 C 183.71539,570.78051 184.40558,568.643 183.0623,568.04458 C 181.71903,567.44616 180.59152,569.38884 179.41508,568.50651 C 178.23865,567.62419 179.78792,565.99783 178.83732,564.87584 C 177.88671,563.75386 176.02797,565.01494 175.35086,563.70956 C 174.67376,562.40417 176.77525,561.61108 176.4056,560.18775 C 176.03595,558.76443 173.81411,559.09414 173.77044,557.62425 C 173.72678,556.15436 175.96427,556.3516 176.24878,554.90885 C 176.5333,553.46609 174.38843,552.79913 174.98685,551.45586 C 175.58528,550.11259 177.5156,551.26111 178.39793,550.08468 C 179.28025,548.90825 177.63718,547.37672 178.75916,546.42611 C 179.88115,545.47551 181.12199,547.34784 182.42737,546.67073 C 183.73275,545.99363 182.9169,543.90087 184.34022,543.53121 C 185.76355,543.16156 186.06913,545.38685 187.53903,545.34318 C 189.00892,545.29952 189.18188,543.06002 190.62463,543.34453 C 192.06739,543.62904 191.3772,545.76654 192.72047,546.36496 C 194.06375,546.96339 195.19126,545.02071 196.36769,545.90304 C 197.54412,546.78536 195.99486,548.41172 196.94546,549.5337 C 197.89606,550.65569 199.75481,549.39461 200.43191,550.69999 C 201.10902,552.00537 199.00753,552.79847 199.37718,554.22179 C 199.74683,555.64512 201.96867,555.3154 202.01233,556.7853 C 202.056,558.25519 199.8185,558.05794 199.53399,559.5007 C 199.24948,560.94346 201.39434,561.61041 200.79592,562.95368 C 200.1975,564.29696 198.26717,563.14843 197.38485,564.32487 z"
       id="path2196"
       style="fill:#fef494;fill-opacity:1;fill-rule:evenodd;stroke:#000000;stroke-width:1;stroke-linecap:round;stroke-linejoin:round;stroke-miterlimit:4;stroke-dashoffset:0;stroke-opacity:1"
       transform="matrix(1.784246,0,0,1.580925,-155.0391,-454.0773)" />
    <path
       d="M 197.38485,564.32487 C 196.50252,565.5013 198.1456,567.03283 197.02361,567.98343 C 195.90163,568.93403 194.66079,567.06171 193.35541,567.73881 C 192.05002,568.41592 192.86588,570.50868 191.44255,570.87833 C 190.01923,571.24798 189.71364,569.0227 188.24375,569.06636 C 186.77386,569.11003 186.6009,571.34953 185.15814,571.06502 C 183.71539,570.78051 184.40558,568.643 183.0623,568.04458 C 181.71903,567.44616 180.59152,569.38884 179.41508,568.50651 C 178.23865,567.62419 179.78792,565.99783 178.83732,564.87584 C 177.88671,563.75386 176.02797,565.01494 175.35086,563.70956 C 174.67376,562.40417 176.77525,561.61108 176.4056,560.18775 C 176.03595,558.76443 173.81411,559.09414 173.77044,557.62425 C 173.72678,556.15436 175.96427,556.3516 176.24878,554.90885 C 176.5333,553.46609 174.38843,552.79913 174.98685,551.45586 C 175.58528,550.11259 177.5156,551.26111 178.39793,550.08468 C 179.28025,548.90825 177.63718,547.37672 178.75916,546.42611 C 179.88115,545.47551 181.12199,547.34784 182.42737,546.67073 C 183.73275,545.99363 182.9169,543.90087 184.34022,543.53121 C 185.76355,543.16156 186.06913,545.38685 187.53903,545.34318 C 189.00892,545.29952 189.18188,543.06002 190.62463,543.34453 C 192.06739,543.62904 191.3772,545.76654 192.72047,546.36496 C 194.06375,546.96339 195.19126,545.02071 196.36769,545.90304 C 197.54412,546.78536 195.99486,548.41172 196.94546,549.5337 C 197.89606,550.65569 199.75481,549.39461 200.43191,550.69999 C 201.10902,552.00537 199.00753,552.79847 199.37718,554.22179 C 199.74683,555.64512 201.96867,555.3154 202.01233,556.7853 C 202.056,558.25519 199.8185,558.05794 199.53399,559.5007 C 199.24948,560.94346 201.39434,561.61041 200.79592,562.95368 C 200.1975,564.29696 198.26717,563.14843 197.38485,564.32487 z"
       id="path2198"
       style="fill:#feba94;fill-opacity:1;fill-rule:evenodd;stroke:#000000;stroke-width:1;stroke-linecap:round;stroke-linejoin:round;stroke-miterlimit:4;stroke-dashoffset:0;stroke-opacity:1"
       transform="matrix(1.784246,0,0,1.580925,-136.4044,-439.7428)" />
    <path
       d="M 171.95228,346.5538 C 171.95228,346.5538 202.79255,352.16114 236.43649,349.35747 C 270.08042,346.5538 247.65112,353.09567 247.65112,353.09567 C 247.65112,353.09567 190.64334,349.35747 183.16691,352.16112 C 175.69049,354.96479 175.69049,397.95426 175.69049,397.95426 L 171.95228,346.5538 z"
       id="path2204"
       style="fill:#000000;fill-opacity:0.05945943;fill-rule:evenodd;stroke:none;stroke-width:1px;stroke-linecap:butt;stroke-linejoin:miter;stroke-opacity:1" />
    <path
       d="M 304.65891,359.63756 C 304.65891,359.63756 292.50971,396.08516 291.57516,398.88881 C 290.64059,401.69248 294.37881,405.4307 294.37881,405.4307 L 307.46256,410.10346 L 296.24793,413.84168 C 296.24793,413.84168 284.09873,419.449 286.90237,403.56158 C 289.70604,387.67418 304.65891,359.63756 304.65891,359.63756 z"
       id="path2206"
       style="fill:#000000;fill-opacity:0.1081081;fill-rule:evenodd;stroke:none;stroke-width:1px;stroke-linecap:butt;stroke-linejoin:miter;stroke-opacity:1" />
    <path
       d="M 184.10148,955.88286 C 184.10148,955.88286 200.92343,879.24945 202.79255,785.79407 C 204.66165,692.33871 187.83968,608.22886 193.44701,572.71582 C 199.05433,537.20277 206.53076,497.95151 206.53076,497.95151 C 206.53076,497.95151 197.18523,574.58492 197.18523,587.66867 C 197.18523,600.75243 212.13808,718.50621 212.13808,759.62657 C 212.13808,800.74694 195.31611,922.23893 200.92343,940.92999 C 206.53076,959.62108 251.38934,989.5268 223.35273,978.31215 C 195.31611,967.09752 189.70879,957.75196 184.10148,955.88286 z"
       id="path2208"
       style="fill:#000000;fill-opacity:0.02702703;fill-rule:evenodd;stroke:none;stroke-width:1px;stroke-linecap:butt;stroke-linejoin:miter;stroke-opacity:1" />
    <path
       d="M 258.86577,505.42795 C 258.86577,505.42795 279.42596,611.96708 283.16418,645.61102 C 286.90237,679.25496 298.11703,808.22338 307.46256,826.91445 C 316.8081,845.60551 350.45203,925.97714 363.53579,952.14465 C 376.61954,978.31215 371.01222,983.91947 393.44151,978.31215 C 415.87081,972.70483 477.55136,976.44305 438.3001,970.83572 C 399.04884,965.2284 385.96509,972.70483 372.88134,946.53733 C 359.79757,920.36983 320.54631,849.34373 309.33168,802.61604 C 298.11703,755.88835 283.16418,595.14511 277.55684,578.32314 C 271.94952,561.50117 258.86577,505.42795 258.86577,505.42795 z"
       id="path2210"
       style="fill:#000000;fill-opacity:0.02702703;fill-rule:evenodd;stroke:none;stroke-width:1px;stroke-linecap:butt;stroke-linejoin:miter;stroke-opacity:1" />
    <path
       d="M 389.44568,682.76087 C 389.44568,682.76087 404.32895,707.56633 415.49141,717.48851 C 426.65386,727.41069 494.86887,783.22297 502.31051,788.18406 C 509.75214,793.14516 535.79787,808.02843 548.2006,812.98952 C 560.60333,817.95061 604.01288,829.11307 613.93506,834.07416 C 623.85725,839.03525 637.50025,842.75607 643.70161,851.43798 C 649.90298,860.11989 654.86407,877.48371 656.10434,884.92535 C 657.34461,892.36698 657.34461,898.56835 649.90298,906.00999 C 642.46134,913.45162 623.85725,925.85435 616.41561,929.57517 C 608.97397,933.29599 560.60333,946.93899 534.5576,954.38063 C 508.51187,961.82226 430.37468,980.42636 430.37468,980.42636 C 430.37468,980.42636 488.66751,954.38063 492.38832,943.21817 C 496.10914,932.05572 539.51869,902.28917 515.95351,871.28235 C 492.38832,840.27552 445.25796,803.06734 419.21223,763.37861 C 393.1665,723.68988 389.44568,682.76087 389.44568,682.76087 z"
       id="path2288"
       style="fill:#000000;fill-opacity:0.01568627;fill-rule:evenodd;stroke:none;stroke-width:1px;stroke-linecap:butt;stroke-linejoin:miter;stroke-opacity:1" />
  </g>
</svg>
