<?xml version="1.0" encoding="utf-8"?>
<!-- Generator: Adobe Illustrator 10.0, SVG Export Plug-In . SVG Version: 3.0.0 Build 76)  -->
<!DOCTYPE svg PUBLIC "-//W3C//DTD SVG 1.0//EN"    "http://www.w3.org/TR/2001/REC-SVG-20010904/DTD/svg10.dtd" [
	<!ENTITY ns_flows "http://ns.adobe.com/Flows/1.0/">
	<!ENTITY ns_extend "http://ns.adobe.com/Extensibility/1.0/">
	<!ENTITY ns_ai "http://ns.adobe.com/AdobeIllustrator/10.0/">
	<!ENTITY ns_graphs "http://ns.adobe.com/Graphs/1.0/">
	<!ENTITY ns_vars "http://ns.adobe.com/Variables/1.0/">
	<!ENTITY ns_imrep "http://ns.adobe.com/ImageReplacement/1.0/">
	<!ENTITY ns_sfw "http://ns.adobe.com/SaveForWeb/1.0/">
	<!ENTITY ns_custom "http://ns.adobe.com/GenericCustomNamespace/1.0/">
	<!ENTITY ns_adobe_xpath "http://ns.adobe.com/XPath/1.0/">
	<!ENTITY ns_svg "http://www.w3.org/2000/svg">
	<!ENTITY ns_xlink "http://www.w3.org/1999/xlink">
]>
<svg 
	 xmlns:x="&ns_extend;" xmlns:i="&ns_ai;" xmlns:graph="&ns_graphs;" i:viewOrigin="197.3872 759.022" i:rulerOrigin="0 0" i:pageBounds="0 792 612 0"
	 xmlns="&ns_svg;" xmlns:xlink="&ns_xlink;" xmlns:a="http://ns.adobe.com/AdobeSVGViewerExtensions/3.0/"
	 width="284.939" height="343.888" viewBox="0 0 284.939 343.888" overflow="visible" enable-background="new 0 0 284.939 343.888"
	 xml:space="preserve">
	<metadata>
<rdf:RDF
      xmlns="http://web.resource.org/cc/"
      xmlns:dc="http://purl.org/dc/elements/1.1/"
      xmlns:rdf="http://www.w3.org/1999/02/22-rdf-syntax-ns#">
      <Work rdf:about="">
         <dc:title>Person</dc:title>
         <dc:description>Person</dc:description>
         <dc:subject>
          <rdf:Bag>
            <rdf:li>people</rdf:li>
          </rdf:Bag>
         </dc:subject>
         <dc:publisher><Agent rdf:about="http://www.openclipart.org/"><dc:title>Open Clip Art Project</dc:title></Agent></dc:publisher>
         <dc:creator><Agent rdf:about=""><dc:title>ArtFavor</dc:title></Agent></dc:creator>
         <dc:rights><Agent rdf:about="http://web.resource.org/cc/PublicDomain"><dc:title>Public Domain</dc:title></Agent></dc:rights>
         <dc:date>2005/10/03</dc:date>
         <dc:format>image/svg+xml</dc:format>
         <dc:type>http://purl.org/dc/dcmitype/StillImage</dc:type>
         <license rdf:resource="http://web.resource.org/cc/PublicDomain" />
      </Work>
      <License rdf:about="http://web.resource.org/cc/PublicDomain">
         <permits rdf:resource="http://web.resource.org/cc/Reproduction" />
         <permits rdf:resource="http://web.resource.org/cc/Distribution" />
         <permits rdf:resource="http://web.resource.org/cc/DerivativeWorks" />
      </License>
   </rdf:RDF>
		<variableSets  xmlns="&ns_vars;">
			<variableSet  varSetName="binding1" locked="none">
				<variables></variables>
				<v:sampleDataSets  xmlns="&ns_custom;" xmlns:v="&ns_vars;"></v:sampleDataSets>
			</variableSet>
		</variableSets>
		<sfw  xmlns="&ns_sfw;">
			<slices></slices>
			<sliceSourceBounds  y="415.134" x="197.387" width="284.939" height="343.888" bottomLeftOrigin="true"></sliceSourceBounds>
		</sfw>
	</metadata>
	<switch>
		<foreignObject requiredExtensions="&ns_ai;" x="0" y="0" width="1" height="1">
			<i:pgfRef  xlink:href="#adobe_illustrator_pgf">
			</i:pgfRef>
		</foreignObject>
		<g i:extraneous="self">
			<g id="Layer_1" i:layer="yes" i:dimmedPercent="50" i:rgbTrio="#4F008000FFFF">
				<g>
					<path i:knockout="Off" fill-rule="evenodd" clip-rule="evenodd" d="M238.386,343.888l-11.098-5.549l-1.873-8.792l11.241-7.062
						l0.072-4.179l0.071-4.18l0.145-4.108h-1.009H235h-0.937l-1.514,3.675l-5.981,3.17l-0.721,3.243h-0.361h-0.287h-0.288
						l-0.072,3.964v2.882l-1.873,3.963l-18.953,12.324l-3.677-31.421l19.746,3.244l0.433,0.865l0.505,0.865l0.503,0.936l14.63-8.935
						l-5.332-14.052l-0.866-16.431l0.218-0.504l0.216-0.505l0.287-0.433l-5.836-0.504l-12.18-2.521l-5.98,0.793l-6.27,3.603
						l-5.909,1.946l-6.558,1.008l-0.504-6.125l-0.504-6.126l-0.434-6.052l-1.946,0.649l-1.945,0.648l-1.873,0.649l-0.793,8.143
						l-0.721,8.143l-0.721,8.215l1.945,1.226l2.811,0.937l1.297,2.666h0.288h0.289h0.36l4.972,11.025l-0.864,12.467v12.54
						l-1.369,1.369l-2.018-0.289l-1.658,0.073l-0.721-1.153l-0.721-9.584h-0.647h-0.65h-0.647l-1.369,3.53l-2.306,6.558
						l-3.964,0.432l-0.288,1.585l-0.289,1.585l-0.216,1.658l-7.134,4.468l-7.423-3.026l-0.505-7.207l-33.148,0.649l-33.293-2.307
						l-32.933,0.433l-4.18,5.261l1.153,4.107l-9.944-3.819l-0.216-0.649l-0.144-0.647l-0.145-0.649h-0.36h-0.289h-0.288l-4.9-36.609
						l-6.341-36.104l-5.116-36.319l-10.377,0.432l-3.748-2.739l5.981-9.224l3.891-0.505l3.893-0.504l3.963-0.433l0.072-0.359
						l0.072-0.361l0.072-0.288l-20.61-4.684L0,197.312l4.684-21.764l-1.729-2.595l0.289,0.144l0.288-2.306l1.441-0.936l1.441-0.866
						l1.441-0.864l0.505-3.892l-2.379-2.667l0.65-4.178l13.115-20.25l9.873-21.475L45.04,97.287l0.145-1.009l0.144-0.938
						l0.217-0.937l-0.36-0.36l-0.361-0.289l-0.289-0.289l1.802-12.394l16.935-7.711l10.089,8.072l11.458,25.511l8.504,27.816
						l10.305,26.952v12.034l-6.918-0.36l-11.025,1.658l2.738,4.252l-0.72,5.908l0.36,5.622l1.802,0.937l4.036,1.081l1.369,2.812
						h0.288h0.289h0.36l0.216,3.313l0.216,3.387l0.289,3.388l2.594,0.36l2.595,0.288l3.243-0.432l1.009-3.819l5.909-3.819
						l4.107-0.504l1.225,1.657l0.938,2.451l0.36,0.072l0.433,0.073l0.433,0.071l0.72-2.667l1.802-1.008l2.954,0.576l0.217,1.225
						l0.288,1.296l0.288,1.298l6.342-1.729l-0.864-3.459v-5.837l1.009-2.09l1.081-2.089l1.081-2.09l-4.9,0.504l-0.648,5.261
						l-4.324-0.504l-3.243-9.296l8.071,1.945l1.152-5.549l-3.098,0.217l-5.261,1.008l-2.162-1.225l0.145-1.585l0.145-1.585
						l0.144-1.585h0.288h0.36h0.36l3.171-7.927l11.098,4.757l5.909,1.008l4.757-3.242l7.206,6.414l1.873,4.755l0.793,0.073
						l0.794,0.072l0.792,0.071l17.366-6.989l3.027,6.414l16.646,2.45l0.937-0.937l0.721-3.099l8.576-6.774V156.09l6.557-5.26
						l0.505-7.711l-5.765-8.288l-1.441-7.277l-8.36,0.865l1.371-2.812l-0.216-7.134l-5.262-1.585l0.576-3.099l0.36-4.251
						l0.937-0.649l0.938-0.649l1.009-0.649l0.216-4.971l-0.721-4.108h-4.396l-1.946-1.081l-3.242-1.585l-1.874-6.414l1.657-11.171
						l7.423-1.585v-0.36v-0.36v-0.289l1.153-0.433l0.288-1.008l-9.224-1.946l-2.955-0.072l-1.297-8.503l-8.647-0.145l-4.973-0.432
						l-7.062-3.748l-0.289-2.883l-1.802-0.503l-0.289-1.442h-0.359h-0.288h-0.289l-7.927-15.637l6.99-11.026h17.223l3.172-5.98
						l2.883-1.729h6.919l1.945,0.938l1.152-0.217l4.252-13.26l9.079-5.405l14.341,4.252v0.289v0.359v0.361l0.937,0.071l0.937,0.072
						l1.009,0.073l19.963-7.351l23.997,6.485l12.251,18.882h0.287h0.361h0.36l0.145,0.649l0.143,0.647l0.145,0.649h0.289h0.36h0.36
						l0.144,0.793l0.145,0.792l0.145,0.793h0.287h0.36h0.361l3.026,16.069l0.216,4.612l-7.35,15.854l-1.227,1.154l-2.161,4.323
						v2.162l9.873,9.873l-4.54,11.025l-12.324,3.17l-0.216,6.775l-0.503,5.044l-8.36,1.152l3.315,14.702l-13.116,6.918
						l-11.817-6.775l-0.216-0.647l-0.146-0.649L235,124.238h-0.505h-0.504h-0.432v4.468v4.468v4.468l9.511-0.722l-4.973,7.064
						l4.108,6.196l1.657,0.865l2.882,0.721l1.226,2.45l2.018-0.289l5.478-5.188l3.099-1.73l17.512-1.585l5.765,5.262l2.882,17.728
						v15.997l-3.529,16.288l-10.882,12.756l-1.945,7.782l-3.243,11.386l1.296,8.648l4.685,11.242l-2.521,2.377l-2.163,10.45
						l4.54,13.043l-14.988-1.297l-8.504,0.217v8.07l-1.657,15.35l2.161,9.8h0.288h0.289h0.36l0.648,1.226l0.647,1.296l0.649,1.298
						h0.289h0.287h0.361l0.432,0.937l0.505,0.938l0.504,1.008l20.466-7.854l1.803,30.987l-17.439-3.243l-9.152-4.468l-0.218-3.53
						l1.442-9.008l-1.729-2.451l-1.658-2.377l-1.656-2.378h-0.361h-0.288h-0.287l-0.505-0.937l-0.504-0.865l-0.434-0.865
						l-0.648-0.072l-0.647-0.073l-0.649-0.071l-0.216,4.108l-0.145,4.18l-0.145,4.179l9.729,4.756l1.37,16.646H238.386
						 M31.852,196.806h4.036l4.251-3.242l3.459-2.234v-5.549l0.433-5.333l-0.433-4.9l-3.243-3.243l-18.592,10.736l-5.766,0.866
						l-0.72-0.648l-0.721-2.234l-2.882,0.505l-1.442,0.72l0.577,7.64l14.125,4.396L31.852,196.806 M27.528,206.462h1.225h1.297
						h1.297l0.216-2.666l-0.649-5.261l-11.098-4.756l-8.719-2.667l-4.685-10.738h-0.36h-0.36H5.404l-1.729,5.766l1.585,3.17
						l2.09,5.837l0.289,0.072l0.288,0.071l0.36,0.073l1.514,5.405l11.746,4.108L27.528,206.462 M96.709,212.949l3.171-0.145
						l3.17-0.073l3.242-0.071l0.217-1.658l-0.648-1.441l-1.441-0.217l-0.504-0.503l-7.207-0.721v1.585v1.585V212.949
						 M214.821,231.901h0.289h0.287h0.361l0.144-0.432l0.146-0.362l0.216-0.36h-0.361h-0.287h-0.289l-0.792-2.45l-7.423-11.747
						l-3.675-2.161l-3.459-1.729l-1.945-3.099l-9.226,1.369l4.18,2.523l-9.368-5.333v-0.361v-0.288v-0.289l-6.702-2.45l1.586,0.865
						l-5.261-0.36l-0.937-1.441l-0.216-3.315l-1.658-0.217l-1.585-0.145l-1.587-0.145l-0.937,2.378l-2.522-0.36l-0.863-2.019h-0.361
						h-0.288H162l-0.217-1.296l-0.145-1.298l-0.144-1.224l-4.829-0.866l-3.098-2.666l-4.108-0.578l-3.819,2.451l-4.252,0.289
						l-1.441-3.963l-0.504,0.072l-0.505,0.071l-0.432,0.073l-1.082,2.306l-1.44,4.54l-2.306,1.154l0.144,1.729l0.145,1.729
						l0.216,1.801l1.945-0.503l1.514-2.018l2.306-1.081l1.298,0.864l0.792,1.226l0.288,2.45l0.865,0.071l0.937,0.073l1.01,0.072
						l0.793-1.153l0.792-1.081l0.864-1.081l0.865,0.072l0.864,0.073l0.865,0.071l0.576,1.298l0.577,1.297l0.576,1.297l0.648-0.216
						l0.721-0.146l0.721-0.143l1.729-3.892l0.648,1.369l4.613,0.793l0.143,1.008l0.145,1.082l0.217,1.081l2.089-0.577l0.505-1.585
						l3.17-0.72v0.289v0.289v0.36h0.289h0.288h0.36l0.216,0.793l0.218,0.792l0.288,0.865l3.242,0.433l3.314,0.504l3.316,0.503
						l0.287,1.225l0.288,1.298l0.361,1.298l7.711,0.216l4.323,0.936l0.432,0.865l0.504,0.865l0.505,0.936h0.289h0.288h0.36v1.37
						v1.369v1.369l-4.18,2.883l-2.162,0.289l-4.685,0.432l-0.216,1.729l-0.145,1.729l-0.144,1.801l11.098,1.226L214.821,231.901
						 M162.936,188.447l0.432-0.145l0.505-0.071l0.504-0.073l1.01-2.09l2.882-1.153l0.938-2.162l-3.388,0.721l-4.323,1.586v0.432
						v0.504v0.503h0.288h0.287h0.361l0.144,0.65l0.146,0.647L162.936,188.447 M260.943,233.629l0.359-0.216l0.361-0.143l0.432-0.144
						l0.864-5.982l0.865-5.909l0.937-5.909l-2.738,0.145l-2.739,0.143l-2.666,0.217l-1.729,10.09l0.289,1.657l0.432,0.216
						l0.504,0.217l0.505,0.288v0.288v0.361v0.36l0.721,0.143l3.027,2.74L260.943,233.629 M251.358,223.758l0.359-0.289l0.362-0.216
						l0.432-0.217l0.071-2.595l0.071-2.593l0.146-2.523l-1.802-0.504l-1.802-0.504l-1.729-0.432l0.288,4.18l0.288,1.874
						L251.358,223.758"/>
					<path i:knockout="Off" fill-rule="evenodd" clip-rule="evenodd" fill="#FFCC00" d="M237.881,341.438l-1.44-0.576L235,340.284
						l-1.44-0.503v-1.369l-2.163-1.586l-0.505-0.865v-6.053l0.217-3.387l6.484-1.585l0.216-4.829l0.289-4.828l0.289-4.757h0.288
						h0.289h0.358v4.612v4.611v4.686l8.145,1.296l3.458,15.71H237.881z"/>
					<path i:knockout="Off" fill-rule="evenodd" clip-rule="evenodd" fill="#CBA349" d="M162.431,335.24l-3.243-0.72l-0.432-4.324
						l-0.146-1.945l-33.94,0.216l-34.015-3.242l-33.365,2.306l-0.433,1.153l-0.288,0.648l-1.153,0.36l-0.648,4.684l-5.116-1.801
						h-3.388l-3.891-6.27l2.45-7.927l-2.667-4.973l-4.324-29.834l-6.485-30.41l-2.163-29.618l50.301-0.217l51.021,1.009l50.66,0.144
						l-1.009,36.392l-3.387,36.248l-5.477,36.464l-2.162,2.163l-4.468-0.505H162.431z"/>
					<path i:knockout="Off" fill-rule="evenodd" clip-rule="evenodd" fill="#FFCC00" d="M258.998,335.24l-7.568-3.386l-1.513-1.73
						l0.937-8.071l0.36-0.216l0.361-0.144l0.432-0.145l0.073-0.504l0.07-0.505l0.146-0.432l10.377-3.099l5.693,0.36v12.827
						l-2.38,4.757l-2.232,0.287H258.998z"/>
					<path i:knockout="Off" fill-rule="evenodd" clip-rule="evenodd" fill="#FFCC00" d="M213.38,331.854l-9.873-5.766l7.422-14.124
						l8.432,5.26l0.073,0.649l0.072,0.649l0.144,0.649l0.793,0.143l0.793,0.144l0.792,0.145v-0.36v-0.289v-0.289l2.883-2.017
						l2.378-2.883l2.883-2.09l0.216,0.216l0.217,0.216l0.287,0.289l-1.729,3.243l-3.53,2.45l-2.45,2.955v8.647l-0.216,2.163H213.38z
						"/>
					<path i:knockout="Off" fill-rule="evenodd" clip-rule="evenodd" fill="#C65372" d="M185.997,328.971l-1.73-8.864l-0.938-1.946
						l-0.216-1.874l-0.647,0.217l-0.65,0.216l-0.647,0.217l-1.298,4.035l-1.656,5.405l-4.253,1.874l0.721-10.522l2.38-19.744
						l0.287-5.766l14.917,3.675l-4.757,21.115l-0.07,11.962h-0.504h-0.506H185.997z"/>
					<path i:knockout="Off" fill-rule="evenodd" clip-rule="evenodd" fill="#FFCC00" d="M251.358,318.377l-3.676-2.739l-0.864-1.945
						l-1.729-3.171l0.432-0.144l0.505-0.073l0.504-0.071l3.388,5.044l1.153,0.504l0.288,0.937h0.288h0.287h0.362l0.071,0.433
						l0.071,0.503l0.073,0.505l-0.432,0.072l-0.362,0.073L251.358,318.377z"/>
					<path i:knockout="Off" fill-rule="evenodd" clip-rule="evenodd" fill="#FFCC00" d="M231.612,311.675l-0.36-0.36l-0.288-0.289
						l-0.289-0.289l0.434-0.719l0.504-0.721l0.505-0.72l0.433,0.07l0.505,0.073l0.505,0.073l-1.226,2.666L231.612,311.675z"/>
					<path i:knockout="Off" fill-rule="evenodd" clip-rule="evenodd" fill="#7F7F7F" d="M235.504,307.351l-6.054-2.305l2.379-6.558
						l0.504-4.829l0.07,0.433l0.073,0.503l0.145,0.504h0.287h0.288h0.362l0.143-4.972l0.145-4.973l0.217-4.901h0.288h0.287H235
						l0.216,4.325l-0.721,11.963h0.289h0.359h0.361l0.288-6.126l0.288-6.052l0.36-6.053h0.432h0.504h0.505v6.196v6.271v6.27h0.289
						h0.288h0.36v-2.451v-2.377v-2.378h0.287h0.361h0.359v2.378v2.377v2.451h0.289h0.288h0.36l0.145-4.037l0.144-4.034l0.216-3.964
						h0.288h0.289h0.36l0.144,3.313l0.145,3.388l0.216,3.386h0.288h0.288h0.361v-5.98v-5.909v-5.909h0.432h0.505h0.505l0.721,6.27
						l0.936,18.736l-0.936,6.486l-4.757-1.442H235.504z"/>
					<path i:knockout="Off" fill-rule="evenodd" clip-rule="evenodd" fill="#FDCDB8" d="M189.816,279.247l-3.604-30.771
						l-0.938-12.467l-0.721-3.818l16.791,0.792l16.215-3.532l10.737,16.143l1.153,0.503l0.937,1.442l1.729,0.505l-1.513-2.521
						l-2.956-2.307l-0.359-1.945h-0.359h-0.289h-0.288l-1.153-2.883l-2.379-0.072l-0.287-2.307l11.53,3.603l3.818,0.721v-0.359
						v-0.289v-0.289l-12.179-4.251l-6.485,0.359l-4.899-11.529h-0.361h-0.289h-0.287l-0.216-0.792l-0.145-0.793l-0.145-0.793h-0.36
						h-0.288h-0.289l-1.225-2.377l-0.216-1.946l3.604,0.072l0.792-0.144l3.315-0.433v0.289v0.36v0.36h0.576h0.649h0.647v-0.504
						v-0.505v-0.432l-0.792-0.36l-0.792-0.361l-0.794-0.288l-0.216-0.649l-0.144-0.649l-0.145-0.575l-1.874,0.647l-1.441-0.432
						l-0.217-0.577l-0.143-0.576l-0.145-0.504l-1.226,0.432l-0.72,1.226l-0.938,0.216l-0.289-0.793l-0.216-0.792l-0.216-0.793
						l-1.225-0.289l-0.937,0.505l-0.505-0.721l-0.505-0.721l-0.433-0.72h-0.36h-0.288h-0.288v0.36l1.081,3.243l-0.145,0.504h-4.972
						l-2.378-5.406l-1.802-3.026h-0.361h-0.288h-0.288l-0.36-2.091l-0.288-2.089l-0.288-2.017l0.792,0.216l0.794,0.216l0.793,0.217
						l9.007,7.35l12.611,6.485l11.529,5.406l8.289,2.739l3.675-2.812l1.945-8.288h0.289h0.358h0.361l0.433,4.108l0.504,4.18
						l0.505,4.18l1.874,1.442l1.945,1.442l1.946,1.439v0.65v0.648v0.649h0.792h0.792h0.794l0.288,0.647l2.739,3.604l1.514,0.503
						l16.286,20.61l-8.073,15.206h-25.726l-10.449-1.729l-9.513-3.532l-9.801-0.288v0.288v0.361v0.36l6.702,0.647l3.388,1.01
						l-11.242,3.603l-10.594,6.774L189.816,279.247z"/>
					<path i:knockout="Off" fill-rule="evenodd" clip-rule="evenodd" fill="#3D564C" d="M233.559,275.644l-6.991-0.937l-6.991-0.865
						l-6.918-0.865l-0.07-0.36l-0.073-0.289l-0.072-0.289l5.188-1.657l2.091-0.433l6.125,0.36l0.145-0.576l0.145-0.576l0.216-0.504
						l9.584,1.729l9.368,2.306l10.377-1.874l8.144-4.324l1.44-0.216l0.073,1.874l0.071,1.945l0.073,1.946l-3.46,5.261l-23.421-1.658
						H233.559z"/>
					<path i:knockout="Off" fill-rule="evenodd" clip-rule="evenodd" fill="#FDCC8A" d="M181.167,262.456l0.432-8.648l0.505-8.647
						l0.505-8.647h0.288h0.36h0.36l2.595,21.618l-0.216,3.099l-1.658,0.36l-1.586,0.432L181.167,262.456z"/>
					<path i:knockout="Off" fill-rule="evenodd" clip-rule="evenodd" fill="#7F7F7F" d="M263.825,233.629l1.658-12.97l1.224-5.333
						h0.288h0.289h0.36l-0.721,8.216l-1.946,9.584l-0.432,0.144l-0.36,0.143L263.825,233.629z"/>
					<path i:knockout="Off" fill-rule="evenodd" clip-rule="evenodd" fill="#3D564C" d="M113.5,222.749l-1.442-0.433l-68.172-1.008
						l-7.062,0.143l-7.063,0.145l-7.063,0.216l-5.188-1.657l1.514-0.865l-0.144-4.397l0.359-0.216l0.361-0.143l0.433-0.144
						l0.072-0.505l0.072-0.504l0.145-0.432l54.769,1.152l103.7,0.505l10.089,0.504l1.656,0.721l0.289,0.936h0.937l0.072,1.082
						l0.071,1.153l0.072,1.152l-1.152,0.504l-0.505,1.152l-25.87,2.09l-25.8-1.152H113.5z"/>
					<path i:knockout="Off" fill-rule="evenodd" clip-rule="evenodd" fill="#FDCC8A" d="M235.936,218.425l-10.594-2.739
						l-27.456-11.89l-1.802-11.531h-0.36h-0.288h-0.288l-1.585,3.964l-5.837,0.071l-3.172-1.152l-0.505-1.802l-0.505-1.729
						l-0.432-1.729l-0.504,0.07l-0.505,0.073l-0.432,0.073l-2.307,3.242l-2.089,6.125l-1.37,4.108l-0.648,0.073l-0.647,0.072
						l-0.65,0.073l-2.738-7.135l4.252-7.35l2.812-5.621l-10.306,4.396l3.388,4.613l-5.55,6.99h-6.846l6.557-10.666l1.442-2.019
						l6.054-5.476l0.936-1.658l-2.954,0.722l-11.89,2.306v3.602l-2.306,1.154l-2.019-0.576l-1.945-0.073l0.071-1.008l0.072-0.936
						l0.072-0.866l12.755-9.728l13.26,0.36l14.124,8.145l8.793,7.998l10.521,7.929l13.332,1.585l-0.577-4.181l0.288-2.306
						l0.289-3.17l11.098,0.216l7.207,1.008l2.089,4.974l-1.368,21.402H235.936z"/>
					<path i:knockout="Off" fill-rule="evenodd" clip-rule="evenodd" fill="#3D564C" d="M254.672,213.669l-2.593-0.72l-2.523-0.722
						l-2.522-0.721l-0.577-5.909l-0.144-4.685l0.216-5.26l2.883-0.721l0.505-0.506l1.658-0.216l-0.289,0.938l-0.216,0.937
						l-0.217,1.009h0.289h0.287h0.361l1.081-2.45l1.153-2.378l1.152-2.377h0.288h0.289h0.358l0.434-1.153l0.504-1.153l0.504-1.082
						h0.288h0.362h0.359l0.792-1.801l0.794-1.658l0.793-1.729l-1.945,0.937l-0.506,1.442l-1.153,1.873l-0.216-0.216l-0.144-0.145
						l-0.145-0.143l4.829-8.576l0.216-1.441l-5.045,2.017l0.434,9.728l-4.973,3.1l0.358-5.982l3.677-4.325l2.667-4.972h0.286h0.361
						h0.36v-0.504v-0.505v-0.432l-3.243,1.585l-2.595,6.342l-2.161,3.531v-7.278l6.485-6.054l2.451-6.702h-0.361h-0.288h-0.288
						l-0.938,1.729l-0.863,1.729l-0.866,1.803l-0.216-0.217l-0.144-0.143l-0.145-0.145l1.945-3.314l1.226-3.388h-0.36h-0.361h-0.286
						l-1.659,3.819l-6.269,11.025v-5.908l6.198-8.145l2.737-5.116l-2.811,1.082l-4.18,9.079l-1.945,3.316l0.576-11.242l-5.044-7.134
						l12.898-4.036l3.819,0.289l3.604,0.145l1.729,4.684l0.36,0.144l0.36,0.145l0.433,0.143l4.251,14.99l2.956,34.158l-17.008,9.081
						l-1.801,0.143l-1.803,0.146L254.672,213.669z"/>
					<path i:knockout="Off" fill-rule="evenodd" clip-rule="evenodd" fill="#999999" d="M175.907,213.165l-16.79-0.504
						l-51.382,0.289l-0.505-3.1l-1.008-4.035l1.513-2.234l22.196,0.866l22.627,2.449l22.412,3.892l0.937,0.432l0.938,0.505
						l1.009,0.504l-1.009,0.938H175.907z"/>
					<path i:knockout="Off" fill-rule="evenodd" clip-rule="evenodd" fill="#3D564C" d="M264.33,213.454l0.577-1.874l-0.218,0.216
						l1.513-1.009l8.793-20.828l1.946-11.745l-4.685-21.835l-1.009-1.442l-0.649-2.378h-0.36h-0.359h-0.288l-0.146-0.575
						l-0.143-0.577l-0.145-0.576l-0.36-0.073l-0.361-0.071l-0.288-0.072v-0.504v-0.505v-0.433l4.685,0.865l4.108,0.432l1.801,5.91
						h0.287h0.289h0.361l5.188,20.395l-2.091,13.475l-10.305,19.096l-2.594,0.578l-2.018,2.81L264.33,213.454z"/>
					<path i:knockout="Off" fill-rule="evenodd" clip-rule="evenodd" fill="#B3B3B3" d="M69.325,212.661l-12.035-0.576
						l-12.035-0.578l-11.963-0.504v-3.891v-3.819v-3.821l20.971,5.766l18.16,1.441l22.339,1.226l0.073,1.513l0.071,1.513
						l0.072,1.513l-8.576,0.073l-8.575,0.071L69.325,212.661z"/>
					<path i:knockout="Off" fill-rule="evenodd" clip-rule="evenodd" fill="#FDCC8A" d="M189.816,209.344l-5.262-2.882l-5.043-3.603
						l0.432-3.099l0.504-3.026l0.505-3.027l0.36-0.143l0.433-0.146l0.433-0.144l2.81,6.99l2.018-4.252l6.414,1.082l0.216,4.251
						v2.018l2.163,4.324l-1.009,2.234l-3.388-0.578H189.816z"/>
					<path i:knockout="Off" fill-rule="evenodd" clip-rule="evenodd" fill="#666666" d="M157.169,206.895l-0.504-0.072l-0.505-0.071
						l-0.432-0.073l0.216-1.441l0.721-0.722l0.938,0.146l0.938,0.143l1.008,0.216l0.073,0.506l0.071,0.576l0.072,0.576l-0.865,0.073
						l-0.864,0.071L157.169,206.895z"/>
					<path i:knockout="Off" fill-rule="evenodd" clip-rule="evenodd" fill="#666666" d="M147.082,206.247l0.145-0.793l0.144-0.721
						l0.216-0.72h1.441l0.65,0.792l-0.073,0.361l-0.072,0.36l-0.072,0.432l-0.793,0.073l-0.792,0.072L147.082,206.247z"/>
					<path i:knockout="Off" fill-rule="evenodd" clip-rule="evenodd" fill="#B3B3B3" d="M91.448,205.454l-20.105-0.649
						l-15.494-1.585l-18.735-4.684l2.306-9.369l38.481,3.027l8.215-0.146l5.261,3.172l6.269,1.657l-3.314,8.576h-1.009h-0.937
						H91.448z"/>
					<path i:knockout="Off" fill-rule="evenodd" clip-rule="evenodd" fill="#666666" d="M139.443,205.021l-0.793-0.071l-0.792-0.072
						l-0.792-0.073l0.143-0.576l0.145-0.576l0.217-0.576l0.792-0.289l0.792-0.216l0.793-0.217l0.073,0.792l0.071,0.794l0.072,0.864
						l-0.288,0.073l-0.217,0.072L139.443,205.021z"/>
					<path i:knockout="Off" fill-rule="evenodd" clip-rule="evenodd" fill="#666666" d="M129.858,203.797v-0.793v-0.793v-0.792
						l0.793-0.216l0.793-0.146l0.793-0.144l-0.145,0.865l-0.144,0.865l-0.145,0.936l-0.648,0.073l-0.648,0.072L129.858,203.797z"/>
					<path i:knockout="Off" fill-rule="evenodd" clip-rule="evenodd" d="M252.799,203.797l0.576-1.586l0.649-1.585l0.647-1.585
						h-0.505h-0.504h-0.433l0.794-3.459l6.918-11.458l2.377-0.432l-0.143,0.792l-0.146,0.721l-0.144,0.865h-0.361h-0.359h-0.288
						l-0.721,4.612l-5.838,2.594l-0.648,4.756l1.802-0.719l5.909-6.848v-2.017h0.289h0.287h0.36v0.289v0.288v0.36h-0.36h-0.287
						h-0.289l-1.298,4.901l-5.115,4.324l-2.234,5.189h-0.36h-0.288H252.799z"/>
					<path i:knockout="Off" fill-rule="evenodd" clip-rule="evenodd" fill="#666666" d="M123.157,202.572l-0.505-0.073l-0.504-0.073
						l-0.433-0.072v-0.504v-0.504v-0.432l0.793-0.073l0.792-0.071l0.793-0.072l0.072,0.505l0.072,0.576l0.071,0.576l-0.432,0.072
						l-0.361,0.073L123.157,202.572z"/>
					<path i:knockout="Off" fill-rule="evenodd" clip-rule="evenodd" fill="#666666" d="M112.563,201.418v-0.505v-0.504v-0.433
						l1.441-0.72l1.657,0.216l-0.072,0.504l-0.071,0.578l-0.072,0.576l-1.009,0.073l-0.937,0.071L112.563,201.418z"/>
					<path i:knockout="Off" fill-rule="evenodd" clip-rule="evenodd" fill="#FDCC8A" d="M170.646,199.256l-4.396-2.882l4.756-5.765
						l2.019-3.099h0.432h0.504h0.505l-1.729,5.765l-0.937,5.765l-0.432,0.073l-0.361,0.071L170.646,199.256z"/>
					<path i:knockout="Off" fill-rule="evenodd" clip-rule="evenodd" fill="#FDCDB8" d="M222.533,197.815l-8.865-4.396l-7.205-1.513
						l-7.495-5.406l4.469-10.521l6.052-11.242l1.514-11.026l0.434-0.071l0.503-0.072l0.505-0.073v2.521v2.596v2.594h0.288h0.289
						h0.36l-3.026,5.692l-1.082,6.918l-1.656,6.558h0.287h0.289h0.36l0.361-1.657l0.432-1.585l0.432-1.585l0.721,0.072l0.72,0.071
						l0.721,0.073l0.146-0.577l0.144-0.576l0.216-0.504h-0.505h-0.503h-0.434l-0.143,0.289l-0.073,0.289l-0.072,0.36l-8.07-6.847
						l31.059-20.683l1.009-0.72l0.578-1.008l0.574-0.937l0.578-0.938h0.648h0.648h0.648l0.648,4.324l-0.216,1.152l-6.989,2.378
						l-4.541,3.314l-3.315,6.631l1.442-0.793l2.377-3.531h0.289h0.288h0.359l3.82-5.693l11.241-4.468l3.243,8.721h0.288h0.289h0.359
						v0.792v0.793v0.792h0.288h0.289h0.36l1.513,5.116l-0.864,6.848l-0.866,5.765l0.794,4.899l1.082,4.83v5.549l-1.082,0.649
						l-1.01,0.648l-1.008,0.648v-0.504v-0.504v-0.433h-0.36h-0.288h-0.289l-0.216-0.432l-0.145-0.433l-0.144-0.359l-4.757-1.009
						l-17.799-1.153l-0.288,0.432l-0.216,0.505l-0.217,0.505h-0.721h-0.722h-0.721v-6.848v-6.918v-6.772h-0.358h-0.289h-0.288
						l-0.433,8.142l-4.973,11.531l9.225,4.252l0.217,1.874l-0.505,2.449l-0.216,0.073l-0.217,0.073L222.533,197.815z"/>
					<path i:knockout="Off" fill-rule="evenodd" clip-rule="evenodd" fill="#FDCC8A" d="M132.741,197.598l-0.216-6.412l4.036-3.388
						l-0.434-3.891l-4.54,0.576l-2.666,2.955l-3.387,2.451l-0.576-10.593l8.647,3.387l1.514-6.198l-6.198-0.216l-7.711,0.72
						l0.721-7.927l18.594-4.037l-1.298,11.964l3.819,1.874l1.225,0.144l3.026,4.251l1.009,0.071l1.082,0.073l1.081,0.072
						l0.144-0.433l0.144-0.432l0.146-0.36l-1.729,0.36l-5.406-5.692l-2.883-0.433l0.146-1.441l0.144-1.442l0.216-1.44l2.378-1.154
						L146,171.8l3.026,0.36v0.287v0.361v0.36l1.369,0.504l0.433,0.864l1.081,1.947h0.289h0.287h0.361l0.144,0.649l0.146,0.647
						l0.216,0.649l0.358,0.145l0.361,0.144l0.433,0.216l0.144,0.793l0.145,0.792l0.216,0.793l-2.018,1.513l-1.873,1.298v2.881
						l2.377,2.379l1.874,0.865l3.242-2.522l4.396,0.36l0.217,1.873l-2.233,4.974l-0.361,0.072l-0.289,0.071l-0.287,0.073v-0.36
						V194.5v-0.289l-2.884-1.585l-2.881-1.514l-2.882-1.513h-4.397l-1.585,3.747l-4.036-2.017l-0.216-0.649l-0.144-0.649
						l-0.146-0.648h-0.358h-0.289h-0.289v-0.36v-0.288v-0.289h-0.504h-0.505h-0.432l-1.153,2.666l-1.297,5.549L132.741,197.598z"/>
					<path i:knockout="Off" fill-rule="evenodd" clip-rule="evenodd" fill="#666666" d="M48.21,190.609l-4.972-1.442l1.873-3.314
						l0.216-3.819l1.874-1.009l5.765-0.937l14.413-3.819l9.152-3.388l1.945-0.216v0.288v0.289v0.36l0.793,0.145l0.792,0.145
						l0.792,0.216L81,174.755l0.144,0.647l0.216,0.65l0.289,0.07l0.288,0.073l0.36,0.073l-0.504,0.432l-11.313,0.792l-0.216,0.577
						l-0.217,0.649l-0.216,0.648l8.143-0.216l7.422,0.721l0.937,5.693l2.162,2.883l-6.198,1.658l-12.971,0.504H48.21z"/>
					<path i:knockout="Off" fill-rule="evenodd" clip-rule="evenodd" fill="#999999" d="M16.502,181.024l-7.495-16.431l-1.441-4.324
						v-8.431l32.212-52.462l7.422-0.865l3.892,10.233l4.179,9.655l3.027,11.098h0.288h0.288h0.36l3.676,11.675l5.621,11.891
						l5.333,11.961v0.65v0.647v0.649l-6.125,3.243l-8.287,5.765l-2.162-7.566l-10.161-1.226l-18.376,12.611L16.502,181.024z"/>
					<path i:knockout="Off" fill-rule="evenodd" clip-rule="evenodd" fill="#B3B3B3" d="M8.792,180.592l-1.441-3.388l-1.729-2.81
						v-3.099l1.802-1.44v-0.505l2.81,0.505l1.37,5.547l4.684,3.821L8.792,180.592z"/>
					<path i:knockout="Off" fill-rule="evenodd" clip-rule="evenodd" fill="#FDCDB8" d="M198.032,180.592l-0.146-0.722l-0.072-0.721
						l-0.071-0.72l1.225-1.657l1.297-1.586l1.297-1.585l1.298,1.298l-2.882,3.891l-0.794,1.585l-0.432,0.073l-0.361,0.072
						L198.032,180.592z"/>
					<path i:knockout="Off" fill-rule="evenodd" clip-rule="evenodd" fill="#4D4D4D" d="M47.706,178.142l-2.667-1.369l0.793-1.947
						l-0.072-1.657l3.747-1.009l2.667-1.441l4.396,0.576l0.576,1.152l0.577,1.298l0.577,1.298l11.026-3.532l6.702-1.656
						l-2.306,4.611l-20.61,3.314L47.706,178.142z"/>
					<path i:knockout="Off" fill-rule="evenodd" clip-rule="evenodd" fill="#CCCCCC" d="M83.233,172.377l-6.486-1.442l-0.216-3.026
						l-1.945-5.261h-0.361h-0.288h-0.289l-4.468-13.765l-10.449-14.916l-1.441-13.116h-0.36h-0.289h-0.288l-1.729-9.224
						l-4.684-9.945l-3.459-8.216V81.072l16.431-1.801l9.512,3.602l7.855,17.512l7.639,18.882l5.189,19.385l8.143,19.744
						l10.377,13.982H83.233z"/>
					<path i:knockout="Off" fill-rule="evenodd" clip-rule="evenodd" fill="#FDCC8A" d="M214.318,160.27l-0.073-1.009l-0.072-0.937
						l-0.071-0.936l0.504-0.217l0.576-0.143l0.577-0.144v-0.649v-0.649v-0.649h-0.361h-0.287h-0.289v-1.585v-1.585v-1.585
						l-0.433-0.216l-0.432-0.144l-0.36-0.145l-0.287-2.233l-0.218-2.235l-0.216-2.233l2.018-0.504l0.722-0.722l1.153-1.658h-0.505
						h-0.505h-0.433v0.289v0.289v0.36l-3.388,0.216l-1.44-0.721l-0.216-0.649l-0.145-0.647l-0.145-0.576h-0.36h-0.287h-0.289
						l-2.378-11.313l-2.737-1.515l4.179-9.08h1.441l2.377,1.225l-4.322-5.549l-0.938-0.216l0.722,2.234l0.503,2.09l-2.666,1.657
						h-9.439l3.386-15.926l-2.594-5.188l-1.658-0.216l-1.585-0.146l-1.585-0.143l-14.269-8.576l17.512-10.521l5.404-7.063h0.648
						h0.649h0.647l0.289,1.657l0.36,9.368l4.323-2.882l0.36-2.739l0.433-2.739l0.433-2.666l10.088-0.289l0.937,1.082l8.721,2.593
						l0.145,3.748l0.36,1.298l2.378,4.034h0.287h0.289h0.36l2.811,6.847l2.449,1.441l8.216,1.802l-1.081,3.242l-0.864,4.973
						l-4.325,0.433l-0.287-0.649l-0.216-0.647l-0.217-0.578l-1.657-0.289l-1.44,0.721l0.216,7.207l-1.298,6.486l-1.585,7.495
						l-0.072,7.206l-0.072,7.207l-0.071,7.207h0.287h0.288h0.362l0.216,0.432l0.216,0.505l0.288,0.504l-2.522,4.756l-12.396,6.918
						L214.318,160.27z"/>
					<path i:knockout="Off" fill-rule="evenodd" clip-rule="evenodd" fill="#973E2B" d="M201.345,127.338l-2.594-3.676l0.359-1.009
						l-0.144-3.748l1.873,0.433l1.946,0.505l1.946,0.504l-0.792,2.306l-0.794,2.307l-0.793,2.378h-0.359h-0.361H201.345z"/>
					<path i:knockout="Off" fill-rule="evenodd" clip-rule="evenodd" fill="#987B53" d="M242.709,126.833l-2.09-0.577l-2.09-0.576
						l-2.089-0.504l-0.505-1.009l-0.505-0.938L235,122.292h-0.361h-0.287h-0.288l0.937-7.494l0.289-8.503l6.917-3.964l0.792-1.009
						l0.793-0.938l0.793-0.937h0.432h0.505h0.505l1.441,2.883l2.45-0.577l3.819-0.143v-0.36v-0.289v-0.289l-2.812,0.289
						l-3.026-0.577l-0.432-2.09h-0.36h-0.288h-0.289v-0.503v-0.504v-0.432l2.667,0.647l1.297,0.722l3.243-1.153l0.144-0.433
						l0.146-0.433l0.216-0.359l-2.234,1.08l-2.161-1.008l-1.875-0.504l-0.721-1.441l0.217-1.226l4.18-1.873l3.893-1.73l1.079-4.828
						h-0.359h-0.288h-0.289l-2.81,10.377l-11.17-6.342l-5.261-1.153l-1.081-5.621l-4.756-0.647l-0.433-6.199h1.585h1.585H235v-0.647
						v-0.649v-0.647l-5.838-0.217l-2.449-1.009l-4.685-2.09v-0.36v-0.36v-0.288l-5.549-0.866l-3.459-10.089l-1.585-3.675
						l-3.315-0.289l-3.243-2.162h-1.586l-6.269,5.621l-3.531,1.153l-7.494-2.882l-0.145,0.503l-0.073,0.577l-0.07,0.576l3.459,1.514
						l2.666,0.721l4.251-0.289l-0.72,4.324l0.216,8.359l-2.018,1.082l-7.639-2.594l-1.37-0.578l-1.729-3.098l0.217-1.73l-0.433-3.17
						h-16.214l-10.955-3.099V40.645l4.613-10.377l2.306-1.009l11.17,0.289v0.289v0.359v0.361l0.505-0.216l0.577-0.146l0.575-0.143
						l1.082-8.576l6.629-1.009l7.423,2.594l0.721-0.72l0.937-4.756l5.55-8.36L209.056,0l9.584,9.585h0.794h0.793h0.863l14.702-7.207
						l15.782,5.117l14.195,7.639v0.287v0.362v0.359l1.009,0.577l4.18,2.666l0.577,2.017h0.289h0.287h0.36l10.594,13.766
						l1.873,11.745l-8.358,16.791l-1.011,0.793l-0.937,0.792l-0.937,0.793l-0.504-3.387l-1.657-4.324h-0.361h-0.287h-0.289
						l1.153,3.748l0.505,2.162v4.683l-0.361,0.289l-0.359,0.289l-0.288,0.359l-3.964-4.972l-1.298-0.648l-5.548-0.866l-0.145,0.361
						l-0.144,0.432l-0.145,0.432l4.54,0.793l0.72,2.234l4.325,1.801l0.07,0.793l0.073,0.792l0.072,0.793l-0.577,0.073l-0.576,0.072
						l-0.505,0.072l-7.135-2.666l-5.908-0.289l-6.631,1.802V71.2v0.288v0.36l13.549-2.883l19.097,5.188l-5.55,17.872l-4.827,3.676
						h-0.793l-5.62,0.865l-0.217,9.944l0.937,2.523h-10.377l-0.432,3.748l3.313,3.386l-2.161,6.125l-3.818,3.819l-3.964,0.722
						H242.709z"/>
					<path i:knockout="Off" fill-rule="evenodd" clip-rule="evenodd" fill="#973E2B" d="M197.022,116.743l-2.954-0.649l0.647-4.396
						l-0.072-1.44l0.793,0.216l0.793,0.216l0.793,0.289l0.505,1.369l0.575,1.37l0.577,1.369l-0.432,0.937L197.022,116.743z"/>
					<path i:knockout="Off" fill-rule="evenodd" clip-rule="evenodd" d="M209.561,104.493l-0.361-2.235l-0.359-2.233l-0.288-2.234
						l-5.982,2.234l-2.089,0.289l-2.449-4.901l-1.082-0.216l-1.081-0.145l-1.009-0.144l-0.071-0.649l-0.073-0.648l-0.072-0.649
						l2.884,0.216l1.44,0.793v0.288v0.289v0.36h0.289h0.287h0.36l1.01,2.089l1.009,0.145l2.811,0.36l6.126-4.829l-4.901-0.504
						l-1.729-3.964l6.485,2.739l-0.864,5.622l0.648,7.927h-0.36h-0.288H209.561z"/>
					<path i:knockout="Off" fill-rule="evenodd" clip-rule="evenodd" fill="#FFFF66" d="M236.441,104.493v-1.009v-0.938v-0.937
						h0.648h0.648h0.648l-0.216,0.864l-0.145,0.866l-0.145,0.937l-0.505,0.071l-0.504,0.073L236.441,104.493z"/>
					<path i:knockout="Off" fill-rule="evenodd" clip-rule="evenodd" d="M215.758,102.835l-0.072-1.082l-0.071-1.008l-0.072-1.009
						l1.008-0.216l1.01-0.144l1.08-0.145l0.289,3.242l-0.577-0.288L215.758,102.835z"/>
					<path i:knockout="Off" fill-rule="evenodd" clip-rule="evenodd" fill="#FDCC8A" d="M202.499,60.966l-0.145,1.514l-0.144,1.585
						l-0.146,1.514l-0.574,0.071l-0.577,0.072l-0.505,0.073l-1.729-5.98v-2.38l1.945-1.657l0.216-1.008h2.954l-0.287,0.575
						l-0.938-0.143l-0.647,5.26L202.499,60.966z"/>
					<path i:knockout="Off" fill-rule="evenodd" clip-rule="evenodd" fill="#FFFFCC" d="M204.733,77.108l-1.226-6.053l0.36-4.829
						v-5.908l0.36-0.578l-0.287-0.504l0.216-0.576l0.143-0.36l0.073-0.937l-0.073-0.577l0.145-0.432l0.506-0.289l0.07-0.433
						l0.435,0.145l0.432,0.072l0.504,0.146l0.864,6.772l0.577,6.775l-1.658,7.35l-0.503,0.073l-0.505,0.072L204.733,77.108z"/>
					<path i:knockout="Off" fill-rule="evenodd" clip-rule="evenodd" fill="#FFFFCC" d="M197.527,71.559l-1.154-4.251l-0.216-3.388
						l0.865-3.602h0.288h0.36h0.361l0.216,1.368l2.593,8.936L197.527,71.559z"/>
					<path i:knockout="Off" fill-rule="evenodd" clip-rule="evenodd" fill="#FDCC8A" d="M216.263,68.245l-2.522-0.288l-2.523-0.216
						l-2.449-0.217l-0.433-8.647l-0.72-3.387l0.863,0.143l0.866,0.145l0.863,0.217l0.721,1.873l0.722,1.947l0.792,1.945h0.288h0.289
						h0.36l0.864,1.729l1.946,2.161l0.793,2.378l-0.289,0.072l-0.216,0.073L216.263,68.245z"/>
					<path i:knockout="Off" fill-rule="evenodd" clip-rule="evenodd" d="M209.993,52.174l-0.36-2.449l-1.585-0.866l-1.369-0.576
						l0.217-1.585l0.216-1.585l0.216-1.585h1.803h1.872h1.874l0.216,2.593l-0.937,2.667l-0.938,2.882l-0.432,0.146l-0.432,0.143
						L209.993,52.174z"/>
					<path i:knockout="Off" fill-rule="evenodd" clip-rule="evenodd" fill="#987B53" d="M209.993,49.003L207.4,47.49l0.432-1.153
						l0.288-1.873l1.226,0.144l1.298,0.143l1.295,0.217l-1.225,3.819L209.993,49.003z"/>
				</g>
			</g>
		</g>
	</switch>
</svg>
