<?xml version="1.0" encoding="UTF-8" standalone="no"?>
<svg
   xmlns:dc="http://purl.org/dc/elements/1.1/"
   xmlns:cc="http://creativecommons.org/ns#"
   xmlns:rdf="http://www.w3.org/1999/02/22-rdf-syntax-ns#"
   xmlns:svg="http://www.w3.org/2000/svg"
   xmlns="http://www.w3.org/2000/svg"
   xmlns:sodipodi="http://sodipodi.sourceforge.net/DTD/sodipodi-0.dtd"
   xmlns:inkscape="http://www.inkscape.org/namespaces/inkscape"
   style="fill:#000000;fill-opacity:0.5;stroke:none"
   width="522.21875"
   height="693.25"
   id="svg1"
   sodipodi:docname="brozo.svg"
   version="1.1"
   inkscape:version="0.48.1 r9760">
  <title
     id="title3039">Brozo</title>
  <metadata
     id="metadata62">
    <rdf:RDF>
      <cc:Work
         rdf:about="">
        <dc:format>image/svg+xml</dc:format>
        <dc:type
           rdf:resource="http://purl.org/dc/dcmitype/StillImage" />
        <dc:title>Brozo</dc:title>
        <dc:date>2003</dc:date>
        <dc:creator>
          <cc:Agent>
            <dc:title>Enrique Meza</dc:title>
          </cc:Agent>
        </dc:creator>
        <dc:rights>
          <cc:Agent>
            <dc:title>Public Domain</dc:title>
          </cc:Agent>
        </dc:rights>
        <dc:description>Brozo el payaso tenebroso</dc:description>
      </cc:Work>
    </rdf:RDF>
  </metadata>
  <defs
     id="defs3" />
  <sodipodi:namedview
     id="base"
     showgrid="false"
     fit-margin-top="0"
     fit-margin-left="0"
     fit-margin-right="0"
     fit-margin-bottom="0"
     inkscape:zoom="0.48"
     inkscape:cx="61.697187"
     inkscape:cy="376.93272"
     inkscape:window-width="781"
     inkscape:window-height="658"
     inkscape:window-x="388"
     inkscape:window-y="45"
     inkscape:window-maximized="0"
     inkscape:current-layer="svg1" />
  <path
     style="fill:#f5320d;fill-opacity:1;stroke:none"
     id="path249"
     d="m 236.13639,164.70576 c -5.32723,5.3299 -14.02766,8.5278 -7.45812,43.40025 2.66361,26.04004 20.59933,49.79587 33.56154,46.14112 47.23547,11.1159 81.32973,-40.8114 65.52491,-75.83608 -7.63499,-6.70043 -25.39383,-23.90805 -50.60867,-21.92846 -11.71991,-4.2638 -34.62699,5.48212 -41.01966,8.22317 z"
     sodipodi:nodetypes="cccccc"
     inkscape:connector-curvature="0" />
  <path
     style="fill:#f1c38c;fill-opacity:1;stroke:none"
     id="path24"
     d="m 174.69309,160.54325 49.46895,92.99147 c 3.21224,7.94486 8.56511,11.13275 14.77629,18.99116 l 28.02354,11.20348 c 16.60083,9.41962 29.96117,16.03902 32.74682,12.10982 11.9932,3.05691 27.84623,3.11978 37.06663,0.37982 17.04541,-2.66138 8.86321,-4.09424 21.71215,-14.57212 L 403.40481,147.4459 387.98607,93.746752 276.20026,26.95025 172.1233,81.959134 l 2.56979,78.584116 z"
     sodipodi:nodetypes="cccccccccccc"
     inkscape:connector-curvature="0" />
  <path
     style="fill:#4b4b4b;fill-opacity:1;stroke:none"
     id="path67"
     d="M 330.65666,219.32837 319.0926,240.939 c -0.56792,0 -1.32601,0.69887 -1.92733,1.30974 -0.87116,0.44478 -1.63953,1.30973 -2.56979,1.30973 l -13.4914,15.06327 c 0.64246,0 1.2849,0 1.92735,0 1.105,1.12374 0.27239,0.65487 -0.64245,0.65487 l -55.89291,-3.27434 c -18.2018,-14.40762 -37.91979,-41.50081 -41.80018,-88.3909 13.33207,-34.47512 -15.6423,-106.108207 -22.84875,-37.12786 6.63775,16.37222 -9.61153,49.71939 0.23847,68.71108 12.63436,8.95074 46.63524,72.08705 79.8292,79.72805 14.563,-1.30974 37.43154,15.34747 65.52961,-9.82302 l 21.20076,-18.99378 c 16.04319,-14.36964 35.1213,-82.29382 21.8432,-113.94567 -4.28384,41.47486 -26.55362,84.25973 -39.83172,83.1682 z"
     sodipodi:nodetypes="ccccccccccccsscc"
     inkscape:connector-curvature="0" />
  <path
     style="fill:#c3320d;fill-opacity:1;stroke:#000000;stroke-width:2.59451079px;stroke-linecap:butt;stroke-linejoin:miter;stroke-opacity:1"
     id="path10"
     d="m 229.30162,145.48129 c -6.42448,7.64022 -16.91692,12.22429 -8.99426,62.21269 3.21224,37.32746 24.84215,71.38058 40.47417,66.14164 56.96451,15.93424 98.08113,-58.50168 79.021,-108.7083 -9.20755,-9.6048 -30.62417,-34.27131 -61.03248,-31.43364 -14.13383,-6.11201 -41.75906,7.85841 -49.46843,11.78761 z"
     sodipodi:nodetypes="cccccc"
     inkscape:connector-curvature="0" />
  <path
     style="fill:#db330e;fill-opacity:1;stroke:none"
     id="path154"
     d="m 239.30843,164.50116 c -5.04679,5.6064 -13.28921,8.9702 -7.06551,45.65178 2.5234,27.39096 19.51494,52.3792 31.7948,48.53485 44.74889,11.69258 77.04837,-42.92864 62.07554,-79.77033 -7.23306,-7.04803 -24.05705,-25.14836 -47.94452,-23.06607 -11.10295,-4.48501 -32.80416,5.76652 -38.86031,8.64977 z"
     sodipodi:nodetypes="cccccc"
     inkscape:connector-curvature="0" />
  <path
     style="fill:#7f4e12;fill-opacity:1;stroke:#000000;stroke-width:2.59451079px;stroke-linecap:butt;stroke-linejoin:miter;stroke-opacity:1"
     id="path16"
     d="m 202.31884,110.77331 c -13.49139,-26.631372 11.56405,-65.0501 17.34607,-76.619516 16.27448,-8.949945 48.6127,-54.790682 124.63476,-17.026559 19.27341,8.731481 56.53535,31.215446 21.8432,92.991205 -4.71043,-4.1474 -9.42342,-10.259678 -12.2065,-13.09735 0.2133,-5.238941 -2.78308,-9.168147 -2.56979,-14.407089 -7.06691,0.87307 -5.13958,-2.837673 -7.70937,-4.584073 -3.21223,-0.87307 -3.21223,-3.711005 -6.42446,-4.584074 -2.14064,-2.837673 -6.21118,-5.02074 -8.35182,-7.858412 -5.56873,-3.492541 -14.34713,-5.675607 -19.91586,-9.168147 -9.42341,-2.837673 -16.91692,-3.711005 -26.34033,-6.548677 -13.4914,1.746401 -23.1281,4.147408 -37.90439,10.477883 -13.01084,7.038256 -39.02738,24.395392 -42.40151,50.424809 z"
     sodipodi:nodetypes="ccccccccccccc"
     inkscape:connector-curvature="0" />
  <path
     style="fill:#7f7f7f;fill-opacity:1;stroke:none"
     id="path140"
     d="m 258.84606,185.60986 c 7.50783,10.47246 30.08026,12.85908 39.49622,1.95118 -9.71308,3.75521 -25.69477,1.92246 -39.49622,-1.95118 z"
     sodipodi:nodetypes="ccc"
     inkscape:connector-curvature="0" />
  <path
     style="fill:#040404;fill-opacity:1;stroke:none"
     id="path58"
     d="m 246.6477,184.11849 c 1.50846,-22.03342 74.36454,-13.30953 66.17205,4.58407 l -5.13958,9.82301 -10.27915,10.47789 -19.27341,8.51328 c -0.21587,0 -0.42916,0 -0.64245,0 l -21.20076,-4.58408 c 0,-1.23979 -1.77572,-2.46387 -2.56979,-3.27434 l -10.27916,-18.33629 3.21225,-7.20354 z"
     sodipodi:nodetypes="cccccccccc"
     inkscape:connector-curvature="0" />
  <path
     style="fill:#fdfdfd;fill-opacity:1;stroke:none"
     id="path30"
     d="m 258.06013,173.6406 c 2.14063,-0.65486 9.6624,-0.74052 21.98197,-1.13868 13.92054,1.74641 19.9287,-0.17105 32.1352,8.9971 -12.10627,2.78476 -29.13882,-0.40995 -46.05574,-0.97943 -17.89087,-2.45417 -8.27473,-4.91438 -8.06143,-6.87899 z"
     sodipodi:nodetypes="ccccc"
     inkscape:connector-curvature="0" />
  <path
     style="fill:#d96b91;fill-opacity:1;stroke:none"
     id="path32"
     d="m 313.4622,182.15388 c -19.48671,-8.10333 -45.99922,-10.22719 -65.89966,-4.09449 1.0716,-10.25968 58.61945,-13.15026 65.89966,4.09449 z"
     sodipodi:nodetypes="ccc"
     inkscape:connector-curvature="0" />
  <path
     style="fill:#b2578b;fill-opacity:1;stroke:#000000;stroke-width:2.59451079px;stroke-linecap:butt;stroke-linejoin:miter;stroke-opacity:1"
     id="path9"
     d="m 254.99951,182.15388 c 8.56511,7.64022 33.83384,9.82302 52.03822,2.61947 1.0716,7.64022 -1.0716,15.93504 -3.85468,20.3009 -3.21225,5.89381 -8.99427,11.78762 -19.91587,12.44249 -16.27447,5.23894 -27.42478,-7.47519 -31.49276,-10.53132 -4.71042,-5.45715 -1.7012,-16.10005 3.22509,-24.83154 z"
     sodipodi:nodetypes="cccccc"
     inkscape:connector-curvature="0" />
  <path
     style="fill:#da6c92;fill-opacity:1;stroke:none"
     id="path8"
     d="m 244.72035,181.49902 c 6.85363,27.28624 13.70469,31.65185 37.90439,32.08851 16.91692,-3.27434 23.98383,-14.84375 28.91012,-22.92037 2.78308,13.75222 -9.85,26.84958 -21.84321,29.46905 -11.2788,1.9646 -23.98383,0.87307 -31.47991,-1.30974 -15.84789,-6.11201 -19.27341,-34.70798 -13.49139,-37.32745 z"
     sodipodi:nodetypes="cccccc"
     inkscape:connector-curvature="0" />
  <path
     style="fill:#fbfbfb;fill-opacity:1;stroke:#000000;stroke-width:2.59451079px;stroke-linecap:butt;stroke-linejoin:miter;stroke-opacity:1"
     id="path12"
     d="m 339.76141,115.99444 c -11.13488,-10.26492 -25.44347,-15.91721 -34.00857,-4.56626 5.72548,4.65952 32.28168,7.14173 34.00857,4.56626 z"
     sodipodi:nodetypes="ccc"
     inkscape:connector-curvature="0" />
  <path
     style="fill:#fdfdfd;fill-opacity:1;stroke:#000000;stroke-width:2.59451079px;stroke-linecap:butt;stroke-linejoin:miter;stroke-opacity:1"
     id="path13"
     d="m 268.4909,108.8087 c -10.40508,-9.228912 -24.78819,-10.499878 -32.76481,-1.9646 4.11938,5.00241 26.10135,5.25257 32.76481,1.9646 z"
     sodipodi:nodetypes="ccc"
     inkscape:connector-curvature="0" />
  <path
     style="fill:#060606;fill-opacity:1;stroke:#000000;stroke-width:2.59451079px;stroke-linecap:butt;stroke-linejoin:miter;stroke-opacity:1"
     id="path14"
     d="m 229.30162,93.091884 c 17.98852,-20.5191 25.92403,-13.097353 42.40151,-13.097353 -4.50997,-10.442258 -14.74802,-8.495468 -28.91012,-7.203545 -1.88622,1.438875 -11.56404,8.949945 -13.49139,20.300898 z"
     sodipodi:nodetypes="cccc"
     inkscape:connector-curvature="0" />
  <path
     style="fill:#0c0c0c;fill-opacity:1;stroke:#000000;stroke-width:2.59451079px;stroke-linecap:butt;stroke-linejoin:miter;stroke-opacity:1"
     id="path20"
     d="m 310.89241,85.88834 c 7.06692,0 30.83747,-2.401269 39.18928,22.2655 0.85574,-6.54868 -3.42553,-13.097353 -6.42448,-19.64603 -10.06585,-9.386349 -28.05437,-12.879151 -32.7648,-2.61947 z"
     sodipodi:nodetypes="cccc"
     inkscape:connector-curvature="0" />
  <path
     style="fill:#0c0c0c;fill-opacity:1;stroke:none"
     d="m 325.02625,111.42818 c -0.85574,3.69004 -3.09145,4.6197 -6.63777,4.6197 -3.54631,-1.30974 -6.21118,-2.23939 -6.21118,-5.49277 0,-3.25338 3.52062,-3.92921 7.06692,-5.23894 3.97547,1.30973 6.63777,4.60503 5.78203,6.11201 z"
     id="path62"
     sodipodi:nodetypes="ccccc"
     inkscape:connector-curvature="0" />
  <path
     style="fill:#0c0c0c;fill-opacity:1;stroke:none"
     d="m 255.64354,108.37138 c -0.85831,3.69004 -1.80914,2.20087 -5.35545,2.20087 -3.5463,-0.43666 -6.63776,-0.25723 -6.63776,-3.51061 0,-3.25339 2.66487,-5.02048 6.21117,-6.33021 3.9729,1.30973 6.63777,6.13296 5.78204,7.63995 z"
     id="path64"
     sodipodi:nodetypes="ccccc"
     inkscape:connector-curvature="0" />
  <path
     style="fill:#ff5a54;fill-opacity:1;stroke:none"
     id="path65"
     d="m 232.06182,195.34543 c 6.42448,13.75222 8.35181,39.29206 46.89864,39.29206 29.12342,0.43667 38.97599,-21.82883 48.18354,-26.84957 3.64139,6.112 -23.1281,35.14413 -39.83172,38.6385 -20.98746,1.9646 -50.32417,0 -55.25046,-51.08099 z"
     sodipodi:nodetypes="ccccc"
     inkscape:connector-curvature="0" />
  <path
     style="fill:#7f3038;fill-opacity:1;stroke:#000000;stroke-width:2.59451079px;stroke-linecap:butt;stroke-linejoin:miter;stroke-opacity:1"
     id="path69"
     d="m 267.69683,128.30176 c -2.78308,2.1828 -5.91051,3.87629 -7.06691,6.54868 -0.44201,2.42798 0,8.51328 8.35181,8.51328 -0.42916,-5.02074 -0.85575,-10.04122 -1.2849,-15.06196 z"
     sodipodi:nodetypes="cccc"
     inkscape:connector-curvature="0" />
  <path
     style="fill:#7f3038;fill-opacity:1;stroke:#000000;stroke-width:2.59451079px;stroke-linecap:butt;stroke-linejoin:miter;stroke-opacity:1"
     id="path71"
     d="m 304.95877,131.5761 5.13958,7.20354 c 0.0591,3.05614 2.91156,5.42519 0.37004,8.92323 -3.21223,2.09741 -7.43696,0.68159 -10.6492,0.89979 l 5.13958,-17.02656 z"
     sodipodi:nodetypes="ccccc"
     inkscape:connector-curvature="0" />
  <path
     style="fill:#7f0f16;fill-opacity:1;stroke:#000000;stroke-width:2.59451079;stroke-linecap:butt;stroke-linejoin:miter;stroke-opacity:1"
     d="m 308.32263,136.31315 c 0,9.03717 -9.91939,15.06195 -20.55831,15.06195 -10.63893,0 -21.20077,-7.98938 -21.20077,-17.02656 0,-9.03717 8.63449,-13.75222 19.27342,-13.75222 10.63893,0 22.48566,6.67965 22.48566,15.71683 z"
     id="path73"
     sodipodi:nodetypes="ccccc"
     inkscape:connector-curvature="0" />
  <path
     style="fill:#7f7f7f;fill-opacity:1;stroke:none"
     id="path74"
     d="m 235.25325,114.44031 c 15.28768,5.01 21.8432,0.65251 34.47886,0.21846 1.28489,1.52793 -8.56768,4.37111 -15.41874,5.89905 -5.78202,-0.87307 -12.84894,-0.22894 -19.06012,-6.11751 z"
     sodipodi:nodetypes="cccc"
     inkscape:connector-curvature="0" />
  <path
     style="fill:#7f7f7f;fill-opacity:1;stroke:none"
     id="path76"
     d="m 303.35238,116.40504 c 12.84895,9.16815 17.98852,8.73175 30.62417,8.07688 -9.6367,6.112 -9.85257,3.50328 -17.17647,3.70551 -7.70936,-1.52795 -7.23652,-5.45192 -13.4477,-11.78239 z"
     sodipodi:nodetypes="cccc"
     inkscape:connector-curvature="0" />
  <ellipse
     style="fill:#fbfbfb;fill-opacity:1;stroke:none"
     id="ellipse77"
     cx="165.5128"
     cy="8.8198824"
     rx="1.375"
     ry="1.125"
     transform="matrix(1.3687447,0,0,1.2447823,91.938559,98.031728)"
     sodipodi:cx="165.5128"
     sodipodi:cy="8.8198824"
     sodipodi:rx="1.375"
     sodipodi:ry="1.125" />
  <ellipse
     style="fill:#fbfbfb;fill-opacity:1;stroke:none"
     id="ellipse78"
     cx="165.5128"
     cy="8.8198824"
     rx="1.375"
     ry="1.125"
     transform="matrix(1.2829608,0,0,1.441165,35.440619,91.887582)"
     sodipodi:cx="165.5128"
     sodipodi:cy="8.8198824"
     sodipodi:rx="1.375"
     sodipodi:ry="1.125" />
  <path
     style="fill:#7f7f7f;fill-opacity:1;stroke:none"
     id="path143"
     d="m 270.14168,10.373798 24.01986,-10.38796581 34.52854,10.38796581 6.00496,13.850614"
     inkscape:connector-curvature="0" />
  <path
     style="fill:#7f7f7f;fill-opacity:1;stroke:#000000;stroke-width:1.01182902px;stroke-linecap:butt;stroke-linejoin:miter;stroke-opacity:1"
     id="path145"
     d="m 237.26246,100.82256 c 4.09482,-5.059947 22.30147,-5.712775 26.91898,0.97935"
     sodipodi:nodetypes="cc"
     inkscape:connector-curvature="0" />
  <path
     style="fill:#0c0c0c;fill-opacity:1;stroke:#000000;stroke-width:2.70438886px;stroke-linecap:butt;stroke-linejoin:miter;stroke-opacity:1"
     id="path95"
     d="M 68.742772,273.31035 C 25.447142,316.3629 28.396065,407.042 17.900406,435.79252 c -0.141648,42.45463 -8.11871,115.7166 -8.11871,121.67777 l -0.088805,132.43417 511.105919,8.22127 c -2.9137,-72.5953 -12.38381,-134.4282 -7.42736,-246.04015 -4.86594,-77.2291 -35.9747,-115.44455 -57.89467,-144.24291 -31.69346,-42.50246 -61.08972,-20.76542 -94.09445,-35.01662 l 5.83961,23.01955 -79.77061,11.39617 -83.74142,-66.06641 c -44.55187,8.91813 -93.0393,7.07358 -134.967138,32.13499 z"
     sodipodi:nodetypes="cccccccccccc"
     inkscape:connector-curvature="0" />
  <path
     style="fill:#7f7f7f;fill-opacity:1;stroke:#000000;stroke-width:1.01182902px;stroke-linecap:butt;stroke-linejoin:miter;stroke-opacity:1"
     id="path146"
     d="m 310.44055,103.76038 c 9.84451,-4.570279 20.73336,-1.30576 27.96437,5.87603"
     sodipodi:nodetypes="cc"
     inkscape:connector-curvature="0" />
  <path
     style="fill:#fbfbfb;fill-opacity:1;stroke:none"
     d="m 277.92646,124.50379 c 0.29405,0.52242 -0.75579,0.8932 -2.72142,2.20622 -0.98137,0.55606 -1.77076,1.59256 -1.81853,0.56545 -0.29404,-0.52242 0.26378,-1.3977 1.24515,-1.95377 0.98137,-0.55606 3.00075,-1.34032 3.2948,-0.8179 z"
     id="path158"
     sodipodi:nodetypes="ccccc"
     inkscape:connector-curvature="0" />
  <path
     style="fill:#7f274f;fill-opacity:1;stroke:#000000;stroke-width:1.23290408px;stroke-linecap:butt;stroke-linejoin:miter;stroke-opacity:1"
     id="path57"
     d="m 317.71658,338.22385 c 2.50989,-7.74564 -10.42135,-26.49005 -9.48193,-30.40043 -13.75239,-16.10976 12.00505,-2.85421 24.40423,-7.81372 10.13122,0.46201 23.45039,-7.36743 34.22338,-2.06393 -6.0229,7.61567 2.5439,45.96804 -8.72123,50.59732 -12.94199,32.72941 -19.24475,-19.42416 -40.42445,-10.31924 z"
     sodipodi:nodetypes="cccccc"
     inkscape:connector-curvature="0" />
  <path
     style="fill:#fbfbfb;fill-opacity:1;stroke:none"
     d="m 297.32425,127.13752 c 0.26118,0.74523 -0.98643,-0.38538 -2.2929,-1.02812 -1.30647,-0.64273 -2.67133,-0.80761 -2.44067,-1.30065 0.23066,-0.49303 1.97083,-0.62348 3.2773,0.0193 1.30646,0.64274 1.68692,1.81648 1.45627,2.30951 z"
     id="path160"
     sodipodi:nodetypes="ccccc"
     inkscape:connector-curvature="0" />
  <path
     style="fill:#ffdb8c;fill-opacity:1;stroke:none"
     d="m 339.44638,140.13571 c -3.19126,-2.46254 -3.02844,-3.6297 -6.85521,-6.88169 -4.06178,-1.43869 -8.37159,-1.74785 -6.49539,-2.5114 0.7313,-0.81691 5.04054,-0.5157 8.36514,0.67122 2.58635,2.19581 5.71676,7.90495 4.98546,8.72187 z"
     id="path161"
     sodipodi:nodetypes="ccccc"
     inkscape:connector-curvature="0" />
  <path
     style="fill:#ffdb8c;fill-opacity:1;stroke:none"
     d="m 250.69679,69.780067 c -3.93848,0.679457 -4.65217,-0.244946 -9.58654,0.363974 -3.81326,2.031743 -6.9981,5.025375 -6.24704,3.104024 -0.0747,-1.106292 3.10419,-4.104973 6.23199,-5.761534 3.33347,-0.412982 9.52695,1.187244 9.60159,2.293536 z"
     id="path162"
     sodipodi:nodetypes="ccccc"
     inkscape:connector-curvature="0" />
  <path
     style="fill:#f9f9f9;fill-opacity:1;stroke:#000000;stroke-width:2.70438886px;stroke-linecap:butt;stroke-linejoin:miter;stroke-opacity:1"
     id="path110"
     d="m 346.07748,325.17908 c -7.74783,-3.4888 -15.49322,-6.97462 -23.24105,-10.46343 -3.26108,-4.98358 -6.52461,-9.96417 -9.7857,-14.94776 l -57.49102,-19.43209 17.12499,35.87463 c 9.37715,0.44843 18.75674,10.31396 28.1339,10.76239 6.93073,2.98956 28.62319,6.65175 35.55392,5.60541 1.06175,28.60403 8.84872,19.02551 24.34194,20.72059 -12.03887,32.83425 -14.0694,48.0122 1.44339,111.79131 -18.20631,-38.36791 -50.84652,-43.10037 -65.11653,-54.55933 35.57348,99.10366 79.02202,176.68254 83.10755,277.13149 7.146,-77.42939 20.85089,-146.78701 -3.49106,-230.94291 31.98458,-61.08851 18.04974,-73.74328 -2.44642,-110.61343 -9.37716,-6.97462 -18.75675,-13.95224 -28.13391,-20.92687 z"
     sodipodi:nodetypes="cccccccccccccc"
     inkscape:connector-curvature="0" />
  <path
     style="fill:#7f274f;fill-opacity:1;stroke:#000000;stroke-width:2.70438886px;stroke-linecap:butt;stroke-linejoin:miter;stroke-opacity:1"
     id="path75"
     d="m 275.13112,317.7052 c -1.02995,-10.26312 16.31032,0.99553 24.46426,1.49478 13.73669,17.13911 43.22102,28.90001 64.8303,43.34851 12.88777,9.71305 7.41268,65.17224 -8.56249,89.68656 -15.49322,-13.45298 -33.6139,-16.14357 -46.4821,-40.35895 -23.22637,-26.0091 -32.01638,-62.7806 -34.24997,-94.1709 z"
     sodipodi:nodetypes="cccccc"
     inkscape:connector-curvature="0" />
  <path
     style="fill:#4f4f4f;fill-opacity:1;stroke:#000000;stroke-width:2.70438886px;stroke-linecap:butt;stroke-linejoin:miter;stroke-opacity:1"
     id="path96"
     d="m 363.98288,298.72155 c 24.74805,92.82859 20.63561,149.33113 8.65057,164.12642 26.96695,101.14851 -3.79441,151.17269 10.05236,226.75754 16.91704,-203.64531 69.26078,-270.06121 57.31488,-301.49635 -42.83448,-30.2453 -51.55355,-60.4876 -76.01781,-89.38761 z"
     sodipodi:nodetypes="ccccc"
     inkscape:connector-curvature="0" />
  <path
     style="fill:#4d4d4d;fill-opacity:1;stroke:#000000;stroke-width:2.70438886px;stroke-linecap:butt;stroke-linejoin:miter;stroke-opacity:1"
     id="path63"
     d="m 239.65794,269.87237 28.1339,37.3694 44.03568,115.09776 48.92852,134.52985 19.57141,107.62388 c 0.40611,0.49627 0.81466,0.99553 1.22322,1.49478 l 1.22321,23.91642 c -2.04032,0 -4.07819,0 -6.11607,0 0,0.99552 0,1.99104 0,2.98955 l -9.7857,-5.9791 -11.00892,-100.15 -70.94636,-128.55075 -63.60709,-119.58209 18.3482,-68.7597 z"
     inkscape:connector-curvature="0" />
  <path
     style="fill:#272727;fill-opacity:1;stroke:#000000;stroke-width:2.70438886px;stroke-linecap:butt;stroke-linejoin:miter;stroke-opacity:1"
     id="path59"
     d="m 145.98256,267.92917 c -23.38906,-5.57851 -37.59398,-0.39762 -70.16668,8.82216 -23.648869,17.98515 -32.866025,89.78522 -52.578839,160.24 L 12.139317,681.23477 c 26.838519,-6.17942 61.548906,22.62194 119.874893,1.64424 l 6.56009,-143.04708 c 26.36807,-16.93881 34.36813,-89.04083 38.43262,-140.96038 13.27431,-42.30217 4.2448,-89.98552 -31.02436,-130.94238 z"
     sodipodi:nodetypes="cccccccc"
     inkscape:connector-curvature="0" />
  <path
     style="fill:#7f7f7f;fill-opacity:1;stroke:#000000;stroke-width:2.70438886px;stroke-linecap:butt;stroke-linejoin:miter;stroke-opacity:1"
     id="path60"
     d="m 227.42581,254.92461 c 0.40611,0 0.81466,0 1.22321,0"
     inkscape:connector-curvature="0" />
  <path
     style="fill:#7f7f7f;fill-opacity:1;stroke:#000000;stroke-width:2.70438886px;stroke-linecap:butt;stroke-linejoin:miter;stroke-opacity:1"
     id="path61"
     d="m 231.09545,257.91416 c 0.40611,0 0.81466,0 1.22321,0"
     inkscape:connector-curvature="0" />
  <path
     style="fill:#7f7f7f;fill-opacity:1;stroke:#000000;stroke-width:2.70438886px;stroke-linecap:butt;stroke-linejoin:miter;stroke-opacity:1"
     id="path101"
     d="m 228.64902,254.92461 c -0.40855,0 -0.8171,0 -1.22321,0"
     inkscape:connector-curvature="0" />
  <path
     style="fill:#e2ec34;fill-opacity:1;stroke:#000000;stroke-width:2.70438886px;stroke-linecap:butt;stroke-linejoin:miter;stroke-opacity:1"
     id="path68"
     d="m 234.76509,340.12684 c 6.52461,3.51871 14.0327,5.01947 19.57141,2.98956 l 2.44642,22.42164 -18.10844,-3.51272 c 2.14062,-11.84162 -2.60544,-14.59798 -3.90939,-21.89848 z"
     sodipodi:nodetypes="ccccc"
     inkscape:connector-curvature="0" />
  <path
     style="fill:#fdfdfd;fill-opacity:1;stroke:#000000;stroke-width:2.70438886px;stroke-linecap:butt;stroke-linejoin:miter;stroke-opacity:1"
     id="path107"
     d="m 416.53185,375.49694 22.01784,28.40075 -26.91069,-13.45299 4.89285,-14.94776 z"
     inkscape:connector-curvature="0" />
  <path
     style="fill:#eeeeee;fill-opacity:1;stroke:#000000;stroke-width:2.70438886px;stroke-linecap:butt;stroke-linejoin:miter;stroke-opacity:1"
     id="path72"
     d="m 406.01493,365.53804 -7.33928,10.46343 8.56249,7.47388 7.33928,-10.46343 -8.56249,-7.47388 z"
     inkscape:connector-curvature="0" />
  <path
     style="fill:#fdfdfd;fill-opacity:1;stroke:#000000;stroke-width:2.70438886px;stroke-linecap:butt;stroke-linejoin:miter;stroke-opacity:1"
     id="path109"
     d="m 359.98542,294.64679 c -3.50083,14.03894 -0.11743,24.04497 -10.50496,32.02707 16.77026,0.42452 15.83328,6.89989 24.73093,19.43209 -1.46296,-16.4814 -11.77954,-38.00618 -14.22597,-51.45916 z"
     sodipodi:nodetypes="cccc"
     inkscape:connector-curvature="0" />
  <path
     style="fill:#abd434;fill-opacity:1;stroke:none"
     id="path22"
     d="m 379.31303,55.10956 c 9.77034,-7.090908 10.8291,13.181961 22.48566,7.858412 9.68553,11.382647 -4.64618,19.522913 8.8118,23.835873 1.2849,-10.914549 16.38498,-16.030375 18.17098,-8.11905 l 11.34304,20.040261 c 10.37939,5.738734 -9.43626,15.012704 0,8.379684 3.25849,5.73874 7.4601,7.05921 7.88926,7.49588 -1.2849,6.54868 -4.45602,3.37623 -5.74091,9.92491 5.56873,6.11202 16.79614,10.45692 17.64673,22.75508 l -6.08269,33.56354 c 0,0.4364 0,0.87307 0,1.30973 6.85364,6.11202 10.87279,6.03815 17.72641,21.87128 0.95339,27.22625 -6.59151,24.40613 -11.30193,38.37655 -14.1544,-12.05768 -3.08632,2.61947 -5.13958,2.61947 0.42659,0.43641 -6.6943,7.9425 -6.26515,8.37995 l 1.12558,23.05396 c -0.42916,0 -0.85832,0 -1.2849,0 -0.42916,0.43746 -0.85831,-1.02683 -1.28489,-0.58938 -4.71043,-3.49175 -18.85969,-15.82422 -19.79508,-4.29332 l -18.75175,-8.30895 c -0.85832,0.87228 0.25441,13.7365 -0.60134,14.60879 0.42659,0 -11.49209,0.38244 -11.06294,0.38244 -11.13489,9.16815 -23.45703,-9.94352 -17.12507,31.1586 l -26.64357,-68.68383 c 19.30168,-8.83731 1.80143,-14.13964 6.0056,-17.67462 9.85771,-5.94305 16.88351,-15.42056 21.07998,-39.03823 -2.05584,-10.77703 -6.93844,-48.06598 -12.76928,-76.51762 6.17005,13.46513 -4.98282,-7.611656 -1.92735,-9.168145 l 1.2849,-5.238941 c 7.28021,-6.548677 4.28384,-1.964603 3.21224,-3.274338 2.99894,-14.843755 0.21329,-16.589894 8.99425,-34.707986 z"
     sodipodi:nodetypes="ccccccccccccccccccccccccccccccc"
     inkscape:connector-curvature="0" />
  <path
     style="fill:#fdfdfd;fill-opacity:1;stroke:#000000;stroke-width:2.70438886px;stroke-linecap:butt;stroke-linejoin:miter;stroke-opacity:1"
     id="path53"
     d="m 404.99445,364.16978 -27.69513,-22.57881 13.11875,27.59632 14.57638,-5.01751 z"
     inkscape:connector-curvature="0" />
  <path
     style="fill:#7f274f;fill-opacity:1;stroke:#000000;stroke-width:0.74142134px;stroke-linecap:butt;stroke-linejoin:miter;stroke-opacity:1"
     id="path55"
     d="m 390.44483,280.55727 c -1.91851,-1.68536 6.28767,-0.99428 9.43126,-1.49107 7.72693,1.95626 20.57904,1.86609 30.86786,2.79897 6.29973,0.7442 12.51119,10.63993 10.15472,15.9822 -7.83826,-1.19907 -15.06017,-0.36601 -23.51571,-3.59704 -12.62187,-2.79866 -21.41524,-8.47285 -26.93813,-13.69306 z"
     sodipodi:nodetypes="cccccc"
     inkscape:connector-curvature="0" />
  <path
     style="fill:#7f274f;fill-opacity:1;stroke:#000000;stroke-width:0.61957252px;stroke-linecap:butt;stroke-linejoin:miter;stroke-opacity:1"
     id="path56"
     d="m 162.76816,248.62619 c 4.38854,-0.14632 -3.06464,2.09193 -4.59738,3.13775 -9.28497,1.78456 -18.92168,5.58007 -28.38172,8.36994 -6.0927,1.66542 -28.00985,1.04097 -35.491104,-0.97244 8.054954,-2.00457 12.111434,-4.3309 24.165254,-6.01403 14.47776,-3.01326 31.03158,-4.19117 44.30495,-4.52122 z"
     sodipodi:nodetypes="cccccc"
     inkscape:connector-curvature="0" />
  <path
     style="fill:#abd433;fill-opacity:1;stroke:none"
     id="path23"
     d="m 221.27103,32.844059 c -8.99426,-1.091534 -9.49537,-7.485138 -26.98278,-3.274338 -16.36955,6.091054 -20.47171,20.135609 -32.12287,23.575236 -13.4585,6.932166 -13.70545,22.702165 -20.55831,34.053118 -5.56796,4.626509 -11.13566,10.136303 -16.70363,11.227837 l -3.85468,36.577498 c 0,0.43641 0,0.87308 0,1.30974 -1.2777,31.99709 -3.49928,48.08693 -17.98852,64.17703 10.19924,6.53794 1.74283,24.30083 11.40164,58.59259 23.27971,-30.43826 23.96764,4.45833 34.41538,3.54151 22.63393,12.33247 7.1178,-21.74814 15.59656,-9.41437 7.54952,-1.32807 3.77476,17.66309 3.77476,18.10054 2.91825,9.15767 -2.6569,12.13077 -3.51341,22.1712 5.99609,-5.23894 11.99243,-10.47788 17.98852,-15.71683 3.85493,-8.29585 7.70962,-16.5891 11.56456,-24.88497 7.28021,0.87229 14.563,1.74719 21.84321,2.61947 1.71404,-3.05691 3.42552,-6.11122 5.13957,-9.16814 -5.99532,-21.39243 -15.93012,-42.78486 -21.92544,-64.1773 8.83494,-9.53068 3.5129,-23.6119 1.96847,-48.03427 11.31477,-20.79703 3.92149,-68.98979 19.95697,-101.275551 z"
     sodipodi:nodetypes="cccccccccccccccccccc"
     inkscape:connector-curvature="0" />
  <path
     style="fill:#4d4d4d;fill-opacity:1;stroke:#000000;stroke-width:1.14761508px;stroke-linecap:butt;stroke-linejoin:miter;stroke-opacity:1"
     id="path70"
     d="m 191.89042,346.56063 6.18802,30.59485 9.6856,94.23214 10.76178,110.14145 4.30471,88.11317 c 0.0893,0.40631 0.17919,0.81505 0.26905,1.22379 l 0.26905,19.58071 c -0.44877,0 -0.897,0 -1.34523,0 0,0.81505 0,1.6301 0,2.44758 l -2.15235,-4.89517 -2.42141,-81.9942 -15.60457,-105.24628 -13.99032,-97.90352 4.03567,-56.29452 z"
     inkscape:connector-curvature="0" />
  <path
     style="fill:#4d4d4d;fill-opacity:1;stroke:#000000;stroke-width:0.94600689px;stroke-linecap:butt;stroke-linejoin:miter;stroke-opacity:1"
     id="path77"
     d="m 252.83502,454.81402 9.64281,19.35689 20.47122,61.30262 23.37698,71.75281 14.46339,58.17535 c 0.13509,0.25577 0.271,0.51309 0.40691,0.7704 l 2.53715,13.05134 c -0.44183,0.0806 -0.88313,0.1611 -1.32443,0.24159 0.0946,0.54528 0.18916,1.09055 0.28403,1.63746 l -2.68716,-2.88837 -11.8991,-54.41993 -27.57688,-67.60817 -25.13545,-62.98571 -2.55947,-38.38628 z"
     inkscape:connector-curvature="0" />
  <path
     style="fill:#4d4d4d;fill-opacity:1;stroke:#000000;stroke-width:0.75422782px;stroke-linecap:butt;stroke-linejoin:miter;stroke-opacity:1"
     id="path78"
     d="m 438.56381,446.25366 1.20189,22.31723 -1.94846,66.88199 -2.61441,78.06311 -4.68638,61.59852 c 0.0203,0.2978 0.0406,0.59738 0.061,0.89695 l -1.45587,13.55249 c -0.27052,-0.0888 -0.5407,-0.17752 -0.8109,-0.26624 -0.0673,0.56192 -0.1347,1.12382 -0.20226,1.68741 l -0.8929,-3.80078 5.31598,-57.0073 -0.7093,-75.64673 -0.34301,-70.26504 7.08457,-38.01161 z"
     inkscape:connector-curvature="0" />
  <path
     style="fill:#ffdb8c;fill-opacity:1;stroke:none"
     d="m 270.70077,10.447422 c -5.8836,2.257165 -7.10065,2.612526 -14.50657,5.194445 -5.50033,3.579981 -9.90771,6.876581 -9.04163,4.627385 -0.27133,-1.093246 2.65267,-5.402753 8.64052,-8.328569 4.50988,-2.7544635 14.63634,-2.5865073 14.90768,-1.493261 z"
     id="path79"
     sodipodi:nodetypes="ccccc"
     inkscape:connector-curvature="0" />
  <path
     style="fill:#441a1e;fill-opacity:1;stroke:#000000;stroke-width:2.59451127px;stroke-linecap:butt;stroke-linejoin:miter;stroke-opacity:1"
     id="path66"
     d="m 404.97426,364.78765 c -4.27221,0.80344 -14.99043,7.42012 -8.27344,19.91195 15.08575,9.38626 13.05984,-1.23601 18.2941,-10.11301 -12.19703,11.02912 -18.48574,5.40623 -10.02066,-9.79894 z"
     sodipodi:nodetypes="cccc"
     inkscape:connector-curvature="0" />
</svg>
