<?xml version="1.0" encoding="UTF-8" standalone="no"?>
<!-- Created with Sodipodi ("http://www.sodipodi.com/") -->
<svg
   xmlns:dc="http://purl.org/dc/elements/1.1/"
   xmlns:cc="http://creativecommons.org/ns#"
   xmlns:rdf="http://www.w3.org/1999/02/22-rdf-syntax-ns#"
   xmlns:svg="http://www.w3.org/2000/svg"
   xmlns="http://www.w3.org/2000/svg"
   xmlns:xlink="http://www.w3.org/1999/xlink"
   xmlns:sodipodi="http://sodipodi.sourceforge.net/DTD/sodipodi-0.dtd"
   xmlns:inkscape="http://www.inkscape.org/namespaces/inkscape"
   id="svg101"
   sodipodi:version="0.32"
   width="708.83942"
   height="554.66693"
   sodipodi:docbase="/art/"
   sodipodi:docname="emeza_Mascot_ok.svg"
   inkscape:version="0.46"
   inkscape:output_extension="org.inkscape.output.svg.inkscape"
   version="1.0">
  <metadata
     id="metadata109">
    <rdf:RDF>
      <cc:Work
         rdf:about="">
        <dc:format>image/svg+xml</dc:format>
        <dc:type
           rdf:resource="http://purl.org/dc/dcmitype/StillImage" />
      </cc:Work>
    </rdf:RDF>
  </metadata>
  <defs
     id="defs103">
    <inkscape:perspective
       sodipodi:type="inkscape:persp3d"
       inkscape:vp_x="0 : 526.18109 : 1"
       inkscape:vp_y="0 : 1000 : 0"
       inkscape:vp_z="744.09448 : 526.18109 : 1"
       inkscape:persp3d-origin="372.04724 : 350.78739 : 1"
       id="perspective111" />
    <linearGradient
       id="linearGradient154">
      <stop
         style="stop-color:#bd4f3f;stop-opacity:1;"
         offset="0.000000"
         id="stop155" />
      <stop
         style="stop-color:#ffdfb7;stop-opacity:1;"
         offset="1.000000"
         id="stop156" />
    </linearGradient>
    <linearGradient
       xlink:href="#linearGradient154"
       id="linearGradient157"
       gradientTransform="matrix(0.8774364,0,0,0.4938203,67.867364,-558.5246)"
       x1="387.88278"
       y1="1818.4683"
       x2="670.81992"
       y2="1818.4683"
       gradientUnits="userSpaceOnUse" />
    <radialGradient
       xlink:href="#linearGradient154"
       id="radialGradient210"
       cx="0.5"
       cy="0.5"
       fx="0.5"
       fy="0.5"
       r="0.5"
       gradientUnits="objectBoundingBox"
       spreadMethod="pad" />
  </defs>
  <sodipodi:namedview
     id="base"
     showgrid="false"
     inkscape:zoom="0.43901235"
     inkscape:cx="372.04724"
     inkscape:cy="526.18109"
     inkscape:window-width="640"
     inkscape:window-height="667"
     inkscape:window-x="22"
     inkscape:window-y="29"
     inkscape:current-layer="svg101" />
  <path
     style="fill:#e2ae00;fill-opacity:1;fill-rule:evenodd;stroke:#000000;stroke-width:0.65825219pt;stroke-linecap:butt;stroke-linejoin:miter;stroke-opacity:1"
     d="M 462.95217,445.16404 C 467.35853,445.16404 575.30233,440.03694 593.34576,438.36796 C 580.95681,461.31974 585.84995,469.53111 591.87438,477.52217 C 578.74941,477.52217 485.12416,478.4568 475.79415,478.63705 C 475.79415,467.31471 478.53961,458.04187 462.95217,445.16404 z"
     id="path208"
     sodipodi:nodetypes="ccccc" />
  <path
     style="fill:#950000;fill-opacity:1;fill-rule:evenodd;stroke:#000000;stroke-width:1.64563048;stroke-linecap:butt;stroke-linejoin:miter;stroke-dasharray:none;stroke-opacity:1"
     d="M 364.80502,240.8222 C 390.77976,244.36043 566.72261,225.21392 707.84814,217.62341 C 709.08976,247.13093 703.06144,270.20956 703.06144,289.54299 C 690.44078,315.32536 677.57608,351.00142 638.94433,443.05554 C 603.90115,442.51479 573.40777,448.22937 417.12251,456.24046 C 406.79622,438.25556 348.57892,302.71456 348.57892,280.87766 C 348.57892,270.34307 357.46434,253.40629 364.80502,240.8222 z"
     id="path193"
     sodipodi:nodetypes="ccccccc" />
  <path
     style="fill:#d60000;fill-opacity:1;fill-rule:evenodd;stroke:#000000;stroke-width:0.65825219pt;stroke-linecap:butt;stroke-linejoin:miter;stroke-opacity:1"
     d="M 143.51549,179.8804 C 123.66189,144.13223 88.68919,236.2164 98.42485,252.53432 C 103.29268,261.37723 111.68079,262.93539 114.4243,262.93539 C 117.23376,265.82473 141.77411,260.60683 140.08205,241.2013 C 151.54741,219.31833 183.09744,225.93883 175.55101,207.04801 C 174.86237,207.04801 163.43206,177.43501 143.51549,179.8804 z"
     id="path161"
     sodipodi:nodetypes="cccccc" />
  <path
     style="fill:#f60000;fill-opacity:1;fill-rule:evenodd;stroke:#000000;stroke-width:0.65825219pt;stroke-linecap:butt;stroke-linejoin:miter;stroke-opacity:1"
     d="M 229.88562,218.69076 C 229.73894,218.69076 225.05609,210.92935 204.9818,211.70509 C 184.60637,206.48653 182.00435,191.52382 161.96706,187.64244 C 152.15676,197.50877 179.9326,217.13862 182.3425,217.13862 C 182.3425,218.41438 225.12099,231.54857 229.88562,218.69076 z"
     id="path160"
     sodipodi:nodetypes="ccccc" />
  <path
     style="fill:#edb234;fill-opacity:0.99397601;fill-rule:evenodd;stroke:#000000;stroke-width:1.64563048;stroke-linecap:butt;stroke-linejoin:miter;stroke-dasharray:none;stroke-opacity:1"
     d="M 200.11008,450.27817 C 200.11008,440.84511 245.54316,436.50577 294.22146,407.71924 C 301.69066,416.89862 285.52816,438.59533 292.59885,437.76084 C 307.20234,447.94828 311.25886,442.52076 319.37191,451.11266 C 331.09754,453.61612 341.27715,478.18347 333.9754,492.83709 C 334.78671,517.40444 324.93747,512.86482 308.82495,513.69931 C 299.42679,520.86257 279.33693,517.87176 269.071,514.5338 C 229.40792,524.54767 234.41141,512.03034 222.01531,516.20278 C 190.37182,519.54073 219.63397,507.0234 193.61964,516.20278 C 179.01615,509.49349 177.17092,492.00261 188.75181,487.83016 C 186.31789,473.42355 195.76992,475.6266 200.11008,450.27817 z"
     id="path170"
     sodipodi:nodetypes="ccccccccccc" />
  <path
     style="fill:#004d98;fill-opacity:1;fill-rule:evenodd;stroke:#000000;stroke-width:1.23422289;stroke-linecap:butt;stroke-linejoin:miter;stroke-dasharray:none;stroke-opacity:1"
     d="M 78.996543,350.35678 C 78.996543,353.32088 68.324183,359.27579 68.324183,374.51022 C 68.324183,381.83369 75.522341,398.65699 64.055226,398.65699 C 53.440046,398.65699 55.621159,443.89963 73.111012,457.23142 C 91.623629,468.14654 114.06076,479.13508 136.08671,472.92649 C 181.36597,457.32489 169.3989,436.08882 169.3989,424.9801 C 175.41618,438.1984 196.53997,428.75199 204.69326,421.76231 C 197.14683,425.33392 188.2731,432.45044 192.12323,440.37475 C 186.08582,461.21026 315.07877,430.34753 293.1982,402.40885 C 300.74463,395.6061 285.73938,362.77397 266.82949,350.35678 C 244.19018,341.69812 214.13166,347.24581 178.70943,355.811 C 135.22998,357.36648 85.05128,344.12816 78.996543,350.35678 z"
     id="path163"
     sodipodi:nodetypes="cccccccccccc" />
  <path
     style="fill:#f5ded1;fill-opacity:1;fill-rule:evenodd;stroke:#000000;stroke-width:0.65825219pt;stroke-linecap:butt;stroke-linejoin:miter;stroke-opacity:1"
     d="M 281.9559,196.18174 C 282.51148,196.18174 279.09946,201.00508 300.06748,193.0761 C 320.07296,189.9718 328.74419,191.4405 343.83706,200.83885 C 369.66836,211.7059 353.02103,234.99147 342.32803,242.75355 C 331.38515,245.85852 323.35517,242.75422 315.16099,242.75422 C 307.73463,242.75422 291.23658,238.0971 281.95655,239.64992 C 274.45166,239.64992 272.25594,215.47311 277.42817,210.15308 C 277.42817,204.21085 274.11415,202.634 281.9559,196.18174 z"
     id="path166"
     sodipodi:nodetypes="cccccccc" />
  <path
     style="fill:#00426b;fill-opacity:1;fill-rule:evenodd;stroke:#000000;stroke-width:0.65825219pt;stroke-linecap:butt;stroke-linejoin:miter;stroke-opacity:1"
     d="M 313.65115,193.07669 C 311.35548,193.07669 282.68136,183.76179 278.93768,183.76179 C 274.15487,183.76179 194.41722,213.26865 194.41722,221.02005 C 194.41722,229.52783 235.88529,267.5932 245.73323,267.5932 C 249.05115,271.00525 266.86351,267.5972 266.86351,264.48823 C 271.62295,264.48823 275.97284,230.27953 278.93768,227.22998 C 278.93768,218.38039 293.60347,196.18099 298.55828,196.18099 C 301.74573,192.90312 309.65174,193.07669 313.65115,193.07669 z"
     id="path165"
     sodipodi:nodetypes="cccccccc" />
  <path
     style="fill:#dc0000;fill-opacity:1;fill-rule:evenodd;stroke:#000000;stroke-width:0.65825219pt;stroke-linecap:butt;stroke-linejoin:miter;stroke-opacity:1"
     d="M 213.07745,0.82970556 C 150.20456,11.806838 133.76492,106.17617 174.01214,104.61601 C 192.3392,94.127484 292.89818,86.354054 300.0117,84.158347 L 295.34183,50.317492 C 298.4475,43.927979 283.33711,-4.5673004 213.07745,0.82970556 z"
     id="path114"
     sodipodi:nodetypes="ccccc" />
  <path
     style="fill:#b91a07;fill-opacity:1;fill-rule:evenodd;stroke:#000000;stroke-width:0.65825219pt;stroke-linecap:butt;stroke-linejoin:miter;stroke-opacity:1"
     d="M 280.40019,98.617701 C 280.40019,100.32273 311.78925,92.276922 353.28458,80.332383 C 354.35161,69.632902 317.90714,72.459483 291.56829,73.10304 C 258.32815,74.334078 275.70111,98.617701 280.40019,98.617701 z"
     id="path110"
     sodipodi:nodetypes="cccc" />
  <path
     style="fill:#ffdedc;fill-opacity:1;fill-rule:evenodd;stroke:#000000;stroke-width:0.65825219pt;stroke-linecap:butt;stroke-linejoin:miter;stroke-opacity:1"
     d="M 152.33277,178.75132 C 165.88027,202.99088 188.52996,212.04942 208.27647,210.26428 C 283.91865,205.03571 302.81233,167.55982 310.28282,153.50369 C 321.2945,143.27487 326.99376,131.87041 320.20021,124.18644 C 315.93145,120.43057 302.16523,117.22546 292.48993,116.22341 C 280.50533,115.0598 289.51341,111.84134 279.38638,110.84129 C 269.14382,104.53723 312.11832,81.696272 276.26058,77.039157 C 260.98533,77.039157 251.5015,77.705413 226.93129,75.376855 C 216.02086,78.481821 212.09739,90.764828 212.09739,92.03058 C 202.13911,89.834874 208.53739,93.905176 196.40091,92.806989 C 185.27695,98.295922 179.93337,94.964643 177.37354,107.96464 C 167.03751,113.10776 159.41449,116.11459 153.01102,127.34614 C 146.89508,137.81397 148.55858,152.20056 148.55858,157.44048 C 147.57333,159.46795 148.96813,164.06966 152.33277,178.75132 z"
     id="path117"
     sodipodi:nodetypes="ccccsccccccccc" />
  <path
     style="fill:#000000;fill-opacity:1;fill-rule:evenodd;stroke:#000000;stroke-width:0.65825219pt;stroke-linecap:butt;stroke-linejoin:miter;stroke-opacity:1"
     d="M 253.28053,75.867018 C 253.28053,76.657446 256.29859,85.049732 264.59986,85.957656 C 272.11774,83.629099 287.99465,75.447771 284.22111,75.09061 C 281.28678,72.848839 255.19457,73.897625 253.28053,75.867018 z"
     id="path158"
     sodipodi:nodetypes="cccc" />
  <path
     style="fill:#ff3221;fill-opacity:1;fill-rule:evenodd;stroke:#000000;stroke-width:0.65825219pt;stroke-linecap:butt;stroke-linejoin:miter;stroke-opacity:1"
     d="M 234.76785,67.582063 C 240.10429,50.142583 210.08276,20.07829 165.13906,43.731039 C 152.76763,60.196504 155.24698,72.27189 158.73559,72.27189 C 164.36475,66.061958 202.37601,52.057902 234.76785,67.582063 z"
     id="path108"
     sodipodi:nodetypes="cccc" />
  <path
     style="fill:#f63f10;fill-opacity:1;fill-rule:evenodd;stroke:#000000;stroke-width:0.65825219pt;stroke-linecap:butt;stroke-linejoin:miter;stroke-opacity:1"
     d="M 283.5487,38.884996 C 280.40213,37.787477 273.85847,41.471244 265.45984,50.316824 C 250.51885,75.157886 297.60115,68.008654 293.20777,63.48973 C 296.40951,54.578058 292.72099,42.039364 283.5487,38.884996 z"
     id="path113"
     sodipodi:nodetypes="cccc" />
  <path
     style="font-size:12px;fill:#dab789;fill-rule:evenodd;stroke:#000000;stroke-width:0.65825219pt"
     d="M 154.46683,181.40166 C 148.43007,132.35909 155.13729,135.8853 165.45125,124.24185 C 180.40068,107.31307 194.17599,126.43822 194.02995,119.92921 C 186.75158,114.7714 167.29778,88.847507 209.93153,96.609587 C 226.09078,87.29469 217.0457,77.990474 242.86403,80.276973 C 253.83417,80.276973 256.29599,87.519001 262.33405,89.890284 C 291.29569,68.932599 293.86525,89.568505 285.99495,97.330585 C 298.06911,84.924742 295.01796,74.65519 290.39352,75.43093 C 272.4825,83.787167 268.82449,75.865532 262.77994,81.447928 C 257.8154,85.523571 257.50776,77.987804 246.19492,70.908001 C 236.71823,72.137036 182.84044,79.766266 172.2753,86.275946 C 176.07156,91.709469 173.69541,106.54868 170.4755,106.75564 C 166.07303,108.30845 135.92364,111.50621 128.37786,143.24683 C 142.29011,148.48742 130.52489,175.83261 154.46683,181.40166 z"
     id="path126"
     sodipodi:nodetypes="ccccccccsccccc" />
  <path
     style="fill:#000000;fill-opacity:1;fill-rule:evenodd;stroke:#000000;stroke-width:0.65825219pt;stroke-linecap:butt;stroke-linejoin:miter;stroke-opacity:1"
     d="M 232.7636,116.69072 C 229.7449,109.53482 222.11149,109.64964 213.60642,111.20246 C 217.42085,108.13955 224.89589,110.06689 221.35795,106.59942 C 215.08754,101.1926 221.23139,92.619396 235.78166,87.185873 C 227.10199,93.009936 219.41601,100.11911 226.0791,98.82866 C 244.90332,79.643429 244.90008,113.55972 232.7636,116.69072 z"
     id="path120"
     sodipodi:nodetypes="ccsccc" />
  <path
     style="fill:#000000;fill-opacity:1;fill-rule:evenodd;stroke:#000000;stroke-width:0.65825219pt;stroke-linecap:butt;stroke-linejoin:miter;stroke-opacity:1"
     d="M 243.04706,122.76714 C 243.04706,121.57081 259.87936,121.66962 273.99672,119.47458 C 328.52161,121.07413 295.28796,129.41901 302.5235,127.30275 C 323.86342,121.28308 321.70989,131.08799 320.95505,129.35359 C 327.62203,120.57143 277.44379,113.98565 271.86266,113.98565 C 275.0644,107.36915 279.09756,98.068273 267.05974,101.3615 C 286.26949,88.821471 257.9887,97.838622 261.19043,112.88813 C 261.19043,118.77695 248.42374,119.44921 243.04706,122.76714 z"
     id="path122"
     sodipodi:nodetypes="ccsccccc" />
  <path
     style="font-size:12px;fill-rule:evenodd;stroke:#000000;stroke-width:0.65825219pt"
     d="M 221.13079,165.84478 C 195.42021,146.97198 213.08718,124.83533 205.85489,135.71373 C 191.72455,155.36093 196.9831,176.97619 215.92351,193.6653 C 226.13881,193.34352 221.93885,187.07818 219.17976,181.72343 C 249.44014,183.44782 227.86332,171.77967 254.09314,168.94507"
     id="path135"
     sodipodi:nodetypes="csccc" />
  <path
     style="fill:#e55900;fill-opacity:1;fill-rule:evenodd;stroke:#000000;stroke-width:0.65825219pt;stroke-linecap:butt;stroke-linejoin:miter;stroke-opacity:1"
     d="M 235.57656,74.466929 C 241.16483,66.523931 226.67557,28.472579 161.86139,44.185001 C 186.96706,16.208933 250.7564,45.837956 235.57656,74.466929 z"
     id="path109"
     sodipodi:nodetypes="ccc" />
  <path
     style="fill:#cdbdc2;fill-opacity:1;fill-rule:evenodd;stroke:#000000;stroke-width:0.65825219pt;stroke-linecap:butt;stroke-linejoin:miter;stroke-opacity:1"
     d="M 329.72948,73.635778 C 345.57719,69.573487 348.23307,32.996844 335.89669,28.362427 C 312.41753,20.978203 293.63484,33.411418 280.40019,40.437813 C 271.10782,52.935784 272.11774,65.630694 283.28973,70.209701 C 295.89741,72.19979 313.37811,74.050352 329.72948,73.635778 z"
     id="path112"
     sodipodi:nodetypes="ccccc" />
  <path
     style="font-size:12px;fill:#fcfffc;fill-rule:evenodd;stroke:#000000;stroke-width:0.65825219pt"
     d="M 328.86796,28.684134 C 314.99399,33.147647 313.1877,70.115499 323.79049,70.153551 C 335.11046,72.797879 332.23844,71.321836 335.27143,68.202183 C 341.64374,61.936841 346.99705,28.684134 328.86796,28.684134 z"
     id="path118"
     sodipodi:nodetypes="cccc" />
  <path
     style="font-size:12px;fill:#fcfffc;fill-rule:evenodd;stroke:#000000;stroke-width:0.56256328pt"
     d="M 328.91631,30.880005 C 316.03429,35.633451 318.53749,63.631851 321.04281,66.433 C 324.81596,68.788606 332.43355,68.095606 334.91972,65.315871 C 339.52443,60.425015 345.28631,31.656284 328.91631,30.880005 z"
     id="path119"
     sodipodi:nodetypes="cccc" />
  <path
     style="fill:#f05700;fill-opacity:1;fill-rule:evenodd;stroke:#000000;stroke-width:0.65825219pt;stroke-linecap:butt;stroke-linejoin:miter;stroke-opacity:1"
     d="M 156.2887,93.450547 C 168.49981,86.464207 274.70872,72.005521 353.85639,79.367714 C 348.13117,70.530812 321.8066,65.419068 212.40958,73.957557 C 165.59664,86.376752 145.35815,78.314923 156.2887,93.450547 z"
     id="path105"
     sodipodi:nodetypes="cccc" />
  <path
     style="fill:#fff3f6;fill-opacity:1;fill-rule:evenodd;stroke:#000000;stroke-width:0.65825219pt;stroke-linecap:butt;stroke-linejoin:miter;stroke-opacity:1"
     d="M 216.73242,164.44557 C 210.88454,188.50755 237.08644,176.96758 233.3129,167.7388 C 225.76582,168.51454 220.50532,165.89758 216.73242,164.44557 z"
     id="path136"
     sodipodi:nodetypes="ccc" />
  <path
     style="font-size:12px;fill:#ffffff;fill-rule:evenodd;stroke-width:1pt"
     d="M 231.3948,99.930444 C 227.62191,104.07018 227.84323,109.07978 233.52951,108.69658 C 242.43245,105.68508 236.39569,96.119835 231.3948,99.930444 z"
     id="path139"
     sodipodi:nodetypes="ccc" />
  <path
     style="font-size:12px;fill:#ffffff;fill-rule:evenodd;stroke-width:1pt"
     d="M 269.31047,102.48709 C 265.53693,104.20347 264.15706,108.98609 267.9306,111.02558 C 274.349,110.11499 274.31136,101.42095 269.31047,102.48709 z"
     id="path140"
     sodipodi:nodetypes="ccc" />
  <path
     style="fill:#eb92d3;fill-opacity:1;fill-rule:evenodd;stroke:#000000;stroke-width:0.65825219pt;stroke-linecap:butt;stroke-linejoin:miter;stroke-opacity:1"
     d="M 218.78757,190.7473 C 221.9893,189.7566 218.428,182.85237 213.37519,185.04741 C 213.90871,177.66586 208.7553,178.51236 208.7553,180.65667 C 208.7553,183.26895 209.18237,192.10385 218.78757,190.7473 z"
     id="path143"
     sodipodi:nodetypes="cccc" />
  <path
     style="fill:#000000;fill-opacity:1;fill-rule:evenodd;stroke:#000000;stroke-width:0.65825219pt;stroke-linecap:butt;stroke-linejoin:miter;stroke-opacity:1"
     d="M 286.48395,164.35545 C 300.82263,161.15435 306.70037,148.05555 308.36906,144.95125 C 308.96683,151.32141 293.27619,167.71944 286.48395,164.35545 z"
     id="path144"
     sodipodi:nodetypes="ccc" />
  <path
     style="fill:#000000;fill-opacity:1;fill-rule:evenodd;stroke:#000000;stroke-width:0.65825191pt;stroke-linecap:butt;stroke-linejoin:miter;stroke-opacity:1"
     d="M 190.40307,124.82485 C 176.71439,119.39159 164.80336,126.23403 158.73168,127.88398 C 161.63677,122.22464 186.52696,118.17427 190.40307,124.82485 z"
     id="path145"
     sodipodi:nodetypes="ccc" />
  <path
     style="fill:#000000;fill-opacity:1;fill-rule:evenodd;stroke:#000000;stroke-width:0.65825176pt;stroke-linecap:butt;stroke-linejoin:miter;stroke-opacity:1"
     d="M 193.43174,117.84568 C 181.10898,110.68645 169.41259,115.69656 164.14174,119.40594 C 166.89046,113.44603 187.86574,109.42407 193.43174,117.84568 z"
     id="path146"
     sodipodi:nodetypes="ccc" />
  <path
     style="fill:#000003;fill-opacity:1;fill-rule:evenodd;stroke:#000000;stroke-width:0.65825219pt;stroke-linecap:butt;stroke-linejoin:miter;stroke-opacity:1"
     d="M 299.31309,130.65766 C 298.40313,134.11177 301.35628,134.037 302.95747,137.73746 C 304.55802,134.86815 302.76665,130.91668 299.31309,130.65766 z"
     id="path147"
     sodipodi:nodetypes="ccc" />
  <path
     style="fill:#000003;fill-opacity:1;fill-rule:evenodd;stroke:#000000;stroke-width:0.54881086pt;stroke-linecap:butt;stroke-linejoin:miter;stroke-opacity:1"
     d="M 317.97573,138.25197 C 320.80687,135.44632 321.10375,136.40308 323.03337,134.50206 C 321.32195,133.52502 317.71189,134.46129 317.97573,138.25197 z"
     id="path148"
     sodipodi:nodetypes="ccc" />
  <path
     style="fill:#000003;fill-opacity:1;fill-rule:evenodd;stroke:#000000;stroke-width:0.65825219pt;stroke-linecap:butt;stroke-linejoin:miter;stroke-opacity:1"
     d="M 205.93019,195.42466 C 205.55375,197.78125 208.5069,199.90152 212.77631,201.40694 C 213.30982,199.08639 208.31673,197.87939 205.93019,195.42466 z"
     id="path149"
     sodipodi:nodetypes="ccc" />
  <path
     style="fill:#000003;fill-opacity:1;fill-rule:evenodd;stroke:#000000;stroke-width:0.65825219pt;stroke-linecap:butt;stroke-linejoin:miter;stroke-opacity:1"
     d="M 200.45422,129.10521 C 206.3365,127.12581 211.55352,127.05103 213.15471,133.85646 C 218.52815,124.77722 205.41746,123.15431 200.45422,129.10521 z"
     id="path150"
     sodipodi:nodetypes="ccc" />
  <path
     style="fill:#000003;fill-opacity:1;fill-rule:evenodd;stroke:#000000;stroke-width:0.65825219pt;stroke-linecap:butt;stroke-linejoin:miter;stroke-opacity:1"
     d="M 182.64038,107.01112 C 184.93215,100.58556 190.01936,108.19476 194.82229,110.7977 C 196.95634,107.92839 177.02226,97.390468 182.64038,107.01112 z"
     id="path151"
     sodipodi:nodetypes="ccc" />
  <path
     style="fill:#000003;fill-opacity:1;fill-rule:evenodd;stroke:#000000;stroke-width:0.65825219pt;stroke-linecap:butt;stroke-linejoin:miter;stroke-opacity:1"
     d="M 188.32114,102.11688 C 189.54589,102.27777 193.03255,96.714067 196.7678,105.3547 C 198.36834,102.48539 193.37525,97.985161 188.32114,102.11688 z"
     id="path152"
     sodipodi:nodetypes="ccc" />
  <path
     style="fill:none;fill-opacity:1;fill-rule:evenodd;stroke:#000001;stroke-width:1.39878583;stroke-linecap:round;stroke-linejoin:round;stroke-dasharray:none;stroke-opacity:1"
     d="M 258.36608,114.69344 C 258.23303,110.03633 254.12458,122.11839 255.00858,105.42928 C 252.81546,105.30845 255.53106,114.58663 252.56298,114.5646 C 250.2725,114.84632 249.34307,109.71521 248.38379,114.37233 C 251.40249,118.5421 258.36673,116.56336 258.36608,114.69344 z"
     id="path153"
     sodipodi:nodetypes="ccscc" />
  <path
     style="fill:#f80000;fill-opacity:1;fill-rule:evenodd;stroke:#000000;stroke-width:0.65825219pt;stroke-linecap:butt;stroke-linejoin:miter;stroke-opacity:1"
     d="M 251.22232,215.78834 C 247.1658,211.93167 238.24144,206.46009 229.31709,216.20559 C 234.18492,219.17837 238.51729,224.13323 241.48666,216.62283 C 245.80475,219.1263 252.43928,219.68307 251.22232,215.78834 z"
     id="path142"
     sodipodi:nodetypes="cccc" />
  <path
     style="fill:#f80000;fill-opacity:1;fill-rule:evenodd;stroke:#000000;stroke-width:0.65825219pt;stroke-linecap:butt;stroke-linejoin:miter;stroke-opacity:1"
     d="M 244.73188,222.04701 C 239.49085,222.04701 235.80753,224.89896 244.32623,228.30567 C 252.46265,222.04701 245.4705,222.04701 244.73188,222.04701 z"
     id="path154"
     sodipodi:nodetypes="ccc" />
  <path
     style="fill:#f80000;fill-opacity:1;fill-rule:evenodd;stroke:#000000;stroke-width:0.65825219pt;stroke-linecap:butt;stroke-linejoin:miter;stroke-opacity:1"
     d="M 251.03166,213.83288 C 251.25753,213.83288 249.40905,218.11414 246.56948,228.43643 C 250.08276,230.93989 253.87123,223.46621 254.27688,220.50879 C 254.24443,214.25012 251.16666,213.83288 251.03166,213.83288 z"
     id="path155"
     sodipodi:nodetypes="cccc" />
  <path
     style="fill:#f80000;fill-opacity:1;fill-rule:evenodd;stroke:#000000;stroke-width:0.65825219pt;stroke-linecap:butt;stroke-linejoin:miter;stroke-opacity:1"
     d="M 267.83498,211.43919 C 269.50237,208.93572 257.28801,206.42825 252.01453,212.27368 C 250.83587,218.94959 261.29197,212.63685 262.5615,218.53234 C 260.35994,223.53927 253.63714,218.50297 255.25975,226.04274 C 261.75019,228.28251 273.64911,219.78407 267.83498,211.43919 z"
     id="path156"
     sodipodi:nodetypes="ccccc" />
  <path
     style="fill:#f80000;fill-opacity:1;fill-rule:evenodd;stroke:#000000;stroke-width:0.65825219pt;stroke-linecap:butt;stroke-linejoin:miter;stroke-opacity:1"
     d="M 260.68289,222.37745 C 260.32657,225.29816 264.33376,226.49181 266.36203,224.46367 C 269.03739,217.95666 266.76768,217.03338 260.68289,222.37745 z"
     id="path159"
     sodipodi:nodetypes="ccc" />
  <path
     style="fill:#00436a;fill-opacity:1;fill-rule:evenodd;stroke:#000000;stroke-width:0.65825219pt;stroke-linecap:butt;stroke-linejoin:miter;stroke-opacity:1"
     d="M 221.58432,217.91493 C 214.57919,217.91493 188.57784,208.6007 152.15673,217.91493 C 123.57803,230.33413 90.275579,248.59942 75.182645,301.74767 C 49.524637,362.56521 93.789762,366.95128 120.46132,360.74269 C 134.19898,359.34742 264.32452,392.84046 269.88163,317.26916 C 261.64332,275.35646 238.21737,297.08789 221.58432,217.91493 z"
     id="path157"
     sodipodi:nodetypes="cccccc" />
  <path
     style="fill:#00426b;fill-opacity:1;fill-rule:evenodd;stroke:#000000;stroke-width:0.65825219pt;stroke-linecap:butt;stroke-linejoin:miter;stroke-opacity:1"
     d="M 330.87875,193.98517 C 314.76299,183.00797 304.17189,188.04227 298.55831,193.5312 C 295.36306,196.81775 281.51376,200.1704 277.245,237.45335 C 277.245,244.52781 299.55005,251.36194 299.55005,244.30617 C 300.62421,206.98316 324.15595,205.59391 330.87875,193.98517 z"
     id="path168"
     sodipodi:nodetypes="ccccc" />
  <path
     style="fill:#f5dfd1;fill-opacity:1;fill-rule:evenodd;stroke:#000000;stroke-width:0.65825219pt;stroke-linecap:butt;stroke-linejoin:miter;stroke-opacity:1"
     d="M 313.65131,241.20125 C 260.82562,209.00935 228.53373,225.03353 220.15068,230.14595 C 209.58554,235.002 209.76922,249.57551 207.63452,267.74934 C 209.8179,278.72454 217.05604,312.00395 217.05604,300.19427 C 242.71405,311.18949 294.89524,304.73389 298.15279,302.46408 C 337.39464,281.59518 315.53938,250.9107 313.65131,241.20125 z"
     id="path164"
     sodipodi:nodetypes="cccccc" />
  <path
     style="fill:#00426b;fill-opacity:1;fill-rule:evenodd;stroke:#000000;stroke-width:0.65825219pt;stroke-linecap:butt;stroke-linejoin:miter;stroke-opacity:1"
     d="M 212.52862,222.5722 C 196.10975,237.60234 186.0632,273.86388 194.3411,304.96227 C 205.21129,316.1511 111.41431,266.33813 127.02226,274.92335 C 135.12493,278.28266 203.46926,324.00197 221.58473,301.74448 C 219.5993,272.90388 216.72988,249.0088 229.13051,238.09636 C 253.82858,221.47468 231.13151,209.32185 212.52862,222.5722 z"
     id="path162"
     sodipodi:nodetypes="ccsccc" />
  <path
     style="fill:#e8ac2e;fill-opacity:1;fill-rule:evenodd;stroke:#000000;stroke-width:0.82281524;stroke-linecap:butt;stroke-linejoin:miter;stroke-dasharray:none;stroke-opacity:1"
     d="M 368.78153,222.38385 C 352.49962,230.42832 333.01402,234.69223 339.22083,233.42247 C 343.26112,233.9759 368.21038,221.48394 374.10499,222.22296 C 382.32643,223.35653 387.38898,222.54207 389.39387,233.5166 C 387.75569,251.89137 355.1224,253.52564 354.05473,257.52451 C 364.25705,252.86739 377.58841,250.59424 382.54776,245.65407 C 388.06528,240.16514 397.29079,238.74784 401.02604,250.01277 C 402.87971,260.98997 376.95235,275.98673 367.63792,274.14619 C 369.47342,276.06685 387.56552,268.02838 390.91458,264.27652 C 397.17396,258.22881 399.45535,270.34626 396.29905,275.60421 C 380.90827,290.27652 379.0559,285.12939 368.18896,290.29655 C 349.84178,298.75493 332.43247,300.93795 326.46127,285.27626 C 335.18247,297.00584 330.40551,306.20524 321.85695,304.4695 C 303.80249,303.24781 300.34504,268.26604 299.27736,246.75159 C 300.34504,231.10392 306.03845,218.88634 313.74585,218.7141 C 320.06559,220.04261 314.1885,234.48861 316.34787,231.48979 C 322.60076,223.54813 329.23658,218.88834 333.95513,216.8088 C 349.64252,210.44399 373.95182,219.97719 368.78153,222.38385 z"
     id="path167"
     sodipodi:nodetypes="ccscccccscsccccssc" />
  <path
     style="fill:#bd8a00;fill-opacity:1;fill-rule:evenodd;stroke:#000000;stroke-width:0.65825219pt;stroke-linecap:butt;stroke-linejoin:miter;stroke-opacity:1"
     d="M 260.14672,335.95342 C 257.30715,329.60463 245.95667,340.53977 240.26975,340.53977 C 232.00871,338.8708 225.81748,343.04324 220.39277,343.04324 C 203.062,353.0571 185.16072,354.72608 176.98796,354.72608 C 169.60573,354.72608 167.76829,348.88466 152.24315,349.30524 C 140.51817,349.30524 137.1399,351.80871 129.12096,351.80871 C 119.23343,352.22262 111.02944,349.30524 104.78181,345.1328 C 94.770567,344.29831 91.283319,340.96035 82.470924,340.96035 C 74.629693,340.96035 68.594103,354.31217 75.980484,354.31217 C 75.980484,355.12664 82.788112,355.14666 88.961364,355.98115 C 96.111492,369.17943 180.23707,383.0987 211.06277,375.5883 C 233.64236,373.65229 249.52317,366.82951 249.59975,366.82951 C 254.65646,366.82951 262.17498,357.50326 262.17498,351.80871 C 262.58063,345.98064 264.8432,341.56119 260.14672,335.95342 z"
     id="path177"
     sodipodi:nodetypes="cccccccccccccc" />
  <path
     style="fill:#fbd700;fill-opacity:1;fill-rule:evenodd;stroke:#000000;stroke-width:1.64563048;stroke-linecap:butt;stroke-linejoin:miter;stroke-dasharray:none;stroke-opacity:1"
     d="M 58.943109,297.56689 C 51.636042,290.89098 53.760298,271.00211 59.754414,259.18174 C 77.603124,234.74657 80.228117,216.42654 80.848344,209.9469 C 84.942773,207.36533 80.557702,160.77482 83.282259,154.87065 C 86.271106,145.12115 111.0925,102.0662 137.63969,96.456434 C 143.32142,92.28132 157.07856,93.151858 152.24318,87.277058 C 142.87034,91.449501 123.02387,83.964471 80.848344,149.02923 C 78.062322,157.73595 81.793741,195.12772 77.322802,214.18143 C 74.098741,230.96734 74.877074,234.14574 57.320499,257.51143 C 49.588632,274.2012 48.548215,301.84615 58.943109,297.56689 z"
     id="path175"
     sodipodi:nodetypes="cccccccscc" />
  <g
     id="g181"
     style="stroke:#000000;stroke-width:2.125;stroke-dasharray:none;stroke-opacity:1"
     transform="matrix(0.649044,0,0,0.667591,-0.2821362,-56.162605)">
    <path
       style="fill:#ab0000;fill-opacity:1;fill-rule:evenodd;stroke:#000000;stroke-width:2.125;stroke-linecap:butt;stroke-linejoin:miter;stroke-dasharray:none;stroke-opacity:1"
       d="M 32.8864,999.743 C 32.8864,1001.01 9.86586,1077.49 9.86586,1085.25 C 7.45476,1085.25 44.1361,1128 49.3295,1128 C 49.3295,1128.5 78.0085,1136.22 83.8603,1136.22 C 83.8603,1140.39 104.697,1100.05 106.881,1100.05 C 106.881,1098.4 128.257,1071.94 128.257,1063.88 C 128.257,1062.91 78.9272,1004.2 78.9272,1003.04 C 72.4805,1003.04 41.108,1008.63 32.8864,999.743 z"
       id="path172"
       sodipodi:nodetypes="cccccccc"
       transform="translate(55.9068,-470.275)" />
    <path
       style="fill:#d6dc00;fill-opacity:1;fill-rule:evenodd;stroke:#000000;stroke-width:2.125;stroke-linecap:butt;stroke-linejoin:miter;stroke-dasharray:none;stroke-opacity:1"
       d="M 132.5,1067.36 C 129.583,1063.61 121.667,1078.61 121.25,1078.61 C 123.408,1078.61 72.5553,1072.42 70,1069.86 C 66.8564,1066.72 26.25,1011.59 26.25,1009.86 C 23.5417,1009.86 73.6138,1009.73 75,1011.11 C 75.6486,1011.11 131.331,1065.9 132.5,1067.36 z"
       id="path173"
       sodipodi:nodetypes="cccccc"
       transform="translate(63.6396,-477.297)" />
    <path
       style="fill:#ab0000;fill-opacity:1;fill-rule:evenodd;stroke:#000000;stroke-width:2.125;stroke-linecap:butt;stroke-linejoin:miter;stroke-dasharray:none;stroke-opacity:1"
       d="M 31.6053,1004.11 C 32.9987,1004.11 77.7817,1002.61 77.7817,1006.4 C 77.7817,1003.45 82.9626,1004.63 79.5495,1004.63 C 79.5495,1009.96 103.169,1029.38 133.529,1064.74 C 120.119,1068.75 85.1507,1062.23 75.0673,1059.95 C 57.0863,1042.22 33.3731,1013.54 31.6053,1004.11 z"
       id="path174"
       sodipodi:nodetypes="cccccc"
       transform="translate(63.6396,-473.762)" />
  </g>
  <rect
     style="font-size:12px;fill:#f9f60a;fill-rule:evenodd;stroke:#000000;stroke-width:1.20954001"
     id="rect185"
     width="11.473594"
     height="8.2610245"
     x="76.590988"
     y="304.14212"
     ry="4.1305099" />
  <rect
     style="font-size:12px;fill:#f9f60a;fill-rule:evenodd;stroke:#000000;stroke-width:1.04498005"
     id="rect186"
     width="11.473594"
     height="8.2610245"
     x="92.654015"
     y="323.02451"
     ry="4.1305099" />
  <path
     style="fill:none;fill-opacity:1;fill-rule:evenodd;stroke:#000000;stroke-width:0.65825219pt;stroke-linecap:butt;stroke-linejoin:miter;stroke-opacity:1"
     d="M 80.033165,348.39821 L 67.411855,382.62226"
     id="path188" />
  <rect
     style="font-size:12px;fill:#fcea57;fill-rule:evenodd;stroke-width:1pt"
     id="rect189"
     width="21.832022"
     height="4.9867659"
     x="218.36641"
     y="292.8139"
     transform="matrix(0.9930358,-0.117813,0.3429469,0.9393548,0,0)"
     ry="2.4933805" />
  <rect
     style="font-size:12px;fill:#fcea57;fill-rule:evenodd;stroke-width:1pt"
     id="rect191"
     width="22.955469"
     height="5.0180535"
     x="214.76521"
     y="305.5119"
     transform="matrix(0.993703,-0.112046,0.358588,0.9334959,0,0)"
     ry="2.5090303" />
  <rect
     style="font-size:12px;fill:#fcea57;fill-rule:evenodd;stroke-width:1pt"
     id="rect192"
     width="24.000244"
     height="3.5839598"
     x="153.36928"
     y="335.53702"
     transform="matrix(0.997569,-6.9686098e-2,0.5269662,0.8498863,0,0)"
     ry="1.7919794" />
  <path
     style="fill:#eaa812;fill-opacity:0.99397601;fill-rule:evenodd;stroke:#000000;stroke-width:1.9747566;stroke-linecap:butt;stroke-linejoin:miter;stroke-dasharray:none;stroke-opacity:1"
     d="M 57.905157,415.54434 C 42.095789,420.55127 33.860719,442.47496 27.492623,444.55785 C 27.492623,450.17896 5.3721004,439.4708 6.5890579,452.38869 C -1.9243224,455.71997 3.9245376,461.40784 3.378432,464.59225 C 0.44358482,479.34601 0.1393779,482.3435 5.7777529,487.55738 C 0.098617935,491.06891 3.3799897,508.78678 8.1619512,507.49833 C 17.384672,504.78791 13.566151,512.99928 17.17224,515.50274 C 17.17224,520.76336 41.037458,534.06845 54.659937,540.1502 C 72.874494,548.49509 89.534674,546.7727 89.534674,548.58855 C 101.45528,548.58855 103.99537,538.06732 103.18407,527.3191 C 102.37276,522.70605 117.48413,517.49884 105.79699,504.14702 C 107.4196,499.08668 102.04584,497.43773 106.20264,493.16515 C 111.07047,488.51204 122.91806,483.0912 127.78589,475.5541 C 86.378179,454.30467 70.886018,446.9812 57.905157,415.54434 z"
     id="path169"
     sodipodi:nodetypes="cccscscccccccc" />
  <path
     style="fill:#e75000;fill-opacity:1;fill-rule:evenodd;stroke:#000000;stroke-width:0.65825219pt;stroke-linecap:butt;stroke-linejoin:miter;stroke-opacity:1"
     d="M 102.41543,534.54185 C 66.790445,535.79025 18.661496,507.03043 13.187913,481.78214 C 13.187913,470.82029 14.126496,463.49682 16.966063,447.48131 C 19.805631,442.97507 6.5641595,440.39149 8.5984582,448.3158 C -7.4080703,457.91576 9.6491306,463.5836 0.49735057,474.43196 C -0.71960693,487.08281 11.466454,488.07752 6.8296835,487.87724 C 2.7734181,488.11757 -0.12307059,491.69586 5.7588907,507.07048 C 18.88269,503.31862 14.685193,512.74501 17.777368,514.82789 C 22.645198,523.38641 57.705322,548.8016 90.396954,548.56126 C 101.47231,546.88561 101.69804,540.31651 102.41543,534.54185 z"
     id="path171"
     sodipodi:nodetypes="cccccscccc" />
  <path
     style="fill:#ea6500;fill-opacity:1;fill-rule:evenodd;stroke:#000000;stroke-width:0.65825219pt;stroke-linecap:butt;stroke-linejoin:miter;stroke-opacity:1"
     d="M 238.64714,504.52035 C 227.09999,506.18933 206.27412,505.76875 185.50666,491.16853 C 182.03168,491.58244 181.04448,494.51984 181.04448,499.92733 C 182.60413,503.68586 181.83761,509.94119 194.83667,517.03768 C 210.25146,508.41908 198.12278,520.37564 218.36451,518.70666 C 234.18885,512.44466 236.21322,521.04991 243.51497,522.04462 C 263.8229,517.87217 259.42628,526.21706 269.88238,526.21706 C 286.40899,521.62403 288.42816,532.7461 297.8724,527.88604 C 306.92462,521.21013 315.14216,525.9834 319.77764,522.8791 C 323.26495,513.27915 332.35286,515.47552 332.35286,512.86524 C 338.18907,506.8636 333.97547,488.67842 333.97547,496.17546 C 332.31133,504.52035 323.42851,509.74091 312.88154,510.77568 C 291.13468,517.87217 268.79718,508.6928 238.64714,504.52035 z"
     id="path176"
     sodipodi:nodetypes="ccccccccccccc" />
  <path
     style="fill:#d97f31;fill-opacity:1;fill-rule:evenodd;stroke:#000000;stroke-width:0.65825219pt;stroke-linecap:butt;stroke-linejoin:miter;stroke-opacity:1"
     d="M 246.76021,337.2018 C 250.41108,346.85516 245.87491,356.62869 243.92064,367.66397 C 239.23584,376.22916 215.01482,371.83642 211.06279,376.42944 C 219.64704,369.68677 214.86164,347.22234 217.95888,343.4638 C 230.93976,338.7239 235.3247,342.62931 246.76021,337.2018 z"
     id="path178"
     sodipodi:nodetypes="ccccc" />
  <rect
     style="font-size:12px;fill:#dc6129;fill-rule:evenodd;stroke:#000000;stroke-width:0.822815"
     id="rect179"
     width="11.358262"
     height="23.365686"
     x="171.71443"
     y="354.31308"
     ry="3.7551999"
     rx="2.83957" />
  <rect
     style="font-size:12px;fill:#dc6129;fill-rule:evenodd;stroke:#000000;stroke-width:0.822815"
     id="rect180"
     width="11.358262"
     height="23.365686"
     x="225.26053"
     y="347.63718"
     ry="5.0069299"
     rx="5.6791301" />
  <path
     style="fill:#f6f2f3;fill-opacity:1;fill-rule:evenodd;stroke:#000000;stroke-width:0.65825219pt;stroke-linecap:butt;stroke-linejoin:miter;stroke-opacity:1"
     d="M 221.74868,302.02022 C 229.05043,306.70003 241.61397,307.46642 231.06701,340.23847 C 239.6597,339.82122 234.28821,306.62259 240.373,306.36023 C 228.20343,305.32279 217.59545,302.02022 221.74868,302.02022 z"
     id="path181"
     sodipodi:nodetypes="cccc" />
  <path
     style="fill:#750000;fill-opacity:0.53614496;fill-rule:evenodd;stroke:#000000;stroke-width:0.65825219pt;stroke-linecap:butt;stroke-linejoin:miter;stroke-opacity:1"
     d="M 98.697024,506.60321 C 103.1592,501.11562 84.843958,481.98913 78.008746,478.2306 C 72.389258,473.29042 44.339589,464.5116 39.471759,468.63731 C 27.628458,479.48567 44.339589,489.25252 48.801766,494.92037 C 65.756288,506.60321 91.424681,516.20317 98.697024,506.60321 z"
     id="path182"
     sodipodi:nodetypes="ccccc" />
  <path
     style="fill:#750000;fill-opacity:0.87951798;fill-rule:evenodd;stroke:#000000;stroke-width:0.5653625pt;stroke-linecap:butt;stroke-linejoin:miter;stroke-opacity:1"
     d="M 95.539374,502.20442 C 99.436633,497.56953 83.440129,481.41509 77.470265,478.24058 C 72.562213,474.06806 48.063676,466.65336 43.812121,470.13799 C 33.468201,479.30063 48.063676,487.54983 51.960935,492.33696 C 66.768988,502.20442 89.187721,510.31266 95.539374,502.20442 z"
     id="path183"
     sodipodi:nodetypes="ccccc" />
  <path
     style="fill:none;fill-opacity:1;fill-rule:evenodd;stroke:#000000;stroke-width:1.23422289;stroke-linecap:butt;stroke-linejoin:miter;stroke-dasharray:none;stroke-opacity:1"
     d="M 25.273971,451.53167 L 24.868319,459.87656 C 24.868319,466.45567 24.970024,445.27301 40.688766,464.46625"
     id="path184"
     sodipodi:nodetypes="ccc" />
  <path
     style="fill:none;fill-opacity:1;fill-rule:evenodd;stroke:#000000;stroke-width:1.23422289;stroke-linecap:butt;stroke-linejoin:miter;stroke-dasharray:none;stroke-opacity:1"
     d="M 56.509214,464.46625 C 56.524466,465.30074 92.612286,484.73898 92.612286,488.66642"
     id="path185"
     sodipodi:nodetypes="cc" />
  <path
     style="fill:#750000;fill-opacity:0.95783105;fill-rule:evenodd;stroke:#000000;stroke-width:0.65825219pt;stroke-linecap:butt;stroke-linejoin:miter;stroke-opacity:1"
     d="M 292.05372,438.74926 C 297.95483,438.74926 361.38136,455.97979 315.26743,486.02138 C 287.27741,498.05805 270.93188,482.54991 260.47254,471.79502 C 267.36863,465.88016 287.64542,497.09672 319.8685,476.2345 C 338.24489,450.78593 280.21711,443.04855 292.05372,438.74926 z"
     id="path186"
     sodipodi:nodetypes="ccccc" />
  <path
     style="fill:none;fill-opacity:1;fill-rule:evenodd;stroke:#000000;stroke-width:1.48106742;stroke-linecap:butt;stroke-linejoin:miter;stroke-dasharray:none;stroke-opacity:1"
     d="M 252.84502,471.97665 C 262.39571,477.59109 256.09024,468.14801 273.5333,462.79727"
     id="path187"
     sodipodi:nodetypes="cc" />
  <path
     style="fill:none;fill-opacity:1;fill-rule:evenodd;stroke:#000000;stroke-width:1.64563048;stroke-linecap:butt;stroke-linejoin:miter;stroke-dasharray:none;stroke-opacity:1"
     d="M 238.24153,472.39389 C 235.76089,472.39389 218.53396,476.98358 212.27977,469.47318"
     id="path189"
     sodipodi:nodetypes="cc" />
  <path
     style="fill:#d10000;fill-opacity:1;fill-rule:evenodd;stroke:#000000;stroke-width:0.65825219pt;stroke-linecap:butt;stroke-linejoin:miter;stroke-opacity:1"
     d="M 159.34236,265.85646 C 157.41145,265.12878 155.89399,263.9605 154.47453,263.14604 C 154.48621,259.61448 162.24683,256.26317 154.67703,247.0838 C 148.18659,242.67102 139.65945,251.25624 140.88484,251.25624 C 140.88484,252.53802 145.70205,249.58059 146.36148,256.2565 C 146.56398,258.17248 143.81333,260.73603 141.2905,265.44255 C 142.72813,266.07009 144.31958,267.31848 146.76648,268.35992 C 146.36148,269.68843 145.24317,271.28397 144.94137,272.11846 C 147.78094,272.71929 154.27138,274.5752 154.27138,273.58049 C 155.955,273.58049 158.05725,268.29316 159.34236,265.85646 z"
     id="path190"
     sodipodi:nodetypes="cccccccccc" />
  <path
     style="fill:#d10000;fill-opacity:1;fill-rule:evenodd;stroke:#000000;stroke-width:0.65825219pt;stroke-linecap:butt;stroke-linejoin:miter;stroke-opacity:1"
     d="M 141.6968,254.17361 C 140.16311,253.63954 135.49648,261.35022 136.21952,262.09792 C 136.89582,262.45842 137.96025,264.06731 138.65408,263.35299 C 139.54781,262.43839 144.19756,254.454 141.6968,254.17361 z"
     id="path191"
     sodipodi:nodetypes="cccc" />
  <rect
     style="font-size:12px;fill:#808080;fill-rule:evenodd;stroke:#000000;stroke-width:1.64563"
     id="rect194"
     width="74.640022"
     height="68.428078"
     x="566.00836"
     y="439.42947"
     ry="33.201"
     rx="37.32" />
  <rect
     style="font-size:12px;fill:#808080;fill-rule:evenodd;stroke:#000000;stroke-width:1.64563"
     id="rect195"
     width="74.640022"
     height="68.428078"
     x="411.8606"
     y="441.09848"
     ry="33.201"
     rx="37.32" />
  <rect
     style="font-size:12px;fill:#8080d7;fill-rule:evenodd;stroke:#000000;stroke-width:1.94986999"
     id="rect196"
     width="61.659138"
     height="50.069332"
     x="418.35098"
     y="449.44345"
     ry="25.0347" />
  <rect
     style="font-size:12px;fill:#8080d7;fill-rule:evenodd;stroke:#000000;stroke-width:1.98714006"
     id="rect197"
     width="60.03653"
     height="53.407284"
     x="572.49878"
     y="447.77444"
     ry="26.7036" />
  <path
     style="fill:#f00000;fill-opacity:0.54216895;fill-rule:evenodd;stroke:#000000;stroke-width:0.65825219pt;stroke-linecap:butt;stroke-linejoin:miter;stroke-opacity:1"
     d="M 437.82251,456.95472 C 437.27277,456.95472 437.01121,448.12917 431.33207,451.94779 C 409.68905,467.80307 421.98844,497.87137 432.95468,492.83773 C 437.82251,483.72512 432.22256,469.06482 437.82251,456.95472 z"
     id="path198"
     sodipodi:nodetypes="cccc" />
  <path
     style="fill:#f00000;fill-opacity:0.54216895;fill-rule:evenodd;stroke:#000000;stroke-width:0.65825219pt;stroke-linecap:butt;stroke-linejoin:miter;stroke-opacity:1"
     d="M 593.59301,456.95472 C 593.04327,456.95472 591.1591,447.29468 585.47996,451.1133 C 563.83694,466.96858 576.13633,497.03688 587.10257,492.00325 C 589.53649,482.89063 571.76696,475.74073 593.59301,456.95472 z"
     id="path199"
     sodipodi:nodetypes="cccc" />
  <path
     style="fill:#f00000;fill-opacity:0.54216895;fill-rule:evenodd;stroke:#000000;stroke-width:0.62945633pt;stroke-linecap:butt;stroke-linejoin:miter;stroke-opacity:1"
     d="M 616.30667,460.29267 C 610.31885,458.6237 612.04178,446.46019 620.48016,451.1133 C 640.27101,466.96858 627.54044,497.87137 617.51266,492.83773 C 611.97234,484.55961 633.36683,479.07868 616.30667,460.29267 z"
     id="path200"
     sodipodi:nodetypes="cccc" />
  <path
     style="fill:#f00000;fill-opacity:0.54216895;fill-rule:evenodd;stroke:#000000;stroke-width:0.62945633pt;stroke-linecap:butt;stroke-linejoin:miter;stroke-opacity:1"
     d="M 460.53641,460.29272 C 461.03911,460.29272 462.76204,450.63268 467.95516,454.4513 C 490.17996,469.47209 475.01544,501.20937 464.98766,496.17573 C 461.06997,478.71823 479.2192,478.24424 460.53641,460.29272 z"
     id="path201"
     sodipodi:nodetypes="cccc" />
  <rect
     style="font-size:12px;fill:#e8942e;fill-rule:evenodd;stroke:#000000;stroke-width:1.64563"
     id="rect202"
     width="34.074787"
     height="30.041597"
     x="433.76578"
     y="459.45731"
     ry="15.0208" />
  <rect
     style="font-size:12px;fill:#e7952f;fill-rule:evenodd;stroke:#000000;stroke-width:1.64563"
     id="rect203"
     width="34.074787"
     height="30.041597"
     x="584.66833"
     y="459.45731"
     ry="15.0208" />
  <rect
     style="font-size:12px;fill:#ffffff;fill-rule:evenodd;stroke:#000000;stroke-width:1.01569998"
     id="rect204"
     width="19.471308"
     height="20.027733"
     x="441.0675"
     y="463.62973"
     ry="10.0139" />
  <rect
     style="font-size:12px;fill:#fff9f9;fill-rule:evenodd;stroke:#000000;stroke-width:1.01569998"
     id="rect207"
     width="19.471308"
     height="20.027733"
     x="591.97009"
     y="463.62973"
     ry="10.0139" />
  <path
     style="fill:url(#linearGradient157);fill-opacity:1;fill-rule:evenodd;stroke:#000000;stroke-width:0.65825219pt;stroke-linecap:butt;stroke-linejoin:miter;stroke-opacity:1"
     d="M 408.61546,287.55352 C 450.63327,288.38801 618.57211,273.36722 656.06349,270.02926 C 643.2585,311.09946 624.98986,361.24222 608.19649,404.38195 C 591.85097,404.38195 546.97152,406.85204 460.16189,408.91489 C 438.48252,353.00415 417.53982,310.42519 408.61546,287.55352 z"
     id="path209"
     sodipodi:nodetypes="ccccc" />
  <path
     style="fill:#debf4b;fill-opacity:0.97590398;fill-rule:evenodd;stroke:#000000;stroke-width:0.65825219pt;stroke-linecap:butt;stroke-linejoin:miter;stroke-opacity:1"
     d="M 91.995659,546.67233 C 98.116793,547.85396 127.56385,562.35404 158.54272,547.85396 C 160.83774,526.61789 145.61052,525.42958 134.44826,525.42958 C 107.45115,523.07299 98.922127,534.876 96.585114,534.876 C 97.732494,531.33776 98.922127,534.876 91.995659,546.67233 z"
     id="path203"
     sodipodi:nodetypes="ccccc" />
  <path
     style="fill:#7bacb1;fill-opacity:1;fill-rule:evenodd;stroke:#000000;stroke-width:1.64563048;stroke-linecap:butt;stroke-linejoin:miter;stroke-dasharray:none;stroke-opacity:1"
     d="M 119.2061,516.42379 C 136.10201,516.42379 655.6851,499.6272 655.6851,504.19353 C 655.40341,507.53148 653.85869,511.39683 649.21802,517.23825 C 642.27974,517.23825 402.1406,521.95812 379.11382,521.95812 C 353.10727,521.95812 262.61756,525.14921 242.91388,525.14921 C 229.14571,525.14921 114.91916,530.85043 101.15034,530.85043 C 92.284659,530.85043 100.86736,516.42379 119.2061,516.42379 z"
     id="path211"
     sodipodi:nodetypes="ccccccc" />
  <path
     style="fill:#deb54b;fill-opacity:0.97590398;fill-rule:evenodd;stroke:#000000;stroke-width:0.50947142pt;stroke-linecap:butt;stroke-linejoin:miter;stroke-opacity:1"
     d="M 91.995659,549.71161 C 98.116793,550.41946 127.56385,559.10557 158.54272,550.41946 C 160.83774,537.69823 145.61052,536.98638 134.44826,536.98638 C 107.45115,535.57469 98.922127,542.64515 91.995659,549.71161 z"
     id="path204"
     sodipodi:nodetypes="cccc" />
  <path
     style="fill:#debf4b;fill-opacity:0.97590398;fill-rule:evenodd;stroke:#000000;stroke-width:0.65825219pt;stroke-linecap:butt;stroke-linejoin:miter;stroke-opacity:1"
     d="M 200.71026,543.33433 C 206.83139,544.51596 236.27845,559.01604 267.25732,544.51596 C 269.55234,523.27989 250.88324,524.45485 239.72098,524.45485 C 212.72367,522.09826 207.63673,531.538 200.71026,543.33433 z"
     id="path205"
     sodipodi:nodetypes="cccc" />
  <path
     style="fill:#deb54b;fill-opacity:0.97590398;fill-rule:evenodd;stroke:#000000;stroke-width:0.50947142pt;stroke-linecap:butt;stroke-linejoin:miter;stroke-opacity:1"
     d="M 200.71026,546.37361 C 206.83139,547.08146 236.27845,555.76757 267.25732,547.08146 C 269.55234,534.36023 252.0301,536.00787 240.86784,536.00787 C 213.87105,534.59618 207.63673,539.30715 200.71026,546.37361 z"
     id="path206"
     sodipodi:nodetypes="cccc" />
  <path
     style="fill:#debf4b;fill-opacity:0.97590398;fill-rule:evenodd;stroke:#000000;stroke-width:0.65825219pt;stroke-linecap:butt;stroke-linejoin:miter;stroke-opacity:1"
     d="M 317.53826,541.66533 C 323.65939,542.84696 353.10645,557.34704 384.08532,542.84696 C 386.38034,521.61089 372.30063,520.42258 349.66457,521.60422 C 322.66752,519.24762 324.46473,529.869 317.53826,541.66533 z"
     id="path207"
     sodipodi:nodetypes="cccc" />
  <path
     style="fill:#deb54b;fill-opacity:0.97590398;fill-rule:evenodd;stroke:#000000;stroke-width:0.50947142pt;stroke-linecap:butt;stroke-linejoin:miter;stroke-opacity:1"
     d="M 317.53826,544.70461 C 340.87003,548.95169 349.66393,550.55934 384.08532,545.41246 C 386.38034,532.69123 371.15312,537.8821 359.99086,537.8821 C 332.99375,536.47041 324.46473,537.63815 317.53826,544.70461 z"
     id="path210"
     sodipodi:nodetypes="cccc" />
  <path
     style="fill:#debf4b;fill-opacity:0.97590398;fill-rule:evenodd;stroke:#000000;stroke-width:0.65825219pt;stroke-linecap:butt;stroke-linejoin:miter;stroke-opacity:1"
     d="M 427.87526,541.66533 C 433.99639,542.84696 462.29594,547.9073 494.42232,542.84696 C 496.71734,521.61089 492.96392,522.78585 470.32786,520.42258 C 443.33075,519.24762 433.65441,527.50572 431.3174,527.50572 C 432.46478,523.96749 434.80173,529.869 427.87526,541.66533 z"
     id="path212"
     sodipodi:nodetypes="ccccc" />
  <path
     style="fill:#deb54b;fill-opacity:0.97590398;fill-rule:evenodd;stroke:#000000;stroke-width:0.50947142pt;stroke-linecap:butt;stroke-linejoin:miter;stroke-opacity:1"
     d="M 427.87526,544.70461 C 433.99639,545.41246 463.44345,554.09857 494.42232,545.41246 C 496.71734,532.69123 470.01632,534.33887 458.85406,534.33887 C 431.85708,532.92718 434.80173,537.63815 427.87526,544.70461 z"
     id="path213"
     sodipodi:nodetypes="cccc" />
  <path
     style="fill:#debf4b;fill-opacity:0.97590398;fill-rule:evenodd;stroke:#000000;stroke-width:0.65825219pt;stroke-linecap:butt;stroke-linejoin:miter;stroke-opacity:1"
     d="M 556.06126,539.99633 C 562.18239,541.17796 591.62945,555.67804 622.60832,541.17796 C 621.46146,506.95725 605.08673,519.93522 593.92447,519.93522 C 566.92729,517.57862 559.54565,524.66176 557.20864,524.66176 C 558.35602,521.12353 562.98773,528.2 556.06126,539.99633 z"
     id="path214"
     sodipodi:nodetypes="ccccc" />
  <path
     style="fill:#deb54b;fill-opacity:0.97590398;fill-rule:evenodd;stroke:#000000;stroke-width:0.50947142pt;stroke-linecap:butt;stroke-linejoin:miter;stroke-opacity:1"
     d="M 556.06126,543.03561 C 562.18239,543.74346 591.62945,552.42957 622.60832,543.74346 C 624.90334,531.02223 603.93922,535.02936 592.77696,535.02936 C 565.77998,533.61766 562.98773,535.96915 556.06126,543.03561 z"
     id="path215"
     sodipodi:nodetypes="cccc" />
</svg>
