<?xml version="1.0" encoding="utf-8"?>
<!-- Generator: Adobe Illustrator 10.0, SVG Export Plug-In . SVG Version: 3.0.0 Build 77)  --><svg enable-background="new 0 0 143.394 474.812" height="474.812" i:pageBounds="0 792 612 0" i:rulerOrigin="0 0" i:viewOrigin="244.8667 668.1392" overflow="visible" space="preserve" viewBox="0 0 143.394 474.812" width="143.394" xmlns="http://www.w3.org/2000/svg" xmlns:a="http://ns.adobe.com/AdobeSVGViewerExtensions/3.0/" xmlns:graph="http://ns.adobe.com/Graphs/1.0/" xmlns:i="http://ns.adobe.com/AdobeIllustrator/10.0/" xmlns:x="http://ns.adobe.com/Extensibility/1.0/" xmlns:xlink="http://www.w3.org/1999/xlink">
  <metadata>
    <rdf:RDF xmlns:cc="http://web.resource.org/cc/" xmlns:dc="http://purl.org/dc/elements/1.1/" xmlns:rdf="http://www.w3.org/1999/02/22-rdf-syntax-ns#">
      <cc:Work rdf:about="">
        <dc:title>Woman Fashion 02</dc:title>
        <dc:description>Woman Fashion 02</dc:description>
        <dc:subject>
          <rdf:Bag>
            <rdf:li>people</rdf:li>
            <rdf:li>woman</rdf:li>
            <rdf:li>work</rdf:li>
          </rdf:Bag>
        </dc:subject>
        <dc:publisher>
          <cc:Agent rdf:about="http://www.openclipart.org/">
            <dc:title>Open Clip Art Library</dc:title>
          </cc:Agent>
        </dc:publisher>
        <dc:creator>
          <cc:Agent>
            <dc:title>Gerald G.</dc:title>
          </cc:Agent>
        </dc:creator>
        <dc:rights>
          <cc:Agent>
            <dc:title>Gerald G.</dc:title>
          </cc:Agent>
        </dc:rights>
        <dc:date></dc:date>
        <dc:format>image/svg+xml</dc:format>
        <dc:type rdf:resource="http://purl.org/dc/dcmitype/StillImage"/>
        <cc:license rdf:resource="http://web.resource.org/cc/PublicDomain"/>
        <dc:language>en</dc:language>
      </cc:Work>
      <cc:License rdf:about="http://web.resource.org/cc/PublicDomain">
        <cc:permits rdf:resource="http://web.resource.org/cc/Reproduction"/>
        <cc:permits rdf:resource="http://web.resource.org/cc/Distribution"/>
        <cc:permits rdf:resource="http://web.resource.org/cc/DerivativeWorks"/>
      </cc:License>
    </rdf:RDF>
  </metadata>
  <switch>
    <foreignObject height="1" requiredExtensions="http://ns.adobe.com/AdobeIllustrator/10.0/" width="1" x="0" y="0">
      <i:pgfRef xlink:href="#adobe_illustrator_pgf"></i:pgfRef>
    </foreignObject>
    <g i:extraneous="self">
      <g i:dimmedPercent="50" i:layer="yes" i:rgbTrio="#4F008000FFFF" id="Layer_1">
        <g>
          <path clip-rule="evenodd" d="       M46.321,123.109c-1.271-8.572-2.275-15.61-3.017-21.115c-0.846-5.661-1.376-9.577-1.8-12.17       c-2.434-1.693-4.233-3.068-5.821-4.763c-1.534-1.693-2.645-3.28-3.333-4.975c-0.105,2.7,0.582,5.505,1.641,8.416       c1.058,2.909,2.698,5.926,4.921,9.048l-7.461-7.355c-0.265,1.904-0.477,3.757-0.212,5.555c0.212,1.8,0.477,3.335,1.218,5.029       c-2.381-1.853-3.97-3.599-4.975-5.452c-1.058-1.853-1.428-3.81-1.111-5.662c-0.423,4.974-0.476,8.52,0.053,11.271       c0.477,2.593,1.324,3.969,2.752,4.34c-2.487-1.006-4.816-3.123-7.197-6.562c-2.487-3.599-5.609-7.461-7.144-14.023       c-1.694-6.721-3.705-15.345-2.381-25.082c1.322-9.79,5.133-23.866,10-32.862c4.763-9.153,10.691-17.039,17.992-21.432       c6.985-4.497,16.933-5.926,24.34-5.131c7.356,0.582,14.024,3.068,19.791,9.524C90.348,16.11,95.64,28.652,98.601,38.76       c2.648,10.054,3.758,20.583,2.33,30.955c-1.588,10.214-5.239,20.003-11.378,29.951c0.528-2.804,1.218-5.397,1.482-7.567       c0.264-2.381,0.424-4.127,0.475-5.874c-0.422,2.593-1.375,4.816-3.068,6.456c-1.745,1.64-4.074,2.698-6.984,3.387       c2.327-1.747,3.968-3.917,4.919-6.298c0.953-2.434,1.218-5.292,0.795-8.36c-1.641,0.582-2.963,0.952-4.179,1.11       c-1.166,0.053-2.226,0.106-2.967-0.264L79.5,79.505c-0.586,0.582-1.271,1.641-2.065,2.963c-0.792,1.27-1.8,3.016-2.804,5.028       c0.318-0.529,0.106,2.963-0.848,10.477c-1.004,7.409-2.591,18.839-4.762,34.291C61.455,129.247,53.887,126.177,46.321,123.109z       " fill-rule="evenodd" i:knockout="Off" stroke="#000000" stroke-miterlimit="10" stroke-width="0.036"/>
          <path clip-rule="evenodd" d="       M37.853,23.042c-0.158,0.848,0.318,1.746,0.847,2.698c0.529,0.901,1.429,1.694,2.698,2.595       c0.478-0.371,1.165-0.953,2.064-1.959c0.741-1.005,1.746-2.38,2.805-4.127c-0.158,1.005,0.106,1.905,0.582,2.699       c0.424,0.793,1.27,1.165,2.329,1.694l0.794-3.175c-0.212,1.641-0.159,3.069,0.371,4.286c0.423,1.217,1.27,2.063,2.539,2.752       c0.741-0.37,1.588-0.953,2.328-1.958c0.739-1.005,1.431-2.434,2.065-4.074c-0.054,1.958,0.687,3.704,1.798,5.027       c1.112,1.27,2.804,2.329,5.08,2.962c-0.212-1.851-0.158-3.438-0.053-4.974c0.053-1.641,0.318-3.016,0.794-4.339       c0.582,0.847,1.164,1.693,1.534,2.328s0.53,1.218,0.688,1.746l1.271-4.233c0.528,0.847,1.162,1.747,2.116,2.911       c0.844,1.111,1.958,2.275,3.332,3.704c0.637-0.211,1.007-0.741,1.325-1.798c0.209-1.165,0.209-2.488,0-4.552       c0.634,0.847,0.847,1.693,1.217,2.329c0.103,0.636,0.37,1.164,0.21,1.587c0.846-0.265,1.479-0.37,1.904-0.74       c0.266-0.424,0.421-0.741,0.688-1.165c0.105-0.581,0.53-0.793,0.637-1.483c0-0.74,0-1.587-0.212-2.539       c0.688,0.9,1.48,2.169,2.379,3.81c0.796,1.534,2.064,3.016,3.02,5.874c1.004,2.646,2.007,6.827,2.433,10.901       c0.106,4.074-0.157,8.308-1.005,13.494c-0.901,5.026-1.908,11.8-4.023,16.88c-2.275,4.92-6.137,9.366-9.153,12.753       c-3.333,3.28-6.457,5.556-9.367,7.038c-2.909,1.218-5.344,1.693-8.096,1.428c-3.018-0.423-6.72-1.851-9.472-3.069       c-2.752-1.27-5.028-2.381-7.039-4.127c-2.329-2.011-4.287-3.757-5.874-6.879c-1.481-3.175-2.592-6.244-3.333-11.853       c-1.059-5.769-2.117-16.617-2.328-21.749c-0.318-5.133,0.37-6.456,1.217-9.049c0.793-2.91,2.381-5.398,3.968-7.673       C34.36,26.747,36.002,24.685,37.853,23.042z" fill="#FFC080" fill-rule="evenodd" i:knockout="Off" stroke="#000000" stroke-miterlimit="10" stroke-width="0.036"/>
          <path clip-rule="evenodd" d="       M39.706,35.373c0.053,0.158,2.433,0.635,4.286,1.216c1.852,0.529,5.08,1.377,6.615,2.329c1.322,0.793,0.899,2.75,1.375,3.228       c0.423,0.371,1.006-0.053,1.165-0.635c-0.053-0.846-0.266-2.435-1.059-3.334c-0.847-0.953-2.752-1.27-4.075-1.746       c-1.587-0.529-3.492-1.217-4.868-1.27C41.664,34.896,39.494,35.108,39.706,35.373z" fill-rule="evenodd" i:knockout="Off" stroke="#000000" stroke-miterlimit="10" stroke-width="0.036"/>
          <path clip-rule="evenodd" d="       M63.784,38.918c1.429-0.742,5.133-2.17,7.248-2.858c1.905-0.794,3.229-1.587,4.551-1.376c1.166,0.16,2.806,1.905,2.856,2.17       c-0.051,0.053-1.851-1.006-2.751-1.111c-0.951-0.106-1.321-0.212-2.751,0.529c-1.799,0.476-5.134,2.54-6.933,3.122       c-1.957,0.477-3.228,0.688-3.598,0.635C61.983,39.923,62.249,39.553,63.784,38.918z" fill-rule="evenodd" i:knockout="Off" stroke="#000000" stroke-miterlimit="10" stroke-width="0.036"/>
          <path clip-rule="evenodd" d="       M65.476,42.833c1.006-0.688,4.074-1.27,5.768-1.535c1.483-0.105,2.484,0.265,3.863,0.899c1.428,0.477,4.393,2.541,4.393,2.699       c-0.371-0.159-3.917-1.799-5.502-2.275c-1.535-0.529-2.171-0.265-3.547,0c-1.534,0.053-4.71,1.217-5.45,1.27       C64.153,43.734,64.311,43.31,65.476,42.833z" fill-rule="evenodd" i:knockout="Off" stroke="#000000" stroke-miterlimit="10" stroke-width="0.036"/>
          <path clip-rule="evenodd" d="       M66.798,46.591c0.531-0.688,2.012-2.382,3.811-2.223c1.43-0.106,5.399,2.117,5.558,2.593c0.051,0.423-3.652,0.371-4.975,0.635       c-1.482,0.212-2.754,0.583-3.389,0.529C67.117,47.809,66.165,47.227,66.798,46.591z" fill-rule="evenodd" i:knockout="Off" stroke="#000000" stroke-miterlimit="10" stroke-width="0.036"/>
          <path clip-rule="evenodd" d="       M48.596,45.374c-0.794-0.477-2.646-1.27-3.545-1.165c-1.005,0.053-1.323,0.582-1.958,1.376       c-0.741,0.582-2.54,1.904-2.116,2.328c0.476,0.053,3.016-0.634,4.338-0.634c0.847,0,1.588,0.793,2.223,0.74       c0.635-0.159,1.217-1.005,1.535-1.323C49.124,46.167,49.178,45.797,48.596,45.374z" fill-rule="evenodd" i:knockout="Off" stroke="#000000" stroke-miterlimit="10" stroke-width="0.036"/>
          <path clip-rule="evenodd" d="       M48.754,42.357c-0.211,0-1.958-0.476-3.227-0.582c-1.535-0.106-3.123-0.158-4.764,0.423c-1.798,0.53-4.445,3.016-4.869,3.176       c-0.317-0.106,1.323-2.222,2.647-2.91c1.111-0.741,2.698-1.217,4.126-1.429c1.324-0.317,2.435-0.423,3.546-0.105       C47.167,41.14,48.754,42.093,48.754,42.357z" fill-rule="evenodd" i:knockout="Off" stroke="#000000" stroke-miterlimit="10" stroke-width="0.036"/>
          <path clip-rule="evenodd" d="       M59.868,52.729c-0.159,0.37,1.534,2.963,2.009,4.497c0.372,1.218,0.372,2.169,0.214,3.282c-0.53,0.953-1.853,2.54-1.905,2.91       c-0.053,0.212,1.163-0.582,1.798-1.164c0.53-0.689,1.219-1.588,1.429-2.7c-0.159-1.111-0.476-2.909-1.163-3.968       C61.507,54.37,59.973,52.465,59.868,52.729z" fill-rule="evenodd" i:knockout="Off" stroke="#000000" stroke-miterlimit="10" stroke-width="0.036"/>
          <path clip-rule="evenodd" d="       M54.839,55.375c0.265,0.107-1.376,1.641-1.057,2.752c0.263,1.006,1.64,2.328,2.116,3.175c0.158,0.476-0.106,1.164-0.582,0.634       c-0.688-0.741-2.805-3.174-2.858-4.232C52.406,56.433,54.416,55.323,54.839,55.375z" fill-rule="evenodd" i:knockout="Off" stroke="#000000" stroke-miterlimit="10" stroke-width="0.036"/>
          <path clip-rule="evenodd" d="       M52.299,76.383c0.954,0.37,4.182,1.059,5.398,1.641c0.9,0.422,0.105,1.269,0.9,1.322c0.74,0,3.015-0.581,3.968-1.164       c0.899-0.741,1.64-2.487,1.429-2.593c-0.37-0.159-2.327,1.217-3.65,1.481c-1.483,0-3.441-0.476-4.868-0.635       c-1.535-0.37-3.547-0.689-3.97-0.74C50.924,75.59,51.188,75.96,52.299,76.383z" fill-rule="evenodd" i:knockout="Off" stroke="#000000" stroke-miterlimit="10" stroke-width="0.036"/>
          <path clip-rule="evenodd" d="M51.135,73.367       c0.371-0.635,1.905-1.693,3.176-1.747c1.006-0.265,2.063,0.793,3.174,0.9c0.795,0,1.641-0.211,2.54-0.424       c0.688-0.371,1.482-1.322,2.382-1.217c0.846-0.105,2.487,0.794,3.069,1.271c0.477,0.371,0.423,1.058-0.157,1.428       c-0.849,0.212-2.753,0.159-4.075,0.423c-1.376,0.266-2.858,0.477-3.864,0.636c-1.163-0.211-1.852-1.006-2.646-0.952       c-1.005-0.054-2.169,0.792-2.698,0.899C51.453,74.372,50.607,73.897,51.135,73.367z" fill="#B80000" fill-rule="evenodd" i:knockout="Off"/>
          <path clip-rule="evenodd" d="       M50.554,72.838c0.74-0.635,2.751-2.275,4.18-2.275c1.059-0.106,1.64,1.693,2.964,1.747c1.375-0.159,3.493-2.223,5.132-2.117       c1.535-0.053,3.81,2.646,3.969,2.804c-0.053,0.054-2.857-1.64-4.128-1.587c-1.479,0.052-2.803,1.429-4.18,1.693       c-1.428-0.106-2.751-1.322-3.968-1.217c-1.376,0-2.911,1.535-3.599,1.746C50.077,73.737,50.025,73.208,50.554,72.838z" fill-rule="evenodd" i:knockout="Off" stroke="#000000" stroke-miterlimit="10" stroke-width="0.036"/>
          <path clip-rule="evenodd" d="       M42.775,89.982c2.433,1.429,5.185,2.593,7.672,3.492c2.434,0.953,5.186,1.376,7.673,1.483c2.328-0.106,4.393-0.953,6.773-1.958       c2.436-1.112,4.71-2.593,7.462-4.444c-0.16,2.168-0.425,4.338-0.794,7.302c-0.582,2.752-0.055,4.551-1.904,9.471       c-1.854,4.922-5.028,11.326-9.313,19.633l-8.256,0.952c-2.117-11.271-4.18-19.472-5.61-25.611       C44.997,94.269,43.569,90.83,42.775,89.982z" fill="#FFC080" fill-rule="evenodd" i:knockout="Off" stroke="#000000" stroke-miterlimit="10" stroke-width="0.036"/>
          <path clip-rule="evenodd" d="       M31.609,77.282c-1.428-4.392-2.592-9.102-3.28-14.922c-0.9-5.927-1.64-14.076-1.217-19.367       c0.317-5.346,1.587-8.784,3.599-12.33c2.062-3.757,4.868-6.719,8.625-9.471c-0.265,0.952-0.318,1.851,0.052,2.91       c0.212,1.005,0.847,1.958,1.694,3.069c1.323-1.217,2.592-2.645,3.81-4.499c1.217-1.957,2.17-4.074,3.281-6.772       c-0.741,2.329-1.005,4.233-1.005,5.926c-0.053,1.588,0.37,2.751,1.058,3.705c0.636-1.641,1.006-2.912,1.694-3.811       c0.529-1.059,1.111-1.693,1.747-2.117c-0.795,2.433-1.059,4.498-0.795,6.191c0.106,1.693,0.795,2.857,1.853,3.704       c1.322-1.059,2.434-2.329,3.334-3.81c0.898-1.588,1.376-3.229,1.85-5.133c-0.155,2.751,0.214,4.975,1.113,6.878       c0.899,1.8,2.224,3.176,4.182,4.127c-0.318-1.427-0.159-3.069,0.051-4.92c0.159-1.853,0.795-3.916,1.484-6.192l2.222,4.657       c0.052-0.053,0.21-0.688,0.476-1.324c0.158-0.898,0.477-1.798,0.74-3.28c0.794,1.112,1.693,2.54,2.7,3.863       c1.006,1.271,1.957,2.857,3.068,4.34c0.37-1.271,0.741-2.593,0.688-3.758c-0.107-1.217-0.21-2.487-0.74-3.598       c1.004,0.635,1.798,1.376,2.382,2.223c0.581,0.846,0.899,1.745,1.162,2.91c0.902-1.165,1.431-2.01,1.588-3.122       c0.159-0.952-0.108-2.169-0.583-3.07c1.854-0.105,3.44,1.641,5.188,5.24c1.586,3.651,4.074,9.419,4.603,16.086       c0.319,6.456-1.059,16.087-2.274,22.384c-1.378,6.191-2.911,10.636-5.188,14.128c-0.264,0.952-0.05,1.641,0.213,2.276       c0.106,0.423,0.584,1.005,1.642,0.952c1.112-0.052,2.592-0.529,4.868-1.217c0.688,0.211,1.216,1.005,1.373,2.38       c0.107,1.323,0.056,3.652-0.369,5.557c-0.475,1.693-1.322,3.122-2.538,4.498c1.324-1.058,2.645-2.276,3.546-3.863       c0.847-1.641,1.691-3.44,2.116-5.609c0.527,0.529,0.897,1.428,0.897,3.281c0,1.746-0.208,4.021-0.634,7.037       c1.112-2.38,2.116-5.027,3.226-7.938c1.009-2.856,2.172-5.132,3.074-9.683c0.74-5.026,1.902-12.594,1.852-18.838       c-0.214-6.19-1.38-12.065-2.861-17.832c-1.745-5.875-4.55-11.854-6.772-16.511c-2.169-4.763-3.702-8.678-6.455-11.747       c-2.964-3.44-6.615-5.98-10.741-7.621c-4.128-1.693-8.784-2.54-13.759-2.117C54.205,1.506,47.59,3.516,43.038,5.739       c-4.55,1.958-6.877,3.44-10.423,7.937c-3.757,4.393-8.467,11.642-11.484,18.68c-3.174,7.038-5.343,15.664-6.508,22.808       c-1.005,6.932-1.059,13.017-0.371,18.467c0.317,5.345,1.217,9.526,2.911,13.971c1.64,4.339,4.022,8.415,7.144,12.224       c-0.741-2.276-0.899-4.499-0.477-6.668c0.318-2.382,1.428-4.445,2.911-6.772c0,1.428,0.211,2.856,0.635,4.074       c0.318,1.217,0.953,2.223,1.693,3.228c-0.371-1.429-0.529-2.381-0.264-3.439c0.105-1.112,0.582-1.746,1.428-2.487l2.805,1.905       c-1.482-2.328-2.222-4.339-2.435-6.456C30.34,81.04,30.603,79.135,31.609,77.282z" fill="#212121" fill-rule="evenodd" i:knockout="Off" stroke="#000000" stroke-miterlimit="10" stroke-width="0.036"/>
          <path clip-rule="evenodd" d="       M37.801,370.124c-7.991,3.971,0.846,3.123,0.582,7.675c-0.476,4.655-3.811,13.071-3.069,19.737       c0.688,6.454,4.816,13.812,6.879,19.208c2.01,5.185,3.598,8.89,4.761,12.332c0.848,3.227,1.165,4.124,1.165,7.564       c-0.052,3.439-0.317,7.623-1.005,12.543c-0.953,4.762-4.022,11.748-3.704,15.873c0.264,3.707,3.704,6.034,5.609,7.566       c1.693,1.59,2.751,2.385,5.239,2.172c2.54-0.426,7.778-3.176,9.578-3.757c1.376-0.688-1.007,1.481,0,0       c1.006-1.695,5.927-5.347,6.401-9.526c0.317-4.391-2.697-11.324-3.916-15.716c-1.217-4.393-4.654-11.221-3.386-10.267       c1.217,1.06,6.402,11.641,10.479,15.821c3.704,3.865,7.037,6.087,12.648,7.887c5.555,1.745,17.514,3.44,20.582,2.434       c2.7-1.27-0.637-6.722-3.068-9.209c-2.541-2.699-6.563-2.803-10.849-6.032c-4.394-3.333-12.54-5.873-14.446-13.914       c-2.01-8.468,1.374-23.55,2.805-35.032c1.322-11.483,4.498-25.453,5.448-32.916c0.849-7.672,7.78-12.331-0.208-11.534       C77.913,353.931,45.95,365.893,37.801,370.124z" fill-rule="evenodd" i:knockout="Off" stroke="#000000" stroke-miterlimit="10" stroke-width="0.036"/>
          <path clip-rule="evenodd" d="       M92.145,449.183c-0.422-1.38-7.09-1.8-10.211-4.763c-3.227-3.018-7.357-6.139-8.098-13.654       c-0.795-7.99,2.274-21.006,3.917-32.755c1.533-11.8,4.972-29.421,5.61-36.938c0.421-7.458-0.371-6.454-2.171-7.99       c-1.906-1.744-6.299-1.269-8.891-1.852c-2.964-0.634-5.292-1.375-7.62-2.008c-2.275-0.902-2.91-2.646-5.98-2.384       c-3.333,0.212-9.789,2.116-13.07,4.287c-3.228,2.115-4.656,5.873-6.561,8.413c-2.223,2.328-6.35,3.811-5.663,5.663       c0.688,1.744,8.096,2.753,9.79,5.025c1.588,2.171,0.159,4.024-0.422,8.202c-0.848,4.236-4.393,10.317-4.075,16.617       c0.158,6.032,3.809,12.541,5.874,19.313c1.959,6.67,5.451,13.391,6.191,20.375c0.423,6.722-1.958,15.771-2.275,20.213       c-0.423,4.339-0.53,4.288,0.688,6.14c1.322,1.745,4.286,3.598,6.456,4.128c1.905,0.266,3.335-0.476,5.134-2.226       c1.534-1.796,4.338-5.499,4.761-8.466c0.266-3.175-1.375-6.401-2.485-9.473c-1.322-3.225-3.651-6.454-4.128-8.834       c-0.476-2.436-0.105-5.028,1.323-5.135c1.217-0.105,4.073,2.278,6.298,4.5c1.957,2.063,3.702,5.291,6.454,8.253       c2.806,2.806,6.616,7.463,10.003,8.467C86.166,453.045,92.145,450.506,92.145,449.183z" fill="#FFC080" fill-rule="evenodd" i:knockout="Off" stroke="#000000" stroke-miterlimit="10" stroke-width="0.036"/>
          <path clip-rule="evenodd" d="       M59.178,433.307c0,0-1.427-14.128-0.793-28.205c0.583-14.024,1.164-17.407,2.434-26.406c1.271-8.994,1.164-6.243,2.276-11.271       c1.11-4.975,3.121-6.403,2.963-10.425c-0.159-3.968-2.381-4.444-2.487-5.712c-0.105-1.218,1.166-0.639,2.063,0.843       c0.954,1.43,1.376,2.648,1.695,5.083c0.317,2.433,0.211,0.526-0.319,4.602c-0.582,4.077-0.952,5.45-1.905,11.695       c-1.005,6.189-1.164,4.235-2.01,13.229c-0.847,8.995-1.164,14.183-1.323,22.755c-0.159,8.625,0.477,6.401,0.741,11.644       c0.264,5.238-0.637,5.767,0.37,9.311c1.005,3.546,3.599,4.872,3.599,4.872s-2.911-1.751-4.71-2.227       C59.919,432.567,59.178,433.307,59.178,433.307z" fill-rule="evenodd" i:knockout="Off" stroke="#000000" stroke-miterlimit="10" stroke-width="0.036"/>
          <path clip-rule="evenodd" d="       M76.378,402.72c3.968,3.069,7.037,4.341,9.416,4.021c2.118-0.582,2.54-3.384,4.554-6.189c2.115-2.859,4.759-6.243,8.147-10.372       c2.594-13.759,4.869-27.676,6.245-42.336c1.324-14.762,2.063-32.597,2.435-45.137c0.156-12.7-0.318-20.902-0.585-30.109       c-0.263-9.365-0.156-17.146-1.108-25.56c-1.111-8.677-4.287-19.26-5.663-25.398c-1.48-6.245-2.698-9.79-3.438-11.219       l3.226-1.639c0.953,0.898,2.223,1.904,3.601,2.804c1.374,0.847,3.014,1.746,4.92,2.698c4.181-1.005,8.467-3.81,13.068-8.202       c4.555-4.499,10.372-12.965,14.183-18.468c3.651-5.768,6.773-11.324,7.938-15.027c0.899-3.758-0.157-4.234-1.744-7.145       c-1.642-3.174-4.341-5.238-8.097-10.901c-4.024-5.768-11.17-14.763-15.718-22.7c-4.815-8.044-8.838-16.086-12.489-24.712       c-6.401-2.435-12.065-4.763-17.197-7.196c-5.132-2.488-9.734-4.869-13.598-7.356c-6.141,4.338-11.062,8.89-14.765,14.076       c-3.81,5.08-6.191,10.583-7.566,16.51c-2.752-6.35-4.765-11.906-6.033-16.881c-1.376-4.974-1.853-9.207-1.641-12.7       c-1.376,1.588-3.017,3.599-4.922,6.033c-2.063,2.434-4.392,5.132-6.985,8.307c-3.598,1.005-7.884,2.541-12.859,5.027       c-5.237,2.381-13.917,6.191-17.039,9.207c-3.016,2.752-1.217,3.599-1.322,7.673c-0.372,4.128-0.105,9.155,0,16.51       c0,7.198,0.529,19.209,0.371,26.248c-0.371,6.667-1.482,10.371-1.694,14.551c-0.211,4.022-0.159,3.174,0.371,10.319       c0.528,7.038,1.482,21.22,2.646,31.961c0.953,10.584,1.958,20.903,3.228,31.381l1.536,0.529c0.263,1.166,0.263,3.123,0,5.291       c-0.371,2.223-1.959,5.823-1.906,8.151c-0.053,2.222,0.052,3.598,1.323,5.556c1.165,1.905,2.911,3.545,5.451,5.504       c0.583,7.882,1.852,16.932,3.81,27.726c1.905,10.586,5.027,23.496,7.727,36.091c2.699,12.54,5.079,25.504,7.937,39.104       c0.318,0.214,1.217,0.319,2.487,0.319c1.322-0.105,2.805-0.319,5.08-0.632c1.798-0.267,4.497-0.319,8.096,0.263       c3.599,0.477,8.625,0.212,13.442,2.646C66.004,393.62,70.98,397.483,76.378,402.72z M88.286,186.186       c-0.056-2.064,0-4.498,0.369-7.514c0.315-3.123,0.953-6.827,1.693-10.531c0.635-3.863,1.319-8.731,2.646-11.535       c1.216-2.752,3.279-3.334,4.762-4.816c1.322-1.641,2.063-3.387,2.805-5.027c4.234,4.656,7.567,8.572,10.424,12.33       c2.698,3.597,5.184,6.562,6.031,9.525c0.742,2.804-0.369,4.709-1.693,7.725c-1.64,2.911-5.131,7.145-7.194,9.843       c-2.119,2.435-3.809,3.756-5.29,4.974c-1.748,1.271-3.176,1.8-4.712,2.169c-1.376-1.005-2.963-1.853-4.55-3.122       C91.881,189.097,90.188,187.562,88.286,186.186z" fill-rule="evenodd" i:knockout="Off" stroke="#000000" stroke-miterlimit="10" stroke-width="0.036"/>
          <path clip-rule="evenodd" d="       M43.251,96.756c-1.005,0.794-2.275,2.116-3.599,4.181c-1.429,2.063-3.122,4.498-4.868,7.885l6.614,1.799l-2.275,7.038       c-0.317,0.635,0.37,1.957,2.064,4.18c1.64,2.064,4.286,5.027,7.936,8.679l2.065-5.874c-1.641-3.334-3.016-6.35-4.127-9.473       c-1.323-3.175-2.276-5.873-2.858-8.89C43.516,103.159,43.198,99.984,43.251,96.756z" fill="#A12161" fill-rule="evenodd" i:knockout="Off" stroke="#000000" stroke-miterlimit="10" stroke-width="0.036"/>
          <path clip-rule="evenodd" d="       M74.26,94.11c-3.176,2.117-5.928,4.657-8.467,7.833c-2.646,3.122-4.445,5.926-6.825,10.848       c-2.487,4.814-5.081,10.636-7.78,17.885c2.222-3.016,4.815-6.085,8.361-9.207c3.44-3.175,7.461-6.403,12.277-9.684       l-1.536-6.985l6.617-0.371C76.06,100.99,75.162,97.55,74.26,94.11z" fill="#A12161" fill-rule="evenodd" i:knockout="Off" stroke="#000000" stroke-miterlimit="10" stroke-width="0.036"/>
          <path clip-rule="evenodd" d="       M76.535,95.593c1.854,1.64,4.445,3.386,7.568,5.026c3.068,1.64,7.884,3.439,11.166,4.815c3.121,1.165,6.084,2.064,8.308,2.699       c1.905,4.498,4.233,9.367,7.196,15.028c2.805,5.662,6.615,12.276,10.214,18.203c3.597,5.716,7.514,11.272,10.953,15.875       c3.333,4.445,7.197,7.409,8.729,10.531c1.378,2.858,1.109,3.387-0.582,7.515c-1.903,4.127-6.19,11.166-10.422,17.039       c-4.447,5.663-11.114,13.388-15.083,16.828c-3.916,3.281-6.56,4.286-8.148,3.016c-0.265-2.857-0.897-5.768-1.906-8.731       c-1.005-3.122-2.381-6.085-4.126-9.313c1.691,0.159,4.021-1.217,6.402-3.545c2.435-2.486,6.086-8.043,8.31-11.166       c2.166-3.386,4.971-4.762,4.762-8.202c-0.424-3.493-4.34-8.256-6.826-12.012c-2.858-3.811-6.51-8.15-8.679-10.372       c-2.116-2.329-3.121-3.439-3.439-3.333c2.009-5.081,2.698-7.461,2.276-7.356c-0.639,0.106-3.018,5.027-5.082,8.202       c-2.171,3.017-5.717,7.145-7.197,10.372c-1.481,3.07-1.163,5.609-1.69,8.837c-0.638,3.175-1.748,7.779-2.12,10.531       c-0.527,2.592-0.634,4.497-0.527,5.502v4.445c-2.328-0.158-4.922,0.37-7.568,1.587c-2.855,1.164-7.674,3.6-8.731,5.239       c-1.004,1.376-0.053,2.487,2.858,3.334c-2.327,1.694-3.386,3.122-3.599,4.286c-0.16,1.059,1.481,1.904,2.646,2.328       c1.007,0.212,2.064,0.053,3.387-0.687c-1.376,1.428-2.327,3.016-2.646,4.179c-0.528,1.112-0.265,2.859,0.583,3.176       c0.953,0.316,2.591-0.423,5.132-1.641c-2.644,3.175-2.856,4.709-0.213,4.815c2.596,0.053,7.624-1.323,15.507-4.339       c1.694,5.769,3.333,12.383,4.921,20.268c1.643,7.884,3.492,18.309,4.549,26.352c0.796,7.884,0.636,9.578,0.741,20.585       c0.106,10.795,0.055,30.216-0.37,44.187c-0.741,13.863-1.746,26.459-3.015,38.415c-1.217,11.906-2.806,22.385-4.55,32.281       c-1.8,1.852-3.707,3.968-5.505,6.351c-1.799,2.432-3.809,7.089-5.82,7.831c-2.172,0.265-4.024-1.957-7.408-4.816       c-3.706-2.857-8.308-9.156-13.812-11.535c-5.821-2.437-14.5-3.282-19.474-3.176c-4.815-0.212-8.096,0.635-9.631,2.329       c-2.011-9.897-4.021-20.637-6.614-32.228c-2.699-11.854-6.349-26.086-8.519-37.41c-2.17-11.326-3.545-21.062-4.34-29.794       c0.635,0.318,1.323,0.426,2.064,0.318c0.688-0.318,1.798-0.212,1.905-1.324c-0.159-1.109-0.848-2.963-2.275-5.343       c1.216,0.951,2.222,1.321,3.016,1.321c0.847-0.158,1.693-0.158,1.746-1.64c-0.37-1.536-2.486-5.291-2.699-7.197       c-0.159-1.904,1.853-2.593,1.746-4.709c-0.317-2.275-1.322-5.397-3.228-9.155c0.9,0.477,1.535-0.106,1.906-1.323       c0.264-1.27,0.264-2.912,0-6.561c-0.371-3.97-1.006-9.209-1.906-16.352c1.482-4.286,2.858-10.688,4.551-19.209       c1.587-8.573,3.28-19.262,5.08-32.067c-0.74-5.609-1.692-10.637-2.646-14.869c-1.058-4.339-2.857-7.197-3.386-10.849       c-0.688-3.863-0.265-8.519-0.371-11.535c-0.159-3.175-0.423-6.509-0.582-6.509c-0.37-0.053-1.217,3.863-1.323,6.879       c-0.317,3.069-0.264,7.144,0.372,11.007c0.528,3.651,2.328,6.509,3.385,10.848c0.954,4.286,1.905,8.942,2.647,14.552       c-1.376,8.996-2.751,17.567-4.339,25.717c-1.747,8.15-4.393,16.934-5.081,22.86c-0.741,5.556,0.107,6.878,0.529,11.325       c0.318,4.496,0.688,9.365,1.324,15.188c-1.959-0.213-3.652-0.213-5.292,0c-1.692,0.052-3.122,0.58-4.498,1.004       c-0.9-7.303-1.852-14.868-2.646-23.547c-0.847-8.785-1.799-19.581-2.275-27.888c-0.583-8.308-1.164-15.346-0.952-21.537       c0-6.139,1.11-9.578,1.322-15.399c-0.053-6.191-0.582-13.758-0.582-20.69c0.053-7.09,0.37-15.823,0.74-20.479       c0.054-4.604-1.375-4.762,0.212-6.826c1.587-2.275,4.657-4.233,9.632-6.509c4.869-2.486,11.43-5.025,19.685-7.831l6.033,1.641       l-1.904,7.354l12.488,15.346h-0.001c0.264,4.021,0.264,9.578,0.582,16.88c0.265,7.302,0.265,16.14,0.583,26.723l-5.663,0.688       v4.34c-1.693,0.37-3.387,0.635-5.874,1.005c-2.54,0.105-7.62,0.529-8.521,0.688c-0.898,0.265,0.9,0.476,3.388,0.635       c2.434,0,6.085-0.212,11.166-0.635l-0.159,2.646l5.821,0.159c-0.264,6.19-0.264,13.176,0.212,21.749       c0.423,8.571,1.799,26.511,2.275,28.733c0.105,1.906-0.211-8.679-0.37-17.039c-0.106-8.466-0.106-19.526,0-33.391l5.08-0.158       l0.583-3.704c1.48-0.212,3.492-0.372,6.244-0.478c2.805-0.21,6.296-0.317,9.631-0.528c3.174-0.423,9.261-1.588,8.679-1.641       c-0.953-0.211-9.686,0.688-13.762,0.848c-4.231,0.053-7.883,0.053-11.164-0.212l-0.582-3.81h-4.339       c-0.424-4.445-0.74-10.16-0.952-17.727c-0.211-7.568-0.477-16.405-0.583-27.094c2.699-3.545,5.768-6.984,9.631-10.318       c3.703-3.439,7.988-6.615,12.858-9.737l-1.111-6.509l5.08-0.476C77.698,102.259,77.119,98.926,76.535,95.593z" fill="#A12161" fill-rule="evenodd" i:knockout="Off" stroke="#000000" stroke-miterlimit="10" stroke-width="0.036"/>
          <path clip-rule="evenodd" d="       M47.22,179.73l8.889-0.477v5.979l-8.889,0.529V179.73z" fill="#A12161" fill-rule="evenodd" i:knockout="Off" stroke="#000000" stroke-miterlimit="10" stroke-width="0.036"/>
          <path clip-rule="evenodd" d="       M98.125,195.34c-1.64-1.217-3.28-2.435-5.186-3.704c-1.852-1.218-3.915-2.435-5.61-3.123c-1.639-0.635-2.911-0.741-5.131-0.211       c-2.224,0.583-5.346,1.799-7.409,2.964c-2.011,1.165-2.963,2.222-2.646,2.91c0.371,0.688,2.011,1.006,4.338,0.423       c2.33-0.528,5.346-2.011,5.718-2.063c0.423-0.053-1.853,1.27-4.339,2.698c-2.435,1.483-5.081,3.069-6.087,4.181       c-0.951,1.165-0.266,1.905,1.11,1.905c1.43,0,3.598-0.741,6.139-1.747c2.594-0.952,5.556-2.17,5.61-2.064       c0.106,0.159-2.698,1.641-4.921,3.07c-2.223,1.482-3.916,2.857-5.081,4.233c-1.11,1.376-1.693,2.698-1.323,3.228       c0.421,0.583,1.748,0.371,3.281-0.212c1.586-0.582,3.387-1.535,5.715-2.646c2.329-1.111,5.187-2.382,5.45-2.382       c0.317,0.053-1.959,1.376-3.917,2.593c-1.902,1.218-3.49,2.275-4.389,3.493c-0.902,1.271-1.166,2.699,0.158,2.804       c1.322,0.16,4.23-1.058,6.984-2.116c2.806-1.058,5.449-1.957,7.776-2.328c2.327-0.37,4.341-0.211,5.929,0.318       c1.588,0.528,2.698,1.428,3.861,2.328c-0.847-2.646-1.639-5.238-2.644-7.673C100.509,199.785,99.292,197.563,98.125,195.34z" fill="#FFC080" fill-rule="evenodd" i:knockout="Off" stroke="#000000" stroke-miterlimit="10" stroke-width="0.036"/>
          <path clip-rule="evenodd" d="       M9.437,260.85c0.106,1.537,0.211,3.124-0.264,5.345c-0.477,2.223-1.536,5.134-1.694,7.672c-0.159,2.54,0.581,4.711,2.01,6.669       c1.43,2.01,3.493,3.86,4.816,4.813c1.323,1.006,1.905,1.111,2.011,0.479c0.159-0.584-0.159-1.905-0.528-3.389       c-0.319-1.481-0.689-3.12-1.006-5.291c-0.265-2.117-0.476-4.763-0.317-5.449c0.211-0.689,0.793,0.583,1.216,2.168       c0.424,1.587,0.688,3.494,1.323,4.711c0.635,1.268,1.641,1.852,1.905,1.323c0.264-0.478-0.159-2.064-0.476-3.601       c-0.266-1.48-0.37-2.855-0.212-3.967c0.159-1.059,0.583-1.851,0.318-3.81c-0.212-1.958-1.165-5.133-2.117-8.308       c-1.428,0-2.804,0-3.968,0.106C11.29,260.428,10.337,260.638,9.437,260.85z" fill="#FFC080" fill-rule="evenodd" i:knockout="Off" stroke="#000000" stroke-miterlimit="10" stroke-width="0.036"/>
        </g>
      </g>
    </g>
  </switch>
 
</svg>
