<?xml version="1.0" encoding="utf-8"?>
<!-- Generator: Adobe Illustrator 10.0, SVG Export Plug-In . SVG Version: 3.0.0 Build 77)  --><svg enable-background="new 0 0 118.418 476.664" height="476.664" i:pageBounds="0 792 612 0" i:rulerOrigin="0 0" i:viewOrigin="255.1763 645.124" overflow="visible" space="preserve" viewBox="0 0 118.418 476.664" width="118.418" xmlns="http://www.w3.org/2000/svg" xmlns:a="http://ns.adobe.com/AdobeSVGViewerExtensions/3.0/" xmlns:graph="http://ns.adobe.com/Graphs/1.0/" xmlns:i="http://ns.adobe.com/AdobeIllustrator/10.0/" xmlns:x="http://ns.adobe.com/Extensibility/1.0/" xmlns:xlink="http://www.w3.org/1999/xlink">
  <metadata>
    <rdf:RDF xmlns:cc="http://web.resource.org/cc/" xmlns:dc="http://purl.org/dc/elements/1.1/" xmlns:rdf="http://www.w3.org/1999/02/22-rdf-syntax-ns#">
      <cc:Work rdf:about="">
        <dc:title>Woman Nurse</dc:title>
        <dc:description>Woman Nurse</dc:description>
        <dc:subject>
          <rdf:Bag>
            <rdf:li>people</rdf:li>
            <rdf:li>nurse</rdf:li>
            <rdf:li>work</rdf:li>
          </rdf:Bag>
        </dc:subject>
        <dc:publisher>
          <cc:Agent rdf:about="http://www.openclipart.org/">
            <dc:title>Open Clip Art Library</dc:title>
          </cc:Agent>
        </dc:publisher>
        <dc:creator>
          <cc:Agent>
            <dc:title>Gerald G.</dc:title>
          </cc:Agent>
        </dc:creator>
        <dc:rights>
          <cc:Agent>
            <dc:title>Gerald G.</dc:title>
          </cc:Agent>
        </dc:rights>
        <dc:date></dc:date>
        <dc:format>image/svg+xml</dc:format>
        <dc:type rdf:resource="http://purl.org/dc/dcmitype/StillImage"/>
        <cc:license rdf:resource="http://web.resource.org/cc/PublicDomain"/>
        <dc:language>en</dc:language>
      </cc:Work>
      <cc:License rdf:about="http://web.resource.org/cc/PublicDomain">
        <cc:permits rdf:resource="http://web.resource.org/cc/Reproduction"/>
        <cc:permits rdf:resource="http://web.resource.org/cc/Distribution"/>
        <cc:permits rdf:resource="http://web.resource.org/cc/DerivativeWorks"/>
      </cc:License>
    </rdf:RDF>
  </metadata>
  <switch>
    <foreignObject height="1" requiredExtensions="http://ns.adobe.com/AdobeIllustrator/10.0/" width="1" x="0" y="0">
      <i:pgfRef xlink:href="#adobe_illustrator_pgf"></i:pgfRef>
    </foreignObject>
    <g i:extraneous="self">
      <g i:dimmedPercent="50" i:layer="yes" i:rgbTrio="#4F008000FFFF" id="Layer_1">
        <g>
          <path clip-rule="evenodd" d="       M15.541,44.598c0.103-2.402-0.358-5.266-1.176-9.203c-1.022-4.039-2.607-10.378-4.192-14.058       c-1.738-3.631-3.324-6.135-5.368-7.516C9.968,10.6,15.898,7.942,23.209,5.642c7.055-2.301,15.235-5.624,24.54-5.624       C56.952-0.188,70.96,1.91,78.73,4.72c7.669,2.761,12.475,6.545,14.826,11.555c-3.171,2.659-5.88,6.134-8.896,10.838       c-2.966,4.55-5.777,10.123-8.641,16.717C55.877,44.086,35.735,44.342,15.541,44.598z" fill-rule="evenodd" i:knockout="Off" stroke="#000000" stroke-miterlimit="10" stroke-width="0.036"/>
          <path clip-rule="evenodd" d="       M16.87,43.984c-0.614-4.244-1.33-8.282-2.147-12.116c-0.87-4.039-1.994-8.129-3.17-11.094c-1.278-3.016-2.76-5.164-4.448-6.646       c6.493-3.374,12.832-6.186,19.785-8.231c6.8-2.146,13.344-4.09,21.012-4.242c7.771-0.358,17.842,1.481,24.284,2.76       c5.98,1.176,8.896,2.556,12.271,4.55c3.323,1.84,5.775,4.089,7.566,6.748c-3.528,3.528-6.391,7.005-8.591,10.226       c-2.401,3.118-3.628,6.134-5.061,9.049c-1.431,2.76-2.812,5.419-3.731,7.975C55.417,43.268,36.144,43.626,16.87,43.984z" fill="#FFFFFF" fill-rule="evenodd" i:knockout="Off" stroke="#000000" stroke-miterlimit="10" stroke-width="0.036"/>
          <path clip-rule="evenodd" d="       M44.017,4.209c-0.359,1.228-0.512,2.25-0.46,3.272c0.051,0.92,0,1.841,0.409,2.556c-0.665,0-1.432-0.051-2.301,0.052       c-1.022,0.051-2.147,0.255-3.375,0.409l0.409,5.317c0.153-0.103,0.716-0.103,1.688-0.205c0.971-0.204,2.147-0.307,3.937-0.511       c-0.102,0.92-0.102,1.892,0,2.915c0,0.869,0.256,1.84,0.563,2.709l6.186-0.153c-0.256-1.022-0.206-2.146-0.256-2.965       c-0.102-0.87,0.103-1.84,0.204-2.505h4.807l0.051-5.163c-1.022-0.154-1.942,0-2.761-0.103c-0.92,0.051-1.737-0.153-2.454-0.051       c-0.205-0.613-0.358-1.482-0.255-2.403c-0.051-1.073,0.102-2.25,0.459-3.527C48.618,3.954,46.317,4.057,44.017,4.209z" fill-rule="evenodd" i:knockout="Off" stroke="#000000" stroke-miterlimit="10" stroke-width="0.036"/>
          <path clip-rule="evenodd" d="       M44.682,4.875c-0.256,1.227-0.46,2.249-0.409,3.271c-0.051,0.92,0.153,1.84,0.409,2.557c-0.563,0-1.534-0.052-2.352,0.05       c-1.074,0.051-1.994,0.256-3.324,0.409l0.357,3.886c0.154-0.051,0.717-0.205,1.688-0.256c0.87-0.102,2.199-0.307,3.783-0.409       c-0.204,0.92-0.153,1.892-0.051,2.914c0.103,0.869,0.307,1.84,0.613,2.709l4.602-0.357c-0.103-1.176-0.307-2.097-0.204-2.965       c0.051-0.972,0-1.687,0.255-2.353h4.805l0.103-3.783c0.204,0.051-0.307-0.154-1.125-0.051c-1.021-0.051-2.352-0.051-4.396,0       c-0.256-0.614-0.256-1.482-0.206-2.403c0.052-1.073,0.206-2.249,0.46-3.527C48.056,4.67,46.368,4.772,44.682,4.875z" fill="#FF0000" fill-rule="evenodd" i:knockout="Off" stroke="#000000" stroke-miterlimit="10" stroke-width="0.036"/>
          <path clip-rule="evenodd" d="       M33.997,144.852c-1.228-8.282-2.198-15.082-2.914-20.399c-0.819-5.469-1.38-9.252-1.688-11.758       c-2.352-1.636-4.09-2.965-5.625-4.602c-1.431-1.636-2.659-3.17-3.271-4.806c0,2.607,0.612,5.317,1.636,8.129       c1.023,2.812,2.607,5.725,4.754,8.742l-7.26-7.106c-0.255,1.84-0.459,3.63-0.204,5.368c0.153,1.738,0.562,3.221,1.227,4.856       c-2.25-1.789-3.937-3.477-4.856-5.266c-1.023-1.79-1.381-3.681-1.074-5.47c-0.46,4.805-0.358,8.231,0.103,10.89       c0.46,2.505,1.329,3.833,2.607,4.192c-2.351-0.971-4.652-3.017-6.901-6.34c-2.353-3.476-5.522-7.208-6.953-13.548       c-1.687-6.492-3.426-14.826-2.25-24.233c1.278-9.457,4.959-23.056,9.662-31.748c4.653-8.845,10.225-16.462,17.332-20.706       c6.901-4.345,16.206-5.726,23.567-4.958c7.106,0.562,13.549,2.964,19.121,9.202c5.572,6.186,10.685,18.302,13.547,28.067       c2.558,9.714,3.631,19.887,2.25,29.907c-1.532,9.868-5.062,19.326-10.99,28.936c0.561-2.708,1.021-5.214,1.379-7.311       c0.205-2.3,0.563-3.986,0.513-5.675c-0.513,2.506-1.331,4.653-3.017,6.238c-1.739,1.585-3.784,2.607-6.697,3.272       c2.249-1.688,3.833-3.784,4.753-6.084c0.921-2.352,1.176-5.112,0.768-8.077c-1.533,0.562-2.965,0.92-4.09,1.074       c-1.177,0.05-2.045,0.102-2.812-0.256l-0.563-2.709c0.204,0.103-0.461,1.074-1.994,2.915c-1.637,1.789-4.039,4.447-7.412,7.975       c-0.665,1.483-0.869,5.675-1.023,12.373c-0.152,6.749-0.051,15.797,0.308,27.76C48.618,150.782,41.308,147.816,33.997,144.852z       " fill-rule="evenodd" i:knockout="Off" stroke="#000000" stroke-miterlimit="10" stroke-width="0.036"/>
          <path clip-rule="evenodd" d="       M25.868,48.176c-0.153,0.818,0.307,1.688,0.818,2.608c0.511,0.869,1.381,1.636,2.608,2.505c0.46-0.307,1.125-1.022,1.993-1.943       c0.716-0.971,1.688-2.352,2.71-3.937c-0.154,0.972,0.102,1.841,0.563,2.607c0.409,0.767,1.226,1.125,2.249,1.636l0.767-3.068       c-0.205,1.585-0.153,2.965,0.358,4.142c0.409,1.176,1.277,1.994,2.403,2.658c0.715-0.357,1.533-0.92,2.249-1.892       c0.716-0.971,1.33-2.351,2.045-3.936c0.102,1.892,0.613,3.579,1.738,4.857c1.125,1.227,2.608,2.249,4.856,2.863       c-0.205-1.739-0.205-3.426,0-4.857c0.052-1.585,0.308-2.965,0.767-4.141c0.716,0.818,1.023,1.635,1.482,2.25       c0.308,0.613,0.512,1.175,0.614,1.686l1.278-4.089c0.409,0.818,1.072,1.686,1.993,2.811c0.817,1.074,1.892,2.199,3.221,3.58       c0.716-0.205,1.023-0.716,1.33-1.739c0.204-1.125,0.204-2.403,0-4.397c0.409,0.818,0.971,1.636,1.124,2.25       c0.103,0.613,0.358,1.125,0.204,1.534c0.818-0.255,1.382-0.358,1.892-0.715c0.255-0.409,0.46-0.716,0.614-1.125       c0.051-0.562,0.664-0.767,0.664-1.431c0.152-0.717-0.102-1.534-0.205-2.455c0.563,0.869,1.382,2.096,2.25,3.682       c0.972,1.482,1.891,2.914,2.964,5.675c0.974,2.555,1.943,6.595,2.354,10.531c0.103,3.936-0.152,8.026-0.971,13.036       c-0.87,4.858-1.84,11.401-3.887,16.309c-2.146,4.754-6.032,9.048-8.896,12.321c-3.119,3.17-6.186,5.368-8.998,6.8       c-2.861,1.176-5.01,1.636-7.821,1.38c-2.915-0.409-6.492-1.79-9.15-2.966c-2.659-1.227-4.857-2.299-6.8-3.988       c-2.25-1.942-4.141-3.628-5.675-6.645c-1.431-3.068-2.505-6.033-3.221-11.453c-1.022-5.572-2.044-16.053-2.249-21.012       c-0.306-4.959,0.358-6.237,1.176-8.742c0.868-2.813,2.198-5.215,3.783-7.414C22.493,51.755,24.028,49.762,25.868,48.176z" fill="#FFC080" fill-rule="evenodd" i:knockout="Off" stroke="#000000" stroke-miterlimit="10" stroke-width="0.036"/>
          <path clip-rule="evenodd" d="       M27.657,60.088c0.102,0.153,2.25,0.614,4.09,1.176c1.789,0.512,4.908,1.329,6.391,2.25c1.176,0.767,0.971,2.659,1.38,3.119       c0.409,0.357,0.971-0.052,1.125-0.614c-0.052-0.817-0.256-2.351-1.022-3.22c-0.819-0.921-2.659-1.228-3.937-1.688       c-1.483-0.512-3.528-1.176-4.755-1.227C29.446,59.628,27.503,59.832,27.657,60.088z" fill-rule="evenodd" i:knockout="Off" stroke="#000000" stroke-miterlimit="10" stroke-width="0.036"/>
          <path clip-rule="evenodd" d="       M50.918,63.514c1.381-0.818,4.959-2.147,7.003-2.812c1.893-0.818,3.018-1.432,4.348-1.278c1.176,0.153,2.556,1.84,2.759,2.095       c-0.05,0.052-1.789-0.97-2.657-1.072c-0.818-0.104-1.227-0.206-2.606,0.511c-1.739,0.46-4.961,2.454-6.698,3.016       c-1.891,0.461-3.119,0.665-3.477,0.613C49.18,64.484,49.437,64.126,50.918,63.514z" fill-rule="evenodd" i:knockout="Off" stroke="#000000" stroke-miterlimit="10" stroke-width="0.036"/>
          <path clip-rule="evenodd" d="       M52.554,67.297c0.972-0.665,3.937-1.227,5.574-1.482c1.43-0.103,2.4,0.255,3.73,0.868c1.278,0.46,4.245,2.454,4.192,2.607       c-0.307-0.153-3.835-1.738-5.265-2.198c-1.483-0.512-2.097-0.256-3.427,0c-1.584,0.051-4.549,1.175-5.316,1.227       C51.175,68.166,51.533,67.756,52.554,67.297z" fill-rule="evenodd" i:knockout="Off" stroke="#000000" stroke-miterlimit="10" stroke-width="0.036"/>
          <path clip-rule="evenodd" d="       M53.833,70.926c0.511-0.665,1.943-2.3,3.681-2.146c1.381-0.103,5.216,2.044,5.368,2.505c0.052,0.409-3.527,0.357-4.806,0.613       c-1.381,0.205-2.76,0.562-3.321,0.511C54.037,72.103,53.27,71.54,53.833,70.926z" fill-rule="evenodd" i:knockout="Off" stroke="#000000" stroke-miterlimit="10" stroke-width="0.036"/>
          <path clip-rule="evenodd" d="       M36.246,69.75c-0.767-0.459-2.556-1.227-3.426-1.124c-0.92,0.051-1.38,0.562-1.942,1.329c-0.767,0.562-2.352,1.841-1.994,2.25       c0.46,0.05,2.915-0.614,4.193-0.614c0.972,0,1.482,0.767,2.146,0.716c0.512-0.154,1.176-0.972,1.432-1.278       C36.808,70.517,36.808,70.159,36.246,69.75z" fill-rule="evenodd" i:knockout="Off" stroke="#000000" stroke-miterlimit="10" stroke-width="0.036"/>
          <path clip-rule="evenodd" d="       M36.399,66.836c-0.255,0-1.84-0.46-3.169-0.562c-1.381-0.102-2.965-0.154-4.55,0.409c-1.584,0.511-4.396,2.914-4.703,3.067       c-0.307-0.102,1.278-2.146,2.557-2.811c1.073-0.716,2.607-1.176,3.987-1.381c1.176-0.307,2.301-0.409,3.375-0.103       C34.763,65.661,36.45,66.581,36.399,66.836z" fill-rule="evenodd" i:knockout="Off" stroke="#000000" stroke-miterlimit="10" stroke-width="0.036"/>
          <path clip-rule="evenodd" d="       M47.136,76.857c-0.153,0.358,1.482,2.863,1.943,4.345c0.358,1.227,0.358,1.994,0.204,3.119       c-0.511,0.869-1.79,2.556-1.841,2.863c-0.05,0.205,1.125-0.562,1.739-1.125c0.511-0.665,1.176-1.534,1.381-2.607       c-0.154-1.074-0.461-2.812-1.125-3.835C48.721,78.441,47.238,76.601,47.136,76.857z" fill-rule="evenodd" i:knockout="Off" stroke="#000000" stroke-miterlimit="10" stroke-width="0.036"/>
          <path clip-rule="evenodd" d="       M42.278,79.413c0.256,0.102-1.329,1.585-1.022,2.659c0.256,0.972,1.585,2.25,2.045,3.068c0.153,0.46-0.103,1.125-0.563,0.613       c-0.665-0.716-2.709-3.067-2.76-4.089C39.927,80.436,41.869,79.361,42.278,79.413z" fill-rule="evenodd" i:knockout="Off" stroke="#000000" stroke-miterlimit="10" stroke-width="0.036"/>
          <path clip-rule="evenodd" d="       M39.825,99.709c0.92,0.358,4.039,1.023,5.214,1.586c0.87,0.408,0.103,1.226,0.87,1.278c0.767,0,2.812-0.563,3.783-1.125       c0.87-0.715,1.585-2.402,1.381-2.505c-0.511-0.153-2.147,1.176-3.528,1.432c-1.483,0.051-3.221-0.562-4.652-0.665       c-1.483-0.306-3.426-0.715-3.835-0.664C38.495,98.942,38.751,99.3,39.825,99.709z" fill-rule="evenodd" i:knockout="Off" stroke="#000000" stroke-miterlimit="10" stroke-width="0.036"/>
          <path clip-rule="evenodd" d="M38.649,96.795       c0.307-0.613,1.994-1.636,3.118-1.687c0.971-0.255,1.994,0.767,3.067,0.87c0.767,0,1.585-0.205,2.454-0.409       c0.716-0.357,1.33-1.278,2.25-1.176c0.92-0.102,2.454,0.767,3.017,1.228c0.461,0.357,0.409,1.021-0.153,1.38       c-0.92,0.203-2.709,0.153-3.987,0.408c-1.431,0.255-2.659,0.46-3.681,0.613c-1.125-0.204-1.79-0.971-2.607-0.92       c-0.972-0.051-2.096,0.819-2.607,0.819C38.956,97.664,38.138,97.357,38.649,96.795z" fill="#B80000" fill-rule="evenodd" i:knockout="Off"/>
          <path clip-rule="evenodd" d="       M38.138,96.283c0.715-0.613,2.659-2.198,4.038-2.198c1.074-0.102,1.482,1.636,2.813,1.687c1.329-0.152,3.374-2.146,4.958-2.045       c1.586-0.051,3.732,2.556,3.886,2.709c-0.051,0.051-2.71-1.584-4.038-1.533c-1.381,0.05-2.71,1.379-3.988,1.636       c-1.329-0.103-2.76-1.278-3.885-1.177c-1.33,0-2.863,1.483-3.426,1.688C37.677,97.153,37.627,96.642,38.138,96.283z" fill-rule="evenodd" i:knockout="Off" stroke="#000000" stroke-miterlimit="10" stroke-width="0.036"/>
          <path clip-rule="evenodd" d="       M30.623,112.848c2.402,1.381,4.856,2.505,7.362,3.374c2.352,0.92,5.01,1.329,7.413,1.432c2.249-0.103,4.653-1.125,6.595-1.892       c1.892-0.87,3.527-1.994,4.907-3.169c-0.664,1.789-0.919,3.783-0.97,6.391c-0.052,2.402,1.942,3.987,0.665,8.69       c-1.433,4.704-4.449,10.838-9.05,18.967l-7.924,0.92c-2.045-10.889-4.039-18.813-5.42-24.745       C32.769,116.989,31.39,113.666,30.623,112.848z" fill="#FFC080" fill-rule="evenodd" i:knockout="Off" stroke="#000000" stroke-miterlimit="10" stroke-width="0.036"/>
          <path clip-rule="evenodd" d="       M19.834,100.578c-1.379-4.243-2.504-8.793-3.169-14.417c-0.92-5.726-1.534-13.599-1.227-18.71       c0.358-5.164,1.534-8.487,3.527-11.913c1.942-3.629,4.703-6.492,8.282-9.151c-0.307,0.92-0.204,1.789,0.102,2.812       c0.205,0.972,0.818,1.892,1.637,2.965c1.277-1.176,2.504-2.556,3.681-4.346c1.175-1.892,2.096-3.937,3.169-6.544       c-0.716,2.301-0.971,3.987-0.971,5.675c-0.051,1.482,0.358,2.76,1.023,3.629c0.613-1.584,0.971-2.811,1.636-3.681       c0.511-1.021,1.074-1.636,1.687-2.044c-0.767,2.351-0.971,4.345-0.817,5.981c0.102,1.636,0.715,2.76,1.84,3.579       c1.278-1.022,2.351-2.25,3.22-3.681c0.87-1.534,1.33-3.119,1.79-4.959c-0.153,2.709,0.204,4.652,1.074,6.595       c0.869,1.79,2.147,3.068,4.039,4.039c-0.307-1.38-0.154-2.965,0.051-4.755c0.154-1.891,0.768-3.834,1.432-6.033l2.146,4.55       c0.051-0.051,0.204-0.665,0.461-1.278c0.152-0.87,0.459-1.738,0.715-3.17c0.768,1.074,1.637,2.454,2.608,3.732       c0.868,1.227,1.84,2.76,2.913,4.192c0.512-1.227,0.613-2.504,0.716-3.63c-0.103-1.175-0.204-2.403-0.716-3.477       c0.869,0.614,1.688,1.33,2.25,2.147c0.512,0.818,0.97,1.688,1.176,2.812c0.869-1.125,1.38-1.943,1.534-3.016       c0.152-0.921-0.104-2.096-0.564-2.965c1.791-0.103,3.323,1.584,5.011,5.06c1.534,3.58,3.937,8.999,4.448,15.491       c0.307,6.186-1.022,15.645-2.198,21.676c-1.279,5.981-2.965,10.276-5.062,13.65c-0.256,0.92-0.051,1.585,0.205,2.198       c0.203,0.409,0.612,0.972,1.637,0.921c1.021-0.051,2.657-0.512,4.702-1.176c0.716,0.205,1.073,0.972,1.279,2.301       c0.101,1.277,0.051,3.527-0.358,5.367c-0.46,1.534-1.33,2.965-2.403,4.294c1.329-0.971,2.453-2.198,3.374-3.681       c0.818-1.585,1.586-3.324,2.096-5.419c0.513,0.408,0.869,1.533,0.869,3.169c0,1.584-0.152,3.834-0.664,6.749       c1.021-2.352,2.147-4.703,3.169-7.618c1.023-2.76,1.995-4.958,2.914-9.355c0.717-4.755,1.843-12.116,1.79-18.149       c-0.203-6.032-1.33-11.81-2.761-17.331c-1.738-5.727-4.294-11.298-6.491-15.899c-2.098-4.602-3.58-8.385-6.239-11.35       c-2.966-3.323-6.44-5.778-10.428-7.362c-3.988-1.636-8.487-2.453-13.293-2.044c-5.164,0.357-11.35,2.3-15.797,4.447       c-4.397,1.995-6.646,3.221-10.071,7.618c-3.63,4.295-8.18,11.248-11.094,18.097c-3.067,6.8-5.163,15.134-6.289,22.035       c-1.176,6.697-0.92,12.576-0.409,17.842c0.409,5.164,1.177,9.202,2.864,13.496c1.584,4.193,3.937,8.129,6.85,11.811       c-0.767-2.199-0.767-4.346-0.409-6.442c0.307-2.301,1.381-4.294,2.812-6.544c-0.051,1.38,0.204,2.761,0.562,3.937       c0.307,1.175,0.92,2.146,1.636,3.118c-0.409-1.38-0.409-2.301-0.204-3.323c0.204-1.074,0.665-1.687,1.379-2.403l2.71,1.841       c-1.431-2.25-2.147-4.192-2.352-6.238C18.608,104.208,18.864,102.368,19.834,100.578z" fill="#A16121" fill-rule="evenodd" i:knockout="Off" stroke="#000000" stroke-miterlimit="10" stroke-width="0.036"/>
          <path clip-rule="evenodd" d="       M32.104,120.67c-0.92,1.125-2.096,2.453-3.527,4.191c-1.584,1.637-1.79,2.864-5.317,5.624       c-3.63,2.761-12.32,6.698-15.797,10.226c-3.426,3.067-4.397,5.061-5.062,9.355c-0.92,4.397,0.511,10.634,0.153,16.718       c-0.459,5.828-2.249,13.752-2.402,18.251c-0.256,4.141-0.511,5.981,1.228,7.72c1.687,1.738,4.345,2.607,8.537,2.812       c-0.971,4.703-2.044,8.844-2.812,12.423c-0.971,3.527-1.635,6.492-2.402,8.896c-1.073,2.249-2.557,3.374-2.659,4.958       c-0.103,1.432,0.409,2.505,2.506,4.397c1.942,1.892,5.418,4.141,9.866,6.953c1.278,2.096,2.147,3.936,2.607,5.93       c0.409,1.84-0.255,3.375,0,5.417c0.153,1.945,0.614,0.872,0.818,6.444c0.052,5.47-0.357,14.467-0.05,26.38       c0.255,11.859,1.585,33.282,1.994,44.121c0.152,10.479,0.05,15.08,0.255,19.323c0.103,4.089-0.512,3.682,1.481,5.881       c2.045,2.299,5.574,4.599,10.788,7.514c-2.352,7.056-3.272,14.927-2.198,24.181c0.92,9.1,6.186,19.786,7.923,30.677       c1.637,10.836,2.25,21.676,2.046,33.486c-1.023,0.612-1.585,1.583-2.096,2.912c-0.409,1.278-0.767,2.759-0.665,4.651       c-2.862,1.944-4.958,3.732-6.697,5.164c-1.739,1.329-2.71,1.687-3.477,3.631c-0.971,1.941-2.454,5.777-1.687,7.769       c0.716,1.688,3.732,2.251,6.084,3.068c2.147,0.715,4.243,2.812,7.464,1.586c3.119-1.431,7.106-4.396,11.759-9.458       c0.255,1.737,1.227,3.221,3.118,4.446c1.994,1.176,5.881,1.176,8.078,2.763c1.892,1.378,1.483,4.804,3.527,6.135       c1.841,1.276,5.472,1.942,8.13,1.432c2.655-0.666,7.157-3.223,7.77-5.115c0.357-2.044-2.403-4.498-4.346-6.95       c-1.993-2.763-5.625-5.675-6.748-8.129c-1.074-2.456,0.256-4.704-0.153-6.186c-0.563-1.587-1.688-2.764-3.17-3.323       c0.102-9.306,1.228-17.689,3.579-25.92c2.352-8.18,7.259-15.132,10.377-22.802c2.914-8.026,5.728-15.746,7.261-23.926       c1.432-8.281,1.534-16.259,0.868-24.693l-0.407-0.407c4.141,0.917,7.105,0.716,8.895-0.411c1.686-1.226,1.38-1.534,1.637-6.646       c0.101-5.264-0.512-16.103-0.461-24.233c-0.051-8.229,0.357-14.775,0.665-24.332c0.153-9.766,1.942-21.778,1.021-32.874       c-0.972-11.197-3.067-22.086-6.491-33.436c2.453-1.124,4.498-3.016,6.696-5.878c2.045-2.965,3.527-7.311,5.827-11.043       c2.251-3.834,5.165-6.441,7.363-11.349c1.942-4.959,4.396-13.394,4.6-17.996c0.104-4.755-1.379-7.975-4.241-10.071l2.401-3.528       c-0.868-0.92-2.351-3.425-5.009-7.515c-2.863-4.243-7.363-11.708-10.532-17.076c-3.067-5.521-5.062-11.35-7.771-14.929       c-2.812-3.579-4.908-4.14-9.049-5.828c-4.294-1.687-12.014-3.067-16.462-4.346c-4.499-1.431-8.128-2.761-10.685-3.987       c-1.941,1.687-3.886,4.958-6.442,10.224c-2.555,5.164-5.316,12.117-8.486,20.858c-1.841-6.237-3.324-10.787-4.448-14.059       c-1.125-3.273-2.198-5.062-2.659-5.368L32.104,120.67z M87.063,167.193c0.409,0.869,0.92,2.505,1.534,4.704       c0.409,2.198,2.198,5.368,1.84,8.538c-0.46,3.016-3.171,6.288-3.987,9.61c-0.921,3.068-1.278,5.777-1.074,9.509       c0.205,3.783,0.767,7.924,2.097,12.833c2.71-3.886,5.164-7.669,7.361-11.146c2.046-3.63,4.296-7.004,5.572-9.918       c1.074-2.761,1.688-4.908,1.432-7.056c-0.256-2.352-1.124-4.652-2.812-6.901c-1.227,1.073-2.352,1.278-3.374,0.818       c-1.074-0.666-1.585-2.199-2.914-4.04C91.255,172.253,89.364,170.004,87.063,167.193z" fill-rule="evenodd" i:knockout="Off" stroke="#000000" stroke-miterlimit="10" stroke-width="0.036"/>
          <path clip-rule="evenodd" d="       M31.338,123.175c0.052,1.79-0.357,4.142-1.635,7.056c-1.33,2.863-5.88,7.617-5.777,10.123c0.153,2.402,3.885,2.352,6.236,3.783       c2.148,1.175,4.142,1.535,6.749,3.834c2.454,2.249,5.113,5.47,8.18,9.867c-2.044-5.675-3.477-10.788-5.061-15.542       c-1.534-4.958-2.556-9.662-3.885-12.934C34.763,126.14,32.974,124.146,31.338,123.175z" fill="#FFFFFF" fill-rule="evenodd" i:knockout="Off" stroke="#000000" stroke-miterlimit="10" stroke-width="0.036"/>
          <path clip-rule="evenodd" d="       M57.667,114.638c-0.104,1.176,0.204,2.761,1.124,4.958c0.869,2.096,3.938,5.879,4.09,8.027       c-0.103,2.096-2.353,1.688-4.191,4.499c-2.148,2.709-5.011,7.464-7.209,11.707c-2.147,4.039-4.04,8.282-5.675,12.73       c-0.205-3.016-0.46-5.47-0.768-7.362c-0.408-1.943-0.869-3.323-1.38-4.142c1.841-6.032,3.834-11.093,5.573-15.184       c1.688-4.192,3.528-7.361,5.112-9.713L57.667,114.638z" fill="#FFFFFF" fill-rule="evenodd" i:knockout="Off" stroke="#000000" stroke-miterlimit="10" stroke-width="0.036"/>
          <path clip-rule="evenodd" d="       M59.15,116.018c2.045,1.227,4.601,2.403,7.872,3.323c3.067,0.767,7.721,1.227,11.196,2.147       c3.426,0.869,6.697,1.585,9.406,3.324c2.455,1.635,4.295,3.577,6.135,6.645c1.739,3.068,2.557,6.953,4.603,10.838       c1.943,3.58,4.294,6.646,7.055,10.787c2.557,4.142,5.521,8.692,8.691,13.855c-0.409,1.738-2.146,3.425-4.653,5.061       c-2.709,1.483-8.691,4.193-11.042,4.602c-2.402,0.409-1.892-1.023-3.016-2.147c-1.382-1.329-3.068-3.681-4.448-5.266       c-1.381-1.79-3.169-3.323-3.782-4.806c-0.717-1.585-0.41-4.346-0.666-4.141c-0.409,0.102-1.79,2.812-1.585,5.164       c0.103,2.199,1.637,6.083,2.251,8.691c0.458,2.505,1.124,4.755,0.816,7.157c-0.664,2.352-2.812,4.294-3.681,7.209       c-0.919,2.709-1.893,5.47-1.534,9.663c0.154,4.243,1.177,9.151,2.864,15.285c-3.119,2.147-5.932,3.63-8.64,4.447       c-2.762,0.665-4.807-0.102-7.312,0.46c-2.659,0.614-5.878,1.635-7.72,3.272c-1.893,1.584-3.937,5.163-3.579,6.391       c0.256,1.175,1.943,1.175,5.266,0.408c-2.301,3.783-3.884,7.976-4.754,12.782c-0.869,4.803-1.177,9.968-0.717,15.897       c3.528-0.51,7.312-0.612,11.35-0.51c3.938,0.103,8.13,0.46,12.578,1.073c0.254-5.47,0.92-10.582,1.992-15.133       c0.972-4.753,2.353-8.742,4.143-12.577l4.498-1.534c1.84,5.829,3.322,12.321,4.243,19.683c0.869,7.31,1.381,14.671,1.33,23.876       c-0.104,9.148-1.228,21.674-1.586,30.265c-0.409,8.283-0.971,13.394-0.869,19.886c0,6.494,0.768,14.062,0.717,18.354       c-0.102,3.986-0.513,4.602-1.789,5.778c-1.637,1.073-3.886,0.613-7.159,1.176c-3.373,0.256-7.208,0.716-12.269,1.79       c-5.164,1.122-13.548,4.087-18.457,5.366c-5.06,1.126-7.003,1.79-11.145,1.432c-4.294-0.563-10.071-2.197-14.007-4.089       c-4.039-2.097-7.719-4.807-9.458-7.516c-1.892-2.658-0.817-5.011-0.92-8.641c-0.052-3.833-0.205-7.156-0.052-13.904       c-0.205-7.006-0.255-18.559-0.562-27.197c-0.409-8.797-1.125-17.384-1.329-24.389c-0.154-7.158-0.255-12.779,0.102-17.636       c2.045,0.868,4.602,1.686,7.669,2.249c3.067,0.51,6.339,0.767,10.378,0.972c-0.461-3.989-0.461-7.875-0.563-11.86       c-0.103-4.091,0-8.08,0.307-12.169c1.482-0.051,2.505-0.46,2.505-1.227c0.153-0.92-0.92-2.199-2.045-3.63       c-1.431-1.534-3.425-3.63-5.776-4.908c-2.505-1.379-5.01-2.301-8.282-2.965c-0.972-2.76-1.074-5.368-0.512-8.231       c0.614-2.863,3.835-6.186,3.937-8.793c-0.102-2.71-2.659-4.755-4.141-7.311c-1.687-2.709-4.601-5.674-5.164-8.487       c-0.511-3.016,0.87-5.47,1.944-8.742c0.869-3.374,2.913-8.793,3.374-10.94c0.255-2.352-0.409-3.885-1.176-2.659       c-0.767,1.126-2.198,5.932-3.119,9.51c-1.125,3.322-3.017,7.821-3.119,10.736c-0.256,2.76,1.381,4.396,2.147,6.083       c0.715,1.637,1.483,2.761,2.3,3.579c-5.214,0.256-9.202,0.103-12.167-0.459c-3.067-0.665-4.549-0.563-5.418-3.017       c-0.92-2.658,0.102-7.975,0.511-11.809c0.256-3.834,1.432-7.362,1.585-10.992c0-3.937-0.665-7.822-0.818-11.248       c-0.358-3.425-1.227-6.032-0.052-8.793c1.176-2.914,4.653-5.828,7.464-7.976c2.761-2.25,6.187-3.476,9.1-5.266       c2.709-1.892,5.164-3.784,7.362-5.88c-1.125,1.738-2.301,3.375-3.323,5.471c-1.074,1.942-3.119,4.806-3.17,6.441       c-0.256,1.585,0.051,1.381,2.096,2.71c1.84,1.021,6.595,1.942,9.56,4.14c2.862,2.199,5.471,6.033,7.822,8.742       c2.25,2.557,4.09,4.55,5.727,6.391c0.153,5.214,0.665,10.173,1.533,14.877c0.818,4.499,1.688,8.077,3.171,13.087       c1.329,5.011,4.703,11.605,5.009,17.025c0.153,5.214-3.067,10.582-3.527,14.314c-0.46,3.527-0.409,8.282,0.563,6.953       c0.869-1.535,3.68-11.912,4.498-15.747c0.613-3.833,0.768-3.579-0.102-7.515c-1.074-4.243-3.732-11.708-5.215-17.076       c-1.534-5.368-2.914-10.276-3.528-15.133c-0.817-5.061-1.124-9.815-0.92-14.672c1.738-5.521,3.886-10.429,6.237-14.929       c2.352-4.753,5.624-9.304,7.822-12.065c1.994-2.657,3.783-2.402,3.988-3.782c-0.154-1.687-2.607-3.477-3.784-5.368       C60.99,120.209,59.968,118.318,59.15,116.018z" fill="#FFFFFF" fill-rule="evenodd" i:knockout="Off" stroke="#000000" stroke-miterlimit="10" stroke-width="0.036"/>
          <path clip-rule="evenodd" d="       M22.289,195.822c-1.942-0.05-3.784-0.05-5.521,0c-1.738,0.052-3.374,0.052-4.908,0.206c-0.666,5.368-1.381,9.969-2.147,13.598       c-0.869,3.63-1.994,5.931-2.813,8.282c-0.972,2.25-2.965,3.374-2.659,4.959c0.256,1.38,2.2,2.504,4.04,3.937       c1.636,1.33,3.63,2.914,5.981,4.55c2.965-0.665,5.368-1.125,7.618-1.381c2.045-0.307,2.709-0.767,5.368-0.562       c2.607,0.051,8.436,1.278,10.174,1.125c1.38-0.153,0.255-1.431-0.614-2.25c-0.92-0.971-2.863-2.607-4.243-3.527       c-1.381-1.125-2.761-1.994-4.346-2.607c-1.79-0.665-4.601-0.87-5.675-1.381c-1.125-0.767-1.073-1.33-1.228-2.863       c-0.357-1.841-1.073-4.294-0.562-6.749c0.409-2.556,3.119-5.01,3.425-7.566C24.385,201.037,23.823,198.378,22.289,195.822z" fill="#FFC080" fill-rule="evenodd" i:knockout="Off" stroke="#000000" stroke-miterlimit="10" stroke-width="0.036"/>
          <path clip-rule="evenodd" d="       M113.035,171.64c-1.33,1.176-3.068,2.25-5.011,3.221c-1.994,0.819-4.396,1.79-7.004,2.353c1.126,3.169,2.198,5.521,3.017,6.85       c0.715,1.278,2.097,0.613,1.941,1.176c-0.358,0.307-1.737,0.307-2.76,1.994c-0.869,1.687-1.892,5.215-3.271,8.641       c-1.636,3.374-4.192,8.281-6.492,11.758c-2.404,3.426-4.909,6.595-7.515,8.691c-2.712,1.737-5.882,2.556-8.335,3.067       c-2.556,0.357-4.703,0-6.645,0.307c-1.995,0.255-3.733,0.358-5.421,1.483c-1.941,1.022-5.11,4.142-5.775,5.214       c-0.818,0.92,0.665,1.125,1.48,1.176c0.87,0,2.148-0.409,3.63-0.818c1.229-0.459,2.915-1.022,4.5-1.687       c1.277,1.891,3.22,3.22,5.827,3.988c2.607,0.613,6.442,0.92,9.509,0.358c2.762-0.716,5.113-2.198,7.465-3.63       c2.249-1.329,4.397-2.352,6.44-4.652c1.893-2.709,3.069-6.339,5.317-10.071c2.2-3.733,5.521-7.516,7.619-11.35       c1.84-3.886,2.914-7.72,3.834-11.094c0.766-3.323,1.584-6.237,1.278-8.947C116.254,176.906,114.978,174.043,113.035,171.64z" fill="#FFC080" fill-rule="evenodd" i:knockout="Off" stroke="#000000" stroke-miterlimit="10" stroke-width="0.036"/>
          <path clip-rule="evenodd" d="       M67.944,227.417c1.021,0.818,2.504,1.431,3.884,2.045c1.277,0.409,2.557,1.175,4.808,1.329       c2.197,0.205,5.162,0.051,8.688-0.256c-1.84,2.709-3.322,6.288-4.037,10.532c-0.92,4.294-1.074,9.101-0.87,14.98       c-2.965-0.562-6.134-0.871-9.509-0.92c-3.425-0.156-7.055-0.053-10.89,0.305c-0.204-4.959,0.051-8.998,0.563-12.729       c0.563-3.732,1.381-6.75,2.658-9.253C64.416,230.944,66.051,228.797,67.944,227.417z" fill="#FFFFFF" fill-rule="evenodd" i:knockout="Off" stroke="#000000" stroke-miterlimit="10" stroke-width="0.036"/>
          <path clip-rule="evenodd" d="       M35.735,232.375c-2.2-0.869-4.909-1.227-8.129-1.073c-3.272,0.103-7.004,0.562-11.4,1.585c1.278,2.351,2.402,4.959,2.965,8.027       c0.511,3.117,0.869,6.235,0.664,10.122c1.023,0.563,2.915,1.278,5.471,1.738c2.505,0.563,5.879,0.868,9.918,1.327       c-0.409-6.134-0.562-11.093-0.46-14.671C34.763,235.648,35.223,233.552,35.735,232.375z" fill="#FFFFFF" fill-rule="evenodd" i:knockout="Off" stroke="#000000" stroke-miterlimit="10" stroke-width="0.036"/>
          <path clip-rule="evenodd" d="       M34.303,353.999c-1.892,8.996-2.812,16.975-2.199,23.925c0.563,6.954,3.681,11.913,5.215,17.436       c1.33,5.111,2.044,8.846,2.915,14.57c0.715,5.827,1.227,14.568,1.533,20.091c0.256,5.266,0.154,9.202-0.102,11.808       c1.738-0.407,3.221-0.407,4.652,0c1.329,0.309,2.556,0.975,3.681,2.2c1.021,1.176,1.841,2.71,2.454,4.807       c-0.768-3.018-1.483-7.67-1.586-13.957c-0.358-6.39-0.358-15.696,0.206-23.978c0.409-8.436,1.584-19.172,2.914-25.921       c1.227-6.899,3.63-9.815,4.652-14.825c0.972-5.214,1.431-10.123,1.38-15.489c-3.271,1.635-6.135,2.709-8.793,3.22       c-2.607,0.41-4.447,0.308-7.106-0.306C41.256,356.964,37.984,355.635,34.303,353.999z" fill="#FFC080" fill-rule="evenodd" i:knockout="Off" stroke="#000000" stroke-miterlimit="10" stroke-width="0.036"/>
          <path clip-rule="evenodd" d="       M63.342,354.204c1.585-1.124,4.293-2.147,8.333-2.862c3.937-0.817,8.997-1.431,15.388-1.843       c0.152,5.882-0.205,12.17-1.278,19.069c-1.228,6.802-2.965,15.031-5.215,21.934c-2.352,6.696-5.981,12.831-8.127,18.814       c-2.251,6.032-3.989,12.37-5.013,17.228c-1.072,4.653-1.326,7.463-1.584,10.991c-0.408,3.579-0.716,6.749-0.919,10.071       c-1.433,0-2.762,0.155-3.988,0.255c-1.381,0.053-2.505,0-3.579,0.411c-1.176,0.357-2.096,0.818-2.966,1.583       c-0.868-6.391-1.379-13.036-1.532-19.937c-0.257-7.057-0.154-15.03,0.306-21.729c0.461-6.747,1.176-12.779,2.352-18.3       c0.972-5.575,3.171-10.379,4.449-14.828c1.227-4.651,2.301-8.536,3.016-12.066C63.545,359.418,63.598,356.556,63.342,354.204z" fill="#FFC080" fill-rule="evenodd" i:knockout="Off" stroke="#000000" stroke-miterlimit="10" stroke-width="0.036"/>
          <path clip-rule="evenodd" d="       M67.534,449.243c-1.021-0.461-3.783-0.666-5.521-0.408c-1.943,0.305-4.499,0.971-5.675,1.991       c-1.432,0.77-2.198,2.199-2.097,3.121c0.153,0.818,0.972,1.481,3.017,1.789c1.942,0.103,6.954,0.05,8.896-0.769       c1.637-0.919,1.842-3.322,1.994-4.24C68.301,449.754,68.556,449.396,67.534,449.243z" fill="#FFFFFF" fill-rule="evenodd" i:knockout="Off" stroke="#000000" stroke-miterlimit="10" stroke-width="0.036"/>
          <path clip-rule="evenodd" d="       M49.845,447.964c-0.92-1.431-2.25-2.607-3.426-3.322c-1.482-0.868-3.272-1.637-4.396-1.124       c-1.176,0.408-2.352,2.556-2.352,3.887c-0.103,1.226,0.052,2.555,2.045,3.782c1.892,1.074,5.163,2.147,9.611,3.015       c0.562-1.636,0.562-2.861,0.41-3.885C51.533,449.192,50.765,448.478,49.845,447.964z" fill="#FFFFFF" fill-rule="evenodd" i:knockout="Off" stroke="#000000" stroke-miterlimit="10" stroke-width="0.036"/>
          <path clip-rule="evenodd" d="       M67.891,456.349c-0.562,0.411-1.688,0.818-2.964,1.022c-1.637,0.154-3.272,0.461-5.317,0.359       c-1.994-0.104-3.988-0.563-6.187-1.177L51.889,461c1.074,1.792,2.352,3.273,4.04,3.886c1.687,0.563,3.885-1.021,5.776,0.206       c1.637,1.176,3.222,5.776,4.55,7.312c1.278,1.328,2.506,1.891,3.477,1.278c-0.307-1.586,0.46-2.558,1.738-3.479       c1.277-0.972,3.374-1.328,6.288-1.637l-2.709-3.475c-0.92,0.05-2.045,0.255-3.171,0.407c-1.379,0.103-3.63,0.769-3.987,0.616       c-0.357-0.259,0.972-1.381,2.044-1.79c0.87-0.357,2.148-0.818,3.631-0.818l-1.073-1.737c-1.433,0-2.761,0.205-3.783,0.612       c-1.074,0.206-2.301,1.788-2.506,1.586c-0.152-0.411,0.258-1.791,1.227-2.557c0.717-0.716,1.843-0.971,3.375-1.176       C69.834,458.956,68.863,457.678,67.891,456.349z" fill="#FFFFFF" fill-rule="evenodd" i:knockout="Off" stroke="#000000" stroke-miterlimit="10" stroke-width="0.036"/>
          <path clip-rule="evenodd" d="       M49.896,456.604c0,1.431-0.665,2.965-1.79,4.807c-1.176,1.789-3.527,4.499-5.112,5.979c-1.739,1.229-3.323,1.791-4.96,1.689       c-2.044-2.302-3.629-3.938-5.367-4.346c-1.687-0.665-3.323-0.104-4.704,1.122c-0.716-2.146-0.716-3.882,0-5.416       c0.665-1.588,2.25-2.25,4.192-3.783c1.79-1.637,3.937-3.426,6.646-5.572c-0.102,0.817,1.023,1.533,2.812,2.554       C43.403,454.457,46.164,455.584,49.896,456.604z" fill="#FFFFFF" fill-rule="evenodd" i:knockout="Off" stroke="#000000" stroke-miterlimit="10" stroke-width="0.036"/>
          <path clip-rule="evenodd" d="       M43.813,458.599c-0.154-0.408-0.87-1.124-1.943-1.382c-1.278-0.51-4.55-0.97-5.061-0.97c-0.511-0.152,0.665,0.307,1.739,0.818       c0.971,0.612,3.067,2.146,4.09,2.605C43.454,459.827,43.915,459.009,43.813,458.599z" fill-rule="evenodd" i:knockout="Off" stroke="#000000" stroke-miterlimit="10" stroke-width="0.036"/>
          <path clip-rule="evenodd" d="       M41.46,461.156c-0.205-0.514-0.768-1.127-1.892-1.432c-1.278-0.563-4.551-0.872-5.062-0.921       c-0.511-0.153,0.665,0.305,1.739,0.818c0.971,0.613,3.068,2.147,4.09,2.607C41.206,462.382,41.512,461.564,41.46,461.156z" fill-rule="evenodd" i:knockout="Off" stroke="#000000" stroke-miterlimit="10" stroke-width="0.036"/>
        </g>
      </g>
    </g>
  </switch>
  
</svg>
