<?xml version="1.0" encoding="UTF-8" standalone="no"?>
<!-- Created with Inkscape (http://www.inkscape.org/) -->

<svg
   xmlns:dc="http://purl.org/dc/elements/1.1/"
   xmlns:cc="http://creativecommons.org/ns#"
   xmlns:rdf="http://www.w3.org/1999/02/22-rdf-syntax-ns#"
   xmlns:svg="http://www.w3.org/2000/svg"
   xmlns="http://www.w3.org/2000/svg"
   xmlns:sodipodi="http://sodipodi.sourceforge.net/DTD/sodipodi-0.dtd"
   xmlns:inkscape="http://www.inkscape.org/namespaces/inkscape"
   width="370.13837"
   height="317.79544"
   id="svg2"
   sodipodi:version="0.32"
   inkscape:version="0.48.1 r9760"
   sodipodi:docname="gopher_Redhead_anime_girl.svg"
   version="1.0"
   inkscape:export-filename="/home/gopher/inkscape/first_anime4.png"
   inkscape:export-xdpi="90"
   inkscape:export-ydpi="90">
  <defs
     id="defs4">
    <linearGradient
       id="linearGradient11793">
      <stop
         style="stop-color:#378f00;stop-opacity:1;"
         offset="0"
         id="stop11795" />
      <stop
         style="stop-color:#378f00;stop-opacity:0;"
         offset="1"
         id="stop11797" />
    </linearGradient>
  </defs>
  <sodipodi:namedview
     id="base"
     pagecolor="#ffffff"
     bordercolor="#666666"
     borderopacity="1.0"
     gridtolerance="10000"
     guidetolerance="10"
     objecttolerance="10"
     inkscape:pageopacity="0.0"
     inkscape:pageshadow="2"
     inkscape:zoom="1.4142136"
     inkscape:cx="206.6525"
     inkscape:cy="202.92601"
     inkscape:document-units="px"
     inkscape:current-layer="layer14"
     inkscape:window-width="1280"
     inkscape:window-height="951"
     inkscape:window-x="0"
     inkscape:window-y="0"
     height="350px"
     width="400px"
     showgrid="false"
     fit-margin-top="0"
     fit-margin-left="0"
     fit-margin-right="0"
     fit-margin-bottom="0"
     inkscape:window-maximized="0" />
  <metadata
     id="metadata7">
    <rdf:RDF>
      <cc:Work
         rdf:about="">
        <dc:format>image/svg+xml</dc:format>
        <dc:type
           rdf:resource="http://purl.org/dc/dcmitype/StillImage" />
      </cc:Work>
    </rdf:RDF>
  </metadata>
  <g
     inkscape:groupmode="layer"
     id="layer14"
     inkscape:label="hair_bpigtail"
     style="display:inline"
     transform="translate(-14.64867,-16.125414)">
    <path
       style="fill:#ff4e00;fill-opacity:1;fill-rule:evenodd;stroke:#6e0700;stroke-width:4;stroke-linecap:butt;stroke-linejoin:miter;stroke-miterlimit:4;stroke-opacity:1;stroke-dasharray:none"
       d="M 133.57655,33.6432 C 122.04687,20.10076 97.99403,13.30223 75.37016,22.02342 52.86153,30.70017 40.07223,46.24723 30.45869,82.10923 c -10.50875,32.99589 13.97451,55.85249 0.9794,78.60517 -4.57698,8.01688 -14.78942,4.7014 -14.78942,4.7014 91.25941,14.40779 103.98078,-31.81942 122.44662,-62.78269 C 152.2293,80.6252 149.88014,52.79283 133.57655,33.6432 z"
       id="path12553"
       sodipodi:nodetypes="cssscss"
       inkscape:connector-curvature="0" />
  </g>
  <g
     inkscape:groupmode="layer"
     id="layer22"
     inkscape:label="hair_bpigt_light"
     style="display:inline"
     transform="translate(-14.64867,-16.125414)">
    <path
       style="fill:#ff8200;fill-opacity:1;fill-rule:evenodd;stroke:none;display:inline"
       d="m 80.4024,28.0015 c -17.98525,1.3692 -33.79278,22.10311 -38.17915,35.8704 -4.98282,15.63936 -8.25828,38.83049 -2.04877,60.27374 2.98158,10.29627 -6.15215,11.88489 -6.15215,11.88489 0,0 11.12466,6.19759 28.12208,-0.64409 16.99744,-6.84166 33.91222,-20.97187 39.72693,-37.67498 C 115.30775,59.11453 126.9675,24.45651 80.4024,28.0015 z"
       id="path13490"
       sodipodi:nodetypes="csscsss"
       inkscape:connector-curvature="0" />
  </g>
  <g
     inkscape:groupmode="layer"
     id="layer12"
     inkscape:label="hair_bballs"
     style="display:inline"
     transform="translate(-14.64867,-16.125414)">
    <path
       sodipodi:type="arc"
       style="fill:#ce1a1a;fill-opacity:1;fill-rule:evenodd;stroke:#6e0700;stroke-width:6.21917629;stroke-linecap:round;stroke-linejoin:round;stroke-miterlimit:4;stroke-opacity:1;stroke-dasharray:none;stroke-dashoffset:0"
       id="path12545"
       sodipodi:cx="462.80139"
       sodipodi:cy="257.57416"
       sodipodi:rx="26.516504"
       sodipodi:ry="26.516504"
       d="m 489.3179,257.57416 c 0,14.64466 -11.87185,26.5165 -26.51651,26.5165 -14.64466,0 -26.5165,-11.87184 -26.5165,-26.5165 0,-14.64466 11.87184,-26.51651 26.5165,-26.51651 14.64466,0 26.51651,11.87185 26.51651,26.51651 z"
       transform="matrix(0.643172,0,0,0.643172,-159.6607,-121.3022)" />
    <path
       sodipodi:type="arc"
       style="fill:#ce1a1a;fill-opacity:1;fill-rule:evenodd;stroke:#6e0700;stroke-width:6.21917629;stroke-linecap:round;stroke-linejoin:round;stroke-miterlimit:4;stroke-opacity:1;stroke-dasharray:none;stroke-dashoffset:0"
       id="path12547"
       sodipodi:cx="462.80139"
       sodipodi:cy="257.57416"
       sodipodi:rx="26.516504"
       sodipodi:ry="26.516504"
       d="m 489.3179,257.57416 c 0,14.64466 -11.87185,26.5165 -26.51651,26.5165 -14.64466,0 -26.5165,-11.87184 -26.5165,-26.5165 0,-14.64466 11.87184,-26.51651 26.5165,-26.51651 14.64466,0 26.51651,11.87185 26.51651,26.51651 z"
       transform="matrix(0.643172,0,0,0.643172,-195.6609,-99.8023)" />
    <path
       sodipodi:type="arc"
       style="fill:#ff0000;fill-opacity:1;fill-rule:evenodd;stroke:none;display:inline"
       id="path13501"
       sodipodi:cx="148"
       sodipodi:cy="186.36218"
       sodipodi:rx="50"
       sodipodi:ry="38"
       d="m 198,186.36218 c 0,20.98682 -22.38576,38 -50,38 -27.61424,0 -50,-17.01318 -50,-38 0,-20.98682 22.38576,-38 50,-38 27.16282,0 49.35717,16.48128 49.98658,37.11948"
       sodipodi:start="0"
       sodipodi:end="6.2600116"
       sodipodi:open="true"
       transform="matrix(0.15,0,0,0.197369,77.3,23.0802)" />
    <path
       sodipodi:type="arc"
       style="fill:#ff0000;fill-opacity:1;fill-rule:evenodd;stroke:none;display:inline"
       id="path13503"
       sodipodi:cx="148"
       sodipodi:cy="186.36218"
       sodipodi:rx="50"
       sodipodi:ry="38"
       d="m 198,186.36218 c 0,20.98682 -22.38576,38 -50,38 -27.61424,0 -50,-17.01318 -50,-38 0,-20.98682 22.38576,-38 50,-38 27.16282,0 49.35717,16.48128 49.98658,37.11948"
       sodipodi:start="0"
       sodipodi:end="6.2600116"
       sodipodi:open="true"
       transform="matrix(0.165,0,0,0.217105,110.33,-0.348)" />
    <path
       sodipodi:type="arc"
       style="fill:#ce1a1a;fill-opacity:1;fill-rule:evenodd;stroke:#6e0700;stroke-width:5.24043798;stroke-linecap:round;stroke-linejoin:round;stroke-miterlimit:4;stroke-opacity:1;stroke-dasharray:none;stroke-dashoffset:0"
       id="path12543"
       sodipodi:cx="462.80139"
       sodipodi:cy="257.57416"
       sodipodi:rx="26.516504"
       sodipodi:ry="26.516504"
       d="m 489.3179,257.57416 c 0,14.64466 -11.87185,26.5165 -26.51651,26.5165 -14.64466,0 -26.5165,-11.87184 -26.5165,-26.5165 0,-14.64466 11.87184,-26.51651 26.5165,-26.51651 14.64466,0 26.51651,11.87185 26.51651,26.51651 z"
       transform="matrix(0.763295,0,0,0.763295,-239.504,-152.4929)" />
    <path
       sodipodi:type="arc"
       style="fill:#ff0000;fill-opacity:1;fill-rule:evenodd;stroke:none"
       id="path13499"
       sodipodi:cx="148"
       sodipodi:cy="186.36218"
       sodipodi:rx="50"
       sodipodi:ry="38"
       d="m 198,186.36218 c 0,20.98682 -22.38576,38 -50,38 -27.61424,0 -50,-17.01318 -50,-38 0,-20.98682 22.38576,-38 50,-38 27.16282,0 49.35717,16.48128 49.98658,37.11948"
       sodipodi:start="0"
       sodipodi:end="6.2600116"
       sodipodi:open="true"
       transform="matrix(0.25,0,0,0.328947,74.5,-21.4412)" />
  </g>
  <g
     inkscape:groupmode="layer"
     id="layer4"
     style="display:inline"
     inkscape:label="head"
     transform="translate(-14.64867,-16.125414)">
    <path
       style="fill:#ffcb94;fill-opacity:1;fill-rule:evenodd;stroke:#480d00;stroke-width:4;stroke-linecap:butt;stroke-linejoin:round;stroke-miterlimit:4;stroke-opacity:1;stroke-dasharray:none;marker-start:none;display:inline"
       d="m 48.15925,175.66388 c 0,0 1.34092,11.06713 0.85295,16.18237 -2.13929,22.42572 -13.92,35.57334 -10.82667,61.55734 3.12023,26.20996 12.064,42.688 32.48,66.816 9.58933,8.04266 55.95063,22.48186 115.38133,-1.54667 23.78086,-9.61488 34.336,-35.264 34.336,-35.264 16.52289,-20.54684 24.61561,-32.21245 28.14934,-39.28533 18.8954,-37.81979 23.78963,-68.4798 16.86322,-110.83461 -23.02257,-61.58308 -74.10277,-64.5976 -74.10277,-64.5976 0,0 -74.88065,-21.95889 -117.59596,37.31409 -25.7352,35.71089 -25.53744,69.65841 -25.53744,69.65841 z"
       id="path1933"
       sodipodi:nodetypes="csscscsscsc"
       inkscape:connector-curvature="0" />
    <path
       style="fill:#ffb565;fill-opacity:1;fill-rule:evenodd;stroke:none;stroke-width:4;marker-start:none;display:inline"
       d="m 154.90625,66.78125 c -31.68099,0.32924 -63.11847,15.31104 -80.78125,42.0625 -13.66128,19.86974 -23.16519,43.31205 -23.86585,67.58844 0.57262,6.2867 1.40607,12.69758 0.30335,18.97406 17.76002,22.5089 22.27509,24.75513 48.59375,29.03125 5.10986,1.88413 21.48557,15.94333 26.46875,17.78125 -0.54864,10.7692 5.16554,15.58706 3.5625,26.375 8.64519,8.78036 21.56039,14.49558 26.21875,26.53125 3.97664,11.69619 -7.23647,21.00001 -16.79668,25.20511 -8.97319,4.59937 -20.64947,7.45255 -29.39082,9.07614 28.18391,2.13021 56.83447,-3.3559 82.1875,-15.5625 13.2022,-7.37676 21.7335,-20.39433 28.65564,-33.24924 13.99188,-17.26865 27.77454,-35.00981 35.09436,-56.15701 11.99351,-29.10225 14.30138,-62.13583 7.47609,-92.83621 -10.96444,-29.19696 -35.50446,-54.30179 -66.85109,-60.25754 -13.38585,-2.55423 -26.97137,-5.33531 -40.875,-4.5625 z"
       id="path14349"
       sodipodi:nodetypes="cccccccccccccccc"
       inkscape:connector-curvature="0" />
  </g>
  <g
     inkscape:groupmode="layer"
     id="layer24"
     inkscape:label="freck"
     transform="translate(-14.64867,-16.125414)">
    <path
       sodipodi:type="arc"
       style="fill:#ffabab;fill-opacity:1;fill-rule:evenodd;stroke:none"
       id="path14360"
       sodipodi:cx="315.75"
       sodipodi:cy="424.11218"
       sodipodi:rx="5.25"
       sodipodi:ry="3.25"
       d="m 321,424.11218 c 0,1.79493 -2.35051,3.25 -5.25,3.25 -2.89949,0 -5.25,-1.45507 -5.25,-3.25 0,-1.79492 2.35051,-3.25 5.25,-3.25 2.8521,0 5.1825,1.40959 5.24859,3.17469"
       sodipodi:start="0"
       sodipodi:end="6.2600116"
       sodipodi:open="true"
       transform="matrix(0.959214,0.282682,-0.282682,0.959214,-54.9828,-216.7089)" />
    <path
       sodipodi:type="arc"
       style="fill:#ffabab;fill-opacity:1;fill-rule:evenodd;stroke:none"
       id="path14362"
       sodipodi:cx="315.75"
       sodipodi:cy="424.11218"
       sodipodi:rx="5.25"
       sodipodi:ry="3.25"
       d="m 321,424.11218 c 0,1.79493 -2.35051,3.25 -5.25,3.25 -2.89949,0 -5.25,-1.45507 -5.25,-3.25 0,-1.79492 2.35051,-3.25 5.25,-3.25 2.8521,0 5.1825,1.40959 5.24859,3.17469"
       sodipodi:start="0"
       sodipodi:end="6.2600116"
       sodipodi:open="true"
       transform="matrix(0.631346,0.186059,-0.186059,0.631346,15.8122,-39.9673)" />
    <path
       sodipodi:type="arc"
       style="fill:#ffabab;fill-opacity:1;fill-rule:evenodd;stroke:none"
       id="path14364"
       sodipodi:cx="315.75"
       sodipodi:cy="424.11218"
       sodipodi:rx="5.25"
       sodipodi:ry="3.25"
       d="m 321,424.11218 c 0,1.79493 -2.35051,3.25 -5.25,3.25 -2.89949,0 -5.25,-1.45507 -5.25,-3.25 0,-1.79492 2.35051,-3.25 5.25,-3.25 2.8521,0 5.1825,1.40959 5.24859,3.17469"
       sodipodi:start="0"
       sodipodi:end="6.2600116"
       sodipodi:open="true"
       transform="matrix(0.631346,0.186059,-0.186059,0.631346,19.3123,-44.3975)" />
    <path
       sodipodi:type="arc"
       style="fill:#ffabab;fill-opacity:1;fill-rule:evenodd;stroke:none"
       id="path14366"
       sodipodi:cx="315.75"
       sodipodi:cy="424.11218"
       sodipodi:rx="5.25"
       sodipodi:ry="3.25"
       d="m 321,424.11218 c 0,1.79493 -2.35051,3.25 -5.25,3.25 -2.89949,0 -5.25,-1.45507 -5.25,-3.25 0,-1.79492 2.35051,-3.25 5.25,-3.25 2.8521,0 5.1825,1.40959 5.24859,3.17469"
       sodipodi:start="0"
       sodipodi:end="6.2600116"
       sodipodi:open="true"
       transform="matrix(0.631346,0.186059,-0.186059,0.631346,-62.9377,-89.1475)" />
    <path
       sodipodi:type="arc"
       style="fill:#ffabab;fill-opacity:1;fill-rule:evenodd;stroke:none"
       id="path14368"
       sodipodi:cx="315.75"
       sodipodi:cy="424.11218"
       sodipodi:rx="5.25"
       sodipodi:ry="3.25"
       d="m 321,424.11218 c 0,1.79493 -2.35051,3.25 -5.25,3.25 -2.89949,0 -5.25,-1.45507 -5.25,-3.25 0,-1.79492 2.35051,-3.25 5.25,-3.25 2.8521,0 5.1825,1.40959 5.24859,3.17469"
       sodipodi:start="0"
       sodipodi:end="6.2600116"
       sodipodi:open="true"
       transform="matrix(0.982633,0.289584,-0.289584,0.982633,-122.3253,-262.3058)" />
    <path
       sodipodi:type="arc"
       style="fill:#ffabab;fill-opacity:1;fill-rule:evenodd;stroke:none"
       id="path14370"
       sodipodi:cx="315.75"
       sodipodi:cy="424.11218"
       sodipodi:rx="5.25"
       sodipodi:ry="3.25"
       d="m 321,424.11218 c 0,1.79493 -2.35051,3.25 -5.25,3.25 -2.89949,0 -5.25,-1.45507 -5.25,-3.25 0,-1.79492 2.35051,-3.25 5.25,-3.25 2.8521,0 5.1825,1.40959 5.24859,3.17469"
       sodipodi:start="0"
       sodipodi:end="6.2600116"
       sodipodi:open="true"
       transform="matrix(0.631346,0.186059,-0.186059,0.631346,-64.9377,-84.14748)" />
  </g>
  <g
     inkscape:groupmode="layer"
     id="layer23"
     inkscape:label="nose"
     transform="translate(-14.64867,-16.125414)">
    <path
       style="fill:none;stroke:#000000;stroke-width:1px;stroke-linecap:butt;stroke-linejoin:miter;stroke-opacity:1"
       d="m 86,267.36218 c 0,0 -3,0 -6,-6.5 -3,-6.5 1.5,-6.5 1.5,-6.5"
       id="path14357"
       inkscape:connector-curvature="0" />
  </g>
  <g
     inkscape:groupmode="layer"
     id="layer16"
     inkscape:label="mouth"
     style="display:inline"
     transform="translate(-14.64867,-16.125414)">
    <path
       style="fill:#000000;fill-opacity:1;fill-rule:evenodd;stroke:#000000;stroke-width:2;stroke-linecap:butt;stroke-linejoin:miter;stroke-miterlimit:4;stroke-opacity:1;stroke-dasharray:none"
       d="m 74,275.36218 c 0,0 8.25,8 12.75,10.5 4.5,2.5 18.75,8 18.75,8 0,0 -17,24.5 -25.5,22 -8.5,-2.5 -7,-39 -6,-40.5 z"
       id="path13258"
       sodipodi:nodetypes="cscsc"
       inkscape:connector-curvature="0" />
    <path
       style="fill:none;stroke:#000000;stroke-width:2;stroke-linecap:round;stroke-linejoin:round;stroke-miterlimit:4;stroke-opacity:1;stroke-dasharray:none"
       d="m 74,275.36218 c 4.02658,5.11171 -2.77813,-3.98593 -3.75,-3.5"
       id="path13260"
       sodipodi:nodetypes="cc"
       inkscape:connector-curvature="0" />
    <path
       style="fill:#9e2d2d;fill-opacity:1;fill-rule:evenodd;stroke:#000000;stroke-width:1px;stroke-linecap:butt;stroke-linejoin:miter;stroke-opacity:1;display:inline"
       d="m 76.71875,298.59375 c -0.60969,0.0104 -1.22555,0.0724 -1.84375,0.15625 -0.39506,0.0536 -0.77227,0.13684 -1.15625,0.21875 0.77642,8.2818 2.58126,15.81802 6.28125,16.90625 4.72086,1.38849 12.06015,-5.55439 17.65625,-12 -2.49851,-1.03504 -5.25695,-1.44716 -8.09375,-1.0625 -0.52414,0.0711 -1.0581,0.16062 -1.5625,0.28125 -3.02125,-2.86466 -7.01345,-4.57277 -11.28125,-4.5 z"
       id="path13264"
       inkscape:connector-curvature="0" />
  </g>
  <g
     inkscape:groupmode="layer"
     id="layer6"
     style="display:inline"
     inkscape:label="eye_white"
     transform="translate(-14.64867,-16.125414)">
    <path
       style="fill:#ffffff;fill-opacity:1;fill-rule:evenodd;stroke:none"
       d="m 127.41111,267.91577 c 0,0 -3.06225,-5.68702 -3.93717,-12.68644 -0.87493,-6.99941 0.87492,-13.56136 0.87492,-13.56136 0,0 19.68586,-7.87434 28.87259,-7.43688 9.18673,0.43746 20.56078,11.37405 24.06048,24.93541 -0.87493,8.74927 -16.18614,18.37347 -16.18614,18.37347 0,0 -7.80869,0.0483 -17.06107,-1.31239 -14.87375,-2.18732 -16.62361,-7.87434 -16.62361,-8.31181 z"
       id="path10857"
       sodipodi:nodetypes="cscsccsc"
       inkscape:connector-curvature="0" />
    <path
       style="fill:#ffffff;fill-opacity:1;fill-rule:evenodd;stroke:none"
       d="m 59.16681,226.35675 c 0,0 -2.18731,-3.49971 -2.62478,-17.49854 -0.30185,-9.65916 1.74986,-13.99882 1.74986,-13.99882 0,0 3.06225,-3.93718 5.68703,-3.49971 2.62478,0.43746 18.81092,1.74985 21.4357,20.12332 2.62478,17.06107 -7.87434,24.93541 -7.87434,24.93541 0,0 -11.37405,-2.18732 -14.43629,-5.24956 -3.06224,-3.06225 -3.93718,-4.37464 -3.93718,-4.8121 z"
       id="path11744"
       sodipodi:nodetypes="cscsccsc"
       inkscape:connector-curvature="0" />
  </g>
  <g
     inkscape:groupmode="layer"
     id="layer7"
     style="display:inline"
     inkscape:label="eye_blue"
     transform="translate(-14.64867,-16.125414)">
    <path
       style="fill:#214478;fill-opacity:1;fill-rule:evenodd;stroke:none"
       d="m 151.89073,233.35378 c -3.03757,0.17321 -6.87453,1.09807 -10.62335,2.23445 -3.95606,3.3312 -7.29596,8.32238 -9.25916,14.42813 -2.41702,7.51727 -2.23597,15.16473 0,21.16339 2.09185,1.82607 5.94747,3.92485 13.0615,5.07538 5.49842,0.88925 10.20935,1.14408 13.06149,1.24491 3.71438,-3.32234 6.86554,-8.09788 8.73669,-13.9174 2.73006,-8.49078 2.13107,-17.17208 -0.98686,-23.42976 -3.90962,-4.04399 -8.30605,-6.5911 -12.27781,-6.7991 -0.5333,-0.0279 -1.10986,-0.0344 -1.7125,0 z"
       id="path11751"
       inkscape:connector-curvature="0" />
    <path
       style="fill:#214478;fill-opacity:1;fill-rule:evenodd;stroke:none;display:inline"
       d="m 70.26691,192.2402 c -5.02434,3.32282 -8.65356,12.91006 -8.65356,24.22517 0,5.53903 0.85936,10.65559 2.33799,14.83753 3.22805,2.98883 13.81531,5.10336 13.81531,5.10335 0,0 10.20186,-7.93999 7.65155,-25.13874 -1.73213,-12.57976 -9.51916,-17.20287 -15.15129,-19.02731 z"
       id="path11833"
       inkscape:connector-curvature="0" />
    <path
       style="fill:#2d5ea6;fill-opacity:1;fill-rule:evenodd;stroke:none;display:inline"
       d="m 69.18953,198.61781 c -3.63047,2.76423 -6.25287,10.73979 -6.25287,20.15275 0,4.60788 0.62095,8.86431 1.68938,12.34324 2.33252,2.48638 9.98264,4.24545 9.98264,4.24544 0,0 7.37166,-6.60522 5.52886,-20.91274 -1.25161,-10.46502 -6.87835,-14.31095 -10.94801,-15.82869 z"
       id="path14372"
       inkscape:connector-curvature="0" />
    <path
       style="fill:#2a579b;fill-opacity:1;fill-rule:evenodd;stroke:none;display:inline"
       d="m 148.83614,237.52766 c -2.28137,0.1538 -5.16312,0.97502 -7.97868,1.98406 -2.97119,2.95789 -5.47962,7.38976 -6.95409,12.81128 -1.8153,6.67487 -1.67933,13.46533 0,18.79178 1.57109,1.62144 4.46685,3.48502 9.80984,4.50662 4.12959,0.78959 7.66774,1.01587 9.80983,1.1054 2.7897,-2.95003 5.15637,-7.19042 6.5617,-12.35779 2.05041,-7.53928 1.60054,-15.24773 -0.74118,-20.80417 -2.93633,-3.59081 -6.23826,-5.85248 -9.22125,-6.03718 -0.40054,-0.0248 -0.83356,-0.0305 -1.28617,0 z"
       id="path14374"
       inkscape:connector-curvature="0" />
  </g>
  <g
     inkscape:groupmode="layer"
     id="layer25"
     inkscape:label="eye_bluelines"
     transform="translate(-14.64867,-16.125414)">
    <path
       style="fill:#000080;fill-rule:evenodd;stroke:#0f427e;stroke-width:1px;stroke-linecap:butt;stroke-linejoin:miter;stroke-opacity:1"
       d="m 149.28993,262.89501 8.13173,9.19239"
       id="path14381"
       inkscape:connector-curvature="0" />
    <path
       style="fill:none;stroke:#0f427e;stroke-width:1px;stroke-linecap:butt;stroke-linejoin:miter;stroke-opacity:1"
       d="m 151.0577,260.29882 9.8995,7.07106"
       id="path14386"
       inkscape:connector-curvature="0" />
    <path
       style="fill:none;stroke:#0f427e;stroke-width:1px;stroke-linecap:butt;stroke-linejoin:miter;stroke-opacity:1"
       d="m 152.47192,258.17749 10.96015,1.41422"
       id="path14388"
       sodipodi:nodetypes="cc"
       inkscape:connector-curvature="0" />
    <path
       style="fill:none;stroke:#0f427e;stroke-width:1px;stroke-linecap:butt;stroke-linejoin:miter;stroke-opacity:1"
       d="m 152.47192,253.93486 9.89949,-3.18198"
       id="path14390"
       inkscape:connector-curvature="0" />
    <path
       style="fill:none;stroke:#0c4e99;stroke-width:1px;stroke-linecap:butt;stroke-linejoin:miter;stroke-opacity:1"
       d="m 151.0577,250.39932 7.42463,-8.13173"
       id="path14392"
       sodipodi:nodetypes="cc"
       inkscape:connector-curvature="0" />
    <path
       style="fill:none;stroke:#0c4e99;stroke-width:1px;stroke-linecap:butt;stroke-linejoin:miter;stroke-opacity:1"
       d="m 147.52217,265.60212 2.47487,10.96015"
       id="path14394"
       inkscape:connector-curvature="0" />
    <path
       style="fill:none;stroke:#0c4e99;stroke-width:0.76334858px;stroke-linecap:butt;stroke-linejoin:miter;stroke-opacity:1"
       d="m 75.03025,218.10042 5.08195,0 -5.08195,0 z m -0.54365,2.7204 5.36559,4.64634 -5.36559,-4.64634 z m -1.32368,3.53892 2.41098,5.9945 -2.41098,-5.9945 z"
       id="path14403"
       inkscape:connector-curvature="0" />
  </g>
  <g
     inkscape:groupmode="layer"
     id="layer26"
     inkscape:label="eye_whiteinblue"
     style="display:inline"
     transform="translate(-14.64867,-16.125414)">
    <path
       sodipodi:type="arc"
       style="fill:#ffffff;fill-opacity:1;fill-rule:evenodd;stroke:none;display:inline"
       id="path14376"
       sodipodi:cx="336.58282"
       sodipodi:cy="401.4704"
       sodipodi:rx="5.6568542"
       sodipodi:ry="10.960155"
       d="m 342.23968,401.4704 c 0,6.05312 -2.53266,10.96015 -5.65686,10.96015 -3.12419,0 -5.65685,-4.90703 -5.65685,-10.96015 0,-6.05313 2.53266,-10.96016 5.65685,-10.96016 3.07313,0 5.58413,4.75362 5.65534,10.70619"
       sodipodi:start="0"
       sodipodi:end="6.2600116"
       sodipodi:open="true"
       transform="matrix(1.093181,0.21651,-0.23438,1.009839,-124.3278,-222.2382)" />
    <path
       sodipodi:type="arc"
       style="fill:#ffffff;fill-opacity:1;fill-rule:evenodd;stroke:none;display:inline"
       id="path14378"
       sodipodi:cx="336.58282"
       sodipodi:cy="401.4704"
       sodipodi:rx="5.6568542"
       sodipodi:ry="10.960155"
       d="m 342.23968,401.4704 c 0,6.05312 -2.53266,10.96015 -5.65686,10.96015 -3.12419,0 -5.65685,-4.90703 -5.65685,-10.96015 0,-6.05313 2.53266,-10.96016 5.65685,-10.96016 3.07313,0 5.58413,4.75362 5.65534,10.70619"
       sodipodi:start="0"
       sodipodi:end="6.2600116"
       sodipodi:open="true"
       transform="matrix(0.874907,0.05602332,-0.09546841,0.978106,-181.8631,-194.8413)" />
    <path
       style="opacity:0.22727272;fill:#ffffff;fill-opacity:1;fill-rule:evenodd;stroke:none"
       d="m 144.69914,230.94486 c -5.85485,0 -10.625,4.20323 -10.625,9.375 0,0.13566 0.0248,0.27199 0.0312,0.40625 -0.0532,0.007 -0.10298,0.0229 -0.15625,0.0312 -3.94407,0.62113 -6.69092,3.84106 -6.125,7.21875 0.56592,3.3777 4.2122,5.62113 8.15625,5 2.50443,-0.39441 4.53545,-1.8461 5.53125,-3.71875 0.01,0.003 0.0215,-0.003 0.0312,0 0.99617,0.27388 2.05847,0.4375 3.15625,0.4375 5.85485,0 10.59374,-4.20321 10.59375,-9.375 l 0,-0.21875 c -0.13366,-5.09411 -4.82527,-9.15626 -10.59375,-9.15625 z"
       id="path14396"
       inkscape:connector-curvature="0" />
    <path
       style="opacity:0.22727272;fill:#ffffff;fill-opacity:1;fill-rule:evenodd;stroke:none"
       d="m 72.07504,191.95587 c -3.97594,0 -7.21528,3.2633 -7.21528,7.27856 0,0.10532 0.01683,0.21116 0.02122,0.3154 -0.0361,0.006 -0.06993,0.0178 -0.10611,0.0243 -2.67836,0.48224 -4.5437,2.98212 -4.1594,5.60449 0.38431,2.62238 2.86045,4.36413 5.53879,3.8819 1.70073,-0.30621 3.07996,-1.43327 3.7562,-2.88716 0.0066,0.002 0.01463,-0.002 0.02122,0 0.67648,0.21263 1.39787,0.33966 2.14336,0.33966 3.97594,0 7.19405,-3.26328 7.19406,-7.27855 l 0,-0.16984 c -0.09077,-3.95496 -3.27677,-7.10873 -7.19406,-7.10872 z"
       id="path14401"
       inkscape:connector-curvature="0" />
  </g>
  <g
     inkscape:label="eye_lines"
     inkscape:groupmode="layer"
     id="layer1"
     style="display:inline"
     transform="translate(-14.64867,-16.125414)">
    <path
       style="fill:none;stroke:#000000;stroke-width:1px;stroke-linecap:butt;stroke-linejoin:miter;stroke-opacity:1"
       d="m 57.75467,194.73018 c 0,0 -5.25867,0.30934 -9.89867,-5.568 -4.64,-5.87733 -7.73333,-13.61066 -7.73333,-13.61066"
       id="path6378"
       inkscape:connector-curvature="0" />
    <path
       style="fill:none;stroke:#000000;stroke-width:1px;stroke-linecap:round;stroke-linejoin:miter;stroke-opacity:1;marker-start:none;marker-end:none"
       d="m 59.61067,193.94618 c -5.87734,-4.94933 -6.80534,-12.68266 -6.80534,-12.68266"
       id="path6380"
       inkscape:connector-curvature="0" />
    <path
       style="fill:none;stroke:#000000;stroke-width:1px;stroke-linecap:butt;stroke-linejoin:miter;stroke-opacity:1"
       d="m 57.61067,223.80752 c 4.63999,10.82666 19.79733,12.992 19.79733,12.992"
       id="path7269"
       sodipodi:nodetypes="cc"
       inkscape:connector-curvature="0" />
    <path
       style="fill:none;stroke:#000000;stroke-width:1px;stroke-linecap:butt;stroke-linejoin:miter;stroke-opacity:1"
       d="m 127.21066,268.04218 c 6.80534,9.58934 34.336,9.58934 34.336,9.58934"
       id="path7271"
       sodipodi:nodetypes="cc"
       inkscape:connector-curvature="0" />
    <path
       style="fill:none;stroke:#000000;stroke-width:1px;stroke-linecap:butt;stroke-linejoin:miter;stroke-opacity:1"
       d="m 175.46667,264.94885 c 15.46666,7.424 26.60266,-0.61867 26.60266,-0.61867"
       id="path7273"
       inkscape:connector-curvature="0" />
    <path
       style="fill:none;stroke:#000000;stroke-width:1px;stroke-linecap:butt;stroke-linejoin:miter;stroke-opacity:1"
       d="m 176.08533,260.30885 c 8.352,3.09334 15.77601,-3.40266 15.77601,-3.40266"
       id="path7275"
       sodipodi:nodetypes="cc"
       inkscape:connector-curvature="0" />
    <path
       style="fill:none;stroke:#000000;stroke-width:3.20000005;stroke-linecap:round;stroke-linejoin:miter;stroke-miterlimit:4;stroke-opacity:1;stroke-dasharray:none;display:inline"
       d="m 123.7161,241.97443 c 0,0 21.28401,-11.60759 34.02666,-6.496 22.07742,8.85614 19.17867,28.14934 19.17867,28.14934"
       id="path3715"
       sodipodi:nodetypes="csc"
       inkscape:connector-curvature="0" />
    <path
       style="fill:none;stroke:#000000;stroke-width:3.20000005;stroke-linecap:round;stroke-linejoin:miter;stroke-miterlimit:4;stroke-opacity:1;stroke-dasharray:none;display:inline"
       d="m 58.75611,194.45221 c 0,0 2.14775,-6.75591 13.92,0.30934 13.72542,8.23747 13.92,26.912 13.92,26.912"
       id="path4602"
       sodipodi:nodetypes="csc"
       inkscape:connector-curvature="0" />
    <path
       style="fill:none;stroke:#000000;stroke-width:1;stroke-linecap:round;stroke-linejoin:miter;stroke-miterlimit:4;stroke-opacity:1;stroke-dasharray:none;display:inline"
       d="m 60.13743,187.75094 c 0,0 5.85975,-2.42524 14.53867,2.16534 14.15011,7.48449 14.22933,28.768 14.22933,28.768"
       id="path4604"
       sodipodi:nodetypes="csc"
       inkscape:connector-curvature="0" />
    <path
       style="fill:none;stroke:#000000;stroke-width:1;stroke-linecap:round;stroke-linejoin:miter;stroke-miterlimit:4;stroke-opacity:1;stroke-dasharray:none;display:inline"
       d="m 125.73743,237.59355 c 0,0 13.81548,-10.93724 31.55199,-7.25866 22.62214,4.69186 24.12801,25.81866 24.12801,25.81866"
       id="path5491"
       sodipodi:nodetypes="csc"
       inkscape:connector-curvature="0" />
    <path
       style="fill:none;stroke:#000000;stroke-width:1;stroke-linecap:round;stroke-linejoin:miter;stroke-miterlimit:4;stroke-opacity:1;stroke-dasharray:none"
       d="m 162.73919,278.60137 c 0,0 4.89121,0.67027 6.52162,4.02162"
       id="path14412"
       inkscape:connector-curvature="0" />
    <path
       style="fill:none;stroke:#000000;stroke-width:0.81384844;stroke-linecap:round;stroke-linejoin:miter;stroke-miterlimit:4;stroke-opacity:1;stroke-dasharray:none"
       d="m 158.194,279.55618 3.612,5.112"
       id="path14414"
       inkscape:connector-curvature="0" />
    <path
       style="fill:none;stroke:#000000;stroke-width:1px;stroke-linecap:round;stroke-linejoin:miter;stroke-opacity:1"
       d="M 55.4109,223.85016 50.0891,222.3742"
       id="path14416"
       inkscape:connector-curvature="0" />
    <path
       style="fill:none;stroke:#000000;stroke-width:1px;stroke-linecap:butt;stroke-linejoin:miter;stroke-opacity:1"
       d="m 56.75,226.11218 c 0,0 -0.75,-0.75 -2.75,0"
       id="path14420"
       inkscape:connector-curvature="0" />
  </g>
  <g
     inkscape:groupmode="layer"
     id="layer9"
     inkscape:label="hair_head"
     style="display:inline"
     transform="translate(-14.64867,-16.125414)">
    <path
       style="fill:#ff4e00;fill-opacity:1;fill-rule:evenodd;stroke:#6e0700;stroke-width:4;stroke-linecap:butt;stroke-linejoin:miter;stroke-miterlimit:4;stroke-opacity:1;stroke-dasharray:none"
       d="m 77.16505,96.95715 c 0,0 2.64267,-19.44762 17.67766,-32.52691 19.58177,-17.03465 44.90129,-26.16296 63.63961,-24.39519 21.57504,2.03538 37.83022,14.84925 37.83022,14.84925 0,0 29.58274,-5.39934 53.74011,5.3033 27.93072,12.37437 42.38667,30.9614 47.37616,46.66905 9.54594,30.05203 7.57194,50.54153 2.12132,78.13529 -5.65686,28.63783 -7.07107,38.18377 -26.87006,63.63962 -12.29415,15.80677 -50.00179,30.8198 -50.00179,30.8198 0,0 19.5962,-16.12071 19.5962,-27.28427 0,-16.97056 -9.19239,-43.13351 -9.19239,-43.13351 L 183.23106,139.03 76.45794,104.38177 77.16505,96.95715 z"
       id="path11843"
       sodipodi:nodetypes="csscsssscscccc"
       inkscape:connector-curvature="0" />
  </g>
  <g
     inkscape:groupmode="layer"
     id="layer15"
     inkscape:label="ear"
     style="display:inline"
     transform="translate(-14.64867,-16.125414)">
    <path
       style="fill:#ffb565;fill-opacity:1;fill-rule:evenodd;stroke:#480d00;stroke-width:4;stroke-linecap:round;stroke-linejoin:round;stroke-miterlimit:4;stroke-opacity:1;stroke-dasharray:none;display:inline"
       d="m 226.95036,243.44957 c 0,0 8.13173,-10.96015 17.67767,-4.24263 8.26955,5.81932 5.65686,15.90989 -1.41421,22.98096 -10.96586,10.96586 -22.27387,18.73833 -22.27387,18.73833"
       id="path13249"
       inkscape:transform-center-y="3.8890873"
       sodipodi:nodetypes="cssc"
       inkscape:connector-curvature="0" />
  </g>
  <g
     inkscape:groupmode="layer"
     id="layer8"
     style="display:inline"
     inkscape:label="hair_front"
     transform="translate(-14.64867,-16.125414)">
    <path
       style="fill:#ff4e00;fill-opacity:1;fill-rule:evenodd;stroke:#6e0700;stroke-width:4;stroke-linecap:round;stroke-linejoin:round;stroke-miterlimit:4;stroke-opacity:1;stroke-dasharray:none"
       d="m 77.34182,93.28037 c 0,0 -21.03643,11.8085 -33.05724,27.0113 -10.2033,12.90418 -10.6066,36.416 -10.6066,36.416 0,0 -2.12132,1.06066 5.48008,10.60661 3.97039,4.98608 8.48528,7.6014 8.48528,7.6014 0,0 0.7071,-4.5962 2.82842,-11.49049 1.61412,-5.24591 -0.53033,12.72792 -0.53033,12.72792 0,0 1.91272,3.43618 10.07628,10.78338 7.07107,6.36396 7.87437,5.69239 7.87437,5.69239 0,0 9.41625,-32.62121 14.92981,-43.69938 5.42463,-10.89949 16.11701,-22.03122 16.11701,-22.03122 0,0 -7.63172,10.71751 -13.28858,30.16295 -5.4137,18.60959 -9.54593,42.24963 -9.54593,42.24963 0,0 15.6321,10.84387 24.04162,15.73312 7.6014,4.41942 20.15255,8.13173 20.15255,8.13173 2.77124,-5.74237 6.1965,-9.49272 8.13173,-15.55634 0,0 -2.82842,9.54593 -3.53553,14.14212 -0.51002,3.3151 -0.35356,1.76777 -0.35356,1.76777 0,0 4.24264,1.76777 6.36396,2.12132 2.12132,0.35356 4.59619,1.06067 4.59619,1.06067 0,0 11.13693,-33.4108 11.84404,-41.89608 0.7071,-8.48528 3.00521,-38.7141 3.00521,-38.7141 0,0 4.77297,32.35014 4.06586,43.66384 -0.7071,11.31371 -8.30851,38.7141 -8.30851,38.7141 0,0 19.79899,9.8995 31.46626,11.66726 11.66726,1.76777 25.45584,1.41422 25.45584,1.41422 0,0 4.24264,-16.97057 3.53553,-25.10229 -0.7071,-8.13173 1.94455,12.37436 1.94455,16.26345 0,3.88909 -0.53033,8.83884 -0.53033,8.83884 0,0 15.9099,-0.35356 24.39518,-4.5962 8.48528,-4.24264 11.66726,-8.48528 11.66726,-8.48528 0,0 1.41422,-28.28427 -2.47487,-45.25483 -3.88909,-16.97056 -20.5061,-38.18377 -20.5061,-38.18377"
       id="path11838"
       sodipodi:nodetypes="cscscscscscscsccscscscscscsscscsc"
       inkscape:connector-curvature="0" />
  </g>
  <g
     inkscape:groupmode="layer"
     id="layer17"
     inkscape:label="hair_f_light1"
     style="display:inline"
     transform="translate(-14.64867,-16.125414)">
    <path
       style="fill:#ff8200;fill-opacity:1;fill-rule:evenodd;stroke:none;display:inline"
       d="M 110.1066,100.61091 C 92.26233,97.19209 75.42948,98.28428 60.6069,106.88948 37.855,122.72415 36.22859,143.73771 35.625,158.21875 c 2.48243,4.99893 6.41973,10.36313 10.71875,13.09375 1.50937,-3.48292 0.57238,-9.35958 4.6875,-10.84375 4.2283,1.90385 0.87075,8.02001 1.39592,11.49457 -1.89125,6.16247 5.77085,9.46028 8.94783,13.47418 3.14165,3.45951 6.47882,5.84999 6.7622,-0.5719 6.033,-19.17352 10.92875,-39.54173 25.11758,-54.58471 1.22919,-3.59877 7.92044,-6.5982 6.62022,-1.18714 -12.7689,20.85196 -16.72244,45.52421 -21.59375,69.28125 12.88139,8.77968 25.74768,18.24431 41,22.40625 2.4328,-4.65179 5.71155,-8.71289 7.25,-13.78125 6.59445,-0.80607 1.74838,6.21586 1.5106,9.72092 -0.4242,2.60244 -2.81694,6.64398 1.64565,6.59158 5.60298,3.19003 5.70893,-3.31484 7.18204,-7.32401 4.97216,-15.25584 9.74586,-30.68695 9.70456,-46.94041 0.57136,-7.70494 1.17725,-15.40724 1.76965,-23.11058 6.6526,-2.7636 3.85603,7.17184 5.46875,10.75 2.15699,16.83207 4.59918,34.16652 -0.40625,50.75 -1.49664,6.6928 -3.1905,13.33542 -4.9375,19.96875 14.15455,7.0976 29.37957,12.53504 45.40568,12.09638 3.85629,-0.017 9.14495,1.57272 8.50057,-4.09638 1.33172,-6.87541 2.71255,-13.77327 2.09375,-20.8125 5.88704,-3.3104 4.13029,4.79241 5.125,7.96875 1.01115,5.45474 0.7494,11.89679 0.90625,16.875 9.6214,-0.77282 21.16205,-1.91621 27.875,-9.09375 4.66357,-36.22119 -16.36761,-70.80913 -43.90625,-92.78125 -23.93828,-16.57477 -31.45534,-19.20477 -62.56316,-29.55822 -0.66679,-0.004 -21.13228,-7.39919 -21.79899,-7.39337 z"
       id="path13476"
       sodipodi:nodetypes="cccccccccccccccccccccccccccccc"
       inkscape:connector-curvature="0" />
  </g>
  <g
     inkscape:groupmode="layer"
     id="layer20"
     inkscape:label="hair_light1"
     style="display:inline"
     transform="translate(-14.64867,-16.125414)">
    <path
       style="fill:#ff8200;fill-opacity:1;fill-rule:evenodd;stroke:none"
       d="m 155.5,47.375 c -27.6901,0 -58.75548,21.00462 -67.89337,44.00245 8.95389,-4.41668 15.62049,-5.8456 27.14032,-6.19915 9.80431,-0.30091 11.68621,1.01011 34.15502,4.68934 C 157.46519,76.28685 175.06789,61.87539 191.75,57.8125 181.41795,51.21305 168.93392,47.375 155.5,47.375 z"
       id="path13460"
       sodipodi:nodetypes="ccsccc"
       inkscape:connector-curvature="0" />
    <path
       style="fill:#ff8200;fill-opacity:1;fill-rule:evenodd;stroke:none"
       d="m 223,57.875 c -37.89642,-2 -56.50151,5.3817 -60.44362,35.24264 22.33315,16.01408 63.47993,38.77752 80.66605,88.53861 C 270.06214,179.85105 287.5,146.13849 287.5,118.375 c 0,-33.39601 -28.89602,-60.5 -64.5,-60.5 z"
       id="path13468"
       sodipodi:nodetypes="cccsc"
       inkscape:connector-curvature="0" />
  </g>
  <g
     inkscape:groupmode="layer"
     id="layer11"
     inkscape:label="hair_fballs"
     style="display:inline"
     transform="translate(-14.64867,-16.125414)">
    <path
       sodipodi:type="arc"
       style="fill:#ce1a1a;fill-opacity:1;fill-rule:evenodd;stroke:#6e0700;stroke-width:4.87670469;stroke-linecap:round;stroke-linejoin:round;stroke-miterlimit:4;stroke-opacity:1;stroke-dasharray:none;stroke-dashoffset:0"
       id="path12536"
       sodipodi:cx="462.80139"
       sodipodi:cy="257.57416"
       sodipodi:rx="26.516504"
       sodipodi:ry="26.516504"
       d="m 489.3179,257.57416 c 0,14.64466 -11.87185,26.5165 -26.51651,26.5165 -14.64466,0 -26.5165,-11.87184 -26.5165,-26.5165 0,-14.64466 11.87184,-26.51651 26.5165,-26.51651 14.64466,0 26.51651,11.87185 26.51651,26.51651 z"
       transform="matrix(0.820226,0,0,0.820226,-79.5213,-106.0034)" />
    <path
       sodipodi:type="arc"
       style="fill:#ce1a1a;fill-opacity:1;fill-rule:evenodd;stroke:#6e0700;stroke-width:4.87670469;stroke-linecap:round;stroke-linejoin:round;stroke-miterlimit:4;stroke-opacity:1;stroke-dasharray:none;stroke-dashoffset:0"
       id="path12538"
       sodipodi:cx="462.80139"
       sodipodi:cy="257.57416"
       sodipodi:rx="26.516504"
       sodipodi:ry="26.516504"
       d="m 489.3179,257.57416 c 0,14.64466 -11.87185,26.5165 -26.51651,26.5165 -14.64466,0 -26.5165,-11.87184 -26.5165,-26.5165 0,-14.64466 11.87184,-26.51651 26.5165,-26.51651 14.64466,0 26.51651,11.87185 26.51651,26.51651 z"
       transform="matrix(0.820226,0,0,0.820226,-112.225,-71.17836)" />
    <path
       sodipodi:type="arc"
       style="fill:#ff0000;fill-opacity:1;fill-rule:evenodd;stroke:none;display:inline"
       id="path13507"
       sodipodi:cx="148"
       sodipodi:cy="186.36218"
       sodipodi:rx="50"
       sodipodi:ry="38"
       d="m 198,186.36218 c 0,20.98682 -22.38576,38 -50,38 -27.61424,0 -50,-17.01318 -50,-38 0,-20.98682 22.38576,-38 50,-38 27.16282,0 49.35717,16.48128 49.98658,37.11948"
       sodipodi:start="0"
       sodipodi:end="6.2600116"
       sodipodi:open="true"
       transform="matrix(0.19,0,0,0.25,232.88,88.7716)" />
    <path
       sodipodi:type="arc"
       style="fill:#ff2a2a;fill-opacity:1;fill-rule:evenodd;stroke:none;display:inline"
       id="path13510"
       sodipodi:cx="148"
       sodipodi:cy="186.36218"
       sodipodi:rx="50"
       sodipodi:ry="38"
       d="m 198,186.36218 c 0,20.98682 -22.38576,38 -50,38 -27.61424,0 -50,-17.01318 -50,-38 0,-20.98682 22.38576,-38 50,-38 27.16282,0 49.35717,16.48128 49.98658,37.11948"
       sodipodi:start="0"
       sodipodi:end="6.2600116"
       sodipodi:open="true"
       transform="matrix(0.19,0,0,0.25,267.88,50.7716)" />
    <path
       sodipodi:type="arc"
       style="fill:#ce1a1a;fill-opacity:1;fill-rule:evenodd;stroke:#6e0700;stroke-width:4;stroke-linecap:round;stroke-linejoin:round;stroke-miterlimit:4;stroke-opacity:1;stroke-dasharray:none;stroke-dashoffset:0"
       id="path12534"
       sodipodi:cx="462.80139"
       sodipodi:cy="257.57416"
       sodipodi:rx="26.516504"
       sodipodi:ry="26.516504"
       d="m 489.3179,257.57416 c 0,14.64466 -11.87185,26.5165 -26.51651,26.5165 -14.64466,0 -26.5165,-11.87184 -26.5165,-26.5165 0,-14.64466 11.87184,-26.51651 26.5165,-26.51651 14.64466,0 26.51651,11.87185 26.51651,26.51651 z"
       transform="translate(-189.0607,-147.182)" />
    <path
       sodipodi:type="arc"
       style="fill:#ff0000;fill-opacity:1;fill-rule:evenodd;stroke:none;display:inline"
       id="path13505"
       sodipodi:cx="148"
       sodipodi:cy="186.36218"
       sodipodi:rx="50"
       sodipodi:ry="38"
       d="m 198,186.36218 c 0,20.98682 -22.38576,38 -50,38 -27.61424,0 -50,-17.01318 -50,-38 0,-20.98682 22.38576,-38 50,-38 27.16282,0 49.35717,16.48128 49.98658,37.11948"
       sodipodi:start="0"
       sodipodi:end="6.2600116"
       sodipodi:open="true"
       transform="matrix(0.34,0,0,0.447368,218.68,21.9896)" />
  </g>
  <g
     inkscape:groupmode="layer"
     id="layer10"
     inkscape:label="hair_fpigtail"
     style="display:inline"
     transform="translate(-14.64867,-16.125414)">
    <path
       style="fill:#ff4e00;fill-opacity:1;fill-rule:evenodd;stroke:#6e0700;stroke-width:4;stroke-linecap:butt;stroke-linejoin:miter;stroke-miterlimit:4;stroke-opacity:1;stroke-dasharray:none"
       d="m 304.59398,95.93654 c 18.17867,-6.75193 44.76527,-0.632 61.78426,19.36108 16.93231,19.89124 20.94254,41.19288 11.18122,79.97458 -7.3909,36.54835 -42.87498,45.32852 -42.47587,73.52389 0.13887,9.93365 11.65377,12.12806 11.65377,12.12806 -94.85534,-33.94421 -82.58745,-84.1064 -83.87744,-122.8832 -0.92549,-27.56624 16.02852,-52.55688 41.73406,-62.10441 z"
       id="path12540"
       sodipodi:nodetypes="cssscss"
       inkscape:connector-curvature="0" />
  </g>
  <g
     inkscape:groupmode="layer"
     id="layer21"
     inkscape:label="hair_fpigt_light"
     style="display:inline"
     transform="translate(-14.64867,-16.125414)">
    <path
       style="fill:#ff8200;fill-opacity:1;fill-rule:evenodd;stroke:none"
       d="m 354.5,117.85945 c 11,19.93904 13.5,54.12026 2,69.31191 -11.5,15.19165 -14.5,18.51482 -35.5,38.9286 -10.08342,9.80194 -1.5,23.26222 -1.5,23.26222 0,0 -20,-8.5453 -33.5,-27.06013 -13.5,-18.51482 -18,-33.70647 -18,-59.34238 0,-46.06176 40.72781,-90.17178 86.5,-45.10022 z"
       id="path13487"
       sodipodi:nodetypes="csscsss"
       inkscape:connector-curvature="0" />
  </g>
</svg>
