<?xml version="1.0" encoding="UTF-8" standalone="no"?>
<!-- Created with Inkscape (http://www.inkscape.org/) -->

<svg
   xmlns:dc="http://purl.org/dc/elements/1.1/"
   xmlns:cc="http://creativecommons.org/ns#"
   xmlns:rdf="http://www.w3.org/1999/02/22-rdf-syntax-ns#"
   xmlns:svg="http://www.w3.org/2000/svg"
   xmlns="http://www.w3.org/2000/svg"
   xmlns:sodipodi="http://sodipodi.sourceforge.net/DTD/sodipodi-0.dtd"
   xmlns:inkscape="http://www.inkscape.org/namespaces/inkscape"
   height="105.6368"
   id="svg1444"
   inkscape:export-filename="/root/img/download/openclipart-0.12/people/happy_woman_dirk_struve_01.png"
   inkscape:export-xdpi="72.550003"
   inkscape:export-ydpi="72.550003"
   inkscape:version="0.48.1 r9760"
   sodipodi:docname="happy_woman_dirk_struve_01.svg"
   sodipodi:version="0.32"
   width="99.241692"
   version="1.1">
  <metadata
     id="metadata3970">
    <rdf:RDF>
      <cc:Work
         rdf:about="">
        <dc:title>Happy Woman</dc:title>
        <dc:description>Cartoon of a happy woman.</dc:description>
        <dc:subject>
          <rdf:Bag>
            <rdf:li>hash(0x885c2bc)</rdf:li>
            <rdf:li>people</rdf:li>
            <rdf:li>hash(0x88f739c)</rdf:li>
          </rdf:Bag>
        </dc:subject>
        <dc:publisher>
          <cc:Agent
             rdf:about="http://www.openclipart.org">
            <dc:title>Dirk Struve</dc:title>
          </cc:Agent>
        </dc:publisher>
        <dc:creator>
          <cc:Agent>
            <dc:title>Dirk Struve</dc:title>
          </cc:Agent>
        </dc:creator>
        <dc:rights>
          <cc:Agent>
            <dc:title>Dirk Struve</dc:title>
          </cc:Agent>
        </dc:rights>
        <dc:date />
        <dc:format>image/svg+xml</dc:format>
        <dc:type
           rdf:resource="http://purl.org/dc/dcmitype/StillImage" />
        <cc:license
           rdf:resource="http://web.resource.org/cc/PublicDomain" />
        <dc:language>en</dc:language>
      </cc:Work>
      <cc:License
         rdf:about="http://web.resource.org/cc/PublicDomain">
        <cc:permits
           rdf:resource="http://web.resource.org/cc/Reproduction" />
        <cc:permits
           rdf:resource="http://web.resource.org/cc/Distribution" />
        <cc:permits
           rdf:resource="http://web.resource.org/cc/DerivativeWorks" />
      </cc:License>
    </rdf:RDF>
  </metadata>
  <defs
     id="defs3" />
  <sodipodi:namedview
     bordercolor="#666666"
     borderopacity="1.0"
     id="base"
     inkscape:current-layer="layer1"
     inkscape:cx="49.618239"
     inkscape:cy="43.214666"
     inkscape:document-units="px"
     inkscape:pageopacity="0.0000000"
     inkscape:pageshadow="2"
     inkscape:window-height="553"
     inkscape:window-width="800"
     inkscape:window-x="193"
     inkscape:window-y="60"
     inkscape:zoom="4.0050528"
     pagecolor="#ffffff"
     showgrid="false"
     fit-margin-top="0"
     fit-margin-left="0"
     fit-margin-right="0"
     fit-margin-bottom="0"
     inkscape:window-maximized="0" />
  <g
     id="layer1"
     inkscape:groupmode="layer"
     inkscape:label="Layer 1"
     transform="translate(-7.4502019,-3.9526573)">
    <path
       d="m 85.771488,59.031323 c -11.0131,31.712248 -26.0045,46.102487 -36.8615,49.933137 -14.6876,-2.65198 -28.9977,-20.580839 -34.5042,-49.933137 0,-29.352289 15.9859,-53.1744292 35.6828,-53.1744292 19.697,0 35.6829,23.8221402 35.6829,53.1744292 z"
       id="path1462"
       sodipodi:nodetypes="ccccc"
       style="fill:#ffffff;fill-opacity:1;fill-rule:nonzero;stroke:#000100;stroke-width:1.25;stroke-miterlimit:4;stroke-opacity:1"
       inkscape:connector-curvature="0" />
    <path
       d="m 46.887818,59.720278 c -2.0395,2.666989 -4.8811,6.352339 -0.6456,7.153649 l 4.3889,-1.34414"
       id="path1466"
       sodipodi:nodetypes="ccc"
       style="fill:none;stroke:#000000;stroke-width:1.25;stroke-linecap:butt;stroke-linejoin:miter;stroke-miterlimit:4;stroke-opacity:1"
       inkscape:connector-curvature="0" />
    <path
       d="m -42.54255,517.20392 c 0,1.30531 -0.906998,2.36347 -2.025836,2.36347 -1.118838,0 -2.025836,-1.05816 -2.025836,-2.36347 0,-1.30531 0.906998,-2.36348 2.025836,-2.36348 0.888396,0 1.67314,0.67529 1.935489,1.66553"
       id="path1468"
       sodipodi:cx="-44.568386"
       sodipodi:cy="517.20392"
       sodipodi:end="5.9834092"
       sodipodi:open="true"
       sodipodi:rx="2.0258358"
       sodipodi:ry="2.3634751"
       sodipodi:start="0"
       sodipodi:type="arc"
       style="fill:#000000;fill-opacity:1;fill-rule:nonzero;stroke:#000100;stroke-width:1.25;stroke-miterlimit:4;stroke-opacity:1"
       transform="translate(79.51907,-466.4991)" />
    <path
       d="m 55.854888,75.028341 c 0,9.30208 -4.645,16.85159 -10.3682,16.85159 -5.7232,0 -11.0154,-8.242 -10.9826,-16.77757 6.1297,5.28393 16.4733,4.84985 21.3508,-0.07402 z"
       id="path1470"
       sodipodi:nodetypes="cccc"
       style="fill:none;stroke:#000100;stroke-width:1.25;stroke-miterlimit:4;stroke-opacity:1"
       inkscape:connector-curvature="0" />
    <path
       d="m 63.388248,98.321643 c 45.888112,-57.642049 2.99218,-60.398989 -1.21194,-59.774269 -8.19446,5.92471 -36.64248,29.259797 -37.0441,47.818537 -1.19108,3.67396 1.08964,7.434638 12.25624,17.548469 -2.05498,0.31372 -10.2037,2.81982 -13.78045,4.55259 -37.71703,-21.116669 -4.16101,-129.895796 46.75407,-99.0446558 24.41069,-8.89537023 54.370152,-7.1069508 22.52676,80.6547868"
       id="path1472"
       sodipodi:nodetypes="ccccccc"
       style="fill:#0a080b;fill-opacity:1;fill-rule:nonzero;stroke:none"
       inkscape:connector-curvature="0" />
    <path
       d="m 83.033388,52.172453 c 0.2495,-1.41702 1.3745,-2.68735 1.9651,-3.68386 0.7909,-1.33425 0.666,-1.57024 2.1836,-2.21031 1.1381,-0.480029 1.1286,0.79892 1.7468,1.84193 0.428,0.72207 -0.1673,4.81329 -0.2183,5.15739 -0.2419,1.63236 -0.8687,2.19424 -1.3102,3.68384 -0.4361,1.47151 -1.0019,1.95033 -1.7468,2.5787 -0.7392,0.62354 -1.0323,2.34431 -1.7468,2.94708 -0.1302,0.10983 0,0.49119 0,0.73677"
       id="path1474"
       style="fill:#ffffff;fill-opacity:1;fill-rule:evenodd;stroke:#000000;stroke-width:0.6805932pt;stroke-linecap:butt;stroke-linejoin:miter;stroke-opacity:1"
       inkscape:connector-curvature="0" />
    <path
       d="m 54.696788,56.548063 c 4.6483,-4.98808 6.9284,-4.84044 11.0496,0.09639"
       id="path1476"
       sodipodi:nodetypes="cc"
       style="fill:none;stroke:#000000;stroke-width:1.06726384;stroke-linecap:butt;stroke-linejoin:miter;stroke-miterlimit:4;stroke-opacity:1"
       inkscape:connector-curvature="0" />
  </g>
</svg>
