<?xml version="1.0" encoding="UTF-8" standalone="no"?>
<!-- Created with Inkscape (http://www.inkscape.org/) -->

<svg
   xmlns:dc="http://purl.org/dc/elements/1.1/"
   xmlns:cc="http://creativecommons.org/ns#"
   xmlns:rdf="http://www.w3.org/1999/02/22-rdf-syntax-ns#"
   xmlns:svg="http://www.w3.org/2000/svg"
   xmlns="http://www.w3.org/2000/svg"
   xmlns:sodipodi="http://sodipodi.sourceforge.net/DTD/sodipodi-0.dtd"
   xmlns:inkscape="http://www.inkscape.org/namespaces/inkscape"
   width="121.31203"
   height="54.461643"
   id="svg2"
   sodipodi:version="0.32"
   inkscape:version="0.48.1 r9760"
   sodipodi:docname="nicubunu_Closed_mouth.svg"
   inkscape:export-filename="/home/nicu/Desktop/potato_guy.png"
   inkscape:export-xdpi="90.000000"
   inkscape:export-ydpi="90.000000"
   inkscape:output_extension="org.inkscape.output.svg.inkscape"
   version="1.1">
  <defs
     id="defs3" />
  <sodipodi:namedview
     id="base"
     pagecolor="#ffffff"
     bordercolor="#666666"
     borderopacity="1.0"
     inkscape:pageopacity="0.0"
     inkscape:pageshadow="2"
     inkscape:zoom="0.93303299"
     inkscape:cx="248.91156"
     inkscape:cy="-39.94172"
     inkscape:document-units="px"
     inkscape:current-layer="layer1"
     inkscape:window-width="1152"
     inkscape:window-height="791"
     inkscape:window-x="0"
     inkscape:window-y="24"
     showguides="true"
     inkscape:guide-bbox="true"
     showgrid="false"
     fit-margin-top="0"
     fit-margin-left="0"
     fit-margin-right="0"
     fit-margin-bottom="0"
     inkscape:window-maximized="0" />
  <g
     inkscape:label="Layer 1"
     inkscape:groupmode="layer"
     id="layer1"
     transform="translate(-3.7495695,-41.940168)">
    <g
       id="g10203"
       transform="matrix(2.133762,0,0,2.133762,-440.6854,-869.6769)">
      <path
         sodipodi:nodetypes="ccccccccccc"
         id="path10193"
         d="m 246.5578,428.56384 c -4.08776,-0.54277 -8.26399,3.78301 -10.1875,6.375 -2.36302,0.68035 -3.16757,-4.59263 -5.42076,-4.90625 -3.32226,-1.95767 -6.67252,-1.60096 -9.47322,1.11273 -1.94196,1.60569 -3.4261,4.20612 -4.10602,6.56473 -0.33322,2.28148 -0.84138,2.1115 0.16852,3.14398 1.03655,2.74588 2.55321,4.58601 4.27902,5.76135 7.15249,5.66443 17.16329,6.60951 26.38394,2.50539 2.67464,-1.48512 4.35981,-3.09202 6.23549,-5.48773 0.61897,-2.05225 2.97543,-2.35942 0.67076,-7.25447 -1.87942,-3.59116 -4.3103,-7.29408 -8.55023,-7.81473 z"
         style="fill:#ed6826;fill-opacity:1;fill-rule:evenodd;stroke:none"
         inkscape:connector-curvature="0" />
      <path
         sodipodi:nodetypes="ccccccc"
         id="path10197"
         d="m 218.49599,436.1452 c 0,0 7.95495,-12.90469 14.84924,-1.94453 2.2981,1.41421 7.07107,-7.77818 10.42983,-6.36397 5.65685,-0.17677 11.3137,9.19239 11.49048,10.07628 -3.00521,-1.59099 -4.41942,-4.94976 -10.07627,-4.94976 -5.65685,0 -7.42462,1.41422 -10.6066,1.76777 -5.83363,-0.53032 -11.49048,-2.65165 -16.08668,1.41421 z"
         style="fill:#fefefe;fill-opacity:0.1254902;fill-rule:evenodd;stroke:none"
         inkscape:connector-curvature="0" />
      <path
         sodipodi:nodetypes="ccccccc"
         id="path10195"
         d="m 220.61732,432.9774 c 0,0 7.24784,-9.54594 14.14213,1.41422 2.2981,1.41421 7.07107,-7.77818 10.42983,-6.36397 5.65685,-0.17677 9.89949,7.42462 10.07627,8.30851 -3.00521,-1.59099 -3.71232,-4.77298 -9.36917,-4.77298 -5.65685,0 -6.71751,3.00521 -9.89949,3.35876 -3.18198,0.35356 -8.66206,-5.3033 -15.37957,-1.94454 z"
         style="fill:#fefefe;fill-opacity:0.1254902;fill-rule:evenodd;stroke:none"
         inkscape:connector-curvature="0" />
      <path
         sodipodi:nodetypes="ccccc"
         id="path10201"
         d="m 220.58438,439.11549 c 4.37641,-0.98246 9.95857,-1.02712 13.79909,2.54546 2.00957,1.8756 15.27277,-4.82297 19.55986,-2.00957 -4.42106,2.41148 -14.46894,6.96653 -18.08617,2.94737 -2.4115,2.54546 -11.52157,0.80383 -15.27278,-3.48326 z"
         style="fill:#fefefe;fill-opacity:0.1254902;fill-rule:evenodd;stroke:none"
         inkscape:connector-curvature="0" />
      <path
         sodipodi:nodetypes="ccccc"
         id="path10199"
         d="m 222.25902,438.60275 c 4.37641,-0.98246 7.68105,-0.49123 11.52157,3.08135 2.00957,1.8756 13.26319,-5.35886 17.55028,-2.54546 -3.88517,0.40191 -9.51198,6.29667 -16.07659,3.48326 -2.54547,-0.13397 -9.24405,0.26794 -12.99526,-4.01915 z"
         style="fill:#fefefe;fill-opacity:0.1254902;fill-rule:evenodd;stroke:none"
         inkscape:connector-curvature="0" />
      <path
         id="path10041"
         d="m 246.28125,427.28125 c -4.08776,-0.54277 -8.26399,3.78301 -10.1875,6.375 -2.36302,0.68035 -2.93431,-4.59263 -5.1875,-4.90625 -3.32226,-1.95767 -7.60555,-0.90119 -10.40625,1.8125 -1.94196,1.60569 -2.72633,4.67264 -3.40625,7.03125 -0.33322,2.28148 -4.42905,3.10515 -5.9375,4.21875 -1.23624,2.13846 4.39635,-1.40748 5.40625,-0.375 1.74366,0.97811 2.08669,3.35591 3.8125,4.53125 7.15249,7.06398 19.49587,9.00591 28.25,3.96875 2.67464,-1.48512 4.59307,-3.79179 6.46875,-6.1875 0.61897,-2.05225 4.32473,-2.62893 6.375,-2.78125 -1.76632,-0.79313 -3.63283,-0.5112 -5.9375,-5.40625 -1.87942,-3.59116 -5.01007,-7.7606 -9.25,-8.28125 z m -0.0625,1.6875 c 4.54856,0.7176 7.5373,4.80295 9.28125,8.75 1.11286,0.95764 0.30516,3.1199 -1.09375,1.65625 -3.08378,-1.11683 -6.48767,-1.8255 -9.75,-1.1875 -2.92832,0.76225 -5.43437,2.36082 -8.5625,2.40625 -1.9408,0.19216 -3.73738,-0.35723 -4.84375,-1.90625 -1.81836,-2.06906 -4.761,-2.32185 -7.28125,-1.6875 -1.89638,0.42573 -3.70888,1.21238 -5.5625,1.78125 -1.58363,-0.95033 0.78253,-3.09154 1.09375,-4.40625 1.84598,-3.17883 5.77038,-5.44992 9.4375,-4.1875 2.69135,0.86804 3.9844,4.71209 6.6875,5.125 2.70474,0.14778 2.10975,-2.95775 4.34375,-3.78125 1.98081,-1.6351 3.75648,-2.75851 6.25,-2.5625 z m 15.875,7.0625 c -0.41881,0.18816 1.47934,3.83755 1.59375,5.4375 -0.69563,2.84913 -1.924,3.41446 -3.46875,5.03125 2.1964,0.31982 4.14612,-1.50747 4.90625,-4.03125 0.23058,-3.17259 -2.15297,-5.36386 -3.03125,-6.4375 z m -51.03125,0.875 c 0,0 -0.93227,0.6181 -1.71875,1.65625 -0.77616,1.02452 -1.42837,2.53286 -0.8125,4.21875 0.008,0.0224 -0.009,0.04 0,0.0625 l 0.0312,0 c 0.58014,2.39096 3.28125,3.5625 3.28125,3.5625 l -2.59375,-4.5625 1.8125,-4.9375 z m 16.90625,1.71875 c 1.37489,0.30292 2.36365,1.55855 3.46875,2.59375 2.35229,2.27404 6.23906,1.67103 8.96875,0.5 2.53911,-1.19424 5.26427,-3.23348 8.15625,-2.65625 2.478,0.22801 4.87586,0.94691 7.1875,1.84375 -5.03676,8.93197 -17.13732,12.36255 -26.6875,8.71875 -4.9847,-1.7679 -9.10469,-4.60766 -11.71875,-9.21875 2.80324,-1.31324 5.98872,-1.45228 9.09375,-1.71875 0.56875,-0.16089 1.07295,-0.16347 1.53125,-0.0625 z"
         style="fill:#000000;fill-opacity:1;fill-rule:evenodd;stroke:none"
         inkscape:connector-curvature="0" />
    </g>
  </g>
  <metadata
     id="metadata2490">
    <rdf:RDF>
      <cc:Work
         rdf:about="">
        <dc:title>mouth - body part</dc:title>
        <dc:description />
        <dc:subject>
          <rdf:Bag>
            <rdf:li>mouth</rdf:li>
          </rdf:Bag>
        </dc:subject>
        <dc:publisher>
          <cc:Agent>
            <dc:title />
          </cc:Agent>
        </dc:publisher>
        <dc:creator>
          <cc:Agent>
            <dc:title>Nicu Buculei</dc:title>
          </cc:Agent>
        </dc:creator>
        <dc:rights>
          <cc:Agent>
            <dc:title>Nicu Buculei</dc:title>
          </cc:Agent>
        </dc:rights>
        <dc:date />
        <dc:format>image/svg+xml</dc:format>
        <dc:type
           rdf:resource="http://purl.org/dc/dcmitype/StillImage" />
        <cc:license
           rdf:resource="http://web.resource.org/cc/PublicDomain" />
        <dc:language>en</dc:language>
      </cc:Work>
      <cc:License
         rdf:about="http://web.resource.org/cc/PublicDomain">
        <cc:permits
           rdf:resource="http://web.resource.org/cc/Reproduction" />
        <cc:permits
           rdf:resource="http://web.resource.org/cc/Distribution" />
        <cc:permits
           rdf:resource="http://web.resource.org/cc/DerivativeWorks" />
      </cc:License>
    </rdf:RDF>
  </metadata>
</svg>
