<?xml version="1.0" encoding="UTF-8" standalone="no"?>
<!-- Created with Inkscape (http://www.inkscape.org/) -->
<svg
   xmlns:dc="http://purl.org/dc/elements/1.1/"
   xmlns:cc="http://web.resource.org/cc/"
   xmlns:rdf="http://www.w3.org/1999/02/22-rdf-syntax-ns#"
   xmlns:svg="http://www.w3.org/2000/svg"
   xmlns="http://www.w3.org/2000/svg"
   xmlns:sodipodi="http://sodipodi.sourceforge.net/DTD/sodipodi-0.dtd"
   xmlns:inkscape="http://www.inkscape.org/namespaces/inkscape"
   width="258.57559"
   height="262.13696"
   id="svg2"
   sodipodi:version="0.32"
   inkscape:version="0.45pre1"
   sodipodi:modified="true"
   version="1.0">
  <defs
     id="defs4" />
  <sodipodi:namedview
     id="base"
     pagecolor="#ffffff"
     bordercolor="#666666"
     borderopacity="1.0"
     gridtolerance="10000"
     guidetolerance="10"
     objecttolerance="10"
     inkscape:pageopacity="0.0"
     inkscape:pageshadow="2"
     inkscape:zoom="1"
     inkscape:cx="45.653919"
     inkscape:cy="88.782378"
     inkscape:document-units="px"
     inkscape:current-layer="layer1"
     inkscape:window-width="980"
     inkscape:window-height="689"
     inkscape:window-x="88"
     inkscape:window-y="116" />
  <metadata
     id="metadata7">
    <rdf:RDF>
      <cc:Work
         rdf:about="">
        <dc:format>image/svg+xml</dc:format>
        <dc:type
           rdf:resource="http://purl.org/dc/dcmitype/StillImage" />
      </cc:Work>
    </rdf:RDF>
  </metadata>
  <g
     inkscape:label="Layer 1"
     inkscape:groupmode="layer"
     id="layer1"
     transform="translate(-15.663265,-12.716467)">
    <g
       id="g3231"
       transform="matrix(1.1986717,0,0,1.1986717,483.20637,-416.92432)">
      <path
         sodipodi:nodetypes="cccccccc"
         id="rect3225"
         d="M -359.64285,483.61218 L -346.78571,481.11218 L -326.82758,479.33569 L -297.04449,474.75784 L -259.64285,501.11218 L -272.86762,516.38109 L -359.64285,505.04075 L -359.64285,483.61218 z "
         style="fill:#ffffff;fill-opacity:1;stroke:none;stroke-width:0.69999999;stroke-miterlimit:4;stroke-opacity:1" />
      <path
         id="path2217"
         d="M -321.03621,576.09859 C -328.22801,573.7612 -334.1016,568.81536 -347.59394,553.73573 C -349.41165,551.70418 -352.6582,549.88672 -357.09394,548.4175 C -360.80018,547.18991 -364.87097,545.51118 -366.14016,544.687 C -369.41034,542.56341 -371.84352,537.2345 -373.73125,528.06177 C -374.62909,523.69904 -375.46918,520.09904 -375.59812,520.06177 C -379.24268,519.00824 -386.35942,514.15037 -388.14981,511.494 C -390.92525,507.37613 -390.70409,503.23936 -387.20836,493.88389 C -384.45788,486.52287 -375.58963,477.39873 -366.58255,472.6629 C -363.14505,470.8555 -360.33255,468.9663 -360.33255,468.46469 C -360.33255,467.96307 -357.43233,465.22857 -353.88761,462.38801 C -350.3429,459.54745 -347.21961,456.64205 -346.94697,455.93157 C -346.67432,455.22108 -346.9732,453.25697 -347.61114,451.56688 C -348.48729,449.24569 -348.48956,447.74831 -347.6204,445.44564 C -346.19458,441.66821 -347.66212,437.5958 -351.55171,434.53625 C -355.24346,431.63231 -357.73044,420.2964 -357.14073,409.0609 C -356.78849,402.3498 -356.19356,399.93255 -353.95324,396.10973 C -349.35439,388.26238 -338.9898,382.494 -329.4886,382.494 C -327.35156,382.494 -324.2365,381.36386 -321.4201,379.56675 C -315.43558,375.74812 -277.15799,360.93281 -269.72767,359.55924 C -246.64502,355.29218 -215.40158,363.63694 -208.19462,375.994 C -205.84529,380.02216 -202.69062,395.37486 -201.27622,409.66344 C -199.68909,425.69699 -200.45997,459.5832 -202.54079,465.25139 L -204.10371,469.50877 L -201.23458,471.75139 C -193.66891,477.665 -192.2373,478.6059 -188.1198,480.37087 C -181.77458,483.09075 -174.33256,492.8624 -174.33256,498.47403 C -174.33256,501.85012 -178.61737,507.62853 -186.75856,515.23151 C -195.0791,523.00198 -202.93562,527.46992 -209.59712,528.21963 C -216.05577,528.9465 -225.01469,524.99945 -228.83255,519.74503 C -232.1902,515.12399 -232.93069,514.82035 -235.39774,517.05299 C -236.96081,518.46755 -236.99236,519.0929 -235.73834,523.80299 C -233.51352,532.15944 -233.89319,541.54555 -236.61988,545.59612 C -240.29479,551.05528 -243.05421,551.88204 -252.92401,550.48102 C -257.56304,549.82251 -262.36525,549.54142 -263.59558,549.85639 C -264.82591,550.17135 -266.73255,552.0947 -267.83255,554.1305 C -271.57396,561.05484 -273.86251,561.96755 -288.06775,562.20063 C -301.71145,562.4245 -302.29027,562.66239 -302.31724,568.05691 C -302.3525,575.11092 -311.70838,579.13021 -321.03621,576.09859 z M -307.29131,571.9501 C -305.36404,569.89861 -304.94218,568.46975 -305.11193,564.56834 C -305.41661,557.56602 -304.47227,557.09297 -291.55852,557.77917 C -277.42366,558.53026 -273.25606,557.48791 -269.85689,552.35142 C -266.209,546.83908 -263.70896,546.1341 -253.12241,547.63246 C -244.77326,548.81415 -244.18326,548.77333 -241.57806,546.83375 C -236.66094,543.17293 -236.45505,539.77161 -240.03363,521.31965 C -240.46405,519.10029 -239.69988,517.81939 -235.54199,513.79069 C -230.923,509.31523 -230.48035,508.46974 -229.87425,502.96504 C -229.51266,499.68097 -228.85252,494.32179 -228.40726,491.05576 C -226.96469,480.47412 -230.10411,474.11865 -238.72277,470.17289 C -247.73426,466.04729 -253.65981,461.3801 -261.803,451.994 C -266.09752,447.044 -270.22352,442.8485 -270.97188,442.67068 C -272.00631,442.42487 -272.33255,443.81306 -272.33255,448.46051 C -272.33255,455.05667 -271.06502,458.15198 -264.7716,466.92433 C -259.42635,474.37503 -260.10288,476.39469 -268.83255,479.0474 C -274.73969,480.84241 -281.75204,483.78926 -283.22271,485.09467 C -283.4373,485.28514 -281.80041,487.84157 -279.58519,490.77561 C -274.21114,497.89348 -269.29918,507.24347 -269.98922,509.04167 C -270.73687,510.99003 -273.28514,510.87063 -278.49964,508.64293 C -287.13418,504.95414 -310.01636,498.37161 -317.83255,497.32801 C -322.23255,496.74053 -326.58983,495.86288 -327.5154,495.37768 C -328.77705,494.71631 -329.35689,494.99532 -329.83205,496.49243 C -330.67375,499.14439 -334.00771,499.85767 -342.66304,499.23755 C -348.74734,498.80163 -350.39323,499.04642 -353.53669,500.8548 C -359.13098,504.07307 -360.11615,502.18675 -356.46556,495.24685 L -353.53069,489.66758 L -355.90061,484.83079 C -357.20407,482.17056 -358.56212,478.51788 -358.91851,476.71374 C -359.46502,473.94711 -359.90049,473.531 -361.69952,474.0563 C -374.89472,477.90918 -386.29996,491.91393 -386.32278,504.29175 C -386.33417,510.47065 -384.05819,513.28765 -376.82172,516.05129 L -372.50405,517.70022 L -370.26171,527.59004 C -367.11095,541.4864 -366.18915,542.71145 -356.44049,545.95805 C -349.53792,548.25682 -347.73906,549.36025 -343.85943,553.67532 C -341.36965,556.44456 -339.33255,559.0758 -339.33255,559.52251 C -339.33255,561.0654 -325.81667,570.50643 -320.83255,572.44502 C -313.82504,575.17062 -310.19209,575.03784 -307.29131,571.9501 z M -327.96584,520.57594 C -332.31114,517.9263 -334.2148,514.86233 -334.94752,509.33884 C -335.50981,505.10011 -335.94983,504.4461 -339.2036,503.01305 L -342.83255,501.41475 L -339.42786,501.96031 C -334.77533,502.70583 -333.60404,503.91385 -332.79459,508.80157 C -331.2843,517.92123 -327.56972,520.43286 -315.33255,520.60858 C -309.27786,520.69552 -307.6956,520.95024 -309.83255,521.494 C -315.87393,523.03127 -324.66947,522.58596 -327.96584,520.57594 z M -200.40082,522.65207 C -194.08767,519.56267 -180.68826,507.32081 -177.94552,502.13665 C -176.3109,499.04698 -176.22906,498.15808 -177.33371,495.49122 C -179.82535,489.47586 -184.33049,484.42381 -188.98041,482.43062 C -193.48729,480.49875 -195.98182,478.82398 -203.036,472.99406 C -205.70404,470.78906 -206.78737,470.35846 -207.12424,471.36906 C -207.88562,473.65322 -211.12475,476.40374 -213.86248,477.09087 C -215.75124,477.56492 -217.06597,477.15361 -218.7655,475.55699 L -221.08772,473.37538 L -221.75035,476.90751 C -222.11479,478.85017 -223.15503,480.8549 -224.06199,481.36246 C -225.364,482.0911 -225.78969,484.25372 -226.08497,491.63965 C -226.29065,496.78454 -227.12788,503.32366 -227.94548,506.17101 C -229.42359,511.31863 -229.41457,511.37896 -226.35699,516.79671 C -223.73068,521.45027 -222.51951,522.55068 -218.05725,524.33745 C -211.86848,526.81553 -208.19159,526.46456 -200.40082,522.65207 z M -271.33255,508.19802 C -271.33255,506.10402 -280.15944,492.32519 -284.15568,488.18103 C -289.18803,482.9624 -292.99952,480.76574 -299.93322,479.08805 C -305.62224,477.71151 -305.68995,477.658 -301.83255,477.58708 C -297.89742,477.51473 -288.22083,481.24772 -286.93016,483.33606 C -286.51383,484.0097 -283.70786,483.28798 -279.06982,481.31431 C -275.10273,479.62617 -269.69129,477.60183 -267.04439,476.81579 C -261.18551,475.07588 -261.27533,474.33975 -268.63679,463.76602 C -273.09256,457.36591 -273.73557,455.78425 -274.25074,449.95697 L -274.83255,443.3759 L -281.33255,441.04322 C -284.90755,439.76025 -291.89405,437.11593 -296.85811,435.16695 C -306.36042,431.43617 -323.49699,427.47886 -329.98963,427.51596 C -333.80939,427.53779 -340.05497,429.91567 -343.78153,432.76695 C -345.57896,434.14221 -345.62482,434.57839 -344.37128,438.37666 C -343.31141,441.58808 -343.26861,443.05826 -344.17697,445.05188 C -344.81768,446.45808 -345.05306,448.75939 -344.70005,450.16589 C -344.01737,452.88592 -343.26035,452.93122 -332.59535,450.89026 C -325.89274,449.60758 -321.46153,452.88746 -322.78311,458.15304 C -323.64124,461.5721 -329.29313,463.84168 -334.70948,462.94221 C -339.72032,462.11008 -344.33255,459.866 -344.33255,458.26011 C -344.33255,456.92675 -352.01728,464.14644 -356.33234,469.53375 L -359.16757,473.0735 L -357.44505,478.16169 C -356.49766,480.96019 -354.95793,484.41679 -354.02343,485.84303 L -352.32432,488.43619 L -346.5193,485.27051 L -340.71429,482.10483 L -341.6966,478.42461 C -343.57982,471.36908 -339.80947,466.66316 -330.99348,465.06562 C -324.55706,463.89929 -322.49727,462.47111 -320.94667,458.09951 C -319.50948,454.04767 -319.48941,454.03472 -319.4115,457.10914 C -319.28844,461.9649 -322.50041,465.16434 -328.94643,466.6069 C -336.89961,468.38674 -339.33255,470.58469 -339.33255,475.98985 C -339.33255,479.19896 -338.66075,481.13894 -336.77227,483.38327 C -330.43979,490.90899 -316.25774,486.84486 -311.13133,476.03537 C -309.23061,472.02754 -309.21785,472.02065 -309.59473,475.20513 C -309.8666,477.50241 -309.52764,478.5366 -308.40365,478.83913 C -307.3325,479.12743 -307.489,479.29891 -308.89546,479.378 C -310.03006,479.4418 -312.28006,480.90074 -313.89546,482.6201 C -317.73378,486.70542 -323.79128,489.44465 -329.04775,489.47204 C -332.33961,489.48919 -334.02412,488.82569 -336.73777,486.44307 L -340.21258,483.39215 L -344.13904,485.39528 C -346.29859,486.497 -349.39451,488.5167 -351.01888,489.88352 C -353.96252,492.36043 -358.13481,500.02508 -357.1018,501.05808 C -356.80277,501.35711 -355.09056,500.70931 -353.2969,499.61851 C -350.58069,497.96669 -348.90896,497.72971 -343.29352,498.20049 C -335.80519,498.82829 -331.34046,498.09181 -331.31724,496.22495 C -331.27946,493.18792 -329.78753,492.4216 -326.76473,493.88658 C -325.15203,494.66816 -319.9568,495.80811 -315.21977,496.4198 C -303.35829,497.95147 -296.56409,499.85727 -284.86085,504.93563 C -274.15343,509.58186 -271.33255,510.26213 -271.33255,508.19802 z M -308.33255,462.84719 C -314.69787,460.77245 -317.33255,459.04694 -317.33255,456.95291 C -317.33255,452.20324 -314.38123,450.35107 -305.28833,449.39431 C -298.30276,448.65928 -296.19432,448.78466 -293.16181,450.11542 C -286.8112,452.90228 -287.19487,459.28505 -293.88092,462.07866 C -297.13458,463.43812 -305.20313,463.8672 -308.33255,462.84719 z M -292.75509,460.03521 C -289.60461,457.97093 -289.41697,453.05437 -292.42718,451.44336 C -294.29005,450.44638 -294.44989,450.54895 -293.87178,452.3704 C -293.51426,453.49683 -293.72806,455.36451 -294.34689,456.52079 C -295.24756,458.20371 -295.75737,458.38632 -296.90229,457.43612 C -298.88016,455.79464 -298.69534,451.81091 -296.58255,450.54407 C -295.3013,449.77582 -296.70756,449.6451 -301.83255,450.05605 C -313.40744,450.98419 -316.33255,452.29024 -316.33255,456.53024 C -316.33255,461.68338 -299.1654,464.2354 -292.75509,460.03521 z M -294.33255,453.494 C -294.33255,452.944 -294.78255,452.494 -295.33255,452.494 C -295.88255,452.494 -296.33255,452.944 -296.33255,453.494 C -296.33255,454.044 -295.88255,454.494 -295.33255,454.494 C -294.78255,454.494 -294.33255,454.044 -294.33255,453.494 z M -223.71696,476.88948 C -223.35743,475.45699 -223.55641,471.96949 -224.15913,469.13948 C -224.76185,466.30947 -225.49516,462.419 -225.78869,460.494 C -226.51277,455.74556 -230.68035,442.53423 -231.46123,442.51194 C -231.807,442.50208 -232.62512,443.78612 -233.27927,445.36538 C -233.93342,446.94463 -236.26524,450.05131 -238.46108,452.26911 C -242.09714,455.94152 -243.69563,456.88669 -249.83255,458.99295 C -251.77647,459.66013 -251.76766,459.72585 -249.51856,461.33669 C -248.24587,462.24821 -243.52087,465.02579 -239.01856,467.5091 C -232.77809,470.9511 -230.35722,472.91121 -228.83255,475.75639 C -226.49002,480.12778 -224.63296,480.53912 -223.71696,476.88948 z M -209.29217,472.71554 C -204.69332,466.86905 -203.82989,460.70133 -203.87148,433.994 C -203.90938,409.65031 -205.08843,396.54175 -208.31933,384.54309 C -210.6887,375.74394 -217.01988,370.22053 -229.48413,366.07862 C -245.18857,360.86 -265.19235,360.55043 -278.46985,365.32053 C -300.52153,373.24288 -311.73099,377.58896 -315.36574,379.62564 L -319.59243,381.994 L -312.19394,382.60576 C -303.88547,383.29276 -295.84639,385.40755 -287.48142,389.10672 C -280.51406,392.18785 -262.5735,404.05989 -249.82293,414.02697 C -244.56915,418.13384 -239.41907,421.494 -238.3783,421.494 C -232.83552,421.494 -226.13195,410.86887 -224.4967,399.49173 C -223.00834,389.13657 -220.7294,382.61679 -217.15711,378.494 L -214.12444,374.994 L -216.20619,378.76335 C -218.85027,383.55091 -221.03568,391.31698 -221.89919,398.994 C -222.27037,402.294 -223.17176,406.4565 -223.90228,408.244 C -224.6328,410.0315 -225.14096,411.49377 -225.03152,411.4935 C -223.31913,411.48916 -213.48119,406.93121 -212.4927,405.68423 C -211.26196,404.13163 -211.18053,404.15685 -211.4927,405.994 C -211.71301,407.29049 -213.96173,409.04926 -217.8856,410.994 C -221.32039,412.69635 -225.80913,416.04862 -228.26296,418.744 C -230.64133,421.3565 -233.42996,423.494 -234.45991,423.494 C -237.07751,423.494 -236.80441,424.44391 -233.33083,427.42117 C -230.74822,429.63478 -230.18596,431.04116 -229.30378,437.494 C -228.73985,441.619 -227.44829,447.244 -226.43364,449.994 C -225.41899,452.744 -224.26226,457.694 -223.86313,460.994 C -223.464,464.294 -222.55387,468.39769 -221.84063,470.11331 C -219.20444,476.45431 -213.21078,477.69725 -209.29217,472.71554 z M -325.40046,460.03597 C -324.81311,459.67297 -324.39383,457.94002 -324.46873,456.18498 C -324.58494,453.46215 -324.67071,453.36077 -325.05341,455.494 C -325.73009,459.26594 -327.2299,460.31536 -328.83578,458.14052 C -329.79614,456.83991 -329.93258,455.5722 -329.29321,453.89052 C -328.49914,451.80195 -328.668,451.49967 -330.6073,451.53813 C -334.04624,451.60634 -342.19088,453.95233 -343.48639,455.24784 C -344.86146,456.62291 -343.13225,459.18198 -339.86727,460.60379 C -337.69528,461.54964 -327.18195,461.13699 -325.40046,460.03597 z M -251.96284,456.244 C -249.057,445.4009 -255.0959,437.89818 -262.28326,443.42193 C -265.02548,445.52943 -265.35244,444.73855 -258.01599,453.744 C -255.88767,456.3565 -253.7907,458.494 -253.35606,458.494 C -252.92143,458.494 -252.29447,457.4815 -251.96284,456.244 z M -326.72838,453.76483 C -327.06068,453.43254 -327.29702,454.02317 -327.2536,455.07733 C -327.20562,456.24228 -326.96866,456.47923 -326.64944,455.6815 C -326.36056,454.95963 -326.39609,454.09713 -326.72838,453.76483 z M -245.53289,455.07932 C -242.20101,453.33378 -237.31572,448.1484 -234.61805,443.494 C -229.15516,434.06867 -230.83879,429.88248 -243.4966,421.41827 C -248.63137,417.98467 -255.30755,413.07277 -258.33255,410.50294 C -265.08243,404.76869 -288.95768,390.64774 -295.8202,388.33097 C -303.25314,385.82162 -317.77947,384.1568 -326.42992,384.82287 C -348.27361,386.5048 -356.98578,397.11178 -354.3473,418.81199 C -353.27134,427.66116 -351.24115,433.494 -349.23705,433.494 C -348.66277,433.494 -346.31182,432.21537 -344.01273,430.65261 C -332.34861,422.72415 -321.58537,423.62391 -292.51505,434.95759 C -283.71876,438.38702 -276.79046,440.494 -274.30993,440.494 C -272.10745,440.494 -269.47295,441.01388 -268.4555,441.64929 C -266.97005,442.57697 -265.67713,442.35513 -261.89318,440.52335 C -258.08855,438.68156 -256.72401,438.45024 -254.80956,439.32252 C -250.76806,441.16395 -249.1047,444.80281 -249.48817,450.96387 C -249.86056,456.9467 -249.60497,457.21264 -245.53289,455.07932 z "
         style="fill:#000000" />
      <path
         id="path2247"
         d="M -307.29131,571.9501 C -305.36404,569.89861 -304.94218,568.46975 -305.11193,564.56834 C -305.41661,557.56602 -304.47227,557.09297 -291.55852,557.77917 C -277.42366,558.53026 -273.25606,557.48791 -269.85689,552.35142 C -266.209,546.83908 -263.70896,546.1341 -253.12241,547.63246 C -244.77326,548.81415 -244.18326,548.77333 -241.57806,546.83375 C -236.66094,543.17293 -236.45505,539.77161 -240.03363,521.31965 C -240.46405,519.10029 -239.69988,517.81939 -235.54199,513.79069 C -230.923,509.31523 -230.48035,508.46974 -229.87425,502.96504 C -229.51266,499.68097 -228.85252,494.32179 -228.40726,491.05576 C -226.96469,480.47412 -230.10411,474.11865 -238.72277,470.17289 C -247.73426,466.04729 -253.65981,461.3801 -261.803,451.994 C -266.09752,447.044 -270.22352,442.8485 -270.97188,442.67068 C -272.00631,442.42487 -272.33255,443.81306 -272.33255,448.46051 C -272.33255,455.05667 -271.06502,458.15198 -264.7716,466.92433 C -259.42635,474.37503 -260.10288,476.39469 -268.83255,479.0474 C -274.73969,480.84241 -281.75204,483.78926 -283.22271,485.09467 C -283.4373,485.28514 -281.80041,487.84157 -279.58519,490.77561 C -274.21114,497.89348 -269.29918,507.24347 -269.98922,509.04167 C -270.73687,510.99003 -273.28514,510.87063 -278.49964,508.64293 C -287.13418,504.95414 -310.01636,498.37161 -317.83255,497.32801 C -322.23255,496.74053 -326.58983,495.86288 -327.5154,495.37768 C -328.77705,494.71631 -329.35689,494.99532 -329.83205,496.49243 C -330.67375,499.14439 -334.00771,499.85767 -342.66304,499.23755 C -348.74734,498.80163 -350.39323,499.04642 -353.53669,500.8548 C -359.13098,504.07307 -360.11615,502.18675 -356.46556,495.24685 L -353.53069,489.66758 L -355.90061,484.83079 C -357.20407,482.17056 -358.56212,478.51788 -358.91851,476.71374 C -359.46502,473.94711 -359.90049,473.531 -361.69952,474.0563 C -374.89472,477.90918 -386.29996,491.91393 -386.32278,504.29175 C -386.33417,510.47065 -384.05819,513.28765 -376.82172,516.05129 L -372.50405,517.70022 L -370.26171,527.59004 C -367.11095,541.4864 -366.18915,542.71145 -356.44049,545.95805 C -349.53792,548.25682 -347.73906,549.36025 -343.85943,553.67532 C -341.36965,556.44456 -339.33255,559.0758 -339.33255,559.52251 C -339.33255,561.0654 -325.81667,570.50643 -320.83255,572.44502 C -313.82504,575.17062 -310.19209,575.03784 -307.29131,571.9501 z "
         style="fill:#ffffff" />
      <path
         id="path2245"
         d="M -327.96584,520.57594 C -332.31114,517.9263 -334.2148,514.86233 -334.94752,509.33884 C -335.50981,505.10011 -335.94983,504.4461 -339.2036,503.01305 L -342.83255,501.41475 L -339.42786,501.96031 C -334.77533,502.70583 -333.60404,503.91385 -332.79459,508.80157 C -331.2843,517.92123 -327.56972,520.43286 -315.33255,520.60858 C -309.27786,520.69552 -307.6956,520.95024 -309.83255,521.494 C -315.87393,523.03127 -324.66947,522.58596 -327.96584,520.57594 z "
         style="fill:#000000" />
      <path
         id="path2243"
         d="M -200.40082,522.65207 C -194.08767,519.56267 -180.68826,507.32081 -177.94552,502.13665 C -176.3109,499.04698 -176.22906,498.15808 -177.33371,495.49122 C -179.82535,489.47586 -184.33049,484.42381 -188.98041,482.43062 C -193.48729,480.49875 -195.98182,478.82398 -203.036,472.99406 C -205.70404,470.78906 -206.78737,470.35846 -207.12424,471.36906 C -207.88562,473.65322 -211.12475,476.40374 -213.86248,477.09087 C -215.75124,477.56492 -217.06597,477.15361 -218.7655,475.55699 L -221.08772,473.37538 L -221.75035,476.90751 C -222.11479,478.85017 -223.15503,480.8549 -224.06199,481.36246 C -225.364,482.0911 -225.78969,484.25372 -226.08497,491.63965 C -226.29065,496.78454 -227.12788,503.32366 -227.94548,506.17101 C -229.42359,511.31863 -229.41457,511.37896 -226.35699,516.79671 C -223.73068,521.45027 -222.51951,522.55068 -218.05725,524.33745 C -211.86848,526.81553 -208.19159,526.46456 -200.40082,522.65207 z "
         style="fill:#ffffff" />
      <path
         sodipodi:nodetypes="cscsscccssssssssssccccccccssssscc"
         id="path2241"
         d="M -308.146,478.84977 C -300.21102,474.58313 -291.42187,481.62524 -285.73846,484.00938 C -283.73854,484.84832 -280.72635,482.35032 -278.17696,481.67145 C -274.20987,479.98331 -269.69129,477.60183 -267.04439,476.81579 C -261.18551,475.07588 -261.27533,474.33975 -268.63679,463.76602 C -273.09256,457.36591 -273.73557,455.78425 -274.25074,449.95697 L -274.83255,443.3759 L -281.33255,441.04322 C -284.90755,439.76025 -291.89405,437.11593 -296.85811,435.16695 C -306.36042,431.43617 -323.49699,427.47886 -329.98963,427.51596 C -333.80939,427.53779 -340.05497,429.91567 -343.78153,432.76695 C -345.57896,434.14221 -345.62482,434.57839 -344.37128,438.37666 C -343.31141,441.58808 -343.26861,443.05826 -344.17697,445.05188 C -344.81768,446.45808 -345.05306,448.75939 -344.70005,450.16589 C -344.01737,452.88592 -343.26035,452.93122 -332.59535,450.89026 C -325.89274,449.60758 -321.46153,452.88746 -322.78311,458.15304 C -323.64124,461.5721 -329.29313,463.84168 -334.70948,462.94221 C -339.72032,462.11008 -344.33255,459.866 -344.33255,458.26011 C -344.33255,456.92675 -352.01728,464.14644 -356.33234,469.53375 L -359.16757,473.0735 L -357.44505,478.16169 C -356.49766,480.96019 -354.95793,484.41679 -354.02343,485.84303 L -352.32432,488.43619 L -346.5193,485.27051 L -340.71429,482.10483 L -341.6966,478.42461 C -343.57982,471.36908 -339.80947,466.66316 -330.99348,465.06562 C -324.55706,463.89929 -322.49727,462.47111 -320.94667,458.09951 C -319.50948,454.04767 -319.48941,454.03472 -319.4115,457.10914 C -319.28844,461.9649 -322.50041,465.16434 -328.94643,466.6069 C -336.89961,468.38674 -339.33255,470.58469 -339.33255,475.98985 C -339.33255,479.19896 -338.66075,481.13894 -336.77227,483.38327 C -322.75395,494.38667 -319.03644,480.80851 -308.146,478.84977 z "
         style="fill:#ffefeb;fill-opacity:1" />
      <path
         id="path2239"
         d="M -308.33255,462.84719 C -314.69787,460.77245 -317.33255,459.04694 -317.33255,456.95291 C -317.33255,452.20324 -314.38123,450.35107 -305.28833,449.39431 C -298.30276,448.65928 -296.19432,448.78466 -293.16181,450.11542 C -286.8112,452.90228 -287.19487,459.28505 -293.88092,462.07866 C -297.13458,463.43812 -305.20313,463.8672 -308.33255,462.84719 z "
         style="fill:#000000" />
      <path
         id="path2237"
         d="M -292.75509,460.03521 C -289.60461,457.97093 -289.41697,453.05437 -292.42718,451.44336 C -294.29005,450.44638 -294.44989,450.54895 -293.87178,452.3704 C -293.51426,453.49683 -293.72806,455.36451 -294.34689,456.52079 C -295.24756,458.20371 -295.75737,458.38632 -296.90229,457.43612 C -298.88016,455.79464 -298.69534,451.81091 -296.58255,450.54407 C -295.3013,449.77582 -296.70756,449.6451 -301.83255,450.05605 C -313.40744,450.98419 -316.33255,452.29024 -316.33255,456.53024 C -316.33255,461.68338 -299.1654,464.2354 -292.75509,460.03521 z "
         style="fill:#fffcff;fill-opacity:1" />
      <path
         id="path2231"
         d="M -209.29217,472.71554 C -204.69332,466.86905 -203.82989,460.70133 -203.87148,433.994 C -203.90938,409.65031 -205.08843,396.54175 -208.31933,384.54309 C -210.6887,375.74394 -217.01988,370.22053 -229.48413,366.07862 C -245.18857,360.86 -265.19235,360.55043 -278.46985,365.32053 C -300.52153,373.24288 -311.73099,377.58896 -315.36574,379.62564 L -319.59243,381.994 L -312.19394,382.60576 C -303.88547,383.29276 -295.84639,385.40755 -287.48142,389.10672 C -280.51406,392.18785 -262.5735,404.05989 -249.82293,414.02697 C -244.56915,418.13384 -239.41907,421.494 -238.3783,421.494 C -232.83552,421.494 -226.13195,410.86887 -224.4967,399.49173 C -223.00834,389.13657 -220.7294,382.61679 -217.15711,378.494 L -214.12444,374.994 L -216.20619,378.76335 C -218.85027,383.55091 -221.03568,391.31698 -221.89919,398.994 C -222.27037,402.294 -223.17176,406.4565 -223.90228,408.244 C -224.6328,410.0315 -225.14096,411.49377 -225.03152,411.4935 C -223.31913,411.48916 -213.48119,406.93121 -212.4927,405.68423 C -211.26196,404.13163 -211.18053,404.15685 -211.4927,405.994 C -211.71301,407.29049 -213.96173,409.04926 -217.8856,410.994 C -221.32039,412.69635 -225.80913,416.04862 -228.26296,418.744 C -230.64133,421.3565 -233.42996,423.494 -234.45991,423.494 C -237.07751,423.494 -236.80441,424.44391 -233.33083,427.42117 C -230.74822,429.63478 -230.18596,431.04116 -229.30378,437.494 C -228.73985,441.619 -227.44829,447.244 -226.43364,449.994 C -225.41899,452.744 -224.26226,457.694 -223.86313,460.994 C -223.464,464.294 -222.55387,468.39769 -221.84063,470.11331 C -219.20444,476.45431 -213.21078,477.69725 -209.29217,472.71554 z "
         style="fill:#d40000" />
      <path
         id="path2229"
         d="M -325.40046,460.03597 C -324.81311,459.67297 -324.39383,457.94002 -324.46873,456.18498 C -324.58494,453.46215 -324.67071,453.36077 -325.05341,455.494 C -325.73009,459.26594 -327.2299,460.31536 -328.83578,458.14052 C -329.79614,456.83991 -329.93258,455.5722 -329.29321,453.89052 C -328.49914,451.80195 -328.668,451.49967 -330.6073,451.53813 C -334.04624,451.60634 -342.19088,453.95233 -343.48639,455.24784 C -344.86146,456.62291 -343.13225,459.18198 -339.86727,460.60379 C -337.69528,461.54964 -327.18195,461.13699 -325.40046,460.03597 z "
         style="fill:#fffcff;fill-opacity:1" />
      <path
         id="path2227"
         d="M -251.96284,456.244 C -249.057,445.4009 -255.0959,437.89818 -262.28326,443.42193 C -265.02548,445.52943 -265.35244,444.73855 -258.01599,453.744 C -255.88767,456.3565 -253.7907,458.494 -253.35606,458.494 C -252.92143,458.494 -252.29447,457.4815 -251.96284,456.244 z "
         style="fill:#ffefeb;fill-opacity:1" />
      <path
         id="path2221"
         d="M -245.53289,455.07932 C -242.20101,453.33378 -237.31572,448.1484 -234.61805,443.494 C -229.15516,434.06867 -230.83879,429.88248 -243.4966,421.41827 C -248.63137,417.98467 -255.30755,413.07277 -258.33255,410.50294 C -265.08243,404.76869 -288.95768,390.64774 -295.8202,388.33097 C -303.25314,385.82162 -317.77947,384.1568 -326.42992,384.82287 C -348.27361,386.5048 -356.98578,397.11178 -354.3473,418.81199 C -353.27134,427.66116 -351.24115,433.494 -349.23705,433.494 C -348.66277,433.494 -346.31182,432.21537 -344.01273,430.65261 C -332.34861,422.72415 -321.58537,423.62391 -292.51505,434.95759 C -283.71876,438.38702 -276.79046,440.494 -274.30993,440.494 C -272.10745,440.494 -269.47295,441.01388 -268.4555,441.64929 C -266.97005,442.57697 -265.67713,442.35513 -261.89318,440.52335 C -258.08855,438.68156 -256.72401,438.45024 -254.80956,439.32252 C -250.76806,441.16395 -249.1047,444.80281 -249.48817,450.96387 C -249.86056,456.9467 -249.60497,457.21264 -245.53289,455.07932 z "
         style="fill:#ffffff" />
    </g>
  </g>
</svg>
