<?xml version="1.0" encoding="UTF-8" standalone="no"?>
<!-- Created with Inkscape (http://www.inkscape.org/) -->

<svg
   xmlns:dc="http://purl.org/dc/elements/1.1/"
   xmlns:cc="http://creativecommons.org/ns#"
   xmlns:rdf="http://www.w3.org/1999/02/22-rdf-syntax-ns#"
   xmlns:svg="http://www.w3.org/2000/svg"
   xmlns="http://www.w3.org/2000/svg"
   xmlns:xlink="http://www.w3.org/1999/xlink"
   xmlns:sodipodi="http://sodipodi.sourceforge.net/DTD/sodipodi-0.dtd"
   xmlns:inkscape="http://www.inkscape.org/namespaces/inkscape"
   inkscape:export-ydpi="90.000000"
   inkscape:export-xdpi="90.000000"
   inkscape:export-filename="/home/nicu/Desktop/out_of_the_box.png"
   width="124.81684"
   height="88.65345"
   id="svg2"
   sodipodi:version="0.32"
   inkscape:version="0.48.1 r9760"
   sodipodi:docname="nicubunu_Open_box.svg"
   version="1.1">
  <defs
     id="defs3">
    <linearGradient
       id="linearGradient2166">
      <stop
         style="stop-color:#009300;stop-opacity:1.0000000;"
         offset="0.0000000"
         id="stop2168" />
      <stop
         style="stop-color:#00cd00;stop-opacity:1.0000000;"
         offset="1.0000000"
         id="stop2170" />
    </linearGradient>
    <linearGradient
       id="linearGradient4612">
      <stop
         style="stop-color:#193670;stop-opacity:1;"
         offset="0"
         id="stop4614" />
      <stop
         style="stop-color:#132955;stop-opacity:1.0000000;"
         offset="1.0000000"
         id="stop4616" />
    </linearGradient>
    <linearGradient
       id="linearGradient4596">
      <stop
         style="stop-color:#937541;stop-opacity:1;"
         offset="0"
         id="stop4598" />
      <stop
         style="stop-color:#524124;stop-opacity:1.0000000;"
         offset="1.0000000"
         id="stop4600" />
    </linearGradient>
    <linearGradient
       id="linearGradient4580">
      <stop
         style="stop-color:#d3b46b;stop-opacity:1;"
         offset="0"
         id="stop4582" />
      <stop
         style="stop-color:#ad9457;stop-opacity:1.0000000;"
         offset="1.0000000"
         id="stop4584" />
    </linearGradient>
    <linearGradient
       id="linearGradient4564">
      <stop
         style="stop-color:#c6a965;stop-opacity:1;"
         offset="0"
         id="stop4566" />
      <stop
         style="stop-color:#b79d5d;stop-opacity:1.0000000;"
         offset="1.0000000"
         id="stop4568" />
    </linearGradient>
    <linearGradient
       id="linearGradient3658">
      <stop
         style="stop-color:#ffff47;stop-opacity:1;"
         offset="0"
         id="stop3660" />
      <stop
         style="stop-color:#ffdd47;stop-opacity:1.0000000;"
         offset="1.0000000"
         id="stop3662" />
    </linearGradient>
    <defs
       id="defs877">
      <linearGradient
         id="linearGradient585"
         x1="0"
         y1="0.5"
         x2="1"
         y2="0.5"
         gradientUnits="objectBoundingBox"
         spreadMethod="pad"
         xlink:href="#linearGradient1017" />
      <linearGradient
         id="linearGradient579"
         x1="0"
         y1="0.5"
         x2="1"
         y2="0.5"
         gradientUnits="objectBoundingBox"
         spreadMethod="pad"
         xlink:href="#linearGradient1022" />
      <linearGradient
         xlink:href="#linearGradient579"
         id="linearGradient582"
         x1="0.4852941"
         y1="0.51136363"
         x2="0.41176471"
         y2="0.60227275" />
      <linearGradient
         xlink:href="#linearGradient585"
         id="linearGradient584"
         x1="0.50735295"
         y1="0.12280702"
         x2="0.3272059"
         y2="1.0964912" />
      <linearGradient
         xlink:href="#linearGradient585"
         id="linearGradient589" />
    </defs>
    <linearGradient
       id="linearGradient1017">
      <stop
         offset="0.0000000"
         style="stop-color:#ffffff;stop-opacity:0.17500000;"
         id="stop1019" />
      <stop
         offset="1.0000000"
         style="stop-color:#ffffff;stop-opacity:0.37500000;"
         id="stop1018" />
    </linearGradient>
    <linearGradient
       id="linearGradient1022">
      <stop
         offset="0.0000000"
         style="stop-color:#000000;stop-opacity:0.40833300;"
         id="stop1024" />
      <stop
         offset="1.0000000"
         style="stop-color:#000000;stop-opacity:0.0000000;"
         id="stop1023" />
    </linearGradient>
    <linearGradient
       id="linearGradient2302">
      <stop
         offset="0.0000000"
         style="stop-color:#2c3d78;stop-opacity:1.0000000;"
         id="stop2303" />
      <stop
         offset="1.0000000"
         style="stop-color:#ffffff;stop-opacity:1.0000000;"
         id="stop2304" />
    </linearGradient>
    <linearGradient
       xlink:href="#linearGradient1017"
       id="linearGradient1026"
       x1="-27.045366"
       y1="-210.38924"
       x2="-19.672827"
       y2="-178.84084"
       gradientTransform="scale(1.916124,0.521887)"
       gradientUnits="userSpaceOnUse" />
    <linearGradient
       xlink:href="#linearGradient1017"
       id="linearGradient1025"
       x1="-3.191411"
       y1="-154.59496"
       x2="12.010341"
       y2="-127.91295"
       gradientTransform="scale(1.555191,0.643008)"
       gradientUnits="userSpaceOnUse" />
    <linearGradient
       xlink:href="#linearGradient1022"
       id="linearGradient1021"
       x1="-8.4761829"
       y1="-177.46144"
       x2="9.707943"
       y2="-157.47726"
       gradientTransform="scale(1.578926,0.633342)"
       gradientUnits="userSpaceOnUse" />
    <linearGradient
       id="linearGradient2152">
      <stop
         style="stop-color:#ffffff;stop-opacity:1.0000000;"
         offset="0.0000000"
         id="stop2153" />
      <stop
         style="stop-color:#ffffff;stop-opacity:0.49803922;"
         offset="0.0099999998"
         id="stop2778" />
      <stop
         style="stop-color:#ffffff;stop-opacity:0.0000000;"
         offset="1.0000000"
         id="stop2154" />
    </linearGradient>
    <linearGradient
       id="linearGradient6517">
      <stop
         style="stop-color:#002f8a;stop-opacity:1.0000000;"
         offset="0.0000000"
         id="stop6518" />
      <stop
         style="stop-color:#005dcc;stop-opacity:1.0000000;"
         offset="1.0000000"
         id="stop6520" />
    </linearGradient>
    <linearGradient
       id="linearGradient8387">
      <stop
         style="stop-color:#ffffff;stop-opacity:0.0000000;"
         offset="0.0000000"
         id="stop8388" />
      <stop
         style="stop-color:#ffffff;stop-opacity:0.098039217;"
         offset="0.42613181"
         id="stop8392" />
      <stop
         style="stop-color:#ffffff;stop-opacity:0.16853933;"
         offset="0.52207208"
         id="stop8389" />
      <stop
         style="stop-color:#ffffff;stop-opacity:0.098039217;"
         offset="0.63933450"
         id="stop8391" />
      <stop
         style="stop-color:#ffffff;stop-opacity:0.0000000;"
         offset="1.0000000"
         id="stop8390" />
    </linearGradient>
    <linearGradient
       inkscape:collect="always"
       xlink:href="#linearGradient6517"
       id="linearGradient5092"
       gradientUnits="userSpaceOnUse"
       gradientTransform="matrix(0.928107,0,0,0.69608,-112.1865,694.2911)"
       x1="45.506062"
       y1="813.86877"
       x2="841.63055"
       y2="21.069715" />
    <linearGradient
       inkscape:collect="always"
       xlink:href="#linearGradient1017"
       id="linearGradient5876"
       gradientUnits="userSpaceOnUse"
       gradientTransform="scale(1.154701,0.866025)"
       x1="181.43164"
       y1="1285.3988"
       x2="84.609047"
       y2="1285.3988" />
    <linearGradient
       inkscape:collect="always"
       xlink:href="#linearGradient1017"
       id="linearGradient6641"
       gradientUnits="userSpaceOnUse"
       gradientTransform="scale(1.154701,0.866025)"
       x1="97.909615"
       y1="1079.7177"
       x2="441.94626"
       y2="895.68713" />
    <linearGradient
       inkscape:collect="always"
       xlink:href="#linearGradient4580"
       id="linearGradient1406"
       gradientUnits="userSpaceOnUse"
       gradientTransform="matrix(0.323511,0,0,0.524625,-19.08373,-24.61796)"
       x1="438.70776"
       y1="123.37365"
       x2="363.25043"
       y2="192.04648" />
    <linearGradient
       inkscape:collect="always"
       xlink:href="#linearGradient4564"
       id="linearGradient1418"
       gradientUnits="userSpaceOnUse"
       gradientTransform="matrix(0.57191,0,0,0.296762,-19.08373,-24.61796)"
       x1="112.91104"
       y1="318.34311"
       x2="46.403519"
       y2="375.6134" />
    <linearGradient
       inkscape:collect="always"
       xlink:href="#linearGradient4564"
       id="linearGradient1423"
       gradientUnits="userSpaceOnUse"
       gradientTransform="matrix(0.438389,0,0,0.387148,-19.08373,-24.61796)"
       x1="202.96553"
       y1="274.57022"
       x2="111.20063"
       y2="292.66122" />
    <linearGradient
       inkscape:collect="always"
       xlink:href="#linearGradient4580"
       id="linearGradient1427"
       gradientUnits="userSpaceOnUse"
       gradientTransform="matrix(0.22886,0,0,0.741596,-19.08373,-24.61796)"
       x1="527.32153"
       y1="150.88824"
       x2="492.41907"
       y2="167.6683" />
    <linearGradient
       inkscape:collect="always"
       xlink:href="#linearGradient4596"
       id="linearGradient1462"
       gradientUnits="userSpaceOnUse"
       gradientTransform="matrix(0.378747,0,0,0.448113,-19.08373,-24.61796)"
       x1="326.81689"
       y1="130.01851"
       x2="217.15807"
       y2="238.8295" />
    <linearGradient
       inkscape:collect="always"
       xlink:href="#linearGradient4596"
       id="linearGradient1465"
       gradientUnits="userSpaceOnUse"
       gradientTransform="matrix(0.343858,0,0,0.493582,-19.08373,-24.61796)"
       x1="235.61192"
       y1="116.75391"
       x2="114.05755"
       y2="252.56595" />
    <linearGradient
       inkscape:collect="always"
       xlink:href="#linearGradient2166"
       id="linearGradient2172"
       x1="61"
       y1="41"
       x2="95"
       y2="12"
       gradientUnits="userSpaceOnUse"
       gradientTransform="translate(-0.384615,8.589744)" />
    <linearGradient
       inkscape:collect="always"
       xlink:href="#linearGradient2166"
       id="linearGradient2176"
       gradientUnits="userSpaceOnUse"
       gradientTransform="translate(-0.384615,8.589744)"
       x1="97.410255"
       y1="12.897436"
       x2="63.358974"
       y2="42.025642" />
  </defs>
  <sodipodi:namedview
     inkscape:guide-bbox="true"
     showguides="true"
     id="base"
     pagecolor="#ffffff"
     bordercolor="#666666"
     borderopacity="1.0"
     inkscape:pageopacity="0.0"
     inkscape:pageshadow="2"
     inkscape:zoom="1"
     inkscape:cx="63.953362"
     inkscape:cy="43.87143"
     inkscape:document-units="px"
     inkscape:current-layer="layer1"
     inkscape:window-width="1151"
     inkscape:window-height="791"
     inkscape:window-x="1"
     inkscape:window-y="24"
     showgrid="false"
     fit-margin-top="0"
     fit-margin-left="0"
     fit-margin-right="0"
     fit-margin-bottom="0"
     inkscape:window-maximized="0" />
  <metadata
     id="metadata4">
    <rdf:RDF>
      <cc:Work
         rdf:about="">
        <dc:format>image/svg+xml</dc:format>
        <dc:type
           rdf:resource="http://purl.org/dc/dcmitype/StillImage" />
      </cc:Work>
    </rdf:RDF>
  </metadata>
  <g
     inkscape:label="Layer 1"
     inkscape:groupmode="layer"
     id="layer1"
     transform="translate(-2.0466381,-19.21798)">
    <g
       transform="translate(518.515,247.1309)"
       id="g6343"
       inkscape:groupmode="layer"
       inkscape:label="Layer 1" />
    <g
       transform="translate(434.515,108.7687)"
       id="g9086"
       inkscape:groupmode="layer"
       inkscape:label="Layer 1" />
    <path
       style="fill:#79673d;fill-opacity:1;fill-rule:nonzero;stroke:none"
       d="M 68.512425,19.21798 18.231668,41.961058 2.0466381,77.71405 c 0,0 11.7481799,1.495394 17.0610629,2.357705 l 0.469155,15.152065 72.203984,12.64761 25.32755,-32.598608 0.26105,-12.703937 9.49404,-13.11933 L 116.40474,25.781983 68.512425,19.21798 z"
       id="path5973"
       sodipodi:nodetypes="ccccccccccc"
       inkscape:connector-curvature="0" />
    <path
       style="fill:url(#linearGradient1465);fill-opacity:1;fill-rule:evenodd;stroke:none"
       d="m 19.563222,42.567715 c 1.412549,-0.9417 49.121386,-22.849353 49.121386,-22.849353 l 2.409594,54.89438 c 0,0 -50.714031,19.983978 -50.714031,19.042268 0,-0.9417 -0.816949,-51.087295 -0.816949,-51.087295 z"
       id="path3628"
       sodipodi:nodetypes="ccccc"
       inkscape:connector-curvature="0" />
    <path
       style="fill:url(#linearGradient1462);fill-opacity:1;fill-rule:evenodd;stroke:none"
       d="m 115.70478,26.761529 -47.020828,-7.008828 2.346347,54.899718 44.799241,0.78682 -0.12476,-48.67771 z"
       id="path3626"
       sodipodi:nodetypes="ccccc"
       inkscape:connector-curvature="0" />
    <path
       style="fill:url(#linearGradient1427);fill-opacity:1;fill-rule:evenodd;stroke:none"
       d="m 91.275897,51.841365 c 1.41255,-1.8834 24.455383,-24.914616 24.455383,-24.914616 l -0.0442,48.396662 -24.533568,31.244979 0.122395,-54.727025 z"
       id="path2085"
       sodipodi:nodetypes="ccccc"
       inkscape:connector-curvature="0" />
    <path
       style="fill:url(#linearGradient1423);fill-opacity:1;fill-rule:evenodd;stroke:none"
       d="M 19.235737,42.659778 91.746748,51.841365 91.275897,106.69547 20.412865,94.21793 19.235737,42.659778 z"
       id="path2083"
       inkscape:connector-curvature="0" />
    <path
       style="fill:#79673d;fill-opacity:1;fill-rule:evenodd;stroke:none"
       d="m 19.235737,42.590359 0.72528,37.156931 c 8.824368,2.341164 61.635259,10.67665 62.106109,9.73495 0.470857,-0.9417 9.749032,-37.765624 9.749032,-36.865183 L 19.235737,42.590359 z"
       id="path5971"
       sodipodi:nodetypes="ccccc"
       inkscape:connector-curvature="0" />
    <path
       style="fill:url(#linearGradient1418);fill-opacity:1;fill-rule:evenodd;stroke:none"
       d="M 19.235737,42.590359 3.9330883,76.325601 c 0,0 76.0423917,12.477539 76.5132407,11.535843 0.47085,-0.94171 10.829568,-35.784654 10.829568,-35.784654 l -72.04016,-9.486431 z"
       id="path3630"
       sodipodi:nodetypes="ccccc"
       inkscape:connector-curvature="0" />
    <path
       style="fill:#79673d;fill-opacity:1;fill-rule:evenodd;stroke:none"
       d="M 91.331229,53.752931 101.205,86.173194 116.22801,64.309751 115.52469,26.650853 91.331229,53.752931 z"
       id="path5969"
       sodipodi:nodetypes="ccccc"
       inkscape:connector-curvature="0" />
    <path
       style="fill:url(#linearGradient1406);fill-opacity:1;fill-rule:evenodd;stroke:none"
       d="M 91.151142,51.771946 102.10545,82.211234 125.41257,49.722533 115.52469,26.650853 91.151142,51.771946 z"
       id="path3632"
       sodipodi:nodetypes="ccccc"
       inkscape:connector-curvature="0" />
  </g>
</svg>
