<?xml version="1.0" encoding="UTF-8" standalone="no"?>
<!-- Created with Inkscape (http://www.inkscape.org/) -->

<svg
   xmlns:dc="http://purl.org/dc/elements/1.1/"
   xmlns:cc="http://creativecommons.org/ns#"
   xmlns:rdf="http://www.w3.org/1999/02/22-rdf-syntax-ns#"
   xmlns:svg="http://www.w3.org/2000/svg"
   xmlns="http://www.w3.org/2000/svg"
   xmlns:sodipodi="http://sodipodi.sourceforge.net/DTD/sodipodi-0.dtd"
   xmlns:inkscape="http://www.inkscape.org/namespaces/inkscape"
   width="144.80908"
   height="223.54231"
   id="svg235"
   version="1.1"
   inkscape:version="0.48+devel r10184"
   sodipodi:docname="New document 3">
  <defs
     id="defs237" />
  <sodipodi:namedview
     id="base"
     pagecolor="#ffffff"
     bordercolor="#666666"
     borderopacity="1.0"
     inkscape:pageopacity="0.0"
     inkscape:pageshadow="2"
     inkscape:zoom="0.35"
     inkscape:cx="210.26157"
     inkscape:cy="-19.659612"
     inkscape:document-units="px"
     inkscape:current-layer="layer1"
     showgrid="false"
     fit-margin-top="0"
     fit-margin-left="0"
     fit-margin-right="0"
     fit-margin-bottom="0"
     inkscape:window-width="446"
     inkscape:window-height="456"
     inkscape:window-x="826"
     inkscape:window-y="322"
     inkscape:window-maximized="0" />
  <metadata
     id="metadata240">
    <rdf:RDF>
      <cc:Work
         rdf:about="">
        <dc:format>image/svg+xml</dc:format>
        <dc:type
           rdf:resource="http://purl.org/dc/dcmitype/StillImage" />
        <dc:title></dc:title>
      </cc:Work>
    </rdf:RDF>
  </metadata>
  <g
     inkscape:label="Layer 1"
     inkscape:groupmode="layer"
     id="layer1"
     transform="translate(-164.73843,-289.16026)">
    <g
       id="g3153"
       transform="matrix(0.24354217,-0.00137579,0.00137579,0.24354217,138.93753,260.52808)">
      <path
         inkscape:connector-curvature="0"
         sodipodi:nodetypes="cccccccsccccccscccssc"
         id="path2161"
         d="M 292.96506,992.78961 C 312.9384,889.52646 309.72649,840.36226 313.0938,775.84652 291.47405,739.22159 269.85429,722.3397 248.23454,715.46032 231.16066,708.75074 200.32079,702.04117 165.48308,695.33158 124.94826,679.98306 111.9916,637.62835 107.3334,596.92443 106.02476,470.37033 95.839212,334.93932 167.7196,281.57425 c 45.89007,-19.58186 58.53672,0.72837 73.80537,17.89221 0,0 13.41915,120.7724 11.18263,131.95503 -2.23654,11.18265 0,114.06285 0,114.06285 27.80132,52.31015 33.77795,17.32144 44.73052,2.23652 3.1204,-157.96935 10.52363,-347.52562 42.49399,-369.02681 6.1382,-49.8082 120.0989,-125.952676 167.73947,80.51494 l -8.94612,203.52389 c 19.85505,46.55283 43.69973,20.88207 58.14969,11.18263 0,0 -2.23654,-161.02989 6.70959,-203.52389 8.94609,-42.494 38.02093,-51.44009 38.02093,-51.44009 0,0 62.62273,-35.78442 71.56883,64.85924 33.64399,155.13049 45.80433,339.55384 -96.17061,342.18851 -16.00133,10.45882 -67.8642,18.83166 -62.62274,111.8263 0.0491,0.87191 -4.23655,247.03127 -22.36526,277.32922 -14.05615,23.4916 -227.04199,35.673 -199.05083,-22.36519 z"
         style="fill:#46bd46;fill-opacity:1;fill-rule:evenodd;stroke:#0b7500;stroke-width:5.92166471;stroke-linecap:round;stroke-linejoin:round;stroke-miterlimit:4;stroke-opacity:1;stroke-dasharray:none" />
      <path
         inkscape:connector-curvature="0"
         id="path3135"
         d="m 170.94653,313.40198 c -2.16963,2.86523 -7.12277,24.15018 -7.12277,40.36238 0,13.66281 -2.37426,24.93967 -2.37426,37.98812 0,16.73183 -4.74851,33.90202 -4.74851,52.23366 0,13.00056 -2.37426,26.24503 -2.37426,40.36237 0,16.16347 -9.10009,35.60651 -11.87128,52.23367 -2.07012,12.42068 -2.37426,24.8819 -2.37426,37.98812 0,13.98599 1.36327,22.07289 4.74851,35.61386 2.63539,10.54156 12.22896,22.08366 16.6198,30.86534 6.40788,12.81576 11.70297,17.08713 23.74258,26.11684 11.24117,8.43087 26.60118,13.1795 40.36238,16.6198 11.05339,2.76335 24.43729,13.40578 35.61386,18.99406 9.99825,4.99913 21.39259,4.74851 33.2396,4.74851 6.01665,0 20.90933,15.20318 28.49109,18.99406 13.47835,6.73918 16.07424,22.65144 21.36832,33.23961 4.77394,9.54787 7.34396,22.25308 9.49703,30.86534 2.58833,10.35333 0,24.87875 0,35.61386 0,8.71873 -5.18001,23.5258 -7.12278,33.23961 -2.37082,11.85413 -4.70625,23.53126 -7.12277,35.61386 -1.89781,9.48907 -4.39458,22.32685 -7.12277,33.2396 -2.86971,11.47885 -0.23606,29.92113 2.37426,40.36238 2.51315,10.05261 1.56072,12.61847 4.74851,18.99406"
         style="fill:none;stroke:#80d91b;stroke-width:10.5;stroke-linecap:round;stroke-linejoin:round;stroke-miterlimit:4;stroke-opacity:1;stroke-dasharray:10.5, 31.5;stroke-dashoffset:0" />
      <path
         inkscape:connector-curvature="0"
         sodipodi:nodetypes="ccccccccc"
         id="path3137"
         d="m 227.35352,322.89902 c -12.20349,38.79175 -6.29205,80.19316 -13.64292,119.82505 -1.84344,32.35773 -1.74065,65.44648 -13.10884,96.24893 -8.68223,39.82884 38.7162,49.48456 66.17279,81.98456 18.46331,32.33826 34.58079,28.47121 62.27695,47.61347 29.49805,13.8721 36.13732,19.53047 53.59618,53.94869 -14.06945,25.90946 32.48989,103.26612 22.25254,140.42654 -5.52128,31.03219 -16.21363,61.44287 -17.03826,93.15347 0.49062,13.95862 4.11914,27.8277 8.06384,41.08841"
         style="fill:none;stroke:#80d91b;stroke-width:10.5;stroke-linecap:round;stroke-linejoin:round;stroke-miterlimit:4;stroke-opacity:1;stroke-dasharray:10.5, 31.5;stroke-dashoffset:0" />
      <path
         inkscape:connector-curvature="0"
         sodipodi:nodetypes="ccccccccc"
         id="path3145"
         d="m 396.86062,170.94653 c -12.20349,38.79175 -37.1574,208.40306 -44.50827,248.03495 -1.84344,32.35773 10.13064,82.06628 -1.23755,112.86873 -8.68223,39.82884 -8.76895,58.98159 18.68764,91.48159 18.46331,32.33826 48.82634,47.46527 76.5225,66.60753 29.49805,13.8721 7.64623,57.51859 25.10509,91.93681 -14.06945,25.90946 11.12157,58.15523 0.88422,95.31565 -5.52128,31.03219 -16.21363,61.44286 -17.03826,93.15346 0.49062,13.9586 4.11914,27.8277 8.06384,41.08835"
         style="fill:none;stroke:#80d91b;stroke-width:10.5;stroke-linecap:round;stroke-linejoin:round;stroke-miterlimit:4;stroke-opacity:1;stroke-dasharray:10.5, 31.5;stroke-dashoffset:0" />
      <path
         inkscape:connector-curvature="0"
         sodipodi:nodetypes="ccccc"
         id="path3147"
         d="m 434.80091,253.076 c 29.49805,13.8721 7.64623,57.51859 25.10509,91.93681 -14.06945,25.90946 11.12157,58.15523 0.88422,95.31565 -5.52128,31.03219 -16.21363,61.44291 -17.03826,93.15351 0.49062,13.9586 11.24191,139.4178 15.18661,152.6784"
         style="fill:none;stroke:#80d91b;stroke-width:10.5;stroke-linecap:round;stroke-linejoin:round;stroke-miterlimit:4;stroke-opacity:1;stroke-dasharray:10.5, 31.5;stroke-dashoffset:0" />
      <path
         inkscape:connector-curvature="0"
         sodipodi:nodetypes="ccccc"
         id="path3149"
         d="m 600.67779,263.05782 c 29.49805,13.8721 -18.4706,69.38987 -1.01174,103.80809 -14.06945,25.90946 -3.12397,72.40078 -13.36132,109.5612 -5.52128,31.03219 -49.45324,18.70627 -50.27787,50.41687 0.49062,13.9586 -69.48284,53.94454 -65.53814,67.20514"
         style="fill:none;stroke:#80d91b;stroke-width:10.5;stroke-linecap:round;stroke-linejoin:round;stroke-miterlimit:4;stroke-opacity:1;stroke-dasharray:10.5, 31.5;stroke-dashoffset:0" />
      <path
         inkscape:connector-curvature="0"
         sodipodi:nodetypes="ccccc"
         id="path3151"
         d="m 649.07429,306.98158 c 29.49805,13.8721 -18.4706,69.38987 -1.01174,103.80809 -14.06945,25.90946 -3.12397,72.40078 -13.36132,109.5612 -5.52128,31.03219 -49.45324,18.70627 -50.27787,50.41687 0.49062,13.9586 -69.48284,53.94454 -65.53814,67.20514"
         style="fill:none;stroke:#80d91b;stroke-width:10.5;stroke-linecap:round;stroke-linejoin:round;stroke-miterlimit:4;stroke-opacity:1;stroke-dasharray:10.5, 31.5;stroke-dashoffset:0" />
    </g>
  </g>
</svg>
