<?xml version="1.0" encoding="UTF-8" standalone="no"?>
<!-- Created with Inkscape (http://www.inkscape.org/) -->

<svg
   xmlns:dc="http://purl.org/dc/elements/1.1/"
   xmlns:cc="http://creativecommons.org/ns#"
   xmlns:rdf="http://www.w3.org/1999/02/22-rdf-syntax-ns#"
   xmlns:svg="http://www.w3.org/2000/svg"
   xmlns="http://www.w3.org/2000/svg"
   xmlns:sodipodi="http://sodipodi.sourceforge.net/DTD/sodipodi-0.dtd"
   xmlns:inkscape="http://www.inkscape.org/namespaces/inkscape"
   width="379.96033"
   height="413.17453"
   id="svg2"
   version="1.1"
   inkscape:version="0.48.1 r9760"
   sodipodi:docname="Flower_6_red_petals_black_outline_green_leaf_01.svg">
  <defs
     id="defs4">
    <inkscape:perspective
       sodipodi:type="inkscape:persp3d"
       inkscape:vp_x="0 : 526.18109 : 1"
       inkscape:vp_y="0 : 1000 : 0"
       inkscape:vp_z="744.09448 : 526.18109 : 1"
       inkscape:persp3d-origin="372.04724 : 350.78739 : 1"
       id="perspective10" />
    <inkscape:perspective
       id="perspective2971"
       inkscape:persp3d-origin="0.5 : 0.33333333 : 1"
       inkscape:vp_z="1 : 0.5 : 1"
       inkscape:vp_y="0 : 1000 : 0"
       inkscape:vp_x="0 : 0.5 : 1"
       sodipodi:type="inkscape:persp3d" />
  </defs>
  <sodipodi:namedview
     id="base"
     pagecolor="#ffffff"
     bordercolor="#666666"
     borderopacity="1.0"
     inkscape:pageopacity="0.0"
     inkscape:pageshadow="2"
     inkscape:zoom="0.98994949"
     inkscape:cx="26.016439"
     inkscape:cy="155.31013"
     inkscape:document-units="px"
     inkscape:current-layer="layer1"
     showgrid="false"
     inkscape:window-width="1680"
     inkscape:window-height="1026"
     inkscape:window-x="0"
     inkscape:window-y="0"
     inkscape:window-maximized="1"
     fit-margin-top="0"
     fit-margin-left="0"
     fit-margin-right="0"
     fit-margin-bottom="0" />
  <metadata
     id="metadata7">
    <rdf:RDF>
      <cc:Work
         rdf:about="">
        <dc:format>image/svg+xml</dc:format>
        <dc:type
           rdf:resource="http://purl.org/dc/dcmitype/StillImage" />
        <dc:title />
      </cc:Work>
    </rdf:RDF>
  </metadata>
  <g
     inkscape:label="Calque 1"
     inkscape:groupmode="layer"
     id="layer1"
     transform="translate(-92.26754,-304.49682)">
    <path
       sodipodi:type="arc"
       style="fill:#ff0000;fill-opacity:1;stroke:#000000;stroke-width:1.00014842;stroke-miterlimit:4;stroke-opacity:1;stroke-dasharray:none"
       id="path2836"
       sodipodi:cx="373.35239"
       sodipodi:cy="488.97485"
       sodipodi:rx="19.79899"
       sodipodi:ry="27.046835"
       d="m 393.15138,488.97485 c 0,14.93756 -8.86431,27.04684 -19.79899,27.04684 -10.93468,0 -19.79899,-12.10928 -19.79899,-27.04684 0,-14.93755 8.86431,-27.04683 19.79899,-27.04683 10.93468,0 19.79899,12.10928 19.79899,27.04683 z"
       transform="matrix(3.1705293,0,0,3.1705293,-902.463,-1158.474)" />
    <path
       sodipodi:type="arc"
       style="fill:#ff0000;fill-opacity:1;stroke:#000000;stroke-opacity:1"
       id="path2836-1-8"
       sodipodi:cx="373.35239"
       sodipodi:cy="488.97485"
       sodipodi:rx="19.79899"
       sodipodi:ry="27.046835"
       d="m 393.15138,488.97485 c 0,14.93756 -8.86431,27.04684 -19.79899,27.04684 -10.93468,0 -19.79899,-12.10928 -19.79899,-27.04684 0,-14.93755 8.86431,-27.04683 19.79899,-27.04683 10.93468,0 19.79899,12.10928 19.79899,27.04683 z"
       transform="matrix(1.4645902,-2.8119802,2.8119802,1.4645902,-1746.5255,788.97362)"
       inkscape:transform-center-y="-17.393572"
       inkscape:transform-center-x="33.395277" />
    <path
       sodipodi:type="arc"
       style="fill:#ff0000;fill-opacity:1;stroke:#000000;stroke-opacity:1"
       id="path2836-1-4"
       sodipodi:cx="373.35239"
       sodipodi:cy="488.97485"
       sodipodi:rx="19.79899"
       sodipodi:ry="27.046835"
       d="m 393.15138,488.97485 c 0,14.93756 -8.86431,27.04684 -19.79899,27.04684 -10.93468,0 -19.79899,-12.10928 -19.79899,-27.04684 0,-14.93755 8.86431,-27.04683 19.79899,-27.04683 10.93468,0 19.79899,12.10928 19.79899,27.04683 z"
       transform="matrix(-1.7345202,-2.6539962,2.6539962,-1.7345202,-468.57965,2415.0041)"
       inkscape:transform-center-y="20.599281"
       inkscape:transform-center-x="31.519051" />
    <path
       sodipodi:type="arc"
       style="fill:#ff0000;fill-opacity:1;stroke:#000000;stroke-opacity:1"
       id="path2836-1-0"
       sodipodi:cx="373.35239"
       sodipodi:cy="488.97485"
       sodipodi:rx="19.79899"
       sodipodi:ry="27.046835"
       d="m 393.15138,488.97485 c 0,14.93756 -8.86431,27.04684 -19.79899,27.04684 -10.93468,0 -19.79899,-12.10928 -19.79899,-27.04684 0,-14.93755 8.86431,-27.04683 19.79899,-27.04683 10.93468,0 19.79899,12.10928 19.79899,27.04683 z"
       transform="matrix(-3.168257,0.12001867,-0.12001867,-3.168257,1527.3866,2134.7499)"
       inkscape:transform-center-y="37.626427"
       inkscape:transform-center-x="-1.4253576" />
    <path
       sodipodi:type="arc"
       style="fill:#ff0000;fill-opacity:1;stroke:#000000;stroke-opacity:1"
       id="path2836-1"
       sodipodi:cx="373.35239"
       sodipodi:cy="488.97485"
       sodipodi:rx="19.79899"
       sodipodi:ry="27.046835"
       d="m 393.15138,488.97485 c 0,14.93756 -8.86431,27.04684 -19.79899,27.04684 -10.93468,0 -19.79899,-12.10928 -19.79899,-27.04684 0,-14.93755 8.86431,-27.04683 19.79899,-27.04683 10.93468,0 19.79899,12.10928 19.79899,27.04683 z"
       transform="matrix(1.3835121,2.8527443,-2.8527443,1.3835121,1267.1272,-1282.4261)"
       inkscape:transform-center-y="-16.430693"
       inkscape:transform-center-x="-33.879392" />
    <path
       sodipodi:type="arc"
       style="fill:#ff0000;fill-opacity:1;stroke:#000000;stroke-opacity:1"
       id="path2836-1-7"
       sodipodi:cx="373.35239"
       sodipodi:cy="488.97485"
       sodipodi:rx="19.79899"
       sodipodi:ry="27.046835"
       d="m 393.15138,488.97485 c 0,14.93756 -8.86431,27.04684 -19.79899,27.04684 -10.93468,0 -19.79899,-12.10928 -19.79899,-27.04684 0,-14.93755 8.86431,-27.04683 19.79899,-27.04683 10.93468,0 19.79899,12.10928 19.79899,27.04683 z"
       transform="matrix(-1.6214962,2.7245195,-2.7245195,-1.6214962,2321.5805,347.78543)"
       inkscape:transform-center-y="19.256998"
       inkscape:transform-center-x="-32.356638" />
    <path
       sodipodi:type="arc"
       style="fill:#ffff00;fill-opacity:1;stroke:#000000;stroke-opacity:1"
       id="path2834"
       sodipodi:cx="374.23627"
       sodipodi:cy="491.44974"
       sodipodi:rx="13.965359"
       sodipodi:ry="13.965359"
       d="m 388.20163,491.44974 c 0,7.71285 -6.25251,13.96536 -13.96536,13.96536 -7.71286,0 -13.96536,-6.25251 -13.96536,-13.96536 0,-7.71286 6.2525,-13.96536 13.96536,-13.96536 7.71285,0 13.96536,6.2525 13.96536,13.96536 z"
       transform="matrix(3.1705293,0,0,3.1705293,-905.26983,-1047.2362)" />
  </g>
</svg>
