<?xml version="1.0" encoding="UTF-8" standalone="no"?>
<!-- Created with Inkscape (http://www.inkscape.org/) -->

<svg
   xmlns:dc="http://purl.org/dc/elements/1.1/"
   xmlns:cc="http://creativecommons.org/ns#"
   xmlns:rdf="http://www.w3.org/1999/02/22-rdf-syntax-ns#"
   xmlns:svg="http://www.w3.org/2000/svg"
   xmlns="http://www.w3.org/2000/svg"
   xmlns:xlink="http://www.w3.org/1999/xlink"
   xmlns:sodipodi="http://sodipodi.sourceforge.net/DTD/sodipodi-0.dtd"
   xmlns:inkscape="http://www.inkscape.org/namespaces/inkscape"
   width="61.581997"
   height="60.622227"
   id="svg2"
   sodipodi:version="0.32"
   inkscape:version="0.48.1 r9760"
   sodipodi:docname="nicubunu_RPG_map_symbols_palm_tree.svg"
   inkscape:export-filename="/home/nicu/Desktop/rpg_color.png"
   inkscape:export-xdpi="90.000000"
   inkscape:export-ydpi="90.000000"
   inkscape:output_extension="org.inkscape.output.svg.inkscape"
   version="1.1">
  <defs
     id="defs3">
    <linearGradient
       id="linearGradient2057"
       inkscape:collect="always">
      <stop
         id="stop2059"
         offset="0"
         style="stop-color:#000000;stop-opacity:1;" />
      <stop
         id="stop2061"
         offset="1"
         style="stop-color:#000000;stop-opacity:0;" />
    </linearGradient>
    <radialGradient
       inkscape:collect="always"
       xlink:href="#linearGradient2057"
       id="radialGradient1991"
       gradientUnits="userSpaceOnUse"
       gradientTransform="scale(1.39523,0.716728)"
       cx="14.207293"
       cy="222.04396"
       fx="14.207293"
       fy="222.04396"
       r="8.2519293" />
    <filter
       inkscape:collect="always"
       id="filter2894"
       x="-0.1089863"
       width="1.2179726"
       y="-0.21216001"
       height="1.42432"
       color-interpolation-filters="sRGB">
      <feGaussianBlur
         inkscape:collect="always"
         stdDeviation="0.72146876"
         id="feGaussianBlur2896" />
    </filter>
  </defs>
  <sodipodi:namedview
     id="base"
     pagecolor="#ffffff"
     bordercolor="#666666"
     borderopacity="1.0"
     inkscape:pageopacity="0.0"
     inkscape:pageshadow="2"
     inkscape:zoom="1"
     inkscape:cx="-226.28745"
     inkscape:cy="-77.999523"
     inkscape:document-units="px"
     inkscape:current-layer="layer1"
     inkscape:window-width="1151"
     inkscape:window-height="791"
     inkscape:window-x="1"
     inkscape:window-y="24"
     showgrid="false"
     fit-margin-top="0"
     fit-margin-left="0"
     fit-margin-right="0"
     fit-margin-bottom="0"
     inkscape:window-maximized="0" />
  <g
     inkscape:label="Layer 1"
     inkscape:groupmode="layer"
     id="layer1"
     transform="translate(-26.966144,-38.21491)">
    <g
       id="g1928"
       transform="matrix(2.469674,0,0,2.469674,17.5242,-459.6608)">
      <path
         sodipodi:nodetypes="cccccccccccccccc"
         id="path2843"
         d="m 17.714937,206.59397 c 0.300553,0.0363 1.39122,-0.29231 1.894646,0.37893 0.399293,0.53239 1.028012,0.75434 1.799914,0.94732 0.614061,0.15351 0.761895,-0.18846 1.136787,-0.0947 0.835686,0.20892 0.969647,0.85259 2.08411,0.85259 0.629098,0 0.582653,0.29845 1.042055,0.75786 0.539764,0.53976 1.173628,0.36489 1.610449,0.94732 0.539282,0.71904 0.668572,0.26241 0.852591,-0.47366 0.07708,-0.30831 -0.914917,-1.03043 -1.136788,-1.32626 -0.554891,-0.73985 -1.400847,-1.39644 -1.867029,-2.32881 -0.423437,-0.84687 -1.090947,-1.49365 -1.83347,-2.05054 -0.311979,-0.23399 -1.671411,0.1164 -1.983438,0.1164 -0.760307,0 -1.503561,0.11538 -2.178842,0.2842 -1.083998,0.271 -1.519822,0.95143 -2.178843,1.61045 -0.491627,0.49162 -0.104023,0.82936 -0.09473,0.85259 0.189751,0.47438 0.831314,-0.36728 0.85259,-0.47366 z"
         style="fill:#00b300;fill-opacity:1;fill-rule:evenodd;stroke:none"
         inkscape:connector-curvature="0" />
      <path
         sodipodi:nodetypes="ccccccccccccccccccccc"
         id="path2847"
         d="m 14.778237,206.21504 c -0.219144,0.38959 -0.809091,0.75786 -1.515717,0.75786 -0.452885,0 -0.800463,0.61099 -1.136787,0.94732 -0.437185,0.43718 -0.669359,0.85882 -1.136788,1.32625 -0.444411,0.44441 -1.3889344,0.3629 -1.9893779,0.66313 -0.5024792,0.25124 -0.7917173,1.05562 -1.1367874,1.51571 -0.6464193,0.8619 -1.1391387,0.0347 -1.6104489,0.66313 -0.4946719,0.65956 -0.4967511,1.05937 -1.2315197,1.61045 -0.5295271,0.39714 -0.538416,1.16676 -1.0420551,0.66312 -0.1749067,-0.1749 0.3831054,-1.52407 0.4736614,-1.70518 0.2382358,-0.47647 0.349799,-1.02026 0.4736614,-1.51571 0.096711,-0.38685 0.2783278,-0.82912 0.3789292,-1.23152 0.1403922,-0.56157 0.4430761,-0.91972 0.5683937,-1.42099 0.1590146,-0.63606 0.2304602,-1.1113 0.3789291,-1.70518 0.1819846,-0.72794 0.6798373,-1.20363 0.8525906,-1.89464 0.1209602,-0.48385 0.902464,-1.00842 1.326252,-1.32626 0.5396451,-0.40473 0.9759485,-0.67744 1.5157166,-0.94732 0.484222,-0.24211 1.318899,-0.2842 1.894646,-0.2842 1.711921,0 1.587708,-0.40167 2.557771,0.5684 0.426974,0.42697 1.07386,1.11051 1.186081,1.67162 0.08838,0.44189 -0.721504,1.21577 -0.807151,1.64401 z"
         style="fill:#00b300;fill-opacity:1;fill-rule:evenodd;stroke:none"
         inkscape:connector-curvature="0" />
      <path
         transform="translate(-2.837734,61.63138)"
         d="m 28.401713,158.69876 c 0,2.25371 -3.556549,4.08071 -7.943774,4.08071 -4.387225,0 -7.943774,-1.827 -7.943774,-4.08071 0,-2.25371 3.556549,-4.0807 7.943774,-4.0807 4.387225,0 7.943774,1.82699 7.943774,4.0807 z"
         sodipodi:ry="4.0807056"
         sodipodi:rx="7.9437737"
         sodipodi:cy="158.69876"
         sodipodi:cx="20.457939"
         id="path1349"
         style="opacity:0.5;fill:url(#radialGradient1991);fill-opacity:1;fill-rule:evenodd;stroke:none;filter:url(#filter2894)"
         sodipodi:type="arc" />
      <path
         id="path1649"
         d="m 12.124592,201.60237 c -0.77906,0.0312 -1.57362,0.1696 -2.03125,0.40625 -2.1169098,1.09469 -4.4420598,4.26119 -3.9999998,5.4375 0.06957,0.18511 -0.18677,0.91722 -0.5625,1.65625 -0.37575,0.739 -0.68751,1.55663 -0.6875,1.8125 0,0.25588 -0.2524,1.04893 -0.5625,1.75 -0.58894,1.33138 -0.60922,2.35134 -0.0625,2.53125 0.17655,0.0581 0.84369,-0.56015 1.46875,-1.40625 0.63255,-0.85627 1.27802,-1.51068 1.46875,-1.4375 0.44639,0.17129 0.69043,0.003 1.625,-1.25 0.66296,-0.88912 0.88494,-1.01697 1.5312498,-0.875 0.67589,0.14844 0.82533,0.01 1.59375,-1.1875 1.23173,-1.91947 1.76158,-2.30397 2.71875,-2.09375 0.77963,0.17122 0.82121,0.21822 1.03125,2.40625 0.30661,3.19403 0.23194,3.91623 -0.40625,4.8125 -0.44869,0.63012 -0.55285,1.17339 -0.53125,2.65625 0.04316,2.96401 0.16191,3.2006 1.75,3.375 2.58577,0.28393 3.11702,0.12648 2.65625,-0.875 -0.15541,-0.33779 -0.394,-1.19727 -0.5625,-1.90625 -0.27929,-1.17518 -0.24761,-1.4228 0.375,-2.59375 0.67653,-1.27241 0.67954,-1.28162 0.15625,-1.84375 -0.4751,-0.51038 -1.12499,-3.60324 -1.125,-5.375 0,-0.75005 1.21098,-0.674 2.5625,0.15625 0.80609,0.49517 1.16884,0.59798 1.4375,0.375 0.27083,-0.22477 0.51559,-0.13792 0.90625,0.3125 0.39569,0.45622 0.74575,0.56334 1.53125,0.5 0.9032,-0.0729 1.04224,-0.005 1.1875,0.59375 0.11951,0.49288 0.38693,0.71731 0.9375,0.78125 0.5715,0.0664 0.86331,0.33019 1.15625,1.03125 0.71538,1.71215 1.39351,1.06012 0.90625,-0.875 -0.24157,-0.95937 -0.78852,-1.76802 -2.0625,-3.15625 -0.94234,-1.02687 -1.78639,-2.0821 -1.875,-2.34375 -0.31011,-0.91565 -1.49524,-1.53285 -2.9375,-1.5 -1.04854,0.0239 -1.72642,0.25247 -2.9375,1 -1.80463,1.11386 -2.1875,1.19836 -2.1875,0.4375 0,-0.59013 -1.64079,-2.58592 -2.53125,-3.0625 -0.37946,-0.20308 -1.15844,-0.28125 -1.9375,-0.25 z m -0.65625,0.8125 c 1.54099,-0.24361 2.38438,0.0627 3.5,1.28125 0.63212,0.69043 0.6148,0.72467 0.0625,0.4375 -0.73086,-0.38004 -2.88987,-0.42301 -4.1875,-0.0625 -0.57766,0.16048 -1.5425698,0.87503 -2.4374998,1.78125 -0.81852,0.82879 -1.55444,1.5 -1.65625,1.5 -0.10183,-1e-5 -0.08971,-0.49413 0.0625,-1.09375 0.25285,-0.99616 0.8651,-1.67354 2.9375,-3.34375 0.20905,-0.16848 0.9698098,-0.38159 1.7187498,-0.5 z m 10.125,1.9375 c 0.97313,-1e-5 2.65626,0.71479 2.65625,1.125 0,0.0969 0.30453,0.62313 0.6875,1.1875 0.38297,0.56432 0.66998,1.08091 0.625,1.125 -0.04498,0.0441 -0.50392,0.15154 -1.03125,0.25 -0.82961,0.15491 -1.06679,0.0611 -1.59375,-0.59375 -0.58769,-0.73038 -0.60089,-0.72182 -0.96875,-0.21875 -0.36704,0.50195 -0.41779,0.4929 -1.40625,-0.375 -1.03569,-0.90936 -1.47433,-0.9916 -3,-0.4375 -0.43522,0.15805 -0.41901,0.0971 0.125,-0.34375 1.25643,-1.01804 2.84212,-1.71875 3.90625,-1.71875 z m -8.84375,0.28125 c 1.53319,-1e-5 1.66174,0.0548 1.65625,0.625 -0.0041,0.4228 -0.26836,0.71814 -0.875,1 -0.48496,0.22533 -1.26809,0.99091 -1.71875,1.6875 -0.70846,1.09504 -0.92706,1.24313 -1.5625,1.125 -0.6290098,-0.11697 -0.8336298,0.0466 -1.5937498,1.125 -0.91553,1.29885 -1.34374,1.55694 -1.34375,0.84375 0,-0.22534 -0.10609,-0.38158 -0.21875,-0.375 -0.11267,0.007 -0.72739,0.83631 -1.375,1.84375 -1.33523,2.07702 -1.39534,1.60763 -0.25,-1.6875 0.52444,-1.50877 0.97492,-2.17179 2.40625,-3.625 2.1946598,-2.22816 2.8074398,-2.5625 4.8749998,-2.5625 z m 3.46875,2.65625 c 0.07577,0.18776 0.07579,0.49972 0,0.6875 -0.07577,0.18776 -0.12499,0.0318 -0.125,-0.34375 0,-0.37557 0.04925,-0.53153 0.125,-0.34375 z m 9.75,0.71875 c 0.09906,0.0271 0.30709,0.16084 0.65625,0.4375 0.47234,0.37426 0.86668,0.79358 0.875,0.90625 0.0083,0.11265 -0.2807,0.1875 -0.65625,0.1875 -0.40737,-1e-5 -0.68751,-0.1439 -0.6875,-0.375 0,-0.21305 -0.08239,-0.63239 -0.1875,-0.90625 -0.07769,-0.20247 -0.09906,-0.27707 0,-0.25 z m -8.65625,6.65625 c 0.07577,0.18777 0.07577,0.49972 0,0.6875 -0.07577,0.18777 -0.12501,0.0318 -0.125,-0.34375 0,-0.37556 0.04923,-0.53153 0.125,-0.34375 z"
         style="fill:#5c2700;fill-opacity:1"
         inkscape:connector-curvature="0" />
    </g>
  </g>
  <metadata
     id="metadata15">
    <rdf:RDF>
      <cc:Work
         rdf:about="">
        <dc:title>tree - RPG map elements</dc:title>
        <dc:description />
        <dc:subject>
          <rdf:Bag>
            <rdf:li>mapsym</rdf:li>
          </rdf:Bag>
        </dc:subject>
        <dc:publisher>
          <cc:Agent>
            <dc:title />
          </cc:Agent>
        </dc:publisher>
        <dc:creator>
          <cc:Agent>
            <dc:title>Nicu Buculei</dc:title>
          </cc:Agent>
        </dc:creator>
        <dc:rights>
          <cc:Agent>
            <dc:title>Nicu Buculei</dc:title>
          </cc:Agent>
        </dc:rights>
        <dc:date />
        <dc:format>image/svg+xml</dc:format>
        <dc:type
           rdf:resource="http://purl.org/dc/dcmitype/StillImage" />
        <cc:license
           rdf:resource="http://web.resource.org/cc/PublicDomain" />
        <dc:language>en</dc:language>
      </cc:Work>
      <cc:License
         rdf:about="http://web.resource.org/cc/PublicDomain">
        <cc:permits
           rdf:resource="http://web.resource.org/cc/Reproduction" />
        <cc:permits
           rdf:resource="http://web.resource.org/cc/Distribution" />
        <cc:permits
           rdf:resource="http://web.resource.org/cc/DerivativeWorks" />
      </cc:License>
    </rdf:RDF>
  </metadata>
</svg>
