<?xml version="1.0" encoding="UTF-8" standalone="no"?>
<!-- Created with Inkscape (http://www.inkscape.org/) -->
<svg
   xmlns:dc="http://purl.org/dc/elements/1.1/"
   xmlns:cc="http://creativecommons.org/ns#"
   xmlns:rdf="http://www.w3.org/1999/02/22-rdf-syntax-ns#"
   xmlns:svg="http://www.w3.org/2000/svg"
   xmlns="http://www.w3.org/2000/svg"
   xmlns:xlink="http://www.w3.org/1999/xlink"
   xmlns:sodipodi="http://sodipodi.sourceforge.net/DTD/sodipodi-0.dtd"
   xmlns:inkscape="http://www.inkscape.org/namespaces/inkscape"
   width="207.73395"
   height="278.0574"
   id="svg3987"
   sodipodi:version="0.32"
   inkscape:version="0.46"
   sodipodi:docname="trebol.svg"
   inkscape:output_extension="org.inkscape.output.svg.inkscape"
   version="1.0"
   inkscape:export-filename="/home/roger/mis-dibujos/open/temporal/trebol.png"
   inkscape:export-xdpi="90"
   inkscape:export-ydpi="90">
  <defs
     id="defs3">
    <linearGradient
       inkscape:collect="always"
       id="linearGradient7479">
      <stop
         style="stop-color:#69a92b;stop-opacity:1;"
         offset="0"
         id="stop7481" />
      <stop
         style="stop-color:#73d216;stop-opacity:1"
         offset="1"
         id="stop7483" />
    </linearGradient>
    <linearGradient
       id="linearGradient7439"
       inkscape:collect="always">
      <stop
         id="stop7441"
         offset="0"
         style="stop-color:#000000;stop-opacity:0.25" />
      <stop
         id="stop7443"
         offset="1"
         style="stop-color:#deead0;stop-opacity:0;" />
    </linearGradient>
    <linearGradient
       id="linearGradient7431"
       inkscape:collect="always">
      <stop
         id="stop7433"
         offset="0"
         style="stop-color:#000000;stop-opacity:0.25" />
      <stop
         id="stop7435"
         offset="1"
         style="stop-color:#deead0;stop-opacity:0;" />
    </linearGradient>
    <linearGradient
       inkscape:collect="always"
       id="linearGradient7393">
      <stop
         style="stop-color:#deead0;stop-opacity:1;"
         offset="0"
         id="stop7395" />
      <stop
         style="stop-color:#deead0;stop-opacity:0;"
         offset="1"
         id="stop7397" />
    </linearGradient>
    <inkscape:perspective
       sodipodi:type="inkscape:persp3d"
       inkscape:vp_x="0 : 526.18109 : 1"
       inkscape:vp_y="0 : 1000 : 0"
       inkscape:vp_z="744.09448 : 526.18109 : 1"
       inkscape:persp3d-origin="372.04724 : 350.78739 : 1"
       id="perspective3993" />
    <linearGradient
       inkscape:collect="always"
       xlink:href="#linearGradient7393"
       id="linearGradient7467"
       gradientUnits="userSpaceOnUse"
       x1="391.22729"
       y1="480.13977"
       x2="396.31375"
       y2="548.02203" />
    <linearGradient
       inkscape:collect="always"
       xlink:href="#linearGradient7393"
       id="linearGradient7469"
       gradientUnits="userSpaceOnUse"
       x1="391.22729"
       y1="480.13977"
       x2="396.31375"
       y2="548.02203" />
    <linearGradient
       inkscape:collect="always"
       xlink:href="#linearGradient7431"
       id="linearGradient7471"
       gradientUnits="userSpaceOnUse"
       x1="404.66232"
       y1="494.98901"
       x2="400.5564"
       y2="545.1936" />
    <linearGradient
       inkscape:collect="always"
       xlink:href="#linearGradient7439"
       id="linearGradient7473"
       gradientUnits="userSpaceOnUse"
       x1="391.22729"
       y1="480.13977"
       x2="396.31375"
       y2="548.02203" />
    <linearGradient
       inkscape:collect="always"
       xlink:href="#linearGradient7479"
       id="linearGradient7485"
       x1="466.54852"
       y1="569.42224"
       x2="543.94751"
       y2="723.92505"
       gradientUnits="userSpaceOnUse"
       gradientTransform="translate(52.679455,-26.870058)" />
    <linearGradient
       inkscape:collect="always"
       xlink:href="#linearGradient7479"
       id="linearGradient7493"
       gradientUnits="userSpaceOnUse"
       gradientTransform="translate(52.679455,-26.870058)"
       x1="466.54852"
       y1="569.42224"
       x2="543.94751"
       y2="723.92505" />
  </defs>
  <sodipodi:namedview
     inkscape:document-units="mm"
     id="base"
     pagecolor="#ffffff"
     bordercolor="#666666"
     borderopacity="1.0"
     inkscape:pageopacity="0.0"
     inkscape:pageshadow="2"
     inkscape:zoom="2.8284271"
     inkscape:cx="122.63245"
     inkscape:cy="161.93437"
     inkscape:current-layer="layer1"
     showgrid="false"
     inkscape:window-width="1272"
     inkscape:window-height="944"
     inkscape:window-x="0"
     inkscape:window-y="0"
     showguides="true"
     inkscape:guide-bbox="true">
    <sodipodi:guide
       orientation="0,1"
       position="754,1424"
       id="guide4787" />
    <sodipodi:guide
       orientation="0,1"
       position="-346,94"
       id="guide4793" />
    <sodipodi:guide
       orientation="1,0"
       position="-61,464"
       id="guide7437" />
  </sodipodi:namedview>
  <metadata
     id="metadata4">
    <rdf:RDF>
      <cc:Work
         rdf:about="">
        <dc:format>image/svg+xml</dc:format>
        <dc:type
           rdf:resource="http://purl.org/dc/dcmitype/StillImage" />
      </cc:Work>
    </rdf:RDF>
  </metadata>
  <g
     inkscape:label="Layer 1"
     inkscape:groupmode="layer"
     id="layer1"
     transform="translate(-339.01173,-471.73084)">
    <path
       id="path7487"
       d="M 462.3956,564.44679 C 442.2476,559.79235 426.53834,559.45353 426.53834,559.45353 C 424.25504,559.27956 422.06071,560.37381 420.82583,562.30224 C 419.59094,564.23066 419.5151,566.68151 420.62839,568.6826 C 421.74167,570.68368 423.86416,571.91152 426.15385,571.87905 C 426.15385,571.87905 473.57042,573.79055 505.1657,595.28626 C 520.96333,606.03411 532.68258,620.92562 534.15952,643.64521 C 535.63643,666.3648 526.39415,697.72847 497.35949,740.03962 C 495.41268,742.87198 496.13055,746.74625 498.9629,748.69304 C 501.79524,750.63984 505.6695,749.92196 507.6163,747.0896 C 537.5707,703.43813 548.30524,669.58317 546.56602,642.82882 C 544.82682,616.07448 530.13698,597.23675 512.1519,585.00068 C 496.41496,574.29411 478.06628,568.0669 462.3956,564.44679 z"
       style="fill:#4e9a06;fill-opacity:1;fill-rule:evenodd;stroke:none;stroke-width:28.34645653;stroke-linecap:round;stroke-linejoin:miter;stroke-miterlimit:4;stroke-dasharray:none;stroke-opacity:1" />
    <path
       sodipodi:type="inkscape:offset"
       inkscape:radius="-1.2639942"
       inkscape:original="M 510.375 537.96875 C 489.69637 537.95534 474.3125 541.15625 474.3125 541.15625 C 472.0484 541.49919 470.14554 543.06236 469.375 545.21875 C 468.60447 547.37511 469.09096 549.79986 470.625 551.5 C 472.15902 553.20015 474.49477 553.92057 476.71875 553.375 C 476.71874 553.375 523.35484 544.58194 558.96875 558.4375 C 576.77567 565.3653 591.555 577.25411 598.09375 599.0625 C 604.6325 620.8709 602.67193 653.50148 583.875 701.25 C 582.61363 704.44708 584.17796 708.05111 587.375 709.3125 C 590.57204 710.57389 594.17611 709.00956 595.4375 705.8125 C 614.82988 656.55143 617.69996 621.15008 610 595.46875 C 602.30005 569.78744 583.74137 554.73079 563.46875 546.84375 C 545.73023 539.94256 526.45838 537.97915 510.375 537.96875 z "
       style="fill:url(#linearGradient7493);fill-opacity:1;fill-rule:evenodd;stroke:none;stroke-width:28.34645653;stroke-linecap:round;stroke-linejoin:miter;stroke-miterlimit:4;stroke-dasharray:none;stroke-opacity:1"
       id="path7491"
       d="M 510.375,539.21875 C 489.82721,539.20542 474.5625,542.40625 474.5625,542.40625 C 474.54167,542.40677 474.52083,542.40677 474.5,542.40625 C 472.69454,542.67972 471.17629,543.93853 470.5625,545.65625 C 469.94973,547.37112 470.33985,549.30122 471.5625,550.65625 C 472.78799,552.01446 474.63121,552.59169 476.40625,552.15625 C 476.43708,552.14462 476.46835,552.13419 476.5,552.125 C 476.5,552.125 523.30769,543.19373 559.4375,557.25 C 577.47957,564.26928 592.65956,576.49827 599.3125,598.6875 C 605.97083,620.89472 603.92035,653.81547 585.0625,701.71875 C 584.05109,704.28228 585.28038,707.11363 587.84375,708.125 C 590.40723,709.13642 593.23863,707.90713 594.25,705.34375 C 613.58234,656.23519 616.36462,621.13622 608.78125,595.84375 C 601.20273,570.56744 583.00896,555.81571 563,548.03125 C 545.47429,541.21285 526.35616,539.22908 510.375,539.21875 z"
       transform="matrix(0.9744847,0.2244538,-0.2244538,0.9744847,84.839259,-74.947817)" />
    <g
       id="g7421"
       transform="matrix(-0.7071068,0.7071068,-0.7071068,-0.7071068,1116.8473,693.96055)">
      <g
         id="g7454"
         transform="matrix(0.981949,0.189146,-0.189146,0.981949,116.29375,-63.948485)">
        <g
           transform="matrix(-1,0,0,-1,786.37213,1154.625)"
           id="g7401">
          <path
             style="fill:#73d216;fill-opacity:1;fill-rule:nonzero;stroke:none;stroke-width:0.5;stroke-linecap:round;stroke-linejoin:bevel;marker:none;marker-start:none;marker-mid:none;marker-end:none;stroke-miterlimit:4;stroke-dashoffset:0;stroke-opacity:1;visibility:visible;display:inline;overflow:visible;enable-background:accumulate"
             d="M 429.64383,506.68466 C 429.64383,524.34677 412.78074,559.2358 393.58138,578.68124 C 375.08912,562.41778 357.51893,524.34677 357.51893,506.68466 C 357.51893,489.02254 373.67491,474.68808 393.58138,474.68808 C 413.48785,474.68808 429.64383,489.02254 429.64383,506.68466 z"
             id="path6877"
             sodipodi:nodetypes="ccssc" />
          <path
             sodipodi:type="inkscape:offset"
             inkscape:radius="-3.4423375"
             inkscape:original="M 393.59375 474.6875 C 373.68728 474.6875 357.53126 489.02538 357.53125 506.6875 C 357.53125 524.34961 375.10148 562.42407 393.59375 578.6875 C 412.79311 559.24206 429.65625 524.34961 429.65625 506.6875 C 429.65625 489.02538 413.50021 474.6875 393.59375 474.6875 z "
             style="fill:url(#linearGradient7467);fill-opacity:1;fill-rule:nonzero;stroke:none;stroke-width:0.5;stroke-linecap:round;stroke-linejoin:bevel;marker:none;marker-start:none;marker-mid:none;marker-end:none;stroke-miterlimit:4;stroke-dashoffset:0;stroke-opacity:1;visibility:visible;display:inline;overflow:visible;enable-background:accumulate"
             id="path6882"
             d="M 393.59375,478.125 C 375.3402,478.125 360.96876,491.12458 360.96875,506.6875 C 360.96875,514.37708 365.15616,528.24986 371.71875,541.71875 C 377.67869,553.95078 385.61653,565.80468 393.5,573.625 C 401.86881,564.48012 409.83147,552.45349 415.75,540.5 C 422.22557,527.42147 426.21875,514.42302 426.21875,506.6875 C 426.21875,491.12458 411.84729,478.125 393.59375,478.125 z" />
        </g>
        <g
           id="g7407"
           transform="matrix(0,1,1,0,-184.12644,184.12644)">
          <path
             sodipodi:nodetypes="ccssc"
             id="path7409"
             d="M 429.64383,506.68466 C 429.64383,524.34677 412.78074,559.2358 393.58138,578.68124 C 375.08912,562.41778 357.51893,524.34677 357.51893,506.68466 C 357.51893,489.02254 373.67491,474.68808 393.58138,474.68808 C 413.48785,474.68808 429.64383,489.02254 429.64383,506.68466 z"
             style="fill:#73d216;fill-opacity:1;fill-rule:nonzero;stroke:none;stroke-width:0.5;stroke-linecap:round;stroke-linejoin:bevel;marker:none;marker-start:none;marker-mid:none;marker-end:none;stroke-miterlimit:4;stroke-dashoffset:0;stroke-opacity:1;visibility:visible;display:inline;overflow:visible;enable-background:accumulate" />
          <path
             d="M 393.59375,478.125 C 375.3402,478.125 360.96876,491.12458 360.96875,506.6875 C 360.96875,514.37708 365.15616,528.24986 371.71875,541.71875 C 377.67869,553.95078 385.61653,565.80468 393.5,573.625 C 401.86881,564.48012 409.83147,552.45349 415.75,540.5 C 422.22557,527.42147 426.21875,514.42302 426.21875,506.6875 C 426.21875,491.12458 411.84729,478.125 393.59375,478.125 z"
             id="path7411"
             style="fill:url(#linearGradient7469);fill-opacity:1;fill-rule:nonzero;stroke:none;stroke-width:0.5;stroke-linecap:round;stroke-linejoin:bevel;marker:none;marker-start:none;marker-mid:none;marker-end:none;stroke-miterlimit:4;stroke-dashoffset:0;stroke-opacity:1;visibility:visible;display:inline;overflow:visible;enable-background:accumulate"
             inkscape:original="M 393.59375 474.6875 C 373.68728 474.6875 357.53126 489.02538 357.53125 506.6875 C 357.53125 524.34961 375.10148 562.42407 393.59375 578.6875 C 412.79311 559.24206 429.65625 524.34961 429.65625 506.6875 C 429.65625 489.02538 413.50021 474.6875 393.59375 474.6875 z "
             inkscape:radius="-3.4423375"
             sodipodi:type="inkscape:offset" />
        </g>
        <g
           id="g7415"
           transform="matrix(0,-1,-1,0,970.49857,970.49857)">
          <path
             sodipodi:nodetypes="ccssc"
             id="path7417"
             d="M 429.64383,506.68466 C 429.64383,524.34677 412.78074,559.2358 393.58138,578.68124 C 375.08912,562.41778 357.51893,524.34677 357.51893,506.68466 C 357.51893,489.02254 373.67491,474.68808 393.58138,474.68808 C 413.48785,474.68808 429.64383,489.02254 429.64383,506.68466 z"
             style="fill:#73d216;fill-opacity:1;fill-rule:nonzero;stroke:none;stroke-width:0.5;stroke-linecap:round;stroke-linejoin:bevel;marker:none;marker-start:none;marker-mid:none;marker-end:none;stroke-miterlimit:4;stroke-dashoffset:0;stroke-opacity:1;visibility:visible;display:inline;overflow:visible;enable-background:accumulate" />
          <path
             d="M 393.59375,478.125 C 375.3402,478.125 360.96876,491.12458 360.96875,506.6875 C 360.96875,514.37708 365.15616,528.24986 371.71875,541.71875 C 377.67869,553.95078 385.61653,565.80468 393.5,573.625 C 401.86881,564.48012 409.83147,552.45349 415.75,540.5 C 422.22557,527.42147 426.21875,514.42302 426.21875,506.6875 C 426.21875,491.12458 411.84729,478.125 393.59375,478.125 z"
             id="path7419"
             style="fill:url(#linearGradient7471);fill-opacity:1;fill-rule:nonzero;stroke:none;stroke-width:0.5;stroke-linecap:round;stroke-linejoin:bevel;marker:none;marker-start:none;marker-mid:none;marker-end:none;stroke-miterlimit:4;stroke-dashoffset:0;stroke-opacity:1;visibility:visible;display:inline;overflow:visible;enable-background:accumulate"
             inkscape:original="M 393.59375 474.6875 C 373.68728 474.6875 357.53126 489.02538 357.53125 506.6875 C 357.53125 524.34961 375.10148 562.42407 393.59375 578.6875 C 412.79311 559.24206 429.65625 524.34961 429.65625 506.6875 C 429.65625 489.02538 413.50021 474.6875 393.59375 474.6875 z "
             inkscape:radius="-3.4423375"
             sodipodi:type="inkscape:offset" />
        </g>
        <path
           style="fill:#73d216;fill-opacity:1;fill-rule:nonzero;stroke:none;stroke-width:0.5;stroke-linecap:round;stroke-linejoin:bevel;marker:none;marker-start:none;marker-mid:none;marker-end:none;stroke-miterlimit:4;stroke-dashoffset:0;stroke-opacity:1;visibility:visible;display:inline;overflow:visible;enable-background:accumulate"
           d="M 429.64383,506.68466 C 429.64383,524.34677 412.78074,559.2358 393.58138,578.68124 C 375.08912,562.41778 357.51893,524.34677 357.51893,506.68466 C 357.51893,489.02254 373.67491,474.68808 393.58138,474.68808 C 413.48785,474.68808 429.64383,489.02254 429.64383,506.68466 z"
           id="path7423"
           sodipodi:nodetypes="ccssc" />
        <path
           sodipodi:type="inkscape:offset"
           inkscape:radius="-3.4423375"
           inkscape:original="M 393.59375 474.6875 C 373.68728 474.6875 357.53126 489.02538 357.53125 506.6875 C 357.53125 524.34961 375.10148 562.42407 393.59375 578.6875 C 412.79311 559.24206 429.65625 524.34961 429.65625 506.6875 C 429.65625 489.02538 413.50021 474.6875 393.59375 474.6875 z "
           style="fill:url(#linearGradient7473);fill-opacity:1;fill-rule:nonzero;stroke:none;stroke-width:0.5;stroke-linecap:round;stroke-linejoin:bevel;marker:none;marker-start:none;marker-mid:none;marker-end:none;stroke-miterlimit:4;stroke-dashoffset:0;stroke-opacity:1;visibility:visible;display:inline;overflow:visible;enable-background:accumulate"
           id="path7425"
           d="M 393.59375,478.125 C 375.3402,478.125 360.96876,491.12458 360.96875,506.6875 C 360.96875,514.37708 365.15616,528.24986 371.71875,541.71875 C 377.67869,553.95078 385.61653,565.80468 393.5,573.625 C 401.86881,564.48012 409.83147,552.45349 415.75,540.5 C 422.22557,527.42147 426.21875,514.42302 426.21875,506.6875 C 426.21875,491.12458 411.84729,478.125 393.59375,478.125 z" />
      </g>
    </g>
  </g>
</svg>
