<?xml version="1.0" encoding="UTF-8" standalone="no"?>
<!-- Created with Inkscape (http://www.inkscape.org/) -->

<svg
   xmlns:dc="http://purl.org/dc/elements/1.1/"
   xmlns:cc="http://creativecommons.org/ns#"
   xmlns:rdf="http://www.w3.org/1999/02/22-rdf-syntax-ns#"
   xmlns:svg="http://www.w3.org/2000/svg"
   xmlns="http://www.w3.org/2000/svg"
   xmlns:xlink="http://www.w3.org/1999/xlink"
   xmlns:sodipodi="http://sodipodi.sourceforge.net/DTD/sodipodi-0.dtd"
   xmlns:inkscape="http://www.inkscape.org/namespaces/inkscape"
   width="234.55966"
   height="256.82309"
   id="svg2"
   sodipodi:version="0.32"
   inkscape:version="0.48.1 r9760"
   sodipodi:docname="TheresaKnott_holly.svg"
   inkscape:output_extension="org.inkscape.output.svg.inkscape"
   version="1.0">
  <defs
     id="defs4">
    <linearGradient
       inkscape:collect="always"
       id="linearGradient10221">
      <stop
         style="stop-color:#4d4e52;stop-opacity:1;"
         offset="0"
         id="stop10223" />
      <stop
         style="stop-color:#4d4e52;stop-opacity:0;"
         offset="1"
         id="stop10225" />
    </linearGradient>
    <linearGradient
       inkscape:collect="always"
       id="linearGradient10209">
      <stop
         style="stop-color:#000000;stop-opacity:1;"
         offset="0"
         id="stop10211" />
      <stop
         style="stop-color:#000000;stop-opacity:0;"
         offset="1"
         id="stop10213" />
    </linearGradient>
    <radialGradient
       inkscape:collect="always"
       xlink:href="#linearGradient10209"
       id="radialGradient10215"
       cx="892.92804"
       cy="285.17929"
       fx="892.92804"
       fy="285.17929"
       r="146.21782"
       gradientTransform="matrix(1.181664,1.05818e-6,-8.702674e-7,0.971823,-162.2125,8.034409)"
       gradientUnits="userSpaceOnUse" />
    <radialGradient
       inkscape:collect="always"
       xlink:href="#linearGradient10221"
       id="radialGradient10227"
       cx="351.00189"
       cy="184.75345"
       fx="351.00189"
       fy="184.75345"
       r="110.25096"
       gradientTransform="matrix(1.529685,-0.16487,0.173412,1.608933,-394.27202,-77.492507)"
       gradientUnits="userSpaceOnUse" />
  </defs>
  <sodipodi:namedview
     id="base"
     pagecolor="#ffffff"
     bordercolor="#666666"
     borderopacity="1.0"
     inkscape:pageopacity="0.0"
     inkscape:pageshadow="2"
     inkscape:zoom="0.37925495"
     inkscape:cx="-314.13593"
     inkscape:cy="214.40865"
     inkscape:document-units="px"
     inkscape:current-layer="layer1"
     showguides="true"
     inkscape:guide-bbox="true"
     inkscape:window-width="1280"
     inkscape:window-height="744"
     inkscape:window-x="-4"
     inkscape:window-y="-4"
     showgrid="false"
     fit-margin-top="0"
     fit-margin-left="0"
     fit-margin-right="0"
     fit-margin-bottom="0"
     inkscape:window-maximized="0" />
  <metadata
     id="metadata7">
    <rdf:RDF>
      <cc:Work
         rdf:about="">
        <dc:format>image/svg+xml</dc:format>
        <dc:type
           rdf:resource="http://purl.org/dc/dcmitype/StillImage" />
      </cc:Work>
    </rdf:RDF>
  </metadata>
  <g
     inkscape:groupmode="layer"
     id="layer3"
     inkscape:label="green leaf"
     style="display:inline"
     transform="translate(-57.977976,-34.02937)" />
  <g
     inkscape:label="Layer 1"
     inkscape:groupmode="layer"
     id="layer1"
     style="display:inline"
     transform="translate(-57.977976,-34.02937)" />
  <g
     inkscape:groupmode="layer"
     id="layer2"
     inkscape:label="leaf markings"
     style="display:inline"
     transform="translate(-57.977976,-34.02937)">
    <path
       style="fill:url(#radialGradient10227);fill-opacity:1;display:inline"
       d="m 287.56978,183.52047 c -3.71744,-3.08252 -11.5191,1.82108 -13.49021,-4.35559 -1.02878,-4.21848 -0.76052,-11.85249 -4.9909,-4.7237 -3.25202,5.00564 -12.28151,8.88204 -16.07323,2.44785 -2.51556,-3.53288 -7.37348,-0.37604 -6.82562,3.44498 0.47089,5.91174 -7.13612,11.26126 -12.26072,8.30593 -1.79888,-3.6497 -4.98373,-6.74258 -8.58069,-8.31832 0.39973,-4.87118 -0.96851,-11.32061 -6.7849,-11.8426 -3.22866,-1.20626 -6.14657,1.364 -8.88766,1.79051 -1.50967,-1.09233 -6.1024,-1.73378 -2.33726,-2.38631 3.40261,-3.79631 -3.30273,-9.54779 0.97544,-13.25986 4.02044,-2.1946 8.03278,-0.006 11.33035,2.20681 5.89625,0.67928 5.82091,-7.34375 5.25041,-11.2847 -1.71899,-4.63793 -0.3703,-9.37708 0.0482,-14.07207 -0.004,-3.69197 -0.0148,-11.68407 -5.73115,-10.05182 -8.36733,2.88598 -19.48559,2.44888 -24.72408,-5.88215 -5.07526,-8.26626 -6.00029,-4.72119 -5.46938,3.05054 -0.16988,5.04347 -4.72628,11.87101 -10.40383,8.47149 -1.76052,-2.10504 -6.02679,-5.42297 -7.53768,-1.19117 -0.34164,3.68673 -2.21157,9.06152 -4.62603,10.38668 -0.61566,-3.99097 -1.98531,-9.55132 -0.21067,-12.75534 4.97629,-1.02676 8.73839,-5.36207 7.63962,-10.54164 0.16706,-2.61333 -3.27476,-5.40157 -3.56384,-6.68752 3.09922,2.87288 6.06234,11.45802 8.88422,4.00779 4.4882,-7.96796 16.09514,-6.86604 21.94214,-1.07979 2.83092,2.49408 7.00878,-0.73339 5.19618,-3.99179 -3.55859,-4.52699 1.12024,-11.388187 6.62228,-10.422177 3.19875,-0.31133 10.42269,2.366 10.36234,-2.90421 -4.58,-5.89573 -0.80081,-13.945036 4.26613,-18.134996 2.38544,-2.860423 9.0469,-4.252439 7.56782,-8.858898 -6.7189,-3.173728 -16.6346,1.415642 -21.67092,-5.202183 -0.40499,-2.867571 -3.35519,-7.843979 -6.30594,-4.331218 -1.72232,4.096324 -4.18455,8.251737 -8.98179,9.26121 -6.85202,2.879888 -12.62874,-4.522398 -19.22342,-3.576575 -4.25496,2.670918 -0.54208,8.478423 -2.23866,12.427216 -0.15103,7.82201 -7.67257,12.648104 -13.73815,15.675014 0.60977,-4.261925 -0.96761,-8.898191 -5.62248,-10.021956 -4.00734,-1.603238 -8.87588,-0.0065 -11.06571,3.762545 -3.55223,-2.330684 -2.93533,-7.435115 -5.9873,-10.42785 -2.86738,-4.429578 -6.23645,-8.513775 -10.04541,-12.145643 4.45727,0.718155 11.9497,-0.845832 11.56559,-6.627353 -3.22311,-4.578743 -10.17009,-2.656115 -14.97298,-3.807469 -15.82115,-0.892383 -30.785433,-7.114668 -44.867623,-13.676141 -3.91139,-3.481851 -7.41557,2.911141 -11.60673,2.526184 -3.55232,0.742722 -10.07877,4.089272 -6.98393,8.435141 5.08163,2.446465 11.30474,1.850439 16.70016,3.772191 15.60554,3.4227 32.071693,7.114737 43.980593,18.535595 2.10648,2.401283 7.77004,6.185855 5.42544,9.725085 -2.93479,2.333531 -6.99147,0.27826 -7.0486,-3.591549 -0.48629,-8.289943 -7.79693,-0.383737 -12.1662,0.637565 -10.24162,4.859202 -21.710293,7.965584 -29.490623,16.679435 -6.21757,5.93927 -13.65891,9.863937 -21.64939,12.695827 -3.64789,3.22803 2.02051,6.22593 4.96757,6.45317 6.19253,2.96524 12.37966,7.53591 14.53748,14.27937 2.33671,3.23793 5.80395,0.2768 7.35642,-2.04064 3.83281,-2.90282 9.97333,-4.74236 13.143,0.12533 2.179073,1.99385 6.254143,7.89138 8.768453,3.41714 1.73963,-4.20124 0.14556,-13.07334 6.69663,-12.98151 4.50867,0.0672 7.84916,7.61884 12.40337,4.25457 2.13933,-4.06525 -0.65268,-9.47997 2.50746,-13.405 0.96398,-1.6744 3.01851,-7.048677 4.15421,-6.741117 -4.45471,4.906017 -2.38351,14.743497 4.98934,15.268077 2.39671,0.56187 6.01235,0.0679 5.87276,3.52001 0.82481,3.11641 4.99818,5.0869 6.93618,5.43928 -2.71243,1.86886 -6.90067,4.11527 -8.88427,0.11055 -4.99215,-2.87087 -5.95339,3.92619 -6.67524,7.27955 -4.40264,4.89514 -12.33364,4.69668 -18.40149,5.36842 -3.01508,-0.19837 -11.06012,-0.62937 -8.53725,4.43962 3.17996,3.12006 9.17771,5.94752 7.34898,11.45833 -0.97466,6.13938 -7.8141,6.8808 -12.23345,9.48195 -3.50055,3.63409 2.35943,6.35739 5.4214,6.82962 3.28302,0.52505 4.71586,3.98635 2.2503,6.29946 -3.3523,5.91057 -7.80353,11.2573 -12.542863,15.9047 -2.00217,3.16801 1.570883,6.46607 4.694153,4.83196 6.2874,-1.03217 11.94526,-4.35398 17.61331,-6.55587 2.88495,0.91221 6.78045,5.49946 9.63175,1.64998 1.05234,-7.12923 7.61034,-13.65129 15.2239,-12.48008 4.28403,0.44705 4.07419,-4.51126 2.92006,-7.28713 -1.03046,-4.61323 -0.10551,-9.67999 4.64866,-11.80966 1.65962,-1.28325 4.45995,-3.10692 6.03405,-2.95247 -2.16385,4.42807 -10.79665,5.39714 -8.90718,11.47495 2.25834,2.30177 3.29359,5.70532 0.61587,8.22319 -3.47404,5.23726 -10.36461,7.77149 -12.92355,13.56187 1.93263,5.55604 9.99265,-0.41787 12.75096,3.41529 1.30504,6.01284 -2.62756,11.36396 -7.70667,14.00722 -3.53071,1.63756 -3.68303,8.31569 1.16187,6.98901 4.37712,-2.15921 11.98751,-2.21937 12.66096,3.93886 -0.0527,3.70998 -3.95505,8.05446 -2.47069,10.83432 4.00861,1.89957 9.86418,-0.97657 12.62957,3.84138 3.40952,2.83752 3.98798,11.32091 10.02131,9.38848 3.83668,-3.47856 -1.44797,-8.7896 -0.91238,-13.09567 -0.19561,-4.72889 0.82084,-11.20943 4.88014,-13.89434 3.96786,-0.83407 9.1761,1.59148 12.22754,-1.64541 -2.06082,-5.82206 -9.06308,-8.8967 -8.94098,-15.86898 -0.64549,-4.89336 0.76743,-9.79744 2.94383,-14.17494 2.73136,0.75039 3.56377,2.46375 1.66035,4.81596 -1.55825,5.11905 1.87178,11.24738 6.64481,12.71194 -3.11418,7.35513 6.16099,15.27785 13.03187,11.12393 3.72968,-2.96049 3.97411,3.92025 3.6835,6.15412 -0.36329,8.55917 -5.91927,15.23731 -11.37759,21.21377 -1.39214,5.00611 5.43622,2.82173 7.86564,5.16446 8.5829,5.40332 4.2208,16.41629 4.58514,24.58613 -0.61264,3.77867 3.65106,4.19839 5.58031,1.54303 2.59985,-1.45596 6.00434,-7.24693 9.18966,-4.55699 3.87916,4.04598 -2.08263,9.31005 0.75366,13.41163 4.43528,3.12132 9.70832,-5.58428 13.81609,-0.42672 3.26043,3.32185 0.82877,11.01611 5.96366,12.34489 6.26018,-3.16086 1.4574,-12.73121 7.10952,-16.80501 6.15748,-2.97622 3.20848,-5.9003 -1.2471,-8.83719 -1.27788,-2.17445 2.78611,-4.56445 4.37954,-5.7623 3.40786,-1.54904 2.03907,-6.26797 -1.54874,-6.26839 -6.14006,-0.62845 -12.40214,-7.79645 -9.95301,-13.85507 2.04093,-2.46762 8.05256,-6.78381 3.70617,-9.98337 -3.30271,-1.42548 -10.15427,-1.87052 -8.63279,-6.98432 4.06972,-2.77025 10.61814,4.87225 13.58918,-0.61493 0.52056,-3.29534 -3.14946,-6.51247 -2.10521,-9.63933 6.28736,-1.93475 12.22673,2.64173 17.45088,5.38144 5.46403,-0.0267 3.14867,-7.22971 3.42093,-10.64605 -0.35272,-8.53004 5.71811,-14.96078 11.56343,-20.25482 0.77549,-0.92506 1.26943,-1.97552 0.40146,-3.06265 z m -83.36419,-15.4558 c -5.24501,-1.57658 -9.30883,3.71531 -11.77345,6.79491 0.0269,-4.33729 -6.65868,-5.25991 -7.59307,-8.01983 4.03546,-0.32886 1.29601,-6.34672 5.68484,-6.19453 4.89026,0.59433 10.12688,4.93117 13.68168,7.41945 z"
       id="path9186"
       inkscape:connector-curvature="0" />
    <g
       id="g9133"
       transform="matrix(0,-1,1,0,10.420277,518.27938)">
      <path
         style="fill:#2e5918;display:inline"
         d="m 337.57184,277.74837 c -5.34967,-5.5841 -12.36581,-8.036 -20.54788,-7.18081 -6.45469,0.67465 -6.96641,0.13752 -3.95136,-4.14756 2.81045,-3.99428 4.54707,-12.49359 3.10378,-15.1904 -0.94887,-1.77297 -1.69822,-2.02691 -4.29694,-1.45614 -1.7312,0.38024 -3.92945,1.17959 -4.88499,1.77633 -2.49268,1.5567 -3.23024,0.25246 -1.94392,-3.43748 2.55634,-7.33311 0.92856,-10.82464 -4.42063,-9.48208 -2.53308,0.63577 -3.80983,2.67038 -4.91359,7.83026 -0.7498,3.50514 -1.75503,3.45986 -5.55016,-0.25 -3.29359,-3.21959 -5.25217,-3.61118 -9.6849,-1.93638 -4.53452,1.71326 -8.29698,5.97084 -8.96428,10.14395 -0.712,4.45262 -1.51505,4.71691 -3.7887,1.24689 -0.91735,-1.40004 -2.82394,-3.07226 -4.23688,-3.71604 -2.31381,-1.05424 -2.80187,-0.87843 -4.91366,1.77001 l -2.34468,2.9405 -2.12948,-2.28572 c -2.66315,-2.85856 -6.00907,-4.15881 -10.75252,-4.17852 -2.02669,-0.008 -4.34729,-0.43422 -5.15687,-0.94621 -1.69389,-1.07123 -1.4812,-1.18412 5.68536,-3.01779 6.99851,-1.79068 8.983,-6.53981 5.25399,-12.57348 -2.36639,-3.82889 -1.45596,-4.86209 2.9354,-3.33126 5.64405,1.96753 11.7934,-1.22993 10.52247,-5.47132 -0.35344,-1.17955 -2.16872,-3.7386 -4.03394,-5.68679 -1.86522,-1.94819 -3.39131,-3.8042 -3.39131,-4.12445 0,-0.32026 4.0334,-0.35232 8.96311,-0.0712 6.03876,0.34432 9.96054,0.0979 12.02024,-0.75526 4.19972,-1.73957 8.01665,-6.54065 8.01665,-10.08362 0,-1.6078 0.28718,-2.92327 0.63817,-2.92327 0.35099,0 2.55826,1.76988 4.90503,3.93306 6.74988,6.22181 20.06533,9.13072 25.23162,5.51211 2.08545,-1.46071 2.12919,-1.73011 0.72251,-4.45034 -2.13326,-4.12527 -1.86174,-6.72133 1.00255,-9.58562 2.04428,-2.04428 3.11405,-2.38466 5.86979,-1.86768 3.03965,0.57024 3.43516,0.37222 4.03571,-2.02056 0.88481,-3.52536 6.8408,-6.18546 10.31008,-4.60475 3.48885,1.58962 4.07311,1.39331 5.80168,-1.94936 l 1.56849,-3.03313 -3.56315,-1.48879 c -9.62361,-4.021 -18.84043,-2.59719 -24.77248,3.82683 -2.0625,2.23356 -3.81289,3.64863 -3.88976,3.14462 -0.0769,-0.50401 -0.18936,-3.39139 -0.25,-6.41639 -0.10971,-5.47344 -0.13179,-5.51087 -4.57213,-7.75 -5.15975,-2.60191 -11.58433,-2.86609 -17.53811,-0.72116 -5.05518,1.82119 -5.5,1.81473 -5.5,-0.0799 0,-0.85306 1.4625,-2.1662 3.25,-2.91809 1.7875,-0.75189 4.59913,-2.78256 6.24806,-4.51261 2.49436,-2.61706 2.96921,-3.89089 2.82636,-7.58191 -0.0944,-2.44 -0.0612,-4.43636 0.0738,-4.43636 0.13503,0 2.31483,0.70509 4.844,1.56687 4.18369,1.42552 4.87499,1.42388 7.66365,-0.0182 4.25928,-2.20256 5.16098,-7.06821 2.55717,-13.79868 -1.3306,-3.43943 2.47755,-1.80437 4.96132,2.13018 2.60179,4.12149 6.55363,6.11982 12.10242,6.11982 4.60208,0 5.80792,-1.93098 4.97729,-7.97043 -0.39655,-2.88324 -0.30074,-5.02957 0.22451,-5.02957 0.50394,0 3.48441,2.90709 6.62326,6.46021 6.3791,7.221 11.12035,9.23241 14.51689,6.15858 2.69349,-2.43756 3.75652,-2.02382 7.03198,2.7369 2.32594,3.38063 3.9888,4.63344 7.42819,5.59641 5.20758,1.45803 8.1711,1.10775 8.1711,-0.9658 0,-1.06735 -1.12749,-1.4863 -4,-1.4863 -3.26419,0 -4.05373,-0.37531 -4.29206,-2.04023 -0.16064,-1.12212 -2.00861,-4.03329 -4.10662,-6.46926 -3.43426,-3.98746 -4.25257,-4.42909 -8.20794,-4.42965 -2.41636,-3.4e-4 -5.63088,0.37211 -7.14338,0.82767 -2.66761,0.80347 -2.75011,0.71268 -2.75374,-3.03012 -0.002,-2.12213 -0.89794,-5.32502 -1.99086,-7.11755 -2.12005,-3.47716 -7.40878,-7.23096 -10.19638,-7.23712 -2.74686,-0.006 -3.08313,-1.83981 -0.85649,-4.67052 2.25778,-2.8703 2.02944,-5.06275 -0.97203,-9.33322 -1.54881,-2.20365 -4.9805,-11.97505 -4.9805,-14.181498 0,-1.47228 3.04764,-0.85792 3.65998,0.7378 0.74611,1.944338 14.23731,11.128828 17.5794,11.967648 3.17125,0.79593 5.36728,-1.34949 6.79015,-6.63363 1.29495,-4.809078 2.71903,-4.662588 4.4804,0.46088 1.69109,4.91905 3.93457,7.31037 8.1698,8.70812 4.54707,1.50067 8.60437,-0.16491 11.39299,-4.67698 1.14972,-1.86029 2.5037,-3.38234 3.00884,-3.38234 0.50514,0 0.91844,2.60546 0.91844,5.7899 0,7.46339 2.51397,17.06384 5.2236,19.94811 1.3809,1.4699 3.2896,2.26199 5.45071,2.26199 3.60373,0 4.43937,1.83084 1.82569,4 -1.92623,1.59862 -1.89309,3.33201 0.13953,7.29966 2.65452,5.18157 5.36047,5.83595 5.36047,1.29631 0,-2.58044 2.51299,-5.20954 5.5,-5.75414 1.5762,-0.28737 2.11861,-1.39509 2.55976,-5.22755 0.35978,-3.12552 1.23192,-5.3544 2.44113,-6.23859 2.58834,-1.89264 7.45529,-1.72532 9.73142,0.33455 1.63027,1.47537 2.01663,1.5097 2.81343,0.25 1.73711,-2.74631 0.9479,-3.66708 -5.79574,-6.76192 -5.44095,-2.49701 -7.57421,-2.98502 -11,-2.51637 -5.03857,0.68926 -5.38699,-0.32473 -1.75,-5.09306 1.38301,-1.81322 2.5,-4.61834 2.5,-6.27829 0,-4.31706 -3.00983,-6.56394 -9.5155,-7.10344 -3.01647,-0.25015 -5.4845,-0.79616 -5.4845,-1.21334 0,-0.417188 1.8,-2.558528 4,-4.758528 2.70337,-2.70337 4,-4.88058 4,-6.71651 0,-3.50056 -2.79007,-9.37073 -5.15621,-10.84841 -2.74214,-1.71249 -2.2422,-3.26679 1.38538,-4.30716 3.77115,-1.08156 11.13475,-10.72145 12.49932,-16.36321 1.10768,-4.57967 2.26974,-4.42536 3.7655,0.5 1.62699,5.35745 6.76471,12.71783 14.02828,20.09712 4.03105,4.09528 6.76759,7.99922 8.40314,11.98793 1.33397,3.25322 4.38201,9.73992 6.77343,14.414878 l 4.34803,8.49994 -2.27343,0.85211 c -4.47973,1.67905 -5.27781,2.38631 -5.58508,4.94943 -0.46509,3.87961 1.44559,6.69859 4.54024,6.69859 5.50351,0 16.84685,-14.7014 21.34532,-27.664378 2.06801,-5.95925 7.92591,-34.06362 7.92603,-38.0266 1.6e-4,-5.51512 4.28713,-2.69844 6.06666,3.98598 0.6157,2.31275 1.8147,4.98406 2.66444,5.93624 1.2328,1.38142 1.29801,2.02883 0.32272,3.20398 -1.4284,1.72112 -6.06822,14.44531 -9.68672,26.56478 -1.85709,6.219968 -2.68526,11.785928 -3.08744,20.749998 -0.57086,12.72354 -1.21109,14.17565 -4.70817,10.67857 -1.05526,-1.05525 -1.57143,-3.41499 -1.57143,-7.18394 l 0,-5.61251 -5.75,5.98387 c -5.23237,5.44518 -13.81319,11.3368 -16.62595,11.41544 -0.61823,0.0173 -1.89948,1.09843 -2.84724,2.40255 -1.66384,2.28949 -1.64224,2.42417 0.62718,3.91116 3.17209,2.07843 4.01058,5.95249 2.09155,9.66349 -1.32412,2.56056 -2.11927,2.99137 -5.52122,2.99137 -5.50389,0 -5.26692,2.34295 0.99843,9.87153 4.50274,5.41059 5.49942,6.0847 10.54514,7.13218 3.06482,0.63626 7.35209,0.85615 9.52726,0.48866 4.72906,-0.79897 5.06215,0.47055 1.93289,7.36683 -1.08792,2.39757 -1.97064,5.99757 -1.96159,8 0.0231,5.12135 3.74706,11.22522 7.66178,12.55842 4.6557,1.58555 5.0196,2.44315 1.54991,3.65269 -5.18091,1.80608 -6.7388,5.24302 -6.654,14.67969 0.0408,4.5375 -0.22043,8.25 -0.58048,8.25 -0.36004,0 -2.08379,-1.99008 -3.83055,-4.4224 -5.66307,-7.88568 -15.13477,-11.60795 -20.5346,-8.06985 -2.95536,1.93643 -2.95594,1.93531 -2.66638,-5.16241 0.25987,-6.3701 -1.1239,-9.09716 -5.55574,-10.9489 -3.00874,-1.25713 -3.79446,-1.24712 -6.36276,0.081 -3.98694,2.06173 -4.76575,0.33982 -1.68324,-3.72155 5.04967,-6.65319 3.9745,-17.26578 -2.16863,-21.40563 l -3.22762,-2.17509 3.73834,-3.08145 c 3.41148,-2.81204 3.59981,-3.21999 2.15392,-4.66587 -1.44589,-1.44589 -1.83223,-1.35475 -4.41881,1.04241 -2.16096,2.00271 -3.67823,2.55589 -6.386,2.32829 -3.0598,-0.2572 -3.81287,-0.85989 -5.4384,-4.35245 l -1.88681,-4.05392 -6.11319,0.43355 c -7.27371,0.51586 -10.92757,1.72494 -10.36674,3.43043 0.62916,1.91327 7.92148,5.70896 11.00354,5.7274 3.26059,0.0195 3.47957,1.04622 0.75,3.51645 -1.99675,1.80704 -2.70211,6.96828 -1.23469,9.03447 2.19478,3.09035 6.79931,5.4666 10.61955,5.48041 l 4.11514,0.0149 -3.62239,3.23513 c -1.99231,1.77931 -4.22029,4.78425 -4.95106,6.67764 -1.60185,4.15028 -1.53153,13.18271 0.13392,17.20347 0.6648,1.60498 0.95881,3.16806 0.65336,3.47352 -1.43321,1.4332 -8.55545,2.20035 -12.40949,1.33664 -2.71002,-0.60733 -5.13878,-0.5894 -6.82147,0.0504 -1.43719,0.54642 -4.6229,0.99349 -7.07935,0.99349 -5.07121,0 -6.67438,-1.93823 -4.0248,-4.86599 2.25145,-2.48782 2.12714,-9.36624 -0.20746,-11.47902 -2.13829,-1.93513 -6.02585,-2.134 -9.62843,-0.49255 -3.16218,1.44079 -4.38159,0.43767 -2.31737,-1.90631 0.8506,-0.96587 2.75629,-4.16968 4.23487,-7.11957 2.35244,-4.6933 2.53894,-5.72411 1.49268,-8.25 -0.84415,-2.03797 -1.89494,-2.88656 -3.57433,-2.88656 -3.39148,0 -2.94776,-1.79392 1.37132,-5.54413 2.0625,-1.79085 3.43841,-3.57513 3.05758,-3.96507 -1.58019,-1.61798 -11.84309,7.4828 -13.82464,12.2592 -0.51339,1.2375 -1.56448,2.25 -2.33574,2.25 -0.77127,0 -1.90255,0.60275 -2.51395,1.33945 -0.8672,1.0449 -0.29416,1.86952 2.60594,3.75 4.91461,3.18672 6.03805,6.47038 3.81589,11.15324 -1.59427,3.35966 -1.59706,3.7636 -0.0425,6.13622 2.02028,3.08334 1.21437,8.16165 -1.52816,9.62941 -1.01914,0.54542 -3.41354,0.99168 -5.32089,0.99168 -2.95516,0 -3.62275,0.44414 -4.51506,3.00382 -0.59717,1.71306 -2.57288,3.90403 -4.59782,5.09877 -2.79212,1.64739 -3.55069,2.72539 -3.55069,5.04585 0,6.3859 4.91774,11.85156 10.66349,11.85156 4.36672,0 5.24251,1.86459 1.98898,4.23462 -4.41002,3.21248 -3.3446,11.50831 2.08785,16.25698 l 2.75968,2.41232 -3.31773,0.68659 c -4.6348,0.95914 -6.60432,4.31361 -5.83371,9.93589 0.33725,2.46048 0.28429,4.43121 -0.11769,4.3794 -0.40198,-0.0518 -2.57331,-2.01738 -4.82518,-4.36792 z"
         id="path1581"
         inkscape:connector-curvature="0" />
      <path
         id="path6236"
         d="m 414.68751,57.187493 c -4.8831,5.57792 -11.11984,12.52672 -14.40625,17.84375 4.70769,-2.12568 11.90666,-7.20506 16.125,-1.3125 4.18284,9.70543 11.80656,17.41045 17.3125,26.406247 4.20038,4.81638 1.16759,11.90855 5.15625,16.59375 4.89202,-1.70641 7.1324,-8.89077 5.3125,-13.65625 -4.71606,-13.982537 -18.12273,-22.808427 -23.125,-36.781247 -1.29118,-3.17925 -3.28944,-7.49021 -6.375,-9.09375 z m 61.8125,0.1875 c -2.83566,0.51529 -3.18892,3.88427 -3.28125,6.25 -0.29558,5.55057 -1.52954,10.9903 -3.09375,16.3125 -0.84106,2.84686 -1.4094,5.78456 -2.09375,8.65625 -3.15426,7.36331 -2.65679,16.150427 -7.75,22.687497 -2.27905,5.76089 -6.64527,10.57318 -11.90625,13.78125 7.55885,-2.62191 12.18766,-9.80012 15.34375,-16.75 1.31165,-3.2091 3.14666,-6.29856 3.4375,-9.812497 1.39298,-7.90502 3.77642,-16.00808 9.125,-22.1875 2.41499,-2.56794 5.94506,-3.96632 7.96875,-6.90625 -4.27269,-2.7574 -4.08993,-8.73929 -7.6875,-12.03125 -0.0226,0.0037 -0.0402,-0.0041 -0.0625,0 z m -144.1875,40.46875 c -0.003,0.0032 -0.0285,0.02839 -0.0312,0.03125 -0.003,0.0035 -0.0284,0.02841 -0.0312,0.03125 -3.82818,0.61782 -4.233,5.004877 -1.6875,7.374997 4.3929,5.01678 9.94597,10.80873 17.1875,9.75 9.36283,1.00577 18.54269,4.04992 27.71875,5 8.15075,6.90528 7.49707,19.77422 16.4375,26.3125 3.04007,3.44018 7.11143,-0.78515 6.6875,-4.34375 0.44898,-6.26584 -7.09214,-8.07932 -8.40625,-13.78125 -2.97283,-5.70916 -2.90247,-14.68952 -9.875,-17.15625 -5.85515,5.79053 -14.44669,0.8031 -18.84375,-4.34375 -1.76582,-2.2176 -3.28937,2.81997 -5.65625,2.9375 -9.12567,3.64128 -18.54642,-4.14304 -23.28125,-11.312497 -0.006,-0.01065 -0.0258,-0.05117 -0.0312,-0.0625 1.2e-4,-0.0032 -4e-5,-0.02848 0,-0.03125 -0.009,-0.07927 -0.0204,-0.19934 -0.0312,-0.28125 5e-5,-0.0028 -1.5e-4,-0.02812 0,-0.03125 8e-5,-0.0028 -2.5e-4,-0.02817 0,-0.03125 -0.006,-0.0057 -0.0255,-0.02558 -0.0312,-0.03125 6e-5,-0.0029 -2.2e-4,-0.02759 0,-0.03125 -0.004,1.8e-4 -0.0284,-6e-5 -0.0312,0 -0.003,-3.1e-4 -0.0285,3e-5 -0.0312,0 -0.004,-9e-5 -0.0284,0 -0.0312,0 -0.003,-2.1e-4 -0.0284,3e-5 -0.0312,0 z m 7.5,46.249997 c -3.97774,7.06604 -13.34956,5.40402 -19.84375,3.46875 -3.29141,-1.20477 -5.71069,0.30768 -6.375,3.53125 -1.80189,4.75498 -7.35689,5.96483 -11.625,4.375 -8.21374,2.38 -7.7756,14.0206 -14.40625,18 8.38998,-1.59061 12.01475,-12.23012 19.9375,-14 10.87879,0.42591 21.06118,-9.05606 32.03125,-4.40625 8.58613,1.95601 16.41195,11.59797 25.59375,7.34375 4.63505,-1.77781 3.15536,-7.48467 -0.34375,-9.34375 -3.76992,-3.19337 -9.11172,-3.74945 -13.375,-2.1875 -4.65997,-0.65638 -7.23009,-5.90329 -11.59375,-6.78125 z m 44.15625,13.4375 c -4.49137,0.3739 -8.32598,4.8861 -6,9.3125 1.15908,4.97752 7.94616,5.43621 8.15625,10.5 3.1782,8.15501 10.9245,17.20399 5.53125,26.1875 -0.4329,4.52864 1.76382,11.05662 6.40625,12.375 3.8592,-2.87666 0.15082,-7.97654 1.875,-11.90625 0.84031,-6.19773 5.27797,-12.59182 4.65625,-18.3125 -8.02334,2.35975 -13.4844,-7.98002 -9.90625,-14.5625 0.18765,-0.23816 0.32715,-0.48058 0.40625,-0.6875 0.0258,-0.0713 0.0504,-0.15366 0.0625,-0.21875 7.4e-4,-0.0113 6.4e-4,-0.05 0,-0.0625 -1.2e-4,-0.004 -4e-5,-0.0276 0,-0.0312 0.002,-0.0242 2e-4,-0.0701 0,-0.0937 -3.9e-4,-0.0117 -4e-4,-0.0448 0,-0.0625 -3e-5,-0.004 1.5e-4,-0.0277 0,-0.0312 -0.006,-0.0213 -0.0247,-0.0727 -0.0312,-0.0937 3.2e-4,-0.0108 -1.5e-4,-0.0517 0,-0.0625 -0.005,-0.0109 -0.0256,-0.0517 -0.0312,-0.0625 -0.005,-0.0109 -0.0257,-0.0517 -0.0312,-0.0625 -0.0504,-0.10596 -0.13203,-0.21828 -0.21875,-0.3125 -0.0165,-0.017 -0.0449,-0.0458 -0.0625,-0.0625 -1.1298,-1.03343 -4.32815,-1.45106 -5.21875,-2.8125 -3.10046,-1.77721 -5.79838,-5.45879 -4.5,-8.90625 -0.23184,-0.017 -0.4576,-0.0366 -0.6875,-0.0312 -0.10956,0.003 -0.20361,-0.007 -0.3125,0 -0.0354,0.002 -0.0584,-0.003 -0.0937,0 z m 48.21875,0.71875 c -0.005,0.006 -0.0256,0.0256 -0.0312,0.0312 -0.0103,0.005 -0.0508,0.0262 -0.0625,0.0312 -0.77,0.30643 -4.17014,0.34027 -5.09375,1.4375 -0.006,0.005 -0.0257,0.0258 -0.0312,0.0312 -0.0179,0.0243 -0.0469,0.0659 -0.0625,0.0937 -0.007,0.0143 -0.0244,0.0478 -0.0312,0.0625 -0.0262,0.0596 -0.0468,0.13056 -0.0625,0.1875 -0.007,0.0212 -0.0254,0.0721 -0.0312,0.0937 -1.9e-4,0.004 2e-5,0.0273 0,0.0312 5.9e-4,0.0173 7.2e-4,0.0502 0,0.0625 -10e-4,0.0312 -8.8e-4,0.0847 0,0.125 3.1e-4,0.006 -5e-4,0.0258 0,0.0312 0.007,0.0618 0.0129,0.15265 0.0312,0.21875 0.0687,0.22877 0.21936,0.49711 0.4375,0.78125 0.3185,0.50202 0.65439,1.00734 1,1.5 -1.73463,6.32779 7.04928,8.39784 10.78125,11.65625 4.4962,2.46716 6.69303,7.2244 7.78125,11.875 4.92429,8.73032 7.93106,19.0847 7.71875,28.8125 -0.29407,1.03906 -0.44829,2.13161 -0.375,3.28125 -0.14008,1.85471 1.70922,4.14365 4.96875,7.53125 2.62857,-5.85721 -0.21367,-15.65337 2.875,-19.21875 3.08636,-2.87055 4.97929,-4.26181 5.25,-5.28125 0.003,-0.0108 0.0263,-0.0493 0.0312,-0.0625 10e-4,-0.004 -9.8e-4,-0.0277 0,-0.0312 5.7e-4,-0.0107 4.6e-4,-0.0493 0,-0.0625 -9e-5,-0.004 -2e-5,-0.0277 0,-0.0312 6.2e-4,-0.0152 1.9e-4,-0.0474 0,-0.0625 -4.5e-4,-0.0113 -4.5e-4,-0.0447 0,-0.0625 -3e-5,-0.004 1.6e-4,-0.0277 0,-0.0312 2.7e-4,-0.0108 -6e-5,-0.0517 0,-0.0625 -0.005,-0.022 -0.0242,-0.072 -0.0312,-0.0937 -0.005,-0.0108 -0.0256,-0.0517 -0.0312,-0.0625 -0.006,-0.0144 -0.024,-0.0482 -0.0312,-0.0625 -0.006,-0.0107 -0.0231,-0.0463 -0.0312,-0.0625 -0.42766,-0.68234 -1.83988,-1.33497 -4.40625,-2.40625 -5.52632,-6.19487 -6.60335,-15.12497 -3.375,-22.71875 0.48469,-0.83427 0.61991,-1.48585 0.53125,-1.96875 -0.001,-0.007 10e-4,-0.0236 0,-0.0312 -0.004,-0.0323 -0.0255,-0.0937 -0.0312,-0.125 -8.9e-4,-0.004 10e-4,-0.0278 0,-0.0312 -0.0153,-0.0345 -0.0491,-0.0967 -0.0625,-0.125 -0.04,-0.0797 -0.10059,-0.18105 -0.15625,-0.25 -0.0244,-0.0264 -0.0717,-0.0714 -0.0937,-0.0937 -1.13291,-1.10491 -4.45365,-0.65757 -5.96875,-0.34375 -9.11952,-0.2467 -16.87171,-7.2136 -21.375,-14.59375 -0.007,0.007 -0.029,-0.002 -0.0312,0 z m -146.0625,44.90625 c -0.50191,0.0702 -0.89734,0.25502 -1.1875,0.46875 -1.86816,1.43213 0.31702,5.68325 0.8125,7.8125 0.0442,0.46818 -0.0317,0.87967 -0.1875,1.21875 -1.01108,2.11078 -5.53614,1.97846 -8.34375,3.0625 -4.21368,-0.15011 -8.5859,-0.87025 -12.15625,-0.71875 -2.40876,0.29045 -5.17081,-0.0146 -7.28125,1.3125 -0.003,-7e-5 -0.0277,2.6e-4 -0.0312,0 3e-4,0.004 -1e-4,0.0284 0,0.0312 -0.006,0.006 -0.0257,0.0257 -0.0312,0.0312 -1e-4,0.007 -2.8e-4,0.03 0,0.0312 0.007,0.007 0.0304,0.0299 0.0312,0.0312 0.003,0.003 0.0283,0.0284 0.0312,0.0312 0.003,0.003 0.0285,0.0285 0.0312,0.0312 1.04357,0.68462 9.43602,2.17654 13.84375,1.34375 0.35522,-0.0592 0.71648,-0.13927 1.09375,-0.1875 -3.14434,1.28589 -6.52994,2.772 -8.0625,4.4375 1.53881,0.87138 1.88982,1.96957 1.5625,3.0625 -1.50031,0.79107 -2.99969,1.58393 -4.5,2.375 -0.0355,0.50495 -0.0166,1.19489 -0.0625,1.875 -0.11521,0.0475 -0.23367,0.0866 -0.34375,0.125 -0.86207,0.62984 -2.13765,1.3179 -3.4375,2.09375 -0.007,9e-5 -0.0298,2.8e-4 -0.0312,0 -2.70948,-0.43771 -6.60854,-1.25425 -7.53125,-1.125 -0.003,-5e-5 -0.0282,1.5e-4 -0.0312,0 -0.003,-5e-5 -0.0277,1.5e-4 -0.0312,0 -0.003,0.003 -0.028,0.0277 -0.0312,0.0312 -0.007,6e-5 -0.0296,1.9e-4 -0.0312,0 -0.004,0.003 -0.0278,0.0279 -0.0312,0.0312 -0.003,0.004 -0.0283,0.0276 -0.0312,0.0312 -0.008,0.0163 -0.0263,0.0531 -0.0312,0.0625 -0.006,0.006 -0.0255,0.0257 -0.0312,0.0312 1.9e-4,0.003 -6e-5,0.0285 0,0.0312 2e-4,0.003 -7e-5,0.0285 0,0.0312 -0.004,0.0142 -0.026,0.0456 -0.0312,0.0625 -0.003,0.0112 0.001,0.0523 0,0.0625 8.3e-4,0.004 -0.001,0.0273 0,0.0312 0.006,0.0132 0.0282,0.0517 0.0312,0.0625 1e-4,0.004 1.4e-4,0.0273 0,0.0312 -2.9e-4,0.004 2e-4,0.027 0,0.0312 -10e-6,0.004 -2.9e-4,0.0276 0,0.0312 0.23495,0.95756 1.90894,2.70524 3.84375,3.625 -1.05935,1.31144 -1.41883,2.84463 -0.28125,4.65625 -0.30679,0.49819 -0.70224,1.2042 -1,1.875 -0.69668,0.3359 -1.39707,0.6641 -2.09375,1 -0.55542,2.16448 -2.84089,2.52037 -4.5625,3.40625 -1.593,1.15729 -3.78281,0.24288 -5.25,1.28125 -0.0897,0.0657 -0.17639,0.15775 -0.21875,0.21875 -0.006,0.0102 -0.0235,0.0463 -0.0312,0.0625 1e-5,0.003 -1.9e-4,0.0282 0,0.0312 -3.1e-4,0.011 -3e-4,0.0516 0,0.0625 -8e-5,0.003 1.9e-4,0.0281 0,0.0312 0.005,0.0109 0.0255,0.0517 0.0312,0.0625 0.004,0.004 0.0268,0.0269 0.0312,0.0312 0.004,0.003 0.0273,0.0284 0.0312,0.0312 0.0559,0.0365 0.13965,0.0641 0.21875,0.0937 1.0019,0.35182 4.02859,0.17771 6.40625,-0.96875 2.02917,-1.16111 4.08211,-2.33104 6.03125,-3.625 0.0551,-0.0282 0.1638,-0.0653 0.21875,-0.0937 0.2057,-0.10929 0.45077,-0.25817 0.71875,-0.4375 5.85674,-2.2856 9.55394,-7.55417 14.21875,-11.0625 11.90898,-7.21458 24.39771,-13.68312 38.4375,-15.21875 1.16664,-0.14244 3.55069,-1.29945 4.375,-2.3125 0.006,-0.007 0.0255,-0.0237 0.0312,-0.0312 0.0784,-0.10838 0.14759,-0.24511 0.1875,-0.34375 0.006,-0.0107 0.0259,-0.0519 0.0312,-0.0625 0.005,-0.0108 0.0255,-0.0513 0.0312,-0.0625 -10e-6,-0.003 1.4e-4,-0.0278 0,-0.0312 2e-5,-0.011 1.8e-4,-0.0516 0,-0.0625 2.3e-4,-0.006 -3e-5,-0.0251 0,-0.0312 -2.5e-4,-0.009 8e-5,-0.0461 0,-0.0625 4e-5,-0.003 -1.1e-4,-0.0281 0,-0.0312 -0.006,-0.005 -0.0254,-0.0258 -0.0312,-0.0312 3.4e-4,-0.011 -1.2e-4,-0.0515 0,-0.0625 -0.008,-0.0161 -0.0247,-0.05 -0.0312,-0.0625 -0.006,-0.006 -0.0256,-0.0257 -0.0312,-0.0312 -0.005,-0.0108 -0.0259,-0.0518 -0.0312,-0.0625 -0.005,-0.005 -0.0265,-0.0261 -0.0312,-0.0312 -0.005,-0.005 -0.026,-0.0262 -0.0312,-0.0312 -0.005,-0.005 -0.0255,-0.0263 -0.0312,-0.0312 -0.0298,-0.0246 -0.089,-0.0705 -0.125,-0.0937 -0.32081,-0.1976 -0.88849,-0.34298 -1.75,-0.40625 -7.89751,-1.57845 -17.39196,-2.10672 -22.46875,-9.09375 -0.21433,-0.007 -0.40877,-0.0147 -0.59375,0 -0.0304,6.3e-4 -0.0952,-0.001 -0.125,0 -0.0345,0.004 -0.0603,-0.005 -0.0937,0 z m 40.71875,20.375 c -0.0115,0.006 -0.0524,0.026 -0.0625,0.0312 -0.0107,0.005 -0.0518,0.0257 -0.0625,0.0312 -7.37317,4.54315 -2.61991,14.25516 0.9375,19.84375 6.119,9.41457 14.18503,19.92224 12.34375,31.6875 6.82583,-0.21305 8.66368,-9.4231 7.25,-14.875 -0.24903,-3.84271 -6.42647,-5.2601 -2.90625,-8.75 2.78546,-3.5744 1.44027,-9.80133 -3.75,-9.65625 -8.13176,0.0934 -8.90833,-10.28586 -11.625,-15.84375 -0.35473,-0.5186 -0.85513,-1.83994 -1.5,-2.3125 -0.0108,-0.005 -0.0516,-0.0261 -0.0625,-0.0312 -0.0162,-0.008 -0.0519,-0.0255 -0.0625,-0.0312 -0.0142,-0.007 -0.0481,-0.0249 -0.0625,-0.0312 -0.0108,-0.006 -0.0517,-0.0258 -0.0625,-0.0312 -0.0192,-0.006 -0.069,-0.0243 -0.0937,-0.0312 -0.0108,-10e-6 -0.0517,-2.5e-4 -0.0625,0 -0.006,6e-5 -0.0272,7e-5 -0.0312,0 -0.0177,5e-5 -0.051,-5.2e-4 -0.0625,0 -0.004,2e-5 -0.0272,1.3e-4 -0.0312,0 -0.0132,-6e-4 -0.0517,-7.7e-4 -0.0625,0 -0.003,-2.4e-4 -0.0284,-10e-6 -0.0312,0 z"
         style="opacity:0.29775277;fill:#9dff02;fill-opacity:1;fill-rule:nonzero;stroke:none;display:inline"
         inkscape:connector-curvature="0" />
      <g
         transform="translate(29.78536,-31.87795)"
         id="g2483"
         style="display:inline">
        <path
           sodipodi:type="arc"
           style="fill:#ff0000;fill-opacity:1;stroke:none"
           id="path1598"
           sodipodi:cx="350.6163"
           sodipodi:cy="231.94919"
           sodipodi:rx="10.93398"
           sodipodi:ry="12.027378"
           d="m 361.55028,231.94919 c 0,6.64254 -4.89531,12.02738 -10.93398,12.02738 -6.03867,0 -10.93398,-5.38484 -10.93398,-12.02738 0,-6.64254 4.89531,-12.02738 10.93398,-12.02738 5.51931,0 10.17324,4.52476 10.85118,10.55003"
           sodipodi:start="0"
           sodipodi:end="6.1600424"
           sodipodi:open="true"
           transform="matrix(0.633334,0,0,0.69697,181.4069,19.2624)" />
        <path
           style="fill:#000000;fill-opacity:1;fill-rule:nonzero;stroke:none"
           d="m 404.79718,172.29779 c -2.16207,-0.42877 -3.54285,2.24988 -1.06145,2.76546 2.02053,1.21843 5.32187,-1.81016 2.40595,-2.70468 -0.43692,-0.10706 -0.89562,-0.0832 -1.3445,-0.0608 z m -7.62473,5.22702 c -3.33831,2.97623 -5.58056,9.10872 -0.72533,11.88237 2.0879,1.56365 5.02449,0.5095 6.91711,-0.80532 -3.87078,-0.3289 -6.83797,-3.42724 -5.9618,-6.73132 0.17925,-1.80983 2.06171,-3.14391 1.41526,-5.05988 -0.54841,0.23805 -1.09683,0.4761 -1.64524,0.71415 z m 11.39286,0.41027 c -2.21746,1.04767 -3.65575,1.81204 -0.90223,2.82624 1.00836,2.23741 -0.84041,4.65421 -0.45995,6.98963 1.94087,-2.43872 6.30924,-5.73776 3.94504,-8.99535 -0.60341,-0.55725 -1.76203,-1.37488 -2.58286,-0.82052 z"
           id="path1589"
           inkscape:connector-curvature="0" />
        <path
           style="opacity:0.77528088;fill:#ffffff;fill-opacity:1;fill-rule:nonzero;stroke:none"
           d="m 407.83355,176.33295 c -1.50216,-1.17431 -3.55748,-1.57259 -5.41272,-1.16551 -1.20888,0.26361 -2.38666,0.98923 -2.90373,2.14299 -0.41791,0.9053 -0.39101,1.95231 -0.14802,2.8996 0.276,0.67301 1.04125,0.94758 1.7016,1.09649 0.53806,0.0972 1.11346,0.18021 1.647,0.0197 0.24467,-0.27463 -0.0708,-0.8006 0.0458,-1.17791 0.0598,-1.29908 0.89421,-2.48462 2.03784,-3.08898 1.0053,-0.55179 2.20408,-0.72797 3.33254,-0.5329 -0.1001,-0.0645 -0.20018,-0.12897 -0.30028,-0.19346 z"
           id="path2473"
           inkscape:connector-curvature="0" />
      </g>
      <path
         transform="matrix(0.606025,-0.183974,-0.202459,-0.666917,259.0064,362.0933)"
         sodipodi:open="true"
         sodipodi:end="6.1600424"
         sodipodi:start="0"
         d="m 361.55028,231.94919 c 0,6.64254 -4.89531,12.02738 -10.93398,12.02738 -6.03867,0 -10.93398,-5.38484 -10.93398,-12.02738 0,-6.64254 4.89531,-12.02738 10.93398,-12.02738 5.51931,0 10.17324,4.52476 10.85118,10.55003"
         sodipodi:ry="12.027378"
         sodipodi:rx="10.93398"
         sodipodi:cy="231.94919"
         sodipodi:cx="350.6163"
         id="path2490"
         style="fill:#ff0000;fill-opacity:1;stroke:none;display:inline"
         sodipodi:type="arc" />
      <path
         id="path2492"
         d="m 428.3096,150.76528 c -1.94429,1.03833 -4.04364,-1.12372 -1.819,-2.33788 1.57947,-1.75282 5.61821,0.18619 3.08787,1.88917 -0.38698,0.22936 -0.83283,0.33977 -1.26887,0.44871 z m -8.81432,-2.78676 c -4.05891,-1.87817 -7.98587,-7.09488 -4.1457,-11.1593 1.54365,-2.10273 4.65983,-1.94707 6.85277,-1.23873 -3.60833,1.43913 -5.54755,5.26579 -3.74938,8.17288 0.69725,1.67972 2.88607,2.40945 2.82406,4.43059 -0.59392,-0.0685 -1.18784,-0.13696 -1.78175,-0.20544 z m 10.78242,-3.70203 c -2.42617,-0.35836 -4.02448,-0.67197 -1.6843,-2.44229 0.31494,-2.43385 -2.15615,-4.2094 -2.4705,-6.55463 2.56559,1.76977 7.70392,3.65761 6.38794,7.4615 -0.41552,0.7085 -1.28667,1.82743 -2.23314,1.53542 z"
         style="fill:#000000;fill-opacity:1;fill-rule:nonzero;stroke:none;display:inline"
         inkscape:connector-curvature="0" />
      <path
         id="path2494"
         d="m 428.04289,139.43388 c -1.09627,-1.56003 -2.94727,-2.53817 -4.84076,-2.68757 -1.23333,-0.0989 -2.5711,0.25329 -3.40103,1.2071 -0.66286,0.74487 -0.94126,1.75454 -0.98393,2.73157 0.0686,0.72416 0.7211,1.20919 1.30972,1.5435 0.48662,0.24932 1.0131,0.49588 1.57026,0.49726 0.3139,-0.19172 0.16486,-0.78663 0.38596,-1.11382 0.43462,-1.22569 1.5774,-2.11773 2.84727,-2.36382 1.12224,-0.23598 2.32051,-0.0563 3.34365,0.45813 -0.0771,-0.0908 -0.15409,-0.18156 -0.23114,-0.27235 z"
         style="opacity:0.77528088;fill:#ffffff;fill-opacity:1;fill-rule:nonzero;stroke:none;display:inline"
         inkscape:connector-curvature="0" />
      <g
         transform="translate(12.63626,-44.94875)"
         id="g2499"
         style="display:inline">
        <path
           sodipodi:type="arc"
           style="fill:#ff0000;fill-opacity:1;stroke:none"
           id="path2501"
           sodipodi:cx="350.6163"
           sodipodi:cy="231.94919"
           sodipodi:rx="10.93398"
           sodipodi:ry="12.027378"
           d="m 361.55028,231.94919 c 0,6.64254 -4.89531,12.02738 -10.93398,12.02738 -6.03867,0 -10.93398,-5.38484 -10.93398,-12.02738 0,-6.64254 4.89531,-12.02738 10.93398,-12.02738 5.51931,0 10.17324,4.52476 10.85118,10.55003"
           sodipodi:start="0"
           sodipodi:end="6.1600424"
           sodipodi:open="true"
           transform="matrix(0.633334,0,0,0.69697,181.4069,19.2624)" />
        <path
           style="fill:#000000;fill-opacity:1;fill-rule:nonzero;stroke:none"
           d="m 404.79718,172.29779 c -2.16207,-0.42877 -3.54285,2.24988 -1.06145,2.76546 2.02053,1.21843 5.32187,-1.81016 2.40595,-2.70468 -0.43692,-0.10706 -0.89562,-0.0832 -1.3445,-0.0608 z m -7.62473,5.22702 c -3.33831,2.97623 -5.58056,9.10872 -0.72533,11.88237 2.0879,1.56365 5.02449,0.5095 6.91711,-0.80532 -3.87078,-0.3289 -6.83797,-3.42724 -5.9618,-6.73132 0.17925,-1.80983 2.06171,-3.14391 1.41526,-5.05988 -0.54841,0.23805 -1.09683,0.4761 -1.64524,0.71415 z m 11.39286,0.41027 c -2.21746,1.04767 -3.65575,1.81204 -0.90223,2.82624 1.00836,2.23741 -0.84041,4.65421 -0.45995,6.98963 1.94087,-2.43872 6.30924,-5.73776 3.94504,-8.99535 -0.60341,-0.55725 -1.76203,-1.37488 -2.58286,-0.82052 z"
           id="path2503"
           inkscape:connector-curvature="0" />
        <path
           style="opacity:0.77528088;fill:#ffffff;fill-opacity:1;fill-rule:nonzero;stroke:none"
           d="m 407.83355,176.33295 c -1.50216,-1.17431 -3.55748,-1.57259 -5.41272,-1.16551 -1.20888,0.26361 -2.38666,0.98923 -2.90373,2.14299 -0.41791,0.9053 -0.39101,1.95231 -0.14802,2.8996 0.276,0.67301 1.04125,0.94758 1.7016,1.09649 0.53806,0.0972 1.11346,0.18021 1.647,0.0197 0.24467,-0.27463 -0.0708,-0.8006 0.0458,-1.17791 0.0598,-1.29908 0.89421,-2.48462 2.03784,-3.08898 1.0053,-0.55179 2.20408,-0.72797 3.33254,-0.5329 -0.1001,-0.0645 -0.20018,-0.12897 -0.30028,-0.19346 z"
           id="path2505"
           inkscape:connector-curvature="0" />
      </g>
      <path
         transform="matrix(-0.633334,0,0,0.69697,636.2831,-10.61445)"
         sodipodi:open="true"
         sodipodi:end="6.1600424"
         sodipodi:start="0"
         d="m 361.55028,231.94919 c 0,6.64254 -4.89531,12.02738 -10.93398,12.02738 -6.03867,0 -10.93398,-5.38484 -10.93398,-12.02738 0,-6.64254 4.89531,-12.02738 10.93398,-12.02738 5.51931,0 10.17324,4.52476 10.85118,10.55003"
         sodipodi:ry="12.027378"
         sodipodi:rx="10.93398"
         sodipodi:cy="231.94919"
         sodipodi:cx="350.6163"
         id="path2509"
         style="fill:#ff0000;fill-opacity:1;stroke:none;display:inline"
         sodipodi:type="arc" />
      <path
         id="path2513"
         d="m 410.14482,152.50787 c -1.17431,-1.50216 -1.57259,-3.55748 -1.16551,-5.41272 0.26361,-1.20888 0.98923,-2.38666 2.14299,-2.90373 0.9053,-0.41791 1.95231,-0.39101 2.8996,-0.14802 0.67301,0.276 0.94758,1.04125 1.09649,1.7016 0.0972,0.53806 0.18021,1.11346 0.0197,1.647 -0.27463,0.24467 -0.8006,-0.0708 -1.17791,0.0458 -1.29908,0.0598 -2.48462,0.89421 -3.08898,2.03784 -0.55179,1.0053 -0.72797,2.20408 -0.5329,3.33254 -0.0645,-0.1001 -0.12897,-0.20018 -0.19346,-0.30028 z"
         style="opacity:0.77528088;fill:#ffffff;fill-opacity:1;fill-rule:nonzero;stroke:none;display:inline"
         inkscape:connector-curvature="0" />
      <path
         id="path2511"
         d="m 412.89282,142.42096 c 2.16207,-0.42877 3.54285,2.24988 1.06145,2.76546 -2.02053,1.21843 -5.32187,-1.81016 -2.40595,-2.70468 0.43692,-0.10706 0.89562,-0.0832 1.3445,-0.0608 z m 7.62473,5.22702 c 3.33831,2.97623 5.58056,9.10872 0.72533,11.88237 -2.0879,1.56365 -5.02449,0.5095 -6.91711,-0.80532 3.87078,-0.3289 6.83797,-3.42724 5.9618,-6.73132 -0.17925,-1.80983 -2.06171,-3.14391 -1.41526,-5.05988 0.54841,0.23805 1.09683,0.4761 1.64524,0.71415 z m -11.39286,0.41027 c 2.21746,1.04767 3.65575,1.81204 0.90223,2.82624 -1.00836,2.23741 0.84041,4.65421 0.45995,6.98963 -1.94087,-2.43872 -6.30924,-5.73776 -3.94504,-8.99535 0.60341,-0.55725 1.76203,-1.37488 2.58286,-0.82052 z"
         style="fill:#000000;fill-opacity:1;fill-rule:nonzero;stroke:none;display:inline"
         inkscape:connector-curvature="0" />
      <path
         sodipodi:nodetypes="ccccccccccccccccccccccccccccccccccccccccccccccccccccccccccccccccccccccccccccccccccccccccccccccccccccccccccccccccccccccccccccccccccccccccccccccccccc"
         id="path1564"
         d="m 334.93977,277.9667 c -4.87569,-10.01255 -24.91586,0.0309 -25.13172,-9.59317 5.09131,-5.55043 8.95785,-22.3191 -3.644,-14.4077 -9.08547,3.53481 3.38505,-22.13739 -7.87233,-10.33917 -2.35782,15.90709 -16.91183,-6.98266 -23.43314,7.0858 -0.113,8.92752 -6.10876,12.12019 -11.35997,3.73921 -4.50405,-1.92151 -8.04252,8.57765 -12.27835,-0.0547 -4.70608,-1.96982 -23.85692,-4.49209 -8.85649,-5.20636 6.98506,-0.26066 -14.44204,-0.53507 -3.25303,-3.36176 7.32006,-0.34331 14.23086,-6.69136 7.67809,-12.8088 -4.70513,-10.26926 21.11633,1.7708 11.8737,-10.20337 -6.5853,-4.28776 -7.22408,-13.1985 2.73871,-9.27346 11.43914,4.26289 20.08311,-5.03966 23.96463,-13.57111 6.44981,5.30776 22.54814,16.44909 27.87922,6.96144 -4.11385,-13.65234 11.61787,-14.20386 18.99417,-20.4568 4.78998,2.06152 14.5471,-1.81411 4.59075,-4.00755 -10.50328,-6.90243 -18.71705,8.20835 -26.67239,7.21629 5.36361,-15.58359 -13.06854,-17.0506 -23.79821,-13.64148 -12.74144,-2.01115 9.78083,-9.49303 8.3897,-16.1514 -5.85277,-16.03431 21.30611,4.40563 15.95924,-14.3618 -3.39053,-13.5991 8.43814,-1.51526 12.59074,2.2123 10.40518,5.9496 8.0618,-6.62809 8.76274,-12.19561 9.19137,0.75732 14.24401,20.93024 24.51041,10.97006 6.78576,2.12522 12.97054,16.29543 19.67519,10.37001 -11.38915,0.98413 -14.53406,-18.70982 -28.20001,-11.13873 -3.89665,-5.03794 -4.47314,-17.77367 -15.61382,-18.27596 -5.39286,-3.89851 6.09838,-10.08732 -2.05234,-16.20455 -3.93621,-5.39029 -5.36895,-23.330078 4.32202,-11.938578 6.51061,7.005048 19.90391,14.868888 21.71857,0.09602 7.84252,-1.7628 6.79927,18.467098 18.49733,11.983928 4.74921,-8.64164 14.06975,-10.17396 11.29008,2.37164 -0.0591,9.37408 3.31462,19.09011 13.50396,19.23116 -2.88654,3.17496 -1.57029,19.17502 1.80993,9.25529 9.18277,-3.01314 6.179,-21.08628 19.57761,-15.48844 8.36453,1.35622 -9.4151,-6.5354 -12.47591,-4.77599 -15.99955,1.12947 8.80207,-16.55362 -7.2791,-18.68182 -6.35531,0.72966 -13.15936,-2.73218 -5.26008,-8.267468 13.88842,-7.43771 -13.16285,-21.41066 3.94625,-23.96634 6.37096,-3.25134 8.30385,-19.29721 11.82053,-19.11016 1.28569,9.64863 -5.40421,23.18716 -15.95583,23.57489 7.54617,2.37304 10.47782,17.55241 2.46133,22.6626 -9.55053,4.481148 9.40471,-1.28569 10.73582,5.925738 7.6703,3.98659 -6.53297,15.95074 1.23925,13.64503 6.78833,-1.05221 26.21067,10.37079 11.96784,13.4598 -12.74718,-7.20007 -8.47659,11.95754 -17.90722,14.62215 -5.53373,13.90353 -10.29108,-7.97816 -12.58418,-10.9301 -9.21913,-4.56504 -9.28182,-17.55996 -9.09497,-26.51434 0.45092,-0.60342 -9.45192,12.9955 -16.13844,6.42989 -6.87121,-0.14044 -7.31881,-16.778018 -9.58758,-6.25277 -7.77772,10.87612 -22.80012,-6.03316 -26.39795,-7.66691 3.22607,7.1495 7.66347,19.6152 5.37499,23.46959 13.43482,0.47268 8.73906,22.35385 22.78703,17.06808 8.88908,3.17369 12.95248,13.41407 21.6467,15.98341 -7.27782,11.99124 -18.21926,-5.62361 -25.3394,-5.34646 -9.23384,5.27465 -17.86278,-9.88458 -20.54561,-12.2435 7.50325,14.82736 -17.02254,15.98217 -20.28172,3.92819 -3.46927,-5.38116 5.21951,11.97549 -3.7842,13.24377 -6.24996,3.00603 -13.79116,-1.93001 -13.45084,8.20269 -2.25786,4.7767 -16.87444,10.40895 -4.5918,6.13842 8.96442,-2.52282 25.31059,1.67384 20.71304,13.94368 -0.78378,3.28629 8.64435,-11.36112 15.21183,-6.9773 5.98704,-4.29576 23.74909,2.91235 14.16765,11.56756 -5.59559,1.75468 -13.64244,-1.4525 -16.48722,6.5147 -10.94,-2.1212 -9.02015,8.54548 -9.01043,15.37941 -9.83465,5.60746 -22.87487,0.23077 -30.8275,-5.70606 -2.95102,12.00026 -16.94718,12.34897 -26.85303,10.40283 -3.78423,-2.12152 12.72961,13.67491 0.0141,15.95027 -12.62714,-3.18597 -1.93762,13.32727 -13.39822,15.19222 6.6618,4.06263 10.36118,6.15631 17.0777,2.96971 6.87512,6.14946 6.71583,1.39307 11.08015,-4.58014 5.25573,-6.68298 15.31847,-4.29349 19.81067,-0.20093 -0.74826,-10.72023 20.38921,-13.13969 13.11777,-0.55676 -6.64667,12.02257 12.78885,-4.61291 11.57964,9.47026 2.7264,7.19172 -11.72418,17.60676 1.27486,14.1194 7.23963,0.59465 14.15558,3.18978 20.06304,7.3789 -0.99107,-5.76865 7.96488,-9.89299 7.50654,-10.58809 -7.56428,-3.91558 -4.42947,-15.0156 -3.21116,-19.22771 -13.61618,-1.37057 -15.52856,-19.71748 -3.51937,-24.56391 4.2246,-4.21682 17.5271,-5.62256 9.97635,-14.62421 3.53603,-7.17391 2.1148,-14.52368 -6.58272,-16.38718 4.97042,-7.57099 12.20012,-17.5248 20.64647,-19.8434 -5.48888,5.21834 -12.1076,16.24986 -15.95223,18.33237 12.31407,3.14416 4.81426,18.35024 6.81891,27.40767 -3.19757,6.88374 -13.05785,3.15469 -15.38661,11.7485 -11.33717,6.16649 4.00578,15.52263 10.36783,17.13732 -6.43915,6.41007 -5.65278,14.87601 1.9342,20.57929 -3.1855,4.38977 -11.07695,6.23723 -8.83733,14.57808 -2.92583,1.95576 -6.61887,-0.94526 -8.76088,-2.82756 z m 119.16778,-54.20498 c -4.52713,-10.29165 -16.83404,-9.19068 -23.7104,-7.45333 2.5362,-10.4068 -2.89698,-20.82451 -14.76353,-16.22752 0.61958,-7.85594 10.30567,-22.77772 -3.33469,-28.2325 -0.46222,-4.18512 11.31688,-12.06365 1.37656,-5.22437 -11.15809,7.85145 -12.24714,-12.80722 -23.96626,-6.12188 -8.98283,5.01896 18.97411,2.73132 8.36814,10.96424 -8.91311,9.47251 8.55135,12.19514 13.03204,13.82252 -6.15839,6.66702 -13.10223,15.79694 -8.57722,25.61413 3.00139,14.34378 -18.69299,6.03037 -27.13998,9.26263 -16.19526,1.62836 5.80061,-19.49812 -11.10778,-17.64 -13.34342,6.64566 -3.14439,-9.56284 -0.86419,-14.66687 2.82213,-7.00975 -11.91842,-4.28336 -3.26619,-10.4617 2.97489,-3.39548 16.80306,-13.67982 8.07075,-3.62436 -11.67995,4.75754 4.2048,9.48632 -1.74404,17.90407 -0.87119,4.67046 -12.90049,14.22354 -2.17238,7.38003 11.75654,-4.10528 11.44033,12.44405 8.70788,17.21105 8.64707,-0.4896 17.57562,0.6449 25.99295,-1.48301 -0.95674,-7.97765 -3.18893,-20.49669 4.2805,-26.52401 -10.95977,-1.31003 -10.67067,-12.92565 -11.54658,-19.31029 -8.05721,-1.98964 -13.50985,-12.80826 -1.08418,-11.89507 7.59496,-2.98365 13.96343,-1.69148 15.33573,7.10041 5.01581,3.67344 16.6615,-11.11335 14.44691,1.99706 -5.93351,6.48092 7.63378,15.42237 2.1613,24.64953 -1.70026,4.46681 -6.69625,7.46483 0.44903,4.50863 9.44107,-0.19875 11.97409,10.86026 11.26751,16.71168 9.16641,-5.97877 21.51604,6.56074 24.33482,11.4108 -6.24735,-8.1475 6.2145,-22.92061 5.95516,-21.87913 -13.00118,-2.24266 -8.65503,-21.25173 -6.60155,-27.72529 -11.50977,3.45408 -30.04519,-8.48469 -26.16708,-20.00132 11.97073,2.19852 7.61106,-10.88656 4.4605,-13.14595 12.67849,-2.31487 8.95841,19.73171 -2.61041,16.20278 0.38283,2.17121 5.36471,6.17326 7.52944,9.05387 2.28846,4.51109 6.64421,4.28739 11.06463,3.91556 10.10126,-2.91126 13.49106,3.96166 7.75319,12.23035 -2.89286,3.905 -1.44901,7.78016 0.73475,11.60383 3.16647,4.6138 15.63935,8.16018 4.41945,12.55917 -9.1819,3.09413 3.24027,33.14374 -11.08478,17.51426 z m -17.99817,-85.15383 c 8.42486,-6.79339 19.29487,-14.89042 27.07898,-20.60319 4.03165,-4.29857 3.5922,20.80815 4.90574,6.25125 0.0724,-17.75298 5.40987,-35.260328 12.89627,-51.154348 1.07323,-2.30112 -4.60275,-13.48899 -4.44593,-12.76812 -4.00377,19.16398 -5.50242,39.810578 -18.10698,55.793168 -2.54917,10.25203 -22.82249,16.90373 -19.07192,1.12955 3.57653,-4.9638 8.95861,-5.97902 2.52589,-12.77473 -5.58111,-10.937698 -9.14718,-23.608308 -20.17577,-30.758068 -4.75347,-5.05001 -12.02516,-18.29238 -6.97152,-21.72553 2.44794,17.01133 20.80721,24.75473 25.54627,40.59539 2.01481,7.830138 16.20999,22.183388 2.11083,24.758028 -0.11814,14.44128 14.96187,-4.26748 17.50563,-10.02057 8.21543,-15.553818 9.88539,-33.566068 13.10808,-50.500208 11.3418,-3.24464 10.84463,17.47962 8.29547,25.09267 -6.45031,16.11767 -10.55558,33.215408 -10.06263,50.680138 -7.23841,8.52585 -9.55998,-12.04892 -8.83761,-11.51045 -4.69634,9.46567 -14.941,14.23795 -24.20932,18.1226 l -1.57619,0.12565 -0.51526,-0.73322 -3e-5,-1e-5 z"
         style="fill:#000000;display:inline"
         inkscape:connector-curvature="0" />
      <g
         transform="translate(5.937664,-23.17835)"
         id="g2518"
         style="display:inline">
        <path
           sodipodi:type="arc"
           style="fill:#ff0000;fill-opacity:1;stroke:none"
           id="path2520"
           sodipodi:cx="350.6163"
           sodipodi:cy="231.94919"
           sodipodi:rx="10.93398"
           sodipodi:ry="12.027378"
           d="m 361.55028,231.94919 c 0,6.64254 -4.89531,12.02738 -10.93398,12.02738 -6.03867,0 -10.93398,-5.38484 -10.93398,-12.02738 0,-6.64254 4.89531,-12.02738 10.93398,-12.02738 5.51931,0 10.17324,4.52476 10.85118,10.55003"
           sodipodi:start="0"
           sodipodi:end="6.1600424"
           sodipodi:open="true"
           transform="matrix(0.633334,0,0,0.69697,181.4069,19.2624)" />
        <path
           style="fill:#000000;fill-opacity:1;fill-rule:nonzero;stroke:none"
           d="m 404.79718,172.29779 c -2.16207,-0.42877 -3.54285,2.24988 -1.06145,2.76546 2.02053,1.21843 5.32187,-1.81016 2.40595,-2.70468 -0.43692,-0.10706 -0.89562,-0.0832 -1.3445,-0.0608 z m -7.62473,5.22702 c -3.33831,2.97623 -5.58056,9.10872 -0.72533,11.88237 2.0879,1.56365 5.02449,0.5095 6.91711,-0.80532 -3.87078,-0.3289 -6.83797,-3.42724 -5.9618,-6.73132 0.17925,-1.80983 2.06171,-3.14391 1.41526,-5.05988 -0.54841,0.23805 -1.09683,0.4761 -1.64524,0.71415 z m 11.39286,0.41027 c -2.21746,1.04767 -3.65575,1.81204 -0.90223,2.82624 1.00836,2.23741 -0.84041,4.65421 -0.45995,6.98963 1.94087,-2.43872 6.30924,-5.73776 3.94504,-8.99535 -0.60341,-0.55725 -1.76203,-1.37488 -2.58286,-0.82052 z"
           id="path2522"
           inkscape:connector-curvature="0" />
        <path
           style="opacity:0.77528088;fill:#ffffff;fill-opacity:1;fill-rule:nonzero;stroke:none"
           d="m 407.83355,176.33295 c -1.50216,-1.17431 -3.55748,-1.57259 -5.41272,-1.16551 -1.20888,0.26361 -2.38666,0.98923 -2.90373,2.14299 -0.41791,0.9053 -0.39101,1.95231 -0.14802,2.8996 0.276,0.67301 1.04125,0.94758 1.7016,1.09649 0.53806,0.0972 1.11346,0.18021 1.647,0.0197 0.24467,-0.27463 -0.0708,-0.8006 0.0458,-1.17791 0.0598,-1.29908 0.89421,-2.48462 2.03784,-3.08898 1.0053,-0.55179 2.20408,-0.72797 3.33254,-0.5329 -0.1001,-0.0645 -0.20018,-0.12897 -0.30028,-0.19346 z"
           id="path2524"
           inkscape:connector-curvature="0" />
      </g>
      <g
         transform="translate(3.844364,-31.55165)"
         id="g2526"
         style="display:inline">
        <path
           sodipodi:type="arc"
           style="fill:#ff0000;fill-opacity:1;stroke:none"
           id="path2528"
           sodipodi:cx="350.6163"
           sodipodi:cy="231.94919"
           sodipodi:rx="10.93398"
           sodipodi:ry="12.027378"
           d="m 361.55028,231.94919 c 0,6.64254 -4.89531,12.02738 -10.93398,12.02738 -6.03867,0 -10.93398,-5.38484 -10.93398,-12.02738 0,-6.64254 4.89531,-12.02738 10.93398,-12.02738 5.51931,0 10.17324,4.52476 10.85118,10.55003"
           sodipodi:start="0"
           sodipodi:end="6.1600424"
           sodipodi:open="true"
           transform="matrix(0.633334,0,0,0.69697,181.4069,19.2624)" />
        <path
           style="fill:#000000;fill-opacity:1;fill-rule:nonzero;stroke:none"
           d="m 404.79718,172.29779 c -2.16207,-0.42877 -3.54285,2.24988 -1.06145,2.76546 2.02053,1.21843 5.32187,-1.81016 2.40595,-2.70468 -0.43692,-0.10706 -0.89562,-0.0832 -1.3445,-0.0608 z m -7.62473,5.22702 c -3.33831,2.97623 -5.58056,9.10872 -0.72533,11.88237 2.0879,1.56365 5.02449,0.5095 6.91711,-0.80532 -3.87078,-0.3289 -6.83797,-3.42724 -5.9618,-6.73132 0.17925,-1.80983 2.06171,-3.14391 1.41526,-5.05988 -0.54841,0.23805 -1.09683,0.4761 -1.64524,0.71415 z m 11.39286,0.41027 c -2.21746,1.04767 -3.65575,1.81204 -0.90223,2.82624 1.00836,2.23741 -0.84041,4.65421 -0.45995,6.98963 1.94087,-2.43872 6.30924,-5.73776 3.94504,-8.99535 -0.60341,-0.55725 -1.76203,-1.37488 -2.58286,-0.82052 z"
           id="path2530"
           inkscape:connector-curvature="0" />
        <path
           style="opacity:0.77528088;fill:#ffffff;fill-opacity:1;fill-rule:nonzero;stroke:none"
           d="m 407.83355,176.33295 c -1.50216,-1.17431 -3.55748,-1.57259 -5.41272,-1.16551 -1.20888,0.26361 -2.38666,0.98923 -2.90373,2.14299 -0.41791,0.9053 -0.39101,1.95231 -0.14802,2.8996 0.276,0.67301 1.04125,0.94758 1.7016,1.09649 0.53806,0.0972 1.11346,0.18021 1.647,0.0197 0.24467,-0.27463 -0.0708,-0.8006 0.0458,-1.17791 0.0598,-1.29908 0.89421,-2.48462 2.03784,-3.08898 1.0053,-0.55179 2.20408,-0.72797 3.33254,-0.5329 -0.1001,-0.0645 -0.20018,-0.12897 -0.30028,-0.19346 z"
           id="path2532"
           inkscape:connector-curvature="0" />
      </g>
      <path
         transform="matrix(-0.633334,0,0,0.69697,650.9361,-27.36095)"
         sodipodi:open="true"
         sodipodi:end="6.1600424"
         sodipodi:start="0"
         d="m 361.55028,231.94919 c 0,6.64254 -4.89531,12.02738 -10.93398,12.02738 -6.03867,0 -10.93398,-5.38484 -10.93398,-12.02738 0,-6.64254 4.89531,-12.02738 10.93398,-12.02738 5.51931,0 10.17324,4.52476 10.85118,10.55003"
         sodipodi:ry="12.027378"
         sodipodi:rx="10.93398"
         sodipodi:cy="231.94919"
         sodipodi:cx="350.6163"
         id="path2536"
         style="fill:#ff0000;fill-opacity:1;stroke:none;display:inline"
         sodipodi:type="arc" />
      <path
         id="path2540"
         d="m 426.79782,135.76141 c -1.17431,-1.50216 -1.57259,-3.55748 -1.16551,-5.41272 0.26361,-1.20888 0.98923,-2.38666 2.14299,-2.90373 0.9053,-0.41791 1.95231,-0.39101 2.8996,-0.14802 0.67301,0.276 0.94758,1.04125 1.09649,1.7016 0.0972,0.53806 0.18021,1.11346 0.0197,1.647 -0.27463,0.24467 -0.8006,-0.0708 -1.17791,0.0458 -1.29908,0.0598 -2.48462,0.89421 -3.08898,2.03784 -0.55179,1.0053 -0.72797,2.20408 -0.5329,3.33254 -0.0645,-0.1001 -0.12897,-0.20018 -0.19346,-0.30028 z"
         style="opacity:0.77528088;fill:#ffffff;fill-opacity:1;fill-rule:nonzero;stroke:none;display:inline"
         inkscape:connector-curvature="0" />
      <path
         id="path2538"
         d="m 427.54582,125.6745 c 2.16207,-0.42877 3.54285,2.24988 1.06145,2.76546 -2.02053,1.21843 -5.32187,-1.81016 -2.40595,-2.70468 0.43692,-0.10706 0.89562,-0.0832 1.3445,-0.0608 z m 7.62473,5.22702 c 3.33831,2.97623 5.58056,9.10872 0.72533,11.88237 -2.0879,1.56365 -5.02449,0.5095 -6.91711,-0.80532 3.87078,-0.3289 6.83797,-3.42724 5.9618,-6.73132 -0.17925,-1.80983 -2.06171,-3.14391 -1.41526,-5.05988 0.54841,0.23805 1.09683,0.4761 1.64524,0.71415 z m -11.39286,0.41027 c 2.21746,1.04767 3.65575,1.81204 0.90223,2.82624 -1.00836,2.23741 0.84041,4.65421 0.45995,6.98963 -1.94087,-2.43872 -6.30924,-5.73776 -3.94504,-8.99535 0.60341,-0.55725 1.76203,-1.37488 2.58286,-0.82052 z"
         style="fill:#000000;fill-opacity:1;fill-rule:nonzero;stroke:none;display:inline"
         inkscape:connector-curvature="0" />
      <g
         transform="translate(-58.24894,18.87715)"
         id="g2545"
         style="display:inline">
        <path
           sodipodi:type="arc"
           style="fill:#ff0000;fill-opacity:1;stroke:none"
           id="path2547"
           sodipodi:cx="350.6163"
           sodipodi:cy="231.94919"
           sodipodi:rx="10.93398"
           sodipodi:ry="12.027378"
           d="m 361.55028,231.94919 c 0,6.64254 -4.89531,12.02738 -10.93398,12.02738 -6.03867,0 -10.93398,-5.38484 -10.93398,-12.02738 0,-6.64254 4.89531,-12.02738 10.93398,-12.02738 5.51931,0 10.17324,4.52476 10.85118,10.55003"
           sodipodi:start="0"
           sodipodi:end="6.1600424"
           sodipodi:open="true"
           transform="matrix(0.633334,0,0,0.69697,181.4069,19.2624)" />
        <path
           style="fill:#000000;fill-opacity:1;fill-rule:nonzero;stroke:none"
           d="m 404.79718,172.29779 c -2.16207,-0.42877 -3.54285,2.24988 -1.06145,2.76546 2.02053,1.21843 5.32187,-1.81016 2.40595,-2.70468 -0.43692,-0.10706 -0.89562,-0.0832 -1.3445,-0.0608 z m -7.62473,5.22702 c -3.33831,2.97623 -5.58056,9.10872 -0.72533,11.88237 2.0879,1.56365 5.02449,0.5095 6.91711,-0.80532 -3.87078,-0.3289 -6.83797,-3.42724 -5.9618,-6.73132 0.17925,-1.80983 2.06171,-3.14391 1.41526,-5.05988 -0.54841,0.23805 -1.09683,0.4761 -1.64524,0.71415 z m 11.39286,0.41027 c -2.21746,1.04767 -3.65575,1.81204 -0.90223,2.82624 1.00836,2.23741 -0.84041,4.65421 -0.45995,6.98963 1.94087,-2.43872 6.30924,-5.73776 3.94504,-8.99535 -0.60341,-0.55725 -1.76203,-1.37488 -2.58286,-0.82052 z"
           id="path2549"
           inkscape:connector-curvature="0" />
        <path
           style="opacity:0.77528088;fill:#ffffff;fill-opacity:1;fill-rule:nonzero;stroke:none"
           d="m 407.83355,176.33295 c -1.50216,-1.17431 -3.55748,-1.57259 -5.41272,-1.16551 -1.20888,0.26361 -2.38666,0.98923 -2.90373,2.14299 -0.41791,0.9053 -0.39101,1.95231 -0.14802,2.8996 0.276,0.67301 1.04125,0.94758 1.7016,1.09649 0.53806,0.0972 1.11346,0.18021 1.647,0.0197 0.24467,-0.27463 -0.0708,-0.8006 0.0458,-1.17791 0.0598,-1.29908 0.89421,-2.48462 2.03784,-3.08898 1.0053,-0.55179 2.20408,-0.72797 3.33254,-0.5329 -0.1001,-0.0645 -0.20018,-0.12897 -0.30028,-0.19346 z"
           id="path2551"
           inkscape:connector-curvature="0" />
      </g>
      <path
         transform="matrix(-0.633334,0,0,0.69697,553.1111,34.82505)"
         sodipodi:open="true"
         sodipodi:end="6.1600424"
         sodipodi:start="0"
         d="m 361.55028,231.94919 c 0,6.64254 -4.89531,12.02738 -10.93398,12.02738 -6.03867,0 -10.93398,-5.38484 -10.93398,-12.02738 0,-6.64254 4.89531,-12.02738 10.93398,-12.02738 5.51931,0 10.17324,4.52476 10.85118,10.55003"
         sodipodi:ry="12.027378"
         sodipodi:rx="10.93398"
         sodipodi:cy="231.94919"
         sodipodi:cx="350.6163"
         id="path2555"
         style="fill:#ff0000;fill-opacity:1;stroke:none;display:inline"
         sodipodi:type="arc" />
      <path
         id="path2557"
         d="m 329.72082,187.86053 c 2.16207,-0.42877 3.54285,2.24988 1.06145,2.76546 -2.02053,1.21843 -5.32187,-1.81016 -2.40595,-2.70468 0.43692,-0.10706 0.89562,-0.0832 1.3445,-0.0608 z m 7.62473,5.22702 c 3.33831,2.97623 5.58056,9.10872 0.72533,11.88237 -2.0879,1.56365 -5.02449,0.5095 -6.91711,-0.80532 3.87078,-0.3289 6.83797,-3.42724 5.9618,-6.73132 -0.17925,-1.80983 -2.06171,-3.14391 -1.41526,-5.05988 0.54841,0.23805 1.09683,0.4761 1.64524,0.71415 z m -11.39286,0.41027 c 2.21746,1.04767 3.65575,1.81204 0.90223,2.82624 -1.00836,2.23741 0.84041,4.65421 0.45995,6.98963 -1.94087,-2.43872 -6.30924,-5.73776 -3.94504,-8.99535 0.60341,-0.55725 1.76203,-1.37488 2.58286,-0.82052 z"
         style="fill:#000000;fill-opacity:1;fill-rule:nonzero;stroke:none;display:inline"
         inkscape:connector-curvature="0" />
      <path
         id="path2559"
         d="m 328.97281,197.94745 c -1.17431,-1.50216 -1.57259,-3.55748 -1.16551,-5.41272 0.26361,-1.20888 0.98923,-2.38666 2.14299,-2.90373 0.9053,-0.41791 1.95231,-0.39101 2.8996,-0.14802 0.67301,0.276 0.94758,1.04125 1.09649,1.7016 0.0972,0.53806 0.18021,1.11346 0.0197,1.647 -0.27463,0.24467 -0.8006,-0.0708 -1.17791,0.0458 -1.29908,0.0598 -2.48462,0.89421 -3.08898,2.03784 -0.55179,1.0053 -0.72797,2.20408 -0.5329,3.33254 -0.0645,-0.1001 -0.12897,-0.20018 -0.19346,-0.30028 z"
         style="opacity:0.95505587;fill:#ffffff;fill-opacity:1;fill-rule:nonzero;stroke:none;display:inline"
         inkscape:connector-curvature="0" />
      <g
         transform="translate(-82.00334,22.74415)"
         id="g2564"
         style="display:inline">
        <path
           sodipodi:type="arc"
           style="fill:#ff0000;fill-opacity:1;stroke:none"
           id="path2566"
           sodipodi:cx="350.6163"
           sodipodi:cy="231.94919"
           sodipodi:rx="10.93398"
           sodipodi:ry="12.027378"
           d="m 361.55028,231.94919 c 0,6.64254 -4.89531,12.02738 -10.93398,12.02738 -6.03867,0 -10.93398,-5.38484 -10.93398,-12.02738 0,-6.64254 4.89531,-12.02738 10.93398,-12.02738 5.51931,0 10.17324,4.52476 10.85118,10.55003"
           sodipodi:start="0"
           sodipodi:end="6.1600424"
           sodipodi:open="true"
           transform="matrix(0.633334,0,0,0.69697,181.4069,19.2624)" />
        <path
           style="fill:#000000;fill-opacity:1;fill-rule:nonzero;stroke:none"
           d="m 404.79718,172.29779 c -2.16207,-0.42877 -3.54285,2.24988 -1.06145,2.76546 2.02053,1.21843 5.32187,-1.81016 2.40595,-2.70468 -0.43692,-0.10706 -0.89562,-0.0832 -1.3445,-0.0608 z m -7.62473,5.22702 c -3.33831,2.97623 -5.58056,9.10872 -0.72533,11.88237 2.0879,1.56365 5.02449,0.5095 6.91711,-0.80532 -3.87078,-0.3289 -6.83797,-3.42724 -5.9618,-6.73132 0.17925,-1.80983 2.06171,-3.14391 1.41526,-5.05988 -0.54841,0.23805 -1.09683,0.4761 -1.64524,0.71415 z m 11.39286,0.41027 c -2.21746,1.04767 -3.65575,1.81204 -0.90223,2.82624 1.00836,2.23741 -0.84041,4.65421 -0.45995,6.98963 1.94087,-2.43872 6.30924,-5.73776 3.94504,-8.99535 -0.60341,-0.55725 -1.76203,-1.37488 -2.58286,-0.82052 z"
           id="path2568"
           inkscape:connector-curvature="0" />
        <path
           style="opacity:0.77528088;fill:#ffffff;fill-opacity:1;fill-rule:nonzero;stroke:none"
           d="m 407.83355,176.33295 c -1.50216,-1.17431 -3.55748,-1.57259 -5.41272,-1.16551 -1.20888,0.26361 -2.38666,0.98923 -2.90373,2.14299 -0.41791,0.9053 -0.39101,1.95231 -0.14802,2.8996 0.276,0.67301 1.04125,0.94758 1.7016,1.09649 0.53806,0.0972 1.11346,0.18021 1.647,0.0197 0.24467,-0.27463 -0.0708,-0.8006 0.0458,-1.17791 0.0598,-1.29908 0.89421,-2.48462 2.03784,-3.08898 1.0053,-0.55179 2.20408,-0.72797 3.33254,-0.5329 -0.1001,-0.0645 -0.20018,-0.12897 -0.30028,-0.19346 z"
           id="path2570"
           inkscape:connector-curvature="0" />
      </g>
      <path
         transform="matrix(0.633334,0,0,0.69697,124.2627,50.84545)"
         sodipodi:open="true"
         sodipodi:end="6.1600424"
         sodipodi:start="0"
         d="m 361.55028,231.94919 c 0,6.64254 -4.89531,12.02738 -10.93398,12.02738 -6.03867,0 -10.93398,-5.38484 -10.93398,-12.02738 0,-6.64254 4.89531,-12.02738 10.93398,-12.02738 5.51931,0 10.17324,4.52476 10.85118,10.55003"
         sodipodi:ry="12.027378"
         sodipodi:rx="10.93398"
         sodipodi:cy="231.94919"
         sodipodi:cx="350.6163"
         id="path2574"
         style="fill:#ff0000;fill-opacity:1;stroke:none;display:inline"
         sodipodi:type="arc" />
      <path
         id="path2576"
         d="m 347.65298,203.88089 c -2.16207,-0.42877 -3.54285,2.24988 -1.06145,2.76546 2.02053,1.21843 5.32187,-1.81016 2.40595,-2.70468 -0.43692,-0.10706 -0.89562,-0.0832 -1.3445,-0.0608 z m -7.62473,5.22702 c -3.33831,2.97623 -5.58056,9.10872 -0.72533,11.88237 2.0879,1.56365 5.02449,0.5095 6.91711,-0.80532 -3.87078,-0.3289 -6.83797,-3.42724 -5.9618,-6.73132 0.17925,-1.80983 2.06171,-3.14391 1.41526,-5.05988 -0.54841,0.23805 -1.09683,0.4761 -1.64524,0.71415 z m 11.39286,0.41027 c -2.21746,1.04767 -3.65575,1.81204 -0.90223,2.82624 1.00836,2.23741 -0.84041,4.65421 -0.45995,6.98963 1.94087,-2.43872 6.30924,-5.73776 3.94504,-8.99535 -0.60341,-0.55725 -1.76203,-1.37488 -2.58286,-0.82052 z"
         style="fill:#000000;fill-opacity:1;fill-rule:nonzero;stroke:none;display:inline"
         inkscape:connector-curvature="0" />
      <path
         id="path2578"
         d="m 351.08735,209.81205 c -0.069,-1.69099 -1.19195,-2.90472 -2.85816,-3.30254 -1.08432,-0.26072 -2.53978,-0.088 -3.88969,0.74798 -1.06789,0.65093 -1.94,1.61507 -2.5735,2.57793 -0.37655,0.72689 -0.0659,1.29373 0.27706,1.70276 0.29998,0.31132 0.63864,0.62517 1.15481,0.70002 0.40782,-0.14864 0.63116,-0.75802 1.03522,-1.05319 1.14837,-1.15765 2.75105,-1.89118 4.07901,-1.96764 1.18479,-0.0859 2.18751,0.25022 2.82417,0.89513 -0.0163,-0.10015 -0.0326,-0.20029 -0.0489,-0.30045 z"
         style="opacity:0.77528088;fill:#ffffff;fill-opacity:1;fill-rule:nonzero;stroke:none;display:inline"
         inkscape:connector-curvature="0" />
      <path
         transform="matrix(0.633334,0,0,0.69697,111.557,54.71245)"
         sodipodi:open="true"
         sodipodi:end="6.1600424"
         sodipodi:start="0"
         d="m 361.55028,231.94919 c 0,6.64254 -4.89531,12.02738 -10.93398,12.02738 -6.03867,0 -10.93398,-5.38484 -10.93398,-12.02738 0,-6.64254 4.89531,-12.02738 10.93398,-12.02738 5.51931,0 10.17324,4.52476 10.85118,10.55003"
         sodipodi:ry="12.027378"
         sodipodi:rx="10.93398"
         sodipodi:cy="231.94919"
         sodipodi:cx="350.6163"
         id="path2582"
         style="fill:#ff0000;fill-opacity:1;stroke:none;display:inline"
         sodipodi:type="arc" />
      <path
         id="path2584"
         d="m 334.55665,207.74789 c -2.16206,-0.42877 -3.54284,2.24988 -1.06144,2.76546 2.02052,1.21843 5.32187,-1.81016 2.40595,-2.70468 -0.43692,-0.10706 -0.89562,-0.0832 -1.34451,-0.0608 z m -7.62473,5.22702 c -3.33831,2.97623 -5.58056,9.10872 -0.72533,11.88237 2.0879,1.56365 5.0245,0.5095 6.91711,-0.80532 -3.87077,-0.3289 -6.83796,-3.42724 -5.96179,-6.73132 0.17924,-1.80983 2.0617,-3.14391 1.41526,-5.05988 -0.54841,0.23805 -1.09684,0.4761 -1.64525,0.71415 z m 11.39287,0.41027 c -2.21747,1.04767 -3.65575,1.81204 -0.90224,2.82624 1.00837,2.23741 -0.84041,4.65421 -0.45994,6.98963 1.94086,-2.43872 6.30923,-5.73776 3.94504,-8.99535 -0.60342,-0.55725 -1.76203,-1.37488 -2.58286,-0.82052 z"
         style="fill:#000000;fill-opacity:1;fill-rule:nonzero;stroke:none;display:inline"
         inkscape:connector-curvature="0" />
      <path
         id="path2586"
         d="m 328.10997,219.8348 c -0.51801,-1.50216 -0.0183,-3.55748 1.19935,-5.41272 0.79178,-1.20888 2.03198,-2.38666 3.41165,-2.90373 1.08789,-0.41791 2.12314,-0.39101 2.96427,-0.14802 0.55242,0.276 0.49265,1.04125 0.35305,1.7016 -0.13787,0.53806 -0.30627,1.11346 -0.69991,1.647 -0.38153,0.24467 -0.76968,-0.0708 -1.19791,0.0458 -1.32522,0.0598 -2.8753,0.89421 -3.97932,2.03784 -0.99102,1.0053 -1.69095,2.20408 -1.98891,3.33254 -0.0208,-0.1001 -0.0415,-0.20018 -0.0623,-0.30028 z"
         style="opacity:0.9044944;fill:#ffffff;fill-opacity:1;fill-rule:nonzero;stroke:none;display:inline"
         inkscape:connector-curvature="0" />
      <path
         id="path3492"
         d="m 332.34375,207.09375 c -1.9361,0.97531 -8.55187,2.37877 -5.91747,4.74672 1.86631,-1.47311 4.82889,-4.13718 5.91747,-4.74672 z M 320.0625,213.625 c -5.08468,3.00399 -9.98434,8.14912 -16.40258,7.22194 -4.06953,-0.50753 -6.88867,-3.71108 -8.37548,-7.31814 -3.32138,-1.70153 -4.12181,4.69734 -0.63112,5.59725 2.09937,1.90428 6.27104,5.12034 5.81937,7.32415 -10.47099,-0.42979 -21.24025,-1.40402 -30.84769,-5.91895 -0.7808,-4.47678 -6.82906,-0.37121 -2.98872,2.10737 3.77089,2.59346 8.64464,2.40019 12.93078,3.6605 4.48809,1.01065 9.04747,2.09653 13.68294,1.82588 2.5413,-0.14568 7.24388,3.34708 2.37711,4.16596 -3.99155,1.64069 -8.32987,1.17722 -12.51018,0.73714 -4.05953,-0.5482 -7.78995,1.41271 -11.80558,1.54469 -3.49821,0.49751 -7.30046,0.95442 -10.0926,3.33346 8.0322,-0.52851 15.87313,-3.94274 24,-2.59375 2.93431,1.5137 5.19022,3.60225 6.11378,6.71512 5.46134,0.48061 0.42512,-5.22767 2.96634,-7.43535 3.42895,-4.58998 9.71042,-5.81121 13.04816,-10.5165 3.58975,-3.54979 7.67661,-6.67271 12.30922,-8.73202 0.26428,6.41612 -3.10688,13.23452 0.25,19.3125 1.25931,5.10185 -5.21326,5.18873 -7.95217,7.3002 -1.13421,2.81296 3.89345,-1.29673 5.15309,-1.3858 4.84722,-2.69272 7.52523,2.77761 7.72055,6.80037 0.90799,5.03896 0.87214,10.22413 0.24153,15.29247 -0.77465,1.98043 -4.91759,5.86066 -0.33598,3.68947 2.54405,-2.18013 5.50553,-8.7417 8.56483,-3.21082 2.20313,2.59723 2.11883,9.18412 5.72198,9.17196 3.46005,-4.50716 -2.65354,-8.44284 -4.11821,-12.42827 -1.92887,-2.94953 -4.72083,-8.27243 -4.75298,-10.44869 1.68525,1.86117 7.81623,0.90801 6.17193,-1.17641 -6.27491,0.20344 -12.08887,-5.8415 -11.35207,-12.13573 0.22946,-1.85621 7.06426,-3.90725 2.32498,-4.25794 -5.51806,-0.10733 -7.32216,-5.64572 -5.32444,-10.03156 -0.12968,-3.18367 4.51574,-6.84296 0.0983,-8.00241 -0.511,-0.49512 -1.46222,-0.98256 -2.00505,-0.20809 z M 277.875,239.75 c -2.72494,2.07125 -8.88101,1.43537 -7.81747,6.07052 -0.93437,0.8359 -5.84762,4.23596 -3.07852,3.63774 4.43079,-2.85028 7.87779,-6.99353 12.42724,-9.67701 -0.0196,-1.1674 -1.07896,-0.15702 -1.53125,-0.0312 z m -13.34375,4.90625 c -5.41828,1.80569 -11.19336,1.66175 -16.8125,2.21875 -0.92657,3.88301 5.96419,0.86787 8.47374,1.06971 2.69186,-0.98714 8.78711,-0.23398 8.95397,-3.00543 0.17054,-0.5024 -0.42691,-0.52625 -0.61521,-0.28303 z"
         style="opacity:0.24719101;fill:#000000;fill-opacity:1;fill-rule:nonzero;stroke:none"
         inkscape:connector-curvature="0" />
      <path
         id="path3524"
         d="m 334.4375,101.84375 c -6.93199,2.36934 2.7364,9.02103 5.4375,11.53125 2.78442,1.8526 10.3757,8.24809 3.375,9.1875 -3.30343,-0.88345 -9.91498,0.93895 -10.625,3 -0.0106,0.033 -0.0237,0.0919 -0.0312,0.125 9.1571,-1.03354 19.58715,-2.15166 27.59375,3.4375 3.60809,1.80151 0.27563,5.62494 -1.5,7.15625 5.89555,-2.80599 12.88541,-0.31471 16.75,4.75 1.34903,1.69106 4.70479,3.73526 5.03125,4.90625 0.003,0.014 0.0287,0.0488 0.0312,0.0625 0.002,0.0136 -10e-4,0.0492 0,0.0625 3.8e-4,0.007 -1.4e-4,0.0247 0,0.0312 -1.9e-4,0.0129 10e-4,0.0498 0,0.0625 -0.003,0.0251 -0.024,0.0698 -0.0312,0.0937 -0.002,0.006 0.002,0.0254 0,0.0312 -0.003,0.006 -0.0284,0.0255 -0.0312,0.0312 -0.006,0.0113 -0.0239,0.0515 -0.0312,0.0625 -0.0314,0.0433 -0.0756,0.0866 -0.125,0.125 -0.0388,0.0283 -0.10673,0.0683 -0.15625,0.0937 -0.42793,0.2076 -1.26112,0.31368 -2.59375,0.28125 -1.73858,0.24691 -4.72402,1.88034 -4.96875,2.46875 -0.001,0.003 8.7e-4,0.0279 0,0.0312 -4.6e-4,0.003 2.5e-4,0.0282 0,0.0312 3.9e-4,0.003 -6.1e-4,0.0285 0,0.0312 10e-4,0.002 -0.001,0.0289 0,0.0312 0.004,0.004 0.0265,0.0272 0.0312,0.0312 0.003,0.002 0.0282,-0.002 0.0312,0 0.004,0.002 0.0274,0.0298 0.0312,0.0312 0.27492,0.0808 1.05659,-0.0601 2.5625,-0.53125 3.98323,-1.91236 13.64325,0.32737 13.21875,4.5 -10e-4,0.01 10e-4,0.0212 0,0.0312 -2.94162,1.95967 -5.87324,3.94664 -8.75,6 -0.0192,0.034 -0.0573,0.0836 -0.0937,0.125 -0.28507,0.30834 -0.97859,0.80719 -1.71875,1.28125 -0.009,0.004 -0.0219,-0.004 -0.0312,0 -0.0329,0.0211 -0.0607,0.0415 -0.0937,0.0625 -0.53255,0.25717 -1.55128,0.76003 -2.34375,1.09375 -4.72027,1.37481 -9.69699,0.76187 -14.5625,0.4375 0.0501,-0.20598 0.0239,-0.41805 -0.0625,-0.59375 -0.0231,-0.0436 -0.0631,-0.1143 -0.0937,-0.15625 -1.2211,-1.58229 -7.69132,-2.05903 -9.1875,-4.03125 -5.08921,-2.53899 -9.30339,-6.67914 -11.75,-11.8125 -0.007,-0.0171 -0.0222,-0.044 -0.0312,-0.0625 -0.081,-0.15193 -0.23423,-0.34254 -0.40625,-0.4375 -0.005,-0.003 -0.0258,-0.0286 -0.0312,-0.0312 -0.022,-0.01 -0.0712,-0.0248 -0.0937,-0.0312 -0.006,-0.001 -0.0256,10e-4 -0.0312,0 -0.006,-9.1e-4 -0.0255,6.6e-4 -0.0312,0 -0.006,-4.1e-4 -0.0255,1.5e-4 -0.0312,0 -0.0115,2.4e-4 -0.051,-0.001 -0.0625,0 -0.006,9.6e-4 -0.0255,-0.001 -0.0312,0 -0.0172,0.005 -0.0454,0.0237 -0.0625,0.0312 -0.0171,0.009 -0.0456,0.0196 -0.0625,0.0312 -6.07981,0.9778 -0.29164,7.49041 2.21875,9.59375 3.011,2.69017 6.74578,4.3951 10.03125,6.6875 -4.84688,-0.62094 -9.67469,-1.52334 -14.5,-2.3125 -3.00458,-0.56827 -6.01554,-0.7403 -9.03125,-0.65625 0.29093,-0.1884 0.57843,-0.41753 0.875,-0.6875 -4.26784,-2.90837 -8.46569,-8.15072 -13.71875,-10.1875 l -1,-0.0937 c -3.47449,0.56396 -2.7688,3.97501 0.59375,3.5 2.81653,1.61275 5.7414,6.26498 8.96875,7.75 -3.64401,0.36041 -7.28534,1.00087 -10.875,1.6875 -0.0205,-0.36056 -0.20579,-0.82112 -0.53125,-1.375 -2.86139,-0.48811 -5.74012,-1.18809 -8.71875,-0.875 -1.65571,0.36901 -3.14185,1.45653 -3.25,2.09375 -0.007,0.0599 0.0116,0.13695 0.0312,0.1875 0.007,0.014 0.0222,0.0494 0.0312,0.0625 0.0102,0.0127 0.05,0.0508 0.0625,0.0625 0.27505,0.22377 1.03543,0.24492 2.46875,-0.125 0.87381,0.13269 2.43367,0.53254 4.0625,0.84375 -3.69173,0.5853 -7.32991,1.461 -10.6875,3.1875 -0.87367,0.3755 -5.16209,2.61324 -5.53125,3 -0.003,0.003 0.002,0.0282 0,0.0312 7.5e-4,6.7e-4 -9.6e-4,0.0307 0,0.0312 0.0672,-0.001 0.24473,-0.0495 0.53125,-0.15625 0.97817,-0.22853 3.22087,-1.40806 3.5,-1.53125 -0.0702,0.0468 -0.38945,0.23927 -1.125,0.65625 2.76373,-0.50406 7.03692,-2.6513 10.53125,-3.1875 4.70001,-0.25249 9.30602,-1.50313 14,-2.03125 7.71099,-1.26955 15.51901,-0.25686 23.09375,1.34375 4.08912,0.71523 8.20543,1.20263 12.34375,1.5625 -1.53266,3.31344 -7.68824,3.95141 -10.34375,6.90625 -1.85272,0.33126 -5.48903,3.27031 -5.6875,3.9375 -6.8e-4,0.004 4.5e-4,0.0279 0,0.0312 2.4e-4,0.003 -4.8e-4,0.0285 0,0.0312 10e-4,0.002 -10e-4,0.0292 0,0.0312 0.002,0.002 0.0293,-0.002 0.0312,0 0.003,0.001 0.0283,0.0302 0.0312,0.0312 0.003,7.1e-4 0.0276,-5.3e-4 0.0312,0 0.004,1.6e-4 0.0268,3e-5 0.0312,0 0.005,-2.1e-4 0.0262,4e-4 0.0312,0 0.28637,-0.032 0.98719,-0.36291 2.21875,-1.09375 5.59716,-3.22037 10.73899,-7.57444 16.90625,-9.625 3.52424,0.24589 7.06891,0.42678 10.59375,0.53125 3.5916,0.16613 6.83086,-1.19092 9.875,-2.96875 -2.31199,1.9408 -4.20371,4.28462 -5.25,7.25 -2.1025,4.81752 1.47006,9.86111 -0.90625,14.65625 -0.85539,3.85688 -5.47872,9.38566 -6.1875,10.875 3.6711,-2.8269 8.61888,-5.12398 9.0625,-9.78125 0.93525,-0.75069 1.6783,-1.04612 2.25,-1.03125 0.0878,0.004 0.20122,0.013 0.28125,0.0312 0.0792,0.0198 0.17835,0.0609 0.25,0.0937 0.0472,0.0228 0.11227,0.0656 0.15625,0.0937 1.23101,0.82311 1.1812,3.72126 0.6875,5.03125 6.08861,3.22898 1.82698,10.73295 0.4375,15.625 0.0716,1.74052 -1.65823,4.43923 -1.59375,5.125 6.6e-4,0.004 -8e-4,0.0275 0,0.0312 0.002,0.007 0.0288,0.0247 0.0312,0.0312 0.002,0.003 -0.002,0.0285 0,0.0312 0.004,0.005 0.0267,0.027 0.0312,0.0312 0.003,0.002 0.0285,-0.002 0.0312,0 0.006,0.003 0.0245,0.0294 0.0312,0.0312 0.004,5.9e-4 0.0274,-4.2e-4 0.0312,0 0.004,2.4e-4 0.027,-6e-5 0.0312,0 0.29853,-0.0202 0.97725,-0.42422 2.25,-1.40625 3.5807,-2.0633 3.5429,-8.72107 4.875,-10.3125 5.33112,3.86005 4.37855,13.47387 6.90625,16.875 6.28757,-3.32082 -1.32966,-9.65333 1.46875,-13.75 0.99173,-0.89488 1.83809,-1.51451 2.15625,-2 0.021,-0.0338 0.047,-0.0924 0.0625,-0.125 0.0247,-0.0567 0.056,-0.13374 0.0625,-0.1875 0.002,-0.0229 0.002,-0.0713 0,-0.0937 -0.003,-0.0223 -0.0244,-0.0718 -0.0312,-0.0937 -0.0136,-0.0364 -0.0381,-0.0894 -0.0625,-0.125 -0.22936,-0.30456 -0.89288,-0.58095 -2.125,-0.90625 -5.70968,-2.04196 -3.99215,-8.74641 1.78125,-8.75 1.62711,-0.3808 6.83203,-3.07445 7.21875,-3.75 0.003,-0.006 -0.002,-0.0257 0,-0.0312 2.9e-4,-0.003 -7e-5,-0.0288 0,-0.0312 -6.1e-4,-0.002 8.4e-4,-0.0292 0,-0.0312 -0.004,-0.003 -0.0267,-0.0284 -0.0312,-0.0312 -0.003,-0.001 -0.0283,10e-4 -0.0312,0 -0.0672,-0.0142 -0.19009,-0.0238 -0.34375,0 -5.13966,2.15786 -11.58334,5.54003 -16.84375,1.90625 -4.05335,-2.87665 -7.47079,-11.6923 -0.96875,-13.6875 1.97971,-0.88194 7.22243,-4.07617 7.71875,-4.84375 0.007,-0.013 0.027,-0.0511 0.0312,-0.0625 4.4e-4,-0.003 -2.4e-4,-0.0288 0,-0.0312 -6e-4,-0.002 8.2e-4,-0.0294 0,-0.0312 -10e-4,-0.002 -0.0296,0.001 -0.0312,0 -0.002,-10e-4 0.002,-0.0302 0,-0.0312 -0.003,-9.7e-4 -0.0285,8.5e-4 -0.0312,0 -0.0196,-0.004 -0.0657,-7.5e-4 -0.0937,0 -4.5875,1.94355 -12.4227,6.6843 -16,3.4375 0.64425,-9.1885 9.57311,-14.3496 17.09375,-17.71875 3.47811,-0.57315 5.72791,-3.6492 1.03125,-4.75 -5.44882,-3.73974 -11.55075,-8.43037 -12.34375,-15.5625 -0.95591,-8.0521 1.08682,-15.96558 2.0625,-23.90625 -5.73715,1.59615 -4.23571,8.24952 -5.1875,12.59375 -0.80685,5.06839 -0.94733,10.27452 -0.0625,15.34375 -8.45073,-6.2957 -13.89717,-15.84121 -17.34375,-25.625 0.58084,-2.85764 -0.86387,-6.09652 -2.34375,-6.53125 -0.0849,-0.0229 -0.19658,-0.0274 -0.28125,-0.0312 -0.0846,-0.002 -0.19767,0.0125 -0.28125,0.0312 -0.0649,0.0164 -0.15493,0.0331 -0.21875,0.0625 -0.63634,0.31346 -1.23101,1.31667 -1.5625,3.25 0.3442,3.48945 4.97396,12.2055 -1.96875,10.375 -6.86651,-5.1994 -13.25678,-11.12449 -18.4375,-18.03125 z m 24.1875,34.46875 c -0.26538,0.12846 -0.52077,0.28719 -0.78125,0.4375 -0.0457,0.055 -0.0763,0.0934 -0.0937,0.125 -0.002,0.005 -0.0299,0.0267 -0.0312,0.0312 0.001,0.006 0.0261,0.0291 0.0312,0.0312 0.004,-5.9e-4 0.0259,0.001 0.0312,0 0.0123,-0.004 0.0468,-0.0237 0.0625,-0.0312 0.15326,-0.0807 0.44219,-0.30475 0.78125,-0.59375 z m 29.5625,18.125 c -0.31121,0.70484 -0.90445,1.43236 -1.84375,2.21875 -1.07178,0.51711 -2.16628,1.04711 -3.25,1.625 1.63316,-1.38606 3.32117,-2.66202 5.09375,-3.84375 z m -56.84375,8.53125 c -9.03442,4.60634 -15.66727,12.73629 -20.8125,21.28125 6.94128,-3.85074 9.62935,-12.0548 15.90625,-16.6875 1.48933,-1.52942 3.85881,-3.10203 4.90625,-4.59375 z"
         style="opacity:0.247;fill:#000000;fill-opacity:1;fill-rule:nonzero;stroke:none"
         inkscape:connector-curvature="0" />
      <path
         id="path4442"
         d="m 425.71875,153.21875 c -3.61999,-0.39091 -3.85602,4.52381 -2.0592,6.63621 1.04002,2.49868 3.02638,5.40678 1.58989,8.12825 -0.67175,1.68233 -5.44656,2.42207 -4.51317,3.73737 1.89142,-0.56639 3.48128,-2.71112 5.79977,-1.90519 2.28183,0.37638 3.49482,2.85227 3.01973,4.98987 -0.41768,6.20472 -2.11568,12.37916 -5.33702,17.72599 3.51381,-0.34127 4.86758,-4.00136 6.27205,-6.69795 0.80618,-1.6054 3.15164,-4.97185 3.56178,-1.42437 1.84431,4.32798 4.55742,8.58566 4.38492,13.46607 1.49705,3.96728 -0.77707,8.28843 -3.65625,11 3.7605,0.003 4.87438,-4.82393 8.3395,-5.46532 3.0449,-0.0123 3.87029,3.56651 5.32747,5.6146 1.31863,2.25216 2.66211,4.72156 5.02053,6.03822 3.72814,-0.62776 2.05937,-5.10918 -0.5072,-6.09514 -2.02503,-2.15806 -0.42502,-5.81927 2.35095,-6.27986 2.82799,-1.76961 -2.03951,-1.17765 -3.23676,-1.45603 -5.63275,-1.59373 -9.46996,-6.61029 -11.77017,-11.75649 -2.01237,-4.25792 -3.41159,-8.7803 -5.52217,-12.99402 1.72848,-0.40085 3.41734,2.11594 5.03328,2.95577 2.45184,2.03286 6.45607,2.96831 9.05734,0.69296 1.34908,-1.60229 -2.77587,-1.23786 -3.83275,-2.2478 -5.65297,-2.40806 -10.33521,-6.59627 -14.35377,-11.16314 -2.23877,-4.26949 -3.11975,-9.07501 -4.96875,-13.5 z"
         style="opacity:0.24599998;fill:#000000;fill-opacity:1;fill-rule:nonzero;stroke:none"
         inkscape:connector-curvature="0" />
      <path
         id="path5335"
         d="m 413.28125,61.500002 c -3.50221,-0.02984 -3.19035,4.25541 -2.74699,6.67457 0.14899,2.76854 0.44657,5.51664 0.53203,8.29338 0.5433,3.39815 -3.72811,4.94446 -5.66934,2.25826 -2.43699,-2.02652 -4.81884,-5.46109 -8.4282,-4.75746 -3.23249,2.33339 2.05322,4.25737 3.68778,5.52634 6.59265,5.138 13.34811,11.21723 15.56222,19.59865 -0.59241,3.164138 -4.37084,3.808518 -6.97,2.892068 -3.22905,-0.15184 -5.37611,-4.193158 -8.56145,-3.149098 -3.81418,2.813798 2.53612,4.719198 4.83353,5.183668 4.51738,0.9261 9.136,0.15721 13.69791,0.38586 1.55422,2.42709 3.85745,5.19751 3.00437,8.2661 -1.35461,2.09073 -3.9849,2.98122 -6.18234,4.01241 -1.80818,0.74186 -5.83681,1.89837 -5.55832,3.38163 4.5704,0.55483 7.54123,-5.04179 12.15747,-3.95092 2.74347,2.6032 7.31202,2.74581 9.43293,5.96708 1.32915,2.09344 2.82186,4.27676 4.25337,6.38553 1.17209,3.32363 7.54489,0.21856 4.20529,-2.06591 -2.57177,-1.58156 -3.68031,-4.49152 -5.86151,-6.50756 -2.1026,-2.2764 -4.27677,-5.67956 -2.48251,-8.76961 4.5342,-0.73681 9.63965,1.83713 13.73268,-1.06839 1.40789,-1.49374 -3.65373,-1.11522 -5.05001,-1.34018 -3.23911,-0.0518 -6.4751,0.27815 -9.71392,0.12732 -3.42652,-2.61269 -6.39184,-6.99471 -5.0625,-11.468748 0.11708,-4.23825 5.74974,-5.94289 5.55102,-10.23602 -1.14812,-3.46698 -4.5408,0.83525 -4.26676,3.11569 -0.59647,3.13579 -3.18198,6.31328 -6.5354,6.44379 -3.35515,-0.76769 -2.95871,-5.25418 -4.31874,-7.82872 -2.5402,-8.89283 -2.55462,-18.21876 -3.24261,-27.36973 z"
         style="opacity:0.24599998;fill:#000000;fill-opacity:1;fill-rule:nonzero;stroke:none"
         inkscape:connector-curvature="0" />
    </g>
  </g>
</svg>
