<?xml version="1.0" encoding="UTF-8" standalone="no"?>
<!-- Created with Inkscape (http://www.inkscape.org/) -->

<svg
   xmlns:dc="http://purl.org/dc/elements/1.1/"
   xmlns:cc="http://creativecommons.org/ns#"
   xmlns:rdf="http://www.w3.org/1999/02/22-rdf-syntax-ns#"
   xmlns:svg="http://www.w3.org/2000/svg"
   xmlns="http://www.w3.org/2000/svg"
   xmlns:xlink="http://www.w3.org/1999/xlink"
   xmlns:sodipodi="http://sodipodi.sourceforge.net/DTD/sodipodi-0.dtd"
   xmlns:inkscape="http://www.inkscape.org/namespaces/inkscape"
   height="298.93402"
   id="svg2866"
   version="1.0"
   width="329.55072"
   x="0.0000000"
   y="0.0000000"
   inkscape:version="0.48.1 r9760"
   sodipodi:docname="Anonymous_Scanner.svg">
  <sodipodi:namedview
     pagecolor="#ffffff"
     bordercolor="#666666"
     borderopacity="1"
     objecttolerance="10"
     gridtolerance="10"
     guidetolerance="10"
     inkscape:pageopacity="0"
     inkscape:pageshadow="2"
     inkscape:window-width="640"
     inkscape:window-height="480"
     id="namedview3324"
     showgrid="false"
     fit-margin-top="0"
     fit-margin-left="0"
     fit-margin-right="0"
     fit-margin-bottom="0"
     inkscape:zoom="0.959375"
     inkscape:cx="160.90186"
     inkscape:cy="157.89822"
     inkscape:window-x="0"
     inkscape:window-y="0"
     inkscape:window-maximized="0"
     inkscape:current-layer="svg2866" />
  <metadata
     id="metadata3268">
    <rdf:RDF>
      <cc:Work
         rdf:about="">
        <dc:title>Etiquette Scanner</dc:title>
        <dc:description />
        <dc:subject>
          <rdf:Bag>
            <rdf:li>hardware</rdf:li>
            <rdf:li>computer</rdf:li>
            <rdf:li>icons</rdf:li>
            <rdf:li>scanner</rdf:li>
          </rdf:Bag>
        </dc:subject>
        <dc:publisher>
          <cc:Agent
             rdf:about="http://www.openclipart.org">
            <dc:title>Andrew Fitzsimon</dc:title>
          </cc:Agent>
        </dc:publisher>
        <dc:creator>
          <cc:Agent>
            <dc:title>Andrew Fitzsimon</dc:title>
          </cc:Agent>
        </dc:creator>
        <dc:rights>
          <cc:Agent>
            <dc:title>Andrew Fitzsimon</dc:title>
          </cc:Agent>
        </dc:rights>
        <dc:date />
        <dc:format>image/svg+xml</dc:format>
        <dc:type
           rdf:resource="http://purl.org/dc/dcmitype/StillImage" />
        <cc:license
           rdf:resource="http://web.resource.org/cc/PublicDomain" />
        <dc:language>en</dc:language>
      </cc:Work>
      <cc:License
         rdf:about="http://web.resource.org/cc/PublicDomain">
        <cc:permits
           rdf:resource="http://web.resource.org/cc/Reproduction" />
        <cc:permits
           rdf:resource="http://web.resource.org/cc/Distribution" />
        <cc:permits
           rdf:resource="http://web.resource.org/cc/DerivativeWorks" />
      </cc:License>
    </rdf:RDF>
  </metadata>
  <defs
     id="defs2868">
    <linearGradient
       id="linearGradient8471"
       x1="280.3007"
       x2="283.50529"
       xlink:href="#linearGradient8481"
       y1="418.04542"
       y2="212.07808"
       gradientTransform="scale(1.449453,0.68991544)"
       gradientUnits="userSpaceOnUse" />
    <linearGradient
       id="linearGradient1718"
       x1="68.268656"
       x2="70.638656"
       xlink:href="#linearGradient8468"
       y1="164.80815"
       y2="87.802278"
       gradientTransform="scale(1.4344384,0.69713695)"
       gradientUnits="userSpaceOnUse" />
    <linearGradient
       id="linearGradient1726"
       x1="151.97781"
       x2="200.30677"
       xlink:href="#linearGradient8474"
       y1="82.293232"
       y2="418.7864"
       gradientTransform="scale(1.4450301,0.69202711)"
       gradientUnits="userSpaceOnUse" />
    <linearGradient
       id="linearGradient8478"
       x1="282.27411"
       x2="282.27411"
       xlink:href="#linearGradient8468"
       y1="419.3639"
       y2="211.77074"
       gradientTransform="scale(1.4450301,0.69202711)"
       gradientUnits="userSpaceOnUse" />
    <linearGradient
       id="linearGradient1727"
       x1="310.44888"
       x2="311.96148"
       xlink:href="#linearGradient1806"
       y1="142.43878"
       y2="261.76054"
       gradientTransform="scale(1.3554204,0.73777846)"
       gradientUnits="userSpaceOnUse" />
    <linearGradient
       id="linearGradient8487"
       x1="312.61248"
       x2="339.46602"
       xlink:href="#linearGradient8474"
       y1="135.90253"
       y2="316.70622"
       gradientTransform="scale(1.3554204,0.73777846)"
       gradientUnits="userSpaceOnUse" />
    <linearGradient
       id="linearGradient1723"
       x1="432.92791"
       x2="433.64526"
       xlink:href="#linearGradient1806"
       y1="757.95054"
       y2="800.33556"
       gradientTransform="scale(1.7273839,0.5789101)"
       gradientUnits="userSpaceOnUse" />
    <linearGradient
       id="linearGradient1720"
       x1="613.40866"
       x2="764.94671"
       xlink:href="#linearGradient8474"
       y1="427.97285"
       y2="427.97285"
       gradientTransform="scale(1.0518523,0.95070386)"
       gradientUnits="userSpaceOnUse" />
    <linearGradient
       id="linearGradient1721"
       x1="729.97639"
       x2="701.36431"
       xlink:href="#linearGradient8474"
       y1="449.28289"
       y2="213.68858"
       gradientTransform="scale(1.0518523,0.95070386)"
       gradientUnits="userSpaceOnUse" />
    <linearGradient
       id="linearGradient1649"
       x1="412.24046"
       x2="410.37456"
       xlink:href="#linearGradient1806"
       y1="355.6144"
       y2="468.66054"
       gradientTransform="scale(1.0435979,0.95822344)"
       gradientUnits="userSpaceOnUse" />
    <linearGradient
       id="linearGradient8485"
       x1="148.03816"
       x2="381.78809"
       xlink:href="#linearGradient8481"
       y1="49.922657"
       y2="459.21629"
       gradientTransform="scale(1.1501645,0.86944085)"
       gradientUnits="userSpaceOnUse" />
    <linearGradient
       id="linearGradient8472"
       x1="354.98922"
       x2="352.48867"
       xlink:href="#linearGradient8468"
       y1="275.79324"
       y2="687.60363"
       gradientTransform="scale(1.0754655,0.92982989)"
       gradientUnits="userSpaceOnUse" />
    <linearGradient
       id="linearGradient8481">
      <stop
         id="stop8482"
         offset="0.0000000"
         style="stop-color:#ffffff;stop-opacity:1.0000000;" />
      <stop
         id="stop8483"
         offset="1.0000000"
         style="stop-color:#ffffff;stop-opacity:0.0039215689;" />
    </linearGradient>
    <linearGradient
       id="linearGradient8480"
       x1="418.53323"
       x2="416.16321"
       xlink:href="#linearGradient8481"
       y1="507.24978"
       y2="370.64895"
       gradientTransform="scale(1.0206721,0.97974655)"
       gradientUnits="userSpaceOnUse" />
    <linearGradient
       id="linearGradient8474">
      <stop
         id="stop8475"
         offset="0.0000000"
         style="stop-color:#ffffff;stop-opacity:1.0000000;" />
      <stop
         id="stop8476"
         offset="1.0000000"
         style="stop-color:#a2a2a2;stop-opacity:1.0000000;" />
    </linearGradient>
    <linearGradient
       id="linearGradient8473"
       x1="298.29188"
       x2="407.10941"
       xlink:href="#linearGradient8474"
       y1="144.42385"
       y2="525.78287"
       gradientTransform="scale(1.0237711,0.97678086)"
       gradientUnits="userSpaceOnUse" />
    <linearGradient
       id="linearGradient1806">
      <stop
         id="stop1807"
         offset="0.0000000"
         style="stop-color:#000000;stop-opacity:0.53103447;" />
      <stop
         id="stop3276"
         offset="0.64777780"
         style="stop-color:#000000;stop-opacity:0.073446326;" />
      <stop
         id="stop1808"
         offset="1.0000000"
         style="stop-color:#000000;stop-opacity:0.0000000;" />
    </linearGradient>
    <radialGradient
       cx="24.825565"
       cy="176.56437"
       fx="27.010122"
       fy="137.43433"
       id="radialGradient1505"
       r="51.667703"
       xlink:href="#linearGradient1806"
       gradientUnits="userSpaceOnUse" />
    <linearGradient
       id="linearGradient8468">
      <stop
         id="stop8469"
         offset="0.0000000"
         style="stop-color:#000000;stop-opacity:0.58620691;" />
      <stop
         id="stop8470"
         offset="1.0000000"
         style="stop-color:#000000;stop-opacity:0.0068965517;" />
    </linearGradient>
    <radialGradient
       cx="24.825565"
       cy="176.56437"
       fx="27.010122"
       fy="137.43433"
       id="radialGradient1719"
       r="51.667703"
       xlink:href="#linearGradient8468"
       gradientUnits="userSpaceOnUse" />
    <linearGradient
       id="linearGradient1851">
      <stop
         id="stop1852"
         offset="0.0000000"
         style="stop-color:#000000;stop-opacity:0.37241378;" />
      <stop
         id="stop1854"
         offset="0.50000000"
         style="stop-color:#000000;stop-opacity:0.11034483;" />
      <stop
         id="stop1853"
         offset="1.0000000"
         style="stop-color:#adadad;stop-opacity:0.0000000;" />
    </linearGradient>
    <radialGradient
       cx="-289.0914"
       cy="598.36652"
       fx="-285.65439"
       fy="552.23833"
       id="radialGradient1875"
       r="125.20509"
       xlink:href="#linearGradient1851"
       gradientUnits="userSpaceOnUse"
       gradientTransform="matrix(-1.26074,0,0,0.148353,-204.90224,191.59002)" />
    <linearGradient
       inkscape:collect="always"
       xlink:href="#linearGradient8481"
       id="linearGradient3575"
       x1="418.53323"
       y1="507.24978"
       x2="416.16321"
       y2="370.64895"
       gradientTransform="scale(1.0206721,0.97974655)"
       gradientUnits="userSpaceOnUse" />
  </defs>
  <g
     id="g1875"
     transform="matrix(2.678142,0,0,2.678142,-78.956547,-82.337054)">
    <path
       d="m 82.055313,175.83524 a 56.143108,56.143108 0 1 0 -112.286217,0 56.143108,56.143108 0 1 0 112.286217,0 z"
       id="path8567"
       style="fill:url(#radialGradient1719);fill-opacity:1;fill-rule:evenodd;stroke-width:1pt"
       transform="matrix(1.037697,0,0,0.973579,62.07941,-85.78565)"
       inkscape:connector-curvature="0" />
    <path
       d="m 82.055313,175.83524 a 56.143108,56.143108 0 1 0 -112.286217,0 56.143108,56.143108 0 1 0 112.286217,0 z"
       id="path9968"
       style="fill:url(#radialGradient1505);fill-opacity:1;fill-rule:evenodd;stroke-width:1pt"
       transform="matrix(1.095878,0,0,0.276872,62.61122,65.61453)"
       inkscape:connector-curvature="0" />
    <path
       d="m 266.32168,261.71102 -17.74641,201.71176 c -2.38578,27.11753 12.4167,35.33636 30.05059,35.33636 l 222.89499,0 c 17.72397,0 32.76522,-8.04032 30.52384,-35.33636 L 515.48137,261.71102 C 513.79373,241.15862 495.22664,227.847 481.88148,227.847 l -181.7233,0 c -13.41142,0 -32.022,13.23983 -33.8365,33.86402 z"
       id="rect8459"
       style="fill:url(#linearGradient8473);fill-opacity:1;fill-rule:evenodd;stroke:none"
       transform="matrix(0.348844,0,0,0.348844,-46.78943,-45.35393)"
       inkscape:connector-curvature="0" />
    <path
       d="m 270.40645,251.95672 -17.16168,204.07181 c -2.22141,26.41507 12.00759,26.53478 29.06043,26.53478 l 215.55056,0 c 17.13996,0 31.60469,0.0498 29.51807,-26.53478 L 511.35627,251.95672 C 509.78516,231.94 491.76895,219.0129 478.86351,219.0129 l -175.73549,0 c -12.96951,0 -31.03208,12.85388 -32.72157,32.94382 z"
       id="path8479"
       style="fill:url(#linearGradient3575);fill-opacity:1;fill-rule:evenodd;stroke:none"
       transform="matrix(0.348844,0,0,0.348844,-46.78943,-45.35393)"
       inkscape:connector-curvature="0" />
    <path
       d="m 290.47202,255.32675 -14.28921,157.34118 c -1.79826,19.80094 9.99779,24.42163 24.19639,24.42163 l 179.4725,0 c 14.27113,0 26.26666,-4.4927 24.57744,-24.42163 L 491.09255,255.32675 c -1.27189,-15.00537 -16.30887,-15.87002 -27.05425,-15.87002 l -146.32152,0 c -10.79872,0 -25.8771,0.81045 -27.24476,15.87002 z"
       id="path8461"
       style="fill:url(#linearGradient8472);fill-opacity:1;fill-rule:evenodd;stroke:none"
       transform="matrix(0.348844,0,0,0.348844,-46.78943,-45.35393)"
       inkscape:connector-curvature="0" />
    <path
       d="m 276.18281,387.68135 c -2.28482,19.75071 9.99779,49.40821 24.19639,49.40821 l 179.4725,0 c 14.27113,0 26.72442,-29.52339 24.57744,-49.40821 L 491.09255,264.16084 C 431.50264,384.45852 311.67939,286.1236 276.18281,387.68135 z"
       id="path8484"
       style="fill:url(#linearGradient8485);fill-opacity:1;fill-rule:evenodd;stroke:none"
       transform="matrix(0.348844,0,0,0.348844,-46.78943,-45.35393)"
       inkscape:connector-curvature="0" />
    <path
       d="m 270.40645,261.97738 -17.16168,195.20418 c -2.22141,25.26724 12.00759,25.38175 29.06043,25.38175 l 215.55056,0 c 17.13996,0 31.60469,0.0476 29.51807,-25.38175 L 511.35627,261.97738 c -1.57111,-19.14692 -19.58732,-31.5123 -32.49276,-31.5123 l -175.73549,0 c -12.96951,0 -31.03208,12.29534 -32.72157,31.5123 z"
       id="path9973"
       style="fill:url(#linearGradient1649);fill-opacity:1;fill-rule:evenodd;stroke:none"
       transform="matrix(0.348844,0,0,0.348844,-46.78943,-45.35393)"
       inkscape:connector-curvature="0" />
    <path
       d="m 270.40645,251.95672 -17.16168,204.07181 c -2.22141,26.41507 12.00759,26.53478 29.06043,26.53478 l 215.55056,0 c 17.13996,0 31.60469,0.0498 29.51807,-26.53478 L 511.35627,251.95672 C 509.78516,231.94 491.76895,219.0129 478.86351,219.0129 l -175.73549,0 c -12.96951,0 -31.03208,12.85388 -32.72157,32.94382 z"
       id="path9974"
       style="fill:url(#linearGradient8480);fill-opacity:1;fill-rule:evenodd;stroke:none"
       transform="matrix(0.348844,0,0,0.348844,-46.78943,-45.35393)"
       inkscape:connector-curvature="0" />
    <g
       id="g1708"
       transform="matrix(0.397731,0,0,0.380891,-198.1203,-81.33286)">
      <path
         d="m 645.84028,478.28435 11.77879,-142.81781 132.51137,0 13.85548,141.4246 -158.14564,1.39321 z"
         id="path1719"
         style="fill:url(#linearGradient1721);fill-opacity:1;fill-rule:evenodd;stroke:url(#linearGradient1720);stroke-width:1pt;stroke-linecap:butt;stroke-linejoin:miter;stroke-opacity:0.22012574"
         inkscape:connector-curvature="0" />
      <path
         d="m 649.76787,411.66525 c 76.00086,20.47512 99.68866,-16.2044 153.82626,10.51736 l -0.78344,41.39004 -157.20725,1.04111 4.16443,-52.94851 z"
         id="path1722"
         style="fill:url(#linearGradient1723);fill-opacity:1;fill-rule:evenodd;stroke:none"
         inkscape:connector-curvature="0" />
    </g>
    <g
       id="g1866"
       transform="matrix(1.054342,0,0,1.054342,-4.35267,-1.775336)">
      <path
         d="m 283.00991,207.7739 -16.27494,-88.3985 c -2.60235,-14.13476 11.38716,-35.359406 27.5589,-35.359406 l 204.41331,0 c 16.25436,0 30.43824,21.128666 27.99291,35.359406 l -15.18995,88.3985 c -1.84121,10.71495 -18.57528,17.6797 -30.8139,17.6797 l -166.65544,0 c -12.29939,0 -29.0517,-6.92951 -31.03089,-17.6797 z"
         id="path8486"
         style="fill:url(#linearGradient8487);fill-opacity:1;fill-rule:evenodd;stroke:url(#linearGradient1727);stroke-width:0.67866912pt;stroke-linecap:butt;stroke-linejoin:miter;stroke-opacity:0.32704408"
         transform="matrix(0.348844,0,0,-0.348844,-49.6949,111.9102)"
         inkscape:connector-curvature="0" />
      <path
         d="m 288.37582,207.6476 -15.50679,-74.30656 c -2.47952,-11.88149 10.84971,-29.72262 26.25817,-29.72262 l 194.76536,0 c 15.48718,0 29.0016,17.76046 26.67169,29.72262 l -14.47301,74.30656 c -1.75431,9.00683 -17.69856,14.8613 -29.35954,14.8613 l -158.78959,0 c -11.71888,0 -27.68051,-5.82485 -29.56629,-14.8613 z"
         id="path8477"
         style="fill:url(#linearGradient8478);fill-opacity:1;fill-rule:evenodd;stroke:none"
         transform="matrix(0.348844,0,0,-0.348844,-49.6949,111.9102)"
         inkscape:connector-curvature="0" />
      <path
         d="m 285.69287,208.75186 -15.89087,-76.147 c -2.54094,-12.17576 11.11843,-30.45879 26.90854,-30.45879 l 199.58933,0 c 15.87077,0 29.71992,18.20035 27.3323,30.45879 l -14.83148,76.147 c -1.79776,9.22992 -18.13692,15.22939 -30.08672,15.22939 l -162.72252,0 c -12.00913,0 -28.3661,-5.96912 -30.29858,-15.22939 z"
         id="path8463"
         style="fill:url(#linearGradient1726);fill-opacity:1;fill-rule:evenodd;stroke:none"
         transform="matrix(0.348844,0,0,-0.348844,-49.6949,111.9102)"
         inkscape:connector-curvature="0" />
      <path
         d="m 51.432222,37.935972 -5.41491,26.33217 c -0.86584,4.210466 3.788673,10.532864 9.16925,10.532864 l 68.011308,0 c 5.40806,0 10.12726,-6.293809 9.31366,-10.532864 l -5.05392,-26.33217 c -0.61259,-3.191767 -6.18027,-5.266428 -10.25224,-5.266428 l -55.448714,0 c -4.092185,0 -9.66593,2.064164 -10.324434,5.266428 z"
         id="path1717"
         style="fill:url(#linearGradient1718);fill-opacity:1;fill-rule:evenodd;stroke:none"
         inkscape:connector-curvature="0" />
      <path
         d="m 294.44987,205.52684 -14.86998,-70.82088 c -2.3777,-11.32413 10.40414,-28.32834 25.17984,-28.32834 l 186.76707,0 c 14.85117,0 27.81063,16.92732 25.57639,28.32834 l -13.87865,70.82088 c -1.68225,8.58432 -16.97174,14.16416 -28.15386,14.16416 l -152.2687,0 c -11.23762,0 -26.54378,-5.55161 -28.35211,-14.16416 z"
         id="path8462"
         style="fill:url(#linearGradient8471);fill-opacity:1;fill-rule:evenodd;stroke:none"
         transform="matrix(0.348844,0,0,-0.348844,-49.6949,111.9102)"
         inkscape:connector-curvature="0" />
    </g>
  </g>
  <path
     d="m 1.7157895,280.35948 a 157.85107,18.574551 0 1 1 315.7021305,0 157.85107,18.574551 0 0 1 -315.7021305,0 z"
     id="path10011"
     style="fill:url(#radialGradient1875);fill-opacity:1;fill-rule:evenodd;stroke:none"
     inkscape:connector-curvature="0" />
</svg>
