<?xml version="1.0" encoding="UTF-8" standalone="no"?>
<!-- Created with Inkscape (http://www.inkscape.org/) -->

<svg
   xmlns:dc="http://purl.org/dc/elements/1.1/"
   xmlns:cc="http://creativecommons.org/ns#"
   xmlns:rdf="http://www.w3.org/1999/02/22-rdf-syntax-ns#"
   xmlns:svg="http://www.w3.org/2000/svg"
   xmlns="http://www.w3.org/2000/svg"
   xmlns:xlink="http://www.w3.org/1999/xlink"
   xmlns:sodipodi="http://sodipodi.sourceforge.net/DTD/sodipodi-0.dtd"
   xmlns:inkscape="http://www.inkscape.org/namespaces/inkscape"
   width="660.62183"
   height="847.375"
   id="svg13848"
   sodipodi:version="0.32"
   inkscape:version="0.48.1 r9760"
   sodipodi:docname="Aquila_LCD_monitor.svg"
   inkscape:output_extension="org.inkscape.output.svg.inkscape"
   sodipodi:modified="true"
   version="1.0">
  <defs
     id="defs13850">
    <linearGradient
       id="linearGradient15816">
      <stop
         style="stop-color:#000000;stop-opacity:1;"
         offset="0"
         id="stop15818" />
      <stop
         style="stop-color:#ffffff;stop-opacity:1;"
         offset="1"
         id="stop15820" />
    </linearGradient>
    <linearGradient
       inkscape:collect="always"
       id="linearGradient4128">
      <stop
         style="stop-color:#ffffff;stop-opacity:1;"
         offset="0"
         id="stop4130" />
      <stop
         style="stop-color:#ffffff;stop-opacity:0;"
         offset="1"
         id="stop4132" />
    </linearGradient>
    <linearGradient
       inkscape:collect="always"
       xlink:href="#linearGradient4128"
       id="linearGradient4134"
       x1="177.77686"
       y1="203.65054"
       x2="230.19313"
       y2="-37.302937"
       gradientUnits="userSpaceOnUse"
       gradientTransform="matrix(2.3430108,0,0,2.3430108,-42.154017,42.249798)" />
    <linearGradient
       id="linearGradient10929">
      <stop
         style="stop-color:#737373;stop-opacity:1;"
         offset="0"
         id="stop10931" />
      <stop
         style="stop-color:#a5a5a5;stop-opacity:1;"
         offset="1"
         id="stop10933" />
    </linearGradient>
    <linearGradient
       inkscape:collect="always"
       xlink:href="#linearGradient10929"
       id="linearGradient10935"
       x1="56.591049"
       y1="347.94147"
       x2="276.0675"
       y2="347.94147"
       gradientUnits="userSpaceOnUse"
       gradientTransform="matrix(2.3430108,0,0,2.3430108,-42.154017,42.249798)" />
    <linearGradient
       inkscape:collect="always"
       xlink:href="#linearGradient15816"
       id="linearGradient15822"
       x1="162.4796"
       y1="120.58684"
       x2="219.73109"
       y2="1052.7828"
       gradientUnits="userSpaceOnUse" />
  </defs>
  <sodipodi:namedview
     id="base"
     pagecolor="#ffffff"
     bordercolor="#666666"
     borderopacity="1.0"
     gridtolerance="10000"
     guidetolerance="10"
     objecttolerance="10"
     inkscape:pageopacity="0.0"
     inkscape:pageshadow="2"
     inkscape:zoom="0.35"
     inkscape:cx="351.02522"
     inkscape:cy="497.97328"
     inkscape:document-units="px"
     inkscape:current-layer="layer1"
     inkscape:window-width="1013"
     inkscape:window-height="689"
     inkscape:window-x="0"
     inkscape:window-y="25"
     showgrid="false"
     fit-margin-top="0"
     fit-margin-left="0"
     fit-margin-right="0"
     fit-margin-bottom="0"
     inkscape:window-maximized="0" />
  <metadata
     id="metadata13853">
    <rdf:RDF>
      <cc:Work
         rdf:about="">
        <dc:format>image/svg+xml</dc:format>
        <dc:type
           rdf:resource="http://purl.org/dc/dcmitype/StillImage" />
      </cc:Work>
    </rdf:RDF>
  </metadata>
  <g
     inkscape:label="Layer 1"
     inkscape:groupmode="layer"
     id="layer1"
     transform="translate(-41.117639,-82.960384)">
    <path
       style="fill:#333333;fill-rule:evenodd;stroke:none"
       d="M 475.68007,930.33541 C 352.24604,885.41066 88.69477,869.05455 88.69477,869.05455 l 0.872326,-19.62733 c 25.984084,-7.04649 276.218994,-23.76298 385.567774,60.19045 l 0,-0.43615 0.71462,19.79841 -0.16942,1.35548 z"
       id="path10937"
       sodipodi:nodetypes="ccccccc"
       inkscape:connector-curvature="0" />
    <path
       style="fill:url(#linearGradient10935);fill-opacity:1;fill-rule:evenodd;stroke:none"
       d="m 244.40482,809.30028 c 0,0 124.74253,-19.62733 360.27034,47.97788 l -129.62876,52.53339 -2.09235,-1.50236 C 460.07667,901.85752 304.72297,820.73438 89.458076,849.48174 L 244.40482,809.30028 z"
       id="path9958"
       sodipodi:nodetypes="cccccc"
       inkscape:connector-curvature="0" />
    <path
       style="fill:url(#linearGradient15822);fill-opacity:1;fill-rule:evenodd;stroke:none"
       d="M 83.061891,187.82099 651.15965,120.58684 635.73899,739.26445 59.622457,685.60048 83.061891,187.82099 z"
       id="path2176"
       sodipodi:nodetypes="ccccc"
       inkscape:connector-curvature="0" />
    <path
       style="fill:#484848;fill-opacity:1;fill-rule:evenodd;stroke:none"
       d="m 73.693831,182.03825 14.148481,7.01641 562.507788,-67.38837 0.30838,-12.18234 -576.964649,72.5543 z"
       id="path2170"
       sodipodi:nodetypes="ccccc"
       inkscape:connector-curvature="0" />
    <path
       style="fill:#646464;fill-opacity:1;fill-rule:evenodd;stroke:none"
       d="m 63.940251,684.98366 567.480939,51.81348 -0.61682,9.71504 -577.967014,-56.5939 11.102895,-4.93462 z"
       id="path2174"
       sodipodi:nodetypes="ccccc"
       inkscape:connector-curvature="0" />
    <path
       style="fill:#232323;fill-opacity:1;fill-rule:evenodd;stroke:none"
       d="m 73.616722,181.84549 -19.545701,508.07279 10.408966,-4.93462 23.516519,-495.929 -14.379784,-7.20917 z"
       id="path2172"
       sodipodi:nodetypes="ccccc"
       inkscape:connector-curvature="0" />
    <path
       style="fill:#4d4d4d;fill-rule:evenodd;stroke:none"
       d="m 307.75745,782.69436 -9.70462,34.89301 c 0,0 76.87367,0.3271 154.5106,20.39059 L 456.707,799.4866 307.75745,782.69436 z"
       id="path8987"
       sodipodi:nodetypes="ccccc"
       inkscape:connector-curvature="0" />
    <path
       style="fill:#292929;fill-opacity:1;fill-rule:evenodd;stroke:none"
       d="m 294.12738,730.791 13.52104,52.33951 149.16762,16.57418 L 445.4758,743.87587 294.12738,730.791 z"
       id="path6074"
       inkscape:connector-curvature="0" />
    <path
       style="fill:#666666;fill-rule:evenodd;stroke:none"
       d="m 456.48891,798.83236 -4.0345,39.25464 37.40095,-9.26846 -4.33436,-35.65629 -29.03209,5.67011 z"
       id="path8016"
       sodipodi:nodetypes="ccccc"
       inkscape:connector-curvature="0" />
    <path
       style="fill:#666666;fill-rule:evenodd;stroke:none"
       d="m 456.37987,799.26854 29.2229,-5.67014 -8.28709,-42.74392 -32.27603,-3.92548 11.34022,52.33954 z"
       id="path7045"
       inkscape:connector-curvature="0" />
    <path
       id="path2161"
       style="fill:#333333;fill-rule:evenodd;stroke:none"
       d="M 63.32343,162.53109 672.17032,83.037493 648.69235,770.10581 41.117639,708.42309 63.32343,162.53109 z M 54.687842,689.91828 630.18753,746.04955 650.54283,110.10079 74.426303,182.26955 54.687842,689.91828 z"
       sodipodi:nodetypes="cccccccccc"
       inkscape:connector-curvature="0" />
    <path
       style="fill:#575757;fill-opacity:1;fill-rule:evenodd;stroke:none"
       d="M 672.09324,82.960384 701.73949,99.614716 678.91688,767.6385 647.4587,769.95159 672.09324,82.960384 z"
       id="path2165"
       sodipodi:nodetypes="ccccc"
       inkscape:connector-curvature="0" />
    <path
       style="fill:#b3b3b3;fill-rule:evenodd;stroke:none"
       d="m 475.02583,909.72671 0.5452,20.28157 129.32222,-51.57625 -0.65424,-21.37196 -129.21318,52.66664 z"
       id="path11908"
       sodipodi:nodetypes="ccccc"
       inkscape:connector-curvature="0" />
  </g>
</svg>
