<?xml version="1.0" encoding="UTF-8" standalone="no"?>
<!-- Created with Inkscape (http://www.inkscape.org/) -->
<svg
   xmlns:dc="http://purl.org/dc/elements/1.1/"
   xmlns:cc="http://web.resource.org/cc/"
   xmlns:rdf="http://www.w3.org/1999/02/22-rdf-syntax-ns#"
   xmlns:svg="http://www.w3.org/2000/svg"
   xmlns="http://www.w3.org/2000/svg"
   xmlns:xlink="http://www.w3.org/1999/xlink"
   xmlns:sodipodi="http://inkscape.sourceforge.net/DTD/sodipodi-0.dtd"
   xmlns:inkscape="http://www.inkscape.org/namespaces/inkscape"
   width="128.00000pt"
   height="128.00000pt"
   id="svg2"
   sodipodi:version="0.32"
   inkscape:version="0.41"
   sodipodi:docbase="/home/egore/workspace/wine/floppy/0.1"
   sodipodi:docname="floppy.svg"
   inkscape:export-filename="/home/egore/workspace/wine/floppy/0.1/floppy.png"
   inkscape:export-xdpi="72.000000"
   inkscape:export-ydpi="72.000000">
  <defs
     id="defs3">
    <linearGradient
       id="linearGradient7409">
      <stop
         style="stop-color:#ffffff;stop-opacity:1.0000000;"
         offset="0.0000000"
         id="stop7411" />
      <stop
         style="stop-color:#dadada;stop-opacity:1.0000000;"
         offset="1.0000000"
         id="stop7413" />
    </linearGradient>
    <linearGradient
       id="linearGradient6641">
      <stop
         style="stop-color:#cdcdcd;stop-opacity:1.0000000;"
         offset="0.0000000"
         id="stop6643" />
      <stop
         style="stop-color:#7e7e7e;stop-opacity:1.0000000;"
         offset="1.0000000"
         id="stop6645" />
    </linearGradient>
    <linearGradient
       id="linearGradient5873">
      <stop
         style="stop-color:#001dcd;stop-opacity:1.0000000;"
         offset="0.0000000"
         id="stop5875" />
      <stop
         style="stop-color:#000c5d;stop-opacity:1.0000000;"
         offset="1.0000000"
         id="stop5877" />
    </linearGradient>
    <linearGradient
       inkscape:collect="always"
       xlink:href="#linearGradient5873"
       id="linearGradient5881"
       gradientTransform="matrix(1.006060,0.000000,0.000000,0.993976,-0.756501,-0.756501)"
       x1="-11.401763"
       y1="54.015789"
       x2="147.37901"
       y2="105.80302"
       gradientUnits="userSpaceOnUse" />
    <radialGradient
       inkscape:collect="always"
       xlink:href="#linearGradient6641"
       id="radialGradient6649"
       gradientTransform="matrix(1.094547,0.000000,0.000000,0.913620,-0.756501,-0.756501)"
       cx="66.017220"
       cy="130.17122"
       fx="66.017220"
       fy="130.17122"
       r="32.320759"
       gradientUnits="userSpaceOnUse" />
    <linearGradient
       inkscape:collect="always"
       xlink:href="#linearGradient7409"
       id="linearGradient7415"
       gradientTransform="matrix(1.046660,0.000000,0.000000,0.955420,-0.756501,-0.756501)"
       x1="42.912979"
       y1="40.738884"
       x2="108.55267"
       y2="67.411362"
       gradientUnits="userSpaceOnUse" />
  </defs>
  <sodipodi:namedview
     id="base"
     pagecolor="#ffffff"
     bordercolor="#666666"
     borderopacity="1.0"
     inkscape:pageopacity="0.0"
     inkscape:pageshadow="2"
     inkscape:zoom="4.8875000"
     inkscape:cx="80.000000"
     inkscape:cy="80.000000"
     inkscape:document-units="px"
     inkscape:current-layer="layer1"
     inkscape:window-width="1272"
     inkscape:window-height="966"
     inkscape:window-x="0"
     inkscape:window-y="0" />
  <metadata
     id="metadata4">
    <rdf:RDF
       id="RDF5">
      <cc:Work
         rdf:about=""
         id="Work6">
        <dc:format
           id="format7">image/svg+xml</dc:format>
        <dc:type
           id="type9"
           rdf:resource="http://purl.org/dc/dcmitype/StillImage" />
        <dc:title
           id="title1306">Floppy</dc:title>
        <dc:date
           id="date1308">2005-03-25</dc:date>
        <dc:creator
           id="creator1310">
          <cc:Agent
             id="Agent1312">
            <dc:title
               id="title1314">Christoph Brill</dc:title>
          </cc:Agent>
        </dc:creator>
        <cc:license
           rdf:resource="http://web.resource.org/cc/PublicDomain"
           id="license1316" />
        <dc:subject
           id="subject1326">
          <rdf:Bag
             id="Bag1328">
            <rdf:li
               id="li1336">Icon</rdf:li>
          </rdf:Bag>
        </dc:subject>
      </cc:Work>
      <cc:License
         id="License1318"
         rdf:about="http://web.resource.org/cc/PublicDomain">
        <cc:permits
           id="permits1320"
           rdf:resource="http://web.resource.org/cc/Reproduction" />
        <cc:permits
           id="permits1322"
           rdf:resource="http://web.resource.org/cc/Distribution" />
        <cc:permits
           id="permits1324"
           rdf:resource="http://web.resource.org/cc/DerivativeWorks" />
      </cc:License>
    </rdf:RDF>
  </metadata>
  <g
     inkscape:label="Layer 1"
     inkscape:groupmode="layer"
     id="layer1">
    <path
       id="path8175"
       style="fill:#000000;fill-opacity:0.51851851;fill-rule:evenodd;stroke:none;stroke-width:2.0000000;stroke-linecap:butt;stroke-linejoin:bevel;stroke-miterlimit:4.0000000;stroke-opacity:1.0000000"
       d="M 4.5390030,35.555556 C 11.788813,75.776206 24.523243,114.48383 39.338063,153.38060 L 50.307333,157.91961 C 86.493302,144.05042 123.43578,133.96374 160.00000,126.52481 C 141.71789,86.556346 128.92041,46.020488 118.20331,4.3498817 C 79.558703,11.158393 42.048853,20.992908 4.5390030,35.555556 z M 9.6453928,38.581561 C 10.212763,41.418440 10.780143,45.106383 11.914893,48.226951 C 14.184393,47.249803 16.453903,45.988968 18.912533,45.957447 C 17.777773,42.836879 16.832153,39.243499 16.548463,36.312057 C 14.468083,36.627266 11.725773,37.226163 9.6453928,38.581561 z M 109.03073,12.387707 C 109.59811,15.224586 110.16549,18.912529 111.30024,22.033097 C 113.56974,21.055949 115.83924,19.795114 118.29787,19.763593 C 117.16312,16.643025 116.21749,13.049645 115.93381,10.118203 C 113.85343,10.433412 111.11111,11.032309 109.03073,12.387707 z " />
    <path
       id="path2052"
       style="fill:url(#linearGradient5881);fill-opacity:1.0000000;fill-rule:evenodd;stroke:#000000;stroke-width:2.0000000;stroke-linecap:butt;stroke-linejoin:bevel;stroke-miterlimit:4.0000000;stroke-opacity:1.0000000"
       d="M 1.3238770,33.664303 C 8.5736801,73.884948 21.308117,112.59259 36.122932,151.48936 L 47.092199,156.02837 C 83.278172,142.15918 120.22065,132.07250 156.78487,124.63357 C 138.50276,84.665090 125.70528,44.129235 114.98818,2.4586288 C 76.343577,9.2671398 38.833727,19.101655 1.3238770,33.664303 z M 6.4302600,36.690308 C 6.9976359,39.527187 7.5650118,43.215130 8.6997636,46.335698 C 10.969267,45.358550 13.238771,44.097715 15.697399,44.066194 C 14.562648,40.945626 13.617021,37.352246 13.333334,34.420804 C 11.252955,34.736013 8.5106383,35.334910 6.4302600,36.690308 z M 105.81560,10.496454 C 106.38298,13.333333 106.95036,17.021276 108.08511,20.141844 C 110.35461,19.164696 112.62411,17.903861 115.08274,17.872340 C 113.94799,14.751772 113.00236,11.158392 112.71868,8.2269502 C 110.63830,8.5421592 107.89598,9.1410562 105.81560,10.496454 z " />
    <path
       id="path2812"
       style="fill:url(#radialGradient6649);fill-opacity:1.0000000;fill-rule:evenodd;stroke:#000000;stroke-width:2.0000000;stroke-linecap:butt;stroke-linejoin:bevel;stroke-miterlimit:4.0000000;stroke-opacity:1.0000000"
       d="M 57.115839,152.05674 C 50.496453,137.74626 46.146572,121.54453 42.364066,106.28842 C 63.672185,97.399526 84.980304,90.401892 106.85580,85.295508 C 110.07093,102.25375 116.12293,117.13160 122.74232,132.19858 C 100.86683,137.11584 78.991332,144.68085 57.115839,152.05674 z M 50.307328,107.80142 C 53.396375,122.99448 56.296296,132.51380 62.222222,146.00473 C 68.085106,143.42002 71.867613,141.78093 78.108747,140.52009 C 72.624113,128.10086 69.219859,115.30340 66.382979,102.12767 C 61.213554,103.07329 55.287628,105.34279 50.307328,107.80142 z "
       sodipodi:nodetypes="cccccccccc" />
    <path
       style="fill:url(#linearGradient7415);fill-opacity:1.0000000;fill-rule:evenodd;stroke:#000000;stroke-width:2.0000000;stroke-linecap:butt;stroke-linejoin:bevel;stroke-miterlimit:4.0000000;stroke-opacity:1.0000000"
       d="M 15.508274,28.747045 C 20.551615,53.396374 27.486210,79.747831 36.312057,102.69503 C 64.554767,92.356184 92.608352,82.395586 121.98581,76.784870 C 113.28605,53.648542 105.72103,29.566588 99.858152,5.2955082 C 71.300233,11.284476 42.553190,18.597321 15.508274,28.747045 z "
       id="path3583"
       sodipodi:nodetypes="ccccc" />
  </g>
</svg>
